FeH,Age,Mini,L,Te,Bmag,Vmag,Jmag,Kmag
-2.19174,7499978182.030013,0.1000000015,0.0016405897731995387,3614.0986263961313,14.493,12.926,9.981,9.462
-2.19174,7499978182.030013,0.1077258959,0.0021527817347243737,3717.0636679606755,13.978,12.515,9.731,9.161
-2.19174,7499978182.030013,0.1098214313,0.002312064790175594,3744.553155859532,13.849,12.411,9.665,9.085
-2.19174,7499978182.030013,0.1243132725,0.0035075187395256797,3894.0363387971706,13.124,11.818,9.272,8.636
-2.19174,7499978182.030013,0.1294642836,0.0040179081084894,3943.6648538097975,12.897,11.627,9.142,8.492
-2.19174,7499978182.030013,0.1491071582,0.005794286964268809,4048.5545937074157,12.344,11.146,8.781,8.106
-2.19174,7499978182.030013,0.168750003,0.0077090346906443005,4118.129505138526,11.94,10.785,8.494,7.81
-2.19174,7499978182.030013,0.2080357224,0.012302687708123818,4224.740129875454,11.298,10.201,8.018,7.331
-2.19174,7499978182.030013,0.2571428716,0.01918668740670289,4323.146969108837,10.705,9.656,7.567,6.886
-2.19174,7499978182.030013,0.3062500358,0.027039583641088435,4406.563166924702,10.245,9.233,7.218,6.55
-2.19174,7499978182.030013,0.3553571403,0.03589219346450052,4485.387826207934,9.86,8.88,6.931,6.277
-2.19174,7499978182.030013,0.4044643044,0.046773514128719815,4569.82953285961,9.497,8.55,6.668,6.031
-2.19174,7499978182.030013,0.4535714388,0.06456542290346556,4703.2709644077795,9.036,8.14,6.359,5.749
-2.19174,7499978182.030013,0.5026785731,0.09225714271547633,4854.002548344871,8.536,7.698,6.019,5.441
-2.19174,7499978182.030013,0.5517857671,0.13931568029453031,5053.589947531675,7.954,7.189,5.635,5.097
-2.19174,7499978182.030013,0.6008259058,0.21232444620002192,5314.959995066477,7.351,6.675,5.266,4.778
-2.19174,7499978182.030013,0.6008928418,0.21281390459827118,5314.959995066477,7.35,6.675,5.265,4.778
-2.19174,7499978182.030013,0.619566679,0.251188643150958,5433.754339063341,7.114,6.475,5.126,4.66
-2.19174,7499978182.030013,0.6363114715,0.2910717118066605,5542.427233833984,6.908,6.3,5.004,4.557
-2.19174,7499978182.030013,0.6499999762,0.32885163087598307,5632.484431714734,6.742,6.159,4.906,4.473
-2.19174,7499978182.030013,0.6649161577,0.3749730022454835,5730.598740537326,6.562,6.007,4.798,4.382
-2.19174,7499978182.030013,0.6829999685,0.4405548635065533,5850.594519500058,6.35,5.825,4.667,4.27
-2.19174,7499978182.030013,0.698959589,0.5081594425605606,5955.250030412836,6.166,5.666,4.55,4.168
-2.19174,7499978182.030013,0.6999999881,0.5128613839913648,5962.110213666547,6.154,5.656,4.543,4.162
-2.19174,7499978182.030013,0.7099752426,0.5610479760324705,6025.595860743575,6.04,5.556,4.468,4.096
-2.19174,7499978182.030013,0.7275519371,0.6576578373554205,6133.381797926234,5.838,5.379,4.335,3.98
-2.19174,7499978182.030013,0.7436529398,0.7638357835776907,6231.60618945834,5.652,5.215,4.21,3.871
-2.19174,7499978182.030013,0.75,0.8090958991783823,6270.468637308513,5.578,5.149,4.159,3.826
-2.19174,7499978182.030013,0.7523940206,0.8279421637123342,6284.923560377511,5.55,5.124,4.14,3.809
-2.19174,7499978182.030013,0.7629666924,0.9162204901219998,6348.922123377013,5.426,5.013,4.055,3.734
-2.19174,7499978182.030013,0.7729907632,1.0092528860766845,6410.619496207435,5.306,4.906,3.971,3.66
-2.19174,7499978182.030013,0.786749959,1.1561122421920988,6495.311744387624,5.138,4.753,3.852,3.555
-2.19174,7499978182.030013,0.7994558811,1.318256738556407,6573.550444548967,4.977,4.605,3.735,3.451
-2.19174,7499978182.030013,0.8000000119,1.3243415351946646,6576.578373554205,4.97,4.599,3.73,3.446
-2.19174,7499978182.030013,0.8029264212,1.3645831365889245,6596.293937452819,4.932,4.565,3.703,3.422
-2.19174,7499978182.030013,0.8153689504,1.566751070108149,6680.362046792469,4.765,4.411,3.581,3.314
-2.19174,7499978182.030013,0.8257817626,1.7660378206861644,6753.050539950786,4.616,4.274,3.472,3.216
-2.19174,7499978182.030013,0.8353688121,1.9906733389871867,6821.8159793818195,4.47,4.139,3.365,3.119
-2.19174,7499978182.030013,0.8445848227,2.2490546058357808,6891.281648380538,4.322,4.001,3.253,3.018
-2.19174,7499978182.030013,0.8500000238,2.4266100950824154,6931.065451499368,4.228,3.914,3.182,2.954
-2.19174,7499978182.030013,0.8562903404,2.654605561975539,6985.540260326939,4.118,3.812,3.101,2.88
-2.19174,7499978182.030013,0.8657601476,3.069021988391157,7064.802086156543,3.941,3.647,2.967,2.758
-2.19174,7499978182.030013,0.8746689558,3.5563131856898536,7136.742051224741,3.763,3.48,2.83,2.631
-2.19174,7499978182.030013,0.8827381134,4.120975190973302,7191.17735782509,3.588,3.314,2.685,2.496
-2.19174,7499978182.030013,0.8847924471,4.285485203974395,7201.119202497902,3.541,3.269,2.645,2.457
-2.19174,7499978182.030013,0.885638535,4.36515832240166,7202.777512383406,3.52,3.249,2.626,2.438
-2.19174,7499978182.030013,0.8904207349,4.864072056914616,7191.17735782509,3.4,3.129,2.504,2.315
-2.19174,7499978182.030013,0.8950205445,5.482769649208537,7131.813866797403,3.277,3.0,2.356,2.16
-2.19174,7499978182.030013,0.8958386183,5.610479760324705,7115.411150074334,3.254,2.976,2.326,2.128
-2.19174,7499978182.030013,0.8966048956,5.741164622073276,7090.877782620701,3.233,2.951,2.294,2.092
-2.19174,7499978182.030013,0.8991737962,6.237348354824193,6963.057796029315,3.162,2.865,2.162,1.944
-2.19174,7499978182.030013,0.8999999762,6.4416926551517735,6897.631677186048,3.139,2.834,2.107,1.88
-2.19174,7499978182.030013,0.9012320638,6.745280276979219,6796.72971950456,3.106,2.787,2.024,1.782
-2.19174,7499978182.030013,0.9023867846,7.11213513653329,6668.067692136218,3.075,2.738,1.927,1.666
-2.19174,7499978182.030013,0.9032514095,7.413102413009175,6546.361740672747,3.054,2.699,1.842,1.562
-2.19174,7499978182.030013,0.9039171338,7.691304402866097,6432.799272608504,3.042,2.668,1.765,1.466
-2.19174,7499978182.030013,0.9046558142,8.035261221856173,6290.714855478365,3.032,2.632,1.67,1.348
-2.19174,7499978182.030013,0.9052975774,8.35603018231248,6151.7687270986835,3.027,2.6,1.582,1.236
-2.19174,7499978182.030013,0.9058609605,8.629785477669705,6022.82161014634,3.028,2.574,1.502,1.132
-2.19174,7499978182.030013,0.906383574,8.912509381337454,5910.170366102437,3.028,2.55,1.43,1.041
-2.19174,7499978182.030013,0.906885922,9.183325964835808,5810.319310119074,3.027,2.527,1.363,0.955
-2.19174,7499978182.030013,0.9073928595,9.571940712948445,5724.004941344636,3.013,2.492,1.29,0.865
-2.19174,7499978182.030013,0.9079755545,10.209394837076797,5641.570244329835,2.972,2.43,1.191,0.75
-2.19174,7499978182.030013,0.9085351229,11.091748152624008,5582.130689177262,2.903,2.346,1.078,0.626
-2.19174,7499978182.030013,0.9086183906,11.246049739669262,5573.140604637261,2.891,2.332,1.06,0.607
-2.19174,7499978182.030013,0.9090643525,12.246161992650489,5539.875439385942,2.813,2.245,0.957,0.496
-2.19174,7499978182.030013,0.9095836878,13.614446824659497,5505.540984847947,2.711,2.135,0.83,0.362
-2.19174,7499978182.030013,0.9100210667,14.962356560944336,5480.245321768504,2.618,2.035,0.718,0.245
-2.19174,7499978182.030013,0.9104399681,16.481623915255085,5458.835409516774,2.522,1.934,0.606,0.128
-2.19174,7499978182.030013,0.9108904004,18.407720014689556,5435.005651294466,2.412,1.819,0.479,-0.005
-2.19174,7499978182.030013,0.9112717509,20.276827195212817,5416.266187341721,2.312,1.714,0.365,-0.123
-2.19174,7499978182.030013,0.9116678834,22.59435770220978,5396.348637300686,2.202,1.599,0.241,-0.251
-2.19174,7499978182.030013,0.9120026827,24.94594726942955,5378.980873168731,2.102,1.496,0.128,-0.368
-2.19174,7499978182.030013,0.912335217,27.66941645411511,5360.43457816143,1.997,1.386,0.009,-0.491
-2.19174,7499978182.030013,0.9126653075,30.902954325135905,5340.722340937607,1.884,1.268,-0.119,-0.623
-2.19174,7499978182.030013,0.9129490852,34.27677865464503,5322.307958283607,1.779,1.159,-0.237,-0.745
-2.19174,7499978182.030013,0.9132050872,37.93149849736819,5303.957066945361,1.678,1.053,-0.352,-0.864
-2.19174,7499978182.030013,0.9134563208,42.169650342858226,5285.669448009903,1.571,0.941,-0.474,-0.99
-2.19174,7499978182.030013,0.9136909842,46.98941086052154,5266.2321489389715,1.462,0.827,-0.597,-1.118
-2.19174,7499978182.030013,0.9139000177,52.11947111050805,5246.866327776169,1.358,0.718,-0.716,-1.241
-2.19174,7499978182.030013,0.9140905142,57.67664633922506,5227.571721671628,1.256,0.611,-0.834,-1.363
-2.19174,7499978182.030013,0.9142747521,64.26877173170197,5208.348068742078,1.15,0.498,-0.957,-1.492
-2.19174,7499978182.030013,0.9144390821,71.28530301265195,5188.000389289609,1.047,0.388,-1.078,-1.617
-2.19174,7499978182.030013,0.9145908952,79.06786279998249,5168.922254317574,0.944,0.279,-1.199,-1.743
-2.19174,7499978182.030013,0.9147298932,87.70008211436348,5148.7286014054735,0.843,0.171,-1.318,-1.867
-2.19174,7499978182.030013,0.9148591161,97.49896377173872,5128.613839913648,0.741,0.061,-1.439,-1.993
-2.19174,7499978182.030013,0.91497612,107.89467222298286,5108.5776616335625,0.641,-0.046,-1.559,-2.118
-2.19174,7499978182.030013,0.9150828123,119.6740531307243,5088.619759560772,0.542,-0.152,-1.677,-2.241
-2.19174,7499978182.030013,0.9151819348,132.43415351946643,5067.572841772825,0.444,-0.259,-1.796,-2.366
-2.19174,7499978182.030013,0.9152759314,147.57065332758947,5046.612975635282,0.342,-0.369,-1.919,-2.494
-2.19174,7499978182.030013,0.915361762,163.68165214278085,5025.739801095915,0.242,-0.477,-2.04,-2.62
-2.19174,7499978182.030013,0.9154403806,181.13400926196024,5004.95295959168,0.146,-0.583,-2.16,-2.745
-2.19174,7499978182.030013,0.9155175686,201.37242498623874,4984.252094042598,0.047,-0.692,-2.281,-2.872
-2.19174,7499978182.030013,0.9156023264,220.80047330188992,4965.923214503363,-0.04,-0.787,-2.388,-2.984
-2.19174,7499978182.030013,0.9156399965,229.08676527677724,4957.92553906303,-0.074,-0.825,-2.431,-3.028
-2.19174,7499978182.030013,0.9156908989,218.77616239495518,4971.643737252428,-0.033,-0.778,-2.375,-2.969
-2.19174,7499978182.030013,0.9156927466,218.27299118430014,4971.643737252428,-0.032,-0.776,-2.373,-2.967
-2.19174,7499978182.030013,0.9157145023,226.98648518838212,4963.636848845585,-0.068,-0.816,-2.419,-3.014
-2.19174,7499978182.030013,0.9157647491,248.88573182823905,4943.106869868354,-0.153,-0.91,-2.526,-3.127
-2.19174,7499978182.030013,0.9158143401,273.5268726306711,4923.795419719503,-0.242,-1.009,-2.637,-3.243
-2.19174,7499978182.030013,0.9158580899,299.2264636608189,4904.559414451102,-0.324,-1.1,-2.741,-3.352
-2.19174,7499978182.030013,0.9158998132,328.09529311311906,4884.273784229252,-0.405,-1.191,-2.846,-3.463
-2.19174,7499978182.030013,0.9159384966,358.92193464500536,4866.312560731986,-0.487,-1.283,-2.951,-3.572
-2.19174,7499978182.030013,0.9159739017,391.74187710778307,4846.185122401829,-0.564,-1.371,-3.053,-3.68
-2.19174,7499978182.030013,0.9160084128,428.54852039743963,4827.252320650396,-0.637,-1.464,-3.161,-3.792
-2.19174,7499978182.030013,0.9160385132,466.6593803142887,4809.500785490998,-0.705,-1.549,-3.261,-3.896
-2.19174,7499978182.030013,0.9160676003,509.3308710571952,4789.608324977883,-0.771,-1.636,-3.365,-4.003
-2.19174,7499978182.030013,0.9160940647,553.3501092157366,4770.896554256487,-0.832,-1.719,-3.464,-4.107
-2.19174,7499978182.030013,0.9161182046,599.7910762555094,4753.352259428054,-0.89,-1.798,-3.561,-4.207
-2.19174,7499978182.030013,0.9161421061,653.1305526474723,4733.692033483014,-0.946,-1.88,-3.663,-4.313
-2.19174,7499978182.030013,0.9161673784,719.4489780036998,4710.8578542037,-1.007,-1.972,-3.778,-4.433
-2.19174,7499978182.030013,0.9161878228,781.6278045883292,4691.37338834597,-1.056,-2.051,-3.879,-4.538
-2.19174,7499978182.030013,0.9162095785,859.013521505396,4668.743343920188,-1.108,-2.138,-3.992,-4.656
-2.19174,7499978182.030013,0.9162271023,931.10787546783,4651.574703021666,-1.152,-2.212,-4.089,-4.756
-2.19174,7499978182.030013,0.9162454605,1018.5913880541169,4629.136637776056,-1.193,-2.292,-4.197,-4.87
-2.19174,7499978182.030013,0.9162602425,1099.0058394325208,4609.990177075899,-1.219,-2.357,-4.29,-4.966
-2.19174,7499978182.030013,0.9162760973,1196.7405313072431,4590.922907591308,-1.25,-2.43,-4.394,-5.073
-2.19174,7499978182.030013,0.9162892699,1291.2192736135348,4570.881896148751,-1.265,-2.49,-4.487,-5.17
-2.19174,7499978182.030013,0.916302979,1402.8137045619576,4550.928370849554,-1.282,-2.555,-4.588,-5.275
-2.19174,7499978182.030013,0.9163167477,1527.5660582380733,4530.018754322402,-1.32,-2.625,-4.689,-5.382
-2.19174,7499978182.030013,0.9163293839,1651.961798229015,4510.243611171937,-1.354,-2.689,-4.783,-5.482
-2.19174,7499978182.030013,0.916334331,1702.15850839495,4502.9798128808925,-1.367,-2.713,-4.818,-5.519
-2.19174,7499978182.030013,0.916334331,58.34451042737448,6602.372147378005,0.716,0.402,-0.393,-0.649
-2.19174,7499978182.030013,0.9164198637,61.517687270986805,6392.930749102151,0.719,0.367,-0.517,-0.807
-2.19174,7499978182.030013,0.9165023565,61.80164001384158,6387.045353025886,0.716,0.362,-0.524,-0.815
-2.19174,7499978182.030013,0.9165854454,61.94410750767815,6391.458891858142,0.711,0.359,-0.526,-0.817
-2.19174,7499978182.030013,0.9166702628,62.08690342300634,6401.769013178951,0.705,0.355,-0.525,-0.814
-2.19174,7499978182.030013,0.9167553186,62.23002851691595,6416.526614874055,0.698,0.351,-0.523,-0.809
-2.19174,7499978182.030013,0.9168409109,62.373483548241914,6435.762368376424,0.69,0.347,-0.518,-0.801
-2.19174,7499978182.030013,0.916924417,62.373483548241914,6458.029135322341,0.682,0.343,-0.512,-0.791
-2.19174,7499978182.030013,0.9170104861,62.373483548241914,6484.850971441381,0.673,0.339,-0.504,-0.779
-2.19174,7499978182.030013,0.9170895815,62.51726927756859,6508.786108404092,0.665,0.336,-0.497,-0.767
-2.19174,7499978182.030013,0.9171756506,62.51726927756859,6535.818751130748,0.657,0.333,-0.489,-0.755
-2.19174,7499978182.030013,0.917262733,62.51726927756859,6558.43169806728,0.65,0.33,-0.483,-0.745
-2.19174,7499978182.030013,0.9173424244,62.66138646723353,6576.578373554205,0.644,0.327,-0.478,-0.737
-2.19174,7499978182.030013,0.9174269438,62.66138646723353,6590.221323188566,0.639,0.324,-0.475,-0.732
-2.19174,7499978182.030013,0.9175069332,62.8058358813318,6597.8129651395675,0.635,0.322,-0.474,-0.73
-2.19174,7499978182.030013,0.9175234437,62.8058358813318,6599.332342635646,0.634,0.321,-0.474,-0.729
-2.19174,7499978182.030013,0.9175904393,62.95061828571975,6599.332342635646,0.632,0.319,-0.476,-0.731
-2.19174,7499978182.030013,0.9176757336,63.09573444801933,6591.738952443213,0.631,0.317,-0.481,-0.737
-2.19174,7499978182.030013,0.9177638888,63.24118513762193,6575.064234749979,0.632,0.315,-0.49,-0.749
-2.19174,7499978182.030013,0.9178490639,63.53309318517436,6550.885369386104,0.635,0.314,-0.502,-0.765
-2.19174,7499978182.030013,0.9179407954,63.82634861905486,6510.284984348614,0.64,0.312,-0.52,-0.79
-2.19174,7499978182.030013,0.9180296659,64.12095765851615,6461.003852547145,0.649,0.311,-0.542,-0.82
-2.19174,7499978182.030013,0.9181129336,64.56542290346556,6407.667976494362,0.659,0.311,-0.566,-0.854
-2.19174,7499978182.030013,0.9181405902,64.71426157485831,6388.516193898019,0.663,0.31,-0.575,-0.865
-2.19174,7499978182.030013,0.9181725383,64.86344335482384,6365.023332473052,0.668,0.31,-0.585,-0.88
-2.19174,7499978182.030013,0.9182613492,65.31305526474723,6293.612503885458,0.682,0.31,-0.617,-0.925
-2.19174,7499978182.030013,0.9183526635,65.91738952443212,6218.705637987511,0.698,0.31,-0.651,-0.973
-2.19174,7499978182.030013,0.918443203,66.52731562017412,6141.861234063022,0.713,0.309,-0.686,-1.023
-2.19174,7499978182.030013,0.9185298681,67.29766562843179,6072.954118270236,0.725,0.306,-0.72,-1.07
-2.19174,7499978182.030013,0.9186168313,68.07693586937414,6007.586047756748,0.736,0.302,-0.755,-1.117
-2.19174,7499978182.030013,0.9187036753,68.86522963442762,5949.7675675898045,0.743,0.297,-0.787,-1.162
-2.19174,7499978182.030013,0.9187918305,69.82324040771715,5902.010801718442,0.746,0.289,-0.817,-1.202
-2.19174,7499978182.030013,0.9188777208,70.79457843841381,5858.683000573763,0.747,0.28,-0.847,-1.241
-2.19174,7499978182.030013,0.9189667702,70.95777679633888,5877.5996368060005,0.739,0.276,-0.842,-1.231
-2.19174,7499978182.030013,0.9190528393,71.94489780036994,5818.35211048072,0.746,0.269,-0.877,-1.28
-2.19174,7499978182.030013,0.9191437364,74.64487584100665,5726.641550089671,0.741,0.241,-0.949,-1.371
-2.19174,7499978182.030013,0.9192306399,79.43282347242814,5620.824170602134,0.718,0.192,-1.049,-1.493
-2.19174,7499978182.030013,0.9192810059,84.91804750363139,5527.134079444351,0.684,0.134,-1.152,-1.617
-2.19174,7499978182.030013,0.919306159,91.83325964835811,5438.76131720408,0.639,0.064,-1.268,-1.751
-2.19174,7499978182.030013,0.9193164706,99.77000638225536,5364.138714402962,0.584,-0.014,-1.385,-1.885
-2.19174,7499978182.030013,0.9193206429,108.89300933334333,5305.178488808972,0.519,-0.097,-1.499,-2.013
-2.19174,7499978182.030013,0.9193211198,110.66237839776664,5295.414984166674,0.505,-0.114,-1.521,-2.037
-2.19174,7499978182.030013,0.9193217158,113.7627285823431,5282.019497699969,0.482,-0.141,-1.556,-2.074
-2.19174,7499978182.030013,0.919323504,125.02590302177201,5240.829125640289,0.4,-0.237,-1.673,-2.202
-2.19174,7499978182.030013,0.9193250537,135.20725631942764,5210.747154033924,0.332,-0.315,-1.769,-2.304
-2.19174,7499978182.030013,0.9193264842,144.21153515248682,5188.000389289609,0.275,-0.38,-1.846,-2.387
-2.19174,7499978182.030013,0.9193284512,144.87718535447618,5188.000389289609,0.269,-0.386,-1.853,-2.394
-2.19174,7499978182.030013,0.9193330407,144.87718535447618,5190.390101970821,0.268,-0.386,-1.851,-2.392
-2.19174,7499978182.030013,0.9193395972,145.2111617587742,5188.000389289609,0.266,-0.389,-1.855,-2.396
-2.19174,7499978182.030013,0.9193792939,149.6235656094433,5174.876622934801,0.242,-0.418,-1.892,-2.436
-2.19174,7499978182.030013,0.9194049239,161.064563517827,5149.914276478671,0.177,-0.492,-1.981,-2.531
-2.19174,7499978182.030013,0.919434607,182.38957023196383,5109.7540905467595,0.068,-0.617,-2.129,-2.689
-2.19174,7499978182.030013,0.9194627404,207.9696687103696,5068.739827890221,-0.049,-0.751,-2.288,-2.857
-2.19174,7499978182.030013,0.9194880724,232.27367963571075,5038.485348423044,-0.147,-0.863,-2.419,-2.995
-2.19174,7499978182.030013,0.9195104837,256.4484036517716,5010.718442871759,-0.237,-0.964,-2.538,-3.121
-2.19174,7499978182.030013,0.9195300937,282.48799749157075,4985.3998926398735,-0.323,-1.061,-2.651,-3.241
-2.19174,7499978182.030013,0.9195474386,309.7419299216581,4960.2092739597465,-0.405,-1.155,-2.76,-3.356
-2.19174,7499978182.030013,0.9195629954,339.62527259040854,4937.419182496813,-0.485,-1.247,-2.867,-3.47
-2.19174,7499978182.030013,0.9195769429,371.5352290971724,4913.6022729909155,-0.565,-1.337,-2.973,-3.582
-2.19174,7499978182.030013,0.9195898175,406.44332916521273,4891.026321245936,-0.645,-1.429,-3.081,-3.695
-2.19174,7499978182.030013,0.9196015,445.6562483975033,4867.433199621377,-0.721,-1.519,-3.187,-3.808
-2.19174,7499978182.030013,0.9196125865,487.5284901033865,4845.069375499792,-0.796,-1.608,-3.294,-3.92
-2.19174,7499978182.030013,0.9196230769,533.3348954876208,4821.697939006178,-0.863,-1.698,-3.402,-4.033
-2.19174,7499978182.030013,0.9196332097,582.1032177708715,4799.544249319445,-0.927,-1.786,-3.509,-4.145
-2.19174,7499978182.030013,0.9196428061,636.7955209079155,4776.392414964196,-0.988,-1.872,-3.616,-4.257
-2.19174,7499978182.030013,0.9196515083,693.4258060165695,4754.4468852521,-1.043,-1.955,-3.72,-4.366
-2.19174,7499978182.030013,0.9196600318,760.3262769401815,4730.423243999551,-1.098,-2.042,-3.831,-4.482
-2.19174,7499978182.030013,0.919667542,833.681184619634,4706.520991281343,-1.149,-2.127,-3.941,-4.597
-2.19174,7499978182.030013,0.9196736217,907.8205301781861,4684.8964916001305,-1.194,-2.206,-4.045,-4.705
-2.19174,7499978182.030013,0.919678688,984.0111057611335,4663.37134746993,-1.232,-2.278,-4.143,-4.808
-2.19174,7499978182.030013,0.9196838737,1071.519305237606,4639.807899821257,-1.265,-2.353,-4.249,-4.918
-2.19174,7499978182.030013,0.9196881652,1150.8003889444356,4620.617301970837,-1.288,-2.414,-4.337,-5.01
-2.19174,7499978182.030013,0.9196922183,1256.0299636948755,4597.269885308723,-1.309,-2.484,-4.443,-5.121
-2.19174,7499978182.030013,0.9196923375,1258.9254117941675,4596.2114466600115,-1.31,-2.486,-4.447,-5.124
-2.19174,7499978182.030013,0.9196925163,1264.736347471151,4595.153251697754,-1.311,-2.49,-4.453,-5.131
-2.19174,7499978182.030013,0.9196929336,1279.3813041575252,4591.980128368686,-1.313,-2.498,-4.465,-5.144
-2.19174,7499978182.030013,0.9196938276,1303.1667784523,4586.696457982016,-1.317,-2.513,-4.489,-5.168
-2.19174,7499978182.030013,0.919696629,1438.798578255845,4559.319216592223,-1.328,-2.589,-4.612,-5.297
-2.19174,7499978182.030013,0.9196981192,1790.6058540352947,4496.763011769069,-1.401,-2.759,-4.875,-5.578
-2.19174,7499978182.030013,0.9196981788,1807.1741260109275,4493.657830540859,-1.404,-2.768,-4.888,-5.591
-2.19174,7499978182.030013,0.9196982384,1807.1741260109275,4477.133041763624,-1.373,-2.753,-4.893,-5.602
-2.19174,7499978182.030013,0.919698298,1174.897554939529,4597.269885308723,-1.249,-2.416,-4.37,-5.048
-2.19174,7499978182.030013,0.9196983576,851.1380382023768,4688.13382145265,-1.134,-2.138,-3.973,-4.632
-2.19174,7499978182.030013,0.9196985364,493.1738039549359,4842.83865227851,-0.807,-1.621,-3.307,-3.934
-2.19174,7499978182.030013,0.9196987152,495.45019080479005,4840.60895610673,-0.808,-1.625,-3.314,-3.941
-2.19174,7499978182.030013,0.9196990132,566.2392890382534,4800.649512466846,-0.898,-1.756,-3.478,-4.114
-2.19174,7499978182.030013,0.9196993113,841.3951416451947,4685.975353086258,-1.117,-2.125,-3.962,-4.622
-2.19174,7499978182.030013,0.9196997285,1221.7996601648722,4579.3095315174405,-1.232,-2.439,-4.423,-5.105
-2.19174,7499978182.030013,0.9197001457,1570.3628043335532,4508.167045414601,-1.3,-2.633,-4.726,-5.426
-2.19174,7499978182.030013,0.9197006822,1790.6058540352947,4470.951924630434,-1.344,-2.734,-4.884,-5.594
-2.19174,7499978182.030013,0.9197012782,1892.343618644976,4452.459727917414,-1.358,-2.774,-4.951,-5.667
-2.19174,7499978182.030013,0.9197018743,1936.4219639466069,4443.242331287159,-1.359,-2.788,-4.979,-5.698
-2.19174,7499978182.030013,0.9197019339,1415.793779957081,4527.933083871694,-1.237,-2.541,-4.606,-5.3
-2.19174,7499978182.030013,0.9197020531,920.4495717531712,4645.152752227492,-1.123,-2.195,-4.08,-4.749
-2.19174,7499978182.030013,0.9197022915,534.5643593969719,4798.439240638985,-0.834,-1.693,-3.417,-4.053
-2.19174,7499978182.030013,0.9197025895,538.2697825162882,4794.021749415102,-0.836,-1.699,-3.426,-4.063
-2.19174,7499978182.030013,0.9197030067,618.0164001384157,4753.352259428054,-0.917,-1.829,-3.594,-4.24
-2.19174,7499978182.030013,0.9197034836,918.332596483581,4638.7396675603095,-1.103,-2.186,-4.079,-4.749
-2.19174,7499978182.030013,0.9197040796,1333.521432163324,4532.1053854810425,-1.187,-2.483,-4.54,-5.233
-2.19174,7499978182.030013,0.9197047353,1713.9573075084252,4460.669020551353,-1.278,-2.679,-4.841,-5.555
-2.19174,7499978182.030013,0.9197054505,1963.3602768360474,4421.809210742687,-1.318,-2.778,-5.002,-5.729
-2.19174,7499978182.030013,0.9197063446,2084.4908830972886,4401.492842868152,-1.327,-2.818,-5.075,-5.808
-2.19174,7499978182.030013,0.9197072387,2142.8906011200584,4389.34785534717,-1.323,-2.834,-5.111,-5.848
