FeH,Age,Mini,L,Te,Bmag,Vmag,Jmag,Kmag
-1.0,1499995651.3820403,0.0900000036,0.0005767664633922509,2776.514846105508,18.557,16.546,10.788,10.246
-1.0,1499995651.3820403,0.0907628909,0.0006011737374832779,2792.543841237339,18.43,16.428,10.75,10.2
-1.0,1499995651.3820403,0.0937866345,0.0007112135136533288,2859.565178927503,17.916,15.942,10.601,10.012
-1.0,1499995651.3820403,0.0969662592,0.0008433347577642756,2929.5438297694327,17.406,15.458,10.45,9.824
-1.0,1499995651.3820403,0.1000000015,0.000988553094656939,2997.091486307045,16.941,15.021,10.307,9.651
-1.0,1499995651.3820403,0.1053591669,0.0011912420080273751,3063.37384469643,16.468,14.576,10.138,9.453
-1.0,1499995651.3820403,0.1199999973,0.0018879913490962926,3235.936569296281,15.357,13.561,9.713,8.974
-1.0,1499995651.3820403,0.1400000006,0.0028840315031266055,3370.5439929348295,14.503,12.802,9.309,8.545
-1.0,1499995651.3820403,0.1599999964,0.003953666200681279,3458.597315106485,13.935,12.301,8.999,8.224
-1.0,1499995651.3820403,0.2000000179,0.006367955209079156,3578.49158264176,13.148,11.602,8.524,7.738
-1.0,1499995651.3820403,0.25,0.009931160484209335,3677.9007042238622,12.47,10.992,8.08,7.286
-1.0,1499995651.3820403,0.3000000417,0.01412537544622754,3754.9140460984254,11.949,10.521,7.723,6.926
-1.0,1499995651.3820403,0.3492316902,0.020044720273651614,3815.047942794385,11.467,10.079,7.363,6.563
-1.0,1499995651.3820403,0.349999994,0.020137242498623885,3815.926491189337,11.46,10.072,7.358,6.558
-1.0,1499995651.3820403,0.400000006,0.028119008303989407,3911.1097238892944,10.951,9.621,7.025,6.226
-1.0,1499995651.3820403,0.4251759946,0.034355794789987466,3982.9054790171745,10.633,9.343,6.83,6.035
-1.0,1499995651.3820403,0.4499999881,0.041304750199016145,4049.48691518634,10.337,9.089,6.647,5.858
-1.0,1499995651.3820403,0.4506738484,0.04159106104940221,4053.218348593218,10.327,9.08,6.642,5.853
-1.0,1499995651.3820403,0.5,0.06309573444801933,4264.813065450337,9.602,8.474,6.245,5.48
-1.0,1499995651.3820403,0.5500000715,0.09749896377173872,4559.319216592223,8.777,7.805,5.85,5.149
-1.0,1499995651.3820403,0.6000000238,0.14621771744567183,4852.88500162121,8.058,7.207,5.501,4.882
-1.0,1499995651.3820403,0.6499999762,0.2137962089502232,5149.914276478671,7.438,6.681,5.184,4.65
-1.0,1499995651.3820403,0.6759129167,0.2588212915153092,5308.8444423098845,7.144,6.434,5.031,4.536
-1.0,1499995651.3820403,0.6999999881,0.3061963433690677,5456.3221016639,6.889,6.219,4.895,4.433
-1.0,1499995651.3820403,0.7088175416,0.3258367010020088,5509.345391672404,6.799,6.144,4.846,4.396
-1.0,1499995651.3820403,0.75,0.4295364267648873,5757.049982493285,6.401,5.812,4.633,4.23
-1.0,1499995651.3820403,0.7977133989,0.5794286964268811,5986.872372480598,5.997,5.469,4.39,4.026
-1.0,1499995651.3820403,0.8000000119,0.5874893525297767,5996.52985155335,5.978,5.453,4.378,4.016
-1.0,1499995651.3820403,0.833358705,0.7194489780036994,6140.447181056055,5.716,5.227,4.21,3.871
-1.0,1499995651.3820403,0.8500000238,0.7943282347242815,6210.120110685405,5.589,5.117,4.128,3.8
-1.0,1499995651.3820403,0.8592975736,0.8394599865193975,6248.848563929625,5.52,5.056,4.082,3.76
-1.0,1499995651.3820403,0.8988770247,1.0543868963912588,6407.667976494362,5.231,4.804,3.891,3.594
-1.0,1499995651.3820403,0.8999999762,1.0616955571987245,6412.095765851615,5.223,4.797,3.885,3.589
-1.0,1499995651.3820403,0.9340416789,1.2823305826560216,6547.869269722528,4.985,4.587,3.727,3.452
-1.0,1499995651.3820403,0.9499999285,1.3963683610559376,6611.499965410452,4.877,4.49,3.654,3.388
-1.0,1499995651.3820403,0.9808962941,1.6481623915255081,6739.070504398616,4.669,4.305,3.517,3.27
-1.0,1499995651.3820403,1.0,1.823895702319638,6818.675140286001,4.543,4.192,3.434,3.198
-1.0,1499995651.3820403,1.0238697529,2.06062991327,6924.68464322636,4.388,4.054,3.335,3.114
-1.0,1499995651.3820403,1.0499999523,2.3496328208483073,7043.686205287465,4.22,3.904,3.229,3.024
-1.0,1499995651.3820403,1.0593421459,2.4660393372343394,7090.877782620701,4.16,3.851,3.194,2.996
-1.0,1499995651.3820403,1.0823286772,2.760577856220346,7209.414571644229,4.015,3.723,3.108,2.926
-1.0,1499995651.3820403,1.1000000238,3.0060763026282307,7301.296749459656,3.906,3.626,3.044,2.873
-1.0,1499995651.3820403,1.1055939198,3.083187950249354,7336.687144183594,3.871,3.596,3.026,2.86
-1.0,1499995651.3820403,1.1353148222,3.548133892335755,7517.95981512007,3.689,3.438,2.931,2.787
-1.0,1499995651.3820403,1.1499999762,3.793149849736819,7608.516731700471,3.6,3.36,2.885,2.751
-1.0,1499995651.3820403,1.1850758791,4.456562483975033,7843.321188819617,3.393,3.181,2.784,2.675
-1.0,1499995651.3820403,1.2000000477,4.764309868054157,7941.453549446805,3.306,3.106,2.742,2.643
-1.0,1499995651.3820403,1.2132334709,5.05824662003114,8029.712576698627,3.231,3.042,2.705,2.614
-1.0,1499995651.3820403,1.25,5.956621435290105,8266.087535038561,3.028,2.869,2.602,2.532
-1.0,1499995651.3820403,1.2550230026,6.08135001278718,8296.59709310986,3.0,2.846,2.588,2.52
-1.0,1499995651.3820403,1.2967225313,7.3113908348341745,8542.795299048483,2.785,2.662,2.469,2.418
-1.0,1499995651.3820403,1.2999999523,7.413102413009175,8560.517117200949,2.769,2.648,2.46,2.41
-1.0,1499995651.3820403,1.3197484016,8.072350302488383,8665.627169767144,2.673,2.566,2.401,2.358
-1.0,1499995651.3820403,1.3500000238,9.22571427154763,8816.576902621913,2.531,2.441,2.308,2.272
-1.0,1499995651.3820403,1.3661421537,9.908319448927676,8885.870915879294,2.454,2.372,2.253,2.221
-1.0,1499995651.3820403,1.3879318237,10.914403364487566,8966.026125642984,2.351,2.277,2.173,2.145
-1.0,1499995651.3820403,1.3999999762,11.508003889444357,9001.19147103187,2.293,2.224,2.126,2.1
-1.0,1499995651.3820403,1.4003443718,11.534532578210923,9001.19147103187,2.291,2.222,2.125,2.098
-1.0,1499995651.3820403,1.4193437099,12.560299636948749,9042.739083117836,2.199,2.135,2.045,2.021
-1.0,1499995651.3820403,1.4435964823,13.995873225726179,9063.584749580748,2.078,2.019,1.934,1.911
-1.0,1499995651.3820403,1.4500000477,14.421153515248688,9059.411775490596,2.045,1.986,1.901,1.878
-1.0,1499995651.3820403,1.4601507187,15.100801541641486,9046.904377381195,1.993,1.934,1.847,1.824
-1.0,1499995651.3820403,1.4790581465,16.481623915255085,8994.975815300355,1.892,1.832,1.737,1.711
-1.0,1499995651.3820403,1.4983030558,17.988709151287875,8904.304435937422,1.786,1.722,1.612,1.582
-1.0,1499995651.3820403,1.5,18.113400926196025,8892.011178579482,1.776,1.712,1.6,1.57
-1.0,1499995651.3820403,1.5072244406,18.749945080674184,8847.080928705309,1.736,1.669,1.55,1.517
-1.0,1499995651.3820403,1.5233939886,20.23019178678272,8713.647758812182,1.643,1.567,1.424,1.384
-1.0,1499995651.3820403,1.5381137133,21.727011788637444,8566.432555816553,1.559,1.472,1.299,1.252
-1.0,1499995651.3820403,1.5499999523,23.173946499684785,8448.89669484521,1.486,1.389,1.191,1.137
-1.0,1499995651.3820403,1.5540161133,23.65919697485759,8410.07754069233,1.463,1.362,1.155,1.098
-1.0,1499995651.3820403,1.5581076145,24.266100950824157,8384.940786218076,1.436,1.332,1.12,1.062
-1.0,1499995651.3820403,1.5594046116,24.547089156850298,8402.335139076915,1.423,1.322,1.114,1.057
-1.0,1499995651.3820403,1.5649255514,26.121613543992066,8623.826291517664,1.353,1.277,1.118,1.074
-1.0,1499995651.3820403,1.5661762953,27.039583641088434,8820.63802136673,1.324,1.265,1.145,1.112
-1.0,1499995651.3820403,1.5667510033,28.05433637951713,9026.097074709749,1.3,1.257,1.172,1.149
-1.0,1499995651.3820403,1.5670553446,29.174270140011675,9234.215382714592,1.275,1.247,1.194,1.179
-1.0,1499995651.3820403,1.5672329664,30.54921113215514,9429.746114598993,1.247,1.232,1.205,1.199
-1.0,1499995651.3820403,1.5673363209,31.477483141013156,9545.528969328621,1.229,1.222,1.209,1.207
-1.0,1499995651.3820403,1.5673984289,30.338911841942704,9421.064995881912,1.253,1.238,1.21,1.203
-1.0,1499995651.3820403,1.5674716234,29.512092266663856,9215.098887349579,1.261,1.232,1.176,1.161
-1.0,1499995651.3820403,1.5675650835,29.991625189876515,8976.35458909379,1.22,1.176,1.083,1.058
-1.0,1499995651.3820403,1.567700386,31.260793671239558,8733.734791423198,1.155,1.094,0.959,0.922
-1.0,1499995651.3820403,1.567881465,32.284941217126345,8495.716271561207,1.11,1.029,0.847,0.796
-1.0,1499995651.3820403,1.5681179762,32.96097121774578,8262.281737435991,1.092,0.985,0.748,0.682
-1.0,1499995651.3820403,1.5684144497,33.419504002611426,8031.561699226565,1.093,0.956,0.658,0.575
-1.0,1499995651.3820403,1.5687605143,33.72873086588689,7801.893182650611,1.108,0.939,0.573,0.471
-1.0,1499995651.3820403,1.5691314936,33.884415613920254,7577.047328658625,1.135,0.933,0.494,0.369
-1.0,1499995651.3820403,1.5694998503,34.04081897010009,7355.293378672722,1.168,0.935,0.42,0.27
-1.0,1499995651.3820403,1.569844842,34.04081897010009,7141.67364109735,1.207,0.944,0.351,0.175
-1.0,1499995651.3820403,1.5701568127,33.96252725904083,6943.844712409821,1.25,0.956,0.289,0.086
-1.0,1499995651.3820403,1.5704342127,33.80648362059815,6767.059576741911,1.295,0.971,0.236,0.008
-1.0,1499995651.3820403,1.5706796646,33.57376142429547,6613.022494817666,1.34,0.989,0.193,-0.059
-1.0,1499995651.3820403,1.5708975792,33.265955329400455,6477.389306956355,1.384,1.008,0.157,-0.116
-1.0,1499995651.3820403,1.5710932016,32.96097121774578,6359.163628244043,1.431,1.029,0.13,-0.162
-1.0,1499995651.3820403,1.5712769032,32.58367010020087,6253.166606822608,1.477,1.052,0.108,-0.203
-1.0,1499995651.3820403,1.5714682341,31.988951096913972,6151.7687270986835,1.528,1.08,0.093,-0.235
-1.0,1499995651.3820403,1.5716958046,31.18889584093937,6046.4435134475925,1.591,1.118,0.085,-0.262
-1.0,1499995651.3820403,1.5719710588,29.92264636608189,5931.984396649728,1.679,1.176,0.092,-0.277
-1.0,1499995651.3820403,1.5722953081,28.183829312644534,5810.319310119074,1.793,1.257,0.116,-0.277
-1.0,1499995651.3820403,1.5725544691,26.791683248190314,5722.6870922284315,1.885,1.325,0.143,-0.268
-1.0,1499995651.3820403,1.5728135109,25.58585886905645,5638.972803349493,1.97,1.387,0.166,-0.263
-1.0,1499995651.3820403,1.5734112263,26.42408757321946,5501.739205107149,1.995,1.375,0.085,-0.374
-1.0,1499995651.3820403,1.5739078522,29.04022654464451,5433.754339063341,1.924,1.284,-0.041,-0.517
-1.0,1499995651.3820403,1.5744031668,32.43396173493492,5386.4173456235285,1.827,1.173,-0.178,-0.666
-1.0,1499995651.3820403,1.5747983456,35.56313185689853,5355.499708401138,1.742,1.079,-0.289,-0.783
-1.0,1499995651.3820403,1.5751926899,38.99419866765434,5328.439020411989,1.656,0.984,-0.398,-0.899
-1.0,1499995651.3820403,1.5755861998,42.756288615158624,5302.735926292144,1.568,0.889,-0.506,-1.013
-1.0,1499995651.3820403,1.5760768652,47.86300923226383,5271.08476236396,1.461,0.772,-0.64,-1.154
-1.0,1499995651.3820403,1.5765661001,53.57966575133417,5242.036010084628,1.356,0.657,-0.771,-1.293
-1.0,1499995651.3820403,1.5770539045,59.84115950603196,5211.947111050806,1.253,0.545,-0.902,-1.431
-1.0,1499995651.3820403,1.577524066,66.52731562017412,5183.224264170613,1.155,0.437,-1.026,-1.563
-1.0,1499995651.3820403,1.5780051947,73.96052750582378,5154.659707832393,1.057,0.33,-1.151,-1.696
-1.0,1499995651.3820403,1.5784258842,81.09610578538408,5128.613839913648,0.972,0.236,-1.259,-1.812
-1.0,1499995651.3820403,1.5788490772,88.71560120379608,5102.699578594392,0.89,0.144,-1.367,-1.926
-1.0,1499995651.3820403,1.5792679787,97.05099672454898,5078.085396648894,0.811,0.055,-1.472,-2.037
-1.0,1499995651.3820403,1.5797492266,107.3989412341245,5048.937562011554,0.72,-0.048,-1.592,-2.165
-1.0,1499995651.3820403,1.5802037716,118.30415557251646,5021.113054699537,0.636,-0.144,-1.706,-2.286
-1.0,1499995651.3820403,1.5806829929,130.61708881318418,4992.292237091719,0.549,-0.242,-1.823,-2.41
-1.0,1499995651.3820403,1.5811725855,144.21153515248682,4962.494060797449,0.463,-0.341,-1.94,-2.536
-1.0,1499995651.3820403,1.5816589594,158.8546748597779,4932.873744946497,0.38,-0.436,-2.055,-2.659
-1.0,1499995651.3820403,1.5822058916,175.3880501841762,4903.430227918956,0.295,-0.535,-2.173,-2.785
-1.0,1499995651.3820403,1.582870245,193.19683170169242,4874.162454431541,0.213,-0.629,-2.288,-2.909
-1.0,1499995651.3820403,1.5831953287,199.52623149688787,4865.192179849536,0.186,-0.66,-2.326,-2.95
-1.0,1499995651.3820403,1.5836448669,186.63796908346694,4887.648886615807,0.24,-0.596,-2.246,-2.863
-1.0,1499995651.3820403,1.5838348866,172.5837891990204,4912.471004503345,0.305,-0.521,-2.153,-2.762
-1.0,1499995651.3820403,1.5839698315,159.5879147236732,4938.556196176078,0.371,-0.443,-2.058,-2.661
-1.0,1499995651.3820403,1.5841159821,145.54590805819655,4968.210633313916,0.448,-0.354,-1.951,-2.545
-1.0,1499995651.3820403,1.5842745304,133.6595516546442,4996.8924263059425,0.521,-0.269,-1.847,-2.433
-1.0,1499995651.3820403,1.584361434,129.12192736135347,5007.258356403354,0.55,-0.236,-1.807,-2.39
-1.0,1499995651.3820403,1.5845093727,134.2764961137864,4995.741981759636,0.516,-0.274,-1.853,-2.439
-1.0,1499995651.3820403,1.5849699974,149.6235656094433,4962.494060797449,0.424,-0.38,-1.98,-2.576
-1.0,1499995651.3820403,1.5854310989,165.57699634695277,4931.738039549359,0.337,-0.48,-2.101,-2.705
-1.0,1499995651.3820403,1.5858781338,182.38957023196383,4901.172634719431,0.254,-0.577,-2.218,-2.83
-1.0,1499995651.3820403,1.5863082409,200.90928126087277,4871.918336436785,0.173,-0.671,-2.332,-2.954
-1.0,1499995651.3820403,1.5867347717,221.81964198002194,4841.7236758409945,0.093,-0.767,-2.45,-3.081
-1.0,1499995651.3820403,1.5871311426,243.78108183687525,4810.608341479539,0.022,-0.861,-2.564,-3.203
-1.0,1499995651.3820403,1.587506175,267.91683248190316,4780.793661491186,-0.047,-0.953,-2.677,-3.323
-1.0,1499995651.3820403,1.5878614187,294.44216337987604,4751.163763775616,-0.114,-1.043,-2.789,-3.442
-1.0,1499995651.3820403,1.5881924629,322.10687912834345,4721.717503108786,-0.177,-1.131,-2.899,-3.559
-1.0,1499995651.3820403,1.5885049105,353.18316979195697,4692.453741364405,-0.239,-1.218,-3.007,-3.674
-1.0,1499995651.3820403,1.5887898207,384.5917820453535,4664.445252037798,-0.296,-1.3,-3.111,-3.785
-1.0,1499995651.3820403,1.5890617371,419.75898399100777,4635.536446198508,-0.35,-1.381,-3.216,-3.897
-1.0,1499995651.3820403,1.5893169641,457.0881896148752,4607.867686902717,-0.404,-1.461,-3.319,-4.007
-1.0,1499995651.3820403,1.5895512104,497.7370849789361,4579.3095315174405,-0.454,-1.538,-3.418,-4.114
-1.0,1499995651.3820403,1.5897684097,539.5106225151279,4551.9763814842045,-0.5,-1.612,-3.516,-4.22
-1.0,1499995651.3820403,1.5899722576,584.7900841444806,4524.806378555487,-0.547,-1.681,-3.611,-4.325
-1.0,1499995651.3820403,1.5901622772,632.4118513762197,4498.834324565384,-0.594,-1.748,-3.705,-4.428
-1.0,1499995651.3820403,1.5903385878,683.9116472814293,4471.981517887507,-0.637,-1.813,-3.796,-4.529
-1.0,1499995651.3820403,1.5905054808,737.9042301291007,4446.312674691088,-0.681,-1.877,-3.887,-4.629
-1.0,1499995651.3820403,1.5906592607,794.3282347242813,4421.809210742687,-0.722,-1.938,-3.974,-4.727
-1.0,1499995651.3820403,1.5908026695,855.0667128846832,4396.428352878889,-0.761,-1.997,-4.06,-4.822
-1.0,1499995651.3820403,1.5909378529,918.332596483581,4372.199799574554,-0.799,-2.055,-4.144,-4.916
-1.0,1499995651.3820403,1.59106493,984.0111057611335,4348.1047689272755,-0.836,-2.11,-4.226,-5.008
-1.0,1499995651.3820403,1.5911828279,1051.9618738232225,4325.138310350088,-0.87,-2.163,-4.304,-5.096
-1.0,1499995651.3820403,1.591262579,1101.5393095414145,4309.233228186264,-0.893,-2.198,-4.358,-5.156
-1.0,1499995651.3820403,1.591262579,69.66265141107687,5406.298239953035,0.981,0.337,-1.003,-1.486
-1.0,1499995651.3820403,1.5923784971,70.46930689671471,5395.1062251512785,0.974,0.327,-1.019,-1.505
-1.0,1499995651.3820403,1.5935220718,71.28530301265195,5386.4173456235285,0.967,0.316,-1.034,-1.522
-1.0,1499995651.3820403,1.5947477818,72.11074791828997,5378.980873168731,0.958,0.305,-1.05,-1.539
-1.0,1499995651.3820403,1.5959888697,72.94575102545687,5378.980873168731,0.946,0.293,-1.061,-1.551
-1.0,1499995651.3820403,1.5972472429,73.6207097494736,5383.937379843645,0.932,0.281,-1.072,-1.561
-1.0,1499995651.3820403,1.5984964371,74.47319739059893,5387.657756854133,0.918,0.268,-1.083,-1.571
-1.0,1499995651.3820403,1.5997376442,75.33555637337174,5391.380704697852,0.903,0.255,-1.094,-1.581
-1.0,1499995651.3820403,1.6009742022,76.20790100254119,5395.1062251512785,0.889,0.241,-1.105,-1.591
-1.0,1499995651.3820403,1.6021927595,77.090346906443,5398.834319992117,0.874,0.228,-1.116,-1.601
-1.0,1499995651.3820403,1.6022070646,77.090346906443,5398.834319992117,0.874,0.228,-1.116,-1.601
-1.0,1499995651.3820403,1.6024463177,77.44617978025188,5398.834319992117,0.869,0.223,-1.121,-1.607
-1.0,1499995651.3820403,1.604929328,81.09610578538408,5392.622258915705,0.822,0.174,-1.174,-1.66
-1.0,1499995651.3820403,1.6049668789,81.09610578538408,5392.622258915705,0.822,0.174,-1.173,-1.66
-1.0,1499995651.3820403,1.6049910784,80.90958991783822,5393.864099044902,0.823,0.176,-1.171,-1.657
-1.0,1499995651.3820403,1.6050071716,80.72350302488383,5395.1062251512785,0.826,0.179,-1.167,-1.653
-1.0,1499995651.3820403,1.6050243378,80.53784411990665,5396.348637300686,0.829,0.182,-1.163,-1.649
-1.0,1499995651.3820403,1.6050534248,80.16780633876789,5397.591335559007,0.833,0.186,-1.158,-1.644
-1.0,1499995651.3820403,1.6050809622,79.79946872679764,5398.834319992117,0.836,0.19,-1.154,-1.639
-1.0,1499995651.3820403,1.6051038504,79.61593504173187,5400.077590665929,0.839,0.193,-1.15,-1.635
-1.0,1499995651.3820403,1.605134964,79.25013304804718,5401.3211476463475,0.842,0.197,-1.145,-1.63
-1.0,1499995651.3820403,1.6051917076,79.06786279998249,5402.564990999317,0.845,0.2,-1.142,-1.626
-1.0,1499995651.3820403,1.6052757502,78.88601176185544,5405.053537086691,0.848,0.203,-1.138,-1.622
-1.0,1499995651.3820403,1.6053965092,78.52356346100719,5406.298239953035,0.851,0.207,-1.133,-1.617
-1.0,1499995651.3820403,1.6056084633,78.34296427662116,5408.788505661013,0.853,0.21,-1.129,-1.612
-1.0,1499995651.3820403,1.6060619354,77.98301105232585,5412.526055151543,0.855,0.213,-1.124,-1.606
-1.0,1499995651.3820403,1.6077889204,77.8036551039804,5421.2570508795725,0.853,0.214,-1.118,-1.598
-1.0,1499995651.3820403,1.6082389355,77.8036551039804,5421.2570508795725,0.853,0.214,-1.118,-1.598
-1.0,1499995651.3820403,1.6102129221,77.44617978025188,5426.252513290146,0.855,0.218,-1.111,-1.59
-1.0,1499995651.3820403,1.6128451824,76.91304402866095,5432.503314924331,0.86,0.224,-1.102,-1.579
-1.0,1499995651.3820403,1.6164234877,76.38357835776907,5440.013782467271,0.865,0.232,-1.09,-1.566
-1.0,1499995651.3820403,1.6217597723,75.50922276654337,5450.043893417617,0.871,0.241,-1.076,-1.549
-1.0,1499995651.3820403,1.6309621334,74.30191378967014,5466.382281334191,0.88,0.255,-1.054,-1.523
-1.0,1499995651.3820403,1.6494930983,72.11074791828997,5494.143519621415,0.898,0.282,-1.011,-1.473
-1.0,1499995651.3820403,1.6499998569,72.11074791828997,5495.408738576249,0.898,0.282,-1.011,-1.473
-1.0,1499995651.3820403,1.6502242088,72.27698036021702,5495.408738576249,0.896,0.28,-1.014,-1.476
-1.0,1499995651.3820403,1.6604560614,80.53784411990665,5489.085556070448,0.781,0.164,-1.133,-1.596
-1.0,1499995651.3820403,1.6612948179,81.2830516164099,5487.821792914581,0.773,0.155,-1.142,-1.606
-1.0,1499995651.3820403,1.6688725948,87.29713683881117,5447.534633275434,0.713,0.083,-1.235,-1.709
-1.0,1499995651.3820403,1.6738682985,92.25714271547633,5391.380704697852,0.682,0.035,-1.313,-1.8
-1.0,1499995651.3820403,1.6739189625,92.89663867799364,5401.3211476463475,0.669,0.025,-1.318,-1.803
-1.0,1499995651.3820403,1.6767385006,95.2796164023652,5362.9037180085825,0.663,0.007,-1.357,-1.851
-1.0,1499995651.3820403,1.6786854267,100.46157902783946,5286.886658508808,0.648,-0.034,-1.44,-1.952
-1.0,1499995651.3820403,1.6792843342,110.15393095414144,5214.347854144578,0.589,-0.119,-1.565,-2.095
-1.0,1499995651.3820403,1.6794184446,121.89895989248662,5159.409511903314,0.511,-0.217,-1.695,-2.238
-1.0,1499995651.3820403,1.6794502735,129.41958414499862,5133.339643802892,0.464,-0.274,-1.767,-2.316
-1.0,1499995651.3820403,1.6794632673,133.96766874259345,5119.175279997109,0.435,-0.309,-1.81,-2.364
-1.0,1499995651.3820403,1.6794893742,145.2111617587742,5087.448196446911,0.368,-0.388,-1.909,-2.47
-1.0,1499995651.3820403,1.679517746,157.39828644662197,5057.082049785993,0.3,-0.468,-2.007,-2.576
-1.0,1499995651.3820403,1.6795508862,165.57699634695277,5039.645636126428,0.258,-0.518,-2.068,-2.642
-1.0,1499995651.3820403,1.6796135902,161.80800376430662,5048.937562011554,0.278,-0.494,-2.038,-2.609
-1.0,1499995651.3820403,1.6796938181,152.40527537972906,5072.242398926514,0.328,-0.435,-1.965,-2.531
-1.0,1499995651.3820403,1.6799726486,145.2111617587742,5088.619759560772,0.368,-0.388,-1.908,-2.469
-1.0,1499995651.3820403,1.6814008951,157.76112696993485,5057.082049785993,0.298,-0.47,-2.009,-2.578
-1.0,1499995651.3820403,1.682128787,174.98466886246564,5019.957033789469,0.211,-0.572,-2.134,-2.713
-1.0,1499995651.3820403,1.6826796532,194.98445997580455,4980.810283567242,0.123,-0.677,-2.265,-2.854
-1.0,1499995651.3820403,1.6831105947,216.7704104819694,4944.245193336823,0.036,-0.78,-2.392,-2.992
-1.0,1499995651.3820403,1.6834623814,241.54608344449403,4906.818567679515,-0.051,-0.884,-2.521,-3.131
-1.0,1499995651.3820403,1.6837608814,272.89777828080406,4861.832584649837,-0.146,-1.0,-2.669,-3.293
-1.0,1499995651.3820403,1.6840201616,305.49211132155125,4817.25903559163,-0.223,-1.106,-2.807,-3.443
-1.0,1499995651.3820403,1.6842528582,338.84415613920237,4779.692969796099,-0.296,-1.208,-2.935,-3.58
-1.0,1499995651.3820403,1.6844681501,375.8374042884443,4742.419852602448,-0.364,-1.306,-3.06,-3.714
-1.0,1499995651.3820403,1.6846711636,415.9106104940223,4705.437399531806,-0.429,-1.402,-3.183,-3.846
-1.0,1499995651.3820403,1.684863925,460.25657358135584,4659.078201101275,-0.479,-1.493,-3.31,-3.984
-1.0,1499995651.3820403,1.685043335,509.3308710571952,4622.74566491089,-0.539,-1.586,-3.432,-4.116
-1.0,1499995651.3820403,1.6851980686,563.6376558259543,4582.47389928456,-0.591,-1.676,-3.555,-4.249
-1.0,1499995651.3820403,1.6853142977,620.8690342300638,4547.785786436917,-0.64,-1.761,-3.671,-4.375
-1.0,1499995651.3820403,1.6853867769,671.4288529259522,4519.600000304826,-0.685,-1.827,-3.765,-4.48
-1.0,1499995651.3820403,1.6854531765,732.8245331389045,4490.554793555168,-0.735,-1.901,-3.867,-4.592
-1.0,1499995651.3820403,1.6855118275,799.8342550070284,4459.642031793193,-0.783,-1.973,-3.971,-4.708
-1.0,1499995651.3820403,1.6855647564,868.960429286302,4428.942071986359,-0.826,-2.04,-4.07,-4.819
-1.0,1499995651.3820403,1.6856215,950.6047936562819,4397.440784473689,-0.874,-2.113,-4.177,-4.939
-1.0,1499995651.3820403,1.6856814623,1044.7202192208003,4365.158322401661,-0.923,-2.189,-4.287,-5.062
-1.0,1499995651.3820403,1.6857411861,1140.2497875611684,4332.115230872224,-0.966,-2.257,-4.392,-5.18
-1.0,1499995651.3820403,1.6857700348,1205.0359403717973,4313.204006994161,-0.991,-2.298,-4.455,-5.252
-1.0,1499995651.3820403,1.685777545,1267.6518658578461,4293.386634704304,-1.015,-2.337,-4.516,-5.321
-1.0,1499995651.3820403,1.6857858896,1339.6766874259345,4273.660314969303,-1.039,-2.378,-4.581,-5.394
-1.0,1499995651.3820403,1.6857966185,1409.2887984218748,4255.004267591057,-1.058,-2.414,-4.64,-5.462
-1.0,1499995651.3820403,1.6858094931,1342.7649611378642,4271.692674763224,-1.038,-2.379,-4.584,-5.398
-1.0,1499995651.3820403,1.6858097315,1227.4392311584072,4305.266104917106,-0.998,-2.311,-4.478,-5.278
-1.0,1499995651.3820403,1.6858098507,1145.5129414455362,4330.1206773800395,-0.967,-2.26,-4.397,-5.187
-1.0,1499995651.3820403,1.6858099699,1250.25903021772,4298.3324252156535,-1.006,-2.325,-4.5,-5.303
-1.0,1499995651.3820403,1.6858100891,1534.6169827992942,4222.795013060563,-1.085,-2.472,-4.74,-5.577
-1.0,1499995651.3820403,1.6858102083,1674.9428760264382,4191.7946593256365,-1.115,-2.532,-4.843,-5.693
-1.0,1499995651.3820403,1.6858103275,1682.6740610704674,4189.864710967686,-1.116,-2.534,-4.847,-5.698
-1.0,1499995651.3820403,1.6858105659,1588.546748597779,4210.173564456214,-1.097,-2.496,-4.781,-5.623
-1.0,1499995651.3820403,1.6858106852,1545.254439538414,4220.8507917988445,-1.087,-2.476,-4.747,-5.585
-1.0,1499995651.3820403,1.6858108044,1479.1083881682073,4236.429660495409,-1.073,-2.447,-4.698,-5.528
-1.0,1499995651.3820403,1.6858109236,1422.32878712282,4251.087068046156,-1.06,-2.42,-4.651,-5.475
-1.0,1499995651.3820403,1.685811162,1348.9628825916532,4269.725940480334,-1.04,-2.383,-4.59,-5.405
-1.0,1499995651.3820403,1.6858112812,1315.224832192239,4279.568675300529,-1.029,-2.363,-4.559,-5.37
-1.0,1499995651.3820403,1.6858114004,1264.736347471151,4293.386634704304,-1.011,-2.333,-4.512,-5.317
-1.0,1499995651.3820403,1.6858115196,1216.1860006463678,4308.24110479373,-0.993,-2.304,-4.466,-5.264
-1.0,1499995651.3820403,1.685811758,1188.502227437019,4317.1784447092305,-0.983,-2.287,-4.44,-5.235
-1.0,1499995651.3820403,1.6858119965,1452.111617587742,4243.263484275837,-1.066,-2.433,-4.674,-5.501
-1.0,1499995651.3820403,1.6858121157,1475.7065332758946,4237.405246788001,-1.073,-2.446,-4.696,-5.526
-1.0,1499995651.3820403,1.6858124733,1428.8939585111023,4249.129820811196,-1.061,-2.423,-4.657,-5.481
-1.0,1499995651.3820403,1.6858125925,1386.755828871888,4259.9058433220425,-1.051,-2.402,-4.621,-5.44
-1.0,1499995651.3820403,1.6858128309,1333.521432163324,4274.644474923936,-1.034,-2.373,-4.574,-5.388
-1.0,1499995651.3820403,1.6858131886,1267.6518658578461,4293.386634704304,-1.012,-2.335,-4.515,-5.32
-1.0,1499995651.3820403,1.685813427,1224.6161992650489,4305.266104917106,-0.997,-2.31,-4.476,-5.276
-1.0,1499995651.3820403,1.6858136654,1166.8096170609629,4323.146969108837,-0.975,-2.273,-4.418,-5.21
-1.0,1499995651.3820403,1.6858137846,1145.5129414455362,4331.1178393104055,-0.966,-2.258,-4.395,-5.184
-1.0,1499995651.3820403,1.6858139038,1101.5393095414145,4344.101860128392,-0.947,-2.229,-4.351,-5.134
-1.0,1499995651.3820403,1.6858141422,1086.4256236170656,4349.106072324534,-0.939,-2.217,-4.334,-5.115
-1.0,1499995651.3820403,1.6858142614,1132.4003632355566,4334.110703101766,-0.961,-2.25,-4.383,-5.17
-1.0,1499995651.3820403,1.6858143806,1294.1958414499863,4285.485203974396,-1.021,-2.35,-4.539,-5.347
-1.0,1499995651.3820403,1.6858146191,1345.8603540559484,4270.709194407456,-1.039,-2.381,-4.586,-5.401
-1.0,1499995651.3820403,1.6858150959,1297.1792709839558,4284.498548137013,-1.022,-2.352,-4.542,-5.351
-1.0,1499995651.3820403,1.6858154535,1253.1411749414156,4297.342811536805,-1.007,-2.327,-4.503,-5.306
-1.0,1499995651.3820403,1.6858156919,1199.4993031493793,4313.204006994161,-0.987,-2.294,-4.45,-5.246
-1.0,1499995651.3820403,1.6858160496,1148.1536214968828,4330.1206773800395,-0.968,-2.261,-4.398,-5.188
-1.0,1499995651.3820403,1.6858165264,1101.5393095414145,4344.101860128392,-0.947,-2.229,-4.351,-5.134
-1.0,1499995651.3820403,1.6858171225,1061.6955571987241,4357.124805030842,-0.928,-2.2,-4.308,-5.086
-1.0,1499995651.3820403,1.6858183146,1091.440336448756,4347.103696062099,-0.942,-2.221,-4.339,-5.121
-1.0,1499995651.3820403,1.6858208179,1051.9618738232225,4360.1356400039895,-0.924,-2.193,-4.297,-5.073
-1.0,1499995651.3820403,1.6858299971,1091.440336448756,4347.103696062099,-0.943,-2.222,-4.34,-5.122
-1.0,1499995651.3820403,1.685834527,1177.6059735208078,4320.161676181425,-0.98,-2.281,-4.43,-5.223
-1.0,1499995651.3820403,1.6858384609,1174.897554939529,4322.151642327874,-0.979,-2.279,-4.426,-5.219
-1.0,1499995651.3820403,1.6858426332,1202.2644346174131,4312.210969401274,-0.989,-2.296,-4.454,-5.251
-1.0,1499995651.3820403,1.6858472824,1321.2956341865752,4278.583381637386,-1.031,-2.367,-4.564,-5.375
-1.0,1499995651.3820403,1.6858533621,1479.1083881682073,4237.405246788001,-1.074,-2.448,-4.697,-5.527
-1.0,1499995651.3820403,1.6858607531,1659.5869074375614,4194.691248825665,-1.112,-2.526,-4.832,-5.681
-1.0,1499995651.3820403,1.6858689785,1819.7008586099826,4161.980106186026,-1.143,-2.589,-4.94,-5.804
-1.0,1499995651.3820403,1.6858798265,1986.0949173573717,4130.475019901614,-1.17,-2.646,-5.042,-5.922
-1.0,1499995651.3820403,1.6858947277,2172.7011788637456,4098.264649809825,-1.197,-2.705,-5.147,-6.042
-1.0,1499995651.3820403,1.6859107018,2275.0974307720717,4081.3139159697193,-1.21,-2.734,-5.201,-6.104
-1.0,1499995651.3820403,1.6859111786,2275.0974307720717,4081.3139159697193,-1.21,-2.734,-5.201,-6.104
-1.0,1499995651.3820403,1.6859123707,1230.268770812381,4298.3324252156535,-0.989,-2.308,-4.481,-5.285
-1.0,1499995651.3820403,1.6859132051,1039.920165829059,4358.128185607303,-0.91,-2.179,-4.284,-5.062
-1.0,1499995651.3820403,1.685915947,575.4399373371566,4580.364077908267,-0.606,-1.695,-3.577,-4.272
-1.0,1499995651.3820403,1.6859201193,578.0960474057181,4577.2011670508655,-0.609,-1.701,-3.585,-4.281
-1.0,1499995651.3820403,1.6859258413,680.7693586937418,4514.399612669502,-0.691,-1.838,-3.782,-4.499
-1.0,1499995651.3820403,1.6859328747,1023.2929922807537,4362.144019080488,-0.898,-2.164,-4.265,-5.041
-1.0,1499995651.3820403,1.6859414577,1517.050367459337,4218.907465677975,-1.069,-2.457,-4.729,-5.567
-1.0,1499995651.3820403,1.6859517097,1990.6733389871863,4122.873407228869,-1.159,-2.641,-5.047,-5.93
-1.0,1499995651.3820403,1.6859635115,2301.441817408509,4071.927154442865,-1.203,-2.736,-5.216,-6.124
-1.0,1499995651.3820403,1.6859769821,2454.708915685031,4049.48691518634,-1.218,-2.774,-5.289,-6.208
-1.0,1499995651.3820403,1.6859921217,2529.2979964461447,4037.3834645533043,-1.222,-2.79,-5.324,-6.249
-1.0,1499995651.3820403,1.6859927177,1648.1623915255086,4184.080195674278,-1.087,-2.508,-4.827,-5.681
-1.0,1499995651.3820403,1.6859947443,1183.0415557251647,4302.2931593879675,-0.957,-2.269,-4.438,-5.239
-1.0,1499995651.3820403,1.6859984398,654.6361740672747,4520.640796485013,-0.658,-1.799,-3.735,-4.45
-1.0,1499995651.3820403,1.6860039234,657.6578373554206,4518.559443749222,-0.661,-1.804,-3.743,-4.458
-1.0,1499995651.3820403,1.6860111952,772.6805850957021,4457.58876355946,-0.745,-1.935,-3.935,-4.673
-1.0,1499995651.3820403,1.6860204935,1150.8003889444356,4311.218160437416,-0.941,-2.247,-4.404,-5.202
-1.0,1499995651.3820403,1.6860318184,1690.440931643265,4173.495984653169,-1.092,-2.524,-4.857,-5.716
-1.0,1499995651.3820403,1.6860451698,2202.9264630534562,4081.3139159697193,-1.177,-2.699,-5.164,-6.067
-1.0,1499995651.3820403,1.6860605478,2529.2979964461447,4033.6666088992683,-1.215,-2.786,-5.325,-6.252
-1.0,1499995651.3820403,1.6860781908,2685.344445658506,4013.284982627411,-1.229,-2.822,-5.392,-6.33
-1.0,1499995651.3820403,1.6860979795,2754.2287033381663,4004.9767571215903,-1.236,-2.837,-5.422,-6.365
-1.0,1499995651.3820403,1.6860986948,1853.5316234148106,4139.996748197304,-1.121,-2.585,-4.965,-5.84
-1.0,1499995651.3820403,1.686101079,1336.5955165464418,4255.984131337431,-1.007,-2.359,-4.582,-5.403
-1.0,1499995651.3820403,1.6861053705,741.3102413009177,4474.041415755961,-0.722,-1.901,-3.884,-4.616
-1.0,1499995651.3820403,1.686111927,746.448758410067,4469.922568418684,-0.726,-1.907,-3.894,-4.627
-1.0,1499995651.3820403,1.6861205101,874.9837752274364,4409.608164506378,-0.806,-2.034,-4.084,-4.841
-1.0,1499995651.3820403,1.6861315966,1291.2192736135348,4266.777536749634,-0.989,-2.332,-4.541,-5.358
-1.0,1499995651.3820403,1.6861448288,1879.3168168032685,4131.426206427586,-1.118,-2.589,-4.982,-5.861
-1.0,1499995651.3820403,1.6861606836,2437.8108183687523,4041.103745134904,-1.192,-2.755,-5.282,-6.206
-1.0,1499995651.3820403,1.6861789227,2792.543841237339,3993.006342231626,-1.224,-2.838,-5.441,-6.39
-1.0,1499995651.3820403,1.6861997843,2971.666031738025,3971.001032638907,-1.235,-2.871,-5.51,-6.471
-1.0,1499995651.3820403,1.6862231493,3054.9211132155124,3960.0438961152527,-1.237,-2.886,-5.544,-6.511
-1.0,1499995651.3820403,1.6862238646,2147.8304741305333,4080.3742668966966,-1.15,-2.671,-5.137,-6.041
-1.0,1499995651.3820403,1.6862262487,1555.965631605075,4194.691248825665,-1.045,-2.456,-4.76,-5.61
-1.0,1499995651.3820403,1.6862307787,864.967918775693,4409.608164506378,-0.792,-2.02,-4.07,-4.827
-1.0,1499995651.3820403,1.6862373352,868.960429286302,4406.563166924702,-0.794,-2.023,-4.076,-4.834
-1.0,1499995651.3820403,1.6862461567,1016.2486928706959,4347.103696062099,-0.868,-2.144,-4.261,-5.043
-1.0,1499995651.3820403,1.6862573624,1475.7065332758946,4210.173564456214,-1.021,-2.416,-4.699,-5.542
-1.0,1499995651.3820403,1.6862709522,2118.3611352485023,4079.4348341609566,-1.133,-2.655,-5.122,-6.026
-1.0,1499995651.3820403,1.6862870455,2710.1916318908416,3991.167918200923,-1.191,-2.804,-5.408,-6.358
-1.0,1499995651.3820403,1.6863057613,3090.295432513592,3943.6648538097975,-1.21,-2.874,-5.56,-6.535
-1.0,1499995651.3820403,1.6863269806,3273.406948788383,3921.931463326502,-1.21,-2.899,-5.626,-6.613
-1.0,1499995651.3820403,1.6863508224,3365.115693754908,3910.2092612681363,-1.206,-2.909,-5.657,-6.651
-1.0,1499995651.3820403,1.6863514185,2466.0393372343387,4016.983057462358,-1.38,-2.888,-5.318,-6.212
-1.0,1499995651.3820403,1.6863535643,1794.7336268325266,4129.524052369216,-1.216,-2.651,-4.947,-5.793
-1.0,1499995651.3820403,1.6863574982,1009.2528860766844,4344.101860128392,-0.895,-2.195,-4.268,-5.029
-1.0,1499995651.3820403,1.6863633394,1006.9316688518045,4343.101708860921,-0.894,-2.194,-4.267,-5.028
-1.0,1499995651.3820403,1.6863712072,1174.897554939529,4283.512119459382,-0.982,-2.318,-4.449,-5.234
-1.0,1499995651.3820403,1.6863811016,1686.5530253887407,4145.720317867256,-1.174,-2.597,-4.875,-5.714
-1.0,1499995651.3820403,1.686393261,2393.3157564053877,4013.284982627411,-1.344,-2.851,-5.284,-6.181
-1.0,1499995651.3820403,1.6864074469,3047.8949896279833,3920.125762951651,-1.443,-3.012,-5.564,-6.504
-1.0,1499995651.3820403,1.686424017,3467.368504525317,3866.339621093609,-1.469,-3.083,-5.716,-6.681
-1.0,1499995651.3820403,1.686442852,3681.289736425313,3836.1890380502714,-1.469,-3.108,-5.785,-6.766
-1.0,1499995651.3820403,1.6864639521,3801.8939632056126,3815.047942794385,-1.447,-3.108,-5.823,-6.815
-1.0,1499995651.3820403,1.6864645481,2890.6798823654744,3917.4187710778306,-1.389,-2.953,-5.506,-6.447
-1.0,1499995651.3820403,1.6864666939,2108.6281499332886,4036.4539296760486,-1.25,-2.739,-5.143,-6.029
-1.0,1499995651.3820403,1.6864706278,1196.7405313072431,4263.831169000789,-0.975,-2.322,-4.472,-5.265
-1.0,1499995651.3820403,1.686476469,1188.502227437019,4264.813065450337,-0.97,-2.316,-4.464,-5.256
-1.0,1499995651.3820403,1.6864842176,1380.3842646028852,4200.4904339619925,-1.042,-2.427,-4.643,-5.461
-1.0,1499995651.3820403,1.6864939928,1954.3394557753943,4055.085354483839,-1.198,-2.673,-5.054,-5.933
-1.0,1499995651.3820403,1.6865060329,2735.268726306711,3913.812356122119,-1.33,-2.892,-5.445,-6.389
-1.0,1499995651.3820403,1.6865200996,3443.4993076333844,3814.169596669385,-1.37,-3.013,-5.713,-6.706
-1.0,1499995651.3820403,1.6865365505,3899.419866765436,3754.9140460984254,-1.37,-3.061,-5.855,-6.88
-1.0,1499995651.3820403,1.6865551472,4120.975190973304,3719.632211619559,-1.352,-3.071,-5.92,-6.964
-1.0,1499995651.3820403,1.686576128,4246.19563946313,3693.175960479867,-1.324,-3.063,-5.953,-7.013
-1.0,1499995651.3820403,1.6865767241,3341.950400261143,3789.6578379947123,-1.298,-2.951,-5.683,-6.69
-1.0,1499995651.3820403,1.6865788698,2454.708915685031,3918.3208939411097,-1.228,-2.781,-5.327,-6.269
-1.0,1499995651.3820403,1.6865825653,1402.8137045619576,4163.897210251638,-1.011,-2.414,-4.669,-5.502
-1.0,1499995651.3820403,1.6865881681,1383.566378971781,4167.734067976717,-1.002,-2.403,-4.653,-5.484
-1.0,1499995651.3820403,1.6865957975,1603.2453906900419,4098.264649809825,-1.057,-2.5,-4.827,-5.688
-1.0,1499995651.3820403,1.6866053343,2233.5722228305326,3944.573020752785,-1.173,-2.708,-5.219,-6.149
-1.0,1499995651.3820403,1.6866168976,3083.1879502493534,3798.3939015450715,-1.24,-2.878,-5.592,-6.594
-1.0,1499995651.3820403,1.6866306067,3837.0724549227884,3695.72799739443,-1.239,-2.964,-5.842,-6.902
-1.0,1499995651.3820403,1.6866464615,4315.19076827765,3634.9630454608155,-1.218,-2.995,-5.974,-7.068
-1.0,1499995651.3820403,1.6866644621,4539.416166502032,3599.979270433565,-1.186,-2.992,-6.03,-7.147
-1.0,1499995651.3820403,1.6866848469,4655.860935229591,3572.7283815192886,-1.15,-2.976,-6.057,-7.192
-1.0,1499995651.3820403,1.6866854429,3810.65823393773,3660.1594055804926,-1.157,-2.904,-5.834,-6.915
-1.0,1499995651.3820403,1.6866872311,2811.9008303989394,3794.0233553289568,-1.148,-2.777,-5.489,-6.495
-1.0,1499995651.3820403,1.6866906881,1618.0800376430661,4051.3522022926395,-1.003,-2.468,-4.847,-5.729
-1.0,1499995651.3820403,1.6866958141,1584.893192461114,4058.8219466191827,-0.993,-2.454,-4.823,-5.702
-1.0,1499995651.3820403,1.6867026091,1828.1002161427427,3985.6577231340093,-1.033,-2.537,-4.993,-5.905
-1.0,1499995651.3820403,1.6867113113,2517.676927758854,3829.1290212080958,-1.111,-2.708,-5.365,-6.353
-1.0,1499995651.3820403,1.6867218018,3427.6778654645045,3681.289736425313,-1.105,-2.826,-5.716,-6.785
-1.0,1499995651.3820403,1.6867341995,4226.686142656029,3578.49158264176,-1.072,-2.884,-5.949,-7.081
-1.0,1499995651.3820403,1.6867486238,4720.630412635905,3518.0337377370256,-1.034,-2.9,-6.069,-7.24
-1.0,1499995651.3820403,1.6867649555,4943.106869868354,3484.175319018589,-0.996,-2.891,-6.121,-7.315
-1.0,1499995651.3820403,1.686783433,5069.907082747044,3458.597315106485,-0.956,-2.871,-6.145,-7.356
-1.0,1499995651.3820403,1.6867839098,4275.62886151586,3533.4585410890204,-0.981,-2.825,-5.963,-7.124
-1.0,1499995651.3820403,1.6867856979,3169.56746304349,3671.131996879641,-1.012,-2.732,-5.632,-6.707
-1.0,1499995651.3820403,1.6867889166,1840.7720014689564,3934.5946763407965,-0.962,-2.491,-5.008,-5.945
-1.0,1499995651.3820403,1.686793685,1794.7336268325266,3945.481396833012,-0.951,-2.474,-4.978,-5.909
-1.0,1499995651.3820403,1.6868000031,2065.3801558105292,3869.9022919026884,-0.976,-2.543,-5.142,-6.11
-1.0,1499995651.3820403,1.6868081093,2805.433637951713,3712.786702756398,-0.987,-2.667,-5.495,-6.547
-1.0,1499995651.3820403,1.6868178844,3767.0379898390893,3565.3321878292813,-0.937,-2.746,-5.823,-6.965
-1.0,1499995651.3820403,1.686829567,4602.565735813559,3462.5814654379196,-0.879,-2.781,-6.04,-7.249
-1.0,1499995651.3820403,1.6868429184,5116.818355403078,3404.081897010009,-0.84,-2.788,-6.152,-7.401
-1.0,1499995651.3820403,1.6868582964,5345.643593969719,3369.7679858440365,-0.816,-2.781,-6.199,-7.472
-1.0,1499995651.3820403,1.6868754625,5470.159628939716,3345.0298682601374,-0.785,-2.763,-6.222,-7.511
-1.0,1499995651.3820403,1.6868759394,4764.309868054156,3407.218616593573,-0.773,-2.719,-6.075,-7.322
-1.0,1499995651.3820403,1.6868774891,3548.133892335753,3546.5002924732053,-0.838,-2.654,-5.757,-6.911
-1.0,1499995651.3820403,1.6868803501,2079.696687103696,3813.2914527677754,-0.889,-2.485,-5.156,-6.154
-1.0,1499995651.3820403,1.6868846416,2013.7242498623875,3827.366048098136,-0.879,-2.466,-5.119,-6.11
-1.0,1499995651.3820403,1.6868903637,2312.064790175594,3752.321139027498,-0.882,-2.518,-5.277,-6.308
-1.0,1499995651.3820403,1.6868976355,3104.5595881283557,3596.665093461474,-0.828,-2.597,-5.61,-6.733
-1.0,1499995651.3820403,1.6869063377,4120.975190973304,3450.6427620182526,-0.746,-2.646,-5.917,-7.135
-1.0,1499995651.3820403,1.6869168282,4988.844874600121,3350.425766809598,-0.696,-2.672,-6.121,-7.407
-1.0,1499995651.3820403,1.6869288683,5508.076964054036,3291.546539470676,-0.674,-2.681,-6.228,-7.552
-1.0,1499995651.3820403,1.6869425774,5741.164622073275,3256.8668220166983,-0.642,-2.668,-6.275,-7.62
-1.0,1499995651.3820403,1.6869579554,5861.3816451402845,3229.2375955486873,-0.601,-2.642,-6.297,-7.66
-1.0,1499995651.3820403,1.6869584322,5272.298614228227,3277.932453002282,-0.595,-2.609,-6.179,-7.512
-1.0,1499995651.3820403,1.6869599819,3944.573020752785,3414.286807579689,-0.614,-2.536,-5.866,-7.11
-1.0,1499995651.3820403,1.6869627237,2328.091257665008,3677.053933782149,-0.735,-2.421,-5.291,-6.365
-1.0,1499995651.3820403,1.6869668961,2243.881923782766,3692.325673185324,-0.733,-2.404,-5.248,-6.314
-1.0,1499995651.3820403,1.6869724989,2570.3957827688646,3615.76336361097,-0.694,-2.431,-5.401,-6.512
-1.0,1499995651.3820403,1.6869795322,3419.794425137087,3461.784268375584,-0.6,-2.474,-5.713,-6.924
-1.0,1499995651.3820403,1.6869881153,4487.453899331323,3318.944575526103,-0.51,-2.504,-6.002,-7.311
-1.0,1499995651.3820403,1.6869982481,5382.697825162882,3219.585775790117,-0.486,-2.534,-6.204,-7.573
-1.0,1499995651.3820403,1.6870100498,5929.2532458,3158.6390484234703,-0.432,-2.528,-6.313,-7.715
-1.0,1499995651.3820403,1.6870234013,6180.164001384158,3120.326216598013,-0.372,-2.501,-6.362,-7.783
-1.0,1499995651.3820403,1.6870384216,6295.061828571975,3088.1614691845125,-0.307,-2.463,-6.387,-7.823
-1.0,1499995651.3820403,1.6870387793,5834.451042737448,3122.4824062232706,-0.325,-2.447,-6.299,-7.719
-1.0,1499995651.3820403,1.6870402098,4385.306977749856,3254.61783498046,-0.341,-2.37,-5.976,-7.326
-1.0,1499995651.3820403,1.6870428324,2612.1613543992053,3510.750771848301,-0.469,-2.28,-5.418,-6.598
-1.0,1499995651.3820403,1.6870466471,2500.345361696432,3530.2056037666052,-0.473,-2.266,-5.369,-6.537
-1.0,1499995651.3820403,1.6870517731,2857.5905433749467,3455.413295778485,-0.417,-2.277,-5.513,-6.73
-1.0,1499995651.3820403,1.6870582104,3758.374042884443,3308.2627885569786,-0.299,-2.295,-5.806,-7.123
-1.0,1499995651.3820403,1.6870661974,4864.072056914614,3171.757679067707,-0.268,-2.344,-6.093,-7.489
-1.0,1499995651.3820403,1.6870754957,5780.960474057181,3078.93130974161,-0.2,-2.357,-6.292,-7.732
-1.0,1499995651.3820403,1.6870863438,6309.57344480193,3027.610480923131,-0.141,-2.348,-6.392,-7.85
-1.0,1499995651.3820403,1.6870986223,6546.361740672747,3001.9261222416912,-0.107,-2.338,-6.436,-7.9
-1.0,1499995651.3820403,1.6871124506,6652.731562017413,2988.821646959374,-0.086,-2.33,-6.456,-7.923
-1.0,1499995651.3820403,1.6871128082,6353.309318517436,3010.2322206633794,-0.099,-2.322,-6.402,-7.865
-1.0,1499995651.3820403,1.6871141195,4808.393484497285,3149.923452784473,-0.204,-2.294,-6.082,-7.49
-1.0,1499995651.3820403,1.6871165037,2890.6798823654744,3420.581952567498,-0.333,-2.226,-5.526,-6.767
-1.0,1499995651.3820403,1.6871199608,2747.8941531023975,3438.7452222912716,-0.33,-2.205,-5.471,-6.7
-1.0,1499995651.3820403,1.6871246099,3133.2857243155854,3348.1121738605384,-0.224,-2.179,-5.61,-6.901
-1.0,1499995651.3820403,1.6871304512,4083.1938633269233,3181.9987155303106,-0.102,-2.172,-5.902,-7.293
-1.0,1499995651.3820403,1.6871376038,5223.9618899911975,3027.610480923131,0.042,-2.153,-6.185,-7.643
-1.0,1499995651.3820403,1.6871460676,6165.9500186148225,2916.755328939502,0.177,-2.121,-6.384,-7.862
-1.0,1499995651.3820403,1.687155962,6714.288529259523,2847.082159799288,0.276,-2.085,-6.492,-7.975
-1.0,1499995651.3820403,1.6871671677,6950.243175887969,2800.9154553829208,0.355,-2.046,-6.543,-8.023
-1.0,1499995651.3820403,1.6871796846,7079.457843841381,2765.03096983568,0.427,-2.003,-6.572,-8.047
-1.0,1499995651.3820403,1.6871800423,6966.265141107687,2770.1290391637326,0.43,-1.995,-6.553,-8.028
-1.0,1499995651.3820403,1.6871812344,5296.634438916581,2909.3769918965468,0.345,-1.951,-6.218,-7.697
-1.0,1499995651.3820403,1.6871833801,3213.660538640318,3200.368594586517,0.117,-1.943,-5.639,-7.021
-1.0,1499995651.3820403,1.6871865988,3040.88502567628,3238.1726473132535,0.094,-1.945,-5.576,-6.937
-1.0,1499995651.3820403,1.6871908903,3467.368504525317,3154.278240344361,0.14,-1.947,-5.725,-7.131
-1.0,1499995651.3820403,1.6871962547,4477.133041763624,2979.2023371471673,0.339,-1.896,-6.023,-7.491
-1.0,1499995651.3820403,1.6872029305,5662.3928903825345,2814.4918798121453,0.54,-1.847,-6.317,-7.799
-1.0,1499995651.3820403,1.6872106791,6637.43070401909,2711.4400086883093,0.647,-1.836,-6.519,-7.985
-1.0,1499995651.3820403,1.687219739,7211.074791828998,2681.0196680906333,0.654,-1.863,-6.62,-8.079
-1.0,1499995651.3820403,1.6872301102,7481.6950051115455,2716.4392688390835,0.56,-1.943,-6.653,-8.121
-1.0,1499995651.3820403,1.6872416735,7620.790100254122,2809.9591088425027,0.342,-2.102,-6.653,-8.134
