FeH,Age,Mini,L,Te,Bmag,Vmag,Jmag,Kmag
-2.19174,10000000000.0,0.1000000015,0.001651961798229015,3617.4288676421797,14.48,12.916,9.976,9.456
-2.19174,10000000000.0,0.1098214313,0.0023227367963571076,3748.003605517044,13.836,12.402,9.66,9.079
-2.19174,10000000000.0,0.1294642836,0.004045758916974429,3947.298776597855,12.883,11.616,9.134,8.483
-2.19174,10000000000.0,0.1491071582,0.005874893525297769,4051.3522022926395,12.325,11.129,8.767,8.092
-2.19174,10000000000.0,0.168750003,0.00783429642766212,4120.975190973304,11.917,10.764,8.476,7.791
-2.19174,10000000000.0,0.2080357224,0.012531411749414162,4226.686142656029,11.275,10.179,7.999,7.31
-2.19174,10000000000.0,0.2571428716,0.01940885877592778,4325.138310350088,10.688,9.64,7.553,6.873
-2.19174,10000000000.0,0.3062500358,0.027227013080779128,4409.608164506378,10.234,9.223,7.211,6.542
-2.19174,10000000000.0,0.3553571403,0.03614098626396133,4489.520924135662,9.85,8.872,6.926,6.273
-2.19174,10000000000.0,0.4044643044,0.04742419852602446,4575.093773298477,9.477,8.532,6.655,6.019
-2.19174,10000000000.0,0.4535714388,0.06606934480075961,4714.113123725611,9.004,8.112,6.338,5.731
-2.19174,10000000000.0,0.5026785731,0.09527961640236521,4869.675251658631,8.489,7.657,5.988,5.414
-2.19174,10000000000.0,0.5517857671,0.14791083881682077,5081.594425605605,7.874,7.119,5.581,5.048
-2.19174,10000000000.0,0.5857208967,0.2023019178678272,5274.727156616845,7.425,6.737,5.306,4.811
-2.19174,10000000000.0,0.6008928418,0.23173946499684786,5360.43457816143,7.235,6.575,5.189,4.709
-2.19174,10000000000.0,0.6122335792,0.25822601906345966,5437.50914029847,7.083,6.445,5.097,4.632
-2.19174,10000000000.0,0.6268576384,0.2971666031738026,5539.875439385942,6.887,6.279,4.981,4.533
-2.19174,10000000000.0,0.639921844,0.3372873086588689,5632.484431714734,6.713,6.131,4.878,4.445
-2.19174,10000000000.0,0.6499999762,0.37153522909717257,5705.582638711286,6.581,6.019,4.798,4.377
-2.19174,10000000000.0,0.657815218,0.4017908108489399,5759.701812546716,6.478,5.931,4.735,4.323
-2.19174,10000000000.0,0.6703730822,0.45498806015004856,5847.900841444806,6.315,5.79,4.632,4.234
-2.19174,10000000000.0,0.6827355027,0.5152286445817565,5934.716805530554,6.156,5.652,4.528,4.143
-2.19174,10000000000.0,0.6937191486,0.5767664633922508,6010.353280502418,6.013,5.527,4.433,4.059
-2.19174,10000000000.0,0.6999999881,0.6151768727098681,6053.408747539136,5.931,5.455,4.379,4.011
-2.19174,10000000000.0,0.7001399994,0.6165950018614822,6054.802756898621,5.929,5.454,4.377,4.01
-2.19174,10000000000.0,0.7127580047,0.7046930689671469,6137.620051647939,5.762,5.305,4.262,3.908
-2.19174,10000000000.0,0.7249028087,0.8053784411990667,6215.842477525222,5.596,5.157,4.146,3.804
-2.19174,10000000000.0,0.7357031107,0.9120108393559098,6284.923560377511,5.444,5.02,4.037,3.706
-2.19174,10000000000.0,0.7458791137,1.030386120441616,6350.384185040406,5.295,4.884,3.927,3.607
-2.19174,10000000000.0,0.75,1.0839269140212036,6375.290810349068,5.233,4.827,3.88,3.565
-2.19174,10000000000.0,0.7573733926,1.1885022274370185,6425.397500373017,5.118,4.723,3.796,3.489
-2.19174,10000000000.0,0.7659596205,1.333521432163324,6484.850971441381,4.978,4.594,3.691,3.394
-2.19174,10000000000.0,0.7741832137,1.5031419660900223,6541.841235692386,4.836,4.462,3.582,3.293
-2.19174,10000000000.0,0.7818735242,1.6904409316432643,6596.293937452819,4.693,4.329,3.47,3.191
-2.19174,10000000000.0,0.7911351919,1.9769696401118606,6658.861776861276,4.508,4.154,3.321,3.052
-2.19174,10000000000.0,0.7996870875,2.3173946499684783,6714.288529259523,4.318,3.974,3.163,2.903
-2.19174,10000000000.0,0.8000000119,2.333458062281003,6715.83472933331,4.311,3.968,3.158,2.898
-2.19174,10000000000.0,0.8012469411,2.3878112829131775,6723.5710723431885,4.283,3.941,3.135,2.876
-2.19174,10000000000.0,0.8072428107,2.69773943244492,6759.273194551448,4.14,3.805,3.013,2.761
-2.19174,10000000000.0,0.813888669,3.118889584093937,6785.783509504071,3.973,3.643,2.863,2.615
-2.19174,10000000000.0,0.815215528,3.2210687912834346,6785.783509504071,3.937,3.608,2.829,2.581
-2.19174,10000000000.0,0.8159553409,3.2809529311311905,6785.783509504071,3.916,3.587,2.808,2.56
-2.19174,10000000000.0,0.8201174736,3.672823004980846,6767.059576741911,3.794,3.463,2.679,2.43
-2.19174,10000000000.0,0.8240900636,4.1591061049402205,6708.107287992274,3.666,3.329,2.525,2.267
-2.19174,10000000000.0,0.8247935176,4.265795188015927,6692.679069358428,3.642,3.303,2.493,2.233
-2.19174,10000000000.0,0.8254301548,4.36515832240166,6671.139157966478,3.619,3.277,2.459,2.196
-2.19174,10000000000.0,0.8275688887,4.775292736576909,6575.064234749979,3.54,3.185,2.332,2.054
-2.19174,10000000000.0,0.8291983008,5.152286445817564,6459.516322696259,3.48,3.107,2.209,1.914
-2.19174,10000000000.0,0.8304694891,5.533501092157366,6325.574863525833,3.435,3.038,2.088,1.771
-2.19174,10000000000.0,0.831491828,5.902010801718443,6180.164001384158,3.403,2.978,1.969,1.626
-2.19174,10000000000.0,0.8323431015,6.266138646723355,6033.926282193056,3.378,2.924,1.854,1.486
-2.19174,10000000000.0,0.8330845833,6.637430704019088,5899.293451041436,3.354,2.871,1.745,1.354
-2.19174,10000000000.0,0.8337686062,7.06317554262962,5780.960474057181,3.325,2.816,1.639,1.225
-2.19174,10000000000.0,0.8344550133,7.655966069112563,5676.753024298228,3.274,2.739,1.516,1.083
-2.19174,10000000000.0,0.8349918127,8.31763771102671,5611.771769773147,3.208,2.656,1.402,0.957
-2.19174,10000000000.0,0.8355230689,9.183325964835808,5559.042572704037,3.119,2.554,1.276,0.82
-2.19174,10000000000.0,0.8356021047,9.35405674147552,5552.646171195634,3.103,2.537,1.255,0.798
-2.19174,10000000000.0,0.8360364437,10.280162981264736,5522.045744453592,3.01,2.436,1.14,0.676
-2.19174,10000000000.0,0.8365164995,11.534532578210923,5491.613955526368,2.898,2.317,1.005,0.535
-2.19174,10000000000.0,0.8369216919,12.76438808811344,5468.900223137939,2.795,2.209,0.886,0.411
-2.19174,10000000000.0,0.8373119831,14.190575216890918,5448.789118901898,2.69,2.099,0.766,0.286
-2.19174,10000000000.0,0.8376754522,15.703628043335524,5428.7519703968255,2.586,1.99,0.647,0.162
-2.19174,10000000000.0,0.8380178809,17.458221529205037,5410.034068634678,2.481,1.88,0.527,0.039
-2.19174,10000000000.0,0.8383606076,19.498445997580454,5391.380704697852,2.366,1.761,0.399,-0.094
-2.19174,10000000000.0,0.8386568427,21.6271852372702,5372.791656065097,2.26,1.651,0.28,-0.217
-2.19174,10000000000.0,0.8389482498,24.210290467361776,5354.266700982399,2.147,1.533,0.153,-0.348
-2.19174,10000000000.0,0.8392127752,26.977394324449207,5335.805618460333,2.036,1.418,0.028,-0.477
-2.19174,10000000000.0,0.8394520879,30.060763026282306,5317.408188271428,1.927,1.304,-0.094,-0.604
-2.19174,10000000000.0,0.8396703005,33.419504002611426,5297.854174488645,1.82,1.192,-0.216,-0.73
-2.19174,10000000000.0,0.8398764729,37.23917062545685,5279.587597837324,1.708,1.076,-0.342,-0.859
-2.19174,10000000000.0,0.8400607109,41.495404263436306,5261.38400287851,1.6,0.964,-0.464,-0.986
-2.19174,10000000000.0,0.8402258754,46.025657358135604,5242.036010084628,1.496,0.854,-0.583,-1.109
-2.19174,10000000000.0,0.8403806686,51.16818355403078,5223.9618899911975,1.389,0.742,-0.705,-1.236
-2.19174,10000000000.0,0.8405181766,56.754460540854716,5204.751511705225,1.287,0.634,-0.824,-1.359
-2.19174,10000000000.0,0.840646565,62.95061828571975,5184.41788307823,1.184,0.524,-0.945,-1.485
-2.19174,10000000000.0,0.8407658935,69.98419960022734,5165.352922264228,1.08,0.413,-1.067,-1.612
-2.19174,10000000000.0,0.8408753872,77.8036551039804,5146.35807013727,0.976,0.302,-1.188,-1.738
-2.19174,10000000000.0,0.8409749866,86.29785477669702,5125.0723423117615,0.875,0.194,-1.308,-1.863
-2.19174,10000000000.0,0.841068089,95.94006315159331,5105.049999754065,0.773,0.085,-1.43,-1.989
-2.19174,10000000000.0,0.8411530852,106.41430182243164,5086.276903064366,0.671,-0.024,-1.55,-2.115
-2.19174,10000000000.0,0.8412283659,117.76059735208078,5065.239675508819,0.575,-0.129,-1.667,-2.238
-2.19174,10000000000.0,0.8412978649,130.31667784523,5046.612975635282,0.477,-0.234,-1.785,-2.36
-2.19174,10000000000.0,0.8413629532,144.5439770745928,5025.739801095915,0.378,-0.342,-1.905,-2.485
-2.19174,10000000000.0,0.8414214253,159.5879147236732,5004.95295959168,0.284,-0.445,-2.021,-2.606
-2.19174,10000000000.0,0.8414800763,177.41894808901662,4985.3998926398735,0.185,-0.553,-2.142,-2.732
-2.19174,10000000000.0,0.8415416479,195.8844673505989,4964.779900060685,0.091,-0.656,-2.258,-2.854
-2.19174,10000000000.0,0.8415738344,200.90928126087277,4960.2092739597465,0.066,-0.683,-2.288,-2.885
-2.19174,10000000000.0,0.8416073322,196.33602768360475,4968.210633313916,0.086,-0.659,-2.259,-2.854
-2.19174,10000000000.0,0.8416141868,199.52623149688787,4964.779900060685,0.072,-0.676,-2.277,-2.873
-2.19174,10000000000.0,0.8416522145,218.27299118430014,4945.38377894413,-0.013,-0.769,-2.384,-2.984
-2.19174,10000000000.0,0.8416906595,240.99054286865956,4926.063433495771,-0.104,-0.869,-2.496,-3.102
-2.19174,10000000000.0,0.8417233229,263.02679918953817,4907.948534495558,-0.184,-0.959,-2.598,-3.208
-2.19174,10000000000.0,0.8417553902,288.40315031266056,4887.648886615807,-0.268,-1.052,-2.705,-3.321
-2.19174,10000000000.0,0.8417853713,315.50046233746275,4868.554096577112,-0.351,-1.145,-2.812,-3.433
-2.19174,10000000000.0,0.8418115973,344.3499307633384,4849.5339049834165,-0.427,-1.232,-2.911,-3.537
-2.19174,10000000000.0,0.841837585,376.70379898390894,4830.5880203977285,-0.501,-1.324,-3.019,-3.649
-2.19174,10000000000.0,0.841860652,410.2041029866068,4811.716152521639,-0.57,-1.41,-3.12,-3.754
-2.19174,10000000000.0,0.8418821692,446.683592150963,4792.918012190856,-0.635,-1.495,-3.221,-3.858
-2.19174,10000000000.0,0.8419026136,486.4072056914614,4774.193311370779,-0.698,-1.58,-3.323,-3.965
-2.19174,10000000000.0,0.8419246674,537.0317963702527,4754.4468852521,-0.772,-1.678,-3.44,-4.086
-2.19174,10000000000.0,0.8419424295,584.7900841444806,4733.692033483014,-0.827,-1.76,-3.542,-4.192
-2.19174,10000000000.0,0.8419607282,642.6877173170194,4711.94269420276,-0.888,-1.85,-3.654,-4.309
-2.19174,10000000000.0,0.8419758081,698.2324040771712,4693.534343171951,-0.938,-1.928,-3.753,-4.412
-2.19174,10000000000.0,0.8419911861,762.0790100254122,4671.969511718804,-0.987,-2.011,-3.861,-4.525
-2.19174,10000000000.0,0.8420039415,826.0379495771783,4654.789007046166,-1.031,-2.084,-3.955,-4.622
-2.19174,10000000000.0,0.8420173526,901.571137605957,4634.46919736288,-1.075,-2.164,-4.061,-4.733
-2.19174,10000000000.0,0.8420309424,990.8319448927675,4612.113644917027,-1.112,-2.246,-4.176,-4.852
-2.19174,10000000000.0,0.8420419693,1073.989412341245,4593.037592608176,-1.14,-2.315,-4.275,-4.955
-2.19174,10000000000.0,0.8420514464,1156.1122421920993,4574.040440300427,-1.158,-2.374,-4.365,-5.048
-2.19174,10000000000.0,0.8420612216,1253.1411749414156,4555.121861657392,-1.175,-2.437,-4.462,-5.149
-2.19174,10000000000.0,0.8420712352,1364.583136588924,4533.14906146412,-1.209,-2.507,-4.566,-5.258
-2.19174,10000000000.0,0.8420795798,1472.3125024327194,4514.399612669502,-1.242,-2.569,-4.656,-5.354
-2.19174,10000000000.0,0.8420880437,1595.879147236732,4495.727713019056,-1.277,-2.634,-4.749,-5.452
-2.19174,10000000000.0,0.8420959115,1713.9573075084252,4478.164058439384,-1.308,-2.693,-4.834,-5.542
-2.19174,10000000000.0,0.8420981169,1745.8221529205039,4474.041415755961,-1.316,-2.708,-4.857,-5.566
-2.19174,10000000000.0,0.8420981169,50.46612975635284,7737.488205148097,0.639,0.505,0.131,0.024
-2.19174,10000000000.0,0.8421286941,53.21082592667942,7524.887301735844,0.615,0.449,0.005,-0.124
-2.19174,10000000000.0,0.8421832919,53.826978251628844,7483.417927401598,0.61,0.437,-0.02,-0.154
-2.19174,10000000000.0,0.842236042,53.826978251628844,7493.763796367679,0.607,0.436,-0.018,-0.15
-2.19174,10000000000.0,0.8422897458,53.826978251628844,7504.123968558002,0.604,0.435,-0.015,-0.146
-2.19174,10000000000.0,0.8423454762,53.826978251628844,7516.228940182053,0.602,0.434,-0.012,-0.141
-2.19174,10000000000.0,0.8423982263,53.95106225151276,7526.620170564824,0.6,0.434,-0.009,-0.138
-2.19174,10000000000.0,0.842453599,53.95106225151276,7533.55563733717,0.598,0.433,-0.007,-0.135
-2.19174,10000000000.0,0.8425084949,53.95106225151276,7538.761431019941,0.596,0.433,-0.006,-0.133
-2.19174,10000000000.0,0.8425637484,53.95106225151276,7540.49749485308,0.596,0.432,-0.006,-0.133
-2.19174,10000000000.0,0.842615664,54.0754322945581,7538.761431019941,0.595,0.431,-0.008,-0.135
-2.19174,10000000000.0,0.8426725268,54.0754322945581,7530.087105475891,0.595,0.43,-0.012,-0.14
-2.19174,10000000000.0,0.8427280188,54.20008904016238,7514.498463746845,0.595,0.428,-0.019,-0.149
-2.19174,10000000000.0,0.8427841663,54.32503314924333,7492.038492127504,0.596,0.425,-0.029,-0.161
-2.19174,10000000000.0,0.8428413868,54.450265284242114,7461.050851930628,0.598,0.422,-0.042,-0.178
-2.19174,10000000000.0,0.8428644538,54.57578610912711,7447.319739059889,0.599,0.421,-0.048,-0.186
-2.19174,10000000000.0,0.8428958058,54.70159628939716,7425.060556921996,0.601,0.419,-0.058,-0.198
-2.19174,10000000000.0,0.842954278,54.954087385762456,7373.946799576516,0.605,0.416,-0.08,-0.226
-2.19174,10000000000.0,0.8430076838,55.207743928075736,7318.127976744553,0.611,0.412,-0.103,-0.255
-2.19174,10000000000.0,0.8430622816,55.59042572704037,7252.704780912472,0.617,0.408,-0.131,-0.291
-2.19174,10000000000.0,0.8431204557,55.84701947368309,7174.638108861394,0.625,0.405,-0.163,-0.333
-2.19174,10000000000.0,0.8431783319,56.36376558259543,7085.981269167692,0.635,0.402,-0.2,-0.382
-2.19174,10000000000.0,0.8432348371,56.88529308438413,6990.36736761977,0.647,0.399,-0.239,-0.435
-2.19174,10000000000.0,0.843267262,57.14786366718669,6934.258060165695,0.654,0.397,-0.263,-0.467
-2.19174,10000000000.0,0.8433209062,57.67664633922506,6831.247179792927,0.668,0.395,-0.306,-0.525
-2.19174,10000000000.0,0.8433777094,58.21032177708713,6720.475466282961,0.684,0.392,-0.353,-0.589
-2.19174,10000000000.0,0.843433857,58.8843655355589,6605.413352324565,0.702,0.39,-0.402,-0.656
-2.19174,10000000000.0,0.8434914351,59.566214352901035,6478.8809526878,0.723,0.389,-0.456,-0.731
-2.19174,10000000000.0,0.8435463905,60.39486293763797,6353.309318517436,0.748,0.389,-0.512,-0.809
-2.19174,10000000000.0,0.8436012864,61.235039172477336,6234.476611050059,0.772,0.388,-0.565,-0.884
-2.19174,10000000000.0,0.8436555862,62.08690342300634,6140.447181056055,0.789,0.385,-0.61,-0.947
-2.19174,10000000000.0,0.8437106609,62.95061828571975,6058.9867113896535,0.802,0.381,-0.652,-1.004
-2.19174,10000000000.0,0.8437655568,63.82634861905486,5989.630064029512,0.811,0.374,-0.691,-1.057
-2.19174,10000000000.0,0.8438014388,64.26877173170197,5962.110213666547,0.814,0.371,-0.707,-1.079
-2.19174,10000000000.0,0.8438555598,65.46361740672751,5896.577351462565,0.817,0.358,-0.75,-1.136
-2.19174,10000000000.0,0.8439115882,67.92036326171846,5807.644175213118,0.813,0.333,-0.817,-1.222
-2.19174,10000000000.0,0.8439663649,71.94489780036994,5700.330022189607,0.792,0.286,-0.916,-1.343
-2.19174,10000000000.0,0.843999505,76.91304402866095,5598.865052860273,0.76,0.228,-1.023,-1.472
-2.19174,10000000000.0,0.8440160751,82.7942163712334,5505.540984847947,0.72,0.164,-1.132,-1.602
-2.19174,10000000000.0,0.8440231681,88.92011178579486,5428.7519703968255,0.675,0.098,-1.238,-1.724
-2.19174,10000000000.0,0.8440263867,95.49925860214358,5367.845410255124,0.627,0.031,-1.338,-1.837
-2.19174,10000000000.0,0.8440280557,101.85913880541169,5323.533606082614,0.581,-0.029,-1.421,-1.93
-2.19174,10000000000.0,0.8440281749,102.32929922807536,5318.632707726801,0.576,-0.035,-1.429,-1.939
-2.19174,10000000000.0,0.8440289497,108.39269140212039,5289.321920487208,0.53,-0.091,-1.501,-2.018
-2.19174,10000000000.0,0.8440300226,119.3988104464273,5245.6583312381235,0.447,-0.187,-1.621,-2.148
-2.19174,10000000000.0,0.8440310955,131.2199899019203,5207.148940339917,0.367,-0.281,-1.737,-2.273
-2.19174,10000000000.0,0.844032526,147.23125024327194,5166.542425669501,0.265,-0.397,-1.876,-2.422
-2.19174,10000000000.0,0.8440358043,147.91083881682073,5168.922254317574,0.258,-0.404,-1.881,-2.427
-2.19174,10000000000.0,0.8440539241,139.31568029453035,5185.611776858396,0.312,-0.343,-1.811,-2.353
-2.19174,10000000000.0,0.844076395,151.70503674593368,5153.472940209034,0.239,-0.429,-1.916,-2.465
-2.19174,10000000000.0,0.844096303,167.88040181225605,5119.175279997109,0.152,-0.53,-2.036,-2.594
-2.19174,10000000000.0,0.8441101909,181.5515662773135,5093.308710571952,0.082,-0.609,-2.132,-2.695
-2.19174,10000000000.0,0.8441278934,199.9861869632745,5064.073495238508,-0.003,-0.707,-2.247,-2.818
-2.19174,10000000000.0,0.8441445231,218.77616239495518,5037.3253278550155,-0.083,-0.799,-2.355,-2.932
-2.19174,10000000000.0,0.8441597819,239.88329190194898,5011.872336272725,-0.165,-0.892,-2.464,-3.047
-2.19174,10000000000.0,0.8441736102,263.02679918953817,4986.547955557967,-0.246,-0.985,-2.573,-3.163
-2.19174,10000000000.0,0.8441861272,289.0679882365475,4961.351535855698,-0.329,-1.079,-2.683,-3.28
-2.19174,10000000000.0,0.8441975713,316.956746304349,4936.28243059449,-0.412,-1.173,-2.795,-3.397
-2.19174,10000000000.0,0.8442078829,348.33731503601166,4911.339996469978,-0.495,-1.268,-2.905,-3.514
-2.19174,10000000000.0,0.8442171216,381.94427084004644,4887.648886615807,-0.574,-1.36,-3.015,-3.63
-2.19174,10000000000.0,0.8442257047,419.75898399100777,4864.072056914614,-0.653,-1.453,-3.124,-3.746
-2.19174,10000000000.0,0.8442336321,460.25657358135584,4839.4944930166275,-0.727,-1.544,-3.234,-3.861
-2.19174,10000000000.0,0.8442412019,504.6612975635282,4816.14994840047,-0.794,-1.635,-3.344,-3.977
-2.19174,10000000000.0,0.8442485332,552.0774392807573,4792.918012190856,-0.859,-1.726,-3.455,-4.092
-2.19174,10000000000.0,0.8442556262,606.7363295885053,4768.699981017778,-0.921,-1.816,-3.567,-4.209
-2.19174,10000000000.0,0.8442621231,665.2731562017412,4744.604320607653,-0.979,-1.905,-3.68,-4.328
-2.19174,10000000000.0,0.8442676663,729.4575102545687,4720.630412635905,-1.033,-1.992,-3.792,-4.444
-2.19174,10000000000.0,0.8442726135,801.678063387679,4695.696293383585,-1.083,-2.078,-3.906,-4.563
-2.19174,10000000000.0,0.8442767859,879.0225168308842,4671.969511718804,-1.128,-2.162,-4.017,-4.68
-2.19174,10000000000.0,0.8442806005,961.6122783836648,4647.292416762036,-1.165,-2.242,-4.128,-4.796
-2.19174,10000000000.0,0.8442845345,1056.8175092136585,4621.681360922446,-1.195,-2.321,-4.243,-4.916
-2.19174,10000000000.0,0.8442878723,1153.4532578210917,4598.328567699996,-1.218,-2.393,-4.352,-5.029
-2.19174,10000000000.0,0.8442898989,1267.6518658578461,4571.934501781391,-1.232,-2.465,-4.467,-5.149
-2.19174,10000000000.0,0.8442902565,1150.8003889444356,4599.38749388997,-1.219,-2.391,-4.348,-5.025
-2.19174,10000000000.0,0.8442903757,1145.5129414455362,4600.446663934778,-1.217,-2.386,-4.341,-5.018
-2.19174,10000000000.0,0.8442905545,1196.7405313072431,4588.8091961986775,-1.226,-2.422,-4.396,-5.075
-2.19174,10000000000.0,0.8442906737,1247.3835142429432,4576.147348863334,-1.232,-2.454,-4.448,-5.129
-2.19174,10000000000.0,0.8442908525,1309.181922999407,4562.469770768501,-1.236,-2.49,-4.508,-5.192
-2.19174,10000000000.0,0.844291091,1377.2094688939458,4547.785786436917,-1.241,-2.527,-4.57,-5.257
-2.19174,10000000000.0,0.8442914486,1496.235656094433,4523.764623324995,-1.272,-2.593,-4.67,-5.364
-2.19174,10000000000.0,0.844291985,1682.6740610704674,4489.520924135662,-1.314,-2.684,-4.811,-5.516
-2.19174,10000000000.0,0.8442925811,1786.4875748520499,4471.981517887507,-1.334,-2.73,-4.883,-5.592
-2.19174,10000000000.0,0.8442926407,1786.4875748520499,4452.459727917414,-1.297,-2.713,-4.889,-5.605
-2.19174,10000000000.0,0.8442927003,1122.018454301963,4584.584692493264,-1.155,-2.351,-4.326,-5.007
-2.19174,10000000000.0,0.8442928195,794.3282347242813,4681.661397243642,-1.045,-2.06,-3.902,-4.563
-2.19174,10000000000.0,0.8442931175,470.97732639695295,4831.700432460599,-0.741,-1.567,-3.263,-3.892
-2.19174,10000000000.0,0.8442934155,475.3352259428054,4826.140932685212,-0.743,-1.574,-3.275,-3.905
-2.19174,10000000000.0,0.8442938924,553.3501092157366,4778.592531515467,-0.838,-1.72,-3.462,-4.102
-2.19174,10000000000.0,0.8442944288,837.5292821268827,4655.860935229591,-1.042,-2.098,-3.971,-4.637
-2.19174,10000000000.0,0.8442950249,1230.268770812381,4543.599049293402,-1.12,-2.404,-4.448,-5.138
-2.19174,10000000000.0,0.8442957401,1592.20872705117,4467.864566912838,-1.208,-2.604,-4.758,-5.469
-2.19174,10000000000.0,0.8442965746,1828.1002161427427,4425.883723626264,-1.244,-2.703,-4.924,-5.649
-2.19174,10000000000.0,0.8442974687,1945.3600816226633,4403.520272026519,-1.248,-2.743,-5.002,-5.733
-2.19174,10000000000.0,0.8442984819,2009.0928126087279,4389.34785534717,-1.239,-2.758,-5.042,-5.778
