FeH,Age,Mini,L,Te,Bmag,Vmag,Jmag,Kmag
-1.8,7000031591.308976,0.0900000036,0.0006237348354824192,3044.3879900225406,17.174,15.16,10.795,10.496
-1.8,7000031591.308976,0.091282405,0.0006982324040771712,3095.2804165939788,16.865,14.868,10.697,10.353
-1.8,7000031591.308976,0.0977896228,0.001210598133550483,3355.8303695328004,15.507,13.688,10.218,9.689
-1.8,7000031591.308976,0.1000000015,0.0014487718535447617,3445.08546286579,15.082,13.347,10.063,9.49
-1.8,7000031591.308976,0.1199999973,0.002837919028441555,3699.1334567034833,13.766,12.276,9.437,8.767
-1.8,7000031591.308976,0.1400000006,0.004305266104917106,3827.366048098136,13.067,11.69,9.033,8.33
-1.8,7000031591.308976,0.1599999964,0.0059292532458,3913.812356122119,12.568,11.26,8.716,7.996
-1.8,7000031591.308976,0.2000000179,0.009772372209558112,4029.025350832952,11.846,10.619,8.211,7.48
-1.8,7000031591.308976,0.25,0.015667510701081494,4133.329236662004,11.186,10.025,7.73,7.0
-1.8,7000031591.308976,0.3000000417,0.022594357702209782,4218.907465677975,10.677,9.565,7.358,6.635
-1.8,7000031591.308976,0.349999994,0.03047894989627983,4296.3534256987,10.259,9.187,7.055,6.344
-1.8,7000031591.308976,0.400000006,0.040550853544838394,4389.34785534717,9.844,8.817,6.77,6.074
-1.8,7000031591.308976,0.4500000477,0.05780960474057181,4544.645372095089,9.301,8.344,6.428,5.766
-1.8,7000031591.308976,0.5,0.08570378452303697,4751.163763775616,8.692,7.817,6.063,5.448
-1.8,7000031591.308976,0.5094957352,0.0933254300796991,4794.021749415102,8.566,7.706,5.985,5.379
-1.8,7000031591.308976,0.5500000715,0.13152248321922383,4973.933791067749,8.065,7.268,5.669,5.106
-1.8,7000031591.308976,0.6000000238,0.20183663636815613,5246.866327776169,7.44,6.733,5.294,4.792
-1.8,7000031591.308976,0.6156565547,0.23173946499684786,5348.105920748282,7.24,6.565,5.18,4.698
-1.8,7000031591.308976,0.6346448064,0.27289777828080414,5471.419324763784,7.005,6.367,5.043,4.585
-1.8,7000031591.308976,0.6499999762,0.3118889584093937,5571.857489319298,6.821,6.211,4.935,4.494
-1.8,7000031591.308976,0.6537631154,0.32210687912834346,5596.287273819709,6.776,6.173,4.908,4.471
-1.8,7000031591.308976,0.6772023439,0.3944573020752784,5747.778188455213,6.499,5.938,4.743,4.332
-1.8,7000031591.308976,0.6978459954,0.4709773263969529,5880.306994811631,6.263,5.738,4.598,4.208
-1.8,7000031591.308976,0.6999999881,0.4797334486366891,5893.862502405809,6.239,5.717,4.583,4.195
-1.8,7000031591.308976,0.7120722532,0.5333348954876209,5968.978299546356,6.104,5.6,4.497,4.12
-1.8,7000031591.308976,0.7248671055,0.5956621435290105,6047.835918818006,5.961,5.476,4.404,4.04
-1.8,7000031591.308976,0.7426617146,0.6966265141107687,6154.602373713163,5.763,5.303,4.274,3.926
-1.8,7000031591.308976,0.75,0.7430191378967014,6197.264039282265,5.681,5.231,4.219,3.878
-1.8,7000031591.308976,0.7547398806,0.7762471166286917,6224.435916032886,5.628,5.184,4.183,3.846
-1.8,7000031591.308976,0.7669575214,0.8649679187756932,6293.612503885458,5.492,5.063,4.089,3.763
-1.8,7000031591.308976,0.7786082625,0.9616122783836647,6359.163628244043,5.36,4.945,3.997,3.681
-1.8,7000031591.308976,0.7896494865,1.066596121230258,6420.9605256759405,5.234,4.831,3.907,3.601
-1.8,7000031591.308976,0.7996960878,1.1721953655481305,6477.389306956355,5.116,4.725,3.823,3.527
-1.8,7000031591.308976,0.8000000119,1.1776059735208073,6480.372941922908,5.113,4.722,3.82,3.524
-1.8,7000031591.308976,0.8057451248,1.241652307592411,6513.283771823169,5.045,4.66,3.772,3.481
-1.8,7000031591.308976,0.8157337308,1.3708817661648536,6573.550444548967,4.925,4.55,3.685,3.403
-1.8,7000031591.308976,0.8249838948,1.506607066186742,6628.267086082732,4.809,4.444,3.6,3.328
-1.8,7000031591.308976,0.8372494578,1.717908387157588,6705.0188016284155,4.649,4.296,3.482,3.222
-1.8,7000031591.308976,0.8490479589,1.9633602768360467,6779.536449241948,4.485,4.145,3.36,3.111
-1.8,7000031591.308976,0.8500000238,1.9860949173573714,6785.783509504071,4.471,4.132,3.349,3.101
-1.8,7000031591.308976,0.8576266766,2.1727011788637447,6840.691418893661,4.36,4.029,3.268,3.028
-1.8,7000031591.308976,0.8669826388,2.443430552693972,6907.167693241921,4.217,3.896,3.161,2.932
-1.8,7000031591.308976,0.8759992719,2.7542287033381663,6971.078929020044,4.073,3.762,3.052,2.832
-1.8,7000031591.308976,0.8844114542,3.0902954325135905,7029.104501361862,3.932,3.631,2.943,2.732
-1.8,7000031591.308976,0.8923721313,3.4753616144320585,7076.1983835979,3.792,3.498,2.83,2.626
-1.8,7000031591.308976,0.8999999762,3.926449353995998,7115.411150074334,3.649,3.362,2.71,2.512
-1.8,7000031591.308976,0.901694417,4.03645392967605,7125.248247522667,3.616,3.331,2.683,2.486
-1.8,7000031591.308976,0.904749155,4.275628861515862,7130.171895014071,3.551,3.268,2.623,2.427
-1.8,7000031591.308976,0.910161376,4.753352259428054,7117.049722679209,3.433,3.149,2.502,2.305
-1.8,7000031591.308976,0.9146885276,5.248074602497725,7074.5692162786,3.329,3.041,2.38,2.178
-1.8,7000031591.308976,0.9156504869,5.370317963702527,7059.923578936676,3.306,3.017,2.351,2.148
-1.8,7000031591.308976,0.9165691137,5.495408738576246,7035.581528181841,3.284,2.992,2.318,2.111
-1.8,7000031591.308976,0.9196439385,5.984115950603197,6921.49644226647,3.209,2.903,2.189,1.967
-1.8,7000031591.308976,0.9219722748,6.4416926551517735,6784.221204982605,3.155,2.83,2.066,1.824
-1.8,7000031591.308976,0.9233429432,6.760829753919817,6663.463144693567,3.125,2.783,1.974,1.714
-1.8,7000031591.308976,0.9244214296,7.06317554262962,6543.347723737576,3.105,2.744,1.889,1.611
-1.8,7000031591.308976,0.9253231883,7.3282453313890406,6423.918168243863,3.091,2.71,1.808,1.511
-1.8,7000031591.308976,0.92608881,7.5857757502918375,6305.2164509004215,3.084,2.681,1.731,1.414
-1.8,7000031591.308976,0.9269585013,7.888601176185544,6151.7687270986835,3.083,2.65,1.637,1.293
-1.8,7000031591.308976,0.9277357459,8.165823713585924,6004.820089075465,3.091,2.626,1.551,1.181
-1.8,7000031591.308976,0.9284757972,8.394599865193975,5872.188659713034,3.102,2.607,1.475,1.081
-1.8,7000031591.308976,0.9292084575,8.689604292863017,5757.049982493285,3.103,2.58,1.397,0.981
-1.8,7000031591.308976,0.9299724102,9.22571427154763,5657.180034775736,3.077,2.528,1.299,0.865
-1.8,7000031591.308976,0.9307226539,10.046157902783952,5582.130689177262,3.014,2.444,1.181,0.732
-1.8,7000031591.308976,0.9309417605,10.327614057613975,5562.883949883727,2.989,2.415,1.142,0.69
-1.8,7000031591.308976,0.9314355254,11.194378834671515,5530.953407403111,2.914,2.331,1.044,0.584
-1.8,7000031591.308976,0.9320852757,12.560299636948749,5494.143519621415,2.804,2.212,0.906,0.439
-1.8,7000031591.308976,0.9325602055,13.772094688939466,5471.419324763784,2.715,2.116,0.799,0.327
-1.8,7000031591.308976,0.9330859184,15.310874616820303,5447.534633275434,2.608,2.004,0.674,0.197
-1.8,7000031591.308976,0.9335674644,17.02158508394951,5425.003216311501,2.503,1.893,0.553,0.07
-1.8,7000031591.308976,0.9340235591,18.92343618644975,5405.053537086691,2.396,1.781,0.431,-0.057
-1.8,7000031591.308976,0.9344448447,21.03778439766475,5386.4173456235285,2.29,1.671,0.311,-0.181
-1.8,7000031591.308976,0.9348588586,23.442288153199225,5366.609560460733,2.179,1.554,0.184,-0.312
-1.8,7000031591.308976,0.9352114797,25.941793621188136,5348.105920748282,2.077,1.448,0.069,-0.432
-1.8,7000031591.308976,0.9355610609,28.90679882365476,5329.666080102771,1.968,1.334,-0.055,-0.56
-1.8,7000031591.308976,0.9358819127,32.210687912834345,5310.066989662834,1.861,1.221,-0.178,-0.687
-1.8,7000031591.308976,0.9361729026,35.727283815192884,5290.539972095819,1.756,1.11,-0.298,-0.812
-1.8,7000031591.308976,0.9364489913,39.810717055349734,5271.08476236396,1.648,0.997,-0.422,-0.941
-1.8,7000031591.308976,0.9366925955,44.157044735331255,5251.701096404131,1.545,0.889,-0.54,-1.064
-1.8,7000031591.308976,0.9369173646,48.86523593428336,5231.184047796891,1.444,0.782,-0.658,-1.186
-1.8,7000031591.308976,0.937135458,54.450265284242114,5210.747154033924,1.337,0.669,-0.782,-1.315
-1.8,7000031591.308976,0.9373230338,60.11737374832779,5191.585371063544,1.239,0.564,-0.897,-1.435
-1.8,7000031591.308976,0.9375030398,66.68067692136222,5170.112579686548,1.137,0.455,-1.018,-1.56
-1.8,7000031591.308976,0.9376739264,74.30191378967014,5148.7286014054735,1.033,0.343,-1.142,-1.689
-1.8,7000031591.308976,0.9378225207,82.22426499470713,5128.613839913648,0.935,0.238,-1.259,-1.811
-1.8,7000031591.308976,0.9379622936,90.99132726322517,5107.401503571955,0.837,0.132,-1.377,-1.935
-1.8,7000031591.308976,0.9380921721,100.92528860766845,5085.1058793510465,0.739,0.025,-1.497,-2.059
-1.8,7000031591.308976,0.9382081628,111.42945335917304,5064.073495238508,0.645,-0.078,-1.612,-2.18
-1.8,7000031591.308976,0.9383170605,123.31048332289096,5041.967013185367,0.55,-0.182,-1.729,-2.303
-1.8,7000031591.308976,0.9384174943,136.14446824659495,5019.957033789469,0.456,-0.285,-1.846,-2.425
-1.8,7000031591.308976,0.9385100603,150.31419660900224,4998.043135782391,0.365,-0.385,-1.96,-2.545
-1.8,7000031591.308976,0.9386007786,165.57699634695277,4977.37084978936,0.275,-0.485,-2.074,-2.664
-1.8,7000031591.308976,0.9386988282,180.71741260109275,4957.92553906303,0.195,-0.573,-2.175,-2.771
-1.8,7000031591.308976,0.9387444854,186.63796908346694,4951.080641176657,0.164,-0.608,-2.214,-2.812
-1.8,7000031591.308976,0.93881917,174.18068733916147,4971.643737252428,0.223,-0.539,-2.132,-2.724
-1.8,7000031591.308976,0.9388231635,173.78008287493762,4972.788632333997,0.227,-0.536,-2.127,-2.719
-1.8,7000031591.308976,0.9388508201,180.71741260109275,4962.494060797449,0.19,-0.576,-2.175,-2.769
-1.8,7000031591.308976,0.9389150143,198.60949173573715,4939.693471692561,0.105,-0.673,-2.286,-2.887
-1.8,7000031591.308976,0.9389731884,217.27011788637455,4919.262524341649,0.025,-0.763,-2.39,-2.997
-1.8,7000031591.308976,0.9390300512,238.2319469358689,4897.7881936844615,-0.058,-0.856,-2.498,-3.111
-1.8,7000031591.308976,0.9390807152,260.0159563165272,4876.407606118823,-0.134,-0.944,-2.601,-3.22
-1.8,7000031591.308976,0.9391287565,283.7919028441555,4855.120352422797,-0.211,-1.032,-2.704,-3.329
-1.8,7000031591.308976,0.939173162,309.7419299216581,4833.926025160843,-0.282,-1.119,-2.806,-3.437
-1.8,7000031591.308976,0.9392144084,337.2873086588689,4812.824218676023,-0.35,-1.205,-2.908,-3.544
-1.8,7000031591.308976,0.9392531514,367.2823004980846,4791.814529082236,-0.417,-1.291,-3.01,-3.651
-1.8,7000031591.308976,0.9392965436,406.44332916521273,4766.504419105543,-0.491,-1.391,-3.131,-3.778
-1.8,7000031591.308976,0.9393288493,440.55486350655343,4745.696931912426,-0.548,-1.47,-3.229,-3.88
-1.8,7000031591.308976,0.939366281,487.5284901033865,4719.543572446043,-0.615,-1.567,-3.35,-4.006
-1.8,7000031591.308976,0.9393999577,538.2697825162882,4693.534343171951,-0.677,-1.66,-3.468,-4.13
-1.8,7000031591.308976,0.9394256473,582.1032177708715,4673.045396315099,-0.724,-1.734,-3.563,-4.229
-1.8,7000031591.308976,0.9394539595,638.263486190549,4648.362618593011,-0.775,-1.819,-3.675,-4.347
-1.8,7000031591.308976,0.9394804835,699.8419960022738,4622.74566491089,-0.823,-1.903,-3.786,-4.464
-1.8,7000031591.308976,0.9395048022,767.3614893618186,4598.328567699996,-0.867,-1.985,-3.896,-4.58
-1.8,7000031591.308976,0.9395267963,837.5292821268827,4574.040440300427,-0.904,-2.062,-4.003,-4.692
-1.8,7000031591.308976,0.9395478964,916.2204901220001,4549.880601500485,-0.936,-2.137,-4.112,-4.806
-1.8,7000031591.308976,0.9395665526,995.4054173515275,4525.848373686597,-0.978,-2.208,-4.211,-4.914
-1.8,7000031591.308976,0.9395837784,1081.4339512979375,4501.94308282431,-1.014,-2.274,-4.309,-5.019
-1.8,7000031591.308976,0.9396006465,1174.897554939529,4477.133041763624,-1.049,-2.342,-4.41,-5.127
-1.8,7000031591.308976,0.93961519,1270.5741052085418,4455.536440673005,-1.083,-2.404,-4.502,-5.226
-1.8,7000031591.308976,0.9396293759,1377.2094688939458,4432.002533708497,-1.116,-2.467,-4.596,-5.329
-1.8,7000031591.308976,0.939643085,1489.3610777109154,4409.608164506378,-1.149,-2.529,-4.691,-5.432
-1.8,7000031591.308976,0.9396551251,1603.2453906900419,4388.337287003648,-1.179,-2.586,-4.777,-5.525
-1.8,7000031591.308976,0.9396669269,1721.8685749860078,4367.16901504156,-1.206,-2.642,-4.863,-5.619
-1.8,7000031591.308976,0.9396772981,1832.314422371211,4349.106072324534,-1.225,-2.686,-4.937,-5.699
-1.8,7000031591.308976,0.9396772981,62.373483548241914,5739.842822249425,0.935,0.428,-0.753,-1.169
-1.8,7000031591.308976,0.9397723675,65.01296903430907,5700.330022189607,0.905,0.388,-0.812,-1.237
-1.8,7000031591.308976,0.9398672581,65.46361740672751,5693.771051094232,0.9,0.381,-0.822,-1.248
-1.8,7000031591.308976,0.9399613142,65.76578373554206,5693.771051094232,0.894,0.375,-0.828,-1.254
-1.8,7000031591.308976,0.9400591254,66.06934480075961,5695.082241279307,0.889,0.371,-0.831,-1.257
-1.8,7000031591.308976,0.9401571751,66.22165037017619,5701.642722807472,0.884,0.367,-0.832,-1.257
-1.8,7000031591.308976,0.9402548075,66.3743070401909,5709.52527715281,0.878,0.363,-0.831,-1.255
-1.8,7000031591.308976,0.9403509498,66.3743070401909,5720.052304159283,0.872,0.361,-0.829,-1.25
-1.8,7000031591.308976,0.9404475689,66.52731562017412,5733.238386538407,0.867,0.358,-0.826,-1.244
-1.8,7000031591.308976,0.9405491948,66.52731562017412,5746.45486597673,0.86,0.356,-0.821,-1.236
-1.8,7000031591.308976,0.940647006,66.52731562017412,5759.701812546716,0.854,0.353,-0.817,-1.229
-1.8,7000031591.308976,0.9407378435,66.52731562017412,5771.650171902313,0.849,0.351,-0.813,-1.223
-1.8,7000031591.308976,0.9408288598,66.52731562017412,5783.623317834709,0.844,0.349,-0.81,-1.217
-1.8,7000031591.308976,0.9409266114,66.68067692136222,5795.621301763043,0.839,0.346,-0.807,-1.212
-1.8,7000031591.308976,0.941024065,66.68067692136222,5804.9702719686975,0.834,0.344,-0.805,-1.207
-1.8,7000031591.308976,0.9410461187,66.68067692136222,5807.644175213118,0.832,0.343,-0.804,-1.206
-1.8,7000031591.308976,0.9410572052,66.68067692136222,5808.981588672952,0.832,0.343,-0.804,-1.206
-1.8,7000031591.308976,0.9411622286,66.83439175686145,5815.6732771851475,0.827,0.34,-0.804,-1.204
-1.8,7000031591.308976,0.9412617087,66.98846094165265,5821.032177708716,0.823,0.337,-0.804,-1.203
-1.8,7000031591.308976,0.9413579106,67.14288529259522,5822.372674224978,0.82,0.335,-0.806,-1.205
-1.8,7000031591.308976,0.9414548278,67.29766562843179,5822.372674224978,0.817,0.332,-0.809,-1.208
-1.8,7000031591.308976,0.9415534139,67.45280276979219,5818.35211048072,0.815,0.328,-0.814,-1.214
-1.8,7000031591.308976,0.9416524172,67.7641507610675,5810.319310119074,0.813,0.324,-0.822,-1.223
-1.8,7000031591.308976,0.9417318702,68.07693586937414,5803.633782042343,0.811,0.321,-0.829,-1.232
-1.8,7000031591.308976,0.9417491555,68.23386941416697,5800.961725227041,0.811,0.32,-0.83,-1.234
-1.8,7000031591.308976,0.9418387413,68.54882264526617,5790.2857947463735,0.809,0.316,-0.839,-1.245
-1.8,7000031591.308976,0.9419248104,68.86522963442762,5778.298856282211,0.808,0.312,-0.85,-1.258
-1.8,7000031591.308976,0.9420098662,69.3425806016569,5765.00913769855,0.806,0.307,-0.861,-1.272
-1.8,7000031591.308976,0.9420956373,69.98419960022734,5745.131848169437,0.805,0.3,-0.877,-1.292
-1.8,7000031591.308976,0.9421826601,70.6317554262962,5724.004941344636,0.803,0.293,-0.894,-1.314
-1.8,7000031591.308976,0.9422683716,71.44963260755135,5702.955725720632,0.801,0.285,-0.913,-1.337
-1.8,7000031591.308976,0.9423542619,72.27698036021702,5680.675741067723,0.797,0.276,-0.933,-1.362
-1.8,7000031591.308976,0.9424408078,73.11390834834177,5659.785862426966,0.793,0.266,-0.953,-1.387
-1.8,7000031591.308976,0.9425262213,74.13102413009177,5637.674531352641,0.787,0.255,-0.975,-1.413
-1.8,7000031591.308976,0.9426124692,74.98942093324558,5619.530077001323,0.783,0.245,-0.993,-1.436
-1.8,7000031591.308976,0.9426987171,76.73614893618189,5584.701947368307,0.773,0.225,-1.03,-1.48
-1.8,7000031591.308976,0.9427853823,79.61593504173187,5536.049950434,0.752,0.192,-1.087,-1.547
-1.8,7000031591.308976,0.9428682923,85.70378452303697,5456.3221016639,0.709,0.125,-1.194,-1.67
-1.8,7000031591.308976,0.942905724,91.83325964835811,5392.622258915705,0.664,0.061,-1.291,-1.781
-1.8,7000031591.308976,0.9429219961,99.3116048420934,5333.348954876208,0.61,-0.013,-1.396,-1.9
-1.8,7000031591.308976,0.9429283142,107.3989412341245,5283.235867669997,0.551,-0.089,-1.498,-2.013
-1.8,7000031591.308976,0.9429311752,115.08003889444356,5245.6583312381235,0.495,-0.157,-1.585,-2.109
-1.8,7000031591.308976,0.9429315329,116.41260294104909,5239.622519059377,0.486,-0.169,-1.601,-2.126
-1.8,7000031591.308976,0.9429324269,120.78138351067798,5222.759166787714,0.454,-0.206,-1.647,-2.176
-1.8,7000031591.308976,0.9429342151,132.1295634186575,5186.8059455744215,0.379,-0.295,-1.757,-2.294
-1.8,7000031591.308976,0.942935884,144.5439770745928,5153.472940209034,0.302,-0.384,-1.864,-2.409
-1.8,7000031591.308976,0.9429375529,157.0362804333553,5125.0723423117615,0.228,-0.469,-1.967,-2.519
-1.8,7000031591.308976,0.9429398179,172.18685749860077,5095.65480608114,0.15,-0.56,-2.075,-2.635
-1.8,7000031591.308976,0.9429443479,168.26740610704672,5105.049999754065,0.168,-0.538,-2.047,-2.604
-1.8,7000031591.308976,0.9429491162,160.32453906900417,5121.53329024499,0.209,-0.489,-1.989,-2.541
-1.8,7000031591.308976,0.9429803491,157.39828644662197,5125.0723423117615,0.227,-0.471,-1.968,-2.52
-1.8,7000031591.308976,0.9430147409,167.49428760264382,5101.5247738556045,0.175,-0.533,-2.044,-2.602
-1.8,7000031591.308976,0.9430440664,182.38957023196383,5072.242398926514,0.102,-0.618,-2.148,-2.713
-1.8,7000031591.308976,0.9430767298,201.83663636815618,5039.645636126428,0.016,-0.719,-2.269,-2.843
-1.8,7000031591.308976,0.9431067705,222.8435149270303,5008.411452998231,-0.07,-0.818,-2.389,-2.971
-1.8,7000031591.308976,0.943133533,245.4708915685031,4978.517063739154,-0.152,-0.915,-2.505,-3.095
-1.8,7000031591.308976,0.9431570172,270.3958364108843,4949.940743969349,-0.233,-1.01,-2.619,-3.217
-1.8,7000031591.308976,0.9431777,297.1666031738025,4921.528450161719,-0.313,-1.104,-2.732,-3.338
-1.8,7000031591.308976,0.9431961775,326.58783217233565,4893.279240819371,-0.393,-1.198,-2.845,-3.459
-1.8,7000031591.308976,0.9432127476,358.92193464500536,4865.192179849536,-0.47,-1.29,-2.957,-3.579
-1.8,7000031591.308976,0.9432278275,394.4573020752785,4837.266336532547,-0.544,-1.383,-3.07,-3.7
-1.8,7000031591.308976,0.9432415366,432.5138310350088,4810.608341479539,-0.612,-1.475,-3.183,-3.819
-1.8,7000031591.308976,0.9432542324,475.3352259428054,4782.995805358158,-0.675,-1.565,-3.296,-3.938
-1.8,7000031591.308976,0.9432663321,521.1947111050805,4754.4468852521,-0.734,-1.653,-3.408,-4.056
-1.8,7000031591.308976,0.9432778358,571.4786366718672,4727.156711736158,-0.789,-1.74,-3.521,-4.174
-1.8,7000031591.308976,0.9432889819,628.058358813318,4698.941086052156,-0.841,-1.827,-3.635,-4.295
-1.8,7000031591.308976,0.9432994127,688.6522963442762,4670.893874825567,-0.89,-1.914,-3.75,-4.416
-1.8,7000031591.308976,0.9433091879,756.8328950209744,4641.945102393461,-0.933,-1.996,-3.864,-4.536
-1.8,7000031591.308976,0.9433186054,835.6030182312483,4611.051788759832,-0.974,-2.083,-3.985,-4.664
-1.8,7000031591.308976,0.9433266521,922.5714271547629,4580.364077908267,-1.009,-2.169,-4.109,-4.795
-1.8,7000031591.308976,0.9433328509,1013.9113857366789,4550.928370849554,-1.03,-2.243,-4.224,-4.917
-1.8,7000031591.308976,0.9433380365,1101.5393095414145,4524.806378555487,-1.063,-2.309,-4.323,-5.024
-1.8,7000031591.308976,0.9433433414,1216.1860006463678,4493.657830540859,-1.102,-2.387,-4.442,-5.153
-1.8,7000031591.308976,0.9433474541,1399.5873225726177,4447.3365938979705,-1.155,-2.497,-4.613,-5.339
-1.8,7000031591.308976,0.943351984,2079.696687103696,4317.1784447092305,-1.276,-2.783,-5.084,-5.859
-1.8,7000031591.308976,0.9433530569,2147.8304741305333,4307.249209819747,-1.283,-2.804,-5.122,-5.9
-1.8,7000031591.308976,0.9433531761,2157.744409152667,4305.266104917106,-1.285,-2.808,-5.129,-5.909
-1.8,7000031591.308976,0.9433534145,2182.7299118430014,4301.302633821362,-1.287,-2.815,-5.142,-5.923
-1.8,7000031591.308976,0.9433537126,2208.004733018899,4296.3534256987,-1.289,-2.824,-5.157,-5.94
-1.8,7000031591.308976,0.9433538914,2233.5722228305326,4293.386634704304,-1.291,-2.83,-5.169,-5.953
-1.8,7000031591.308976,0.9433541298,2259.435770220978,4289.434099967818,-1.294,-2.838,-5.183,-5.969
-1.8,7000031591.308976,0.943354547,2301.441817408509,4282.5259178891965,-1.297,-2.85,-5.205,-5.994
-1.8,7000031591.308976,0.9433552027,2365.9196974857587,4273.660314969303,-1.301,-2.867,-5.237,-6.03
-1.8,7000031591.308976,0.9433563352,2483.13310529557,4256.964220731747,-1.307,-2.896,-5.295,-6.094
-1.8,7000031591.308976,0.9433563948,2494.5947269429535,4255.004267591057,-1.307,-2.898,-5.3,-6.1
-1.8,7000031591.308976,0.9433565736,2500.345361696432,4254.02462944068,-1.308,-2.901,-5.305,-6.105
-1.8,7000031591.308976,0.9433566332,2600.159563165272,4211.143104363183,-1.247,-2.886,-5.357,-6.177
-1.8,7000031591.308976,0.9433566928,1770.108958317422,4342.1017878602825,-1.182,-2.644,-4.899,-5.665
-1.8,7000031591.308976,0.9433567524,1297.1792709839558,4448.360748898113,-1.087,-2.418,-4.527,-5.254
-1.8,7000031591.308976,0.9433568716,776.247116628692,4629.136637776056,-0.936,-2.017,-3.898,-4.573
-1.8,7000031591.308976,0.94335711,778.0365510398041,4627.00533236181,-0.934,-2.018,-3.901,-4.577
-1.8,7000031591.308976,0.9433573484,922.5714271547629,4564.571349614057,-0.972,-2.156,-4.114,-4.804
-1.8,7000031591.308976,0.9433576465,1324.3415351946644,4435.065110253052,-1.081,-2.429,-4.555,-5.286
-1.8,7000031591.308976,0.9433580041,1836.5383433483455,4321.1565447029925,-1.169,-2.658,-4.945,-5.719
-1.8,7000031591.308976,0.9433584213,2269.8648518838213,4248.15153514646,-1.206,-2.793,-5.197,-6.002
-1.8,7000031591.308976,0.9433588982,2523.4807724805755,4209.2042477683635,-1.208,-2.85,-5.324,-6.145
-1.8,7000031591.308976,0.9433594346,2630.2679918953813,4192.759966846054,-1.201,-2.867,-5.374,-6.202
-1.8,7000031591.308976,0.9433600307,2660.7250597988086,4185.043726669273,-1.191,-2.869,-5.391,-6.222
-1.8,7000031591.308976,0.9433600903,2037.042077705719,4272.676381599791,-1.159,-2.712,-5.074,-5.868
-1.8,7000031591.308976,0.9433602095,1345.8603540559484,4413.671434634397,-1.05,-2.423,-4.578,-5.317
-1.8,7000031591.308976,0.9433603883,805.3784411990669,4591.980128368686,-0.893,-2.031,-3.955,-4.638
-1.8,7000031591.308976,0.9433606863,807.2350302488383,4588.8091961986775,-0.889,-2.032,-3.959,-4.644
-1.8,7000031591.308976,0.9433610439,957.1940712948442,4525.848373686597,-0.925,-2.162,-4.171,-4.872
-1.8,7000031591.308976,0.9433614612,1374.041975012515,4398.453449216315,-1.039,-2.43,-4.605,-5.351
-1.8,7000031591.308976,0.9433619976,1896.7059212111465,4285.485203974396,-1.111,-2.649,-4.992,-5.781
-1.8,7000031591.308976,0.9433625937,2338.837238659356,4212.112867540665,-1.133,-2.772,-5.242,-6.062
-1.8,7000031591.308976,0.9433632493,2600.159563165272,4173.495984653169,-1.128,-2.824,-5.37,-6.206
-1.8,7000031591.308976,0.9433640242,2716.4392688390835,4155.277190204325,-1.118,-2.839,-5.42,-6.265
-1.8,7000031591.308976,0.9433648586,2754.2287033381663,4145.720317867256,-1.104,-2.839,-5.439,-6.288
