FeH,Age,Mini,L,Te,Bmag,Vmag,Jmag,Kmag
-1.4,11999965570.481134,0.0900000036,0.0006441692655151775,2946.4562708650446,17.605,15.595,10.735,10.29
-1.4,11999965570.481134,0.0979109555,0.0010739894123412452,3168.8377271814975,16.22,14.298,10.288,9.696
-1.4,11999965570.481134,0.1000000015,0.001218989598924866,3227.750819048055,15.893,14.009,10.175,9.555
-1.4,11999965570.481134,0.1199999973,0.0023496328208483072,3471.362758876978,14.496,12.815,9.565,8.859
-1.4,11999965570.481134,0.1333715618,0.003133285724315586,3557.9513055974294,13.979,12.375,9.287,8.561
-1.4,11999965570.481134,0.1400000006,0.0035727283815192887,3598.321800388802,13.747,12.178,9.16,8.426
-1.4,11999965570.481134,0.1599999964,0.004943106869868354,3684.6818914786804,13.212,11.716,8.839,8.089
-1.4,11999965570.481134,0.2000000179,0.008241381150130022,3801.0186455476655,12.437,11.034,8.326,7.559
-1.4,11999965570.481134,0.25,0.013182567385564075,3899.419866765436,11.758,10.429,7.848,7.075
-1.4,11999965570.481134,0.3000000417,0.018879913490962935,3976.4909647456543,11.248,9.972,7.483,6.71
-1.4,11999965570.481134,0.349999994,0.02523480772480574,4043.8962050781943,10.835,9.602,7.186,6.418
-1.4,11999965570.481134,0.400000006,0.03523708710424871,4150.496003347124,10.326,9.157,6.852,6.094
-1.4,11999965570.481134,0.4500000179,0.05284452517751805,4331.1178393104055,9.663,8.592,6.461,5.729
-1.4,11999965570.481134,0.5,0.08356030182312478,4608.928809808955,8.865,7.927,6.04,5.369
-1.4,11999965570.481134,0.5500000715,0.1380384264602885,4903.430227918956,8.065,7.241,5.588,4.995
-1.4,11999965570.481134,0.6000000238,0.22335722228305316,5232.388711124278,7.339,6.618,5.172,4.662
-1.4,11999965570.481134,0.6117137671,0.251188643150958,5321.082592667942,7.165,6.471,5.075,4.585
-1.4,11999965570.481134,0.623388052,0.28248799749157066,5411.279918442833,6.995,6.327,4.978,4.506
-1.4,11999965570.481134,0.6346926093,0.3169567463043491,5497.940050635924,6.833,6.19,4.882,4.428
-1.4,11999965570.481134,0.6452074051,0.35237087104248715,5578.27602141201,6.684,6.063,4.794,4.355
-1.4,11999965570.481134,0.6499999762,0.370680721782576,5615.649583575098,6.616,6.005,4.753,4.321
-1.4,11999965570.481134,0.6611981988,0.41591061049402206,5695.082241279307,6.459,5.87,4.657,4.238
-1.4,11999965570.481134,0.6733024716,0.47315125896148047,5779.6295119546585,6.289,5.725,4.549,4.145
-1.4,11999965570.481134,0.6844218373,0.5333348954876209,5855.985598492877,6.133,5.59,4.447,4.055
-1.4,11999965570.481134,0.6950234771,0.5997910762555094,5927.88814195578,5.982,5.458,4.345,3.966
-1.4,11999965570.481134,0.6999999881,0.6338697112569269,5960.737545096847,5.91,5.395,4.297,3.923
-1.4,11999965570.481134,0.7032482028,0.6576578373554205,5982.738215608625,5.863,5.354,4.264,3.894
-1.4,11999965570.481134,0.7140653729,0.7481695005111544,6052.01505912521,5.702,5.211,4.15,3.79
-1.4,11999965570.481134,0.7242975235,0.8511380382023764,6115.0498251702875,5.544,5.069,4.033,3.684
-1.4,11999965570.481134,0.7332327962,0.9594006315159331,6168.790197459376,5.4,4.938,3.924,3.583
-1.4,11999965570.481134,0.7416633368,1.0789467222298288,6218.705637987511,5.258,4.808,3.814,3.481
-1.4,11999965570.481134,0.7495525479,1.2105981335504823,6261.81164615689,5.118,4.678,3.702,3.377
-1.4,11999965570.481134,0.75,1.2189895989248665,6264.695981078889,5.109,4.67,3.695,3.371
-1.4,11999965570.481134,0.7571175694,1.3645831365889245,6302.313459908516,4.976,4.546,3.587,3.268
-1.4,11999965570.481134,0.7649899125,1.5595525028269537,6340.1568195658365,4.819,4.399,3.455,3.143
-1.4,11999965570.481134,0.7720266581,1.7741894808901657,6367.955209079156,4.671,4.258,3.326,3.018
-1.4,11999965570.481134,0.7781934738,1.9998618696327441,6385.574850788397,4.534,4.124,3.2,2.896
-1.4,11999965570.481134,0.7800630927,2.0796966871036955,6388.516193898019,4.491,4.082,3.16,2.856
-1.4,11999965570.481134,0.7815899253,2.152781734724373,6387.045353025886,4.453,4.045,3.122,2.819
-1.4,11999965570.481134,0.7875106335,2.4717241450161302,6367.955209079156,4.303,3.893,2.964,2.658
-1.4,11999965570.481134,0.7919970751,2.7925438412373382,6324.118513762197,4.179,3.762,2.817,2.504
-1.4,11999965570.481134,0.7927606106,2.857590543374947,6313.933449447962,4.157,3.738,2.789,2.474
-1.4,11999965570.481134,0.7941618562,2.992264636608189,6283.476569844776,4.114,3.69,2.729,2.409
-1.4,11999965570.481134,0.7969244719,3.303695410368148,6195.837230776552,4.028,3.586,2.591,2.257
-1.4,11999965570.481134,0.7989388108,3.5892193464500526,6089.757514677301,3.965,3.501,2.463,2.112
-1.4,11999965570.481134,0.8000000119,3.767037989839088,6011.737374832779,3.934,3.453,2.383,2.018
-1.4,11999965570.481134,0.8003965616,3.8370724549227875,5982.738215608625,3.923,3.435,2.353,1.983
-1.4,11999965570.481134,0.8017661572,4.111497211045222,5854.637363205773,3.89,3.371,2.235,1.842
-1.4,11999965570.481134,0.8027409315,4.355118736855686,5746.45486597673,3.864,3.318,2.134,1.721
-1.4,11999965570.481134,0.8036311865,4.688133821452653,5646.768716165364,3.822,3.249,2.02,1.589
-1.4,11999965570.481134,0.804323554,5.081594425605605,5579.560614821764,3.761,3.17,1.91,1.465
-1.4,11999965570.481134,0.8049880862,5.597576014951102,5524.589326132767,3.678,3.072,1.787,1.331
-1.4,11999965570.481134,0.80509758,5.701642722807475,5516.9620938349835,3.659,3.053,1.764,1.306
-1.4,11999965570.481134,0.8056740165,6.33869711256927,5481.507340176555,3.56,2.944,1.638,1.172
-1.4,11999965570.481134,0.8061597347,6.982324040771713,5455.065881703734,3.466,2.843,1.524,1.052
-1.4,11999965570.481134,0.8066987991,7.852356346100718,5430.002130657378,3.35,2.721,1.388,0.911
-1.4,11999965570.481134,0.8071970344,8.81048873008014,5406.298239953035,3.234,2.598,1.254,0.771
-1.4,11999965570.481134,0.8076969385,10.0,5385.177219975279,3.105,2.464,1.109,0.621
-1.4,11999965570.481134,0.8081397414,11.297959146727976,5364.138714402962,2.981,2.335,0.969,0.476
-1.4,11999965570.481134,0.8085154891,12.647363474711517,5345.643593969719,2.867,2.216,0.84,0.342
-1.4,11999965570.481134,0.8088095188,13.931568029453029,5329.666080102771,2.771,2.116,0.731,0.229
-1.4,11999965570.481134,0.8091351986,15.631476426409538,5311.289818550133,2.655,1.994,0.6,0.093
-1.4,11999965570.481134,0.8094465137,17.619760464116293,5290.539972095819,2.534,1.868,0.463,-0.05
-1.4,11999965570.481134,0.8097285032,19.860949173573715,5269.871189967232,2.413,1.741,0.325,-0.192
-1.4,11999965570.481134,0.80997473,22.284351492703042,5250.491986747626,2.298,1.62,0.193,-0.329
-1.4,11999965570.481134,0.8101972938,24.94594726942955,5228.775553134414,2.186,1.502,0.063,-0.464
-1.4,11999965570.481134,0.8103975058,27.925438412373378,5208.348068742078,2.076,1.385,-0.065,-0.598
-1.4,11999965570.481134,0.8105834126,31.260793671239558,5185.611776858396,1.963,1.266,-0.197,-0.736
-1.4,11999965570.481134,0.8107479811,34.99451670283573,5162.974736975886,1.855,1.15,-0.325,-0.87
-1.4,11999965570.481134,0.810901463,39.174187710778305,5140.436515824259,1.745,1.032,-0.456,-1.007
-1.4,11999965570.481134,0.8110371828,43.752210515825205,5117.996682024606,1.639,0.919,-0.583,-1.14
-1.4,11999965570.481134,0.811158061,48.64072056914617,5094.481623274436,1.537,0.808,-0.707,-1.269
-1.4,11999965570.481134,0.811270237,54.20008904016238,5072.242398926514,1.434,0.697,-0.832,-1.4
-1.4,11999965570.481134,0.8113697767,60.11737374832779,5047.775135009473,1.336,0.59,-0.954,-1.527
-1.4,11999965570.481134,0.8114635944,66.98846094165265,5024.582714960762,1.237,0.48,-1.077,-1.657
-1.4,11999965570.481134,0.8115481734,74.13102413009177,5000.345349769783,1.141,0.374,-1.198,-1.783
-1.4,11999965570.481134,0.8116272092,82.22426499470713,4976.224899734694,1.046,0.269,-1.319,-1.911
-1.4,11999965570.481134,0.8117029071,91.20108393559097,4951.080641176657,0.951,0.164,-1.44,-2.038
-1.4,11999965570.481134,0.8117805719,100.46157902783946,4928.332491971514,0.864,0.067,-1.551,-2.156
-1.4,11999965570.481134,0.8118511438,106.90548792226576,4914.733801992678,0.806,0.002,-1.625,-2.233
-1.4,11999965570.481134,0.8118943572,103.75284158180126,4924.929296050273,0.832,0.033,-1.587,-2.192
-1.4,11999965570.481134,0.8119094968,102.5651926251408,4929.467413122061,0.842,0.044,-1.573,-2.177
-1.4,11999965570.481134,0.8119595051,112.46049739669269,4906.818567679515,0.759,-0.049,-1.681,-2.291
-1.4,11999965570.481134,0.8120068312,123.31048332289096,4883.149268098355,0.678,-0.141,-1.79,-2.407
-1.4,11999965570.481134,0.8120529056,135.8313446587154,4858.475309374926,0.595,-0.236,-1.902,-2.528
-1.4,11999965570.481134,0.8120957613,149.2794409578996,4833.926025160843,0.516,-0.332,-2.016,-2.649
-1.4,11999965570.481134,0.8121339679,163.68165214278085,4808.393484497285,0.442,-0.424,-2.127,-2.765
-1.4,11999965570.481134,0.8121694922,179.47336268325265,4784.097257646801,0.37,-0.517,-2.237,-2.881
-1.4,11999965570.481134,0.8122023344,196.7886289706845,4758.827909888171,0.302,-0.606,-2.346,-2.996
-1.4,11999965570.481134,0.8122329116,215.27817347243737,4733.692033483014,0.235,-0.695,-2.454,-3.111
-1.4,11999965570.481134,0.8122601509,234.96328208483072,4708.688923442734,0.173,-0.78,-2.558,-3.221
-1.4,11999965570.481134,0.8122857809,256.4484036517716,4683.817878502438,0.113,-0.864,-2.663,-3.332
-1.4,11999965570.481134,0.8123147488,285.75905433749466,4652.645890999017,0.043,-0.965,-2.791,-3.467
-1.4,11999965570.481134,0.8123407364,316.956746304349,4623.810213992603,-0.02,-1.062,-2.915,-3.598
-1.4,11999965570.481134,0.8123649955,351.560440528298,4591.980128368686,-0.079,-1.158,-3.041,-3.732
-1.4,11999965570.481134,0.812386632,388.15036599064825,4562.469770768501,-0.132,-1.248,-3.161,-3.859
-1.4,11999965570.481134,0.8124064207,428.54852039743963,4532.1053854810425,-0.184,-1.334,-3.279,-3.987
-1.4,11999965570.481134,0.8124254346,475.3352259428054,4501.94308282431,-0.244,-1.422,-3.4,-4.119
-1.4,11999965570.481134,0.8124418855,522.3961889991198,4471.981517887507,-0.298,-1.504,-3.513,-4.242
-1.4,11999965570.481134,0.8124573827,575.4399373371566,4442.2193547105535,-0.35,-1.584,-3.626,-4.367
-1.4,11999965570.481134,0.8124720454,633.869711256927,4412.655266224519,-0.403,-1.665,-3.741,-4.493
-1.4,11999965570.481134,0.8124846816,693.4258060165695,4384.297339745673,-0.45,-1.739,-3.846,-4.61
-1.4,11999965570.481134,0.8124969602,762.0790100254122,4355.118736855684,-0.491,-1.811,-3.956,-4.731
-1.4,11999965570.481134,0.8125084639,835.6030182312483,4326.1343249159545,-0.529,-1.882,-4.066,-4.852
-1.4,11999965570.481134,0.8125184178,909.9132726322517,4299.3222667877035,-0.562,-1.946,-4.166,-4.964
-1.4,11999965570.481134,0.8125279546,993.1160484209336,4270.709194407456,-0.592,-2.009,-4.269,-5.079
-1.4,11999965570.481134,0.8125371933,1086.4256236170656,4243.263484275837,-0.624,-2.074,-4.374,-5.196
-1.4,11999965570.481134,0.8125452995,1180.3206356517298,4215.994153984273,-0.651,-2.132,-4.471,-5.304
-1.4,11999965570.481134,0.8125533462,1285.2866599436154,4188.900070027829,-0.68,-2.193,-4.573,-5.418
-1.4,11999965570.481134,0.8125607371,1399.5873225726177,4161.980106186026,-0.707,-2.251,-4.672,-5.529
-1.4,11999965570.481134,0.8125675917,1520.5475297324954,4137.137927273515,-0.732,-2.307,-4.767,-5.637
-1.4,11999965570.481134,0.8125740886,1651.961798229015,4110.55061281175,-0.754,-2.361,-4.863,-5.746
-1.4,11999965570.481134,0.8125802279,1790.6058540352947,4086.015408138228,-0.767,-2.409,-4.958,-5.853
-1.4,11999965570.481134,0.8125860095,1936.4219639466069,4062.5619818684354,-0.777,-2.453,-5.048,-5.954
-1.4,11999965570.481134,0.8125904202,2046.444636724674,4044.827453799996,-0.784,-2.484,-5.113,-6.027
-1.4,11999965570.481134,0.8125904202,53.456435939697165,5759.701812546716,1.093,0.578,-0.587,-0.995
-1.4,11999965570.481134,0.8126375079,55.46257129579107,5734.558665459647,1.062,0.54,-0.637,-1.051
-1.4,11999965570.481134,0.8126856685,55.84701947368309,5734.558665459647,1.055,0.533,-0.645,-1.058
-1.4,11999965570.481134,0.8127346635,55.97576014951102,5738.521326746189,1.05,0.529,-0.646,-1.058
-1.4,11999965570.481134,0.8127852678,56.104797603247064,5747.778188455213,1.045,0.527,-0.644,-1.055
-1.4,11999965570.481134,0.8128345609,55.97576014951102,5759.701812546716,1.041,0.525,-0.64,-1.048
-1.4,11999965570.481134,0.8128841519,55.97576014951102,5774.3087271398535,1.036,0.524,-0.633,-1.038
-1.4,11999965570.481134,0.8129348755,55.84701947368309,5792.952933981774,1.031,0.524,-0.625,-1.026
-1.4,11999965570.481134,0.812985003,55.71857489319299,5812.9956772538835,1.025,0.524,-0.615,-1.012
-1.4,11999965570.481134,0.8130358458,55.59042572704037,5834.451042737448,1.02,0.524,-0.606,-0.998
-1.4,11999965570.481134,0.8130840063,55.46257129579107,5853.2894383255725,1.015,0.524,-0.597,-0.985
-1.4,11999965570.481134,0.8131353259,55.335010921573684,5872.188659713034,1.009,0.523,-0.588,-0.972
-1.4,11999965570.481134,0.8131856918,55.207743928075736,5889.792572290247,1.005,0.523,-0.58,-0.961
-1.4,11999965570.481134,0.8132328391,55.08076964054035,5903.369946398826,1.001,0.522,-0.574,-0.952
-1.4,11999965570.481134,0.813282609,55.08076964054035,5915.616341754737,0.997,0.522,-0.569,-0.944
-1.4,11999965570.481134,0.8132942319,55.08076964054035,5918.341211131826,0.996,0.522,-0.568,-0.942
-1.4,11999965570.481134,0.8133000135,55.08076964054035,5918.341211131826,0.995,0.521,-0.567,-0.941
-1.4,11999965570.481134,0.8133508563,55.08076964054035,5925.158877066759,0.993,0.52,-0.566,-0.938
-1.4,11999965570.481134,0.813403666,55.08076964054035,5925.158877066759,0.991,0.519,-0.566,-0.939
-1.4,11999965570.481134,0.8134534955,55.207743928075736,5922.430868761306,0.991,0.517,-0.57,-0.943
-1.4,11999965570.481134,0.813503623,55.335010921573684,5914.25437756224,0.991,0.516,-0.576,-0.951
-1.4,11999965570.481134,0.8135536909,55.59042572704037,5900.651969956664,0.992,0.513,-0.585,-0.962
-1.4,11999965570.481134,0.8136028647,55.84701947368309,5881.661141430384,0.994,0.51,-0.596,-0.978
-1.4,11999965570.481134,0.8136529326,56.23413251903491,5862.731433534501,0.995,0.507,-0.609,-0.995
-1.4,11999965570.481134,0.8136621118,56.23413251903491,5858.683000573763,0.995,0.506,-0.612,-0.998
-1.4,11999965570.481134,0.8136712313,56.36376558259543,5854.637363205773,0.996,0.505,-0.615,-1.002
-1.4,11999965570.481134,0.8137171865,56.754460540854716,5831.764797316426,0.997,0.501,-0.63,-1.023
-1.4,11999965570.481134,0.8137622476,57.14786366718669,5806.307069668667,0.998,0.495,-0.647,-1.045
-1.4,11999965570.481134,0.813808918,57.80960474057181,5779.6295119546585,0.998,0.488,-0.667,-1.07
-1.4,11999965570.481134,0.8138565421,58.47900841444806,5753.074526484432,0.997,0.481,-0.687,-1.096
-1.4,11999965570.481134,0.8139014244,59.1561634175474,5727.960309858292,0.995,0.472,-0.708,-1.122
-1.4,11999965570.481134,0.8139480352,59.84115950603196,5704.269030998695,0.992,0.462,-0.73,-1.15
-1.4,11999965570.481134,0.8139935136,60.53408747539136,5681.983915599056,0.989,0.452,-0.751,-1.175
-1.4,11999965570.481134,0.8140389323,61.235039172477336,5665.001119195332,0.984,0.442,-0.769,-1.198
-1.4,11999965570.481134,0.8140848279,62.51726927756859,5636.376558259543,0.975,0.425,-0.801,-1.236
-1.4,11999965570.481134,0.8141328692,64.26877173170197,5602.733947937972,0.961,0.401,-0.841,-1.283
-1.4,11999965570.481134,0.8141800761,66.3743070401909,5564.164998729974,0.942,0.371,-0.889,-1.339
-1.4,11999965570.481134,0.8142258525,71.44963260755135,5491.613955526368,0.896,0.305,-0.992,-1.458
-1.4,11999965570.481134,0.8142463565,76.73614893618189,5427.502097963167,0.849,0.237,-1.093,-1.573
-1.4,11999965570.481134,0.8142573237,82.7942163712334,5364.138714402962,0.797,0.164,-1.198,-1.692
-1.4,11999965570.481134,0.8142626286,89.33054837332953,5310.066989662834,0.745,0.094,-1.298,-1.804
-1.4,11999965570.481134,0.814265728,96.8277856261249,5256.540320069867,0.686,0.015,-1.405,-1.924
-1.4,11999965570.481134,0.8142672777,104.71285480508996,5210.747154033924,0.63,-0.058,-1.504,-2.034
-1.4,11999965570.481134,0.8142681122,110.66237839776664,5179.645056050334,0.588,-0.112,-1.575,-2.112
-1.4,11999965570.481134,0.8142681718,110.9174815262401,5179.645056050334,0.586,-0.113,-1.577,-2.115
-1.4,11999965570.481134,0.8142691255,121.33888504649774,5136.886854227248,0.516,-0.2,-1.689,-2.237
-1.4,11999965570.481134,0.8142699599,132.1295634186575,5098.001982256051,0.449,-0.284,-1.796,-2.353
-1.4,11999965570.481134,0.814270854,141.5793779957081,5067.572841772825,0.395,-0.35,-1.881,-2.447
-1.4,11999965570.481134,0.8142717481,148.59356422870076,5046.612975635282,0.356,-0.398,-1.942,-2.513
-1.4,11999965570.481134,0.8142730594,151.35612484362088,5039.645636126428,0.343,-0.415,-1.963,-2.536
-1.4,11999965570.481134,0.8142755628,144.87718535447618,5059.411458459371,0.377,-0.372,-1.909,-2.476
-1.4,11999965570.481134,0.8142794967,140.28137045619576,5072.242398926514,0.402,-0.341,-1.869,-2.433
-1.4,11999965570.481134,0.8143042326,143.5489433353656,5061.74194011213,0.384,-0.364,-1.899,-2.466
-1.4,11999965570.481134,0.814322114,152.40527537972906,5035.006087879047,0.338,-0.422,-1.974,-2.548
-1.4,11999965570.481134,0.8143410683,169.43378004473288,4989.993730845963,0.257,-0.523,-2.105,-2.691
-1.4,11999965570.481134,0.8143594265,187.93168168032685,4947.661736816762,0.179,-0.622,-2.231,-2.83
-1.4,11999965570.481134,0.8143755794,207.01413487910415,4909.078761526029,0.104,-0.715,-2.35,-2.959
-1.4,11999965570.481134,0.8143898249,228.03420720004186,4873.040266252349,0.032,-0.805,-2.467,-3.087
-1.4,11999965570.481134,0.8144022822,250.6109253032114,4837.266336532547,-0.036,-0.895,-2.582,-3.213
-1.4,11999965570.481134,0.8144132495,274.78941531023975,4801.755030139799,-0.096,-0.984,-2.697,-3.336
-1.4,11999965570.481134,0.8144230843,301.3006024186122,4767.60207367496,-0.154,-1.072,-2.812,-3.458
-1.4,11999965570.481134,0.8144319654,331.1311214825911,4732.602186090037,-0.208,-1.159,-2.926,-3.581
-1.4,11999965570.481134,0.8144401312,363.0780547701014,4687.05446301803,-0.242,-1.239,-3.046,-3.71
-1.4,11999965570.481134,0.8144459128,389.9419866765436,4646.222461325775,-0.254,-1.295,-3.138,-3.812
-1.4,11999965570.481134,0.8144529462,427.562886151586,4571.934501781391,-0.228,-1.354,-3.267,-3.96
-1.4,11999965570.481134,0.8144597411,469.8941086052156,4536.281531692419,-0.262,-1.431,-3.382,-4.086
-1.4,11999965570.481134,0.814466238,516.416369272071,4504.016781680873,-0.308,-1.508,-3.494,-4.209
-1.4,11999965570.481134,0.8144726157,567.5446054085471,4477.133041763624,-0.36,-1.59,-3.607,-4.331
-1.4,11999965570.481134,0.8144783974,622.3002851691596,4464.779341129965,-0.423,-1.677,-3.714,-4.441
-1.4,11999965570.481134,0.8144837022,682.3386941416697,4511.282252715862,-0.563,-1.803,-3.806,-4.513
-1.4,11999965570.481134,0.814486146,714.4963260755135,4612.113644917027,-0.777,-1.92,-3.825,-4.499
