FeH,Age,Mini,L,Te,Bmag,Vmag,Jmag,Kmag
-1.0,5499965939.7640295,0.0900000036,0.0005727960309858292,2775.2365081372714,18.571,16.56,10.794,10.253
-1.0,5499965939.7640295,0.0932464004,0.0006886522963442763,2848.3935915323636,18.006,16.027,10.629,10.046
-1.0,5499965939.7640295,0.1000000015,0.0009931160484209335,2999.16251898765,16.929,15.009,10.305,9.647
-1.0,5499965939.7640295,0.1199999973,0.0018967059212111465,3238.1726473132535,15.345,13.551,9.709,8.97
-1.0,5499965939.7640295,0.1400000006,0.0028973435877013244,3373.6498087376713,14.49,12.791,9.305,8.54
-1.0,5499965939.7640295,0.157198891,0.0038194427084004643,3449.848313627505,13.995,12.354,9.034,8.26
-1.0,5499965939.7640295,0.1599999964,0.003981071705534973,3461.784268375584,13.92,12.288,8.992,8.217
-1.0,5499965939.7640295,0.2000000179,0.006486344335482381,3581.789013481115,13.121,11.578,8.506,7.719
-1.0,5499965939.7640295,0.25,0.010327614057613975,3679.594830147843,12.421,10.946,8.038,7.243
-1.0,5499965939.7640295,0.3000000417,0.014962356560944336,3754.9140460984254,11.882,10.457,7.661,6.862
-1.0,5499965939.7640295,0.3157129884,0.016634126503701697,3775.72190925416,11.734,10.321,7.553,6.754
-1.0,5499965939.7640295,0.349999994,0.020606299132700005,3816.8052419008277,11.434,10.047,7.334,6.533
-1.0,5499965939.7640295,0.3968001306,0.028379190284415566,3908.4089579240213,10.945,9.613,7.015,6.215
-1.0,5499965939.7640295,0.400000006,0.028973435877013228,3913.812356122119,10.914,9.586,6.994,6.194
-1.0,5499965939.7640295,0.4499999881,0.042953642676488726,4057.8874759172845,10.285,9.042,6.608,5.818
-1.0,5499965939.7640295,0.5,0.06652731562017412,4287.459197337663,9.518,8.402,6.195,5.432
-1.0,5499965939.7640295,0.5500000715,0.10568175092136585,4603.625637759879,8.643,7.692,5.776,5.085
-1.0,5499965939.7640295,0.6000000238,0.16180800376430657,4907.948534495558,7.901,7.07,5.408,4.807
-1.0,5499965939.7640295,0.627857089,0.20417379446695297,5092.136067911513,7.522,6.749,5.215,4.665
-1.0,5499965939.7640295,0.6499999762,0.24490632418447456,5239.622519059377,7.239,6.509,5.067,4.556
-1.0,5499965939.7640295,0.6551242471,0.2552701302661247,5273.512745624402,7.176,6.456,5.034,4.53
-1.0,5499965939.7640295,0.6781102419,0.30690219883911574,5422.505485172428,6.903,6.225,4.883,4.414
-1.0,5499965939.7640295,0.699314177,0.3622429984166986,5559.042572704037,6.662,6.021,4.748,4.307
-1.0,5499965939.7640295,0.6999999881,0.3647539469256078,5564.164998729974,6.655,6.014,4.743,4.303
-1.0,5499965939.7640295,0.7122479677,0.4008667176273028,5641.570244329835,6.52,5.9,4.667,4.242
-1.0,5499965939.7640295,0.7342762947,0.4753352259428053,5779.6295119546585,6.282,5.7,4.531,4.132
-1.0,5499965939.7640295,0.75,0.5357966575133416,5876.246425275582,6.117,5.561,4.435,4.052
-1.0,5499965939.7640295,0.7581040859,0.5701642722807475,5916.978619587192,6.036,5.491,4.382,4.007
-1.0,5499965939.7640295,0.7794160247,0.6714288529259523,6021.434963870294,5.825,5.308,4.243,3.885
-1.0,5499965939.7640295,0.7992997766,0.7816278045883296,6116.458029546624,5.631,5.138,4.111,3.769
-1.0,5499965939.7640295,0.8000000119,0.7870457896950986,6119.275411239092,5.624,5.132,4.107,3.764
-1.0,5499965939.7640295,0.816342175,0.8933054837332952,6191.558775938767,5.466,4.992,3.996,3.665
-1.0,5499965939.7640295,0.8369874954,1.0471285480508996,6282.029912455561,5.267,4.814,3.853,3.537
-1.0,5499965939.7640295,0.8500000238,1.1614486138403428,6335.778706712548,5.14,4.701,3.762,3.454
-1.0,5499965939.7640295,0.8603574038,1.2589254117941673,6381.165375104194,5.04,4.61,3.689,3.388
-1.0,5499965939.7640295,0.8775584698,1.4454397707459274,6455.055787690059,4.869,4.455,3.563,3.275
-1.0,5499965939.7640295,0.8923265338,1.6368165214278085,6517.7845431913875,4.719,4.319,3.451,3.173
-1.0,5499965939.7640295,0.8999999762,1.7458221529205038,6550.885369386104,4.639,4.245,3.39,3.117
-1.0,5499965939.7640295,0.9057174325,1.8365383433483464,6576.578373554205,4.579,4.19,3.346,3.076
-1.0,5499965939.7640295,0.9180777073,2.046444636724674,6631.320218835529,4.446,4.068,3.245,2.984
-1.0,5499965939.7640295,0.9289243221,2.2594357702209775,6678.824013665395,4.327,3.958,3.153,2.899
-1.0,5499965939.7640295,0.9392612576,2.4831331052955705,6720.475466282961,4.213,3.852,3.064,2.816
-1.0,5499965939.7640295,0.949428618,2.728977782808041,6757.716993552864,4.101,3.747,2.974,2.732
-1.0,5499965939.7640295,0.9499999285,2.7415741719278826,6759.273194551448,4.095,3.741,2.969,2.727
-1.0,5499965939.7640295,0.9601092935,3.019951720402016,6795.164894815247,3.981,3.634,2.876,2.64
-1.0,5499965939.7640295,0.9691362977,3.311311214825911,6824.958265220593,3.873,3.531,2.785,2.554
-1.0,5499965939.7640295,0.980091691,3.7325015779572053,6851.726201349487,3.734,3.399,2.664,2.437
-1.0,5499965939.7640295,0.9808519483,3.758374042884441,6853.304051260454,3.725,3.389,2.656,2.429
-1.0,5499965939.7640295,0.9898036122,4.1975898399100755,6853.304051260454,3.603,3.269,2.537,2.31
-1.0,5499965939.7640295,0.9985278249,4.698941086052154,6826.529950876831,3.48,3.143,2.403,2.174
-1.0,5499965939.7640295,1.0,4.797334486366892,6820.245379032683,3.459,3.122,2.38,2.149
-1.0,5499965939.7640295,1.0006636381,4.841723675840994,6818.675140286001,3.45,3.112,2.369,2.139
-1.0,5499965939.7640295,1.0054248571,5.188000389289611,6785.783509504071,3.379,3.038,2.284,2.049
-1.0,5499965939.7640295,1.0069292784,5.3088444423098835,6767.059576741911,3.357,3.012,2.252,2.014
-1.0,5499965939.7640295,1.0121707916,5.780960474057181,6677.286334642772,3.281,2.923,2.13,1.88
-1.0,5499965939.7640295,1.016163826,6.208690342300636,6562.9636672922,3.228,2.851,2.015,1.749
-1.0,5499965939.7640295,1.0191574097,6.546361740672749,6435.762368376424,3.198,2.797,1.913,1.627
-1.0,5499965939.7640295,1.0214406252,6.823386941416696,6297.961479295171,3.191,2.762,1.823,1.515
-1.0,5499965939.7640295,1.0232137442,6.998419960022734,6158.855291153395,3.204,2.745,1.75,1.418
-1.0,5499965939.7640295,1.0246164799,7.06317554262962,6026.983465211851,3.236,2.746,1.694,1.339
-1.0,5499965939.7640295,1.0257627964,7.046930689671469,5906.089174803649,3.278,2.757,1.654,1.276
-1.0,5499965939.7640295,1.0267381668,7.030723198838334,5796.955946535209,3.321,2.771,1.619,1.221
-1.0,5499965939.7640295,1.0276099443,7.06317554262962,5704.269030998695,3.352,2.778,1.582,1.166
-1.0,5499965939.7640295,1.0284401178,7.16143410212902,5623.413251903491,3.369,2.773,1.54,1.108
-1.0,5499965939.7640295,1.0294573307,7.464487584100665,5541.151189716864,3.358,2.741,1.469,1.02
-1.0,5499965939.7640295,1.0304604769,7.961593504173188,5476.461009618943,3.316,2.682,1.378,0.914
-1.0,5499965939.7640295,1.0306036472,8.053784411990666,5468.900223137939,3.308,2.672,1.364,0.898
-1.0,5499965939.7640295,1.0307663679,8.165823713585924,5461.349875057235,3.295,2.657,1.345,0.878
-1.0,5499965939.7640295,1.0319199562,9.162204901219997,5415.019189534895,3.192,2.54,1.205,0.727
-1.0,5499965939.7640295,1.0327373743,10.046157902783952,5387.657756854133,3.106,2.447,1.096,0.612
-1.0,5499965939.7640295,1.0336248875,11.194378834671515,5360.43457816143,3.001,2.334,0.97,0.478
-1.0,5499965939.7640295,1.0343725681,12.33104833228909,5338.263413640386,2.904,2.232,0.856,0.359
-1.0,5499965939.7640295,1.035143733,13.772094688939466,5316.183950739626,2.796,2.118,0.73,0.228
-1.0,5499965939.7640295,1.0358428955,15.310874616820303,5295.414984166674,2.691,2.006,0.608,0.101
-1.0,5499965939.7640295,1.0364854336,17.02158508394951,5274.727156616845,2.586,1.896,0.487,-0.025
-1.0,5499965939.7640295,1.0371134281,19.010782799232995,5252.910484500485,2.476,1.779,0.359,-0.159
-1.0,5499965939.7640295,1.0376480818,21.086281499332898,5233.59365186758,2.375,1.673,0.241,-0.282
-1.0,5499965939.7640295,1.0381737947,23.49632820848307,5210.747154033924,2.27,1.56,0.114,-0.414
-1.0,5499965939.7640295,1.0386241674,26.001595631652723,5189.195108067298,2.172,1.455,-0.003,-0.538
-1.0,5499965939.7640295,1.0390598774,28.973435877013227,5166.542425669501,2.069,1.345,-0.127,-0.668
-1.0,5499965939.7640295,1.0394484997,32.06269324505466,5143.988630287732,1.971,1.239,-0.247,-0.794
-1.0,5499965939.7640295,1.039799571,35.48133892335755,5120.354149383066,1.875,1.135,-0.364,-0.918
-1.0,5499965939.7640295,1.0401268005,39.26449353995999,5096.828259054277,1.78,1.032,-0.482,-1.042
-1.0,5499965939.7640295,1.0404269695,43.45102241715714,5073.410460372977,1.686,0.93,-0.599,-1.166
-1.0,5499965939.7640295,1.0407044888,47.97334486366892,5048.937562011554,1.593,0.829,-0.716,-1.29
-1.0,5499965939.7640295,1.0409600735,53.08844442309885,5023.4258952238715,1.501,0.728,-0.833,-1.414
-1.0,5499965939.7640295,1.0411914587,58.47900841444806,4999.1941102499995,1.413,0.629,-0.946,-1.534
-1.0,5499965939.7640295,1.0414113998,64.56542290346556,4973.933791067749,1.324,0.53,-1.062,-1.657
-1.0,5499965939.7640295,1.0416127443,71.12135136533291,4948.801109202861,1.238,0.433,-1.176,-1.777
-1.0,5499965939.7640295,1.0417971611,78.16278045883297,4923.795419719503,1.154,0.339,-1.286,-1.895
-1.0,5499965939.7640295,1.0419700146,85.70378452303697,4897.7881936844615,1.073,0.246,-1.396,-2.011
-1.0,5499965939.7640295,1.0421359539,93.75620069258802,4874.162454431541,0.997,0.159,-1.5,-2.123
-1.0,5499965939.7640295,1.0423076153,101.39113857366789,4851.7677121925735,0.928,0.081,-1.594,-2.224
-1.0,5499965939.7640295,1.0424435139,106.41430182243164,4839.4944930166275,0.886,0.034,-1.65,-2.284
-1.0,5499965939.7640295,1.0425468683,100.92528860766845,4857.356732878539,0.93,0.085,-1.586,-2.214
-1.0,5499965939.7640295,1.0426470041,93.9723310564638,4880.901012475759,0.987,0.152,-1.502,-2.122
-1.0,5499965939.7640295,1.0426607132,92.89663867799364,4885.398559319364,0.996,0.164,-1.488,-2.107
-1.0,5499965939.7640295,1.0427269936,97.2747223776965,4871.918336436785,0.958,0.119,-1.541,-2.164
-1.0,5499965939.7640295,1.0428630114,106.90548792226576,4845.069375499792,0.876,0.026,-1.654,-2.286
-1.0,5499965939.7640295,1.0429959297,117.76059735208078,4817.25903559163,0.795,-0.068,-1.768,-2.409
-1.0,5499965939.7640295,1.0431189537,129.41958414499862,4789.608324977883,0.716,-0.16,-1.88,-2.53
-1.0,5499965939.7640295,1.0432337523,142.56075936021878,4762.116327398207,0.643,-0.252,-1.992,-2.649
-1.0,5499965939.7640295,1.043341279,156.67510701081486,4734.782131851524,0.572,-0.346,-2.106,-2.769
-1.0,5499965939.7640295,1.0434378386,171.39573075084252,4706.520991281343,0.507,-0.435,-2.215,-2.884
-1.0,5499965939.7640295,1.0435301065,188.36490894898,4678.428536839501,0.44,-0.526,-2.327,-3.003
-1.0,5499965939.7640295,1.0436121225,206.06299132700005,4651.574703021666,0.38,-0.611,-2.433,-3.116
-1.0,5499965939.7640295,1.043690443,225.94357702209783,4622.74566491089,0.318,-0.698,-2.542,-3.232
-1.0,5499965939.7640295,1.0437612534,246.60393372343387,4595.153251697754,0.262,-0.781,-2.648,-3.345
-1.0,5499965939.7640295,1.043828845,270.3958364108843,4566.673896495316,0.205,-0.866,-2.756,-3.461
-1.0,5499965939.7640295,1.0438895226,294.44216337987604,4539.416166502032,0.153,-0.945,-2.859,-3.572
-1.0,5499965939.7640295,1.0439468622,322.10687912834345,4511.282252715862,0.102,-1.025,-2.964,-3.684
-1.0,5499965939.7640295,1.0440000296,350.75187395256796,4483.322704327333,0.05,-1.101,-3.066,-3.797
-1.0,5499965939.7640295,1.044049859,382.82474331682283,4455.536440673005,-0.001,-1.174,-3.168,-3.91
-1.0,5499965939.7640295,1.0440969467,417.83036664662177,4427.922387787075,-0.052,-1.248,-3.272,-4.024
-1.0,5499965939.7640295,1.0441496372,464.5152752227492,4393.3924564447625,-0.111,-1.334,-3.395,-4.161
-1.0,5499965939.7640295,1.0441900492,505.82466200311427,4365.158322401661,-0.159,-1.405,-3.496,-4.273
-1.0,5499965939.7640295,1.0442363024,562.341325190349,4331.1178393104055,-0.216,-1.489,-3.619,-4.41
-1.0,5499965939.7640295,1.0442774296,622.3002851691596,4296.3534256987,-0.267,-1.569,-3.738,-4.543
-1.0,5499965939.7640295,1.0443166494,688.6522963442762,4261.868054241604,-0.319,-1.65,-3.858,-4.679
-1.0,5499965939.7640295,1.0443532467,763.8357835776907,4228.63305181499,-0.368,-1.728,-3.978,-4.814
-1.0,5499965939.7640295,1.0443866253,847.2274141405964,4195.657223387252,-0.411,-1.803,-4.097,-4.948
-1.0,5499965939.7640295,1.0444170237,935.4056741475521,4161.980106186026,-0.447,-1.872,-4.212,-5.079
-1.0,5499965939.7640295,1.0444455147,1032.7614057613969,4129.524052369216,-0.482,-1.94,-4.327,-5.209
-1.0,5499965939.7640295,1.0444725752,1140.2497875611684,4096.377763696796,-0.518,-2.008,-4.444,-5.341
-1.0,5499965939.7640295,1.0444971323,1256.0299636948755,4064.4332916521275,-0.549,-2.073,-4.556,-5.469
-1.0,5499965939.7640295,1.0445201397,1383.566378971781,4031.809464434654,-0.576,-2.134,-4.668,-5.597
-1.0,5499965939.7640295,1.0445423126,1527.5660582380733,4000.3685104612505,-0.605,-2.197,-4.782,-5.728
-1.0,5499965939.7640295,1.0445628166,1682.6740610704674,3968.2589095091143,-0.63,-2.256,-4.893,-5.856
-1.0,5499965939.7640295,1.0445815325,1849.2686189780777,3937.313537008506,-0.649,-2.31,-5.0,-5.979
-1.0,5499965939.7640295,1.0445995331,2023.0191786782718,3908.4089579240213,-0.66,-2.358,-5.104,-6.1
-1.0,5499965939.7640295,1.0446101427,2128.139045982711,3891.3473626359746,-0.666,-2.385,-5.164,-6.169
-1.0,5499965939.7640295,1.0446101427,64.86344335482384,5279.587597837324,1.126,0.441,-0.968,-1.482
-1.0,5499965939.7640295,1.0447552204,66.68067692136222,5266.2321489389715,1.102,0.412,-1.004,-1.521
-1.0,5499965939.7640295,1.0448981524,67.45280276979219,5261.38400287851,1.092,0.401,-1.018,-1.535
-1.0,5499965939.7640295,1.0450435877,67.92036326171846,5261.38400287851,1.085,0.394,-1.025,-1.543
-1.0,5499965939.7640295,1.0451910496,68.23386941416697,5265.019693769153,1.079,0.389,-1.028,-1.545
-1.0,5499965939.7640295,1.0453366041,68.39116472814293,5268.657896973707,1.075,0.386,-1.029,-1.545
-1.0,5499965939.7640295,1.0454852581,68.39116472814293,5274.727156616845,1.07,0.383,-1.028,-1.543
-1.0,5499965939.7640295,1.0456331968,68.54882264526617,5280.803407777241,1.066,0.381,-1.028,-1.541
-1.0,5499965939.7640295,1.0457825661,68.54882264526617,5285.669448009903,1.061,0.378,-1.027,-1.539
-1.0,5499965939.7640295,1.0459337234,68.7068440014232,5291.758304203465,1.057,0.376,-1.026,-1.537
-1.0,5499965939.7640295,1.0460835695,68.7068440014232,5296.634438916581,1.052,0.373,-1.026,-1.536
-1.0,5499965939.7640295,1.046235919,68.86522963442762,5301.515066784589,1.047,0.37,-1.027,-1.535
-1.0,5499965939.7640295,1.0463837385,69.02398038402418,5306.40019194775,1.043,0.367,-1.027,-1.534
-1.0,5499965939.7640295,1.0465210676,69.18309709189366,5310.066989662834,1.038,0.364,-1.028,-1.534
-1.0,5499965939.7640295,1.0466647148,69.3425806016569,5313.736321187098,1.034,0.36,-1.029,-1.535
-1.0,5499965939.7640295,1.0466820002,69.3425806016569,5313.736321187098,1.033,0.36,-1.03,-1.535
-1.0,5499965939.7640295,1.0468256474,69.5024317588797,5317.408188271428,1.029,0.357,-1.031,-1.536
-1.0,5499965939.7640295,1.0469635725,69.66265141107687,5319.857509170661,1.025,0.353,-1.033,-1.537
-1.0,5499965939.7640295,1.047109127,69.82324040771715,5322.307958283607,1.02,0.35,-1.036,-1.539
-1.0,5499965939.7640295,1.0472512245,70.14552984199715,5323.533606082614,1.016,0.346,-1.038,-1.541
-1.0,5499965939.7640295,1.0473948717,70.30723198838334,5324.7595361299545,1.012,0.342,-1.042,-1.544
-1.0,5499965939.7640295,1.0475367308,70.6317554262962,5325.985748490616,1.007,0.338,-1.046,-1.548
-1.0,5499965939.7640295,1.0476775169,70.95777679633888,5324.7595361299545,1.003,0.333,-1.051,-1.553
-1.0,5499965939.7640295,1.0477296114,70.95777679633888,5324.7595361299545,1.001,0.331,-1.052,-1.555
-1.0,5499965939.7640295,1.0477416515,71.12135136533291,5324.7595361299545,1.001,0.331,-1.053,-1.555
-1.0,5499965939.7640295,1.0478783846,71.44963260755135,5323.533606082614,0.996,0.326,-1.059,-1.562
-1.0,5499965939.7640295,1.0480159521,71.77942912713618,5321.082592667942,0.991,0.32,-1.066,-1.569
-1.0,5499965939.7640295,1.0481562614,72.27698036021702,5318.632707726801,0.986,0.313,-1.074,-1.578
-1.0,5499965939.7640295,1.0482931137,72.77798045368242,5313.736321187098,0.98,0.306,-1.083,-1.588
-1.0,5499965939.7640295,1.0484308004,73.45138681571152,5308.8444423098845,0.974,0.298,-1.094,-1.601
-1.0,5499965939.7640295,1.0485664606,74.13102413009177,5301.515066784589,0.967,0.289,-1.107,-1.615
-1.0,5499965939.7640295,1.0487043858,74.98942093324558,5294.19581017428,0.959,0.279,-1.121,-1.63
-1.0,5499965939.7640295,1.0488430262,75.85775750291836,5286.886658508808,0.951,0.268,-1.137,-1.648
-1.0,5499965939.7640295,1.0489861965,76.55966069112561,5279.587597837324,0.944,0.258,-1.15,-1.663
-1.0,5499965939.7640295,1.0491262674,77.090346906443,5275.9418472699535,0.939,0.252,-1.159,-1.672
-1.0,5499965939.7640295,1.0492643118,79.61593504173187,5251.701096404131,0.917,0.221,-1.203,-1.722
-1.0,5499965939.7640295,1.0494037867,84.72274141405963,5209.547473285554,0.877,0.166,-1.282,-1.812
-1.0,5499965939.7640295,1.0494948626,91.62204901219997,5158.221650723056,0.823,0.092,-1.386,-1.928
-1.0,5499965939.7640295,1.0495359898,99.5405417351527,5109.7540905467595,0.765,0.016,-1.491,-2.046
-1.0,5499965939.7640295,1.0495539904,107.89467222298286,5065.239675508819,0.707,-0.06,-1.595,-2.161
-1.0,5499965939.7640295,1.0495624542,117.48975549395291,5022.2693418239,0.646,-0.139,-1.7,-2.278
-1.0,5499965939.7640295,1.0495666265,126.76518658578462,4985.3998926398735,0.588,-0.212,-1.796,-2.384
-1.0,5499965939.7640295,1.0495681763,132.43415351946643,4964.779900060685,0.557,-0.251,-1.849,-2.443
-1.0,5499965939.7640295,1.0495698452,139.95873225726177,4940.831009106554,0.514,-0.304,-1.919,-2.519
-1.0,5499965939.7640295,1.0495729446,155.59656316050751,4896.660566104027,0.435,-0.404,-2.048,-2.661
-1.0,5499965939.7640295,1.0495768785,165.57699634695277,4871.918336436785,0.391,-0.46,-2.122,-2.743
-1.0,5499965939.7640295,1.0495847464,163.68165214278085,4877.530569745951,0.398,-0.45,-2.108,-2.727
-1.0,5499965939.7640295,1.0496487617,159.220872705117,4888.774438941448,0.418,-0.425,-2.075,-2.69
-1.0,5499965939.7640295,1.0497099161,169.43378004473288,4861.832584649837,0.374,-0.481,-2.151,-2.775
-1.0,5499965939.7640295,1.0497547388,185.35316234148104,4822.808303816475,0.313,-0.567,-2.264,-2.898
-1.0,5499965939.7640295,1.0497834682,200.44720273651615,4790.711300030745,0.263,-0.641,-2.36,-3.003
-1.0,5499965939.7640295,1.0498194695,219.78598727848254,4753.352259428054,0.205,-0.729,-2.475,-3.126
-1.0,5499965939.7640295,1.0498523712,239.88329190194898,4719.543572446043,0.152,-0.81,-2.581,-3.241
-1.0,5499965939.7640295,1.0498827696,262.4218543384442,4684.8964916001305,0.098,-0.894,-2.691,-3.359
-1.0,5499965939.7640295,1.049910903,287.73984147356697,4649.433066875436,0.047,-0.977,-2.802,-3.478
-1.0,5499965939.7640295,1.0499367714,315.50046233746275,4614.238090876438,-0.004,-1.061,-2.914,-3.6
-1.0,5499965939.7640295,1.0499602556,346.73685045253166,4578.255227916937,-0.052,-1.144,-3.028,-3.724
-1.0,5499965939.7640295,1.0499815941,380.1893963205613,4540.461526048465,-0.095,-1.224,-3.142,-3.849
-1.0,5499965939.7640295,1.0500006676,417.83036664662177,4461.696245809645,-0.092,-1.273,-3.265,-4.002
-1.0,5499965939.7640295,1.0500183105,459.19801283686854,4421.809210742687,-0.134,-1.344,-3.378,-4.131
-1.0,5499965939.7640295,1.0500349998,504.6612975635282,4387.326951325295,-0.18,-1.419,-3.49,-4.257
-1.0,5499965939.7640295,1.0500510931,554.625712957911,4352.111366239774,-0.227,-1.493,-3.602,-4.383
-1.0,5499965939.7640295,1.0500664711,610.9420249055721,4316.1844920735875,-0.272,-1.566,-3.716,-4.512
-1.0,5499965939.7640295,1.0500804186,671.4288529259522,4281.539943374177,-0.313,-1.637,-3.827,-4.638
-1.0,5499965939.7640295,1.0500948429,739.6052750582381,4243.263484275837,-0.35,-1.705,-3.94,-4.769
-1.0,5499965939.7640295,1.050109148,814.7042840208396,4204.36101081749,-0.375,-1.768,-4.055,-4.901
-1.0,5499965939.7640295,1.0501221418,899.4975815300355,4163.897210251638,-0.398,-1.829,-4.172,-5.036
-1.0,5499965939.7640295,1.0501322746,990.8319448927675,4124.772497846638,-0.418,-1.888,-4.285,-5.168
-1.0,5499965939.7640295,1.0501394272,1086.4256236170656,4087.897521111197,-0.437,-1.943,-4.394,-5.295
-1.0,5499965939.7640295,1.050146699,1205.0359403717973,4045.7589169744288,-0.452,-2.001,-4.516,-5.439
-1.0,5499965939.7640295,1.0501520634,1318.2567385564075,4009.5903122771956,-0.461,-2.047,-4.619,-5.56
-1.0,5499965939.7640295,1.0501583815,1472.3125024327194,3961.8679837032632,-0.462,-2.099,-4.749,-5.716
-1.0,5499965939.7640295,1.050163269,1648.1623915255086,3914.713648482051,-0.453,-2.145,-4.88,-5.872
-1.0,5499965939.7640295,1.0501639843,1686.5530253887407,3904.8108374925373,-0.45,-2.154,-4.907,-5.904
-1.0,5499965939.7640295,1.0501651764,1729.8163592151016,3894.0363387971706,-0.446,-2.163,-4.937,-5.94
-1.0,5499965939.7640295,1.0501652956,1721.8685749860078,3895.8300217812994,-0.445,-2.16,-4.931,-5.933
-1.0,5499965939.7640295,1.0501654148,1741.8068733916145,3891.3473626359746,-0.445,-2.166,-4.945,-5.949
-1.0,5499965939.7640295,1.050165534,1721.8685749860078,3894.933077036545,-0.444,-2.16,-4.933,-5.935
-1.0,5499965939.7640295,1.0501656532,1725.837891990204,3894.0363387971706,-0.444,-2.161,-4.935,-5.938
-1.0,5499965939.7640295,1.0501657724,1710.015315090288,3897.6245309771994,-0.443,-2.156,-4.924,-5.924
-1.0,5499965939.7640295,1.0501658916,1690.440931643265,3902.114421141359,-0.443,-2.151,-4.91,-5.909
-1.0,5499965939.7640295,1.0501664877,1570.3628043335532,3929.1625861305615,-0.44,-2.117,-4.827,-5.811
-1.0,5499965939.7640295,1.0501669645,1737.8008287493763,3890.4514499428046,-0.439,-2.162,-4.943,-5.948
-1.0,5499965939.7640295,1.0501673222,1870.6821403657998,3861.8908944898994,-0.434,-2.19,-5.03,-6.05
-1.0,5499965939.7640295,1.0501676798,2023.0191786782718,3831.7750036138436,-0.427,-2.219,-5.121,-6.158
-1.0,5499965939.7640295,1.0501681566,2167.704104819694,3804.5211258004038,-0.417,-2.242,-5.199,-6.252
-1.0,5499965939.7640295,1.0501687527,2328.091257665008,3774.8526172405905,-0.401,-2.26,-5.282,-6.351
-1.0,5499965939.7640295,1.0501694679,2471.724145016129,3750.5935291111437,-0.384,-2.273,-5.353,-6.436
-1.0,5499965939.7640295,1.0501703024,2576.3211570025755,3735.0807894306217,-0.373,-2.282,-5.399,-6.49
-1.0,5499965939.7640295,1.0501707792,2624.218543384442,3732.5015779572063,-0.377,-2.293,-5.42,-6.513
