FeH,Age,Mini,L,Te,Bmag,Vmag,Jmag,Kmag
-1.4,8500021025.917181,0.0900000036,0.0006397348354826482,2943.0659896990132,17.625,15.615,10.74,10.297
-1.4,8500021025.917181,0.0931375176,0.0007870457896950985,3031.796170085468,17.055,15.068,10.557,10.05
-1.4,8500021025.917181,0.1000000015,0.0012133888504649774,3224.779319316378,15.908,14.022,10.179,9.56
-1.4,8500021025.917181,0.1199999973,0.002338837238659356,3468.965654460541,14.508,12.825,9.569,8.864
-1.4,8500021025.917181,0.1400000006,0.0035399734108343462,3595.0091493002346,13.763,12.191,9.168,8.434
-1.4,8500021025.917181,0.1599999964,0.004875284901033865,3681.289736425313,13.234,11.735,8.853,8.103
-1.4,8500021025.917181,0.2000000179,0.008053784411990669,3798.3939015450715,12.466,11.062,8.349,7.584
-1.4,8500021025.917181,0.25,0.012912192736135341,3897.6245309771994,11.783,10.453,7.87,7.097
-1.4,8500021025.917181,0.3000000417,0.01857804455091698,3974.660144576364,11.267,9.989,7.498,6.725
-1.4,8500021025.917181,0.3414838612,0.023823194693586902,4030.881212870604,10.917,9.675,7.245,6.475
-1.4,8500021025.917181,0.349999994,0.025003453616964308,4041.103745134904,10.85,9.615,7.196,6.428
-1.4,8500021025.917181,0.3654842675,0.02773320104651841,4073.802778041126,10.688,9.474,7.091,6.325
-1.4,8500021025.917181,0.400000006,0.03459393778261219,4143.811582642788,10.355,9.181,6.87,6.111
-1.4,8500021025.917181,0.4500000179,0.05128613839913648,4315.19076827765,9.714,8.634,6.49,5.755
-1.4,8500021025.917181,0.5,0.07979946872679765,4578.255227916937,8.946,7.995,6.081,5.402
-1.4,8500021025.917181,0.5500000715,0.12764388088113438,4861.832584649837,8.183,7.344,5.66,5.057
-1.4,8500021025.917181,0.6000000238,0.1990673338987187,5161.7860549667275,7.504,6.761,5.275,4.748
-1.4,8500021025.917181,0.6020011902,0.20276827195212824,5174.876622934801,7.477,6.738,5.26,4.736
-1.4,8500021025.917181,0.619086504,0.23659196974857583,5294.19581017428,7.245,6.542,5.131,4.635
-1.4,8500021025.917181,0.6343488097,0.2716439268839083,5402.564990999317,7.043,6.372,5.018,4.545
-1.4,8500021025.917181,0.6483643055,0.3083187950249354,5503.006173234572,6.862,6.22,4.915,4.461
-1.4,8500021025.917181,0.6499999762,0.3126079367123955,5514.422023817434,6.841,6.202,4.903,4.452
-1.4,8500021025.917181,0.6653985381,0.3589219346450052,5618.236281342279,6.649,6.038,4.788,4.356
-1.4,8500021025.917181,0.6831487417,0.4216965034285822,5734.558665459647,6.43,5.853,4.658,4.246
-1.4,8500021025.917181,0.6994659901,0.4886523593428336,5841.172070928306,6.233,5.685,4.536,4.143
-1.4,8500021025.917181,0.6999999881,0.49090787615260306,5845.208403588554,6.226,5.679,4.532,4.139
-1.4,8500021025.917181,0.7074685097,0.5260172663907061,5892.505546643294,6.137,5.602,4.475,4.09
-1.4,8500021025.917181,0.719240129,0.5861381645140287,5966.230116296915,5.995,5.48,4.384,4.011
-1.4,8500021025.917181,0.730042398,0.6486344335482384,6031.148196178177,5.865,5.367,4.298,3.936
-1.4,8500021025.917181,0.7407589555,0.7177942912713617,6095.368972401694,5.737,5.255,4.21,3.858
-1.4,8500021025.917181,0.75,0.7852356346100718,6148.936385126267,5.625,5.156,4.133,3.789
-1.4,8500021025.917181,0.760617137,0.8709635899560807,6205.831792990621,5.497,5.041,4.04,3.705
-1.4,8500021025.917181,0.7715044022,0.9727472237769651,6263.253647582229,5.362,4.92,3.942,3.616
-1.4,8500021025.917181,0.7810524702,1.0739894123412448,6312.479779910386,5.241,4.81,3.852,3.534
-1.4,8500021025.917181,0.7904032469,1.1857687481671602,6360.628048372604,5.119,4.699,3.76,3.45
-1.4,8500021025.917181,0.8000000119,1.3212956341865751,6410.619496207435,4.99,4.58,3.661,3.359
-1.4,8500021025.917181,0.8071687222,1.4354894333536559,6449.113198681055,4.889,4.488,3.585,3.289
-1.4,8500021025.917181,0.8163663745,1.6032453906900415,6499.80009683025,4.754,4.363,3.48,3.192
-1.4,8500021025.917181,0.8249799013,1.7906058540352943,6546.361740672747,4.622,4.239,3.375,3.095
-1.4,8500021025.917181,0.8331981897,2.004472027365161,6587.187112819285,4.49,4.116,3.267,2.994
-1.4,8500021025.917181,0.8407690525,2.2284351492703034,6620.640402704609,4.365,3.997,3.162,2.895
-1.4,8500021025.917181,0.8500000238,2.5527013026612466,6654.263586443717,4.206,3.845,3.024,2.762
-1.4,8500021025.917181,0.857085824,2.857590543374947,6674.212038584765,4.076,3.72,2.909,2.65
-1.4,8500021025.917181,0.8581438661,2.9107171180666054,6677.286334642772,4.056,3.7,2.89,2.632
-1.4,8500021025.917181,0.8615717888,3.0902954325135905,6675.749009643063,3.987,3.632,2.823,2.565
-1.4,8500021025.917181,0.8676073551,3.4753616144320585,6657.328693784393,3.861,3.504,2.689,2.429
-1.4,8500021025.917181,0.8726196289,3.8815036599064823,6611.499965410452,3.748,3.385,2.554,2.287
-1.4,8500021025.917181,0.873680532,3.9810717055349722,6596.293937452819,3.723,3.358,2.522,2.253
-1.4,8500021025.917181,0.8762441874,4.265795188015927,6532.809588303903,3.66,3.285,2.426,2.147
-1.4,8500021025.917181,0.8789120317,4.613175745603794,6441.692655151775,3.595,3.205,2.311,2.018
-1.4,8500021025.917181,0.8809497952,4.920395356814509,6338.69711256927,3.548,3.139,2.205,1.896
-1.4,8500021025.917181,0.8825404048,5.199959965335159,6220.137712744861,3.519,3.086,2.105,1.776
-1.4,8500021025.917181,0.8838202953,5.445026528424211,6095.368972401694,3.504,3.045,2.013,1.663
-1.4,8500021025.917181,0.8848854303,5.649369748123025,5973.102948121369,3.501,3.014,1.93,1.559
-1.4,8500021025.917181,0.8858141303,5.834451042737448,5858.683000573763,3.505,2.99,1.856,1.464
-1.4,8500021025.917181,0.8868831396,6.095368972401692,5725.323093941757,3.503,2.953,1.761,1.344
-1.4,8500021025.917181,0.8877748251,6.501296903430906,5628.594992827296,3.471,2.896,1.659,1.223
-1.4,8500021025.917181,0.8886168003,7.11213513653329,5553.924862434803,3.403,2.808,1.537,1.087
-1.4,8500021025.917181,0.8888588548,7.3282453313890406,5534.775374571609,3.38,2.779,1.499,1.045
-1.4,8500021025.917181,0.8893050551,7.834296427662118,5509.345391672404,3.316,2.71,1.417,0.957
-1.4,8500021025.917181,0.8898738027,8.590135215053959,5477.722156556586,3.229,2.614,1.307,0.84
-1.4,8500021025.917181,0.890430212,9.462371613657929,5451.298956889106,3.134,2.513,1.191,0.719
-1.4,8500021025.917181,0.890961349,10.471285480508996,5428.7519703968255,3.034,2.407,1.074,0.595
-1.4,8500021025.917181,0.8915239573,11.748975549395297,5405.053537086691,2.92,2.286,0.941,0.457
-1.4,8500021025.917181,0.8919904232,13.031667784522993,5386.4173456235285,2.817,2.178,0.823,0.334
-1.4,8500021025.917181,0.8924689889,14.588142602753482,5366.609560460733,2.703,2.059,0.693,0.2
-1.4,8500021025.917181,0.8929032087,16.29296032639722,5346.874615616075,2.592,1.942,0.566,0.068
-1.4,8500021025.917181,0.8932968974,18.15515662773135,5327.212243229622,2.482,1.828,0.442,-0.062
-1.4,8500021025.917181,0.8936616182,20.276827195212817,5307.622176426454,2.372,1.712,0.316,-0.192
-1.4,8500021025.917181,0.893992424,22.59435770220978,5288.104149313063,2.265,1.599,0.193,-0.32
-1.4,8500021025.917181,0.894310534,25.23480772480574,5267.444883319061,2.152,1.481,0.063,-0.455
-1.4,8500021025.917181,0.8945810199,28.05433637951713,5248.074602497728,2.049,1.371,-0.057,-0.58
-1.4,8500021025.917181,0.8948375583,31.18889584093937,5226.368167369365,1.944,1.26,-0.18,-0.708
-1.4,8500021025.917181,0.8950784802,34.83373150360118,5204.751511705225,1.837,1.146,-0.306,-0.84
-1.4,8500021025.917181,0.8952856064,38.54783576657719,5184.41788307823,1.737,1.04,-0.424,-0.963
-1.4,8500021025.917181,0.8954861164,42.95364267648873,5161.7860549667275,1.633,0.929,-0.548,-1.093
-1.4,8500021025.917181,0.8956655264,47.64309868054156,5140.436515824259,1.533,0.821,-0.669,-1.22
-1.4,8500021025.917181,0.8958254457,52.722986142282274,5117.996682024606,1.436,0.716,-0.786,-1.342
-1.4,8500021025.917181,0.8959779739,58.47900841444806,5094.481623274436,1.338,0.609,-0.907,-1.469
-1.4,8500021025.917181,0.8961151242,64.71426157485831,5072.242398926514,1.242,0.504,-1.025,-1.592
-1.4,8500021025.917181,0.8962407708,71.6143410212902,5048.937562011554,1.148,0.401,-1.142,-1.715
-1.4,8500021025.917181,0.8963577151,79.06786279998249,5025.739801095915,1.054,0.297,-1.259,-1.838
-1.4,8500021025.917181,0.896463275,87.29713683881117,5002.648624210056,0.964,0.198,-1.373,-1.958
-1.4,8500021025.917181,0.8965624571,96.16122783836649,4978.517063739154,0.876,0.099,-1.487,-2.078
-1.4,8500021025.917181,0.8966581821,105.92537251772886,4954.5019080479005,0.788,0.001,-1.6,-2.198
-1.4,8500021025.917181,0.8967495561,115.34532578210919,4932.873744946497,0.71,-0.085,-1.7,-2.303
-1.4,8500021025.917181,0.8968648314,125.89254117941675,4913.6022729909155,0.632,-0.173,-1.801,-2.41
-1.4,8500021025.917181,0.8969055414,121.89895989248662,4923.795419719503,0.659,-0.142,-1.763,-2.369
-1.4,8500021025.917181,0.8969563842,116.94993910198711,4936.28243059449,0.693,-0.101,-1.714,-2.316
-1.4,8500021025.917181,0.8969919086,122.74392311584072,4923.795419719503,0.649,-0.151,-1.772,-2.377
-1.4,8500021025.917181,0.8970611095,135.51894123510365,4900.044227932357,0.562,-0.249,-1.887,-2.499
-1.4,8500021025.917181,0.8971246481,148.93610777109154,4874.162454431541,0.482,-0.342,-1.998,-2.619
-1.4,8500021025.917181,0.8971854448,164.05897731995387,4849.5339049834165,0.399,-0.438,-2.112,-2.74
-1.4,8500021025.917181,0.8972395062,179.88709151287873,4823.918924327151,0.327,-0.53,-2.222,-2.857
-1.4,8500021025.917181,0.897290647,197.24227361148533,4798.439240638985,0.253,-0.623,-2.333,-2.974
-1.4,8500021025.917181,0.8973362446,215.77444091526667,4773.094139287512,0.186,-0.711,-2.439,-3.086
-1.4,8500021025.917181,0.8973790407,235.5049283896009,4747.882909415973,0.12,-0.798,-2.546,-3.199
-1.4,8500021025.917181,0.8974185586,257.63211570025754,4723.892435134152,0.057,-0.884,-2.651,-3.31
-1.4,8500021025.917181,0.8974555135,281.1900830398939,4697.859239439367,-0.005,-0.969,-2.757,-3.422
-1.4,8500021025.917181,0.8974965811,311.88895840939387,4667.668449794021,-0.074,-1.069,-2.883,-3.555
-1.4,8500021025.917181,0.8975281119,340.4081897010009,4643.01407281803,-0.128,-1.15,-2.987,-3.665
-1.4,8500021025.917181,0.8975634575,377.572190925416,4611.051788759832,-0.188,-1.246,-3.112,-3.798
-1.4,8500021025.917181,0.897595942,418.79356511791826,4580.364077908267,-0.243,-1.34,-3.235,-3.929
-1.4,8500021025.917181,0.8976261616,464.5152752227492,4549.880601500485,-0.295,-1.432,-3.36,-4.062
-1.4,8500021025.917181,0.8976531625,512.8613839913648,4518.559443749222,-0.351,-1.516,-3.477,-4.19
-1.4,8500021025.917181,0.8976781368,566.2392890382534,4487.453899331323,-0.408,-1.601,-3.594,-4.318
-1.4,8500021025.917181,0.8977019191,625.1726927756855,4457.58876355946,-0.464,-1.687,-3.713,-4.448
-1.4,8500021025.917181,0.8977223635,687.0684400142325,4426.90293835173,-0.512,-1.763,-3.823,-4.57
-1.4,8500021025.917181,0.8977417946,755.0922276654342,4397.440784473689,-0.563,-1.841,-3.935,-4.693
-1.4,8500021025.917181,0.8977600336,829.8507675144226,4368.174708649131,-0.608,-1.917,-4.047,-4.816
-1.4,8500021025.917181,0.8977763653,907.8205301781861,4338.104405465892,-0.643,-1.985,-4.154,-4.935
-1.4,8500021025.917181,0.8977916837,995.4054173515275,4309.233228186264,-0.677,-2.052,-4.26,-5.053
-1.4,8500021025.917181,0.8978063464,1088.9300933334332,4280.55419586204,-0.712,-2.12,-4.368,-5.173
-1.4,8500021025.917181,0.8978195786,1188.502227437019,4251.087068046156,-0.74,-2.181,-4.471,-5.289
-1.4,8500021025.917181,0.897832036,1297.1792709839558,4222.795013060563,-0.769,-2.243,-4.574,-5.404
-1.4,8500021025.917181,0.8978438973,1419.0575216890927,4195.657223387252,-0.8,-2.306,-4.677,-5.519
-1.4,8500021025.917181,0.8978549242,1545.254439538414,4168.693834703355,-0.827,-2.366,-4.778,-5.633
-1.4,8500021025.917181,0.8978652358,1682.6740610704674,4140.950127434679,-0.85,-2.422,-4.877,-5.745
-1.4,8500021025.917181,0.897875011,1832.314422371211,4114.338313870812,-0.873,-2.477,-4.975,-5.856
-1.4,8500021025.917181,0.8978843093,1981.527025805099,4089.7805010288275,-0.887,-2.524,-5.066,-5.959
-1.4,8500021025.917181,0.8978865147,2013.7242498623875,4084.1341617107687,-0.889,-2.534,-5.086,-5.981
-1.4,8500021025.917181,0.8978865147,60.53408747539136,5537.3248198121255,1.058,0.479,-0.797,-1.254
-1.4,8500021025.917181,0.8979622722,62.95061828571975,5518.232567565654,1.023,0.439,-0.846,-1.308
-1.4,8500021025.917181,0.8980355859,63.3869711256927,5516.9620938349835,1.016,0.432,-0.854,-1.316
-1.4,8500021025.917181,0.8981103301,63.67955209079159,5516.9620938349835,1.011,0.427,-0.859,-1.321
-1.4,8500021025.917181,0.8981853724,63.973483548264824,5520.774392807573,1.006,0.423,-0.861,-1.322
-1.4,8500021025.917181,0.8982610703,63.973483548264824,5525.861556300781,1.002,0.42,-0.861,-1.321
-1.4,8500021025.917181,0.8983379602,63.973483548264824,5533.501092157366,0.998,0.419,-0.859,-1.317
-1.4,8500021025.917181,0.8984134197,63.973483548264824,5542.427233833984,0.995,0.418,-0.855,-1.311
-1.4,8500021025.917181,0.898491025,63.973483548264824,5552.646171195634,0.991,0.417,-0.851,-1.305
-1.4,8500021025.917181,0.8985641003,63.82634861905486,5561.603195975926,0.988,0.416,-0.847,-1.299
-1.4,8500021025.917181,0.8986435533,63.82634861905486,5570.574669415543,0.984,0.415,-0.843,-1.293
-1.4,8500021025.917181,0.8987136483,63.82634861905486,5579.560614821764,0.981,0.415,-0.84,-1.288
-1.4,8500021025.917181,0.8987910748,63.67955209079159,5587.2743899402,0.978,0.414,-0.837,-1.282
-1.4,8500021025.917181,0.8988661766,63.67955209079159,5594.998829397764,0.974,0.413,-0.834,-1.278
-1.4,8500021025.917181,0.8989406824,63.67955209079159,5602.733947937972,0.971,0.411,-0.832,-1.274
-1.4,8500021025.917181,0.8989577293,63.67955209079159,5604.024173641845,0.971,0.411,-0.831,-1.274
-1.4,8500021025.917181,0.8989659548,63.67955209079159,5604.024173641845,0.97,0.411,-0.831,-1.273
-1.4,8500021025.917181,0.8990454078,63.82634861905486,5610.479760324706,0.967,0.409,-0.83,-1.271
-1.4,8500021025.917181,0.8991217613,63.82634861905486,5614.356681329818,0.964,0.407,-0.83,-1.27
-1.4,8500021025.917181,0.8991975784,63.973483548264824,5616.942783556393,0.961,0.405,-0.831,-1.27
-1.4,8500021025.917181,0.8992714286,64.12095765851615,5616.942783556393,0.958,0.403,-0.833,-1.272
-1.4,8500021025.917181,0.8993443251,64.26877173170197,5616.942783556393,0.955,0.4,-0.836,-1.275
-1.4,8500021025.917181,0.8994184732,64.56542290346556,5614.356681329818,0.952,0.396,-0.841,-1.281
-1.4,8500021025.917181,0.8994932175,64.86344335482384,5610.479760324706,0.949,0.392,-0.847,-1.288
-1.4,8500021025.917181,0.8995636106,65.16283940608427,5604.024173641845,0.946,0.387,-0.855,-1.297
-1.4,8500021025.917181,0.8996322751,65.46361740672751,5597.576014951104,0.943,0.382,-0.863,-1.307
-1.4,8500021025.917181,0.8996999264,65.91738952443212,5589.848017438496,0.94,0.376,-0.873,-1.318
-1.4,8500021025.917181,0.899769187,66.3743070401909,5583.416170259268,0.936,0.371,-0.882,-1.328
-1.4,8500021025.917181,0.899836719,66.98846094165265,5570.574669415543,0.931,0.362,-0.896,-1.346
-1.4,8500021025.917181,0.8999032378,67.7641507610675,5557.762703204188,0.925,0.353,-0.912,-1.364
-1.4,8500021025.917181,0.8999700546,68.54882264526617,5542.427233833984,0.919,0.342,-0.931,-1.386
-1.4,8500021025.917181,0.9000371695,69.5024317588797,5525.861556300781,0.91,0.329,-0.952,-1.411
-1.4,8500021025.917181,0.9001117945,70.6317554262962,5509.345391672404,0.901,0.314,-0.975,-1.438
-1.4,8500021025.917181,0.900178194,71.77942912713618,5494.143519621415,0.891,0.3,-0.997,-1.463
-1.4,8500021025.917181,0.900247097,73.6207097494736,5467.641107291687,0.875,0.275,-1.035,-1.506
-1.4,8500021025.917181,0.9003144503,77.26805850957021,5425.003216311501,0.844,0.231,-1.101,-1.582
-1.4,8500021025.917181,0.9003715515,83.75292821268826,5361.66900594989,0.789,0.155,-1.21,-1.705
-1.4,8500021025.917181,0.9003973603,90.57326008982002,5306.40019194775,0.733,0.08,-1.314,-1.822
-1.4,8500021025.917181,0.9004087448,97.94899854086991,5255.33009626921,0.675,0.004,-1.417,-1.937
-1.4,8500021025.917181,0.90041399,106.16955571987242,5209.547473285554,0.616,-0.072,-1.52,-2.05
-1.4,8500021025.917181,0.9004164934,114.55129414455361,5168.922254317574,0.558,-0.145,-1.615,-2.156
-1.4,8500021025.917181,0.9004175067,119.3988104464273,5148.7286014054735,0.526,-0.185,-1.667,-2.212
-1.4,8500021025.917181,0.9004177451,120.78138351067798,5142.804319487918,0.516,-0.198,-1.683,-2.23
-1.4,8500021025.917181,0.9004192352,133.3521432163324,5099.175975748702,0.437,-0.293,-1.804,-2.361
-1.4,8500021025.917181,0.9004206061,145.8814260275349,5062.90758346022,0.366,-0.38,-1.914,-2.481
-1.4,8500021025.917181,0.9004217982,156.67510701081486,5033.846868348144,0.307,-0.452,-2.004,-2.578
-1.4,8500021025.917181,0.9004231691,165.95869074375614,5011.872336272725,0.263,-0.506,-2.072,-2.653
-1.4,8500021025.917181,0.9004264474,171.39573075084252,5000.345349769783,0.237,-0.538,-2.112,-2.695
-1.4,8500021025.917181,0.9004293084,164.05897731995387,5016.490567732232,0.271,-0.496,-2.059,-2.638
-1.4,8500021025.917181,0.9004382491,154.88166189124811,5039.645636126428,0.316,-0.44,-1.988,-2.561
-1.4,8500021025.917181,0.9004762173,160.32453906900417,5023.4258952238715,0.289,-0.474,-2.032,-2.609
-1.4,8500021025.917181,0.9004986286,173.78008287493762,4992.292237091719,0.228,-0.55,-2.129,-2.715
-1.4,8500021025.917181,0.9005236626,192.30917289101575,4952.220800885213,0.148,-0.648,-2.254,-2.851
-1.4,8500021025.917181,0.9005476236,213.30449131465772,4913.6022729909155,0.068,-0.747,-2.379,-2.987
-1.4,8500021025.917181,0.9005689621,234.96328208483072,4877.530569745951,-0.008,-0.841,-2.498,-3.117
-1.4,8500021025.917181,0.9005877376,258.82129151530904,4842.83865227851,-0.08,-0.933,-2.616,-3.245
-1.4,8500021025.917181,0.9006043077,285.10182675039096,4808.393484497285,-0.145,-1.025,-2.733,-3.37
-1.4,8500021025.917181,0.90061903,313.32857243155854,4773.094139287512,-0.205,-1.115,-2.849,-3.495
-1.4,8500021025.917181,0.900632143,343.55794789987465,4734.782131851524,-0.257,-1.202,-2.966,-3.62
-1.4,8500021025.917181,0.9006440639,377.572190925416,4690.293284059374,-0.294,-1.283,-3.084,-3.749
-1.4,8500021025.917181,0.9006524086,405.5085354483839,4636.603940805552,-0.289,-1.333,-3.182,-3.86
-1.4,8500021025.917181,0.9006625414,444.6312674691088,4587.752705471357,-0.306,-1.406,-3.301,-3.991
-1.4,8500021025.917181,0.9006721377,487.5284901033865,4550.928370849554,-0.336,-1.483,-3.416,-4.115
-1.4,8500021025.917181,0.9006811976,534.5643593969719,4516.479049291119,-0.379,-1.558,-3.527,-4.238
-1.4,8500021025.917181,0.9006900191,587.4893525297769,4482.290499966203,-0.422,-1.634,-3.639,-4.363
-1.4,8500021025.917181,0.9006984234,644.1692655151775,4446.312674691088,-0.462,-1.707,-3.751,-4.489
-1.4,8500021025.917181,0.9007061124,704.6930689671467,4411.6393317691345,-0.495,-1.775,-3.859,-4.61
-1.4,8500021025.917181,0.9007136226,774.4617978025184,4375.221051582521,-0.52,-1.842,-3.974,-4.738
-1.4,8500021025.917181,0.9007204771,853.1001140175895,4340.10263644744,-0.546,-1.91,-4.09,-4.868
-1.4,8500021025.917181,0.9007259607,944.0608762859235,4312.210969401274,-0.58,-1.985,-4.208,-4.996
-1.4,8500021025.917181,0.9007302523,1032.7614057613969,4315.19076827765,-0.655,-2.078,-4.31,-5.095
-1.4,8500021025.917181,0.9007332325,1106.6237839776663,4386.316848258552,-0.824,-2.211,-4.373,-5.124
-1.4,8500021025.917181,0.9007343054,1135.0108156723154,4511.282252715862,-1.026,-2.332,-4.371,-5.071
