FeH,Age,Mini,L,Te,Bmag,Vmag,Jmag,Kmag
-0.8,8999947996.37202,0.0899999961,0.0005357966575133417,2687.200056717113,19.106,17.074,10.831,10.241
-0.8,8999947996.37202,0.0926502869,0.0006165950018614823,2740.942973818077,18.664,16.669,10.703,10.086
-0.8,8999947996.37202,0.0994170159,0.0008689604292863019,2876.073628863028,17.603,15.684,10.394,9.716
-0.8,8999947996.37202,0.1059405804,0.0010889300933334333,2955.2892906487523,16.989,15.107,10.187,9.478
-0.8,8999947996.37202,0.1182510555,0.0016069412530128771,3098.846042012061,15.976,14.161,9.83,9.08
-0.8,8999947996.37202,0.1370850801,0.0024490632418447443,3237.42711634235,15.036,13.299,9.43,8.656
-0.8,8999947996.37202,0.1559191197,0.0033806483620598153,3331.9616948930816,14.406,12.727,9.119,8.334
-0.8,8999947996.37202,0.1935872138,0.005508076964054035,3455.413295778485,13.559,11.964,8.634,7.841
-0.8,8999947996.37202,0.2406722903,0.008790225168308843,3555.4944085859292,12.828,11.299,8.164,7.364
-0.8,8999947996.37202,0.2877573967,0.012705741052085419,3630.780547701014,12.279,10.795,7.79,6.987
-0.8,8999947996.37202,0.3330879509,0.017179083871575886,3691.4755816541306,11.846,10.395,7.487,6.68
-0.8,8999947996.37202,0.3348424733,0.017338039977541384,3694.0264435828335,11.83,10.381,7.476,6.669
-0.8,8999947996.37202,0.3819275498,0.023933157564053877,3775.72190925416,11.348,9.943,7.155,6.346
-0.8,8999947996.37202,0.4290126562,0.03419794425137089,3889.555743517412,10.789,9.444,6.805,5.995
-0.8,8999947996.37202,0.4760977328,0.050815944256056046,4058.8219466191827,10.129,8.877,6.423,5.624
-0.8,8999947996.37202,0.523182869,0.07870457896950984,4307.249209819747,9.341,8.223,6.013,5.242
-0.8,8999947996.37202,0.5702679157,0.12302687708123815,4618.489918952487,8.477,7.527,5.614,4.92
-0.8,8999947996.37202,0.6173529625,0.18706821403658005,4936.28243059449,7.729,6.902,5.256,4.661
-0.8,8999947996.37202,0.6397173405,0.2280342072000418,5094.481623274436,7.405,6.627,5.092,4.542
-0.8,8999947996.37202,0.6616707444,0.27669416454115114,5252.910484500485,7.101,6.37,4.935,4.426
-0.8,8999947996.37202,0.6644381285,0.2831391995799379,5273.512745624402,7.064,6.338,4.915,4.411
-0.8,8999947996.37202,0.6715723276,0.3013006024186121,5322.307958283607,6.972,6.26,4.864,4.372
-0.8,8999947996.37202,0.6914141774,0.358096437102636,5456.3221016639,6.72,6.045,4.722,4.26
-0.8,8999947996.37202,0.7092129588,0.41783036664662176,5575.7077217879405,6.501,5.857,4.594,4.158
-0.8,8999947996.37202,0.7127447128,0.43151907682776525,5598.865052860273,6.458,5.819,4.568,4.137
-0.8,8999947996.37202,0.7254804969,0.48194779762512735,5679.367867720036,6.304,5.687,4.475,4.059
-0.8,8999947996.37202,0.7408202291,0.5520774392807574,5774.3087271398535,6.12,5.528,4.361,3.963
-0.8,8999947996.37202,0.7545415759,0.6237348354824193,5857.334144258379,5.957,5.387,4.257,3.874
-0.8,8999947996.37202,0.7610512972,0.662216503701762,5896.577351462565,5.879,5.32,4.206,3.83
-0.8,8999947996.37202,0.7645916939,0.6839116472814293,5914.25437756224,5.838,5.284,4.178,3.805
-0.8,8999947996.37202,0.7750529647,0.7533555637337174,5966.230116296915,5.716,5.176,4.092,3.728
-0.8,8999947996.37202,0.784563601,0.8222426499470711,6011.737374832779,5.604,5.076,4.012,3.655
-0.8,8999947996.37202,0.7940725088,0.9015711376059569,6056.1970872775855,5.491,4.975,3.93,3.581
-0.8,8999947996.37202,0.8071308732,1.023292992280754,6113.641945007669,5.333,4.832,3.811,3.472
-0.8,8999947996.37202,0.8093578815,1.0471285480508996,6123.503917247734,5.305,4.807,3.79,3.452
-0.8,8999947996.37202,0.8149659634,1.109174815262401,6147.520703193109,5.236,4.743,3.736,3.403
-0.8,8999947996.37202,0.8241745234,1.2217996601648717,6184.434582271281,5.118,4.635,3.643,3.316
-0.8,8999947996.37202,0.8328105807,1.3427649611378638,6217.2738929396055,5.005,4.531,3.552,3.231
-0.8,8999947996.37202,0.8412392139,1.4791083881682074,6247.4098790155385,4.891,4.425,3.459,3.143
-0.8,8999947996.37202,0.8523806334,1.6826740610704674,6282.029912455561,4.739,4.282,3.331,3.02
-0.8,8999947996.37202,0.8576644659,1.7906058540352943,6295.061828571975,4.666,4.213,3.267,2.959
-0.8,8999947996.37202,0.8652692437,1.9678862897068448,6312.479779910386,4.557,4.109,3.17,2.865
-0.8,8999947996.37202,0.8730124235,2.1827299118430017,6324.118513762197,4.441,3.996,3.063,2.76
-0.8,8999947996.37202,0.873893559,2.2080047330188997,6324.118513762197,4.427,3.983,3.05,2.747
-0.8,8999947996.37202,0.8773406148,2.322736796357107,6324.118513762197,4.372,3.928,2.996,2.693
-0.8,8999947996.37202,0.8839299679,2.564484036517717,6312.479779910386,4.265,3.819,2.884,2.579
-0.8,8999947996.37202,0.8913945556,2.8973435877013234,6279.137596800936,4.139,3.687,2.739,2.429
-0.8,8999947996.37202,0.8940171003,3.0338911841942706,6261.81164615689,4.093,3.639,2.684,2.372
-0.8,8999947996.37202,0.898329556,3.2960971217745776,6202.974559788141,4.018,3.551,2.573,2.251
-0.8,8999947996.37202,0.9028779268,3.6224299841669865,6096.772644572435,3.947,3.457,2.436,2.096
-0.8,8999947996.37202,0.9059710503,3.8459178204535354,5975.85429715573,3.92,3.4,2.329,1.967
-0.8,8999947996.37202,0.9062254429,3.8636697705406915,5966.230116296915,3.917,3.395,2.32,1.957
-0.8,8999947996.37202,0.9082143903,3.9902490236214203,5846.554467527501,3.925,3.372,2.245,1.86
-0.8,8999947996.37202,0.9095429778,4.055085354483838,5741.164622073275,3.946,3.366,2.191,1.786
-0.8,8999947996.37202,0.9107474089,4.130475019901613,5628.594992827296,3.97,3.362,2.134,1.706
-0.8,8999947996.37202,0.9119359851,4.295364267648873,5518.232567565654,3.974,3.337,2.055,1.603
-0.8,8999947996.37202,0.913044095,4.613175745603794,5432.503314924331,3.935,3.276,1.95,1.479
-0.8,8999947996.37202,0.9140720367,5.069907082747043,5371.554667486636,3.861,3.184,1.827,1.341
-0.8,8999947996.37202,0.9146469831,5.420008904016238,5345.643593969719,3.801,3.118,1.746,1.254
-0.8,8999947996.37202,0.9153792262,5.942921586155727,5316.183950739626,3.716,3.024,1.637,1.138
-0.8,8999947996.37202,0.9161886573,6.652731562017413,5288.104149313063,3.608,2.909,1.506,1.0
-0.8,8999947996.37202,0.9169408679,7.447319739059891,5263.807517745308,3.495,2.789,1.374,0.862
-0.8,8999947996.37202,0.9175021052,8.1846478813479,5248.074602497728,3.402,2.692,1.268,0.752
-0.8,8999947996.37202,0.9180415273,8.994975815300352,5231.184047796891,3.308,2.593,1.16,0.64
-0.8,8999947996.37202,0.9186592102,10.115794542598982,5210.747154033924,3.191,2.47,1.025,0.5
-0.8,8999947996.37202,0.919216156,11.350108156723149,5191.585371063544,3.077,2.349,0.893,0.363
-0.8,8999947996.37202,0.9197534919,12.823305826560219,5170.112579686548,2.956,2.222,0.753,0.217
-0.8,8999947996.37202,0.9202095866,14.387985782558452,5148.7286014054735,2.844,2.104,0.623,0.081
-0.8,8999947996.37202,0.9206395149,16.18080037643066,5127.433068882606,2.729,1.982,0.488,-0.06
-0.8,8999947996.37202,0.9210101962,18.071741260109267,5105.049999754065,2.622,1.867,0.36,-0.195
-0.8,8999947996.37202,0.9213576317,20.276827195212817,5082.764640683731,2.513,1.75,0.228,-0.333
-0.8,8999947996.37202,0.9216784835,22.750974307720703,5058.246620031143,2.403,1.632,0.094,-0.473
-0.8,8999947996.37202,0.9219538569,25.35128630497907,5035.006087879047,2.301,1.522,-0.031,-0.606
-0.8,8999947996.37202,0.9222102165,28.31391995799379,5009.564815133986,2.198,1.41,-0.159,-0.741
-0.8,8999947996.37202,0.9224293828,31.332857243155857,4986.547955557967,2.103,1.307,-0.278,-0.867
-0.8,8999947996.37202,0.9226413369,34.914031547858606,4961.351535855698,2.004,1.2,-0.402,-1.0
-0.8,8999947996.37202,0.9228286743,38.72576449216173,4936.28243059449,1.91,1.097,-0.522,-1.127
-0.8,8999947996.37202,0.9230031967,42.85485203974394,4911.339996469978,1.817,0.994,-0.642,-1.256
-0.8,8999947996.37202,0.9231578708,47.315125896148054,4886.523593428336,1.729,0.896,-0.758,-1.379
-0.8,8999947996.37202,0.9233003259,52.239618899911974,4860.713235201249,1.645,0.8,-0.872,-1.501
-0.8,8999947996.37202,0.9234365225,57.543993733715695,4835.039205916214,1.56,0.704,-0.987,-1.625
-0.8,8999947996.37202,0.9235636592,63.24118513762193,4810.608341479539,1.481,0.614,-1.096,-1.741
-0.8,8999947996.37202,0.9237077236,69.18309709189366,4787.4031366341615,1.404,0.526,-1.201,-1.854
-0.8,8999947996.37202,0.9237931371,71.44963260755135,4779.692969796099,1.375,0.493,-1.239,-1.895
-0.8,8999947996.37202,0.9238762856,68.54882264526617,4794.021749415102,1.406,0.531,-1.191,-1.842
-0.8,8999947996.37202,0.9239475727,64.56542290346556,4815.041116556669,1.454,0.587,-1.119,-1.763
-0.8,8999947996.37202,0.9239555597,64.12095765851615,4817.25903559163,1.46,0.594,-1.111,-1.754
-0.8,8999947996.37202,0.9240501523,70.30723198838334,4791.814529082236,1.382,0.504,-1.219,-1.871
-0.8,8999947996.37202,0.924153924,77.98301105232585,4763.212971455834,1.296,0.406,-1.34,-2.001
-0.8,8999947996.37202,0.9242462516,85.90135215053957,4735.872481253356,1.217,0.313,-1.453,-2.123
-0.8,8999947996.37202,0.9243347049,94.84184633008974,4707.604832565835,1.137,0.219,-1.569,-2.248
-0.8,8999947996.37202,0.9244152904,104.47202192208003,4679.505908852532,1.06,0.128,-1.682,-2.369
-0.8,8999947996.37202,0.9244914651,115.08003889444356,4650.503761666063,0.988,0.034,-1.798,-2.491
-0.8,8999947996.37202,0.9245596528,126.4736347471151,4622.74566491089,0.924,-0.056,-1.909,-2.609
-0.8,8999947996.37202,0.9246243834,139.31568029453035,4594.095300365836,0.858,-0.148,-2.023,-2.73
-0.8,8999947996.37202,0.9246819615,152.75660582380732,4566.673896495316,0.798,-0.235,-2.133,-2.846
-0.8,8999947996.37202,0.9247362018,167.49428760264382,4537.326169379414,0.739,-0.322,-2.243,-2.965
-0.8,8999947996.37202,0.924785912,184.07720014689562,4509.205208756537,0.681,-0.406,-2.352,-3.082
-0.8,8999947996.37202,0.9248318076,201.37242498623874,4481.258533251555,0.625,-0.49,-2.46,-3.199
-0.8,8999947996.37202,0.9248740673,220.80047330188992,4452.459727917414,0.571,-0.572,-2.567,-3.314
-0.8,8999947996.37202,0.9249132872,241.54608344449403,4423.845998088853,0.52,-0.652,-2.673,-3.429
-0.8,8999947996.37202,0.9249505997,264.8500138606701,4395.416154378243,0.468,-0.734,-2.782,-3.547
-0.8,8999947996.37202,0.9249832034,289.0679882365475,4367.16901504156,0.418,-0.806,-2.884,-3.66
-0.8,8999947996.37202,0.9250143766,316.22776601683796,4339.103405929243,0.368,-0.879,-2.988,-3.776
-0.8,8999947996.37202,0.9250427485,344.3499307633384,4311.218160437416,0.32,-0.948,-3.089,-3.888
-0.8,8999947996.37202,0.9250690937,374.97300224548337,4284.498548137013,0.273,-1.017,-3.189,-4.0
-0.8,8999947996.37202,0.9250941277,409.26065973001096,4255.984131337431,0.227,-1.085,-3.289,-4.112
-0.8,8999947996.37202,0.9251220822,453.94161665020323,4222.795013060563,0.175,-1.164,-3.409,-4.247
-0.8,8999947996.37202,0.9251433611,493.1738039549359,4196.623420398315,0.132,-1.229,-3.507,-4.357
-0.8,8999947996.37202,0.925162971,535.7966575133418,4168.693834703355,0.092,-1.291,-3.603,-4.466
-0.8,8999947996.37202,0.9251855612,592.9253245799999,4135.233143476055,0.047,-1.365,-3.72,-4.599
-0.8,8999947996.37202,0.9252061248,656.1452663029056,4103.930524610162,0.005,-1.436,-3.835,-4.729
-0.8,8999947996.37202,0.9252219796,711.2135136533288,4077.556617502122,-0.027,-1.492,-3.93,-4.836
-0.8,8999947996.37202,0.9252397418,783.429642766212,4045.7589169744288,-0.06,-1.556,-4.042,-4.964
-0.8,8999947996.37202,0.9252561331,862.9785477669702,4014.209182043213,-0.091,-1.618,-4.152,-5.09
-0.8,8999947996.37202,0.9252715111,948.4184633008969,3983.8226824883504,-0.123,-1.681,-4.263,-5.216
-0.8,8999947996.37202,0.9252857566,1042.3174293933037,3953.666200681279,-0.151,-1.739,-4.372,-5.341
-0.8,8999947996.37202,0.925298512,1140.2497875611684,3923.737995448608,-0.174,-1.792,-4.474,-5.459
-0.8,8999947996.37202,0.9253106713,1247.3835142429432,3894.0363387971706,-0.196,-1.845,-4.578,-5.579
-0.8,8999947996.37202,0.925321877,1364.583136588924,3865.44946598284,-0.216,-1.893,-4.68,-5.696
-0.8,8999947996.37202,0.9253321886,1485.9356422870076,3837.9560752329744,-0.232,-1.939,-4.778,-5.81
-0.8,8999947996.37202,0.9253417253,1614.3585568264868,3809.7808984641915,-0.239,-1.978,-4.875,-5.922
-0.8,8999947996.37202,0.9253506064,1753.880501841762,3781.8125611095074,-0.242,-2.01,-4.97,-6.032
-0.8,8999947996.37202,0.9253588319,1896.7059212111465,3754.9140460984254,-0.242,-2.038,-5.061,-6.137
-0.8,8999947996.37202,0.9253665209,2046.444636724674,3728.2068494295654,-0.24,-2.064,-5.15,-6.24
-0.8,8999947996.37202,0.9253740311,2202.9264630534562,3703.39469397536,-0.237,-2.086,-5.236,-6.339
-0.8,8999947996.37202,0.9253764153,2249.0546058357804,3695.72799739443,-0.236,-2.091,-5.261,-6.368
-0.8,8999947996.37202,0.9253764153,56.623928903825316,5199.959965335162,1.325,0.6,-0.854,-1.385
-0.8,8999947996.37202,0.9254552126,58.34451042737448,5188.000389289609,1.3,0.57,-0.891,-1.425
-0.8,8999947996.37202,0.925532937,58.8843655355589,5185.611776858396,1.292,0.561,-0.902,-1.437
-0.8,8999947996.37202,0.9256117344,59.1561634175474,5185.611776858396,1.287,0.556,-0.907,-1.441
-0.8,8999947996.37202,0.9256926775,59.29253245799997,5189.195108067298,1.283,0.553,-0.907,-1.441
-0.8,8999947996.37202,0.925773859,59.29253245799997,5195.172830110672,1.28,0.553,-0.904,-1.436
-0.8,8999947996.37202,0.9258556366,59.1561634175474,5201.157438224064,1.278,0.553,-0.9,-1.43
-0.8,8999947996.37202,0.9259371161,59.02010801718442,5208.348068742078,1.277,0.554,-0.895,-1.423
-0.8,8999947996.37202,0.926017046,58.74893525297766,5215.548640348755,1.275,0.555,-0.89,-1.417
-0.8,8999947996.37202,0.9260959625,58.74893525297766,5221.556720489596,1.273,0.555,-0.886,-1.411
-0.8,8999947996.37202,0.9261798263,58.613816451402876,5228.775553134414,1.271,0.556,-0.882,-1.405
-0.8,8999947996.37202,0.9262646437,58.47900841444806,5234.798870090691,1.269,0.556,-0.878,-1.4
-0.8,8999947996.37202,0.9263474345,58.47900841444806,5239.622519059377,1.267,0.555,-0.875,-1.396
-0.8,8999947996.37202,0.9264284372,58.34451042737448,5244.4506128195335,1.265,0.555,-0.873,-1.392
-0.8,8999947996.37202,0.926507473,58.34451042737448,5249.283155466852,1.263,0.554,-0.871,-1.389
-0.8,8999947996.37202,0.9265162349,58.34451042737448,5249.283155466852,1.263,0.554,-0.871,-1.389
-0.8,8999947996.37202,0.9265247583,58.34451042737448,5249.283155466852,1.262,0.554,-0.871,-1.389
-0.8,8999947996.37202,0.9266021252,58.34451042737448,5252.910484500485,1.26,0.553,-0.87,-1.387
-0.8,8999947996.37202,0.9266855121,58.47900841444806,5256.540320069867,1.258,0.552,-0.869,-1.386
-0.8,8999947996.37202,0.9267634749,58.47900841444806,5258.961603824607,1.255,0.55,-0.87,-1.386
-0.8,8999947996.37202,0.9268478155,58.613816451402876,5260.172663907063,1.253,0.548,-0.871,-1.386
-0.8,8999947996.37202,0.9269288778,58.74893525297766,5260.172663907063,1.25,0.545,-0.873,-1.389
-0.8,8999947996.37202,0.9270099998,58.8843655355589,5260.172663907063,1.247,0.542,-0.877,-1.392
-0.8,8999947996.37202,0.9270878434,59.1561634175474,5258.961603824607,1.243,0.538,-0.881,-1.397
-0.8,8999947996.37202,0.9270992279,59.1561634175474,5258.961603824607,1.243,0.538,-0.882,-1.398
-0.8,8999947996.37202,0.9271703959,59.42921586155727,5256.540320069867,1.239,0.533,-0.887,-1.404
-0.8,8999947996.37202,0.927251637,59.84115950603196,5252.910484500485,1.235,0.527,-0.895,-1.413
-0.8,8999947996.37202,0.9273331761,60.25595860743578,5249.283155466852,1.23,0.521,-0.904,-1.423
-0.8,8999947996.37202,0.9274106026,60.673632958850526,5243.243172456372,1.224,0.513,-0.915,-1.435
-0.8,8999947996.37202,0.9274900556,61.235039172477336,5236.0043658575005,1.218,0.505,-0.928,-1.449
-0.8,8999947996.37202,0.9275695086,61.94410750767815,5228.775553134414,1.211,0.495,-0.942,-1.465
-0.8,8999947996.37202,0.9276476502,62.66138646723353,5220.354551033096,1.203,0.484,-0.958,-1.483
-0.8,8999947996.37202,0.9277255535,63.53309318517436,5211.947111050806,1.194,0.472,-0.975,-1.503
-0.8,8999947996.37202,0.9278065562,64.41692655151772,5202.355186873041,1.185,0.459,-0.993,-1.523
-0.8,8999947996.37202,0.9278851748,65.31305526474723,5192.78091540883,1.175,0.446,-1.012,-1.545
-0.8,8999947996.37202,0.9279649258,67.92036326171846,5167.732202999587,1.15,0.411,-1.063,-1.602
-0.8,8999947996.37202,0.9280447364,73.11390834834177,5120.354149383066,1.101,0.343,-1.159,-1.71
-0.8,8999947996.37202,0.9280894995,79.25013304804718,5072.242398926514,1.047,0.271,-1.262,-1.825
-0.8,8999947996.37202,0.9281119108,85.90135215053957,5024.582714960762,0.991,0.196,-1.366,-1.943
-0.8,8999947996.37202,0.9281226397,92.89663867799364,4980.810283567242,0.938,0.125,-1.466,-2.054
-0.8,8999947996.37202,0.9281277061,100.0,4941.96880847838,0.888,0.059,-1.558,-2.157
-0.8,8999947996.37202,0.9281305075,107.3989412341245,4905.6888610179985,0.839,-0.006,-1.648,-2.258
-0.8,8999947996.37202,0.9281324744,116.41260294104909,4866.312560731986,0.784,-0.078,-1.748,-2.37
-0.8,8999947996.37202,0.9281329513,119.6740531307243,4852.88500162121,0.767,-0.101,-1.78,-2.407
-0.8,8999947996.37202,0.9281340837,128.82495516931337,4819.477976251272,0.721,-0.17,-1.872,-2.508
-0.8,8999947996.37202,0.9281353951,140.60475241299144,4780.793661491186,0.667,-0.254,-1.983,-2.628
-0.8,8999947996.37202,0.9281366467,152.05475297324955,4745.696931912426,0.622,-0.325,-2.079,-2.732
-0.8,8999947996.37202,0.9281378984,157.0362804333553,4732.602186090037,0.602,-0.355,-2.119,-2.776
-0.8,8999947996.37202,0.9281399846,164.43717232149325,4714.113123725611,0.576,-0.395,-2.173,-2.834
-0.8,8999947996.37202,0.9281434417,155.95525028269537,4736.963081746328,0.606,-0.347,-2.108,-2.764
-0.8,8999947996.37202,0.9281477928,147.91083881682073,4758.827909888171,0.637,-0.3,-2.044,-2.695
-0.8,8999947996.37202,0.9281769991,148.93610777109154,4755.541763152083,0.634,-0.306,-2.053,-2.704
-0.8,8999947996.37202,0.9282053113,154.170045294956,4739.145036236972,0.614,-0.337,-2.096,-2.751
-0.8,8999947996.37202,0.9282335639,169.82436524617444,4696.777641902296,0.559,-0.425,-2.216,-2.882
-0.8,8999947996.37202,0.9282605052,189.67059212111465,4650.503761666063,0.5,-0.523,-2.35,-3.027
-0.8,8999947996.37202,0.9282844663,209.41124558508935,4608.928809808955,0.448,-0.611,-2.47,-3.158
-0.8,8999947996.37202,0.9283055663,230.14418174085088,4569.82953285961,0.398,-0.695,-2.586,-3.285
-0.8,8999947996.37202,0.9283239245,252.92979964461446,4532.1053854810425,0.351,-0.776,-2.699,-3.41
-0.8,8999947996.37202,0.928339839,277.3320104651841,4495.727713019056,0.305,-0.854,-2.81,-3.532
-0.8,8999947996.37202,0.9283540845,303.3891184194272,4459.642031793193,0.259,-0.927,-2.919,-3.655
-0.8,8999947996.37202,0.9283668399,331.89445755261033,4423.845998088853,0.214,-0.997,-3.026,-3.776
-0.8,8999947996.37202,0.9283786416,363.9150361272071,4388.337287003648,0.17,-1.068,-3.134,-3.898
-0.8,8999947996.37202,0.928384006,380.1893963205613,4349.106072324534,0.177,-1.086,-3.192,-3.973
-0.8,8999947996.37202,0.9283943772,416.8693834703355,4289.434099967818,0.171,-1.132,-3.304,-4.111
-0.8,8999947996.37202,0.9284040332,454.9880601500485,4249.129820811196,0.142,-1.191,-3.411,-4.235
-0.8,8999947996.37202,0.9284133315,497.7370849789361,4210.173564456214,0.114,-1.25,-3.517,-4.359
-0.8,8999947996.37202,0.9284223318,545.757861091271,4174.457078262909,0.08,-1.313,-3.623,-4.481
-0.8,8999947996.37202,0.9284305573,594.2921586155727,4140.950127434679,0.053,-1.369,-3.724,-4.599
-0.8,8999947996.37202,0.9284386635,650.1296903430909,4104.875598336487,0.033,-1.423,-3.829,-4.721
-0.8,8999947996.37202,0.9284465909,712.8530301265198,4068.178497521943,0.012,-1.479,-3.939,-4.848
-0.8,8999947996.37202,0.9284531474,781.6278045883292,4032.7379297611305,-0.004,-1.53,-4.044,-4.972
-0.8,8999947996.37202,0.9284579754,849.1804750363135,4000.3685104612505,-0.018,-1.577,-4.141,-5.084
-0.8,8999947996.37202,0.9284617305,920.4495717531712,3969.1727400947307,-0.032,-1.622,-4.236,-5.195
-0.8,8999947996.37202,0.928465426,1006.9316688518045,3936.4070414309936,-0.043,-1.668,-4.34,-5.316
-0.8,8999947996.37202,0.928468585,1096.4781961431852,3907.5091171056138,-0.056,-1.715,-4.438,-5.43
-0.8,8999947996.37202,0.9284715056,1193.9881044642732,3885.974979543936,-0.079,-1.769,-4.536,-5.538
-0.8,8999947996.37202,0.9284743071,1306.1708881318418,3883.291570049549,-0.138,-1.852,-4.639,-5.642
-0.8,8999947996.37202,0.9284750819,1247.3835142429432,3927.3535564672516,-0.19,-1.869,-4.582,-5.559
-0.8,8999947996.37202,0.9284751415,1216.1860006463678,3939.1271544686583,-0.193,-1.861,-4.553,-5.524
-0.8,8999947996.37202,0.9284752011,1218.9895989248662,3940.0342764474544,-0.195,-1.863,-4.556,-5.526
-0.8,8999947996.37202,0.9284752607,1230.268770812381,3939.1271544686583,-0.2,-1.871,-4.566,-5.536
-0.8,8999947996.37202,0.9284754395,1261.8275345906707,3936.4070414309936,-0.216,-1.893,-4.594,-5.566
-0.8,8999947996.37202,0.9284756184,1309.181922999407,3930.0674134185306,-0.234,-1.921,-4.636,-5.611
-0.8,8999947996.37202,0.9284757376,1352.0725631942764,3926.449353995997,-0.25,-1.946,-4.671,-5.647
-0.8,8999947996.37202,0.9284760952,1435.489433353656,3919.2232245497667,-0.286,-1.996,-4.739,-5.719
-0.8,8999947996.37202,0.9284763932,1489.3610777109154,3953.666200681279,-0.388,-2.083,-4.777,-5.736
-0.8,8999947996.37202,0.9284768105,1555.965631605075,4069.115338091966,-0.652,-2.277,-4.809,-5.704
-0.8,8999947996.37202,0.9284770489,1592.20872705117,4172.53511231794,-0.861,-2.42,-4.818,-5.66
-0.8,8999947996.37202,0.9284771681,1610.64563517827,4226.686142656029,-0.962,-2.488,-4.822,-5.637
