FeH,Age,Mini,L,Te,Bmag,Vmag,Jmag,Kmag
-2.19174,11500057186.992374,0.1000000015,0.0016557699634695275,3619.928562242391,14.471,12.91,9.973,9.452
-2.19174,11500057186.992374,0.1064157709,0.002079696687103696,3705.1005630192394,14.041,12.567,9.764,9.2
-2.19174,11500057186.992374,0.1098214313,0.002333458062281002,3749.730022454834,13.828,12.396,9.657,9.075
-2.19174,11500057186.992374,0.1211169809,0.0032508729738543437,3867.2299811937696,13.253,11.924,9.344,8.717
-2.19174,11500057186.992374,0.1294642836,0.004073802778041126,3949.1169934897503,12.874,11.609,9.129,8.478
-2.19174,11500057186.992374,0.1491071582,0.005915616341754737,4053.218348593218,12.313,11.119,8.759,8.083
-2.19174,11500057186.992374,0.168750003,0.007925013304804718,4121.924189830974,11.905,10.752,8.466,7.781
-2.19174,11500057186.992374,0.2080357224,0.012647363474711517,4227.659485162412,11.264,10.169,7.99,7.301
-2.19174,11500057186.992374,0.2571428716,0.019543394557753942,4327.130568849061,10.68,9.633,7.547,6.867
-2.19174,11500057186.992374,0.3062500358,0.027352687263067124,4410.623631214367,10.229,9.218,7.207,6.539
-2.19174,11500057186.992374,0.3479772806,0.03483373150360118,4480.226804128664,9.899,8.916,6.964,6.308
-2.19174,11500057186.992374,0.3553571403,0.03622429984166986,4491.588901059318,9.845,8.867,6.924,6.271
-2.19174,11500057186.992374,0.3576628566,0.036728230049808464,4495.727713019056,9.826,8.85,6.91,6.258
-2.19174,11500057186.992374,0.4044643044,0.047863009232263824,4578.255227916937,9.466,8.522,6.648,6.012
-2.19174,11500057186.992374,0.4535714388,0.06683439175686146,4719.543572446043,8.985,8.096,6.326,5.72
-2.19174,11500057186.992374,0.5026785731,0.09727472237769651,4879.77727286486,8.46,7.631,5.969,5.396
-2.19174,11500057186.992374,0.5517857671,0.15346169827992945,5099.175975748702,7.823,7.074,5.546,5.017
-2.19174,11500057186.992374,0.6008928418,0.24490632418447456,5390.139436325507,7.161,6.51,5.139,4.665
-2.19174,11500057186.992374,0.6021490097,0.24774220576332856,5398.834319992117,7.144,6.495,5.128,4.656
-2.19174,11500057186.992374,0.6147139072,0.281190083039894,5490.349610252034,6.966,6.344,5.022,4.566
-2.19174,11500057186.992374,0.6259350181,0.31550046233746265,5573.140604637261,6.809,6.21,4.929,4.486
-2.19174,11500057186.992374,0.6359362602,0.3491403154785861,5648.069082416761,6.669,6.091,4.845,4.414
-2.19174,11500057186.992374,0.6456478834,0.3863669770540692,5720.052304159283,6.534,5.976,4.762,4.344
-2.19174,11500057186.992374,0.6499999762,0.4045758916974427,5753.074526484432,6.473,5.924,4.725,4.311
-2.19174,11500057186.992374,0.6560611129,0.43052661049171065,5796.955946535209,6.39,5.852,4.672,4.265
-2.19174,11500057186.992374,0.6666154861,0.48194779762512735,5872.188659713034,6.244,5.726,4.577,4.183
-2.19174,11500057186.992374,0.6769758463,0.5395106225151276,5947.028229172615,6.101,5.6,4.481,4.098
-2.19174,11500057186.992374,0.686830759,0.6025595860743578,6017.27694025024,5.962,5.478,4.387,4.014
-2.19174,11500057186.992374,0.6962385178,0.6714288529259523,6084.151222917084,5.827,5.359,4.295,3.932
-2.19174,11500057186.992374,0.6999999881,0.7014552984199712,6112.234388984113,5.771,5.31,4.257,3.898
-2.19174,11500057186.992374,0.7076615691,0.7691304402866096,6163.1111474198415,5.657,5.207,4.176,3.826
-2.19174,11500057186.992374,0.7174552083,0.8709635899560807,6230.171474290644,5.506,5.07,4.066,3.726
-2.19174,11500057186.992374,0.7260472178,0.9772372209558107,6287.818541180465,5.366,4.943,3.962,3.632
-2.19174,11500057186.992374,0.7345272303,1.101539309541415,6345.999009812872,5.222,4.811,3.853,3.533
-2.19174,11500057186.992374,0.7418077588,1.2274392311584073,6392.930749102151,5.091,4.69,3.752,3.439
-2.19174,11500057186.992374,0.7488588095,1.3708817661648536,6438.726829014615,4.957,4.565,3.645,3.34
-2.19174,11500057186.992374,0.75,1.399587322572618,6446.143956044051,4.934,4.544,3.627,3.324
-2.19174,11500057186.992374,0.7514971495,1.4321878992735435,6456.542290346556,4.905,4.517,3.605,3.303
-2.19174,11500057186.992374,0.7603942752,1.6788040181225603,6519.285491340651,4.716,4.34,3.453,3.161
-2.19174,11500057186.992374,0.7686097026,1.981527025805098,6572.037002870897,4.521,4.156,3.29,3.008
-2.19174,11500057186.992374,0.7740613818,2.2335722228305315,6602.372147378005,4.382,4.022,3.17,2.893
-2.19174,11500057186.992374,0.7792302966,2.5176769277588558,6625.215359025829,4.244,3.889,3.046,2.773
-2.19174,11500057186.992374,0.7834562659,2.7925438412373382,6632.847312550216,4.125,3.772,2.934,2.663
-2.19174,11500057186.992374,0.7849521041,2.917427014001167,6626.741046882747,4.078,3.725,2.885,2.613
-2.19174,11500057186.992374,0.7890161872,3.303695410368148,6594.775259494848,3.946,3.589,2.739,2.463
-2.19174,11500057186.992374,0.7918599248,3.6475394692560785,6550.885369386104,3.846,3.484,2.618,2.335
-2.19174,11500057186.992374,0.7924663424,3.7239170625456848,6538.8293000474205,3.824,3.46,2.59,2.305
-2.19174,11500057186.992374,0.7930588126,3.8194427084004654,6516.283940608428,3.8,3.433,2.555,2.267
-2.19174,11500057186.992374,0.7950518131,4.187935651179184,6425.397500373017,3.719,3.337,2.425,2.123
-2.19174,11500057186.992374,0.7965771556,4.549880601500486,6318.296466918977,3.654,3.254,2.3,1.98
-2.19174,11500057186.992374,0.7977721095,4.897788193684462,6194.410750767812,3.605,3.181,2.177,1.836
-2.19174,11500057186.992374,0.7987357378,5.248074602497725,6060.382005270666,3.567,3.117,2.057,1.693
-2.19174,11500057186.992374,0.7995442152,5.597576014951102,5933.35044380004,3.533,3.056,1.943,1.557
-2.19174,11500057186.992374,0.8000000119,5.834451042737448,5860.032167510559,3.51,3.017,1.874,1.475
-2.19174,11500057186.992374,0.8001140952,5.88843655355589,5842.517205360298,3.505,3.008,1.857,1.454
-2.19174,11500057186.992374,0.8007434011,6.309573444801933,5745.131848169437,3.462,2.943,1.749,1.329
-2.19174,11500057186.992374,0.8013750911,6.8865229634427605,5657.180034775736,3.398,2.857,1.624,1.188
-2.19174,11500057186.992374,0.8018690944,7.498942093324558,5600.154387615568,3.325,2.77,1.511,1.063
-2.19174,11500057186.992374,0.8023579717,8.279421637123342,5555.203848137405,3.234,2.667,1.386,0.93
-2.19174,11500057186.992374,0.8024324775,8.433347577642754,5548.8118635809,3.217,2.649,1.366,0.908
-2.19174,11500057186.992374,0.802841723,9.268298233793493,5520.774392807573,3.124,2.549,1.252,0.789
-2.19174,11500057186.992374,0.8032940626,10.375284158180126,5491.613955526368,3.013,2.431,1.119,0.65
-2.19174,11500057186.992374,0.80367589,11.481536214968829,5470.159628939716,2.911,2.324,1.002,0.528
-2.19174,11500057186.992374,0.8040436506,12.735030810166617,5450.043893417617,2.807,2.216,0.883,0.404
-2.19174,11500057186.992374,0.8043861389,14.092887984218748,5431.252578811117,2.704,2.108,0.766,0.282
-2.19174,11500057186.992374,0.8047088385,15.631476426409538,5413.772478826865,2.599,1.999,0.648,0.16
-2.19174,11500057186.992374,0.805031836,17.458221529205037,5395.1062251512785,2.486,1.881,0.521,0.029
-2.19174,11500057186.992374,0.8053110242,19.364219639466068,5377.742459634421,2.379,1.771,0.402,-0.094
-2.19174,11500057186.992374,0.8055856228,21.6271852372702,5357.966575133417,2.267,1.654,0.276,-0.224
-2.19174,11500057186.992374,0.8058348894,24.099054286865943,5340.722340937607,2.156,1.538,0.152,-0.352
-2.19174,11500057186.992374,0.8060604334,26.853444456585077,5323.533606082614,2.047,1.425,0.029,-0.479
-2.19174,11500057186.992374,0.806266129,29.853826189179603,5303.957066945361,1.939,1.313,-0.093,-0.604
-2.19174,11500057186.992374,0.8064604402,33.34264127632349,5285.669448009903,1.827,1.196,-0.218,-0.734
-2.19174,11500057186.992374,0.8066340685,37.15352290971726,5267.444883319061,1.718,1.083,-0.341,-0.862
-2.19174,11500057186.992374,0.8067897558,41.20975190973302,5248.074602497728,1.612,0.972,-0.462,-0.987
-2.19174,11500057186.992374,0.8069356084,45.91980128368685,5229.979661821558,1.504,0.858,-0.585,-1.114
-2.19174,11500057186.992374,0.8070651889,51.05049999754062,5211.947111050806,1.4,0.749,-0.705,-1.239
-2.19174,11500057186.992374,0.8071861863,56.754460540854716,5191.585371063544,1.295,0.637,-0.828,-1.366
-2.19174,11500057186.992374,0.8072987199,63.09573444801933,5171.303179169629,1.189,0.524,-0.952,-1.495
-2.19174,11500057186.992374,0.8074018955,70.30723198838334,5152.286445817567,1.082,0.411,-1.076,-1.624
-2.19174,11500057186.992374,0.8074957132,78.16278045883297,5132.15778474056,0.978,0.299,-1.199,-1.752
-2.19174,11500057186.992374,0.8075835109,87.09635899560806,5110.930790373907,0.873,0.187,-1.325,-1.883
-2.19174,11500057186.992374,0.8076635599,97.05099672454898,5092.136067911513,0.768,0.074,-1.449,-2.012
-2.19174,11500057186.992374,0.8077346087,107.64652136298349,5071.074606405172,0.668,-0.034,-1.569,-2.138
-2.19174,11500057186.992374,0.8078000546,119.6740531307243,5050.100256703167,0.567,-0.142,-1.69,-2.264
-2.19174,11500057186.992374,0.8078614473,133.04544179780913,5030.370810846251,0.464,-0.254,-1.814,-2.393
-2.19174,11500057186.992374,0.8079165816,147.91083881682073,5008.411452998231,0.365,-0.362,-1.936,-2.52
-2.19174,11500057186.992374,0.8079718351,165.19617982290148,4987.696282857759,0.26,-0.477,-2.064,-2.654
-2.19174,11500057186.992374,0.8080298901,183.23144223712112,4967.066792234226,0.163,-0.583,-2.184,-2.778
-2.19174,11500057186.992374,0.8080602288,189.2343618644976,4961.351535855698,0.132,-0.617,-2.221,-2.817
-2.19174,11500057186.992374,0.8080859184,186.20871366628674,4967.066792234226,0.145,-0.602,-2.202,-2.797
-2.19174,11500057186.992374,0.8080919981,189.2343618644976,4963.636848845585,0.13,-0.618,-2.221,-2.816
-2.19174,11500057186.992374,0.8081256151,207.49135174549107,4944.245193336823,0.045,-0.712,-2.327,-2.928
-2.19174,11500057186.992374,0.8081596494,228.559880337543,4924.929296050273,-0.047,-0.813,-2.441,-3.046
-2.19174,11500057186.992374,0.808188498,250.03453616964322,4905.6888610179985,-0.128,-0.903,-2.544,-3.154
-2.19174,11500057186.992374,0.8082169294,274.15741719278833,4886.523593428336,-0.213,-0.998,-2.652,-3.268
-2.19174,11500057186.992374,0.8082433939,300.6076302628232,4867.433199621377,-0.297,-1.092,-2.759,-3.38
-2.19174,11500057186.992374,0.8082666397,328.09529311311906,4848.4173870844625,-0.374,-1.18,-2.86,-3.487
-2.19174,11500057186.992374,0.8082895875,359.74933515574236,4828.363964551585,-0.449,-1.273,-2.969,-3.6
-2.19174,11500057186.992374,0.8083099723,392.6449353995997,4810.608341479539,-0.519,-1.361,-3.072,-3.707
-2.19174,11500057186.992374,0.8083289862,427.562886151586,4790.711300030745,-0.585,-1.448,-3.175,-3.813
-2.19174,11500057186.992374,0.808347106,466.6593803142887,4771.995220268839,-0.65,-1.534,-3.279,-3.921
-2.19174,11500057186.992374,0.8083666563,516.416369272071,4751.163763775616,-0.725,-1.635,-3.399,-4.046
-2.19174,11500057186.992374,0.8083823323,563.6376558259543,4729.334149186516,-0.78,-1.718,-3.503,-4.155
-2.19174,11500057186.992374,0.8083985448,620.8690342300638,4708.688923442734,-0.843,-1.811,-3.619,-4.274
-2.19174,11500057186.992374,0.8084118962,676.0829753919819,4690.293284059374,-0.896,-1.891,-3.72,-4.38
-2.19174,11500057186.992374,0.8084254861,741.3102413009177,4667.668449794021,-0.945,-1.976,-3.832,-4.496
-2.19174,11500057186.992374,0.8084367514,803.5261221856169,4649.433066875436,-0.991,-2.052,-3.929,-4.597
-2.19174,11500057186.992374,0.8084486127,881.0488730080137,4628.0708623811315,-1.034,-2.133,-4.039,-4.712
-2.19174,11500057186.992374,0.8084606528,970.5099672454899,4604.685783785738,-1.071,-2.218,-4.158,-4.835
-2.19174,11500057186.992374,0.808470428,1056.8175092136585,4584.584692493264,-1.098,-2.289,-4.262,-4.943
-2.19174,11500057186.992374,0.8084787726,1142.8783347897713,4565.622502022357,-1.115,-2.35,-4.356,-5.04
-2.19174,11500057186.992374,0.8084874153,1241.6523075924106,4546.738740611353,-1.139,-2.418,-4.456,-5.145
-2.19174,11500057186.992374,0.8084962964,1358.3134465871542,4523.764623324995,-1.179,-2.492,-4.564,-5.259
-2.19174,11500057186.992374,0.8085036874,1472.3125024327194,4504.016781680873,-1.214,-2.558,-4.66,-5.36
-2.19174,11500057186.992374,0.8085111976,1599.5580286146694,4483.322704327333,-1.25,-2.626,-4.759,-5.466
-2.19174,11500057186.992374,0.8085181117,1725.837891990204,4464.779341129965,-1.281,-2.687,-4.85,-5.561
-2.19174,11500057186.992374,0.8085200787,1761.976046411629,4459.642031793193,-1.289,-2.703,-4.873,-5.586
-2.19174,11500057186.992374,0.8085200787,46.665938031428865,8580.25114722603,0.696,0.655,0.493,0.448
-2.19174,11500057186.992374,0.8085207939,47.424198526024455,8497.672707759728,0.673,0.625,0.447,0.397
-2.19174,11500057186.992374,0.8085718155,49.659232145033606,8296.59709310986,0.619,0.555,0.333,0.271
-2.19174,11500057186.992374,0.808621347,49.659232145033606,8302.330159249539,0.618,0.555,0.334,0.272
-2.19174,11500057186.992374,0.8086709976,49.659232145033606,8308.067187019149,0.618,0.556,0.336,0.275
-2.19174,11500057186.992374,0.8087211847,49.659232145033606,8313.808179156222,0.618,0.556,0.338,0.276
-2.19174,11500057186.992374,0.8087727427,49.659232145033606,8311.894074456197,0.618,0.555,0.337,0.275
-2.19174,11500057186.992374,0.8088238835,49.77370849789361,8306.154404079227,0.617,0.554,0.334,0.272
-2.19174,11500057186.992374,0.8088716865,49.77370849789361,8294.68695095263,0.616,0.552,0.33,0.267
-2.19174,11500057186.992374,0.8089233041,49.88844874600122,8279.421637123345,0.615,0.549,0.323,0.259
-2.19174,11500057186.992374,0.8089709282,50.003453497697855,8256.576326213262,0.613,0.545,0.314,0.248
-2.19174,11500057186.992374,0.8090190887,50.11872336272722,8226.2139388311,0.611,0.54,0.301,0.233
-2.19174,11500057186.992374,0.8090696931,50.23425895223871,8186.532683155699,0.608,0.533,0.284,0.214
-2.19174,11500057186.992374,0.809122324,50.46612975635284,8135.795056053964,0.604,0.524,0.263,0.189
-2.19174,11500057186.992374,0.8091714382,50.69907082747044,8079.78863683088,0.602,0.516,0.24,0.162
-2.19174,11500057186.992374,0.8092204332,50.93308710571955,8016.78063387679,0.599,0.505,0.213,0.13
-2.19174,11500057186.992374,0.8092719913,51.28613839913648,7937.797216901173,0.596,0.493,0.18,0.09
-2.19174,11500057186.992374,0.8093206286,51.64163692720711,7854.164626145399,0.597,0.482,0.145,0.048
-2.19174,11500057186.992374,0.8093695045,52.11947111050805,7762.4711662869195,0.597,0.47,0.105,0.001
-2.19174,11500057186.992374,0.8094198108,52.60172663907063,7657.729123418224,0.603,0.459,0.061,-0.053
-2.19174,11500057186.992374,0.8094713688,53.08844442309885,7542.2339584757065,0.611,0.448,0.012,-0.115
-2.19174,11500057186.992374,0.8095194697,53.70317963702527,7425.060556921996,0.62,0.438,-0.038,-0.177
-2.19174,11500057186.992374,0.8095240593,53.70317963702527,7413.102413009177,0.62,0.437,-0.043,-0.183
-2.19174,11500057186.992374,0.8095321059,53.826978251628844,7394.349942551872,0.622,0.436,-0.051,-0.194
-2.19174,11500057186.992374,0.8095795512,54.450265284242114,7282.827106931315,0.632,0.429,-0.098,-0.255
-2.19174,11500057186.992374,0.809625864,54.954087385762456,7168.033065160515,0.643,0.423,-0.147,-0.318
-2.19174,11500057186.992374,0.8096753955,55.71857489319299,7035.581528181841,0.658,0.417,-0.203,-0.392
-2.19174,11500057186.992374,0.8097224832,56.36376558259543,6902.398038402419,0.673,0.412,-0.26,-0.468
-2.19174,11500057186.992374,0.8097676635,57.14786366718669,6768.6179291974595,0.69,0.407,-0.318,-0.545
-2.19174,11500057186.992374,0.8098142743,57.94286964268809,6635.902555061003,0.709,0.403,-0.376,-0.624
-2.19174,11500057186.992374,0.8098599911,58.74893525297766,6508.786108404092,0.727,0.399,-0.432,-0.702
-2.19174,11500057186.992374,0.8099062443,59.70352865838369,6389.987373482767,0.748,0.396,-0.487,-0.777
-2.19174,11500057186.992374,0.8099524975,60.53408747539136,6284.923560377511,0.765,0.392,-0.537,-0.846
-2.19174,11500057186.992374,0.8099990487,61.80164001384158,6174.474480506815,0.782,0.385,-0.594,-0.924
-2.19174,11500057186.992374,0.810008347,61.94410750767815,6151.7687270986835,0.785,0.384,-0.606,-0.94
-2.19174,11500057186.992374,0.81005615,63.53309318517436,6046.4435134475925,0.795,0.371,-0.666,-1.02
-2.19174,11500057186.992374,0.8101032376,65.76578373554206,5927.88814195578,0.799,0.349,-0.744,-1.123
-2.19174,11500057186.992374,0.8101428151,69.98419960022734,5780.960474057181,0.789,0.304,-0.859,-1.269
-2.19174,11500057186.992374,0.8101643324,74.98942093324558,5649.369748123023,0.765,0.247,-0.979,-1.417
-2.19174,11500057186.992374,0.8101739883,80.72350302488383,5541.151189716864,0.731,0.185,-1.094,-1.555
-2.19174,11500057186.992374,0.8101783395,87.09635899560806,5451.298956889106,0.688,0.117,-1.207,-1.688
-2.19174,11500057186.992374,0.810180366,93.5405674147552,5385.177219975279,0.641,0.051,-1.309,-1.805
-2.19174,11500057186.992374,0.8101812005,97.72372209558107,5350.569381731372,0.61,0.009,-1.369,-1.872
-2.19174,11500057186.992374,0.8101814389,100.0,5335.805618460333,0.593,-0.012,-1.397,-1.903
-2.19174,11500057186.992374,0.8101823926,109.39563662720941,5288.104149313063,0.52,-0.101,-1.511,-2.029
-2.19174,11500057186.992374,0.8101832867,119.94993031493793,5245.6583312381235,0.441,-0.193,-1.627,-2.154
-2.19174,11500057186.992374,0.8101841211,131.5224832192239,5207.148940339917,0.362,-0.285,-1.741,-2.278
-2.19174,11500057186.992374,0.8101850152,143.5489433353656,5174.876622934801,0.288,-0.372,-1.846,-2.39
-2.19174,11500057186.992374,0.8101863861,151.35612484362088,5157.034063026461,0.239,-0.427,-1.912,-2.46
-2.19174,11500057186.992374,0.8101890683,145.2111617587742,5174.876622934801,0.274,-0.386,-1.86,-2.404
-2.19174,11500057186.992374,0.8102056384,140.92887984218748,5180.837850719928,0.304,-0.353,-1.824,-2.367
-2.19174,11500057186.992374,0.8102213144,151.35612484362088,5152.286445817567,0.244,-0.425,-1.912,-2.462
-2.19174,11500057186.992374,0.8102402091,168.26740610704672,5114.462515963049,0.15,-0.533,-2.042,-2.601
-2.19174,11500057186.992374,0.8102583289,185.35316234148104,5083.935125244855,0.066,-0.63,-2.158,-2.724
-2.19174,11500057186.992374,0.8102750778,203.7042077705719,5054.753713597985,-0.018,-0.726,-2.272,-2.844
-2.19174,11500057186.992374,0.8102900386,224.3881923782766,5026.897153690667,-0.102,-0.822,-2.385,-2.964
-2.19174,11500057186.992374,0.81030339,246.60393372343387,5000.345349769783,-0.186,-0.918,-2.498,-3.085
-2.19174,11500057186.992374,0.8103150725,271.01916318908417,4973.933791067749,-0.27,-1.014,-2.611,-3.204
-2.19174,11500057186.992374,0.8103253841,297.8516429429191,4947.661736816762,-0.352,-1.109,-2.723,-3.322
-2.19174,11500057186.992374,0.8103347421,327.3406948788383,4922.661804443356,-0.436,-1.204,-2.835,-3.441
-2.19174,11500057186.992374,0.8103432655,359.74933515574236,4897.7881936844615,-0.518,-1.299,-2.946,-3.559
-2.19174,11500057186.992374,0.8103510737,395.3666200681279,4873.040266252349,-0.597,-1.392,-3.057,-3.676
-2.19174,11500057186.992374,0.8103583455,434.51022417157145,4848.4173870844625,-0.675,-1.485,-3.168,-3.794
-2.19174,11500057186.992374,0.8103652,476.4309868054156,4823.918924327151,-0.744,-1.578,-3.28,-3.911
-2.19174,11500057186.992374,0.8103717566,523.6004365857501,4799.544249319445,-0.811,-1.67,-3.393,-4.029
-2.19174,11500057186.992374,0.8103780746,575.4399373371566,4775.2927365769065,-0.874,-1.761,-3.506,-4.147
-2.19174,11500057186.992374,0.8103840351,632.4118513762197,4751.163763775616,-0.934,-1.852,-3.621,-4.267
-2.19174,11500057186.992374,0.8103892207,696.6265141107687,4724.980276801948,-0.99,-1.943,-3.738,-4.389
-2.19174,11500057186.992374,0.8103935719,765.5966069112561,4700.023181798009,-1.042,-2.031,-3.853,-4.51
-2.19174,11500057186.992374,0.8103973269,841.3951416451947,4675.197908845073,-1.089,-2.117,-3.969,-4.631
-2.19174,11500057186.992374,0.8104006648,922.5714271547629,4650.503761666063,-1.127,-2.198,-4.081,-4.748
-2.19174,11500057186.992374,0.8104041219,1011.5794542598983,4624.875008224019,-1.157,-2.276,-4.195,-4.866
-2.19174,11500057186.992374,0.8104072809,1124.6049739669268,4596.2114466600115,-1.184,-2.363,-4.325,-5.002
-2.19174,11500057186.992374,0.8104087114,1196.7405313072431,4579.3095315174405,-1.194,-2.411,-4.401,-5.081
-2.19174,11500057186.992374,0.8104091883,1086.4256236170656,4606.806808300934,-1.178,-2.336,-4.282,-4.957
-2.19174,11500057186.992374,0.8104092479,1078.9467222298285,4608.928809808955,-1.177,-2.331,-4.274,-4.949
-2.19174,11500057186.992374,0.8104093075,1078.9467222298285,4608.928809808955,-1.176,-2.331,-4.274,-4.949
-2.19174,11500057186.992374,0.8104094267,1127.1974561755105,4597.269885308723,-1.185,-2.364,-4.326,-5.003
-2.19174,11500057186.992374,0.8104095459,1158.7773561551262,4588.8091961986775,-1.191,-2.387,-4.362,-5.041
-2.19174,11500057186.992374,0.8104096651,1238.796586530369,4569.82953285961,-1.199,-2.438,-4.445,-5.127
-2.19174,11500057186.992374,0.8104099035,1355.1894123510365,4544.645372095089,-1.211,-2.505,-4.554,-5.243
-2.19174,11500057186.992374,0.8104102612,1527.5660582380733,4509.205208756537,-1.255,-2.6,-4.7,-5.398
-2.19174,11500057186.992374,0.8104108572,1725.837891990204,4473.0113482444785,-1.296,-2.693,-4.845,-5.554
-2.19174,11500057186.992374,0.8104111552,1770.108958317422,4445.28899122317,-1.267,-2.695,-4.883,-5.601
-2.19174,11500057186.992374,0.8104112148,1088.9300933334332,4582.47389928456,-1.114,-2.316,-4.295,-4.976
-2.19174,11500057186.992374,0.810411334,762.0790100254122,4682.739513736003,-1.001,-2.015,-3.856,-4.517
-2.19174,11500057186.992374,0.8104115725,454.9880601500485,4829.475864447709,-0.702,-1.53,-3.228,-3.858
-2.19174,11500057186.992374,0.8104118705,459.19801283686854,4825.029800597099,-0.704,-1.536,-3.238,-3.869
-2.19174,11500057186.992374,0.8104122281,537.0317963702527,4776.392414964196,-0.802,-1.687,-3.431,-4.072
-2.19174,11500057186.992374,0.8104127049,816.5823713585922,4651.574703021666,-1.006,-2.07,-3.948,-4.615
-2.19174,11500057186.992374,0.810413301,1205.0359403717973,4539.416166502032,-1.084,-2.376,-4.428,-5.118
-2.19174,11500057186.992374,0.810413897,1559.552502826954,4464.779341129965,-1.171,-2.575,-4.738,-5.449
-2.19174,11500057186.992374,0.8104146123,1786.4875748520499,4422.827487168868,-1.205,-2.673,-4.901,-5.626
-2.19174,11500057186.992374,0.8104153872,1896.7059212111465,4401.492842868152,-1.208,-2.711,-4.975,-5.707
-2.19174,11500057186.992374,0.8104162812,1949.8445997580454,4388.337287003648,-1.196,-2.722,-5.011,-5.747
