FeH,Age,Mini,L,Te,Bmag,Vmag,Jmag,Kmag
-2.0,5499965939.7640295,0.0936335474,0.0008749837752274364,3250.872973854344,16.102,14.192,10.511,10.159
-2.0,5499965939.7640295,0.0960145295,0.001039920165829059,3330.427623087463,15.704,13.856,10.359,9.941
-2.0,5499965939.7640295,0.1035686582,0.0017538805018417621,3582.613845838672,14.518,12.918,9.904,9.337
-2.0,5499965939.7640295,0.1234388798,0.003303695410368149,3820.322268844109,13.345,11.968,9.314,8.658
-2.0,5499965939.7640295,0.1433091164,0.004909078761526029,3940.0342764474544,12.71,11.429,8.928,8.242
-2.0,5499965939.7640295,0.163179338,0.006652731562017413,4020.6845399191266,12.257,11.032,8.625,7.926
-2.0,5499965939.7640295,0.2029198259,0.010764652136298349,4133.329236662004,11.576,10.422,8.136,7.429
-2.0,5499965939.7640295,0.2525953948,0.01710015315090288,4236.429660495409,10.943,9.846,7.665,6.961
-2.0,5499965939.7640295,0.3022710085,0.024603676041476275,4322.151642327874,10.449,9.395,7.296,6.602
-2.0,5499965939.7640295,0.3519465327,0.03311311214825911,4401.492842868152,10.041,9.022,6.995,6.314
-2.0,5499965939.7640295,0.4016221166,0.04335108783875289,4487.453899331323,9.662,8.681,6.726,6.062
-2.0,5499965939.7640295,0.4512977004,0.06039486293763797,4628.0708623811315,9.173,8.249,6.407,5.773
-2.0,5499965939.7640295,0.5009732842,0.08709635899560805,4802.860802396913,8.634,7.776,6.062,5.467
-2.0,5499965939.7640295,0.5506489277,0.13061708881318415,5002.648624210056,8.056,7.27,5.688,5.136
-2.0,5499965939.7640295,0.6003244519,0.1967886289706845,5258.961603824607,7.462,6.763,5.328,4.829
-2.0,5499965939.7640295,0.6094506979,0.21232444620002192,5313.736321187098,7.351,6.67,5.263,4.775
-2.0,5499965939.7640295,0.6357046962,0.2642408757321947,5473.939586745954,7.04,6.407,5.081,4.623
-2.0,5499965939.7640295,0.6499999762,0.29785164294291894,5561.603195975926,6.876,6.268,4.984,4.541
-2.0,5499965939.7640295,0.6540151834,0.3076096814740708,5587.2743899402,6.83,6.229,4.957,4.519
-2.0,5499965939.7640295,0.6810657382,0.3845917820453536,5758.375744868389,6.525,5.972,4.779,4.368
-2.0,5499965939.7640295,0.6999999881,0.4487453899331322,5876.246425275582,6.321,5.799,4.655,4.262
-2.0,5499965939.7640295,0.7109881639,0.4897788193684462,5942.921586155727,6.206,5.7,4.582,4.2
-2.0,5499965939.7640295,0.7289460897,0.5662392890382533,6049.228644838512,6.02,5.539,4.464,4.097
-2.0,5499965939.7640295,0.7452998757,0.6456542290346555,6146.105347195242,5.851,5.392,4.356,4.005
-2.0,5499965939.7640295,0.75,0.6714288529259523,6174.474480506815,5.803,5.35,4.325,3.978
-2.0,5499965939.7640295,0.7509354353,0.6760829753919817,6178.741129854402,5.793,5.342,4.319,3.973
-2.0,5499965939.7640295,0.767125845,0.7709034690644301,6269.024974761653,5.629,5.197,4.21,3.878
-2.0,5499965939.7640295,0.7820046544,0.8689604292863018,6353.309318517436,5.478,5.063,4.108,3.79
-2.0,5499965939.7640295,0.7957956195,0.9727472237769651,6429.8375410824665,5.337,4.938,4.013,3.706
-2.0,5499965939.7640295,0.8000000119,1.0069316688518042,6453.569627274052,5.294,4.899,3.983,3.681
-2.0,5499965939.7640295,0.813670814,1.1271974561755105,6531.305526474723,5.155,4.774,3.888,3.598
-2.0,5499965939.7640295,0.8270682096,1.2618275345906707,6608.455958120293,5.017,4.648,3.792,3.514
-2.0,5499965939.7640295,0.8397986889,1.4028137045619582,6681.900434105529,4.883,4.527,3.698,3.432
-2.0,5499965939.7640295,0.8500000238,1.5346169827992944,6742.174675762447,4.774,4.427,3.621,3.364
-2.0,5499965939.7640295,0.8529264927,1.5739828644662195,6760.829753919818,4.742,4.398,3.6,3.345
-2.0,5499965939.7640295,0.8685091138,1.807174126010927,6862.778784114733,4.568,4.239,3.479,3.24
-2.0,5499965939.7640295,0.8818574548,2.0511621788255656,6953.4446182566335,4.413,4.097,3.371,3.146
-2.0,5499965939.7640295,0.8938957453,2.306747188720069,7038.822279364571,4.265,3.962,3.269,3.056
-2.0,5499965939.7640295,0.8999999762,2.4547089156850306,7084.349849515063,4.188,3.891,3.216,3.009
-2.0,5499965939.7640295,0.9061872959,2.618183008218985,7138.385536016632,4.107,3.818,3.163,2.964
-2.0,5499965939.7640295,0.9154540896,2.890679882365476,7222.707043121718,3.981,3.704,3.08,2.893
-2.0,5499965939.7640295,0.9261466861,3.2583670100200877,7326.558134796395,3.83,3.566,2.981,2.807
-2.0,5499965939.7640295,0.9360824823,3.664375746478332,7426.770437146976,3.682,3.432,2.884,2.724
-2.0,5499965939.7640295,0.9460412264,4.14954042634363,7528.353438447546,3.527,3.291,2.78,2.633
-2.0,5499965939.7640295,0.9500000477,4.375221051582521,7568.328950209744,3.463,3.232,2.736,2.593
-2.0,5499965939.7640295,0.9537028074,4.581418867145335,7606.765007662276,3.403,3.177,2.695,2.557
-2.0,5499965939.7640295,0.9629784226,5.236004365857502,7687.76324173842,3.241,3.027,2.575,2.447
-2.0,5499965939.7640295,0.965400815,5.432503314924332,7707.25982415519,3.198,2.987,2.542,2.416
-2.0,5499965939.7640295,0.967366755,5.610479760324705,7716.138244793735,3.16,2.951,2.509,2.385
-2.0,5499965939.7640295,0.9726045132,6.137620051647943,7721.470205645135,3.057,2.85,2.412,2.289
-2.0,5499965939.7640295,0.9766799212,6.637430704019088,7685.993272617573,2.972,2.763,2.315,2.189
-2.0,5499965939.7640295,0.9774231911,6.745280276979219,7673.614893618185,2.956,2.746,2.295,2.167
-2.0,5499965939.7640295,0.980335474,7.177942912713617,7605.013686927006,2.893,2.677,2.205,2.07
-2.0,5499965939.7640295,0.9842579961,7.888601176185544,7461.050851930628,2.81,2.578,2.059,1.908
-2.0,5499965939.7640295,0.9870721698,8.531001140175896,7271.098031596613,2.752,2.499,1.915,1.741
-2.0,5499965939.7640295,0.9892086983,9.141132414702502,7032.342269076595,2.717,2.434,1.766,1.56
-2.0,5499965939.7640295,0.990471065,9.571940712948445,6846.994830911336,2.702,2.394,1.657,1.426
-2.0,5499965939.7640295,0.9914653897,9.954054173515269,6674.212038584765,2.695,2.362,1.559,1.302
-2.0,5499965939.7640295,0.9921653271,10.232929922807541,6534.313996495986,2.696,2.341,1.484,1.205
-2.0,5499965939.7640295,0.9926897287,10.447202192207998,6419.482215080359,2.702,2.326,1.423,1.126
-2.0,5499965939.7640295,0.9932453036,10.690548792226577,6289.266531604159,2.713,2.313,1.357,1.037
-2.0,5499965939.7640295,0.9937173128,10.864256236170656,6175.896369491144,2.727,2.304,1.3,0.961
-2.0,5499965939.7640295,0.9941732883,11.04078619902073,6068.760518768,2.74,2.295,1.246,0.887
-2.0,5499965939.7640295,0.9946094155,11.246049739669262,5970.352865838366,2.751,2.285,1.195,0.818
-2.0,5499965939.7640295,0.9950273037,11.455129414455355,5881.661141430384,2.759,2.272,1.143,0.75
-2.0,5499965939.7640295,0.9954503179,11.694993910198711,5795.621301763043,2.766,2.259,1.092,0.683
-2.0,5499965939.7640295,0.9958924055,11.994993031493788,5720.052304159283,2.765,2.239,1.038,0.614
-2.0,5499965939.7640295,0.9964390397,12.5025903021772,5641.570244329835,2.749,2.204,0.967,0.527
-2.0,5499965939.7640295,0.9968226552,12.971792709839558,5596.287273819709,2.727,2.169,0.91,0.462
-2.0,5499965939.7640295,0.9970598221,13.39676687425935,5575.7077217879405,2.699,2.136,0.868,0.416
-2.0,5499965939.7640295,0.9978013039,14.996848355023733,5524.589326132767,2.597,2.021,0.728,0.265
-2.0,5499965939.7640295,0.9983997345,16.634126503701697,5490.349610252034,2.498,1.913,0.603,0.133
-2.0,5499965939.7640295,0.9988994002,18.281002161427427,5467.641107291687,2.405,1.814,0.493,0.018
-2.0,5499965939.7640295,0.9993883371,20.137242498623884,5445.026528424214,2.31,1.713,0.381,-0.1
-2.0,5499965939.7640295,0.9998518229,22.181964198002195,5423.754206961006,2.214,1.612,0.269,-0.216
-2.0,5499965939.7640295,1.0,22.908676527677734,5417.513472313468,2.181,1.577,0.231,-0.255
-2.0,5499965939.7640295,1.0002695322,24.322040090738145,5406.298239953035,2.121,1.514,0.163,-0.326
-2.0,5499965939.7640295,1.0006915331,26.791683248190314,5387.657756854133,2.021,1.41,0.05,-0.443
-2.0,5499965939.7640295,1.0010852814,29.580124665515466,5369.081544647211,1.923,1.308,-0.062,-0.559
-2.0,5499965939.7640295,1.0014785528,32.734069487883815,5350.569381731372,1.819,1.199,-0.18,-0.681
-2.0,5499965939.7640295,1.0018376112,36.224299841669854,5333.348954876208,1.717,1.092,-0.296,-0.801
-2.0,5499965939.7640295,1.0021719933,40.08667176273028,5313.736321187098,1.616,0.986,-0.412,-0.922
-2.0,5499965939.7640295,1.0024826527,44.36086439314325,5295.414984166674,1.515,0.88,-0.528,-1.042
-2.0,5499965939.7640295,1.0027760267,49.09078761526032,5277.15681764812,1.412,0.772,-0.645,-1.163
-2.0,5499965939.7640295,1.0030499697,54.450265284242114,5256.540320069867,1.31,0.665,-0.763,-1.285
-2.0,5499965939.7640295,1.0033049583,60.25595860743578,5237.210139231933,1.208,0.557,-0.881,-1.408
-2.0,5499965939.7640295,1.0035363436,66.68067692136222,5217.95104239002,1.108,0.451,-0.997,-1.529
-2.0,5499965939.7640295,1.0037542582,73.79042301291011,5198.762768142835,1.008,0.344,-1.115,-1.651
-2.0,5499965939.7640295,1.0039550066,81.65823713585922,5177.260290506427,0.91,0.239,-1.232,-1.773
-2.0,5499965939.7640295,1.0041428804,90.36494737223013,5158.221650723056,0.809,0.132,-1.35,-1.896
-2.0,5499965939.7640295,1.0043094158,99.77000638225536,5138.069802323445,0.714,0.03,-1.463,-2.014
-2.0,5499965939.7640295,1.0044716597,110.40786199020735,5116.818355403078,0.616,-0.077,-1.582,-2.138
-2.0,5499965939.7640295,1.0046180487,122.17996601648723,5096.828259054277,0.518,-0.182,-1.699,-2.259
-2.0,5499965939.7640295,1.0047574043,135.51894123510365,5074.578790806499,0.42,-0.289,-1.82,-2.386
-2.0,5499965939.7640295,1.004881382,149.9684835502374,5053.589947531675,0.324,-0.393,-1.936,-2.508
-2.0,5499965939.7640295,1.005001545,166.34126503701697,5032.687915706669,0.225,-0.501,-2.057,-2.635
-2.0,5499965939.7640295,1.0051108599,184.07720014689562,5009.564815133986,0.131,-0.606,-2.176,-2.759
-2.0,5499965939.7640295,1.0052170753,204.17379446695296,4987.696282857759,0.034,-0.712,-2.297,-2.885
-2.0,5499965939.7640295,1.0053290129,224.90546058357805,4968.210633313916,-0.056,-0.812,-2.41,-3.004
-2.0,5499965939.7640295,1.0054039955,236.04782331805782,4956.784065941179,-0.1,-0.861,-2.466,-3.063
-2.0,5499965939.7640295,1.0054852962,218.77616239495518,4978.517063739154,-0.032,-0.783,-2.374,-2.965
-2.0,5499965939.7640295,1.0054950714,215.77444091526667,4981.957289567119,-0.021,-0.77,-2.359,-2.949
-2.0,5499965939.7640295,1.0055581331,233.8837238659356,4963.636848845585,-0.095,-0.853,-2.454,-3.049
-2.0,5499965939.7640295,1.005631566,257.63211570025754,4941.96880847838,-0.182,-0.951,-2.566,-3.167
-2.0,5499965939.7640295,1.0057009459,283.1391995799379,4920.395356814511,-0.268,-1.047,-2.676,-3.282
-2.0,5499965939.7640295,1.0057678223,311.88895840939387,4898.916080940641,-0.355,-1.145,-2.789,-3.401
-2.0,5499965939.7640295,1.0058275461,341.9794425137087,4877.530569745951,-0.437,-1.237,-2.896,-3.514
-2.0,5499965939.7640295,1.0058851242,374.97300224548337,4856.238413914264,-0.52,-1.332,-3.006,-3.63
-2.0,5499965939.7640295,1.0059378147,411.14972110452214,4835.039205916214,-0.597,-1.425,-3.115,-3.745
-2.0,5499965939.7640295,1.0059876442,451.85594437492216,4812.824218676023,-0.67,-1.519,-3.225,-3.86
-2.0,5499965939.7640295,1.0060343742,495.45019080479005,4791.814529082236,-0.742,-1.612,-3.336,-3.975
-2.0,5499965939.7640295,1.0060760975,542.0008904016238,4769.798141192216,-0.806,-1.699,-3.443,-4.087
-2.0,5499965939.7640295,1.0061173439,595.6621435290103,4746.789794829222,-0.871,-1.791,-3.555,-4.204
-2.0,5499965939.7640295,1.0061535835,650.1296903430909,4726.06836898339,-0.93,-1.876,-3.66,-4.314
-2.0,5499965939.7640295,1.0061883926,711.2135136533288,4703.2709644077795,-0.986,-1.961,-3.769,-4.427
-2.0,5499965939.7640295,1.0062202215,776.247116628692,4681.661397243642,-1.036,-2.043,-3.874,-4.537
-2.0,5499965939.7640295,1.0062502623,847.2274141405964,4661.22428001887,-1.087,-2.125,-3.98,-4.647
-2.0,5499965939.7640295,1.0062787533,924.698173938223,4636.603940805552,-1.128,-2.204,-4.086,-4.759
-2.0,5499965939.7640295,1.0063047409,1009.2528860766844,4616.363515404673,-1.172,-2.282,-4.19,-4.867
-2.0,5499965939.7640295,1.0063295364,1101.5393095414145,4591.980128368686,-1.202,-2.356,-4.297,-4.979
-2.0,5499965939.7640295,1.006357789,1221.7996601648722,4565.622502022357,-1.233,-2.443,-4.424,-5.111
-2.0,5499965939.7640295,1.0063793659,1330.4544179780914,4541.507126325547,-1.257,-2.511,-4.528,-5.221
-2.0,5499965939.7640295,1.0064041615,1475.7065332758946,4513.360253409558,-1.301,-2.594,-4.651,-5.353
-2.0,5499965939.7640295,1.0064272881,1633.0519478943347,4486.420743836898,-1.345,-2.676,-4.771,-5.48
-2.0,5499965939.7640295,1.0064394474,1713.9573075084252,4474.041415755961,-1.367,-2.716,-4.829,-5.542
-2.0,5499965939.7640295,1.0064394474,66.98846094165265,5847.900841444806,0.815,0.34,-0.791,-1.187
-2.0,5499965939.7640295,1.0065728426,69.66265141107687,5783.623317834709,0.797,0.306,-0.856,-1.265
-2.0,5499965939.7640295,1.0067030191,70.14552984199715,5772.979296482345,0.792,0.298,-0.868,-1.28
-2.0,5499965939.7640295,1.0068358183,70.6317554262962,5768.992840692839,0.786,0.292,-0.876,-1.288
-2.0,5499965939.7640295,1.0069686174,70.95777679633888,5770.321353329298,0.78,0.286,-0.882,-1.293
-2.0,5499965939.7640295,1.0071030855,71.28530301265195,5776.968506969277,0.773,0.281,-0.884,-1.294
-2.0,5499965939.7640295,1.007235527,71.44963260755135,5786.287388179521,0.766,0.276,-0.884,-1.292
-2.0,5499965939.7640295,1.0073683262,71.6143410212902,5800.961725227041,0.758,0.271,-0.882,-1.287
-2.0,5499965939.7640295,1.007504344,71.77942912713618,5818.35211048072,0.749,0.267,-0.878,-1.279
-2.0,5499965939.7640295,1.0076380968,71.94489780036994,5837.138525505089,0.74,0.262,-0.874,-1.271
-2.0,5499965939.7640295,1.0077683926,72.11074791828997,5854.637363205773,0.731,0.258,-0.869,-1.263
-2.0,5499965939.7640295,1.0078939199,72.11074791828997,5873.5409368008195,0.722,0.254,-0.865,-1.254
-2.0,5499965939.7640295,1.0080339909,72.27698036021702,5892.505546643294,0.712,0.249,-0.86,-1.246
-2.0,5499965939.7640295,1.00816679,72.44359600749902,5910.170366102437,0.704,0.245,-0.856,-1.238
-2.0,5499965939.7640295,1.0082970858,72.61059574351547,5926.523352402157,0.696,0.24,-0.853,-1.232
-2.0,5499965939.7640295,1.008328557,72.61059574351547,5929.2532458,0.694,0.239,-0.852,-1.23
-2.0,5499965939.7640295,1.0084331036,72.77798045368242,5940.185399703674,0.688,0.236,-0.851,-1.227
-2.0,5499965939.7640295,1.0085687637,72.94575102545687,5949.7675675898045,0.682,0.232,-0.85,-1.224
-2.0,5499965939.7640295,1.008708477,73.11390834834177,5957.993155981378,0.676,0.228,-0.851,-1.222
-2.0,5499965939.7640295,1.0088450909,73.2824533138904,5960.737545096847,0.671,0.224,-0.853,-1.224
-2.0,5499965939.7640295,1.0089776516,73.6207097494736,5957.993155981378,0.668,0.22,-0.858,-1.23
-2.0,5499965939.7640295,1.0091106892,73.96052750582378,5951.137709938006,0.666,0.216,-0.865,-1.239
-2.0,5499965939.7640295,1.009241581,74.30191378967014,5938.817778927777,0.665,0.212,-0.875,-1.251
-2.0,5499965939.7640295,1.0092651844,74.30191378967014,5936.083481913702,0.665,0.212,-0.877,-1.253
-2.0,5499965939.7640295,1.0093646049,74.64487584100665,5923.794715877255,0.665,0.209,-0.885,-1.264
-2.0,5499965939.7640295,1.009488821,75.16228940182053,5904.729404069866,0.665,0.205,-0.898,-1.281
-2.0,5499965939.7640295,1.009611249,75.68328950209744,5883.015599888826,0.666,0.201,-0.913,-1.3
-2.0,5499965939.7640295,1.0097374916,76.20790100254119,5858.683000573763,0.668,0.196,-0.929,-1.322
-2.0,5499965939.7640295,1.0098623037,76.73614893618189,5830.4221384328575,0.669,0.191,-0.947,-1.346
-2.0,5499965939.7640295,1.0099861622,77.62471166286916,5802.297599818735,0.67,0.185,-0.967,-1.371
-2.0,5499965939.7640295,1.0101082325,78.16278045883297,5779.6295119546585,0.67,0.179,-0.984,-1.394
-2.0,5499965939.7640295,1.0102313757,79.25013304804718,5746.45486597673,0.668,0.169,-1.01,-1.426
-2.0,5499965939.7640295,1.010357976,80.53784411990665,5710.840095300156,0.666,0.158,-1.039,-1.463
-2.0,5499965939.7640295,1.0104827881,81.2830516164099,5697.705527561363,0.662,0.15,-1.052,-1.479
-2.0,5499965939.7640295,1.0106083155,83.56030182312479,5636.376558259543,0.656,0.128,-1.103,-1.543
-2.0,5499965939.7640295,1.010731101,87.70008211436348,5557.762703204188,0.639,0.09,-1.18,-1.637
-2.0,5499965939.7640295,1.0108271837,93.9723310564638,5462.607542126947,0.604,0.028,-1.289,-1.766
-2.0,5499965939.7640295,1.010868907,101.62486928706959,5382.697825162882,0.557,-0.043,-1.402,-1.896
-2.0,5499965939.7640295,1.0108834505,110.15393095414144,5319.857509170661,0.502,-0.117,-1.509,-2.017
-2.0,5499965939.7640295,1.0108889341,118.57687481671597,5274.727156616845,0.445,-0.189,-1.605,-2.123
-2.0,5499965939.7640295,1.0108891726,119.3988104464273,5271.08476236396,0.44,-0.196,-1.613,-2.133
-2.0,5499965939.7640295,1.0108915567,128.52866599436155,5238.416190277907,0.375,-0.271,-1.707,-2.234
-2.0,5499965939.7640295,1.0108941793,141.90575216890926,5201.157438224064,0.29,-0.37,-1.826,-2.362
-2.0,5499965939.7640295,1.0108965635,154.170045294956,5172.494052829933,0.217,-0.453,-1.926,-2.469
-2.0,5499965939.7640295,1.0108995438,164.81623915255085,5151.100224595073,0.156,-0.522,-2.007,-2.555
-2.0,5499965939.7640295,1.010905385,165.19617982290148,5152.286445817567,0.153,-0.525,-2.009,-2.556
-2.0,5499965939.7640295,1.0109117031,158.12480392703827,5166.542425669501,0.191,-0.481,-1.957,-2.501
-2.0,5499965939.7640295,1.0109682083,158.8546748597779,5162.974736975886,0.189,-0.485,-1.963,-2.508
-2.0,5499965939.7640295,1.0110156536,174.18068733916147,5130.97619778,0.108,-0.577,-2.074,-2.626
-2.0,5499965939.7640295,1.0110493898,190.10782799232996,5102.699578594392,0.031,-0.667,-2.181,-2.74
-2.0,5499965939.7640295,1.0110882521,211.34890398366477,5071.074606405172,-0.061,-0.773,-2.306,-2.874
-2.0,5499965939.7640295,1.011126399,234.42288153199226,5040.806191026696,-0.153,-0.877,-2.429,-3.004
-2.0,5499965939.7640295,1.0111602545,258.22601906345955,5013.026495398051,-0.24,-0.976,-2.545,-3.127
-2.0,5499965939.7640295,1.0111904144,284.44611074479167,4986.547955557967,-0.324,-1.073,-2.659,-3.248
-2.0,5499965939.7640295,1.0112173557,312.6079367123956,4961.351535855698,-0.408,-1.169,-2.772,-3.368
-2.0,5499965939.7640295,1.0112417936,344.3499307633384,4935.145940408827,-0.491,-1.264,-2.885,-3.487
-2.0,5499965939.7640295,1.0112636089,378.44258471709315,4910.20924883086,-0.574,-1.36,-2.997,-3.607
-2.0,5499965939.7640295,1.0112835169,416.8693834703355,4884.273784229252,-0.656,-1.455,-3.11,-3.727
-2.0,5499965939.7640295,1.0113013983,458.1418867145335,4859.594143462719,-0.736,-1.549,-3.222,-3.845
-2.0,5499965939.7640295,1.0113182068,502.34258952238713,4833.926025160843,-0.809,-1.642,-3.334,-3.964
-2.0,5499965939.7640295,1.0113341808,552.0774392807573,4808.393484497285,-0.876,-1.734,-3.447,-4.082
-2.0,5499965939.7640295,1.0113494396,605.3408747539136,4782.995805358158,-0.942,-1.826,-3.56,-4.201
-2.0,5499965939.7640295,1.0113638639,666.8067692136219,4756.636893186042,-1.004,-1.918,-3.676,-4.321
-2.0,5499965939.7640295,1.011376977,729.4575102545687,4732.602186090037,-1.059,-2.004,-3.786,-4.437
-2.0,5499965939.7640295,1.01139009,801.678063387679,4706.520991281343,-1.112,-2.091,-3.899,-4.556
-2.0,5499965939.7640295,1.0114022493,881.0488730080137,4679.505908852532,-1.162,-2.179,-4.015,-4.678
-2.0,5499965939.7640295,1.0114126205,970.5099672454899,4652.645890999017,-1.207,-2.265,-4.133,-4.801
-2.0,5499965939.7640295,1.011420846,1064.1430182243164,4625.940047661603,-1.246,-2.346,-4.245,-4.919
-2.0,5499965939.7640295,1.011428237,1164.126029410491,4600.446663934778,-1.272,-2.42,-4.355,-5.034
-2.0,5499965939.7640295,1.0114358664,1282.3305826560218,4571.934501781391,-1.293,-2.497,-4.474,-5.159
-2.0,5499965939.7640295,1.0114421844,1438.798578255845,4538.371047630816,-1.32,-2.587,-4.615,-5.308
-2.0,5499965939.7640295,1.0114458799,1618.0800376430661,4502.9798128808925,-1.366,-2.68,-4.756,-5.46
-2.0,5499965939.7640295,1.0114463568,1698.2436524617442,4487.453899331323,-1.383,-2.718,-4.816,-5.524
-2.0,5499965939.7640295,1.011447072,1823.8957023196383,4464.779341129965,-1.407,-2.773,-4.901,-5.617
-2.0,5499965939.7640295,1.0114474297,1883.6490894898002,4454.510633598985,-1.419,-2.797,-4.94,-5.659
-2.0,5499965939.7640295,1.0114477873,1905.4607179632462,4450.409766495372,-1.423,-2.807,-4.954,-5.675
-2.0,5499965939.7640295,1.0114479065,1905.4607179632462,4425.883723626264,-1.38,-2.785,-4.961,-5.691
-2.0,5499965939.7640295,1.0114480257,1276.4388088113435,4549.880601500485,-1.232,-2.474,-4.481,-5.172
-2.0,5499965939.7640295,1.0114482641,950.6047936562819,4638.7396675603095,-1.16,-2.235,-4.116,-4.788
-2.0,5499965939.7640295,1.011448741,553.3501092157366,4807.286438439701,-0.878,-1.737,-3.45,-4.085
-2.0,5499965939.7640295,1.0114494562,559.7576014951104,4800.649512466846,-0.882,-1.747,-3.466,-4.103
-2.0,5499965939.7640295,1.0114502907,651.6283940608428,4748.9762757306435,-0.967,-1.889,-3.654,-4.302
-2.0,5499965939.7640295,1.0114513636,961.6122783836648,4622.74566491089,-1.135,-2.235,-4.135,-4.81
-2.0,5499965939.7640295,1.0114526749,1386.755828871888,4506.091435730975,-1.227,-2.523,-4.587,-5.291
-2.0,5499965939.7640295,1.0114541054,1782.378767448089,4425.883723626264,-1.309,-2.713,-4.888,-5.618
-2.0,5499965939.7640295,1.0114557743,2051.1621788255648,4378.244391318432,-1.343,-2.811,-5.056,-5.803
-2.0,5499965939.7640295,1.0114576817,2197.8598727848253,4351.1093709276765,-1.346,-2.854,-5.142,-5.899
-2.0,5499965939.7640295,1.0114597082,2296.148648112363,4331.1178393104055,-1.339,-2.874,-5.195,-5.959
-2.0,5499965939.7640295,1.0114598274,1761.976046411629,4407.5779324153655,-1.257,-2.682,-4.881,-5.618
-2.0,5499965939.7640295,1.0114603043,1174.897554939529,4525.848373686597,-1.1,-2.365,-4.397,-5.096
-2.0,5499965939.7640295,1.0114610195,683.9116472814293,4690.293284059374,-0.914,-1.91,-3.732,-4.393
-2.0,5499965939.7640295,1.0114619732,691.8309709189363,4682.739513736003,-0.911,-1.918,-3.748,-4.411
-2.0,5499965939.7640295,1.0114632845,803.5261221856169,4631.268924918746,-0.962,-2.046,-3.935,-4.609
-2.0,5499965939.7640295,1.0114648342,1172.1953655481304,4508.167045414601,-1.056,-2.344,-4.402,-5.106
-2.0,5499965939.7640295,1.0114666224,1671.090614310707,4394.404188918088,-1.167,-2.61,-4.828,-5.569
-2.0,5499965939.7640295,1.0114687681,2123.2444620002193,4317.1784447092305,-1.214,-2.77,-5.115,-5.884
-2.0,5499965939.7640295,1.0114711523,2421.0290467361774,4273.660314969303,-1.217,-2.844,-5.273,-6.058
-2.0,5499965939.7640295,1.0114738941,2576.3211570025755,4251.087068046156,-1.207,-2.874,-5.351,-6.144
-2.0,5499965939.7640295,1.0114768744,2673.0064086633115,4239.357093413646,-1.197,-2.888,-5.395,-6.192
