FeH,Age,Mini,L,Te,Bmag,Vmag,Jmag,Kmag
-0.6,12999899653.754526,0.0900000036,0.0004965923214503363,2597.1677414020096,19.624,17.598,10.885,10.238
-0.6,12999899653.754526,0.0928963721,0.0005754399373371566,2650.940621093076,19.24,17.239,10.746,10.079
-0.6,12999899653.754526,0.0999553651,0.0008053784411990669,2779.073288809103,18.154,16.244,10.439,9.719
-0.6,12999899653.754526,0.1121120155,0.0011967405313072432,2915.4124227107563,17.037,15.204,10.072,9.31
-0.6,12999899653.754526,0.119866088,0.0015066070661867417,2997.7816715823815,16.417,14.625,9.858,9.079
-0.6,12999899653.754526,0.139776811,0.002312064790175594,3134.007273083861,15.413,13.685,9.452,8.654
-0.6,12999899653.754526,0.159687534,0.0032210687912834347,3229.9812405956245,14.73,13.05,9.13,8.324
-0.6,12999899653.754526,0.1995089799,0.005407543229455809,3362.791956867804,13.789,12.181,8.617,7.807
-0.6,12999899653.754526,0.2492858022,0.008790225168308843,3465.7720899354867,13.015,11.468,8.129,7.316
-0.6,12999899653.754526,0.2990626097,0.012735030810166616,3539.9734108343464,12.459,10.952,7.751,6.936
-0.6,12999899653.754526,0.3488394022,0.017498466886246573,3605.7864302164235,11.991,10.516,7.43,6.612
-0.6,12999899653.754526,0.3986162245,0.025003453616964308,3705.1005630192394,11.434,10.001,7.079,6.257
-0.6,12999899653.754526,0.4483930469,0.03715352290971726,3837.0724549227884,10.808,9.433,6.693,5.87
-0.6,12999899653.754526,0.4981698394,0.05741164622073274,4033.6666088992683,10.072,8.788,6.277,5.463
-0.6,12999899653.754526,0.5479466915,0.09506047936562814,4334.110703101766,9.149,8.02,5.807,5.029
-0.6,12999899653.754526,0.5788914561,0.12823305826560213,4551.9763814842045,8.538,7.533,5.541,4.823
-0.6,12999899653.754526,0.5977234244,0.15310874616820302,4683.817878502438,8.202,7.258,5.388,4.707
-0.6,12999899653.754526,0.647500217,0.24603676041476275,5060.5765651324455,7.363,6.556,4.989,4.428
-0.6,12999899653.754526,0.6577309966,0.2716439268839083,5134.521775029668,7.207,6.423,4.907,4.366
-0.6,12999899653.754526,0.6679388881,0.2992264636608189,5209.547473285554,7.055,6.294,4.826,4.305
-0.6,12999899653.754526,0.67744416,0.328095293113119,5278.37206781577,6.916,6.175,4.749,4.245
-0.6,12999899653.754526,0.6865489483,0.358096437102636,5344.412855743935,6.785,6.062,4.675,4.187
-0.6,12999899653.754526,0.6956967115,0.39174187710778313,5408.788505661013,6.655,5.951,4.6,4.127
-0.6,12999899653.754526,0.6972771287,0.3971915494694403,5420.008904016238,6.632,5.931,4.587,4.117
-0.6,12999899653.754526,0.7089934349,0.44668359215096315,5503.006173234572,6.465,5.787,4.487,4.036
-0.6,12999899653.754526,0.7198621631,0.49888448746001224,5578.27602141201,6.312,5.654,4.392,3.957
-0.6,12999899653.754526,0.7302073836,0.5559042572704036,5649.369748123023,6.165,5.525,4.299,3.879
-0.6,12999899653.754526,0.7402402759,0.6194410750767815,5716.102396416138,6.021,5.4,4.206,3.799
-0.6,12999899653.754526,0.7471474409,0.6683439175686147,5761.0281855985595,5.921,5.311,4.139,3.741
-0.6,12999899653.754526,0.7492771149,0.6839116472814293,5772.979296482345,5.891,5.285,4.118,3.722
-0.6,12999899653.754526,0.758102715,0.7550922276654339,5821.032177708716,5.764,5.171,4.027,3.639
-0.6,12999899653.754526,0.7660682201,0.8298507675144224,5862.731433534501,5.646,5.065,3.94,3.56
-0.6,12999899653.754526,0.7739208937,0.9141132414702502,5900.651969956664,5.527,4.957,3.85,3.477
-0.6,12999899653.754526,0.7811560035,1.0023052380778996,5934.716805530554,5.414,4.854,3.762,3.395
-0.6,12999899653.754526,0.7901885509,1.1271974561755105,5971.72774867241,5.271,4.722,3.646,3.286
-0.6,12999899653.754526,0.7970178127,1.2359474334445104,5993.768983266384,5.162,4.62,3.554,3.199
-0.6,12999899653.754526,0.8020582199,1.3273944577297394,6006.202909194723,5.08,4.542,3.482,3.129
-0.6,12999899653.754526,0.8075356483,1.4387985782558455,6017.27694025024,4.986,4.452,3.397,3.046
-0.6,12999899653.754526,0.8114897609,1.5346169827992944,6018.662628995737,4.917,4.383,3.33,2.979
-0.6,12999899653.754526,0.8179668784,1.7100153150902877,6010.353280502418,4.799,4.265,3.209,2.856
-0.6,12999899653.754526,0.8245744705,1.931968317016924,5982.738215608625,4.677,4.136,3.068,2.711
-0.6,12999899653.754526,0.8257234693,1.9724227361148536,5975.85429715573,4.655,4.113,3.043,2.684
-0.6,12999899653.754526,0.8302590251,2.1677041048196948,5918.341211131826,4.572,4.016,2.921,2.552
-0.6,12999899653.754526,0.8345345855,2.3768402866248763,5812.9956772538835,4.509,3.927,2.785,2.397
-0.6,12999899653.754526,0.8373769522,2.529297996446145,5687.219626948189,4.491,3.876,2.676,2.263
-0.6,12999899653.754526,0.8392161131,2.63633138582538,5560.322736938655,4.496,3.849,2.587,2.147
-0.6,12999899653.754526,0.840567708,2.760577856220346,5450.043893417617,4.495,3.819,2.501,2.036
-0.6,12999899653.754526,0.8418213129,2.9648313895243423,5349.337509431612,4.468,3.763,2.391,1.902
-0.6,12999899653.754526,0.8428167105,3.2284941217126355,5282.019497699969,4.41,3.688,2.278,1.772
-0.6,12999899653.754526,0.8433161378,3.3884415613920256,5252.910484500485,4.372,3.641,2.214,1.701
-0.6,12999899653.754526,0.8434867859,3.4673685045253166,5245.6583312381235,4.353,3.62,2.189,1.674
-0.6,12999899653.754526,0.8442686796,3.8282474331682264,5211.947111050806,4.261,3.519,2.069,1.545
-0.6,12999899653.754526,0.8449261189,4.207266283844441,5189.195108067298,4.172,3.423,1.959,1.429
-0.6,12999899653.754526,0.845569849,4.65586093522959,5168.922254317574,4.072,3.318,1.843,1.308
-0.6,12999899653.754526,0.8461086154,5.105049999754062,5154.659707832393,3.981,3.223,1.739,1.199
-0.6,12999899653.754526,0.8466981649,5.688529308438414,5138.069802323445,3.873,3.11,1.616,1.072
-0.6,12999899653.754526,0.8468881845,5.902010801718443,5132.15778474056,3.837,3.072,1.575,1.029
-0.6,12999899653.754526,0.8473026752,6.4268771731701975,5121.53329024499,3.753,2.984,1.48,0.931
-0.6,12999899653.754526,0.8477300406,7.046930689671469,5108.5776616335625,3.659,2.886,1.374,0.822
-0.6,12999899653.754526,0.8481331468,7.744617978025188,5095.65480608114,3.565,2.787,1.268,0.712
-0.6,12999899653.754526,0.8485175967,8.531001140175896,5080.424479948444,3.468,2.686,1.158,0.598
-0.6,12999899653.754526,0.8488560319,9.35405674147552,5067.572841772825,3.378,2.592,1.055,0.492
-0.6,12999899653.754526,0.8491778374,10.256519262514074,5052.4264494015615,3.286,2.495,0.949,0.382
-0.6,12999899653.754526,0.8495411277,11.508003889444357,5033.846868348144,3.172,2.375,0.819,0.246
-0.6,12999899653.754526,0.8498126268,12.647363474711517,5017.645790367086,3.079,2.277,0.711,0.134
-0.6,12999899653.754526,0.8501265645,14.25607593602188,4995.741981759636,2.966,2.156,0.575,-0.009
-0.6,12999899653.754526,0.8504032493,15.995580286146687,4973.933791067749,2.858,2.039,0.443,-0.148
-0.6,12999899653.754526,0.8506472707,17.864875748520507,4952.220800885213,2.754,1.927,0.315,-0.283
-0.6,12999899653.754526,0.8508718014,19.998618696327437,4929.467413122061,2.65,1.814,0.186,-0.419
-0.6,12999899653.754526,0.8510621786,22.181964198002195,4906.818567679515,2.554,1.71,0.067,-0.545
-0.6,12999899653.754526,0.8512391448,24.603676041476273,4884.273784229252,2.458,1.606,-0.054,-0.673
-0.6,12999899653.754526,0.8514004946,27.289777828080403,4861.832584649837,2.365,1.505,-0.173,-0.801
-0.6,12999899653.754526,0.8515441418,30.13006024186122,4838.380286511588,2.276,1.407,-0.287,-0.923
-0.6,12999899653.754526,0.8516753316,33.18944575526103,4815.041116556669,2.189,1.311,-0.4,-1.044
-0.6,12999899653.754526,0.8517916799,36.391503612720705,4792.918012190856,2.108,1.221,-0.506,-1.158
-0.6,12999899653.754526,0.8518983126,39.71915494694403,4770.896554256487,2.032,1.135,-0.61,-1.269
-0.6,12999899653.754526,0.852000773,43.35108783875289,4748.9762757306435,1.959,1.05,-0.712,-1.377
-0.6,12999899653.754526,0.8521043062,46.55860935229589,4731.512589614803,1.9,0.982,-0.793,-1.464
-0.6,12999899653.754526,0.8522197604,49.54501908047903,4717.370642684883,1.845,0.92,-0.867,-1.542
-0.6,12999899653.754526,0.8522714972,48.19477976251274,4727.156711736158,1.867,0.947,-0.832,-1.504
-0.6,12999899653.754526,0.8523594737,45.60369159512962,4747.882909415973,1.908,0.998,-0.766,-1.431
-0.6,12999899653.754526,0.8523735404,46.13175745603793,4744.604320607653,1.898,0.986,-0.779,-1.445
-0.6,12999899653.754526,0.8524594903,51.05049999754062,4717.370642684883,1.815,0.889,-0.898,-1.573
-0.6,12999899653.754526,0.8525458574,56.623928903825316,4689.213428447355,1.73,0.79,-1.019,-1.703
-0.6,12999899653.754526,0.8526266217,62.66138646723353,4661.22428001887,1.647,0.693,-1.139,-1.832
-0.6,12999899653.754526,0.8526999354,69.3425806016569,4633.402194242091,1.568,0.598,-1.257,-1.958
-0.6,12999899653.754526,0.8527686,76.73614893618189,4605.746173947351,1.487,0.503,-1.376,-2.086
-0.6,12999899653.754526,0.8528292775,84.72274141405963,4577.2011670508655,1.412,0.413,-1.489,-2.209
-0.6,12999899653.754526,0.8528867364,93.5405674147552,4548.8330733814555,1.341,0.321,-1.605,-2.334
-0.6,12999899653.754526,0.8529394865,103.03861204416158,4520.640796485013,1.277,0.231,-1.719,-2.456
-0.6,12999899653.754526,0.8529886603,113.7627285823431,4492.623246702932,1.212,0.14,-1.834,-2.578
-0.6,12999899653.754526,0.8530324101,125.02590302177201,4463.75140604447,1.152,0.053,-1.946,-2.698
-0.6,12999899653.754526,0.8530734777,137.4041975012515,4435.065110253052,1.093,-0.034,-2.058,-2.818
-0.6,12999899653.754526,0.8531109691,151.35612484362088,4406.563166924702,1.035,-0.119,-2.168,-2.937
-0.6,12999899653.754526,0.8531458378,166.34126503701697,4378.244391318432,0.979,-0.204,-2.279,-3.057
-0.6,12999899653.754526,0.853177309,182.38957023196383,4350.10760630697,0.925,-0.285,-2.386,-3.173
-0.6,12999899653.754526,0.8532070518,199.9861869632745,4321.1565447029925,0.873,-0.365,-2.494,-3.291
-0.6,12999899653.754526,0.8532347083,219.78598727848254,4293.386634704304,0.82,-0.446,-2.602,-3.408
-0.6,12999899653.754526,0.8532594442,240.43628000069322,4264.813065450337,0.77,-0.519,-2.706,-3.525
-0.6,12999899653.754526,0.8532832265,263.63313858253787,4236.429660495409,0.717,-0.593,-2.814,-3.645
-0.6,12999899653.754526,0.8533092737,294.44216337987604,4201.457743989054,0.659,-0.678,-2.943,-3.789
-0.6,12999899653.754526,0.8533284068,321.3660538640318,4173.495984653169,0.613,-0.746,-3.045,-3.904
-0.6,12999899653.754526,0.8533471823,352.3708710424873,4145.720317867256,0.565,-0.817,-3.151,-4.023
-0.6,12999899653.754526,0.8533673882,392.6449353995997,4110.55061281175,0.515,-0.894,-3.275,-4.164
-0.6,12999899653.754526,0.8533828259,428.54852039743963,4083.1938633269233,0.472,-0.96,-3.377,-4.279
-0.6,12999899653.754526,0.8533975482,468.81338214526505,4056.0191798991405,0.43,-1.024,-3.48,-4.395
-0.6,12999899653.754526,0.8534138799,521.1947111050805,4021.6104433421337,0.385,-1.097,-3.602,-4.535
-0.6,12999899653.754526,0.8534290195,580.7644175213118,3987.4936090417286,0.345,-1.168,-3.725,-4.675
-0.6,12999899653.754526,0.8534407616,633.869711256927,3960.955834906334,0.311,-1.227,-3.827,-4.79
-0.6,12999899653.754526,0.8534534574,701.4552984199714,3926.449353995997,0.282,-1.287,-3.945,-4.925
-0.6,12999899653.754526,0.8534654975,778.0365510398041,3893.1398070156406,0.251,-1.35,-4.064,-5.063
-0.6,12999899653.754526,0.853476584,862.9785477669702,3860.1128374531977,0.223,-1.406,-4.183,-5.199
-0.6,12999899653.754526,0.8534869552,957.1940712948442,3826.484865951097,0.197,-1.462,-4.302,-5.335
-0.6,12999899653.754526,0.8534961939,1054.3868963912591,3793.1498497368207,0.178,-1.509,-4.415,-5.466
-0.6,12999899653.754526,0.8535050154,1166.8096170609629,3760.10523668496,0.163,-1.551,-4.53,-5.598
-0.6,12999899653.754526,0.8535131216,1285.2866599436154,3727.348496903337,0.153,-1.587,-4.643,-5.729
-0.6,12999899653.754526,0.853520751,1415.793779957081,3694.877122539323,0.153,-1.612,-4.757,-5.859
-0.6,12999899653.754526,0.8535276651,1552.3870099580815,3661.845359452976,0.16,-1.628,-4.868,-5.986
-0.6,12999899653.754526,0.8535340428,1702.15850839495,3628.273359403348,0.172,-1.638,-4.975,-6.11
-0.6,12999899653.754526,0.8535400033,1857.8044550916989,3595.837026057048,0.194,-1.628,-5.082,-6.232
-0.6,12999899653.754526,0.8535456657,2032.3570109362208,3563.6906696823603,0.215,-1.62,-5.189,-6.355
-0.6,12999899653.754526,0.8535510302,2218.1964198002192,3532.645025855673,0.242,-1.601,-5.293,-6.473
-0.6,12999899653.754526,0.8535550237,2355.049283896009,3510.750771848301,0.268,-1.577,-5.366,-6.556
-0.6,12999899653.754526,0.8535550237,50.46612975635284,5128.613839913648,1.513,0.739,-0.76,-1.306
-0.6,12999899653.754526,0.8536111712,51.760683195056764,5119.175279997109,1.49,0.712,-0.793,-1.342
-0.6,12999899653.754526,0.8536664844,52.239618899911974,5116.818355403078,1.483,0.704,-0.803,-1.352
-0.6,12999899653.754526,0.8537225723,52.36004365857503,5117.996682024606,1.479,0.7,-0.805,-1.355
-0.6,12999899653.754526,0.8537801504,52.36004365857503,5122.712702645385,1.476,0.699,-0.804,-1.352
-0.6,12999899653.754526,0.8538379073,52.239618899911974,5129.794882858578,1.474,0.7,-0.798,-1.345
-0.6,12999899653.754526,0.8538960814,51.999599653351595,5138.069802323445,1.474,0.703,-0.791,-1.335
-0.6,12999899653.754526,0.8539540172,51.760683195056764,5146.35807013727,1.474,0.706,-0.783,-1.325
-0.6,12999899653.754526,0.85401088,51.52286445817565,5154.659707832393,1.474,0.709,-0.775,-1.315
-0.6,12999899653.754526,0.8540670276,51.28613839913648,5161.7860549667275,1.473,0.711,-0.767,-1.305
-0.6,12999899653.754526,0.8541266322,51.05049999754062,5168.922254317574,1.473,0.713,-0.761,-1.297
-0.6,12999899653.754526,0.8541869521,50.93308710571955,5176.068319505676,1.472,0.715,-0.755,-1.289
-0.6,12999899653.754526,0.8542457819,50.69907082747044,5183.224264170613,1.471,0.717,-0.749,-1.282
-0.6,12999899653.754526,0.8543033004,50.5824662003114,5188.000389289609,1.47,0.718,-0.745,-1.276
-0.6,12999899653.754526,0.8543595076,50.5824662003114,5192.78091540883,1.469,0.719,-0.741,-1.271
-0.6,12999899653.754526,0.854365766,50.46612975635284,5192.78091540883,1.469,0.719,-0.741,-1.271
-0.6,12999899653.754526,0.8543775678,50.46612975635284,5193.976735070076,1.469,0.719,-0.741,-1.27
-0.6,12999899653.754526,0.8544359207,50.46612975635284,5197.5658465836195,1.468,0.719,-0.738,-1.267
-0.6,12999899653.754526,0.8544924259,50.46612975635284,5199.959965335162,1.466,0.719,-0.737,-1.265
-0.6,12999899653.754526,0.8545512557,50.46612975635284,5202.355186873041,1.465,0.718,-0.737,-1.264
-0.6,12999899653.754526,0.8546108007,50.46612975635284,5203.553211345586,1.463,0.716,-0.738,-1.265
-0.6,12999899653.754526,0.8546673656,50.5824662003114,5202.355186873041,1.461,0.714,-0.74,-1.267
-0.6,12999899653.754526,0.8547284007,50.81594425605605,5201.157438224064,1.459,0.711,-0.744,-1.271
-0.6,12999899653.754526,0.8547880054,50.93308710571955,5198.762768142835,1.456,0.707,-0.749,-1.278
-0.6,12999899653.754526,0.8547999859,51.05049999754062,5197.5658465836195,1.455,0.706,-0.751,-1.279
-0.6,12999899653.754526,0.8548543453,51.28613839913648,5193.976735070076,1.452,0.701,-0.758,-1.288
-0.6,12999899653.754526,0.8549107313,51.64163692720711,5189.195108067298,1.448,0.695,-0.767,-1.298
-0.6,12999899653.754526,0.8549696803,52.11947111050805,5182.030920072273,1.443,0.688,-0.778,-1.311
-0.6,12999899653.754526,0.8550261259,52.60172663907063,5174.876622934801,1.437,0.68,-0.791,-1.325
-0.6,12999899653.754526,0.8550804853,53.21082592667942,5167.732202999587,1.431,0.67,-0.805,-1.341
-0.6,12999899653.754526,0.8551348448,53.826978251628844,5158.221650723056,1.424,0.66,-0.821,-1.36
-0.6,12999899653.754526,0.8551900983,54.57578610912711,5148.7286014054735,1.416,0.648,-0.839,-1.38
-0.6,12999899653.754526,0.8552445173,54.82769649208539,5145.173213816577,1.412,0.643,-0.846,-1.388
-0.6,12999899653.754526,0.8553038836,55.08076964054035,5143.988630287732,1.407,0.637,-0.853,-1.395
-0.6,12999899653.754526,0.8553595543,56.49369748123026,5123.892386646796,1.394,0.616,-0.886,-1.434
-0.6,12999899653.754526,0.8554159999,59.1561634175474,5093.308710571952,1.365,0.576,-0.945,-1.501
-0.6,12999899653.754526,0.8554708958,63.3869711256927,5050.100256703167,1.321,0.514,-1.036,-1.603
-0.6,12999899653.754526,0.8555036187,68.86522963442762,5000.345349769783,1.267,0.44,-1.142,-1.723
-0.6,12999899653.754526,0.8555193543,74.81695005111546,4952.220800885213,1.216,0.368,-1.246,-1.841
-0.6,12999899653.754526,0.8555277586,81.846478813479,4901.172634719431,1.159,0.289,-1.361,-1.97
-0.6,12999899653.754526,0.8555317521,89.12509381337455,4854.002548344871,1.105,0.215,-1.469,-2.094
-0.6,12999899653.754526,0.8555338979,97.2747223776965,4808.393484497285,1.051,0.141,-1.576,-2.216
-0.6,12999899653.754526,0.85553509,104.9542428652322,4769.798141192216,1.007,0.073,-1.672,-2.323
-0.6,12999899653.754526,0.8555357456,110.15393095414144,4745.696931912426,0.981,0.03,-1.733,-2.389
-0.6,12999899653.754526,0.8555358648,111.68632477805612,4739.145036236972,0.974,0.019,-1.749,-2.406
-0.6,12999899653.754526,0.8555370569,124.73835142429432,4688.13382145265,0.913,-0.08,-1.885,-2.556
-0.6,12999899653.754526,0.8555381298,135.8313446587154,4649.433066875436,0.868,-0.155,-1.991,-2.671
-0.6,12999899653.754526,0.8555406928,140.28137045619576,4635.536446198508,0.851,-0.183,-2.029,-2.713
-0.6,12999899653.754526,0.8555440903,131.5224832192239,4663.37134746993,0.884,-0.128,-1.952,-2.629
-0.6,12999899653.754526,0.8555797338,134.2764961137864,4654.789007046166,0.874,-0.146,-1.977,-2.656
-0.6,12999899653.754526,0.8556035757,148.2518085145953,4608.928809808955,0.825,-0.231,-2.098,-2.789
-0.6,12999899653.754526,0.8556183577,161.064563517827,4571.934501781391,0.784,-0.301,-2.198,-2.9
-0.6,12999899653.754526,0.8556321263,174.18068733916147,4536.281531692419,0.747,-0.367,-2.293,-3.006
-0.6,12999899653.754526,0.8556476831,190.10782799232996,4498.834324565384,0.704,-0.441,-2.399,-3.123
-0.6,12999899653.754526,0.8556621075,207.49135174549107,4462.723707622523,0.663,-0.514,-2.503,-3.239
-0.6,12999899653.754526,0.8556752205,225.94357702209783,4425.883723626264,0.624,-0.584,-2.607,-3.354
-0.6,12999899653.754526,0.8556869626,246.03676041476274,4391.369690244064,0.583,-0.65,-2.709,-3.471
-0.6,12999899653.754526,0.8556976914,268.5344445658506,4356.121655464697,0.542,-0.716,-2.812,-3.588
-0.6,12999899653.754526,0.8557073474,292.41523778433367,4321.1565447029925,0.503,-0.779,-2.914,-3.704
-0.6,12999899653.754526,0.8557159901,318.41975217261256,4287.459197337663,0.466,-0.841,-3.014,-3.818
-0.6,12999899653.754526,0.8557201028,332.65955329400435,4268.742912929737,0.448,-0.871,-3.065,-3.877
-0.6,12999899653.754526,0.8557276726,360.57864302164234,4227.659485162412,0.428,-0.921,-3.164,-3.994
-0.6,12999899653.754526,0.8557348847,392.6449353995997,4175.418393198107,0.425,-0.96,-3.265,-4.12
-0.6,12999899653.754526,0.8557418585,426.57951880159254,4118.129505138526,0.433,-0.991,-3.368,-4.251
-0.6,12999899653.754526,0.8557485938,464.5152752227492,4080.3742668966966,0.412,-1.041,-3.469,-4.37
-0.6,12999899653.754526,0.8557549119,504.6612975635282,4050.419451364931,0.388,-1.093,-3.565,-4.48
-0.6,12999899653.754526,0.8557609916,549.5408738576248,4020.6845399191266,0.365,-1.145,-3.663,-4.594
-0.6,12999899653.754526,0.8557668328,598.4115950603199,3991.167918200923,0.34,-1.199,-3.764,-4.709
-0.6,12999899653.754526,0.8557716608,650.1296903430909,3964.605690612772,0.316,-1.25,-3.86,-4.818
-0.6,12999899653.754526,0.8557750583,698.2324040771712,3943.6648538097975,0.292,-1.297,-3.942,-4.91
-0.6,12999899653.754526,0.8557778597,749.8942093324558,3930.0674134185306,0.258,-1.35,-4.022,-4.996
-0.6,12999899653.754526,0.8557806015,812.8305161640995,3926.449353995997,0.193,-1.429,-4.112,-5.087
-0.6,12999899653.754526,0.8557828665,874.9837752274364,3955.4873505556216,0.072,-1.546,-4.19,-5.148
-0.6,12999899653.754526,0.855784595,926.8298233793495,4055.085354483839,-0.167,-1.734,-4.241,-5.144
-0.6,12999899653.754526,0.8557853103,950.6047936562819,4215.994153984273,-0.46,-1.935,-4.243,-5.065
