FeH,Age,Mini,L,Te,Bmag,Vmag,Jmag,Kmag
-1.2,5999982725.336439,0.0900000036,0.000610942024905572,2862.859270872121,18.081,16.065,10.763,10.257
-1.2,5999982725.336439,0.0992698073,0.0010568175092136585,3095.993213309174,16.5,14.565,10.28,9.639
-1.2,5999982725.336439,0.1000000015,0.0011015393095414145,3114.583654012132,16.39,14.465,10.244,9.595
-1.2,5999982725.336439,0.1199999973,0.002118361135248502,3358.1492958644226,14.9,13.143,9.641,8.907
-1.2,5999982725.336439,0.1400000006,0.003206269324505464,3486.582933528731,14.118,12.468,9.239,8.481
-1.2,5999982725.336439,0.1599999964,0.004395416154378243,3570.2612803901543,13.582,12.002,8.929,8.158
-1.2,5999982725.336439,0.2000000179,0.007177942912713615,3688.926481189961,12.804,11.317,8.439,7.656
-1.2,5999982725.336439,0.25,0.011428783347897719,3787.040939050054,12.117,10.703,7.966,7.177
-1.2,5999982725.336439,0.3000000417,0.016557699634695285,3861.8908944898994,11.589,10.228,7.589,6.798
-1.2,5999982725.336439,0.349999994,0.022542392121524292,3924.641573534599,11.156,9.837,7.274,6.483
-1.2,5999982725.336439,0.400000006,0.03147748314101316,4022.5365599868255,10.648,9.391,6.938,6.155
-1.2,5999982725.336439,0.414866209,0.03556313185689853,4069.115338091966,10.45,9.223,6.819,6.04
-1.2,5999982725.336439,0.4500000179,0.04655860935229589,4175.418393198107,10.016,8.851,6.554,5.787
-1.2,5999982725.336439,0.5,0.07261059574351547,4435.065110253052,9.22,8.194,6.14,5.416
-1.2,5999982725.336439,0.5500000715,0.11561122421920987,4748.9762757306435,8.391,7.509,5.728,5.083
-1.2,5999982725.336439,0.5893564224,0.16180800376430657,4975.0792135144075,7.846,7.042,5.434,4.856
-1.2,5999982725.336439,0.6000000238,0.17660378206861643,5036.16557436085,7.71,6.926,5.359,4.797
-1.2,5999982725.336439,0.6291879416,0.22646443075930595,5232.388711124278,7.326,6.6,5.155,4.642
-1.2,5999982725.336439,0.6499999762,0.2691534803926916,5374.028929503504,7.066,6.381,5.014,4.534
-1.2,5999982725.336439,0.6657217145,0.3061963433690677,5476.461009618943,6.88,6.224,4.907,4.448
-1.2,5999982725.336439,0.6927273273,0.38194427084004656,5650.670713353118,6.57,5.961,4.729,4.304
-1.2,5999982725.336439,0.6999999881,0.4045758916974427,5696.3937334118355,6.489,5.892,4.682,4.266
-1.2,5999982725.336439,0.702116251,0.41114972110452225,5709.52527715281,6.465,5.872,4.669,4.255
-1.2,5999982725.336439,0.7214049101,0.48083934844972853,5829.079788672337,6.254,5.694,4.544,4.15
-1.2,5999982725.336439,0.7389183044,0.5533501092157367,5936.083481913702,6.066,5.535,4.43,4.055
-1.2,5999982725.336439,0.75,0.6039486293763798,6000.673538641165,5.949,5.435,4.358,3.994
-1.2,5999982725.336439,0.7521982789,0.6151768727098681,6011.737374832779,5.926,5.416,4.343,3.981
-1.2,5999982725.336439,0.7700892687,0.7095777679633888,6099.580958722386,5.745,5.256,4.218,3.869
-1.2,5999982725.336439,0.7870130539,0.8147042840208396,6180.164001384158,5.573,5.104,4.098,3.762
-1.2,5999982725.336439,0.8000000119,0.9057326008982001,6241.658450909745,5.441,4.986,4.004,3.678
-1.2,5999982725.336439,0.8076457977,0.9638290236239705,6277.691938382178,5.364,4.917,3.95,3.629
-1.2,5999982725.336439,0.8257525563,1.1194378834671515,6363.55790040944,5.178,4.75,3.816,3.51
-1.2,5999982725.336439,0.8422478437,1.288249551693134,6440.209571356517,5.006,4.595,3.691,3.396
-1.2,5999982725.336439,0.8500000238,1.3772094688939465,6475.898004649498,4.924,4.52,3.63,3.342
-1.2,5999982725.336439,0.8617882729,1.5275660582380726,6532.809588303903,4.797,4.404,3.537,3.257
-1.2,5999982725.336439,0.8748788238,1.721868574986007,6596.293937452819,4.651,4.271,3.428,3.158
-1.2,5999982725.336439,0.8869939446,1.931968317016924,6655.795963672291,4.511,4.141,3.322,3.061
-1.2,5999982725.336439,0.8976286054,2.147830474130534,6706.562867022775,4.384,4.024,3.224,2.971
-1.2,5999982725.336439,0.8999999762,2.197859872784825,6717.381285473806,4.355,3.996,3.201,2.95
-1.2,5999982725.336439,0.9078014493,2.38231946935869,6757.716993552864,4.259,3.908,3.129,2.884
-1.2,5999982725.336439,0.9178201556,2.63633138582538,6806.126238014957,4.135,3.792,3.032,2.794
-1.2,5999982725.336439,0.9270502925,2.9107171180666054,6845.4184335848,4.019,3.684,2.939,2.707
-1.2,5999982725.336439,0.9387172461,3.318944575526104,6886.522963442762,3.864,3.536,2.809,2.583
-1.2,5999982725.336439,0.9477061033,3.7068072178257596,6910.349294049405,3.736,3.413,2.695,2.474
-1.2,5999982725.336439,0.9488683939,3.758374042884441,6911.940643980488,3.719,3.396,2.68,2.459
-1.2,5999982725.336439,0.9499999881,3.8194427084004654,6911.940643980488,3.701,3.379,2.663,2.442
-1.2,5999982725.336439,0.9563803673,4.168693834703354,6916.716892895647,3.602,3.282,2.569,2.349
-1.2,5999982725.336439,0.9642397761,4.698941086052154,6892.868607318448,3.474,3.151,2.432,2.209
-1.2,5999982725.336439,0.9701898098,5.188000389289611,6840.691418893661,3.372,3.044,2.306,2.077
-1.2,5999982725.336439,0.972684741,5.445026528424211,6787.346173800872,3.329,2.993,2.236,2.0
-1.2,5999982725.336439,0.9766929746,5.902010801718443,6675.749009643063,3.262,2.909,2.112,1.86
-1.2,5999982725.336439,0.9797031283,6.309573444801933,6552.39394015981,3.216,2.843,1.999,1.728
-1.2,5999982725.336439,0.9814767241,6.576578373554204,6452.083809019726,3.193,2.803,1.921,1.634
-1.2,5999982725.336439,0.982927084,6.807693586937414,6348.922123377013,3.181,2.771,1.848,1.545
-1.2,5999982725.336439,0.9841268659,7.014552984199712,6241.658450909745,3.18,2.747,1.781,1.46
-1.2,5999982725.336439,0.9851401448,7.16143410212902,6134.794223881292,3.187,2.732,1.722,1.383
-1.2,5999982725.336439,0.9862884283,7.2777980453682405,5999.291991559951,3.213,2.726,1.659,1.295
-1.2,5999982725.336439,0.9873119593,7.3113908348341745,5873.5409368008195,3.25,2.732,1.609,1.222
-1.2,5999982725.336439,0.988284111,7.362070974947361,5758.375744868389,3.284,2.736,1.563,1.154
-1.2,5999982725.336439,0.9894499779,7.62079010025412,5636.376558259543,3.295,2.715,1.486,1.054
-1.2,5999982725.336439,0.9905671477,8.1846478813479,5547.534349517692,3.253,2.648,1.377,0.927
-1.2,5999982725.336439,0.9911916256,8.669618757582166,5509.345391672404,3.206,2.592,1.302,0.843
-1.2,5999982725.336439,0.9916043282,9.099132726322514,5489.085556070448,3.162,2.543,1.243,0.78
-1.2,5999982725.336439,0.9924297333,10.06931668851804,5453.809950965599,3.069,2.44,1.123,0.651
-1.2,5999982725.336439,0.9931169748,11.04078619902073,5426.252513290146,2.98,2.344,1.013,0.535
-1.2,5999982725.336439,0.9938504696,12.274392311584071,5401.3211476463475,2.875,2.232,0.888,0.404
-1.2,5999982725.336439,0.9944649935,13.520725631942772,5381.458555867279,2.779,2.131,0.776,0.287
-1.2,5999982725.336439,0.9951042533,15.066070661867418,5359.200434577747,2.673,2.018,0.652,0.158
-1.2,5999982725.336439,0.9956884384,16.749428760264372,5340.722340937607,2.567,1.907,0.531,0.032
-1.2,5999982725.336439,0.9962251186,18.57804455091698,5319.857509170661,2.463,1.798,0.411,-0.093
-1.2,5999982725.336439,0.9967100024,20.558905959841415,5300.294488357958,2.362,1.692,0.294,-0.215
-1.2,5999982725.336439,0.9971606135,22.750974307720703,5280.803407777241,2.262,1.585,0.178,-0.337
-1.2,5999982725.336439,0.9976052642,25.35128630497907,5258.961603824607,2.155,1.472,0.053,-0.467
-1.2,5999982725.336439,0.9980006814,28.11900830398941,5238.416190277907,2.053,1.364,-0.068,-0.593
-1.2,5999982725.336439,0.9983490109,31.117163371060183,5217.95104239002,1.956,1.26,-0.183,-0.713
-1.2,5999982725.336439,0.9986760616,34.35579478998746,5196.369200594045,1.859,1.156,-0.3,-0.836
-1.2,5999982725.336439,0.9989876747,38.194427084004666,5173.685200730607,1.759,1.049,-0.42,-0.962
-1.2,5999982725.336439,0.9992672801,42.169650342858226,5151.100224595073,1.663,0.945,-0.537,-1.085
-1.2,5999982725.336439,0.9995268583,46.665938031428865,5127.433068882606,1.567,0.842,-0.654,-1.208
-1.2,5999982725.336439,0.9997705817,51.64163692720711,5105.049999754065,1.471,0.738,-0.772,-1.333
-1.2,5999982725.336439,0.9999867678,56.88529308438413,5081.594425605605,1.379,0.638,-0.886,-1.452
-1.2,5999982725.336439,1.0,57.279603098582925,5079.2548036502085,1.373,0.631,-0.893,-1.46
-1.2,5999982725.336439,1.000190258,62.95061828571975,5057.082049785993,1.287,0.536,-1.002,-1.575
-1.2,5999982725.336439,1.000379324,69.5024317588797,5032.687915706669,1.195,0.434,-1.119,-1.698
-1.2,5999982725.336439,1.0005465746,76.38357835776907,5008.411452998231,1.109,0.338,-1.229,-1.814
-1.2,5999982725.336439,1.0007082224,84.13951416451951,4984.252094042598,1.021,0.24,-1.343,-1.934
-1.2,5999982725.336439,1.0008536577,92.46981739382225,4959.067275049038,0.937,0.146,-1.453,-2.051
-1.2,5999982725.336439,1.000993371,101.62486928706959,4934.00971187958,0.853,0.051,-1.564,-2.169
-1.2,5999982725.336439,1.0011224747,110.9174815262401,4911.339996469978,0.775,-0.038,-1.668,-2.279
-1.2,5999982725.336439,1.0012613535,120.78138351067798,4887.648886615807,0.702,-0.121,-1.767,-2.384
-1.2,5999982725.336439,1.0013523102,124.73835142429432,4879.77727286486,0.673,-0.153,-1.804,-2.424
-1.2,5999982725.336439,1.0014280081,119.6740531307243,4894.4060897312465,0.706,-0.115,-1.756,-2.372
-1.2,5999982725.336439,1.0015013218,111.94378834671514,4916.997641778744,0.762,-0.049,-1.675,-2.284
-1.2,5999982725.336439,1.0015113354,110.66237839776664,4920.395356814511,0.771,-0.038,-1.662,-2.27
-1.2,5999982725.336439,1.0016069412,120.50359403717974,4896.660566104027,0.697,-0.123,-1.762,-2.377
-1.2,5999982725.336439,1.0017082691,132.1295634186575,4870.796664925371,0.617,-0.213,-1.871,-2.494
-1.2,5999982725.336439,1.001809001,145.54590805819655,4842.83865227851,0.537,-0.309,-1.986,-2.617
-1.2,5999982725.336439,1.0019004345,159.95580286146696,4816.14994840047,0.463,-0.402,-2.099,-2.737
-1.2,5999982725.336439,1.0019881725,176.1976046411629,4788.50560386518,0.389,-0.498,-2.214,-2.859
-1.2,5999982725.336439,1.0020660162,193.19683170169242,4762.116327398207,0.321,-0.588,-2.324,-2.975
-1.2,5999982725.336439,1.0021426678,212.32444620002192,4733.692033483014,0.251,-0.682,-2.439,-3.097
-1.2,5999982725.336439,1.0022099018,232.27367963571075,4706.520991281343,0.187,-0.769,-2.547,-3.211
-1.2,5999982725.336439,1.0022758245,255.85858869056452,4678.428536839501,0.122,-0.861,-2.661,-3.332
-1.2,5999982725.336439,1.0023341179,279.8981319634363,4650.503761666063,0.064,-0.945,-2.768,-3.446
-1.2,5999982725.336439,1.0023901463,306.90219883911584,4622.74566491089,0.005,-1.032,-2.879,-3.564
-1.2,5999982725.336439,1.0024405718,334.9654391578276,4595.153251697754,-0.049,-1.115,-2.985,-3.677
-1.2,5999982725.336439,1.0024889708,367.2823004980846,4565.622502022357,-0.098,-1.197,-3.094,-3.794
-1.2,5999982725.336439,1.0025436878,410.2041029866068,4532.1053854810425,-0.161,-1.295,-3.226,-3.937
-1.2,5999982725.336439,1.0025844574,447.7133041763623,4502.9798128808925,-0.212,-1.37,-3.331,-4.052
-1.2,5999982725.336439,1.002622962,489.77881936844614,4474.041415755961,-0.263,-1.446,-3.438,-4.169
-1.2,5999982725.336439,1.0026661158,545.757861091271,4441.1966136558885,-0.326,-1.537,-3.563,-4.307
-1.2,5999982725.336439,1.0026996136,597.0352865838366,4410.623631214367,-0.373,-1.61,-3.67,-4.425
-1.2,5999982725.336439,1.0027372837,665.2731562017412,4375.221051582521,-0.43,-1.699,-3.797,-4.567
-1.2,5999982725.336439,1.0027717352,739.6052750582381,4341.1020970734535,-0.486,-1.784,-3.922,-4.705
-1.2,5999982725.336439,1.0028041601,824.1381150130021,4304.274894883304,-0.537,-1.868,-4.048,-4.847
-1.2,5999982725.336439,1.0028342009,918.332596483581,4268.742912929737,-0.579,-1.948,-4.175,-4.989
-1.2,5999982725.336439,1.0028612614,1018.5913880541169,4235.4542988140065,-0.618,-2.023,-4.297,-5.126
-1.2,5999982725.336439,1.0028867722,1129.7959146727976,4200.4904339619925,-0.655,-2.097,-4.42,-5.264
-1.2,5999982725.336439,1.0029108524,1256.0299636948755,4164.856093407415,-0.689,-2.169,-4.543,-5.404
-1.2,5999982725.336439,1.0029327869,1393.1568029453035,4130.475019901614,-0.723,-2.24,-4.664,-5.541
-1.2,5999982725.336439,1.0029531717,1545.254439538414,4098.264649809825,-0.756,-2.309,-4.783,-5.676
-1.2,5999982725.336439,1.0029729605,1717.9083871575876,4062.5619818684354,-0.784,-2.376,-4.905,-5.816
-1.2,5999982725.336439,1.0029915571,1905.4607179632462,4029.025350832952,-0.809,-2.44,-5.024,-5.952
-1.2,5999982725.336439,1.0030059814,2055.8905959841427,4004.9767571215903,-0.821,-2.484,-5.114,-6.054
-1.2,5999982725.336439,1.0030059814,65.61452663029053,5383.937379843645,1.049,0.412,-0.941,-1.432
-1.2,5999982725.336439,1.0031294823,67.7641507610675,5369.081544647211,1.022,0.381,-0.98,-1.474
-1.2,5999982725.336439,1.0032525063,68.39116472814293,5366.609560460733,1.014,0.371,-0.992,-1.487
-1.2,5999982725.336439,1.0033779144,68.86522963442762,5365.373995198518,1.007,0.364,-0.999,-1.494
-1.2,5999982725.336439,1.0035040379,69.18309709189366,5369.081544647211,1.0,0.358,-1.003,-1.497
-1.2,5999982725.336439,1.0036323071,69.3425806016569,5372.791656065097,0.995,0.354,-1.004,-1.497
-1.2,5999982725.336439,1.0037583113,69.5024317588797,5378.980873168731,0.99,0.352,-1.004,-1.496
-1.2,5999982725.336439,1.003886342,69.5024317588797,5385.177219975279,0.986,0.349,-1.003,-1.494
-1.2,5999982725.336439,1.0040130615,69.66265141107687,5391.380704697852,0.981,0.347,-1.002,-1.491
-1.2,5999982725.336439,1.004142642,69.66265141107687,5397.591335559007,0.976,0.344,-1.002,-1.489
-1.2,5999982725.336439,1.0042740107,69.82324040771715,5403.809120790774,0.972,0.341,-1.001,-1.488
-1.2,5999982725.336439,1.0044028759,69.98419960022734,5410.034068634678,0.967,0.338,-1.001,-1.486
-1.2,5999982725.336439,1.0045295954,69.98419960022734,5415.019189534895,0.962,0.335,-1.001,-1.485
-1.2,5999982725.336439,1.0046576262,70.14552984199715,5420.008904016238,0.958,0.332,-1.002,-1.484
-1.2,5999982725.336439,1.0047818422,70.30723198838334,5423.754206961006,0.953,0.329,-1.003,-1.484
-1.2,5999982725.336439,1.0047968626,70.30723198838334,5425.003216311501,0.952,0.329,-1.003,-1.484
-1.2,5999982725.336439,1.0049040318,70.46930689671471,5427.502097963167,0.949,0.326,-1.004,-1.484
-1.2,5999982725.336439,1.0050253868,70.6317554262962,5431.252578811117,0.945,0.323,-1.005,-1.485
-1.2,5999982725.336439,1.0051538944,70.79457843841381,5433.754339063341,0.94,0.319,-1.007,-1.487
-1.2,5999982725.336439,1.0052813292,71.12135136533291,5436.257251684059,0.935,0.315,-1.01,-1.489
-1.2,5999982725.336439,1.0054106712,71.28530301265195,5437.50914029847,0.931,0.311,-1.014,-1.492
-1.2,5999982725.336439,1.0055097342,71.6143410212902,5437.50914029847,0.927,0.308,-1.017,-1.495
-1.2,5999982725.336439,1.005548954,71.6143410212902,5437.50914029847,0.926,0.307,-1.018,-1.496
-1.2,5999982725.336439,1.0056663752,71.94489780036994,5437.50914029847,0.922,0.302,-1.023,-1.501
-1.2,5999982725.336439,1.0056778193,71.94489780036994,5436.257251684059,0.922,0.302,-1.023,-1.502
-1.2,5999982725.336439,1.0057924986,72.27698036021702,5435.005651294466,0.917,0.297,-1.029,-1.508
-1.2,5999982725.336439,1.0059168339,72.77798045368242,5431.252578811117,0.912,0.291,-1.037,-1.516
-1.2,5999982725.336439,1.0060412884,73.2824533138904,5427.502097963167,0.907,0.285,-1.045,-1.525
-1.2,5999982725.336439,1.006162405,73.79042301291011,5422.505485172428,0.901,0.277,-1.055,-1.537
-1.2,5999982725.336439,1.0062834024,74.30191378967014,5416.266187341721,0.896,0.269,-1.066,-1.549
-1.2,5999982725.336439,1.0064069033,75.16228940182053,5408.788505661013,0.889,0.26,-1.079,-1.563
-1.2,5999982725.336439,1.0065281391,75.85775750291836,5401.3211476463475,0.882,0.251,-1.092,-1.579
-1.2,5999982725.336439,1.0066492558,76.73614893618189,5392.622258915705,0.874,0.239,-1.109,-1.597
-1.2,5999982725.336439,1.0067716837,77.8036551039804,5380.219571891122,0.864,0.226,-1.128,-1.619
-1.2,5999982725.336439,1.0068943501,76.91304402866095,5395.1062251512785,0.869,0.236,-1.11,-1.598
-1.2,5999982725.336439,1.0070159435,79.06786279998249,5370.317963702527,0.853,0.211,-1.149,-1.642
-1.2,5999982725.336439,1.0071365833,82.41381150130022,5334.57714525135,0.826,0.172,-1.206,-1.707
-1.2,5999982725.336439,1.0072520971,89.33054837332953,5275.9418472699535,0.771,0.096,-1.314,-1.829
-1.2,5999982725.336439,1.007303834,97.2747223776965,5221.556720489596,0.709,0.015,-1.425,-1.953
-1.2,5999982725.336439,1.0073251724,106.16955571987242,5171.303179169629,0.646,-0.068,-1.537,-2.077
-1.2,5999982725.336439,1.0073341131,116.14486138403426,5122.712702645385,0.58,-0.152,-1.649,-2.202
-1.2,5999982725.336439,1.0073382854,126.4736347471151,5080.424479948444,0.515,-0.234,-1.756,-2.319
-1.2,5999982725.336439,1.0073393583,131.2199899019203,5064.073495238508,0.486,-0.269,-1.802,-2.369
-1.2,5999982725.336439,1.0073407888,138.3566378971781,5040.806191026696,0.445,-0.32,-1.866,-2.439
-1.2,5999982725.336439,1.0073432922,153.4616982799294,4998.043135782391,0.363,-0.42,-1.993,-2.577
-1.2,5999982725.336439,1.0073465109,169.43378004473288,4957.92553906303,0.285,-0.516,-2.117,-2.713
-1.2,5999982725.336439,1.0073530674,158.12480392703827,4986.547955557967,0.339,-0.449,-2.03,-2.617
-1.2,5999982725.336439,1.0074056387,155.23870099580816,4993.441887213498,0.353,-0.432,-2.009,-2.595
-1.2,5999982725.336439,1.0074560642,170.60823890031244,4954.5019080479005,0.282,-0.52,-2.123,-2.72
-1.2,5999982725.336439,1.0074930191,188.79913490962926,4913.6022729909155,0.204,-0.618,-2.249,-2.857
-1.2,5999982725.336439,1.0075166225,207.49135174549107,4874.162454431541,0.135,-0.706,-2.365,-2.985
-1.2,5999982725.336439,1.0075464249,231.20647901755942,4832.813100695309,0.057,-0.808,-2.497,-3.129
-1.2,5999982725.336439,1.0075734854,253.51286304979072,4797.334486366892,-0.003,-0.897,-2.611,-3.252
-1.2,5999982725.336439,1.0075985193,278.61211686297696,4762.116327398207,-0.063,-0.986,-2.726,-3.375
-1.2,5999982725.336439,1.0076216459,305.49211132155125,4727.156711736158,-0.121,-1.074,-2.84,-3.498
-1.2,5999982725.336439,1.0076429844,335.7376142429545,4690.293284059374,-0.175,-1.161,-2.956,-3.622
-1.2,5999982725.336439,1.0076624155,368.97759857015046,4655.860935229591,-0.225,-1.246,-3.071,-3.746
-1.2,5999982725.336439,1.0076799393,405.5085354483839,4570.881896148751,-0.2,-1.306,-3.204,-3.901
-1.2,5999982725.336439,1.0076956749,445.6562483975033,4533.14906146412,-0.239,-1.383,-3.319,-4.027
-1.2,5999982725.336439,1.0077102184,489.77881936844614,4497.798548932879,-0.287,-1.46,-3.431,-4.152
-1.2,5999982725.336439,1.0077240467,537.0317963702527,4464.779341129965,-0.334,-1.537,-3.542,-4.276
-1.2,5999982725.336439,1.0077372789,590.2010801718442,4429.961991003635,-0.379,-1.61,-3.653,-4.4
-1.2,5999982725.336439,1.0077499151,648.6344335482381,4392.380956904633,-0.42,-1.683,-3.766,-4.528
-1.2,5999982725.336439,1.0077614784,711.2135136533288,4357.124805030842,-0.46,-1.754,-3.876,-4.652
-1.2,5999982725.336439,1.0077733994,779.8301105232586,4320.161676181425,-0.493,-1.82,-3.987,-4.778
-1.2,5999982725.336439,1.0077850819,857.0378452303693,4280.55419586204,-0.514,-1.881,-4.099,-4.907
-1.2,5999982725.336439,1.0077959299,944.0608762859235,4239.357093413646,-0.531,-1.941,-4.214,-5.041
-1.2,5999982725.336439,1.0078041553,1042.3174293933037,4198.556481973773,-0.549,-2.002,-4.333,-5.178
-1.2,5999982725.336439,1.0078101158,1145.5129414455362,4157.19120675218,-0.562,-2.057,-4.446,-5.309
-1.2,5999982725.336439,1.0078160763,1253.1411749414156,4118.129505138526,-0.569,-2.106,-4.553,-5.436
-1.2,5999982725.336439,1.0078206062,1380.3842646028852,4079.4348341609566,-0.577,-2.158,-4.665,-5.567
-1.2,5999982725.336439,1.0078257322,1520.5475297324954,4038.313213488514,-0.576,-2.206,-4.781,-5.703
-1.2,5999982725.336439,1.0078297853,1671.090614310707,4004.0546833054636,-0.565,-2.247,-4.892,-5.832
-1.2,5999982725.336439,1.0078303814,1840.7720014689564,3968.2589095091143,-0.562,-2.29,-5.004,-5.962
-1.2,5999982725.336439,1.0078313351,1927.5249131909366,3953.666200681279,-0.562,-2.313,-5.058,-6.023
-1.2,5999982725.336439,1.0078314543,1520.5475297324954,4042.9651707596545,-0.558,-2.201,-4.782,-5.7
-1.2,5999982725.336439,1.0078315735,1832.314422371211,3973.745050614633,-0.565,-2.293,-5.0,-5.954
-1.2,5999982725.336439,1.0078316927,2055.8905959841427,3932.7831456834174,-0.566,-2.345,-5.132,-6.108
-1.2,5999982725.336439,1.0078318119,1448.7718535447616,4062.5619818684354,-0.558,-2.179,-4.727,-5.635
-1.2,5999982725.336439,1.0078319311,1333.521432163324,4095.434646443952,-0.547,-2.133,-4.628,-5.52
-1.2,5999982725.336439,1.007832408,1345.8603540559484,4093.5490632955944,-0.551,-2.141,-4.64,-5.533
-1.2,5999982725.336439,1.0078328848,1472.3125024327194,4060.691533656346,-0.561,-2.189,-4.743,-5.652
-1.2,5999982725.336439,1.0078331232,1599.5580286146694,4029.953175019774,-0.565,-2.231,-4.841,-5.765
-1.2,5999982725.336439,1.0078334808,1757.923613958693,3999.4474976109736,-0.576,-2.283,-4.952,-5.892
-1.2,5999982725.336439,1.0078338385,1931.9683170169242,3970.0867811218423,-0.587,-2.334,-5.06,-6.015
-1.2,5999982725.336439,1.0078343153,2103.778439766475,3950.936047894297,-0.609,-2.389,-5.159,-6.124
-1.2,5999982725.336439,1.0078349113,2306.747188720069,3946.3899820986467,-0.665,-2.468,-5.261,-6.227
-1.2,5999982725.336439,1.0078355074,2466.0393372343387,4008.6671762730302,-0.848,-2.621,-5.331,-6.258
-1.2,5999982725.336439,1.007835865,2540.972705549304,4213.082854040085,-1.278,-2.904,-5.334,-6.153
