FeH,Age,Mini,L,Te,Bmag,Vmag,Jmag,Kmag
-2.0,1000000000.0,0.0936335474,0.0009397233105646375,3281.708485445259,15.942,14.056,10.448,10.068
-2.0,1000000000.0,0.0982779637,0.001238796586530369,3409.5730529319967,15.313,13.538,10.206,9.733
-2.0,1000000000.0,0.0992222056,0.001309181922999407,3437.953513094916,15.18,13.434,10.157,9.667
-2.0,1000000000.0,0.1024727523,0.0016218100973589297,3541.6040042646177,14.696,13.055,9.972,9.424
-2.0,1000000000.0,0.1035686582,0.0017378008287493763,3577.6676993611068,14.538,12.933,9.911,9.346
-2.0,1000000000.0,0.1037109271,0.0017498466886246564,3579.3156556503877,14.529,12.925,9.906,9.341
-2.0,1000000000.0,0.1234388798,0.003273406948788383,3815.047942794385,13.363,11.982,9.321,8.667
-2.0,1000000000.0,0.1433091164,0.004841723675840994,3934.5946763407965,12.732,11.447,8.939,8.254
-2.0,1000000000.0,0.1480150372,0.0052119471110508055,3954.5766707846387,12.621,11.35,8.866,8.178
-2.0,1000000000.0,0.163179338,0.006501296903430909,4015.1335942882924,12.288,11.06,8.646,7.948
-2.0,1000000000.0,0.2029198259,0.010256519262514073,4128.573303779981,11.636,10.479,8.188,7.482
-2.0,1000000000.0,0.2525953948,0.015848931924611134,4233.504249077914,11.03,9.93,7.746,7.045
-2.0,1000000000.0,0.3022710085,0.022594357702209782,4320.161676181425,10.543,9.487,7.386,6.694
-2.0,1000000000.0,0.3519465327,0.03069021988391158,4397.440784473689,10.127,9.107,7.076,6.396
-2.0,1000000000.0,0.3677437901,0.033884415613920256,4424.86474355665,9.991,8.983,6.975,6.3
-2.0,1000000000.0,0.4016221166,0.04168693834703355,4479.195312542835,9.713,8.728,6.767,6.102
-2.0,1000000000.0,0.4031156898,0.04207266283844442,4483.322704327333,9.698,8.715,6.757,6.093
-2.0,1000000000.0,0.4512977004,0.05741164622073274,4612.113644917027,9.245,8.314,6.459,5.821
-2.0,1000000000.0,0.5009732842,0.08165823713585922,4779.692969796099,8.723,7.856,6.126,5.526
-2.0,1000000000.0,0.5506489277,0.11803206356517296,4962.494060797449,8.191,7.391,5.783,5.223
-2.0,1000000000.0,0.6003244519,0.17258378919902034,5195.172830110672,7.641,6.92,5.449,4.938
-2.0,1000000000.0,0.6499999762,0.24945947269429547,5457.57861091271,7.112,6.474,5.14,4.679
-2.0,1000000000.0,0.6999999881,0.35563131856898533,5745.131848169437,6.614,6.056,4.857,4.445
-2.0,1000000000.0,0.7307137251,0.4385306977749857,5922.430868761306,6.334,5.821,4.696,4.311
-2.0,1000000000.0,0.75,0.497737084978936,6032.537079266128,6.167,5.68,4.597,4.229
-2.0,1000000000.0,0.7609163523,0.5333348954876209,6085.552311808156,6.077,5.603,4.542,4.181
-2.0,1000000000.0,0.8000000119,0.6792036326171845,6273.356959840379,5.767,5.334,4.348,4.017
-2.0,1000000000.0,0.8500000238,0.9141132414702502,6514.783683512198,5.392,5.006,4.111,3.818
-2.0,1000000000.0,0.8649595976,0.995405417351527,6587.187112819285,5.284,4.91,4.042,3.76
-2.0,1000000000.0,0.8999999762,1.2078138351067802,6756.1611508415435,5.038,4.69,3.885,3.628
-2.0,1000000000.0,0.9120565057,1.2912192736135342,6817.105263058537,4.956,4.616,3.834,3.586
-2.0,1000000000.0,0.9500000477,1.5739828644662195,7009.709175843827,4.702,4.389,3.677,3.457
-2.0,1000000000.0,0.9686281681,1.733803997754138,7112.1351365332885,4.58,4.281,3.606,3.4
-2.0,1000000000.0,1.0,2.027682719521282,7284.504232923301,4.379,4.101,3.489,3.306
-2.0,1000000000.0,1.0223207474,2.254239212152429,7428.4807111317505,4.237,3.977,3.415,3.25
-2.0,1000000000.0,1.0499999523,2.576321157002575,7608.516731700471,4.064,3.825,3.326,3.183
-2.0,1000000000.0,1.0741487741,2.8773984147356693,7787.534792924758,3.917,3.698,3.259,3.137
-2.0,1000000000.0,1.1000000238,3.2284941217126355,7981.78453491152,3.764,3.566,3.191,3.089
-2.0,1000000000.0,1.1195069551,3.523708710424872,8128.305161640995,3.653,3.471,3.142,3.055
-2.0,1000000000.0,1.1499999762,4.017908108489399,8359.879162611805,3.488,3.331,3.07,3.002
-2.0,1000000000.0,1.1567277908,4.130475019901613,8410.07754069233,3.453,3.302,3.055,2.991
-2.0,1000000000.0,1.2000000477,4.954501908047901,8729.713683881113,3.246,3.131,2.962,2.918
-2.0,1000000000.0,1.2227902412,5.432503314924332,8898.1556842882,3.147,3.05,2.916,2.88
-2.0,1000000000.0,1.25,6.0673632958850545,9101.22812029188,3.036,2.957,2.86,2.835
-2.0,1000000000.0,1.2999999523,7.413102413009175,9471.090794701602,2.848,2.798,2.76,2.75
-2.0,1000000000.0,1.3300616741,8.375292821268827,9693.932693002555,2.741,2.706,2.698,2.696
-2.0,1000000000.0,1.3500000238,9.078205301781857,9844.64363980378,2.672,2.647,2.657,2.66
-2.0,1000000000.0,1.3684988022,9.772372209558107,9983.894887023273,2.611,2.594,2.619,2.626
-2.0,1000000000.0,1.3999999762,11.091748152624008,10223.5093850323,2.508,2.505,2.553,2.568
-2.0,1000000000.0,1.4246202707,12.274392311584071,10411.181076233397,2.43,2.437,2.502,2.521
-2.0,1000000000.0,1.4500000477,13.614446824659497,10612.067408888182,2.349,2.365,2.447,2.471
-2.0,1000000000.0,1.4513801336,13.708817661648537,10621.845986687029,2.345,2.361,2.444,2.468
-2.0,1000000000.0,1.4758640528,15.170503674593368,10816.829893379321,2.266,2.292,2.389,2.418
-2.0,1000000000.0,1.4982851744,16.672472125510627,10992.589240151416,2.194,2.226,2.336,2.369
-2.0,1000000000.0,1.5,16.788040181225607,11005.252214205417,2.188,2.221,2.332,2.365
-2.0,1000000000.0,1.5107637644,17.579236139586932,11086.641389799572,2.154,2.19,2.306,2.341
-2.0,1000000000.0,1.5365757942,19.633602768360465,11261.597469078652,2.065,2.108,2.236,2.274
-2.0,1000000000.0,1.5499999523,20.749135174549096,11337.048381054106,2.017,2.062,2.195,2.234
-2.0,1000000000.0,1.5609369278,21.727011788637444,11394.624028965693,1.976,2.024,2.16,2.201
-2.0,1000000000.0,1.5839605331,23.933157564053875,11486.824875461094,1.887,1.939,2.081,2.123
-2.0,1000000000.0,1.6000000238,25.644840365177174,11523.913771994878,1.82,1.873,2.016,2.06
-2.0,1000000000.0,1.6136956215,27.164392688390823,11539.84565005087,1.759,1.813,1.958,2.001
-2.0,1000000000.0,1.6332690716,29.580124665515466,11534.53257821093,1.665,1.72,1.864,1.908
-2.0,1000000000.0,1.6499998569,31.84197521726124,11505.354378671675,1.579,1.635,1.777,1.82
-2.0,1000000000.0,1.6505631208,31.915378551007617,11502.705477901161,1.576,1.632,1.774,1.817
-2.0,1000000000.0,1.6724647284,35.23708710424871,11405.12370007243,1.449,1.504,1.639,1.68
-2.0,1000000000.0,1.6950000525,39.26449353995999,11261.597469078652,1.304,1.357,1.483,1.521
-2.0,1000000000.0,1.7000000477,40.364539296760505,11225.352818901682,1.269,1.321,1.445,1.482
-2.0,1000000000.0,1.7131979465,43.251383103500864,11130.123928017912,1.175,1.226,1.343,1.378
-2.0,1000000000.0,1.7172740698,44.25883723626264,11117.317272815919,1.147,1.198,1.314,1.349
-2.0,1000000000.0,1.72055161,45.39416166502032,11202.114309051123,1.134,1.188,1.31,1.346
-2.0,1000000000.0,1.7262816429,47.97334486366892,11468.325214224777,1.123,1.184,1.322,1.364
-2.0,1000000000.0,1.7276464701,49.77370849789361,11748.975549395303,1.136,1.203,1.358,1.405
-2.0,1000000000.0,1.7282346487,51.88000389289612,12044.81128573176,1.143,1.216,1.388,1.441
-2.0,1000000000.0,1.728559494,54.70159628939716,12314.02412206216,1.136,1.215,1.402,1.459
-2.0,1000000000.0,1.7286115885,55.207743928075736,12356.62878792735,1.134,1.213,1.403,1.46
-2.0,1000000000.0,1.7286696434,54.57578610912711,12265.916389572205,1.128,1.207,1.391,1.447
-2.0,1000000000.0,1.728779912,53.70317963702527,12047.585025349517,1.106,1.18,1.352,1.405
-2.0,1000000000.0,1.7289237976,55.207743928075736,11776.059735208066,1.026,1.095,1.251,1.299
-2.0,1000000000.0,1.7291420698,58.07644175213121,11500.057186992351,0.92,0.985,1.124,1.167
-2.0,1000000000.0,1.7294627428,60.39486293763797,11220.18454301963,0.824,0.884,1.005,1.042
-2.0,1000000000.0,1.7298977375,62.23002851691595,10942.08288036683,0.741,0.794,0.897,0.929
-2.0,1000000000.0,1.7304416895,63.53309318517436,10663.50556670108,0.665,0.711,0.793,0.818
-2.0,1000000000.0,1.7310460806,64.86344335482384,10382.453626533146,0.592,0.63,0.689,0.708
-2.0,1000000000.0,1.7316448689,66.06934480075961,10099.50294120319,0.523,0.551,0.587,0.599
-2.0,1000000000.0,1.7321920395,66.98846094165265,9817.479430199845,0.459,0.477,0.486,0.49
-2.0,1000000000.0,1.7326716185,67.7641507610675,9543.331283085354,0.402,0.408,0.388,0.383
-2.0,1000000000.0,1.7330855131,68.54882264526617,9272.567425805944,0.354,0.346,0.293,0.279
-2.0,1000000000.0,1.733443141,69.02398038402418,9011.560443397047,0.315,0.292,0.201,0.177
-2.0,1000000000.0,1.7337548733,69.5024317588797,8755.884014131148,0.286,0.246,0.113,0.077
-2.0,1000000000.0,1.7340284586,69.82324040771715,8509.42078987996,0.267,0.209,0.028,-0.022
-2.0,1000000000.0,1.734271884,69.98419960022734,8269.895085679318,0.264,0.183,-0.052,-0.118
-2.0,1000000000.0,1.734490633,70.14552984199715,8037.1116221539805,0.274,0.165,-0.131,-0.214
-2.0,1000000000.0,1.7346886396,70.30723198838334,7812.679345516045,0.295,0.154,-0.206,-0.308
-2.0,1000000000.0,1.7348693609,70.30723198838334,7594.514226678694,0.327,0.154,-0.277,-0.401
-2.0,1000000000.0,1.7350350618,70.14552984199715,7382.441258430446,0.364,0.161,-0.344,-0.492
-2.0,1000000000.0,1.7351876497,70.14552984199715,7176.290320547707,0.406,0.172,-0.408,-0.582
-2.0,1000000000.0,1.7353291512,69.98419960022734,6975.8960433280445,0.45,0.187,-0.469,-0.67
-2.0,1000000000.0,1.7354611158,69.66265141107687,6782.65926015363,0.498,0.204,-0.527,-0.757
-2.0,1000000000.0,1.7355855703,69.5024317588797,6597.8129651395675,0.549,0.224,-0.582,-0.842
-2.0,1000000000.0,1.735710144,69.02398038402418,6419.482215080359,0.604,0.247,-0.635,-0.924
-2.0,1000000000.0,1.7358524799,68.54882264526617,6244.533502805022,0.667,0.274,-0.682,-1.003
-2.0,1000000000.0,1.7360371351,67.60829753919819,6071.555929886486,0.739,0.31,-0.724,-1.078
-2.0,1000000000.0,1.7362747192,65.91738952443212,5904.729404069866,0.825,0.357,-0.753,-1.14
-2.0,1000000000.0,1.736562252,63.24118513762193,5751.749984619442,0.927,0.422,-0.759,-1.177
-2.0,1000000000.0,1.7367099524,61.80164001384158,5685.910246988551,0.979,0.456,-0.757,-1.189
-2.0,1000000000.0,1.7367670536,61.517687270986805,5665.001119195332,0.993,0.465,-0.758,-1.194
-2.0,1000000000.0,1.7370519638,62.08690342300634,5584.701947368307,1.016,0.467,-0.795,-1.247
-2.0,1000000000.0,1.7374484539,64.56542290346556,5497.940050635924,1.012,0.438,-0.866,-1.336
-2.0,1000000000.0,1.7378423214,69.5024317588797,5453.809950965599,0.952,0.365,-0.961,-1.44
-2.0,1000000000.0,1.7382333279,74.81695005111546,5422.505485172428,0.883,0.288,-1.053,-1.54
-2.0,1000000000.0,1.7386218309,80.72350302488383,5396.348637300686,0.813,0.211,-1.144,-1.635
-2.0,1000000000.0,1.7390625477,87.90225168308842,5372.791656065097,0.731,0.123,-1.244,-1.742
-2.0,1000000000.0,1.7394452095,94.6237161365793,5353.033977441431,0.66,0.047,-1.33,-1.831
-2.0,1000000000.0,1.7395043373,95.49925860214358,5350.569381731372,0.649,0.035,-1.343,-1.845
-2.0,1000000000.0,1.7396223545,97.72372209558107,5345.643593969719,0.628,0.012,-1.368,-1.871
-2.0,1000000000.0,1.7397458553,100.0,5340.722340937607,0.605,-0.012,-1.395,-1.899
-2.0,1000000000.0,1.7401765585,108.14339512979376,5322.307958283607,0.527,-0.095,-1.487,-1.996
-2.0,1000000000.0,1.7407141924,119.1242008027375,5300.294488357958,0.432,-0.197,-1.601,-2.114
-2.0,1000000000.0,1.7412678003,131.5224832192239,5278.37206781577,0.336,-0.299,-1.714,-2.232
-2.0,1000000000.0,1.7417305708,142.56075936021878,5261.38400287851,0.257,-0.384,-1.808,-2.33
-2.0,1000000000.0,1.7421737909,153.81546403030342,5244.4506128195335,0.183,-0.463,-1.896,-2.422
-2.0,1000000000.0,1.7427017689,168.26740610704672,5225.164890163825,0.096,-0.557,-2.001,-2.531
-2.0,1000000000.0,1.7431209087,180.3017740859568,5209.547473285554,0.027,-0.631,-2.083,-2.617
-2.0,1000000000.0,1.7435441017,193.6421963946607,5193.976735070076,-0.041,-0.705,-2.166,-2.703
-2.0,1000000000.0,1.7440181971,208.92961308540387,5176.068319505676,-0.113,-0.783,-2.253,-2.795
-2.0,1000000000.0,1.7440913916,210.86281499332887,5173.685200730607,-0.123,-0.794,-2.266,-2.808
-2.0,1000000000.0,1.7442321777,127.35030810166616,5301.515066784589,0.36,-0.268,-1.671,-2.184
-2.0,1000000000.0,1.7442528009,124.73835142429432,5307.622176426454,0.38,-0.246,-1.646,-2.158
-2.0,1000000000.0,1.7442623377,123.31048332289096,5310.066989662834,0.389,-0.236,-1.634,-2.145
-2.0,1000000000.0,1.7442747355,121.89895989248662,5313.736321187098,0.402,-0.222,-1.619,-2.129
-2.0,1000000000.0,1.7442891598,120.22644346174131,5317.408188271428,0.415,-0.208,-1.602,-2.112
-2.0,1000000000.0,1.7443054914,118.30415557251646,5322.307958283607,0.43,-0.192,-1.584,-2.093
-2.0,1000000000.0,1.7443261147,115.87773561551262,5327.212243229622,0.449,-0.171,-1.56,-2.068
-2.0,1000000000.0,1.7443511486,113.50108156723155,5333.348954876208,0.47,-0.148,-1.535,-2.041
-2.0,1000000000.0,1.7443823814,110.66237839776664,5339.492735741766,0.495,-0.121,-1.505,-2.009
-2.0,1000000000.0,1.744427681,107.3989412341245,5346.874615616075,0.524,-0.09,-1.469,-1.972
-2.0,1000000000.0,1.7445136309,103.03861204416158,5357.966575133417,0.564,-0.047,-1.421,-1.921
-2.0,1000000000.0,1.7446939945,96.16122783836649,5377.742459634421,0.629,0.023,-1.341,-1.838
-2.0,1000000000.0,1.7454240322,83.36811846196343,5423.754206961006,0.764,0.17,-1.17,-1.656
-2.0,1000000000.0,1.7465145588,79.43282347242814,5453.809950965599,0.804,0.219,-1.107,-1.586
-2.0,1000000000.0,1.74825418,74.13102413009177,5492.878591960475,0.862,0.288,-1.018,-1.489
-2.0,1000000000.0,1.7487742901,72.94575102545687,5503.006173234572,0.876,0.304,-0.997,-1.466
-2.0,1000000000.0,1.7492485046,73.79042301291011,5501.739205107149,0.862,0.291,-1.011,-1.481
-2.0,1000000000.0,1.75,74.30191378967014,5515.691912608028,0.848,0.281,-1.014,-1.48
-2.0,1000000000.0,1.7535386086,77.090346906443,5593.7106816169635,0.775,0.23,-1.027,-1.477
-2.0,1000000000.0,1.756960988,84.33347577642752,5735.87924842134,0.616,0.11,-1.078,-1.498
-2.0,1000000000.0,1.7591651678,89.53647655495938,5865.431942902653,0.499,0.025,-1.101,-1.494
-2.0,1000000000.0,1.7612400055,94.18895965228413,6024.208575746259,0.386,-0.05,-1.101,-1.461
-2.0,1000000000.0,1.7630261183,97.49896377173872,6225.869310387436,0.278,-0.114,-1.074,-1.396
-2.0,1000000000.0,1.7645671368,100.23052380778994,6444.659847416884,0.177,-0.17,-1.033,-1.315
-2.0,1000000000.0,1.7657721043,102.32929922807536,6626.741046882747,0.105,-0.209,-0.996,-1.247
-2.0,1000000000.0,1.7667909861,103.9920165829059,6777.975582993672,0.049,-0.239,-0.965,-1.192
-2.0,1000000000.0,1.7678048611,105.43868963912593,6905.577442196834,0.002,-0.265,-0.939,-1.148
-2.0,1000000000.0,1.768882513,106.90548792226576,7016.168330679753,-0.039,-0.288,-0.919,-1.112
-2.0,1000000000.0,1.770037055,108.39269140212039,7103.951700029559,-0.075,-0.31,-0.907,-1.088
-2.0,1000000000.0,1.7712920904,110.15393095414144,7191.17735782509,-0.11,-0.332,-0.896,-1.064
-2.0,1000000000.0,1.772664547,111.94378834671514,7277.798045368242,-0.147,-0.354,-0.885,-1.042
-2.0,1000000000.0,1.7741132975,114.02497875611685,7362.070974947361,-0.182,-0.376,-0.876,-1.024
-2.0,1000000000.0,1.7759524584,116.41260294104909,7452.465942515137,-0.223,-0.402,-0.87,-1.006
-2.0,1000000000.0,1.7790240049,120.50359403717974,7573.558772744387,-0.284,-0.443,-0.868,-0.991
-2.0,1000000000.0,1.7874677181,132.1295634186575,7812.679345516045,-0.425,-0.543,-0.89,-0.99
-2.0,1000000000.0,1.7949057817,143.5489433353656,7974.436424126813,-0.533,-0.625,-0.925,-1.01
-2.0,1000000000.0,1.7999999523,151.70503674593368,8072.350302488382,-0.6,-0.68,-0.952,-1.03
-2.0,1000000000.0,1.8066576719,162.9296032639723,8192.189693228678,-0.684,-0.749,-0.991,-1.059
-2.0,1000000000.0,1.8166351318,181.13400926196024,8315.722724645895,-0.805,-0.855,-1.065,-1.124
-2.0,1000000000.0,1.8240449429,196.33602768360475,8178.996079175055,-0.893,-0.954,-1.196,-1.264
-2.0,1000000000.0,1.8278969526,204.6444636724674,8029.712576698627,-0.936,-1.011,-1.29,-1.369
-2.0,1000000000.0,1.828783989,207.49135174549107,7996.5010756535485,-0.949,-1.028,-1.315,-1.397
-2.0,1000000000.0,1.8297132254,208.92961308540387,7932.3158742449605,-0.954,-1.04,-1.344,-1.431
-2.0,1000000000.0,1.8306521177,211.34890398366477,7805.486914662375,-0.956,-1.059,-1.399,-1.498
-2.0,1000000000.0,1.8313746452,213.30449131465772,7685.993272617573,-0.951,-1.073,-1.45,-1.559
-2.0,1000000000.0,1.8319704533,215.27817347243737,7533.55563733717,-0.936,-1.082,-1.509,-1.633
-2.0,1000000000.0,1.8324046135,216.271852372702,7384.1413240693855,-0.916,-1.087,-1.564,-1.705
-2.0,1000000000.0,1.8326650858,217.27011788637455,7211.074791828998,-0.886,-1.087,-1.627,-1.788
-2.0,1000000000.0,1.8328855038,218.27299118430014,7016.168330679753,-0.847,-1.081,-1.695,-1.883
-2.0,1000000000.0,1.8330711126,219.28049353504497,6813.9665928283175,-0.803,-1.071,-1.765,-1.982
-2.0,1000000000.0,1.8332268,219.78598727848254,6617.5921870566035,-0.754,-1.057,-1.832,-2.08
-2.0,1000000000.0,1.8333564997,220.2926463053456,6432.799272608504,-0.702,-1.04,-1.895,-2.173
-2.0,1000000000.0,1.8334641457,220.2926463053456,6269.024974761653,-0.647,-1.021,-1.949,-2.257
-2.0,1000000000.0,1.8335453272,219.78598727848254,6144.690317057614,-0.603,-1.003,-1.988,-2.32
-2.0,1000000000.0,1.8336228132,219.28049353504497,6021.434963870294,-0.555,-0.983,-2.026,-2.381
-2.0,1000000000.0,1.8336865902,218.77616239495518,5911.531389808275,-0.508,-0.963,-2.058,-2.437
-2.0,1000000000.0,1.8337401152,217.7709772353159,5811.657339622399,-0.463,-0.943,-2.087,-2.487
-2.0,1000000000.0,1.8337936401,214.7830474130533,5704.269030998695,-0.405,-0.913,-2.109,-2.532
-2.0,1000000000.0,1.833851099,211.34890398366477,5604.024173641845,-0.342,-0.877,-2.123,-2.568
-2.0,1000000000.0,1.8339151144,202.76827195212817,5495.408738576249,-0.249,-0.813,-2.113,-2.582
-2.0,1000000000.0,1.8339440823,197.24227361148533,5445.026528424214,-0.194,-0.774,-2.1,-2.58
-2.0,1000000000.0,1.8339531422,198.60949173573715,5425.003216311501,-0.191,-0.777,-2.114,-2.599
-2.0,1000000000.0,1.8340024948,214.28906011200584,5316.183950739626,-0.22,-0.84,-2.234,-2.743
-2.0,1000000000.0,1.8340266943,226.98648518838212,5285.669448009903,-0.267,-0.897,-2.307,-2.823
-2.0,1000000000.0,1.8340462446,232.80912576650078,5275.9418472699535,-0.289,-0.922,-2.337,-2.856
-2.0,1000000000.0,1.8341321945,241.54608344449403,5262.595620803182,-0.322,-0.96,-2.382,-2.903
-2.0,1000000000.0,1.8346480131,250.6109253032114,5242.036010084628,-0.352,-0.996,-2.43,-2.956
-2.0,1000000000.0,1.8349195719,264.24087573219475,5219.152658354482,-0.396,-1.049,-2.495,-3.026
-2.0,1000000000.0,1.8351066113,284.44611074479167,5191.585371063544,-0.461,-1.124,-2.585,-3.123
-2.0,1000000000.0,1.8353736401,318.41975217261256,5157.034063026461,-0.562,-1.237,-2.719,-3.266
-2.0,1000000000.0,1.8356268406,350.75187395256796,5127.433068882606,-0.649,-1.336,-2.835,-3.388
-2.0,1000000000.0,1.8358614445,385.4783576657717,5101.5247738556045,-0.734,-1.433,-2.947,-3.507
-2.0,1000000000.0,1.8360768557,423.6429660495409,5076.916258882489,-0.82,-1.529,-3.059,-3.624
-2.0,1000000000.0,1.8362747431,464.5152752227492,5051.263219145947,-0.905,-1.625,-3.17,-3.742
-2.0,1000000000.0,1.8364552259,510.50499997540646,5026.897153690667,-0.99,-1.721,-3.282,-3.86
-2.0,1000000000.0,1.8366200924,562.341325190349,5001.496854402788,-1.075,-1.817,-3.394,-3.979
-2.0,1000000000.0,1.8367688656,618.0164001384157,4978.517063739154,-1.16,-1.914,-3.506,-4.097
-2.0,1000000000.0,1.8369040489,680.7693586937418,4953.361223155476,-1.245,-2.01,-3.619,-4.217
-2.0,1000000000.0,1.8370274305,748.1695005111545,4928.332491971514,-1.329,-2.107,-3.732,-4.336
-2.0,1000000000.0,1.8371411562,824.1381150130021,4904.559414451102,-1.414,-2.203,-3.845,-4.456
-2.0,1000000000.0,1.837247014,907.8205301781861,4878.653791974776,-1.496,-2.299,-3.959,-4.577
-2.0,1000000000.0,1.8373458385,1000.0,4854.002548344871,-1.578,-2.396,-4.074,-4.698
-2.0,1000000000.0,1.8374384642,1101.5393095414145,4828.363964551585,-1.652,-2.493,-4.191,-4.821
-2.0,1000000000.0,1.8375254869,1216.1860006463678,4801.755030139799,-1.723,-2.59,-4.309,-4.945
-2.0,1000000000.0,1.837608099,1342.7649611378642,4776.392414964196,-1.791,-2.687,-4.429,-5.07
-2.0,1000000000.0,1.8376873732,1485.9356422870076,4748.9762757306435,-1.854,-2.782,-4.55,-5.197
-2.0,1000000000.0,1.8377649784,1640.5897731995387,4722.804843922316,-1.915,-2.877,-4.672,-5.325
-2.0,1000000000.0,1.8378428221,1819.7008586099826,4693.534343171951,-1.969,-2.972,-4.796,-5.455
-2.0,1000000000.0,1.8379225731,2009.0928126087279,4666.593803142887,-2.02,-3.064,-4.918,-5.583
-2.0,1000000000.0,1.8380331993,2290.8676527677726,4630.202658603084,-2.072,-3.178,-5.079,-5.751
-2.0,1000000000.0,1.8380885124,2488.85731828239,4606.806808300934,-2.097,-3.247,-5.181,-5.857
-2.0,1000000000.0,1.8381421566,2766.9416454115126,4576.147348863334,-2.119,-3.331,-5.312,-5.994
-2.0,1000000000.0,1.8382102251,3133.2857243155854,4539.416166502032,-2.145,-3.428,-5.464,-6.155
-2.0,1000000000.0,1.8382555246,3689.775985701505,4489.520924135662,-2.207,-3.557,-5.661,-6.367
-2.0,1000000000.0,1.8382611275,3890.4514499428046,4474.041415755961,-2.225,-3.596,-5.723,-6.433
-2.0,1000000000.0,1.8382672071,4159.106104940223,4454.510633598985,-2.249,-3.648,-5.803,-6.52
-2.0,1000000000.0,1.8382717371,4325.138310350088,4442.2193547105535,-2.263,-3.677,-5.85,-6.571
-2.0,1000000000.0,1.8382776976,4466.835921509631,4434.04401633441,-2.275,-3.702,-5.888,-6.612
-2.0,1000000000.0,1.8382784128,4466.835921509631,4416.721344129766,-2.244,-3.686,-5.892,-6.623
-2.0,1000000000.0,1.8382788897,4375.221051582521,4425.883723626264,-2.244,-3.675,-5.868,-6.595
-2.0,1000000000.0,1.8382791281,3908.4089579240213,4459.642031793193,-2.204,-3.59,-5.734,-6.45
-2.0,1000000000.0,1.838280201,2449.0632418447444,4601.506077890588,-2.067,-3.224,-5.164,-5.842
-2.0,1000000000.0,1.8382817507,1995.2623149688789,4664.445252037798,-2.006,-3.053,-4.91,-5.575
-2.0,1000000000.0,1.8382838964,2103.778439766475,4647.292416762036,-2.025,-3.099,-4.977,-5.645
-2.0,1000000000.0,1.8382865191,2660.7250597988086,4574.040440300427,-2.074,-3.287,-5.268,-5.951
-2.0,1000000000.0,1.8382898569,3396.2527259040853,4497.798548932879,-2.144,-3.477,-5.567,-6.271
-2.0,1000000000.0,1.8382937908,4027.170343254591,4445.28899122317,-2.203,-3.607,-5.771,-6.492
-2.0,1000000000.0,1.8382983208,4395.416154378243,4417.738448896479,-2.23,-3.671,-5.876,-6.606
-2.0,1000000000.0,1.838303566,4549.880601500485,4405.548635065535,-2.237,-3.695,-5.918,-6.653
-2.0,1000000000.0,1.8383094072,4613.175745603796,4399.466347160466,-2.236,-3.703,-5.935,-6.671
-2.0,1000000000.0,1.8383096457,5236.0043658575005,4362.144019080488,-2.27,-3.793,-6.086,-6.836
-2.0,1000000000.0,1.8383104801,4073.802778041126,4436.086439314323,-2.193,-3.609,-5.786,-6.51
-2.0,1000000000.0,1.8383120298,2552.701302661247,4576.147348863334,-2.04,-3.247,-5.223,-5.906
-2.0,1000000000.0,1.838314414,2079.696687103696,4638.7396675603095,-1.993,-3.079,-4.967,-5.638
-2.0,1000000000.0,1.8383175135,2192.80493535045,4620.617301970837,-2.005,-3.124,-5.036,-5.71
-2.0,1000000000.0,1.8383215666,2773.320104651841,4546.738740611353,-2.041,-3.304,-5.326,-6.015
-2.0,1000000000.0,1.8383264542,3531.83169791957,4470.951924630434,-2.128,-3.494,-5.619,-6.331
-2.0,1000000000.0,1.8383322954,4178.303666466218,4418.755787887183,-2.183,-3.62,-5.82,-6.551
-2.0,1000000000.0,1.8383390903,4560.369159512959,4390.358656409448,-2.204,-3.681,-5.925,-6.665
-2.0,1000000000.0,1.838346839,4720.630412635905,4376.228599453495,-2.207,-3.703,-5.968,-6.712
-2.0,1000000000.0,1.8383556604,4786.300923226385,4369.180633852881,-2.202,-3.709,-5.985,-6.733
-2.0,1000000000.0,1.8383560181,5495.408738576249,4328.127042202217,-2.231,-3.799,-6.148,-6.91
-2.0,1000000000.0,1.8383575678,4285.485203974396,4400.479478359837,-2.167,-3.626,-5.852,-6.589
-2.0,1000000000.0,1.8383603096,2703.9583641088434,4537.326169379414,-1.999,-3.271,-5.303,-5.996
-2.0,1000000000.0,1.8383644819,2213.094709605639,4598.328567699996,-1.956,-3.113,-5.054,-5.733
-2.0,1000000000.0,1.8383700848,2355.049283896009,4575.093773298477,-1.958,-3.16,-5.134,-5.818
-2.0,1000000000.0,1.8383772373,2992.264636608189,4496.763011769069,-2.017,-3.342,-5.428,-6.134
-2.0,1000000000.0,1.8383859396,3845.9178204535356,4413.671434634397,-2.282,-3.649,-5.738,-6.479
-2.0,1000000000.0,1.8383963108,4591.980128368686,4352.111366239774,-2.442,-3.831,-5.938,-6.682
-2.0,1000000000.0,1.8384084702,5081.594425605605,4313.204006994161,-2.489,-3.908,-6.059,-6.816
-2.0,1000000000.0,1.8384222984,5345.643593969719,4288.446534968204,-2.505,-3.943,-6.123,-6.889
-2.0,1000000000.0,1.8384379148,5533.501092157366,4266.777536749634,-2.509,-3.962,-6.166,-6.94
-2.0,1000000000.0,1.8384383917,6456.542290346556,4217.936138166562,-2.604,-4.091,-6.348,-7.14
-2.0,1000000000.0,1.8384401798,5058.246620031143,4292.398159704706,-2.461,-3.89,-6.059,-6.825
-2.0,1000000000.0,1.8384433985,3213.660538640318,4434.04401633441,-2.104,-3.46,-5.541,-6.283
-2.0,1000000000.0,1.8384482861,2618.1830082189863,4496.763011769069,-1.884,-3.201,-5.282,-5.988
-2.0,1000000000.0,1.8384548426,2798.981319634363,4467.864566912838,-1.891,-3.245,-5.364,-6.079
-2.0,1000000000.0,1.8384633064,3548.133892335753,4379.25263541926,-2.197,-3.565,-5.651,-6.391
-2.0,1000000000.0,1.8384735584,4528.975799036209,4285.485203974396,-2.34,-3.767,-5.94,-6.709
-2.0,1000000000.0,1.8384857178,5382.697825162882,4211.143104363183,-2.411,-3.892,-6.149,-6.946
-2.0,1000000000.0,1.8385000229,5942.921586155727,4159.106104940223,-2.432,-3.951,-6.271,-7.089
-2.0,1000000000.0,1.8385162354,6280.58358813318,4118.129505138526,-2.416,-3.966,-6.339,-7.174
-2.0,1000000000.0,1.8385345936,6516.283940608428,4078.4956177127,-2.385,-3.966,-6.388,-7.24
-2.0,1000000000.0,1.8385350704,7762.4711662869195,4016.983057462358,-2.433,-4.078,-6.593,-7.473
-2.0,1000000000.0,1.8385368586,6095.368972401694,4095.434646443952,-2.348,-3.913,-6.311,-7.157
-2.0,1000000000.0,1.8385400772,3899.419866765436,4247.173474714387,-2.135,-3.578,-5.786,-6.571
-2.0,1000000000.0,1.8385448456,3162.2776601683795,4315.19076827765,-2.009,-3.403,-5.538,-6.298
-2.0,1000000000.0,1.8385515213,3372.873086588689,4275.62886151586,-2.024,-3.444,-5.619,-6.394
-2.0,1000000000.0,1.838559866,4236.429660495409,4169.653822449889,-2.107,-3.6,-5.895,-6.711
-2.0,1000000000.0,1.838570118,5345.643593969719,4057.8874759172845,-2.146,-3.731,-6.174,-7.037
-2.0,1000000000.0,1.8385822773,6280.58358813318,3965.518679916798,-2.12,-3.793,-6.37,-7.276
-2.0,1000000000.0,1.8385964632,6886.522963442762,3894.933077036545,-2.08,-3.804,-6.481,-7.42
-2.0,1000000000.0,1.8386126757,7211.074791828998,3834.4228144309195,-2.038,-3.785,-6.536,-7.508
-2.0,1000000000.0,1.8386309147,7447.319739059889,3775.72190925416,-1.976,-3.746,-6.573,-7.579
-2.0,1000000000.0,1.8386313915,9057.326008981998,3696.5790681932745,-2.052,-3.856,-6.788,-7.84
-2.0,1000000000.0,1.8386330605,7128.530301265198,3783.5545512323115,-1.944,-3.711,-6.527,-7.528
-2.0,1000000000.0,1.8386361599,4602.565735813559,3951.8458892843655,-1.787,-3.447,-6.029,-6.943
-2.0,1000000000.0,1.8386409283,3706.80721782576,4029.025350832952,-1.72,-3.309,-5.778,-6.657
-2.0,1000000000.0,1.8386472464,3953.666200681279,3981.0717055349733,-1.688,-3.321,-5.86,-6.761
-2.0,1000000000.0,1.8386553526,4931.738039549359,3859.2241159472915,-1.676,-3.405,-6.121,-7.08
-2.0,1000000000.0,1.838665247,6151.7687270986835,3733.3611171608127,-1.698,-3.486,-6.369,-7.399
-2.0,1000000000.0,1.8386770487,7177.942912713615,3630.780547701014,-1.679,-3.513,-6.536,-7.629
-2.0,1000000000.0,1.838690877,7816.278045883293,3554.6758199906994,-1.62,-3.491,-6.624,-7.768
-2.0,1000000000.0,1.8387064934,8165.823713585923,3493.8157638329217,-1.524,-3.435,-6.672,-7.856
-2.0,1000000000.0,1.8387242556,8394.599865193974,3437.1619861753497,-1.408,-3.364,-6.707,-7.926
