FeH,Age,Mini,L,Te,Bmag,Vmag,Jmag,Kmag
-0.6,4999999950.07973,0.0900000036,0.0004931738039549359,2593.5820990111324,19.631,17.605,10.892,10.245
-0.6,4999999950.07973,0.0935540423,0.0005902010801718441,2659.5000327215175,19.157,17.162,10.722,10.05
-0.6,4999999950.07973,0.0999553651,0.000801678063387679,2775.8756035343426,18.176,16.265,10.444,9.725
-0.6,4999999950.07973,0.119866088,0.0014962356560944327,2993.642942739855,16.443,14.648,9.865,9.086
-0.6,4999999950.07973,0.139776811,0.0022908676527677724,3128.959918963571,15.44,13.709,9.46,8.662
-0.6,4999999950.07973,0.159687534,0.003176874070649769,3224.0368719181865,14.763,13.081,9.143,8.338
-0.6,4999999950.07973,0.1995089799,0.0052360043658575,3357.3761424295453,13.841,12.229,8.652,7.842
-0.6,4999999950.07973,0.2492858022,0.00833681184619634,3463.378846082793,13.082,11.531,8.184,7.372
-0.6,4999999950.07973,0.2990626097,0.012078138351067804,3538.343568147222,12.521,11.011,7.807,6.993
-0.6,4999999950.07973,0.3042746186,0.012560299636948748,3544.8674447379985,12.466,10.96,7.769,6.955
-0.6,4999999950.07973,0.3488394022,0.016982436524617443,3602.466907114875,12.031,10.553,7.461,6.644
-0.6,4999999950.07973,0.3986162245,0.024099054286865942,3698.281797802663,11.487,10.05,7.117,6.296
-0.6,4999999950.07973,0.4483930469,0.03523708710424871,3821.202031837345,10.886,9.504,6.744,5.921
-0.6,4999999950.07973,0.4981698394,0.053210825926679424,3999.4474976109736,10.199,8.897,6.35,5.534
-0.6,4999999950.07973,0.5413472652,0.07834296427662116,4222.795013060563,9.497,8.309,5.987,5.193
-0.6,4999999950.07973,0.5479466915,0.08298507675144226,4255.984131337431,9.395,8.224,5.935,5.145
-0.6,4999999950.07973,0.5977234244,0.12647363474711512,4559.319216592223,8.544,7.542,5.558,4.842
-0.6,4999999950.07973,0.647500217,0.19010782799233,4888.774438941448,7.772,6.908,5.215,4.603
-0.6,4999999950.07973,0.6568220854,0.20464446367246744,4948.801109202861,7.646,6.802,5.154,4.56
-0.6,4999999950.07973,0.6876105666,0.2594179362118814,5145.173213816577,7.25,6.468,4.958,4.421
-0.6,4999999950.07973,0.6972771287,0.27925438412373377,5207.148940339917,7.132,6.369,4.899,4.378
-0.6,4999999950.07973,0.7068567872,0.2999162518987651,5267.444883319061,7.019,6.274,4.841,4.335
-0.6,4999999950.07973,0.7304146886,0.3572728381519289,5415.019189534895,6.752,6.048,4.7,4.23
-0.6,4999999950.07973,0.7471474409,0.40364539296760493,5519.503333867388,6.569,5.894,4.602,4.155
-0.6,4999999950.07973,0.7522014976,0.4187935651179184,5547.534349517692,6.518,5.85,4.572,4.131
-0.6,4999999950.07973,0.7805631757,0.5128613839913648,5700.330022189607,6.233,5.605,4.404,3.994
-0.6,4999999950.07973,0.7970178127,0.5767664633922508,5787.619883491208,6.071,5.467,4.307,3.913
-0.6,4999999950.07973,0.8049163818,0.610942024905572,5825.054593417401,5.996,5.402,4.259,3.873
-0.6,4999999950.07973,0.824056685,0.6982324040771714,5914.25437756224,5.816,5.246,4.144,3.773
-0.6,4999999950.07973,0.8412923217,0.7888601176185545,5992.389025834782,5.657,5.108,4.04,3.683
-0.6,4999999950.07973,0.8468881845,0.8203515443298183,6017.27694025024,5.605,5.063,4.006,3.653
-0.6,4999999950.07973,0.851375699,0.8472274141405964,6035.315805032603,5.565,5.028,3.978,3.629
-0.6,4999999950.07973,0.8699150681,0.9660508789898133,6109.420249055721,5.398,4.881,3.862,3.526
-0.6,4999999950.07973,0.8875662088,1.096478196143185,6175.896369491144,5.239,4.74,3.75,3.425
-0.6,4999999950.07973,0.8967584372,1.169499391019871,6208.690342300638,5.158,4.667,3.69,3.371
-0.6,4999999950.07973,0.8968983889,1.169499391019871,6210.120110685405,5.157,4.666,3.689,3.371
-0.6,4999999950.07973,0.9100422263,1.288249551693134,6256.046959640024,5.039,4.56,3.602,3.291
-0.6,4999999950.07973,0.9332552552,1.5275660582380726,6335.778706712548,4.829,4.37,3.445,3.146
-0.6,4999999950.07973,0.946628809,1.6904409316432643,6379.696226625793,4.706,4.258,3.35,3.059
-0.6,4999999950.07973,0.9537620544,1.7823787674480895,6404.717815693422,4.64,4.198,3.3,3.013
-0.6,4999999950.07973,0.9717079997,2.046444636724674,6462.491724953881,4.472,4.044,3.17,2.892
-0.6,4999999950.07973,0.9878528118,2.3173946499684783,6507.287577548787,4.323,3.906,3.05,2.779
-0.6,4999999950.07973,0.9964991808,2.4774220576332855,6528.298441586141,4.245,3.833,2.984,2.716
-0.6,4999999950.07973,1.0038872957,2.6242185433844414,6544.854558704405,4.179,3.77,2.929,2.663
-0.6,4999999950.07973,1.0148848295,2.864177969906581,6565.9867197835665,4.075,3.671,2.839,2.577
-0.6,4999999950.07973,1.0238983631,3.0974192992165803,6581.122882388993,3.986,3.586,2.761,2.502
-0.6,4999999950.07973,1.0348360538,3.4119291162192855,6596.293937452819,3.875,3.479,2.66,2.404
-0.6,4999999950.07973,1.0355949402,3.4355794789987466,6597.8129651395675,3.867,3.472,2.653,2.397
-0.6,4999999950.07973,1.0372121334,3.4914031547858615,6597.8129651395675,3.85,3.455,2.637,2.38
-0.6,4999999950.07973,1.0463694334,3.8018939632056115,6599.332342635646,3.753,3.359,2.542,2.286
-0.6,4999999950.07973,1.0470769405,3.8282474331682264,6599.332342635646,3.746,3.352,2.535,2.279
-0.6,4999999950.07973,1.0549225807,4.14954042634363,6591.738952443213,3.658,3.263,2.445,2.188
-0.6,4999999950.07973,1.0623414516,4.508167045414602,6569.011164762662,3.573,3.175,2.349,2.089
-0.6,4999999950.07973,1.0638264418,4.581418867145335,6561.452663029057,3.556,3.157,2.328,2.067
-0.6,4999999950.07973,1.0654547215,4.666593803142887,6552.39394015981,3.538,3.138,2.305,2.043
-0.6,4999999950.07973,1.0725839138,5.05824662003114,6502.7940547237,3.461,3.051,2.2,1.931
-0.6,4999999950.07973,1.0797092915,5.495408738576246,6428.357186713859,3.388,2.963,2.085,1.804
-0.6,4999999950.07973,1.0849847794,5.861381645140288,6332.861644521976,3.343,2.898,1.982,1.688
-0.6,4999999950.07973,1.0894621611,6.165950018614822,6200.118642087248,3.329,2.853,1.884,1.567
-0.6,4999999950.07973,1.0925849676,6.2805835881331795,6056.1970872775855,3.354,2.843,1.812,1.47
-0.6,4999999950.07973,1.0949251652,6.223002851691596,5904.729404069866,3.42,2.869,1.771,1.401
-0.6,4999999950.07973,1.0962398052,6.095368972401692,5800.961725227041,3.483,2.904,1.758,1.367
-0.6,4999999950.07973,1.0973322392,5.942921586155727,5701.642722807472,3.55,2.944,1.752,1.341
-0.6,4999999950.07973,1.0983814001,5.847900841444807,5607.8966337451,3.606,2.976,1.738,1.307
-0.6,4999999950.07973,1.0991731882,5.807644175213121,5538.599982773566,3.645,2.996,1.724,1.278
-0.6,4999999950.07973,1.0999718904,5.874893525297767,5482.769649208536,3.656,2.993,1.692,1.234
-0.6,4999999950.07973,1.1011948586,6.0534087475391365,5403.809120790774,3.662,2.977,1.635,1.158
-0.6,4999999950.07973,1.1023154259,6.4268771731701975,5354.266700982399,3.623,2.924,1.555,1.066
-0.6,4999999950.07973,1.1027981043,6.591738952443213,5334.57714525135,3.604,2.899,1.519,1.026
-0.6,4999999950.07973,1.1034468412,6.902398038402419,5314.959995066477,3.564,2.853,1.463,0.964
-0.6,4999999950.07973,1.1047489643,7.62079010025412,5278.37206781577,3.476,2.755,1.344,0.837
-0.6,4999999950.07973,1.1059675217,8.452788451602899,5249.283155466852,3.379,2.649,1.223,0.708
-0.6,4999999950.07973,1.1071089506,9.397233105646377,5225.164890163825,3.277,2.541,1.1,0.579
-0.6,4999999950.07973,1.1081559658,10.447202192207998,5203.553211345586,3.175,2.432,0.978,0.452
-0.6,4999999950.07973,1.1091220379,11.587773561551263,5183.224264170613,3.073,2.323,0.858,0.326
-0.6,4999999950.07973,1.1100857258,12.971792709839558,5161.7860549667275,2.963,2.206,0.728,0.19
-0.6,4999999950.07973,1.1108900309,14.387985782558452,5141.620281354357,2.864,2.1,0.611,0.067
-0.6,4999999950.07973,1.1116788387,16.032453906900418,5120.354149383066,2.759,1.988,0.486,-0.063
-0.6,4999999950.07973,1.112398982,17.864875748520507,5098.001982256051,2.655,1.878,0.362,-0.193
-0.6,4999999950.07973,1.1130501032,19.860949173573715,5075.747390289013,2.554,1.77,0.24,-0.321
-0.6,4999999950.07973,1.1136157513,21.928049353504484,5054.753713597985,2.459,1.668,0.124,-0.443
-0.6,4999999950.07973,1.1141498089,24.322040090738145,5031.529229893185,2.363,1.563,0.005,-0.569
-0.6,4999999950.07973,1.114633441,26.915348039269155,5008.411452998231,2.269,1.462,-0.112,-0.693
-0.6,4999999950.07973,1.1150836945,29.785164294291896,4984.252094042598,2.177,1.36,-0.231,-0.819
-0.6,4999999950.07973,1.115478158,32.809529311311906,4960.2092739597465,2.089,1.264,-0.343,-0.939
-0.6,4999999950.07973,1.1158612967,36.30780547701014,4935.145940408827,1.998,1.163,-0.461,-1.065
-0.6,4999999950.07973,1.1162004471,39.99447497610976,4911.339996469978,1.911,1.067,-0.574,-1.185
-0.6,4999999950.07973,1.1165087223,43.954161543782455,4886.523593428336,1.827,0.974,-0.684,-1.303
-0.6,4999999950.07973,1.1167936325,48.30588020397726,4861.832584649837,1.745,0.883,-0.793,-1.421
-0.6,4999999950.07973,1.1170642376,53.08844442309885,4836.152643020435,1.665,0.791,-0.904,-1.541
-0.6,4999999950.07973,1.1173061132,58.07644175213121,4811.716152521639,1.59,0.704,-1.01,-1.654
-0.6,4999999950.07973,1.117541194,63.53309318517436,4787.4031366341615,1.514,0.617,-1.115,-1.767
-0.6,4999999950.07973,1.1177604198,68.7068440014232,4765.407017251339,1.449,0.542,-1.208,-1.867
-0.6,4999999950.07973,1.1180355549,74.30191378967014,4744.604320607653,1.386,0.467,-1.299,-1.964
-0.6,4999999950.07973,1.1181169748,75.68328950209744,4739.145036236972,1.369,0.449,-1.321,-1.988
-0.6,4999999950.07973,1.118360877,69.02398038402418,4770.896554256487,1.44,0.535,-1.21,-1.867
-0.6,4999999950.07973,1.1184691191,64.41692655151772,4792.918012190856,1.494,0.599,-1.129,-1.779
-0.6,4999999950.07973,1.1185001135,65.16283940608427,4789.608324977883,1.484,0.588,-1.143,-1.794
-0.6,4999999950.07973,1.1186952591,71.77942912713618,4762.116327398207,1.405,0.495,-1.257,-1.916
-0.6,4999999950.07973,1.1188970804,79.25013304804718,4733.692033483014,1.326,0.402,-1.372,-2.041
-0.6,4999999950.07973,1.1190862656,87.29713683881117,4705.437399531806,1.249,0.31,-1.486,-2.163
-0.6,4999999950.07973,1.1192669868,96.16122783836649,4676.274536892873,1.171,0.218,-1.601,-2.288
-0.6,4999999950.07973,1.1194329262,105.92537251772886,4648.362618593011,1.097,0.129,-1.713,-2.409
-0.6,4999999950.07973,1.1195868254,116.6809617060963,4619.553487999654,1.024,0.041,-1.825,-2.53
-0.6,4999999950.07973,1.1197291613,128.23305826560218,4590.922907591308,0.955,-0.048,-1.938,-2.651
-0.6,4999999950.07973,1.1198612452,140.92887984218748,4561.419344219829,0.892,-0.137,-2.05,-2.77
-0.6,4999999950.07973,1.1199809313,154.5254439538414,4533.14906146412,0.834,-0.222,-2.159,-2.887
-0.6,4999999950.07973,1.1200945377,169.82436524617444,4504.016781680873,0.774,-0.309,-2.27,-3.006
-0.6,4999999950.07973,1.1201974154,186.20871366628674,4475.071720476557,0.717,-0.392,-2.378,-3.123
-0.6,4999999950.07973,1.1202952862,204.6444636724674,4445.28899122317,0.66,-0.476,-2.488,-3.241
-0.6,4999999950.07973,1.1203837395,224.3881923782766,4415.704473533126,0.607,-0.557,-2.595,-3.357
-0.6,4999999950.07973,1.1204658747,245.4708915685031,4387.326951325295,0.554,-0.638,-2.702,-3.474
-0.6,4999999950.07973,1.1205420494,269.1534803926917,4358.128185607303,0.502,-0.718,-2.809,-3.59
-0.6,4999999950.07973,1.1206117868,294.44216337987604,4329.123745028265,0.454,-0.794,-2.913,-3.704
-0.6,4999999950.07973,1.120678544,322.84941217126345,4300.312336305446,0.401,-0.87,-3.02,-3.822
-0.6,4999999950.07973,1.1207383871,352.3708710424873,4270.709194407456,0.353,-0.939,-3.122,-3.937
-0.6,4999999950.07973,1.1207959652,385.4783576657717,4242.286549229506,0.305,-1.01,-3.227,-4.054
-0.6,4999999950.07973,1.1208485365,420.7266283844442,4213.082854040085,0.26,-1.077,-3.329,-4.169
-0.6,4999999950.07973,1.1208982468,460.25657358135584,4185.043726669273,0.214,-1.145,-3.432,-4.285
-0.6,4999999950.07973,1.1209456921,503.50060878790475,4156.2340882986055,0.168,-1.214,-3.537,-4.403
-0.6,4999999950.07973,1.1209979057,559.7576014951104,4120.975190973304,0.119,-1.29,-3.66,-4.543
-0.6,4999999950.07973,1.1210380793,610.9420249055721,4092.6065973001096,0.078,-1.354,-3.762,-4.658
-0.6,4999999950.07973,1.121076107,668.3439175686149,4064.4332916521275,0.038,-1.418,-3.863,-4.773
-0.6,4999999950.07973,1.1211191416,743.0191378967014,4029.025350832952,-0.004,-1.489,-3.986,-4.914
-0.6,4999999950.07973,1.1211588383,826.0379495771783,3993.925871780298,-0.041,-1.558,-4.109,-5.054
-0.6,4999999950.07973,1.1211897135,901.571137605957,3966.431879468582,-0.073,-1.615,-4.21,-5.169
-0.6,4999999950.07973,1.1212240458,1002.3052380778994,3932.7831456834174,-0.106,-1.678,-4.331,-5.307
-0.6,4999999950.07973,1.1212559938,1111.7317272815908,3897.6245309771994,-0.134,-1.739,-4.45,-5.445
-0.6,4999999950.07973,1.1212860346,1233.1048332289097,3863.669770540693,-0.16,-1.796,-4.57,-5.582
-0.6,4999999950.07973,1.121314168,1367.7288255958495,3829.1290212080958,-0.186,-1.851,-4.69,-5.721
-0.6,4999999950.07973,1.1213399172,1513.5612484362086,3794.8970620763503,-0.206,-1.901,-4.807,-5.856
-0.6,4999999950.07973,1.1213638783,1671.090614310707,3760.10523668496,-0.219,-1.94,-4.923,-5.991
-0.6,4999999950.07973,1.1213864088,1849.2686189780777,3725.632384666039,-0.223,-1.974,-5.04,-6.126
-0.6,4999999950.07973,1.1214072704,2037.042077705719,3691.4755816541306,-0.219,-1.995,-5.155,-6.257
-0.6,4999999950.07973,1.1214268208,2233.5722228305326,3658.474227939712,-0.211,-2.009,-5.263,-6.382
-0.6,4999999950.07973,1.1214334965,2296.148648112363,3648.379442958715,-0.208,-2.013,-5.296,-6.421
-0.6,4999999950.07973,1.1214334965,61.09420249055721,5052.4264494015615,1.354,0.555,-0.993,-1.562
-0.6,4999999950.07973,1.1216034889,62.8058358813318,5040.806191026696,1.333,0.53,-1.025,-1.597
-0.6,4999999950.07973,1.1217828989,63.53309318517436,5037.3253278550155,1.323,0.518,-1.039,-1.612
-0.6,4999999950.07973,1.1219642162,63.82634861905486,5037.3253278550155,1.317,0.512,-1.045,-1.617
-0.6,4999999950.07973,1.122143507,63.973483548264824,5040.806191026696,1.314,0.509,-1.046,-1.617
-0.6,4999999950.07973,1.1223317385,63.973483548264824,5045.4510838273745,1.311,0.508,-1.044,-1.614
-0.6,4999999950.07973,1.1225146055,63.82634861905486,5050.100256703167,1.308,0.507,-1.042,-1.611
-0.6,4999999950.07973,1.122698307,63.82634861905486,5054.753713597985,1.305,0.506,-1.039,-1.607
-0.6,4999999950.07973,1.1228810549,63.82634861905486,5059.411458459371,1.303,0.505,-1.037,-1.604
-0.6,4999999950.07973,1.1230512857,63.82634861905486,5064.073495238508,1.3,0.504,-1.036,-1.601
-0.6,4999999950.07973,1.1232343912,63.82634861905486,5067.572841772825,1.296,0.502,-1.035,-1.599
-0.6,4999999950.07973,1.1234251261,63.973483548264824,5072.242398926514,1.293,0.5,-1.035,-1.598
-0.6,4999999950.07973,1.12360394,63.973483548264824,5075.747390289013,1.289,0.498,-1.035,-1.597
-0.6,4999999950.07973,1.1237943172,64.12095765851615,5078.085396648894,1.286,0.495,-1.035,-1.597
-0.6,4999999950.07973,1.1239830256,64.12095765851615,5081.594425605605,1.282,0.493,-1.036,-1.597
-0.6,4999999950.07973,1.1239991188,64.12095765851615,5081.594425605605,1.282,0.492,-1.036,-1.597
-0.6,4999999950.07973,1.1241596937,64.26877173170197,5083.935125244855,1.279,0.49,-1.037,-1.597
-0.6,4999999950.07973,1.1243494749,64.41692655151772,5086.276903064366,1.275,0.487,-1.039,-1.598
-0.6,4999999950.07973,1.1245318651,64.56542290346556,5087.448196446911,1.271,0.484,-1.041,-1.599
-0.6,4999999950.07973,1.1247053146,64.71426157485831,5088.619759560772,1.267,0.481,-1.043,-1.601
-0.6,4999999950.07973,1.1248770952,64.86344335482384,5089.791592468075,1.264,0.477,-1.046,-1.604
-0.6,4999999950.07973,1.1250545979,65.16283940608427,5089.791592468075,1.26,0.473,-1.05,-1.608
-0.6,4999999950.07973,1.1252371073,65.46361740672751,5089.791592468075,1.255,0.469,-1.055,-1.612
-0.6,4999999950.07973,1.1252889633,65.46361740672751,5089.791592468075,1.254,0.467,-1.056,-1.614
-0.6,4999999950.07973,1.1253041029,65.46361740672751,5089.791592468075,1.253,0.467,-1.056,-1.614
-0.6,4999999950.07973,1.1254576445,65.76578373554206,5088.619759560772,1.249,0.462,-1.062,-1.62
-0.6,4999999950.07973,1.1256114244,66.22165037017619,5087.448196446911,1.245,0.457,-1.068,-1.626
-0.6,4999999950.07973,1.1257688999,66.52731562017412,5085.1058793510465,1.24,0.452,-1.075,-1.634
-0.6,4999999950.07973,1.1259273291,66.98846094165265,5081.594425605605,1.235,0.445,-1.083,-1.643
-0.6,4999999950.07973,1.1260826588,67.45280276979219,5078.085396648894,1.229,0.438,-1.093,-1.654
-0.6,4999999950.07973,1.1262367964,68.07693586937414,5073.410460372977,1.223,0.43,-1.104,-1.666
-0.6,4999999950.07973,1.1263920069,68.7068440014232,5068.739827890221,1.216,0.421,-1.116,-1.679
-0.6,4999999950.07973,1.1265485287,69.5024317588797,5062.90758346022,1.209,0.411,-1.13,-1.695
-0.6,4999999950.07973,1.1267169714,70.46930689671471,5054.753713597985,1.199,0.398,-1.148,-1.715
-0.6,4999999950.07973,1.1268795729,71.77942912713618,5045.4510838273745,1.188,0.383,-1.169,-1.739
-0.6,4999999950.07973,1.1270285845,73.11390834834177,5033.846868348144,1.174,0.365,-1.194,-1.767
-0.6,4999999950.07973,1.1271898746,75.85775750291836,5014.180920308942,1.15,0.332,-1.24,-1.818
-0.6,4999999950.07973,1.1273469925,82.41381150130022,4965.923214503363,1.094,0.257,-1.347,-1.939
-0.6,4999999950.07973,1.1274164915,91.20108393559097,4913.6022729909155,1.026,0.167,-1.473,-2.08
-0.6,4999999950.07973,1.1274468899,101.15794542598982,4861.832584649837,0.956,0.075,-1.603,-2.226
-0.6,4999999950.07973,1.1274607182,112.46049739669269,4812.824218676023,0.885,-0.018,-1.731,-2.37
-0.6,4999999950.07973,1.1274671555,123.59474334445108,4770.896554256487,0.821,-0.101,-1.846,-2.499
-0.6,4999999950.07973,1.1274700165,131.5224832192239,4743.511960856962,0.779,-0.156,-1.923,-2.584
-0.6,4999999950.07973,1.1274715662,137.08817661648536,4726.06836898339,0.753,-0.194,-1.974,-2.641
-0.6,4999999950.07973,1.1274747849,150.31419660900224,4688.13382145265,0.698,-0.278,-2.086,-2.761
-0.6,4999999950.07973,1.1274795532,165.57699634695277,4648.362618593011,0.641,-0.366,-2.205,-2.89
-0.6,4999999950.07973,1.1274994612,158.8546748597779,4666.593803142887,0.664,-0.33,-2.154,-2.835
-0.6,4999999950.07973,1.1276546717,157.39828644662197,4668.743343920188,0.671,-0.32,-2.142,-2.822
-0.6,4999999950.07973,1.1277271509,172.5837891990204,4631.268924918746,0.619,-0.402,-2.254,-2.944
-0.6,4999999950.07973,1.1277925968,190.54607179632464,4589.865930219982,0.564,-0.491,-2.375,-3.075
-0.6,4999999950.07973,1.1278465986,210.3778439766475,4551.9763814842045,0.51,-0.577,-2.492,-3.203
-0.6,4999999950.07973,1.1278935671,231.20647901755942,4514.399612669502,0.459,-0.66,-2.607,-3.329
-0.6,4999999950.07973,1.1279348135,254.6830252585042,4476.102262460901,0.408,-0.743,-2.722,-3.456
-0.6,4999999950.07973,1.1279706955,280.54336379517133,4440.174108068949,0.359,-0.824,-2.835,-3.581
-0.6,4999999950.07973,1.1280024052,308.31879502493535,4402.50644073913,0.314,-0.903,-2.948,-3.706
-0.6,4999999950.07973,1.1280306578,338.84415613920237,4365.158322401661,0.267,-0.977,-3.061,-3.834
-0.6,4999999950.07973,1.1280562878,372.39170625456865,4329.123745028265,0.221,-1.048,-3.172,-3.96
-0.6,4999999950.07973,1.1280800104,409.26065973001096,4255.984131337431,0.228,-1.087,-3.292,-4.112
-0.6,4999999950.07973,1.1281017065,449.77985489328796,4222.795013060563,0.183,-1.157,-3.401,-4.236
-0.6,4999999950.07973,1.1281220913,493.1738039549359,4187.935651179182,0.142,-1.223,-3.51,-4.36
-0.6,4999999950.07973,1.1281416416,542.0008904016238,4154.320512418612,0.102,-1.29,-3.62,-4.485
-0.6,4999999950.07973,1.1281602383,595.6621435290103,4119.077848677374,0.064,-1.355,-3.73,-4.613
-0.6,4999999950.07973,1.1281772852,653.1305526474723,4085.0746766312514,0.029,-1.417,-3.836,-4.735
-0.6,4999999950.07973,1.1281949282,716.143410212902,4051.3522022926395,-0.001,-1.475,-3.943,-4.858
-0.6,4999999950.07973,1.1282120943,787.0457896950985,4016.058219411669,-0.026,-1.531,-4.052,-4.985
-0.6,4999999950.07973,1.1282273531,868.960429286302,3979.2387763422494,-0.051,-1.589,-4.167,-5.119
-0.6,4999999950.07973,1.1282377243,959.4006315159336,3941.849147142968,-0.073,-1.644,-4.284,-5.255
-0.6,4999999950.07973,1.1282449961,1051.9618738232225,3906.609483459363,-0.091,-1.693,-4.391,-5.381
-0.6,4999999950.07973,1.1282520294,1156.1122421920993,3870.793472432571,-0.104,-1.738,-4.499,-5.507
-0.6,4999999950.07973,1.1282581091,1267.6518658578461,3835.3058245685934,-0.115,-1.778,-4.607,-5.634
-0.6,4999999950.07973,1.1282639503,1393.1568029453035,3796.6450792221963,-0.12,-1.816,-4.718,-5.766
-0.6,4999999950.07973,1.1282696724,1531.0874616820304,3758.374042884443,-0.115,-1.839,-4.827,-5.895
-0.6,4999999950.07973,1.128272891,1573.9828644662198,3743.6910398904515,-0.105,-1.84,-4.862,-5.938
-0.6,4999999950.07973,1.1282739639,1663.4126503701698,3722.202530178502,-0.099,-1.852,-4.926,-6.013
-0.6,4999999950.07973,1.12827456,1741.8068733916145,3702.5420540013483,-0.089,-1.855,-4.982,-6.079
-0.6,4999999950.07973,1.1282755136,1840.7720014689564,3678.7476696641274,-0.074,-1.854,-5.047,-6.156
-0.6,4999999950.07973,1.1282765865,1164.126029410491,3853.8960821181918,-0.067,-1.715,-4.51,-5.528
-0.6,4999999950.07973,1.1282767057,1710.015315090288,3707.660840003112,-0.085,-1.848,-4.96,-6.055
-0.6,4999999950.07973,1.128276825,1352.0725631942764,3798.3939015450715,-0.089,-1.784,-4.684,-5.732
-0.6,4999999950.07973,1.1282769442,1753.880501841762,3697.4303349809716,-0.08,-1.849,-4.989,-6.089
-0.6,4999999950.07973,1.1282770634,1548.816618912481,3746.277983440598,-0.093,-1.827,-4.844,-5.918
-0.6,4999999950.07973,1.1282771826,1503.1419660900224,3756.64364614459,-0.092,-1.817,-4.809,-5.879
-0.6,4999999950.07973,1.1282777786,1621.8100973589299,3726.490341997325,-0.084,-1.833,-4.897,-5.982
-0.6,4999999950.07973,1.1282781363,1741.8068733916145,3697.4303349809716,-0.074,-1.843,-4.984,-6.084
-0.6,4999999950.07973,1.1282784939,1866.3796908346694,3670.2867848109704,-0.061,-1.847,-5.065,-6.178
-0.6,4999999950.07973,1.1282790899,2004.4720273651615,3639.9884030888024,-0.044,-1.847,-5.15,-6.279
-0.6,4999999950.07973,1.1282794476,2133.0449131465775,3613.2665452345186,-0.021,-1.836,-5.227,-6.369
-0.6,4999999950.07973,1.1282801628,2290.8676527677726,3582.613845838672,0.009,-1.815,-5.313,-6.47
-0.6,4999999950.07973,1.1282808781,2443.430552693971,3553.857419860757,0.042,-1.792,-5.391,-6.561
-0.6,4999999950.07973,1.1282821894,2612.1613543992053,3521.2754591922267,0.094,-1.741,-5.475,-6.66
-0.6,4999999950.07973,1.128282547,2624.218543384442,3518.8438882095843,0.102,-1.733,-5.481,-6.667
-0.6,4999999950.07973,1.1282826662,2624.218543384442,3518.8438882095843,0.102,-1.733,-5.481,-6.667
-0.6,4999999950.07973,1.1282827854,1595.879147236732,3718.7758332493545,-0.047,-1.801,-4.882,-5.971
-0.6,4999999950.07973,1.1282829046,1216.1860006463678,3831.7750036138436,-0.059,-1.727,-4.564,-5.593
-0.6,4999999950.07973,1.128283143,783.429642766212,4022.5365599868255,-0.02,-1.532,-4.048,-4.977
-0.6,4999999950.07973,1.1282835007,801.678063387679,4010.513660865759,-0.02,-1.541,-4.075,-5.01
-0.6,4999999950.07973,1.1282838583,1028.0162981264734,3899.419866765436,-0.04,-1.654,-4.366,-5.359
-0.6,4999999950.07973,1.1282844543,1462.1771744567184,3746.277983440598,-0.035,-1.766,-4.781,-5.856
-0.6,4999999950.07973,1.1282850504,1972.4227361148535,3620.762177566733,0.033,-1.777,-5.139,-6.278
-0.6,4999999950.07973,1.1282858849,2393.3157564053877,3540.788613684981,0.11,-1.723,-5.373,-6.55
-0.6,4999999950.07973,1.1282867193,2642.4087573219476,3498.6459845201675,0.172,-1.661,-5.494,-6.689
-0.6,4999999950.07973,1.128287673,2754.2287033381663,3478.5640153042373,0.209,-1.623,-5.545,-6.75
-0.6,4999999950.07973,1.1282887459,2805.433637951713,3466.5702053333894,0.237,-1.595,-5.569,-6.78
-0.6,4999999950.07973,1.1282887459,1949.8445997580454,3608.278079727421,0.086,-1.725,-5.13,-6.274
-0.6,4999999950.07973,1.1282889843,1318.2567385564075,3767.0379898390893,0.017,-1.697,-4.664,-5.728
-0.6,4999999950.07973,1.1282893419,849.1804750363135,3954.5766707846387,0.037,-1.528,-4.15,-5.114
-0.6,4999999950.07973,1.1282896996,870.9635899560806,3940.9416073228585,0.041,-1.536,-4.178,-5.149
-0.6,4999999950.07973,1.1282902956,1114.2945335917304,3830.8928063841463,0.035,-1.631,-4.468,-5.498
-0.6,4999999950.07973,1.1282910109,1584.893192461114,3679.594830147843,0.078,-1.696,-4.883,-5.993
-0.6,4999999950.07973,1.1282918453,2133.0449131465775,3553.857419860757,0.181,-1.646,-5.243,-6.414
-0.6,4999999950.07973,1.128292799,2582.260190634596,3472.1621617221945,0.297,-1.532,-5.479,-6.687
-0.6,4999999950.07973,1.1282938719,2851.0182675039096,3427.6778654645045,0.391,-1.425,-5.603,-6.83
-0.6,4999999950.07973,1.128295064,2978.5164294291912,3404.865806080549,0.453,-1.354,-5.659,-6.895
-0.6,4999999950.07973,1.1282963753,3040.88502567628,3390.002355756172,0.5,-1.3,-5.688,-6.93
-0.6,4999999950.07973,1.1282964945,2157.744409152667,3526.1436430685917,0.275,-1.554,-5.264,-6.447
-0.6,4999999950.07973,1.1282966137,1462.1771744567184,3685.5304185247937,0.145,-1.626,-4.795,-5.902
-0.6,4999999950.07973,1.1282969713,941.8895965228418,3875.252454410245,0.11,-1.523,-4.278,-5.284
-0.6,4999999950.07973,1.1282974482,966.0508789898131,3862.780230114958,0.113,-1.53,-4.308,-5.32
-0.6,4999999950.07973,1.1282981634,1235.9474334445108,3754.0495447208405,0.127,-1.599,-4.596,-5.667
-0.6,4999999950.07973,1.1282988787,1745.8221529205039,3604.956262788377,0.221,-1.593,-5.01,-6.156
-0.6,4999999950.07973,1.1282998323,2338.837238659356,3480.96775232401,0.373,-1.46,-5.368,-6.572
-0.6,4999999950.07973,1.1283009052,2831.391995799379,3402.5146202702363,0.529,-1.281,-5.605,-6.842
-0.6,4999999950.07973,1.1283022165,3118.8895840939385,3361.243690470534,0.643,-1.143,-5.729,-6.982
-0.6,4999999950.07973,1.1283035278,3265.8783217233567,3343.489779723791,0.702,-1.071,-5.785,-7.045
-0.6,4999999950.07973,1.1283050776,3341.950400261143,3335.031958716416,0.731,-1.039,-5.815,-7.077
