FeH,Age,Mini,L,Te,Bmag,Vmag,Jmag,Kmag
-1.4,12499999625.598028,0.0900000036,0.0006441692655151775,2947.134795608739,17.602,15.593,10.735,10.288
-1.4,12499999625.598028,0.0912824646,0.0007014552984199714,2983.321101768171,17.368,15.368,10.659,10.186
-1.4,12499999625.598028,0.1000000015,0.001218989598924866,3227.750819048055,15.891,14.007,10.174,9.554
-1.4,12499999625.598028,0.1199999973,0.0023496328208483072,3471.362758876978,14.494,12.814,9.564,8.858
-1.4,12499999625.598028,0.1400000006,0.0035727283815192887,3599.15043999954,13.744,12.176,9.159,8.424
-1.4,12499999625.598028,0.1599999964,0.004954501908047901,3684.6818914786804,13.209,11.713,8.837,8.086
-1.4,12499999625.598028,0.2000000179,0.008260379495771783,3801.0186455476655,12.433,11.031,8.323,7.557
-1.4,12499999625.598028,0.25,0.013212956341865752,3900.317844750656,11.755,10.426,7.846,7.072
-1.4,12499999625.598028,0.3000000417,0.018879913490962935,3977.4066910502825,11.246,9.97,7.481,6.708
-1.4,12499999625.598028,0.349999994,0.02523480772480574,4044.827453799996,10.833,9.6,7.185,6.417
-1.4,12499999625.598028,0.400000006,0.03539973410834346,4151.451800405685,10.322,9.153,6.849,6.091
-1.4,12499999625.598028,0.4500000179,0.053088444423098846,4333.112852118383,9.656,8.586,6.457,5.726
-1.4,12499999625.598028,0.5,0.08413951416451952,4613.175745603796,8.853,7.917,6.034,5.364
-1.4,12499999625.598028,0.5500000715,0.13963683610559377,4909.078761526029,8.048,7.226,5.577,4.986
-1.4,12499999625.598028,0.6000000238,0.22750974307720706,5243.243172456372,7.313,6.595,5.156,4.649
-1.4,12499999625.598028,0.6041200161,0.23713737056616552,5274.727156616845,7.251,6.543,5.122,4.621
-1.4,12499999625.598028,0.6156542897,0.266685866452148,5364.138714402962,7.078,6.397,5.025,4.544
-1.4,12499999625.598028,0.6268230081,0.2992264636608189,5451.298956889106,6.915,6.259,4.929,4.466
-1.4,12499999625.598028,0.6372113824,0.333426412763235,5532.227103123719,6.765,6.131,4.84,4.392
-1.4,12499999625.598028,0.6468741298,0.36812897364253144,5606.60551647698,6.625,6.012,4.757,4.322
-1.4,12499999625.598028,0.6499999762,0.38106582339377304,5629.891173942436,6.58,5.973,4.729,4.299
-1.4,12499999625.598028,0.6535936594,0.3953666200681279,5655.877570891539,6.529,5.93,4.698,4.272
-1.4,12499999625.598028,0.6655585766,0.449779854893288,5741.164622073275,6.357,5.783,4.59,4.18
-1.4,12499999625.598028,0.6765500307,0.5069907082747044,5818.35211048072,6.2,5.647,4.488,4.09
-1.4,12499999625.598028,0.6870296597,0.5701642722807475,5889.792572290247,6.048,5.515,4.386,4.001
-1.4,12499999625.598028,0.6967931986,0.6382634861905486,5956.621435290103,5.905,5.389,4.288,3.914
-1.4,12499999625.598028,0.6999999881,0.6637430704019088,5978.606913524932,5.856,5.346,4.255,3.884
-1.4,12499999625.598028,0.706079185,0.7144963260755134,6017.27694025024,5.764,5.264,4.19,3.825
-1.4,12499999625.598028,0.7161963582,0.8128305161640993,6082.750456601517,5.605,5.122,4.073,3.718
-1.4,12499999625.598028,0.7250311971,0.9141132414702502,6137.620051647939,5.459,4.99,3.963,3.618
-1.4,12499999625.598028,0.7333670259,1.030386120441616,6187.283275532346,5.316,4.859,3.853,3.515
-1.4,12499999625.598028,0.7411676049,1.158777356155126,6231.60618945834,5.175,4.729,3.741,3.41
-1.4,12499999625.598028,0.7485134006,1.3031667784522993,6271.9126323092405,5.035,4.598,3.626,3.302
-1.4,12499999625.598028,0.75,1.3365955165464423,6279.137596800936,5.004,4.57,3.601,3.278
-1.4,12499999625.598028,0.7563410997,1.492794409578996,6309.57344480193,4.876,4.449,3.493,3.176
-1.4,12499999625.598028,0.7632979155,1.6982436524617444,6337.237741643961,4.726,4.306,3.362,3.05
-1.4,12499999625.598028,0.7693946958,1.9186687406702894,6354.77239048616,4.587,4.172,3.236,2.927
-1.4,12499999625.598028,0.7712430358,1.9952623149688795,6359.163628244043,4.543,4.129,3.194,2.886
-1.4,12499999625.598028,0.7727301717,2.0653801558105296,6357.699545271866,4.505,4.091,3.157,2.848
-1.4,12499999625.598028,0.7784980536,2.371373705661655,6338.69711256927,4.355,3.939,2.998,2.687
-1.4,12499999625.598028,0.7828696966,2.679168324819032,6297.961479295171,4.232,3.809,2.853,2.536
-1.4,12499999625.598028,0.783613801,2.7415741719278826,6287.818541180465,4.21,3.785,2.826,2.506
-1.4,12499999625.598028,0.7849931717,2.864177969906581,6258.928639214407,4.167,3.737,2.766,2.442
-1.4,12499999625.598028,0.7877127528,3.169567463043491,6173.05291888684,4.079,3.632,2.628,2.29
-1.4,12499999625.598028,0.7896957397,3.451437393358563,6070.158063410441,4.015,3.546,2.5,2.145
-1.4,12499999625.598028,0.7912073731,3.7068072178257596,5960.737545096847,3.968,3.474,2.383,2.009
-1.4,12499999625.598028,0.7924315333,3.953666200681279,5846.554467527501,3.935,3.413,2.273,1.879
-1.4,12499999625.598028,0.7935015559,4.2364296604954115,5729.279373317534,3.901,3.35,2.158,1.741
-1.4,12499999625.598028,0.7943378687,4.560369159512962,5636.376558259543,3.855,3.279,2.046,1.612
-1.4,12499999625.598028,0.7949887514,4.943106869868354,5573.140604637261,3.795,3.202,1.939,1.493
-1.4,12499999625.598028,0.7955343127,5.357966575133416,5528.406895630934,3.723,3.119,1.835,1.38
-1.4,12499999625.598028,0.7956295609,5.445026528424211,5520.774392807573,3.71,3.104,1.817,1.36
-1.4,12499999625.598028,0.7957364917,5.546257129579107,5514.422023817434,3.692,3.084,1.794,1.336
-1.4,12499999625.598028,0.7962994576,6.151768727098682,5478.983593917484,3.593,2.976,1.669,1.203
-1.4,12499999625.598028,0.7967741489,6.77641507610675,5453.809950965599,3.499,2.876,1.555,1.084
-1.4,12499999625.598028,0.797301352,7.603262769401819,5428.7519703968255,3.384,2.754,1.421,0.944
-1.4,12499999625.598028,0.7977890372,8.550667128846834,5406.298239953035,3.268,2.632,1.287,0.804
-1.4,12499999625.598028,0.7982786894,9.68277856261249,5383.937379843645,3.14,2.499,1.143,0.655
-1.4,12499999625.598028,0.7987126708,10.939563662720936,5364.138714402962,3.016,2.37,1.004,0.51
-1.4,12499999625.598028,0.7990811467,12.246161992650489,5345.643593969719,2.903,2.251,0.875,0.377
-1.4,12499999625.598028,0.7993696928,13.489628825916533,5330.893422367013,2.806,2.151,0.767,0.265
-1.4,12499999625.598028,0.7996893525,15.100801541641486,5312.5129290366,2.69,2.03,0.636,0.129
-1.4,12499999625.598028,0.7999950647,17.060823890031234,5291.758304203465,2.569,1.904,0.499,-0.013
-1.4,12499999625.598028,0.8000000119,17.060823890031234,5291.758304203465,2.567,1.901,0.497,-0.015
-1.4,12499999625.598028,0.8002724051,19.230917289101587,5271.08476236396,2.449,1.777,0.361,-0.156
-1.4,12499999625.598028,0.8005145788,21.57744409152667,5251.701096404131,2.333,1.656,0.23,-0.292
-1.4,12499999625.598028,0.8007335067,24.154608344449404,5229.979661821558,2.221,1.537,0.099,-0.428
-1.4,12499999625.598028,0.8009303808,27.039583641088434,5209.547473285554,2.11,1.42,-0.03,-0.562
-1.4,12499999625.598028,0.8011132479,30.269134281013063,5188.000389289609,1.998,1.301,-0.161,-0.7
-1.4,12499999625.598028,0.8012750745,33.884415613920254,5165.352922264228,1.889,1.184,-0.29,-0.834
-1.4,12499999625.598028,0.801426053,38.018939632056124,5142.804319487918,1.777,1.066,-0.422,-0.972
-1.4,12499999625.598028,0.8015595078,42.46195639463128,5119.175279997109,1.671,0.952,-0.55,-1.106
-1.4,12499999625.598028,0.8016784191,47.20630412635904,5096.828259054277,1.568,0.84,-0.674,-1.236
-1.4,12499999625.598028,0.8017887473,52.722986142282274,5073.410460372977,1.464,0.728,-0.8,-1.367
-1.4,12499999625.598028,0.8018866181,58.47900841444806,5050.100256703167,1.366,0.619,-0.923,-1.496
-1.4,12499999625.598028,0.8019788861,65.16283940608427,5025.739801095915,1.265,0.509,-1.048,-1.627
-1.4,12499999625.598028,0.8020620942,72.27698036021702,5001.496854402788,1.167,0.402,-1.17,-1.755
-1.4,12499999625.598028,0.8021398187,80.35261221856173,4977.37084978936,1.071,0.295,-1.292,-1.884
-1.4,12499999625.598028,0.8022143245,89.33054837332953,4952.220800885213,0.974,0.187,-1.415,-2.014
-1.4,12499999625.598028,0.802290678,98.4011105761134,4928.332491971514,0.886,0.088,-1.53,-2.135
-1.4,12499999625.598028,0.8023600578,104.9542428652322,4914.733801992678,0.827,0.023,-1.604,-2.212
-1.4,12499999625.598028,0.8024009466,102.09394837076798,4924.929296050273,0.851,0.051,-1.569,-2.175
-1.4,12499999625.598028,0.8024152517,100.92528860766845,4928.332491971514,0.859,0.062,-1.557,-2.161
-1.4,12499999625.598028,0.8024634123,110.66237839776664,4905.6888610179985,0.776,-0.031,-1.664,-2.274
-1.4,12499999625.598028,0.8025090098,121.33888504649774,4882.0250108670625,0.696,-0.123,-1.772,-2.39
-1.4,12499999625.598028,0.8025534153,133.6595516546442,4857.356732878539,0.613,-0.218,-1.885,-2.51
-1.4,12499999625.598028,0.8025947213,146.89262776438662,4832.813100695309,0.534,-0.314,-1.999,-2.631
-1.4,12499999625.598028,0.8026314974,161.064563517827,4808.393484497285,0.46,-0.407,-2.109,-2.748
-1.4,12499999625.598028,0.8026657104,176.6037820686164,4784.097257646801,0.388,-0.499,-2.219,-2.864
-1.4,12499999625.598028,0.8026973605,193.6421963946607,4757.732275412047,0.32,-0.588,-2.328,-2.979
-1.4,12499999625.598028,0.8027268052,212.32444620002192,4733.692033483014,0.252,-0.678,-2.437,-3.093
-1.4,12499999625.598028,0.8027530909,231.20647901755942,4708.688923442734,0.191,-0.762,-2.541,-3.204
-1.4,12499999625.598028,0.8027777076,252.34807724805754,4683.817878502438,0.13,-0.847,-2.646,-3.315
-1.4,12499999625.598028,0.8028056622,281.1900830398939,4652.645890999017,0.06,-0.949,-2.774,-3.451
-1.4,12499999625.598028,0.8028306961,311.88895840939387,4622.74566491089,-0.004,-1.046,-2.899,-3.582
-1.4,12499999625.598028,0.8028540611,346.73685045253166,4591.980128368686,-0.062,-1.142,-3.025,-3.716
-1.4,12499999625.598028,0.8028748631,382.82474331682283,4562.469770768501,-0.116,-1.233,-3.146,-3.844
-1.4,12499999625.598028,0.8028939366,422.66861426560286,4531.0619497855805,-0.168,-1.318,-3.264,-3.973
-1.4,12499999625.598028,0.8029122353,468.81338214526505,4500.906591456169,-0.229,-1.408,-3.386,-4.105
-1.4,12499999625.598028,0.8029280901,516.416369272071,4471.981517887507,-0.283,-1.49,-3.499,-4.229
-1.4,12499999625.598028,0.8029430509,568.8529308438414,4441.1966136558885,-0.336,-1.57,-3.613,-4.355
-1.4,12499999625.598028,0.8029571772,626.6138646723356,4411.6393317691345,-0.39,-1.652,-3.729,-4.481
-1.4,12499999625.598028,0.8029693365,687.0684400142325,4383.2879341924645,-0.436,-1.726,-3.835,-4.599
-1.4,12499999625.598028,0.8029811978,753.355563733717,4353.113592296378,-0.477,-1.799,-3.946,-4.721
-1.4,12499999625.598028,0.8029922843,827.9421637123345,4324.142525098645,-0.516,-1.871,-4.056,-4.843
-1.4,12499999625.598028,0.803001821,901.571137605957,4297.342811536805,-0.549,-1.935,-4.157,-4.955
-1.4,12499999625.598028,0.8030110598,986.279485631211,4268.742912929737,-0.579,-1.998,-4.262,-5.072
-1.4,12499999625.598028,0.8030199409,1078.9467222298285,4240.333353850188,-0.612,-2.064,-4.368,-5.19
-1.4,12499999625.598028,0.8030277491,1172.1953655481304,4214.053063912862,-0.639,-2.123,-4.465,-5.3
-1.4,12499999625.598028,0.8030354977,1279.3813041575252,4186.007479551019,-0.668,-2.184,-4.568,-5.415
-1.4,12499999625.598028,0.8030426502,1396.3683610559376,4159.106104940223,-0.695,-2.243,-4.668,-5.527
-1.4,12499999625.598028,0.8030492067,1517.050367459337,4134.281080471346,-0.721,-2.299,-4.764,-5.636
-1.4,12499999625.598028,0.8030555248,1648.1623915255086,4107.712125533876,-0.743,-2.354,-4.862,-5.746
-1.4,12499999625.598028,0.8030614257,1790.6058540352947,4082.2537814298526,-0.755,-2.402,-4.958,-5.855
-1.4,12499999625.598028,0.8030669689,1936.4219639466069,4057.8874759172845,-0.765,-2.447,-5.05,-5.958
-1.4,12499999625.598028,0.8030712008,2051.1621788255648,4041.103745134904,-0.772,-2.478,-5.116,-6.032
-1.4,12499999625.598028,0.8030712008,52.48074602497726,5818.35211048072,1.088,0.588,-0.55,-0.945
-1.4,12499999625.598028,0.8031253219,54.57578610912711,5788.952685656601,1.058,0.55,-0.601,-1.002
-1.4,12499999625.598028,0.8031757474,54.82769649208539,5790.2857947463735,1.051,0.544,-0.607,-1.008
-1.4,12499999625.598028,0.8032268286,54.954087385762456,5796.955946535209,1.046,0.54,-0.607,-1.007
-1.4,12499999625.598028,0.8032786846,54.954087385762456,5807.644175213118,1.041,0.538,-0.604,-1.001
-1.4,12499999625.598028,0.8033314943,54.954087385762456,5822.372674224978,1.035,0.537,-0.598,-0.993
-1.4,12499999625.598028,0.8033838868,54.82769649208539,5841.172070928306,1.029,0.536,-0.59,-0.981
-1.4,12499999625.598028,0.8034365773,54.70159628939716,5864.081532764765,1.023,0.535,-0.58,-0.966
-1.4,12499999625.598028,0.8034904599,54.57578610912711,5888.43655355589,1.016,0.534,-0.569,-0.949
-1.4,12499999625.598028,0.8035442829,54.450265284242114,5914.25437756224,1.009,0.534,-0.557,-0.932
-1.4,12499999625.598028,0.803593874,54.32503314924333,5937.450473021954,1.003,0.533,-0.546,-0.917
-1.4,12499999625.598028,0.8036444187,54.20008904016238,5957.993155981378,0.997,0.533,-0.537,-0.902
-1.4,12499999625.598028,0.8036987782,54.0754322945581,5978.606913524932,0.991,0.532,-0.528,-0.889
-1.4,12499999625.598028,0.8037528396,54.0754322945581,5995.149258481517,0.986,0.531,-0.521,-0.878
-1.4,12499999625.598028,0.803804338,53.95106225151276,6008.9695048348585,0.981,0.53,-0.515,-0.87
-1.4,12499999625.598028,0.8038098812,53.95106225151276,6010.353280502418,0.981,0.53,-0.514,-0.869
-1.4,12499999625.598028,0.8038160205,53.95106225151276,6011.737374832779,0.981,0.53,-0.514,-0.869
-1.4,12499999625.598028,0.8038696051,53.95106225151276,6015.8915705346435,0.978,0.529,-0.513,-0.866
-1.4,12499999625.598028,0.8039253354,54.0754322945581,6015.8915705346435,0.977,0.528,-0.514,-0.868
-1.4,12499999625.598028,0.8039779663,54.20008904016238,6008.9695048348585,0.977,0.526,-0.519,-0.874
-1.4,12499999625.598028,0.8040308356,54.32503314924333,5996.52985155335,0.979,0.525,-0.526,-0.884
-1.4,12499999625.598028,0.8040836453,54.57578610912711,5978.606913524932,0.981,0.523,-0.537,-0.899
-1.4,12499999625.598028,0.8041356206,54.82769649208539,5953.878941276854,0.985,0.52,-0.551,-0.918
-1.4,12499999625.598028,0.8041884303,55.207743928075736,5927.88814195578,0.989,0.517,-0.567,-0.939
-1.4,12499999625.598028,0.8041981459,55.207743928075736,5922.430868761306,0.989,0.516,-0.57,-0.944
-1.4,12499999625.598028,0.8042078614,55.335010921573684,5916.978619587192,0.99,0.516,-0.574,-0.948
-1.4,12499999625.598028,0.804256618,55.71857489319299,5888.43655355589,0.993,0.512,-0.592,-0.973
-1.4,12499999625.598028,0.8043044806,56.23413251903491,5857.334144258379,0.996,0.506,-0.612,-0.998
-1.4,12499999625.598028,0.8043540716,56.88529308438413,5823.713479437514,0.998,0.5,-0.634,-1.028
-1.4,12499999625.598028,0.804404676,57.543993733715695,5792.952933981774,0.998,0.492,-0.657,-1.058
-1.4,12499999625.598028,0.8044523597,58.21032177708713,5763.681848104129,0.997,0.483,-0.679,-1.086
-1.4,12499999625.598028,0.8045018911,59.02010801718442,5734.558665459647,0.995,0.473,-0.703,-1.116
-1.4,12499999625.598028,0.8045501113,59.70352865838369,5710.840095300156,0.992,0.464,-0.725,-1.143
-1.4,12499999625.598028,0.8045983911,60.39486293763797,5691.149576288408,0.988,0.454,-0.744,-1.166
-1.4,12499999625.598028,0.8046470881,61.65950018614822,5662.3928903825345,0.979,0.437,-0.775,-1.204
-1.4,12499999625.598028,0.80469805,63.24118513762193,5627.299110134534,0.966,0.414,-0.815,-1.251
-1.4,12499999625.598028,0.8047481179,65.31305526474723,5589.848017438496,0.949,0.386,-0.862,-1.307
-1.4,12499999625.598028,0.8047966361,70.14552984199715,5514.422023817434,0.905,0.32,-0.966,-1.426
-1.4,12499999625.598028,0.8048184514,75.50922276654337,5445.026528424214,0.858,0.252,-1.068,-1.544
-1.4,12499999625.598028,0.8048300743,81.65823713585922,5378.980873168731,0.806,0.178,-1.177,-1.668
-1.4,12499999625.598028,0.8048357368,88.10488730080142,5321.082592667942,0.753,0.106,-1.279,-1.783
-1.4,12499999625.598028,0.8048389554,95.71940712948447,5265.019693769153,0.694,0.027,-1.389,-1.905
-1.4,12499999625.598028,0.8048406243,103.5142166679344,5217.95104239002,0.637,-0.048,-1.49,-2.018
-1.4,12499999625.598028,0.8048415184,109.90058394325209,5185.611776858396,0.592,-0.105,-1.565,-2.101
-1.4,12499999625.598028,0.8048418164,112.71974561755106,5173.685200730607,0.573,-0.129,-1.596,-2.135
-1.4,12499999625.598028,0.8048428297,123.59474334445108,5129.794882858578,0.5,-0.218,-1.711,-2.261
-1.4,12499999625.598028,0.8048437238,133.3521432163324,5094.481623274436,0.44,-0.294,-1.808,-2.367
-1.4,12499999625.598028,0.8048446774,141.2537544622754,5069.907082747044,0.396,-0.349,-1.879,-2.444
-1.4,12499999625.598028,0.8048456311,145.2111617587742,5058.246620031143,0.375,-0.374,-1.911,-2.48
-1.4,12499999625.598028,0.8048478961,143.5489433353656,5062.90758346022,0.384,-0.363,-1.897,-2.464
-1.4,12499999625.598028,0.8048499227,140.28137045619576,5073.410460372977,0.4,-0.343,-1.871,-2.435
-1.4,12499999625.598028,0.8048551083,138.67558288718882,5078.085396648894,0.41,-0.331,-1.855,-2.418
-1.4,12499999625.598028,0.8048859239,144.5439770745928,5059.411458459371,0.379,-0.37,-1.907,-2.474
-1.4,12499999625.598028,0.804905057,154.5254439538414,5029.2126585044525,0.329,-0.434,-1.989,-2.565
-1.4,12499999625.598028,0.804925859,172.18685749860077,4983.104559705293,0.246,-0.538,-2.124,-2.712
-1.4,12499999625.598028,0.8049460053,191.8668740670289,4938.556196176078,0.162,-0.643,-2.258,-2.859
-1.4,12499999625.598028,0.8049636483,213.30449131465772,4897.7881936844615,0.083,-0.742,-2.386,-2.999
-1.4,12499999625.598028,0.8049791455,236.59196974857588,4858.475309374926,0.006,-0.839,-2.511,-3.136
-1.4,12499999625.598028,0.804992795,261.8183008218986,4818.368378188961,-0.064,-0.938,-2.639,-3.274
-1.4,12499999625.598028,0.8050048351,290.4022654464451,4779.692969796099,-0.129,-1.037,-2.766,-3.41
-1.4,12499999625.598028,0.805015564,322.10687912834345,4741.3279957862,-0.19,-1.133,-2.894,-3.546
-1.4,12499999625.598028,0.8050253987,358.0964371026359,4701.105526734309,-0.244,-1.229,-3.024,-3.686
-1.4,12499999625.598028,0.805034399,398.1071705534973,4621.681360922446,-0.234,-1.303,-3.17,-3.85
-1.4,12499999625.598028,0.8050428629,442.58837236262644,4557.220055886471,-0.234,-1.381,-3.311,-4.008
-1.4,12499999625.598028,0.8050507307,492.0395356814511,4521.681832344975,-0.282,-1.468,-3.436,-4.145
-1.4,12499999625.598028,0.8050581813,544.5026528424214,4493.657830540859,-0.341,-1.558,-3.558,-4.277
-1.4,12499999625.598028,0.8050654531,606.7363295885053,4493.657830540859,-0.437,-1.67,-3.678,-4.394
-1.4,12499999625.598028,0.8050707579,660.6934480075957,4564.571349614057,-0.612,-1.805,-3.753,-4.442
-1.4,12499999625.598028,0.8050724268,679.2036326171843,4622.74566491089,-0.747,-1.872,-3.763,-4.436
