FeH,Age,Mini,L,Te,Bmag,Vmag,Jmag,Kmag
-1.8,8999947996.37202,0.0900000036,0.000628058358813318,3047.8949896279833,17.151,15.138,10.789,10.486
-1.8,8999947996.37202,0.0903037712,0.0006456542290346556,3060.5536720536616,17.077,15.068,10.766,10.452
-1.8,8999947996.37202,0.0972977057,0.001169499391019871,3338.8737672512307,15.592,13.757,10.249,9.73
-1.8,8999947996.37202,0.1000000015,0.001452111617587742,3446.6723487178924,15.073,13.339,10.06,9.485
-1.8,8999947996.37202,0.1199999973,0.00285101826750391,3700.8373629231564,13.757,12.27,9.434,8.763
-1.8,8999947996.37202,0.1400000006,0.004335108783875289,3830.010812264487,13.057,11.681,9.028,8.324
-1.8,8999947996.37202,0.1599999964,0.005997910762555094,3916.5168559121084,12.553,11.246,8.705,7.984
-1.8,8999947996.37202,0.2000000179,0.009931160484209335,4030.881212870604,11.825,10.6,8.194,7.463
-1.8,8999947996.37202,0.25,0.01588546748597779,4134.281080471346,11.168,10.008,7.715,6.985
-1.8,8999947996.37202,0.3000000417,0.022803420720004186,4219.879016871569,10.664,9.553,7.347,6.625
-1.8,8999947996.37202,0.349999994,0.03069021988391158,4298.3324252156535,10.249,9.179,7.049,6.338
-1.8,8999947996.37202,0.400000006,0.04102041029866068,4393.3924564447625,9.828,8.803,6.759,6.064
-1.8,8999947996.37202,0.4500000477,0.0588843655355589,4554.07312683254,9.274,8.32,6.412,5.751
-1.8,8999947996.37202,0.5,0.08790225168308842,4764.309868054156,8.654,7.783,6.04,5.427
-1.8,8999947996.37202,0.5500000715,0.13740419750125152,4995.741981759636,8.002,7.213,5.627,5.07
-1.8,8999947996.37202,0.6000000238,0.21527817347243727,5282.019497699969,7.353,6.657,5.237,4.742
-1.8,8999947996.37202,0.6056700945,0.2269864851883822,5319.857509170661,7.277,6.593,5.193,4.706
-1.8,8999947996.37202,0.6198500395,0.2588212915153092,5417.513472313468,7.088,6.434,5.084,4.615
-1.8,8999947996.37202,0.6328452229,0.29174270140011666,5506.808828468291,6.918,6.29,4.984,4.532
-1.8,8999947996.37202,0.6479655504,0.3357376142429547,5613.064076752015,6.725,6.127,4.869,4.435
-1.8,8999947996.37202,0.6499999762,0.3419794425137088,5627.299110134534,6.699,6.105,4.854,4.422
-1.8,8999947996.37202,0.6671484113,0.4008667176273028,5742.48672628783,6.482,5.92,4.723,4.311
-1.8,8999947996.37202,0.6831220388,0.4666593803142886,5850.594519500058,6.284,5.75,4.598,4.203
-1.8,8999947996.37202,0.6979922056,0.5370317963702527,5949.7675675898045,6.101,5.592,4.481,4.101
-1.8,8999947996.37202,0.6999999881,0.5482769649208538,5962.110213666547,6.076,5.571,4.465,4.087
-1.8,8999947996.37202,0.7080407739,0.5915616341754739,6013.121787899338,5.976,5.485,4.399,4.029
-1.8,8999947996.37202,0.7220798135,0.6807693586937414,6102.39056644663,5.802,5.331,4.281,3.925
-1.8,8999947996.37202,0.73500669,0.7744617978025188,6181.58720057992,5.639,5.187,4.168,3.825
-1.8,8999947996.37202,0.7474598885,0.8830799004185628,6256.046959640024,5.478,5.043,4.054,3.723
-1.8,8999947996.37202,0.75,0.9078205301781858,6271.9126323092405,5.445,5.012,4.03,3.701
-1.8,8999947996.37202,0.7585765719,0.9931160484209338,6322.6624992968755,5.332,4.911,3.949,3.628
-1.8,8999947996.37202,0.7704429626,1.135010815672315,6394.402945292843,5.169,4.763,3.829,3.52
-1.8,8999947996.37202,0.7811822295,1.288249551693134,6459.516322696259,5.015,4.622,3.714,3.416
-1.8,8999947996.37202,0.7911611199,1.4588142602753484,6520.786785135783,4.864,4.482,3.599,3.311
-1.8,8999947996.37202,0.8000000119,1.6405897731995394,6575.064234749979,4.722,4.35,3.488,3.209
-1.8,8999947996.37202,0.8003112078,1.6481623915255081,6578.092861041911,4.717,4.345,3.485,3.205
-1.8,8999947996.37202,0.8090890646,1.8706821403658007,6635.902555061003,4.566,4.205,3.367,3.097
-1.8,8999947996.37202,0.8170725107,2.1086281499332893,6686.517721976395,4.421,4.068,3.251,2.989
-1.8,8999947996.37202,0.8244896531,2.38231946935869,6731.316327276249,4.278,3.933,3.134,2.879
-1.8,8999947996.37202,0.8313978314,2.679168324819032,6767.059576741911,4.139,3.801,3.016,2.767
-1.8,8999947996.37202,0.8390524983,3.0902954325135905,6790.472582051879,3.974,3.641,2.868,2.623
-1.8,8999947996.37202,0.8401771784,3.1622776601683795,6793.600430398661,3.949,3.617,2.845,2.601
-1.8,8999947996.37202,0.8420481682,3.2885163087598306,6790.472582051879,3.904,3.572,2.8,2.556
-1.8,8999947996.37202,0.84735322,3.715352290971725,6767.059576741911,3.772,3.439,2.659,2.412
-1.8,8999947996.37202,0.8500000238,3.9810717055349722,6735.967762229426,3.702,3.364,2.574,2.323
-1.8,8999947996.37202,0.8516540527,4.1591061049402205,6715.83472933331,3.657,3.317,2.52,2.267
-1.8,8999947996.37202,0.8524961472,4.265795188015927,6701.931737237644,3.633,3.292,2.49,2.234
-1.8,8999947996.37202,0.8532521725,4.36515832240166,6683.439175686149,3.611,3.267,2.458,2.2
-1.8,8999947996.37202,0.8557907343,4.753352259428054,6593.25693118515,3.534,3.177,2.336,2.064
-1.8,8999947996.37202,0.8577195406,5.116818355403077,6481.865274740793,3.475,3.101,2.218,1.929
-1.8,8999947996.37202,0.8592179418,5.470159628939716,6351.846583394707,3.434,3.037,2.103,1.792
-1.8,8999947996.37202,0.8604136705,5.807644175213121,6212.980635293497,3.406,2.982,1.992,1.658
-1.8,8999947996.37202,0.8611676693,6.039486293763798,6102.39056644663,3.393,2.947,1.911,1.559
-1.8,8999947996.37202,0.8618304133,6.266138646723355,5999.291991559951,3.384,2.916,1.837,1.466
-1.8,8999947996.37202,0.8626154661,6.531305526474723,5873.5409368008195,3.376,2.879,1.747,1.353
-1.8,8999947996.37202,0.8633508086,6.854882264526615,5763.681848104129,3.361,2.837,1.657,1.242
-1.8,8999947996.37202,0.8640964031,7.345138681571149,5665.001119195332,3.324,2.775,1.55,1.117
-1.8,8999947996.37202,0.8648040295,8.053784411990666,5591.135275705602,3.251,2.683,1.423,0.977
-1.8,8999947996.37202,0.8651937246,8.550667128846834,5556.483128371262,3.199,2.622,1.347,0.893
-1.8,8999947996.37202,0.8654626608,8.994975815300352,5539.875439385942,3.152,2.57,1.286,0.829
-1.8,8999947996.37202,0.8660055995,9.977000638225533,5505.540984847947,3.051,2.461,1.161,0.697
-1.8,8999947996.37202,0.8664604425,10.964781961431852,5480.245321768504,2.959,2.362,1.05,0.58
-1.8,8999947996.37202,0.8669072986,12.105981335504822,5458.835409516774,2.86,2.258,0.934,0.46
-1.8,8999947996.37202,0.8673772216,13.551894123510356,5436.257251684059,2.749,2.14,0.805,0.326
-1.8,8999947996.37202,0.8677722812,14.962356560944336,5417.513472313468,2.648,2.035,0.691,0.206
-1.8,8999947996.37202,0.8681797385,16.710906143107078,5397.591335559007,2.536,1.918,0.564,0.075
-1.8,8999947996.37202,0.8685519695,18.620871366628677,5378.980873168731,2.426,1.803,0.439,-0.054
-1.8,8999947996.37202,0.8688880801,20.701413487910425,5360.43457816143,2.319,1.691,0.318,-0.179
-1.8,8999947996.37202,0.8692012429,23.01441817408509,5341.952229293112,2.211,1.579,0.196,-0.305
-1.8,8999947996.37202,0.8694894314,25.58585886905645,5323.533606082614,2.104,1.467,0.075,-0.431
-1.8,8999947996.37202,0.8697618246,28.510182675039097,5303.957066945361,1.995,1.352,-0.05,-0.56
-1.8,8999947996.37202,0.8700006008,31.622776601683793,5285.669448009903,1.89,1.243,-0.168,-0.683
-1.8,8999947996.37202,0.870226264,35.15604405282981,5267.444883319061,1.784,1.131,-0.29,-0.809
-1.8,8999947996.37202,0.8704379201,39.174187710778305,5246.866327776169,1.676,1.018,-0.413,-0.938
-1.8,8999947996.37202,0.8706266284,43.55118736855686,5227.571721671628,1.573,0.909,-0.534,-1.063
-1.8,8999947996.37202,0.8708033562,48.41723675840994,5208.348068742078,1.467,0.797,-0.656,-1.189
-1.8,8999947996.37202,0.8709654212,53.826978251628844,5186.8059455744215,1.363,0.686,-0.778,-1.317
-1.8,8999947996.37202,0.8711115718,59.70352865838369,5166.542425669501,1.26,0.576,-0.899,-1.443
-1.8,8999947996.37202,0.8712458611,66.3743070401909,5146.35807013727,1.158,0.467,-1.02,-1.568
-1.8,8999947996.37202,0.8713691235,73.6207097494736,5125.0723423117615,1.057,0.358,-1.14,-1.693
-1.8,8999947996.37202,0.8714833856,81.65823713585922,5103.874653873108,0.957,0.25,-1.26,-1.819
-1.8,8999947996.37202,0.8715896606,90.57326008982002,5082.764640683731,0.857,0.142,-1.382,-1.945
-1.8,8999947996.37202,0.8716863394,100.46157902783946,5060.5765651324455,0.759,0.035,-1.501,-2.07
-1.8,8999947996.37202,0.8717777729,111.68632477805612,5038.485348423044,0.659,-0.074,-1.624,-2.198
-1.8,8999947996.37202,0.8718583584,123.31048332289096,5016.490567732232,0.565,-0.176,-1.739,-2.32
-1.8,8999947996.37202,0.8719338179,136.4583136588924,4994.591802082485,0.473,-0.278,-1.856,-2.442
-1.8,8999947996.37202,0.8720093369,150.31419660900224,4972.788632333997,0.382,-0.379,-1.97,-2.562
-1.8,8999947996.37202,0.8721082211,165.95869074375614,4952.220800885213,0.292,-0.48,-2.084,-2.682
-1.8,8999947996.37202,0.87213552,162.18100973589299,4960.2092739597465,0.311,-0.457,-2.057,-2.652
-1.8,8999947996.37202,0.8721648455,158.12480392703827,4968.210633313916,0.332,-0.432,-2.026,-2.619
-1.8,8999947996.37202,0.8722139001,172.98163592151016,4946.522626750653,0.252,-0.522,-2.131,-2.73
-1.8,8999947996.37202,0.8722625375,189.67059212111465,4926.063433495771,0.168,-0.617,-2.239,-2.844
-1.8,8999947996.37202,0.8723084331,207.9696687103696,4904.559414451102,0.085,-0.71,-2.348,-2.958
-1.8,8999947996.37202,0.8723506331,227.50974307720716,4883.149268098355,0.005,-0.801,-2.453,-3.07
-1.8,8999947996.37202,0.8723891973,248.31331052955704,4861.832584649837,-0.071,-0.888,-2.556,-3.179
-1.8,8999947996.37202,0.8724258542,271.64392688390836,4840.60895610673,-0.147,-0.978,-2.661,-3.29
-1.8,8999947996.37202,0.8724589348,295.80124665515467,4819.477976251272,-0.215,-1.064,-2.763,-3.397
-1.8,8999947996.37202,0.8724908829,322.84941217126345,4799.544249319445,-0.286,-1.153,-2.867,-3.506
-1.8,8999947996.37202,0.8725250363,357.27283815192885,4773.094139287512,-0.362,-1.253,-2.988,-3.633
-1.8,8999947996.37202,0.8725520968,389.04514499428046,4752.257885621896,-0.423,-1.337,-3.09,-3.74
-1.8,8999947996.37202,0.8725813031,429.53642676488727,4726.06836898339,-0.49,-1.433,-3.209,-3.864
-1.8,8999947996.37202,0.8726041913,466.6593803142887,4704.35405725976,-0.543,-1.512,-3.309,-3.969
-1.8,8999947996.37202,0.8726293445,514.0436515824259,4680.583528968204,-0.604,-1.604,-3.426,-4.091
-1.8,8999947996.37202,0.8726526499,567.5446054085471,4653.717325654918,-0.659,-1.694,-3.542,-4.213
-1.8,8999947996.37202,0.8726742864,623.7348354824192,4629.136637776056,-0.712,-1.782,-3.658,-4.335
-1.8,8999947996.37202,0.8726931214,682.3386941416697,4604.685783785738,-0.755,-1.863,-3.767,-4.449
-1.8,8999947996.37202,0.8727114201,749.8942093324558,4579.3095315174405,-0.797,-1.945,-3.88,-4.568
-1.8,8999947996.37202,0.8727278709,818.4647881347895,4555.121861657392,-0.831,-2.022,-3.988,-4.681
-1.8,8999947996.37202,0.8727428913,893.3054837332954,4530.018754322402,-0.872,-2.094,-4.091,-4.792
-1.8,8999947996.37202,0.8727573752,974.9896377173867,4506.091435730975,-0.914,-2.167,-4.196,-4.904
-1.8,8999947996.37202,0.8727698922,1059.2537251772887,4482.290499966203,-0.947,-2.232,-4.293,-5.009
-1.8,8999947996.37202,0.8727818727,1148.1536214968828,4459.642031793193,-0.983,-2.298,-4.391,-5.114
-1.8,8999947996.37202,0.8727934361,1247.3835142429432,4435.065110253052,-1.019,-2.365,-4.489,-5.221
-1.8,8999947996.37202,0.87280339,1345.8603540559484,4412.655266224519,-1.049,-2.424,-4.58,-5.32
-1.8,8999947996.37202,0.8728134036,1458.814260275349,4390.358656409448,-1.083,-2.487,-4.674,-5.422
-1.8,8999947996.37202,0.8728227019,1577.6112696993484,4367.16901504156,-1.112,-2.547,-4.767,-5.523
-1.8,8999947996.37202,0.872831285,1698.2436524617442,4345.102241715715,-1.136,-2.601,-4.856,-5.62
-1.8,8999947996.37202,0.8728396297,1823.8957023196383,4325.138310350088,-1.159,-2.653,-4.94,-5.712
-1.8,8999947996.37202,0.8728426695,1870.6821403657998,4319.1670367104325,-1.167,-2.67,-4.968,-5.743
-1.8,8999947996.37202,0.8728426695,56.49369748123026,5967.604049723488,0.953,0.502,-0.57,-0.938
-1.8,8999947996.37202,0.8729093671,59.1561634175474,5891.148903295414,0.929,0.46,-0.648,-1.032
-1.8,8999947996.37202,0.8729760051,59.42921586155727,5889.792572290247,0.924,0.456,-0.653,-1.038
-1.8,8999947996.37202,0.8730419278,59.70352865838369,5893.862502405809,0.92,0.452,-0.655,-1.039
-1.8,8999947996.37202,0.8731105924,59.84115950603196,5900.651969956664,0.914,0.448,-0.655,-1.038
-1.8,8999947996.37202,0.8731793761,59.84115950603196,5912.89272693748,0.909,0.445,-0.653,-1.033
-1.8,8999947996.37202,0.8732478619,59.979107625550945,5926.523352402157,0.902,0.443,-0.648,-1.025
-1.8,8999947996.37202,0.8733153343,59.979107625550945,5944.290151976951,0.896,0.44,-0.642,-1.016
-1.8,8999947996.37202,0.8733831048,59.84115950603196,5964.856499193778,0.889,0.438,-0.635,-1.004
-1.8,8999947996.37202,0.873454392,59.84115950603196,5985.494002869498,0.882,0.436,-0.627,-0.991
-1.8,8999947996.37202,0.8735229969,59.84115950603196,6007.586047756748,0.875,0.434,-0.619,-0.979
-1.8,8999947996.37202,0.8735867143,59.84115950603196,6025.595860743575,0.868,0.432,-0.613,-0.969
-1.8,8999947996.37202,0.8736504316,59.70352865838369,6042.2682204988105,0.862,0.43,-0.607,-0.96
-1.8,8999947996.37202,0.8737190366,59.84115950603196,6056.1970872775855,0.857,0.428,-0.603,-0.953
-1.8,8999947996.37202,0.8737873435,59.84115950603196,6065.9663946875335,0.853,0.426,-0.6,-0.948
-1.8,8999947996.37202,0.8738028407,59.84115950603196,6067.363295885053,0.852,0.425,-0.599,-0.947
-1.8,8999947996.37202,0.8738569617,59.84115950603196,6070.158063410441,0.85,0.424,-0.6,-0.948
-1.8,8999947996.37202,0.8739237189,59.979107625550945,6068.760518768,0.849,0.422,-0.602,-0.95
-1.8,8999947996.37202,0.8739932179,60.11737374832779,6061.777620466953,0.849,0.421,-0.607,-0.956
-1.8,8999947996.37202,0.8740645647,60.25595860743578,6046.4435134475925,0.851,0.419,-0.615,-0.967
-1.8,8999947996.37202,0.8741353154,60.53408747539136,6026.983465211851,0.853,0.417,-0.626,-0.982
-1.8,8999947996.37202,0.8742007017,60.81350012787179,6003.437587325644,0.857,0.416,-0.638,-0.999
-1.8,8999947996.37202,0.8742671013,61.09420249055721,5977.230446886993,0.861,0.413,-0.653,-1.02
-1.8,8999947996.37202,0.8742951155,61.235039172477336,5966.230116296915,0.863,0.412,-0.66,-1.029
-1.8,8999947996.37202,0.8743367195,61.517687270986805,5945.6590329583905,0.865,0.41,-0.671,-1.044
-1.8,8999947996.37202,0.8744045496,61.94410750767815,5914.25437756224,0.869,0.407,-0.69,-1.07
-1.8,8999947996.37202,0.8744736314,62.51726927756859,5881.661141430384,0.872,0.402,-0.711,-1.097
-1.8,8999947996.37202,0.8745445609,63.09573444801933,5849.247525411862,0.875,0.396,-0.731,-1.124
-1.8,8999947996.37202,0.874610424,63.82634861905486,5819.691989817644,0.875,0.389,-0.753,-1.152
-1.8,8999947996.37202,0.8746762872,64.56542290346556,5790.2857947463735,0.874,0.381,-0.775,-1.181
-1.8,8999947996.37202,0.8747423887,65.76578373554206,5746.45486597673,0.872,0.368,-0.809,-1.224
-1.8,8999947996.37202,0.8748090863,66.98846094165265,5706.896548928061,0.867,0.353,-0.843,-1.267
-1.8,8999947996.37202,0.8748754859,68.54882264526617,5667.6105494184985,0.859,0.334,-0.881,-1.313
-1.8,8999947996.37202,0.8749436736,70.6317554262962,5622.11856221331,0.845,0.308,-0.929,-1.37
-1.8,8999947996.37202,0.8750121593,74.64487584100665,5553.924862434803,0.814,0.259,-1.011,-1.467
-1.8,8999947996.37202,0.8750599027,80.53784411990665,5473.939586745954,0.768,0.19,-1.12,-1.592
-1.8,8999947996.37202,0.8750819564,86.8960429286302,5405.053537086691,0.717,0.118,-1.227,-1.715
-1.8,8999947996.37202,0.8750907779,93.5405674147552,5348.105920748282,0.666,0.048,-1.326,-1.826
-1.8,8999947996.37202,0.8750947714,100.92528860766845,5297.854174488645,0.61,-0.024,-1.425,-1.936
-1.8,8999947996.37202,0.8750968575,108.39269140212039,5256.540320069867,0.553,-0.095,-1.518,-2.039
-1.8,8999947996.37202,0.875097096,109.64781961431851,5250.491986747626,0.543,-0.107,-1.533,-2.055
-1.8,8999947996.37202,0.8750977516,114.55129414455361,5231.184047796891,0.508,-0.15,-1.586,-2.113
-1.8,8999947996.37202,0.8750990629,125.89254117941675,5191.585371063544,0.429,-0.243,-1.702,-2.238
-1.8,8999947996.37202,0.8751003146,138.03842646028852,5155.846748750552,0.349,-0.336,-1.816,-2.36
-1.8,8999947996.37202,0.8751015067,151.35612484362088,5122.712702645385,0.27,-0.428,-1.927,-2.48
-1.8,8999947996.37202,0.8751031756,167.49428760264382,5087.448196446911,0.183,-0.53,-2.05,-2.612
-1.8,8999947996.37202,0.8751065731,162.9296032639723,5100.350239594463,0.206,-0.502,-2.015,-2.573
-1.8,8999947996.37202,0.8751100302,152.75660582380732,5123.892386646796,0.261,-0.437,-1.936,-2.488
-1.8,8999947996.37202,0.8751330972,148.93610777109154,5128.613839913648,0.283,-0.413,-1.908,-2.459
-1.8,8999947996.37202,0.8751584888,159.220872705117,5102.699578594392,0.229,-0.478,-1.989,-2.546
-1.8,8999947996.37202,0.8751801848,174.18068733916147,5071.074606405172,0.153,-0.568,-2.099,-2.665
-1.8,8999947996.37202,0.8752042055,192.30917289101575,5038.485348423044,0.069,-0.666,-2.218,-2.792
-1.8,8999947996.37202,0.8752263784,211.34890398366477,5008.411452998231,-0.012,-0.761,-2.331,-2.914
-1.8,8999947996.37202,0.8752461076,232.27367963571075,4978.517063739154,-0.091,-0.854,-2.444,-3.034
-1.8,8999947996.37202,0.8752634525,254.6830252585042,4949.940743969349,-0.169,-0.946,-2.555,-3.154
-1.8,8999947996.37202,0.8752787113,279.2543841237339,4921.528450161719,-0.247,-1.038,-2.666,-3.271
-1.8,8999947996.37202,0.8752923012,306.19634336906785,4894.4060897312465,-0.324,-1.128,-2.775,-3.389
-1.8,8999947996.37202,0.8753045201,335.7376142429545,4867.433199621377,-0.398,-1.217,-2.883,-3.505
-1.8,8999947996.37202,0.8753157258,367.2823004980846,4839.4944930166275,-0.47,-1.307,-2.993,-3.622
-1.8,8999947996.37202,0.875325799,401.79081084894,4812.824218676023,-0.533,-1.394,-3.1,-3.736
-1.8,8999947996.37202,0.8753352165,439.5416154378243,4786.300923226385,-0.595,-1.482,-3.21,-3.851
-1.8,8999947996.37202,0.875344038,479.73344863668916,4758.827909888171,-0.651,-1.567,-3.318,-3.965
-1.8,8999947996.37202,0.8753525615,524.8074602497728,4731.512589614803,-0.705,-1.651,-3.428,-4.08
-1.8,8999947996.37202,0.8753607869,574.1164622073275,4704.35405725976,-0.755,-1.734,-3.537,-4.195
-1.8,8999947996.37202,0.8753684759,628.058358813318,4677.351412871981,-0.801,-1.816,-3.645,-4.31
-1.8,8999947996.37202,0.8753756881,687.0684400142325,4650.503761666063,-0.844,-1.897,-3.756,-4.426
-1.8,8999947996.37202,0.8753826618,756.8328950209744,4619.553487999654,-0.885,-1.981,-3.874,-4.551
-1.8,8999947996.37202,0.8753885627,833.681184619634,4589.865930219982,-0.919,-2.064,-3.993,-4.677
-1.8,8999947996.37202,0.8753931522,912.0108393559096,4561.419344219829,-0.943,-2.138,-4.105,-4.796
-1.8,8999947996.37202,0.8753969669,990.8319448927675,4534.192977790139,-0.968,-2.204,-4.206,-4.904
-1.8,8999947996.37202,0.8754009008,1081.4339512979375,4507.129121091093,-1.003,-2.273,-4.311,-5.018
-1.8,8999947996.37202,0.8754039407,1166.8096170609629,4482.290499966203,-1.031,-2.331,-4.402,-5.116
-1.8,8999947996.37202,0.8754072785,1393.1568029453035,4423.845998088853,-1.096,-2.467,-4.615,-5.349
-1.8,8999947996.37202,0.8754080534,1503.1419660900224,4399.466347160466,-1.125,-2.526,-4.706,-5.449
-1.8,8999947996.37202,0.875408113,1510.0801541641476,4398.453449216315,-1.127,-2.529,-4.711,-5.455
-1.8,8999947996.37202,0.8754081726,1520.5475297324954,4396.428352878889,-1.129,-2.534,-4.718,-5.462
-1.8,8999947996.37202,0.8754083514,1584.893192461114,4382.278761036721,-1.141,-2.564,-4.768,-5.517
-1.8,8999947996.37202,0.8754085302,1625.5487557504835,4374.2137356813055,-1.148,-2.582,-4.798,-5.551
-1.8,8999947996.37202,0.8754086494,1663.4126503701698,4365.158322401661,-1.155,-2.6,-4.828,-5.584
-1.8,8999947996.37202,0.8754088879,1713.9573075084252,4355.118736855684,-1.161,-2.618,-4.862,-5.621
-1.8,8999947996.37202,0.8754091859,1774.1894808901661,4343.101708860921,-1.169,-2.642,-4.904,-5.669
-1.8,8999947996.37202,0.8754096627,1896.7059212111465,4319.1670367104325,-1.181,-2.686,-4.984,-5.758
-1.8,8999947996.37202,0.8754104376,2074.9135174549106,4288.446534968204,-1.202,-2.746,-5.092,-5.878
-1.8,8999947996.37202,0.8754105568,2098.9398836235246,4285.485203974396,-1.204,-2.754,-5.104,-5.892
-1.8,8999947996.37202,0.8754107356,2197.8598727848253,4244.240644295681,-1.16,-2.754,-5.165,-5.971
-1.8,8999947996.37202,0.8754108548,1428.8939585111023,4387.326951325295,-1.058,-2.463,-4.653,-5.401
-1.8,8999947996.37202,0.875410974,1028.0162981264734,4500.906591456169,-0.945,-2.215,-4.256,-4.965
-1.8,8999947996.37202,0.8754112124,628.058358813318,4674.121528671508,-0.795,-1.815,-3.649,-4.314
-1.8,8999947996.37202,0.8754115701,635.3309318517436,4667.668449794021,-0.793,-1.822,-3.662,-4.329
-1.8,8999947996.37202,0.8754119873,769.1304402866099,4594.095300365836,-0.849,-1.983,-3.904,-4.588
-1.8,8999947996.37202,0.8754125834,1135.0108156723154,4454.510633598985,-0.953,-2.28,-4.382,-5.106
-1.8,8999947996.37202,0.8754131794,1606.9412530128773,4331.1178393104055,-1.047,-2.525,-4.799,-5.569
-1.8,8999947996.37202,0.8754139543,2023.0191786782718,4250.108331760471,-1.082,-2.67,-5.074,-5.877
-1.8,8999947996.37202,0.8754147887,2290.8676527677726,4203.393032365499,-1.078,-2.732,-5.222,-6.045
-1.8,8999947996.37202,0.8754157424,2426.6100950824143,4179.265867213064,-1.063,-2.755,-5.293,-6.126
-1.8,8999947996.37202,0.8754167557,2506.109253032114,4161.980106186026,-1.044,-2.761,-5.333,-6.173
