FeH,Age,Mini,L,Te,Bmag,Vmag,Jmag,Kmag
-0.6,5499965939.7640295,0.0900000036,0.0004943106869868353,2594.179362118815,19.631,17.605,10.892,10.245
-0.6,5499965939.7640295,0.0999553651,0.000801678063387679,2775.8756035343426,18.175,16.263,10.444,9.725
-0.6,5499965939.7640295,0.119866088,0.0014962356560944327,2994.3323338672667,16.441,14.647,9.864,9.085
-0.6,5499965939.7640295,0.139776811,0.0022908676527677724,3129.6804715636677,15.439,13.708,9.459,8.661
-0.6,5499965939.7640295,0.159687534,0.003176874070649769,3224.779319316378,14.761,13.079,9.142,8.337
-0.6,5499965939.7640295,0.1919122636,0.0048083934844972845,3334.2641276323507,13.994,12.368,8.737,7.927
-0.6,5499965939.7640295,0.1995089799,0.005248074602497728,3358.1492958644226,13.838,12.226,8.65,7.84
-0.6,5499965939.7640295,0.2492858022,0.008375292821268827,3463.378846082793,13.077,11.526,8.18,7.368
-0.6,5499965939.7640295,0.2990626097,0.012133888504649774,3538.343568147222,12.516,11.006,7.803,6.988
-0.6,5499965939.7640295,0.322447747,0.01428893958511103,3569.4392919884644,12.278,10.784,7.636,6.82
-0.6,5499965939.7640295,0.3488394022,0.01702158508394951,3602.466907114875,12.028,10.551,7.459,6.642
-0.6,5499965939.7640295,0.3986162245,0.024154608344449404,3698.281797802663,11.483,10.047,7.114,6.293
-0.6,5499965939.7640295,0.4144537151,0.02741574171927882,3738.522510697288,11.283,9.864,6.991,6.168
-0.6,5499965939.7640295,0.4483930469,0.03539973410834346,3822.0819974268243,10.882,9.499,6.74,5.917
-0.6,5499965939.7640295,0.4981698394,0.053456435939697164,4001.2897354069864,10.191,8.89,6.345,5.529
-0.6,5499965939.7640295,0.5479466915,0.08356030182312478,4260.886835827885,9.381,8.212,5.927,5.137
-0.6,5499965939.7640295,0.5900206566,0.12022644346174129,4519.600000304826,8.652,7.629,5.603,4.876
-0.6,5499965939.7640295,0.5977234244,0.12793813041575247,4566.673896495316,8.524,7.526,5.548,4.834
-0.6,5499965939.7640295,0.647500217,0.1927524913190936,4898.916080940641,7.747,6.888,5.202,4.593
-0.6,5499965939.7640295,0.6693640947,0.2296148648112362,5039.645636126428,7.455,6.641,5.059,4.492
-0.6,5499965939.7640295,0.6954169273,0.2805433637951713,5207.148940339917,7.127,6.365,4.895,4.373
-0.6,5499965939.7640295,0.6972771287,0.28444611074479154,5219.152658354482,7.105,6.345,4.883,4.365
-0.6,5499965939.7640295,0.7118869424,0.31768740706497706,5312.5129290366,6.932,6.2,4.793,4.298
-0.6,5499965939.7640295,0.7330596447,0.3723917062545685,5446.280436471701,6.691,5.996,4.665,4.201
-0.6,5499965939.7640295,0.7471474409,0.41399967481973043,5534.775374571609,6.536,5.865,4.581,4.137
-0.6,5499965939.7640295,0.7605676651,0.457088189614875,5607.8966337451,6.397,5.745,4.499,4.07
-0.6,5499965939.7640295,0.7853078246,0.5470159628939716,5741.164622073275,6.147,5.53,4.348,3.946
-0.6,5499965939.7640295,0.7970178127,0.5956621435290105,5803.633782042343,6.03,5.43,4.277,3.887
-0.6,5499965939.7640295,0.8032813668,0.6237348354824193,5833.107765394218,5.97,5.378,4.238,3.853
-0.6,5499965939.7640295,0.8200816512,0.7046930689671469,5911.531389808275,5.808,5.237,4.133,3.763
-0.6,5499965939.7640295,0.8361667395,0.7925013304804718,5984.115950603199,5.655,5.105,4.033,3.675
-0.6,5499965939.7640295,0.8468881845,0.8570378452303696,6032.537079266128,5.554,5.016,3.965,3.615
-0.6,5499965939.7640295,0.8483200669,0.8649679187756932,6038.095810744278,5.541,5.005,3.956,3.607
-0.6,5499965939.7640295,0.8655413389,0.9817479430199844,6105.201468341019,5.381,4.863,3.843,3.507
-0.6,5499965939.7640295,0.8810733557,1.101539309541415,6163.1111474198415,5.237,4.735,3.739,3.413
-0.6,5499965939.7640295,0.8962469101,1.233104833228909,6218.705637987511,5.096,4.608,3.635,3.318
-0.6,5499965939.7640295,0.8967584372,1.2387965865303692,6220.137712744861,5.091,4.603,3.631,3.314
-0.6,5499965939.7640295,0.9104281068,1.3740419750125152,6267.581644592105,4.963,4.488,3.535,3.226
-0.6,5499965939.7640295,0.930527389,1.6069412530128773,6337.237741643961,4.771,4.313,3.389,3.091
-0.6,5499965939.7640295,0.946628809,1.8323144223712116,6388.516193898019,4.614,4.169,3.265,2.976
-0.6,5499965939.7640295,0.9482716322,1.8578044550916986,6394.402945292843,4.598,4.155,3.253,2.964
-0.6,5499965939.7640295,0.9640368223,2.1086281499332893,6441.692655151775,4.444,4.012,3.13,2.848
-0.6,5499965939.7640295,0.9788810015,2.3768402866248763,6475.898004649498,4.303,3.88,3.012,2.736
-0.6,5499965939.7640295,0.9913324714,2.6424087573219466,6499.80009683025,4.181,3.763,2.905,2.633
-0.6,5499965939.7640295,0.9964991808,2.7669416454115114,6507.287577548787,4.128,3.712,2.858,2.587
-0.6,5499965939.7640295,0.9994224906,2.837919028441556,6513.283771823169,4.097,3.683,2.831,2.562
-0.6,5499965939.7640295,1.0100951195,3.1405086938762174,6528.298441586141,3.983,3.573,2.728,2.461
-0.6,5499965939.7640295,1.0108356476,3.1622776601683795,6528.298441586141,3.975,3.566,2.72,2.453
-0.6,5499965939.7640295,1.012370348,3.206269324505466,6529.801810928715,3.958,3.549,2.704,2.437
-0.6,5499965939.7640295,1.0223380327,3.548133892335755,6529.801810928715,3.847,3.439,2.595,2.328
-0.6,5499965939.7640295,1.0313831568,3.9174187710778305,6514.783683512198,3.742,3.332,2.484,2.215
-0.6,5499965939.7640295,1.0402513742,4.335108783875289,6480.372941922908,3.638,3.222,2.361,2.088
-0.6,5499965939.7640295,1.0421186686,4.436086439314326,6469.9362280868145,3.616,3.198,2.333,2.058
-0.6,5499965939.7640295,1.0463694334,4.677351412871983,6428.357186713859,3.567,3.141,2.261,1.98
-0.6,5499965939.7640295,1.0498421192,4.886523593428335,6392.930749102151,3.528,3.094,2.201,1.915
-0.6,5499965939.7640295,1.0554355383,5.260172663907062,6303.764788294872,3.473,3.02,2.091,1.791
-0.6,5499965939.7640295,1.0595924854,5.520774392807573,6194.410750767812,3.45,2.972,2.0,1.682
-0.6,5499965939.7640295,1.0631291866,5.688529308438414,6050.6216915829655,3.467,2.954,1.92,1.576
-0.6,5499965939.7640295,1.0656001568,5.675446054085471,5903.369946398826,3.52,2.968,1.87,1.499
-0.6,5499965939.7640295,1.067453742,5.584701947368308,5763.681848104129,3.592,3.003,1.84,1.442
-0.6,5499965939.7640295,1.0687578917,5.495408738576246,5651.97197817602,3.657,3.037,1.822,1.401
-0.6,5499965939.7640295,1.06975317,5.470159628939716,5569.292144857989,3.696,3.055,1.799,1.36
-0.6,5499965939.7640295,1.0710121393,5.495408738576246,5468.900223137939,3.735,3.068,1.76,1.299
-0.6,5499965939.7640295,1.0725064278,5.79428696426881,5380.219571891122,3.722,3.03,1.675,1.192
-0.6,5499965939.7640295,1.0737295151,6.208690342300636,5325.985748490616,3.673,2.965,1.581,1.086
-0.6,5499965939.7640295,1.0743415356,6.516283940608426,5307.622176426454,3.632,2.919,1.524,1.024
-0.6,5499965939.7640295,1.0755703449,7.177942912713617,5271.08476236396,3.544,2.821,1.407,0.897
-0.6,5499965939.7640295,1.0767205954,7.961593504173188,5243.243172456372,3.446,2.715,1.285,0.769
-0.6,5499965939.7640295,1.0777981281,8.851156098308353,5219.152658354482,3.345,2.606,1.162,0.64
-0.6,5499965939.7640295,1.0787867308,9.840111057611336,5198.762768142835,3.242,2.497,1.04,0.512
-0.6,5499965939.7640295,1.0796989202,10.939563662720936,5178.452536000238,3.139,2.388,0.92,0.386
-0.6,5499965939.7640295,1.0806090832,12.246161992650489,5157.034063026461,3.028,2.27,0.789,0.25
-0.6,5499965939.7640295,1.0813689232,13.583134465871542,5138.069802323445,2.928,2.163,0.671,0.127
-0.6,5499965939.7640295,1.0821142197,15.170503674593368,5116.818355403078,2.822,2.05,0.545,-0.005
-0.6,5499965939.7640295,1.0827945471,16.90440931643264,5095.65480608114,2.717,1.938,0.42,-0.135
-0.6,5499965939.7640295,1.0834097862,18.836490894898002,5072.242398926514,2.614,1.829,0.297,-0.265
-0.6,5499965939.7640295,1.0839444399,20.844908830972887,5051.263219145947,2.518,1.725,0.179,-0.389
-0.6,5499965939.7640295,1.0844490528,23.12064790175595,5028.054772806391,2.42,1.619,0.059,-0.516
-0.6,5499965939.7640295,1.0849063396,25.644840365177174,5004.95295959168,2.324,1.515,-0.06,-0.642
-0.6,5499965939.7640295,1.0853317976,28.444611074479155,4980.810283567242,2.229,1.411,-0.181,-0.77
-0.6,5499965939.7640295,1.0857046843,31.40508693876218,4956.784065941179,2.14,1.313,-0.296,-0.892
-0.6,5499965939.7640295,1.0860669613,34.83373150360118,4931.738039549359,2.046,1.21,-0.416,-1.021
-0.6,5499965939.7640295,1.0863875151,38.459178204535355,4906.818567679515,1.957,1.112,-0.532,-1.144
-0.6,5499965939.7640295,1.0866789818,42.36429660495411,4882.0250108670625,1.871,1.017,-0.645,-1.266
-0.6,5499965939.7640295,1.086948514,46.665938031428865,4856.238413914264,1.787,0.923,-0.757,-1.387
-0.6,5499965939.7640295,1.0872042179,51.40436515824262,4830.5880203977285,1.704,0.828,-0.872,-1.51
-0.6,5499965939.7640295,1.0874329805,56.49369748123026,4805.073110898136,1.626,0.738,-0.981,-1.627
-0.6,5499965939.7640295,1.0876553059,61.94410750767815,4779.692969796099,1.547,0.647,-1.091,-1.746
-0.6,5499965939.7640295,1.08786273,67.45280276979219,4756.636893186042,1.478,0.567,-1.189,-1.851
-0.6,5499965939.7640295,1.0881227255,73.2824533138904,4733.692033483014,1.409,0.486,-1.288,-1.957
-0.6,5499965939.7640295,1.0881998539,74.81695005111546,4728.2453051179655,1.393,0.468,-1.31,-1.981
-0.6,5499965939.7640295,1.088354826,70.6317554262962,4748.9762757306435,1.437,0.521,-1.241,-1.905
-0.6,5499965939.7640295,1.0884805918,65.46361740672751,4773.094139287512,1.494,0.591,-1.153,-1.809
-0.6,5499965939.7640295,1.0885159969,63.82634861905486,4781.894606659083,1.515,0.615,-1.122,-1.776
-0.6,5499965939.7640295,1.0885435343,64.41692655151772,4778.592531515467,1.506,0.605,-1.135,-1.789
-0.6,5499965939.7640295,1.0887184143,71.12135136533291,4751.163763775616,1.426,0.511,-1.25,-1.913
-0.6,5499965939.7640295,1.0888988972,78.52356346100719,4722.804843922316,1.347,0.418,-1.365,-2.037
-0.6,5499965939.7640295,1.0890680552,86.49679187756934,4694.615193825913,1.269,0.326,-1.479,-2.16
-0.6,5499965939.7640295,1.0892294645,95.2796164023652,4665.519403909797,1.192,0.234,-1.594,-2.285
-0.6,5499965939.7640295,1.0893777609,104.9542428652322,4637.671681240619,1.118,0.145,-1.706,-2.406
-0.6,5499965939.7640295,1.0895152092,115.61122421920993,4608.928809808955,1.045,0.057,-1.819,-2.527
-0.6,5499965939.7640295,1.0896422863,127.05741052085419,4579.3095315174405,0.978,-0.033,-1.932,-2.648
-0.6,5499965939.7640295,1.0897600651,139.95873225726177,4550.928370849554,0.916,-0.121,-2.044,-2.767
-0.6,5499965939.7640295,1.0898667574,153.4616982799294,4521.681832344975,0.857,-0.206,-2.153,-2.885
-0.6,5499965939.7640295,1.0899680853,168.65530253887405,4492.623246702932,0.797,-0.294,-2.265,-3.004
-0.6,5499965939.7640295,1.0900598764,184.92686189780778,4463.75140604447,0.74,-0.377,-2.373,-3.121
-0.6,5499965939.7640295,1.0901471376,203.23570109362208,4434.04401633441,0.684,-0.461,-2.483,-3.24
-0.6,5499965939.7640295,1.090225935,222.3309890651403,4404.534336784062,0.631,-0.541,-2.59,-3.356
-0.6,5499965939.7640295,1.0902990103,243.78108183687525,4376.228599453495,0.578,-0.623,-2.697,-3.472
-0.6,5499965939.7640295,1.0903668404,267.30064086633115,4347.103696062099,0.527,-0.702,-2.804,-3.589
-0.6,5499965939.7640295,1.0904289484,292.41523778433367,4318.172626237272,0.479,-0.778,-2.908,-3.703
-0.6,5499965939.7640295,1.0904884338,320.6269324505464,4289.434099967818,0.425,-0.853,-3.015,-3.822
-0.6,5499965939.7640295,1.0905416012,349.94516702835733,4259.9058433220425,0.378,-0.922,-3.118,-3.938
-0.6,5499965939.7640295,1.0905928612,382.82474331682283,4231.555097166164,0.33,-0.992,-3.223,-4.055
-0.6,5499965939.7640295,1.0906397104,418.79356511791826,4202.4252767731205,0.285,-1.06,-3.325,-4.17
-0.6,5499965939.7640295,1.0906839371,457.0881896148752,4173.495984653169,0.239,-1.128,-3.428,-4.286
-0.6,5499965939.7640295,1.0907261372,501.18723362727246,4145.720317867256,0.193,-1.196,-3.533,-4.404
-0.6,5499965939.7640295,1.0907725096,557.1857489319299,4109.604232515482,0.145,-1.272,-3.657,-4.545
-0.6,5499965939.7640295,1.0908083916,608.1350012787176,4081.3139159697193,0.104,-1.336,-3.758,-4.66
-0.6,5499965939.7640295,1.0908421278,665.2731562017412,4054.1517440650287,0.064,-1.399,-3.86,-4.776
-0.6,5499965939.7640295,1.090880394,739.6052750582381,4017.9081084894,0.024,-1.47,-3.984,-4.917
-0.6,5499965939.7640295,1.0909156799,822.2426499470712,3982.9054790171745,-0.013,-1.539,-4.107,-5.058
-0.6,5499965939.7640295,1.0909432173,899.4975815300355,3955.4873505556216,-0.045,-1.596,-4.209,-5.173
-0.6,5499965939.7640295,1.0909737349,997.7000638225536,3921.0285091946057,-0.076,-1.658,-4.329,-5.312
-0.6,5499965939.7640295,1.0910021067,1106.6237839776663,3885.974979543936,-0.103,-1.718,-4.449,-5.45
-0.6,5499965939.7640295,1.0910286903,1227.4392311584072,3851.2348242893136,-0.129,-1.773,-4.569,-5.588
-0.6,5499965939.7640295,1.0910537243,1364.583136588924,3817.684194975441,-0.154,-1.829,-4.69,-5.727
-0.6,5499965939.7640295,1.0910766125,1510.0801541641476,3782.683455893896,-0.171,-1.875,-4.808,-5.863
-0.6,5499965939.7640295,1.0910978317,1671.090614310707,3748.003605517044,-0.182,-1.913,-4.925,-5.999
-0.6,5499965939.7640295,1.0911179781,1849.2686189780777,3712.786702756398,-0.185,-1.945,-5.043,-6.135
-0.6,5499965939.7640295,1.0911364555,2037.042077705719,3677.9007042238622,-0.177,-1.961,-5.158,-6.268
-0.6,5499965939.7640295,1.0911538601,2233.5722228305326,3644.181507888609,-0.167,-1.974,-5.269,-6.395
-0.6,5499965939.7640295,1.0911598206,2296.148648112363,3634.1261606422304,-0.164,-1.978,-5.301,-6.433
-0.6,5499965939.7640295,1.0911598206,60.25595860743578,5048.937562011554,1.372,0.572,-0.978,-1.547
-0.6,5499965939.7640295,1.0913081169,61.80164001384158,5038.485348423044,1.352,0.547,-1.009,-1.582
-0.6,5499965939.7640295,1.0914627314,62.51726927756859,5035.006087879047,1.343,0.536,-1.023,-1.596
-0.6,5499965939.7640295,1.0916198492,62.8058358813318,5035.006087879047,1.337,0.53,-1.028,-1.602
-0.6,5499965939.7640295,1.0917785168,62.95061828571975,5038.485348423044,1.333,0.528,-1.029,-1.601
-0.6,5499965939.7640295,1.0919389725,62.95061828571975,5043.128102663999,1.33,0.527,-1.027,-1.598
-0.6,5499965939.7640295,1.0920971632,62.8058358813318,5047.775135009473,1.328,0.526,-1.024,-1.594
-0.6,5499965939.7640295,1.0922601223,62.8058358813318,5052.4264494015615,1.326,0.526,-1.021,-1.589
-0.6,5499965939.7640295,1.0924178362,62.66138646723353,5058.246620031143,1.324,0.525,-1.019,-1.585
-0.6,5499965939.7640295,1.0925681591,62.66138646723353,5062.90758346022,1.321,0.525,-1.016,-1.582
-0.6,5499965939.7640295,1.0927191973,62.66138646723353,5066.406124332974,1.318,0.523,-1.015,-1.58
-0.6,5499965939.7640295,1.0928871632,62.66138646723353,5071.074606405172,1.315,0.521,-1.014,-1.577
-0.6,5499965939.7640295,1.0930503607,62.66138646723353,5074.578790806499,1.312,0.52,-1.014,-1.576
-0.6,5499965939.7640295,1.0932000875,62.8058358813318,5076.916258882489,1.309,0.518,-1.013,-1.575
-0.6,5499965939.7640295,1.0933488607,62.8058358813318,5080.424479948444,1.306,0.516,-1.014,-1.574
-0.6,5499965939.7640295,1.0934009552,62.8058358813318,5081.594425605605,1.305,0.515,-1.014,-1.574
-0.6,5499965939.7640295,1.0934625864,62.95061828571975,5082.764640683731,1.303,0.514,-1.014,-1.574
-0.6,5499965939.7640295,1.0936057568,62.95061828571975,5083.935125244855,1.3,0.512,-1.015,-1.574
-0.6,5499965939.7640295,1.0937484503,63.09573444801933,5086.276903064366,1.297,0.51,-1.016,-1.575
-0.6,5499965939.7640295,1.093891263,63.24118513762193,5088.619759560772,1.294,0.507,-1.017,-1.576
-0.6,5499965939.7640295,1.0940454006,63.3869711256927,5089.791592468075,1.291,0.504,-1.02,-1.578
-0.6,5499965939.7640295,1.0941944122,63.53309318517436,5089.791592468075,1.287,0.501,-1.022,-1.58
-0.6,5499965939.7640295,1.0943440199,63.67955209079159,5090.9636952309365,1.284,0.497,-1.026,-1.583
-0.6,5499965939.7640295,1.0944914818,63.973483548264824,5090.9636952309365,1.28,0.493,-1.03,-1.587
-0.6,5499965939.7640295,1.094529748,63.973483548264824,5089.791592468075,1.279,0.492,-1.031,-1.589
-0.6,5499965939.7640295,1.094542861,63.973483548264824,5089.791592468075,1.279,0.492,-1.031,-1.589
-0.6,5499965939.7640295,1.0946760178,64.26877173170197,5088.619759560772,1.275,0.487,-1.037,-1.595
-0.6,5499965939.7640295,1.094809413,64.71426157485831,5087.448196446911,1.27,0.483,-1.043,-1.601
-0.6,5499965939.7640295,1.0949459076,65.01296903430907,5085.1058793510465,1.266,0.477,-1.05,-1.609
-0.6,5499965939.7640295,1.0950832367,65.46361740672751,5081.594425605605,1.261,0.471,-1.058,-1.618
-0.6,5499965939.7640295,1.095217824,65.91738952443212,5078.085396648894,1.255,0.463,-1.068,-1.629
-0.6,5499965939.7640295,1.0953514576,66.52731562017412,5073.410460372977,1.249,0.455,-1.079,-1.641
-0.6,5499965939.7640295,1.0954859257,67.29766562843179,5067.572841772825,1.242,0.446,-1.092,-1.656
-0.6,5499965939.7640295,1.0956215858,67.92036326171846,5060.5765651324455,1.234,0.436,-1.106,-1.672
-0.6,5499965939.7640295,1.095767498,69.02398038402418,5052.4264494015615,1.225,0.423,-1.125,-1.693
-0.6,5499965939.7640295,1.0959082842,70.14552984199715,5043.128102663999,1.213,0.407,-1.147,-1.717
-0.6,5499965939.7640295,1.0960372686,71.44963260755135,5032.687915706669,1.2,0.39,-1.171,-1.744
-0.6,5499965939.7640295,1.0961768627,73.96052750582378,5014.180920308942,1.178,0.36,-1.212,-1.79
-0.6,5499965939.7640295,1.0963128805,80.16780633876789,4967.066792234226,1.124,0.287,-1.316,-1.907
-0.6,5499965939.7640295,1.096372962,89.12509381337455,4912.471004503345,1.053,0.193,-1.448,-2.055
-0.6,5499965939.7640295,1.0963993073,99.3116048420934,4858.475309374926,0.981,0.098,-1.582,-2.206
-0.6,5499965939.7640295,1.0964113474,110.40786199020735,4808.393484497285,0.908,0.003,-1.714,-2.355
-0.6,5499965939.7640295,1.096416831,121.6186000646368,4765.407017251339,0.844,-0.081,-1.831,-2.485
-0.6,5499965939.7640295,1.0964193344,129.41958414499862,4738.053933388255,0.803,-0.136,-1.907,-2.57
-0.6,5499965939.7640295,1.0964207649,135.20725631942764,4719.543572446043,0.777,-0.176,-1.961,-2.628
-0.6,5499965939.7640295,1.0964236259,148.2518085145953,4680.583528968204,0.722,-0.26,-2.073,-2.75
-0.6,5499965939.7640295,1.0964277983,164.05897731995387,4639.807899821257,0.663,-0.352,-2.196,-2.884
-0.6,5499965939.7640295,1.096445322,155.95525028269537,4661.22428001887,0.691,-0.307,-2.135,-2.816
-0.6,5499965939.7640295,1.0965826511,154.5254439538414,4663.37134746993,0.698,-0.298,-2.125,-2.806
-0.6,5499965939.7640295,1.0966467857,170.215850839495,4622.74566491089,0.644,-0.384,-2.242,-2.934
-0.6,5499965939.7640295,1.0967046022,188.36490894898,4582.47389928456,0.589,-0.473,-2.363,-3.065
-0.6,5499965939.7640295,1.0967524052,207.49135174549107,4543.599049293402,0.536,-0.558,-2.48,-3.193
-0.6,5499965939.7640295,1.0967940092,228.559880337543,4506.091435730975,0.485,-0.641,-2.595,-3.32
-0.6,5499965939.7640295,1.0968304873,251.18864315095797,4467.864566912838,0.435,-0.723,-2.709,-3.446
-0.6,5499965939.7640295,1.0968621969,276.6941645411513,4430.982144892989,0.387,-0.803,-2.823,-3.571
-0.6,5499965939.7640295,1.0968902111,304.088502567628,4394.404188918088,0.341,-0.882,-2.935,-3.696
-0.6,5499965939.7640295,1.0969152451,334.19504002611427,4357.124805030842,0.296,-0.954,-3.048,-3.824
-0.6,5499965939.7640295,1.096938014,367.2823004980846,4320.161676181425,0.25,-1.025,-3.159,-3.951
-0.6,5499965939.7640295,1.0969589949,403.64539296760483,4254.02462944068,0.249,-1.069,-3.276,-4.097
-0.6,5499965939.7640295,1.0969780684,442.58837236262644,4213.082854040085,0.217,-1.13,-3.386,-4.226
-0.6,5499965939.7640295,1.0969961882,485.28850016212095,4178.303666466218,0.176,-1.197,-3.495,-4.35
-0.6,5499965939.7640295,1.0970134735,533.3348954876208,4144.765840379393,0.137,-1.261,-3.603,-4.473
-0.6,5499965939.7640295,1.0970299244,584.7900841444806,4109.604232515482,0.101,-1.325,-3.712,-4.599
-0.6,5499965939.7640295,1.097045064,641.2095765851615,4076.617833479447,0.067,-1.386,-3.817,-4.721
-0.6,5499965939.7640295,1.0970605612,701.4552984199714,4042.034350795005,0.04,-1.442,-3.923,-4.844
-0.6,5499965939.7640295,1.09707582,770.90346906443,4006.8215418221093,0.015,-1.498,-4.033,-4.971
-0.6,5499965939.7640295,1.0970891714,853.1001140175895,3968.2589095091143,-0.008,-1.555,-4.15,-5.108
-0.6,5499965939.7640295,1.0970984697,946.237161365793,3930.0674134185306,-0.029,-1.611,-4.27,-5.248
-0.6,5499965939.7640295,1.097104907,1037.5284158180127,3894.0363387971706,-0.046,-1.659,-4.378,-5.374
-0.6,5499965939.7640295,1.0971111059,1140.2497875611684,3858.335599053513,-0.058,-1.701,-4.487,-5.502
-0.6,5499965939.7640295,1.0971164703,1250.25903021772,3821.202031837345,-0.065,-1.74,-4.595,-5.63
-0.6,5499965939.7640295,1.0971215963,1377.2094688939458,3781.8125611095074,-0.066,-1.772,-4.706,-5.763
-0.6,5499965939.7640295,1.0971267223,1496.235656094433,3745.4154703610106,-0.056,-1.789,-4.807,-5.882
-0.6,5499965939.7640295,1.0971295834,1633.0519478943347,3705.953792179554,-0.031,-1.794,-4.91,-6.006
-0.6,5499965939.7640295,1.0971304178,1794.7336268325266,3665.219597323419,-0.007,-1.794,-5.024,-6.14
-0.6,5499965939.7640295,1.0971310139,1945.3600816226633,3630.780547701014,0.017,-1.791,-5.119,-6.253
-0.6,5499965939.7640295,1.0971318483,2118.3611352485023,3593.3539675538973,0.054,-1.765,-5.223,-6.374
-0.6,5499965939.7640295,1.097132802,1172.1953655481304,3811.5357714484903,0.023,-1.656,-4.527,-5.568
-0.6,5499965939.7640295,1.0971329212,1901.0782799232995,3633.2894685013125,0.031,-1.775,-5.095,-6.227
-0.6,5499965939.7640295,1.0971330404,1555.965631605075,3711.07729492926,0.003,-1.756,-4.856,-5.95
-0.6,5499965939.7640295,1.0971331596,1990.6733389871863,3614.9308991735757,0.047,-1.766,-5.149,-6.29
-0.6,5499965939.7640295,1.0971332788,1534.6169827992942,3715.352290971724,0.005,-1.75,-4.839,-5.931
-0.6,5499965939.7640295,1.0971338749,1566.7510701081485,3705.953792179554,0.01,-1.751,-4.866,-5.963
-0.6,5499965939.7640295,1.0971342325,1678.8040181225606,3679.594830147843,0.021,-1.757,-4.947,-6.056
-0.6,5499965939.7640295,1.0971345901,1798.8709151287874,3651.741272548377,0.033,-1.762,-5.03,-6.152
-0.6,5499965939.7640295,1.0971349478,1909.8532585662388,3627.4380147645793,0.049,-1.76,-5.101,-6.237
-0.6,5499965939.7640295,1.0971354246,2074.9135174549106,3592.5266624766173,0.08,-1.74,-5.203,-6.354
-0.6,5499965939.7640295,1.0971360207,2228.435149270303,3562.8701940455303,0.109,-1.721,-5.288,-6.454
-0.6,5499965939.7640295,1.0971367359,2387.8112829131783,3532.645025855673,0.149,-1.687,-5.373,-6.553
-0.6,5499965939.7640295,1.0971378088,2552.701302661247,3501.063598465195,0.203,-1.633,-5.456,-6.65
-0.6,5499965939.7640295,1.0971381664,2360.478233180578,3541.6040042646177,0.131,-1.709,-5.359,-6.535
-0.6,5499965939.7640295,1.0971382856,1419.0575216890927,3711.07729492926,0.093,-1.659,-4.754,-5.848
-0.6,5499965939.7640295,1.0971384048,1073.989412341245,3829.1290212080958,0.076,-1.589,-4.428,-5.459
-0.6,5499965939.7640295,1.0971387625,698.2324040771712,4019.758849668722,0.107,-1.403,-3.923,-4.854
-0.6,5499965939.7640295,1.0971392393,717.7942912713615,4004.0546833054636,0.108,-1.415,-3.957,-4.896
-0.6,5499965939.7640295,1.0971398354,931.10787546783,3885.08030374528,0.094,-1.527,-4.262,-5.262
-0.6,5499965939.7640295,1.0971406698,1339.6766874259345,3724.774624863983,0.115,-1.627,-4.689,-5.776
-0.6,5499965939.7640295,1.0971415043,1823.8957023196383,3592.5266624766173,0.207,-1.605,-5.06,-6.212
-0.6,5499965939.7640295,1.0971425772,2228.435149270303,3507.5187395256794,0.311,-1.516,-5.306,-6.498
-0.6,5499965939.7640295,1.0971437693,2483.13310529557,3460.190424829487,0.389,-1.435,-5.439,-6.652
-0.6,5499965939.7640295,1.0971450806,2612.1613543992053,3435.5794789987463,0.448,-1.368,-5.504,-6.728
-0.6,5499965939.7640295,1.0971465111,2691.5348039269165,3418.219914176575,0.496,-1.315,-5.543,-6.774
-0.6,5499965939.7640295,1.0971466303,1857.8044550916989,3566.9744620973356,0.282,-1.54,-5.089,-6.253
-0.6,5499965939.7640295,1.0971468687,1250.25903021772,3732.5015779572063,0.173,-1.567,-4.614,-5.697
-0.6,5499965939.7640295,1.0971472263,812.8305161640995,3921.931463326502,0.161,-1.434,-4.109,-5.09
-0.6,5499965939.7640295,1.0971478224,837.5292821268827,3909.309005962286,0.16,-1.447,-4.144,-5.131
-0.6,5499965939.7640295,1.0971486568,1081.4339512979375,3795.7709700253163,0.162,-1.537,-4.444,-5.493
-0.6,5499965939.7640295,1.0971496105,1545.254439538414,3640.8266378940075,0.236,-1.568,-4.869,-5.998
-0.6,5499965939.7640295,1.0971508026,2094.1124558508936,3513.985782353995,0.37,-1.468,-5.237,-6.426
-0.6,5499965939.7640295,1.0971521139,2552.701302661247,3434.788498657803,0.504,-1.326,-5.48,-6.704
-0.6,5499965939.7640295,1.0971535444,2831.391995799379,3395.4707998402328,0.588,-1.231,-5.61,-6.851
-0.6,5499965939.7640295,1.0971552134,2978.5164294291912,3381.4268747382753,0.62,-1.198,-5.672,-6.918
-0.6,5499965939.7640295,1.0971571207,3069.021988391158,3379.09187437723,0.615,-1.209,-5.706,-6.953
