FeH,Age,Mini,L,Te,Bmag,Vmag,Jmag,Kmag
-2.19174,11999965570.481134,0.1000000015,0.0016595869074375613,3620.762177566733,14.469,12.908,9.972,9.451
-2.19174,11999965570.481134,0.1098214313,0.002333458062281002,3750.5935291111437,13.826,12.394,9.656,9.074
-2.19174,11999965570.481134,0.1294642836,0.004073802778041126,3949.1169934897503,12.872,11.606,9.128,8.476
-2.19174,11999965570.481134,0.1491071582,0.0059292532458,4054.1517440650287,12.309,11.116,8.756,8.08
-2.19174,11999965570.481134,0.168750003,0.007943282347242814,4122.873407228869,11.901,10.749,8.463,7.778
-2.19174,11999965570.481134,0.2080357224,0.012705741052085419,4227.659485162412,11.26,10.166,7.987,7.298
-2.19174,11999965570.481134,0.2571428716,0.0195884467350599,4327.130568849061,10.678,9.631,7.546,6.865
-2.19174,11999965570.481134,0.3062500358,0.027352687263067124,4411.6393317691345,10.227,9.217,7.206,6.539
-2.19174,11999965570.481134,0.3553571403,0.03630780547701014,4492.623246702932,9.843,8.866,6.923,6.27
-2.19174,11999965570.481134,0.4044643044,0.047973344863668915,4579.3095315174405,9.462,8.519,6.645,6.01
-2.19174,11999965570.481134,0.4535714388,0.06714288529259523,4721.717503108786,8.979,8.09,6.322,5.717
-2.19174,11999965570.481134,0.5026785731,0.09794899854086991,4883.149268098355,8.45,7.622,5.963,5.391
-2.19174,11999965570.481134,0.5517857671,0.1552387009958082,5105.049999754065,7.805,7.059,5.535,5.007
-2.19174,11999965570.481134,0.6008928418,0.24945947269429547,5401.3211476463475,7.135,6.487,5.122,4.649
-2.19174,11999965570.481134,0.607236743,0.26607250597988097,5447.534633275434,7.045,6.41,5.067,4.603
-2.19174,11999965570.481134,0.6183253527,0.29853826189179594,5530.953407403111,6.886,6.275,4.972,4.523
-2.19174,11999965570.481134,0.62820822,0.3311311214825911,5605.314696465377,6.745,6.155,4.888,4.451
-2.19174,11999965570.481134,0.6378048658,0.3655947916131249,5676.753024298228,6.609,6.039,4.806,4.38
-2.19174,11999965570.481134,0.6491134167,0.4120975190973302,5762.3548640942545,6.448,5.902,4.707,4.294
-2.19174,11999965570.481134,0.6499999762,0.4168693834703354,5768.992840692839,6.436,5.891,4.699,4.288
-2.19174,11999965570.481134,0.6585742831,0.457088189614875,5830.4221384328575,6.315,5.787,4.621,4.22
-2.19174,11999965570.481134,0.6688096523,0.5116818355403078,5906.089174803649,6.171,5.66,4.526,4.136
-2.19174,11999965570.481134,0.6785455942,0.571478636671867,5975.85429715573,6.032,5.538,4.431,4.051
-2.19174,11999965570.481134,0.6878398061,0.6367955209079158,6043.659664361793,5.896,5.419,4.338,3.969
-2.19174,11999965570.481134,0.696087718,0.7030723198838335,6103.795855585308,5.772,5.308,4.252,3.892
-2.19174,11999965570.481134,0.6999999881,0.737904230129101,6131.969697156825,5.712,5.255,4.211,3.855
-2.19174,11999965570.481134,0.7090167403,0.8279421637123342,6194.410750767812,5.57,5.127,4.108,3.762
-2.19174,11999965570.481134,0.7175091505,0.9289663867799364,6253.166606822608,5.429,4.999,4.004,3.669
-2.19174,11999965570.481134,0.725890696,1.0471285480508996,6311.026445054064,5.284,4.866,3.894,3.568
-2.19174,11999965570.481134,0.7330867052,1.1668096170609625,6359.163628244043,5.152,4.745,3.793,3.475
-2.19174,11999965570.481134,0.7400558591,1.309181922999407,6404.717815693422,5.017,4.619,3.686,3.376
-2.19174,11999965570.481134,0.7470234036,1.4791083881682074,6449.113198681055,4.871,4.482,3.567,3.265
-2.19174,11999965570.481134,0.75,1.5595525028269537,6468.44664171722,4.807,4.422,3.515,3.215
-2.19174,11999965570.481134,0.7512726784,1.599558028614669,6477.389306956355,4.779,4.396,3.493,3.194
-2.19174,11999965570.481134,0.759388268,1.8879913490962936,6529.801810928715,4.583,4.211,3.329,3.04
-2.19174,11999965570.481134,0.7647737265,2.128139045982712,6559.942006647443,4.442,4.075,3.207,2.923
-2.19174,11999965570.481134,0.7698798776,2.4043628000069335,6582.638416409018,4.303,3.941,3.082,2.802
-2.19174,11999965570.481134,0.7740545273,2.679168324819032,6590.221323188566,4.181,3.822,2.968,2.69
-2.19174,11999965570.481134,0.7755150795,2.7925438412373382,6584.154299433819,4.135,3.775,2.919,2.64
-2.19174,11999965570.481134,0.779483676,3.169567463043491,6553.9028583347745,4.002,3.639,2.773,2.49
-2.19174,11999965570.481134,0.782261014,3.4914031547858615,6510.284984348614,3.902,3.533,2.652,2.362
-2.19174,11999965570.481134,0.7828533053,3.5727283815192896,6499.80009683025,3.88,3.51,2.624,2.333
-2.19174,11999965570.481134,0.7834343314,3.664375746478332,6478.8809526878,3.856,3.483,2.589,2.295
-2.19174,11999965570.481134,0.7853888273,4.017908108489399,6392.930749102151,3.774,3.386,2.46,2.152
-2.19174,11999965570.481134,0.7868848443,4.36515832240166,6289.266531604159,3.708,3.302,2.335,2.01
-2.19174,11999965570.481134,0.7880567908,4.698941086052154,6168.790197459376,3.657,3.228,2.212,1.867
-2.19174,11999965570.481134,0.7890019417,5.035006087879047,6040.877096990727,3.616,3.162,2.093,1.726
-2.19174,11999965570.481134,0.7897949219,5.382697825162883,5918.341211131826,3.58,3.1,1.981,1.592
-2.19174,11999965570.481134,0.7904945612,5.767664633922507,5808.981588672952,3.539,3.035,1.869,1.461
-2.19174,11999965570.481134,0.7911153436,6.208690342300636,5717.418729175535,3.489,2.962,1.756,1.331
-2.19174,11999965570.481134,0.7917301059,6.823386941416696,5636.376558259543,3.414,2.868,1.626,1.185
-2.19174,11999965570.481134,0.7922154069,7.481695005111543,5584.701947368307,3.334,2.775,1.508,1.058
-2.19174,11999965570.481134,0.7925471663,8.016780633876792,5553.924862434803,3.27,2.703,1.422,0.965
-2.19174,11999965570.481134,0.7928423882,8.590135215053959,5533.501092157366,3.202,2.63,1.339,0.878
-2.19174,11999965570.481134,0.7932294607,9.462371613657929,5506.808828468291,3.108,2.53,1.226,0.76
-2.19174,11999965570.481134,0.7936193943,10.471285480508996,5482.769649208536,3.007,2.423,1.107,0.636
-2.19174,11999965570.481134,0.793992877,11.614486138403427,5462.607542126947,2.904,2.315,0.988,0.512
-2.19174,11999965570.481134,0.7943898439,13.031667784522993,5440.013782467271,2.785,2.191,0.854,0.373
-2.19174,11999965570.481134,0.7947228551,14.487718535447618,5421.2570508795725,2.679,2.08,0.733,0.248
-2.19174,11999965570.481134,0.7950598001,16.255487557504843,5402.564990999317,2.562,1.959,0.602,0.112
-2.19174,11999965570.481134,0.7953904271,18.365383433483466,5381.458555867279,2.436,1.829,0.462,-0.033
-2.19174,11999965570.481134,0.7956571579,20.46444636724674,5364.138714402962,2.326,1.714,0.339,-0.16
-2.19174,11999965570.481134,0.7959145308,22.908676527677734,5345.643593969719,2.211,1.594,0.21,-0.293
-2.19174,11999965570.481134,0.7961457372,25.58585886905645,5327.212243229622,2.098,1.477,0.083,-0.424
-2.19174,11999965570.481134,0.7963551879,28.510182675039097,5307.622176426454,1.987,1.362,-0.042,-0.553
-2.19174,11999965570.481134,0.7965425849,31.768740706497706,5290.539972095819,1.878,1.248,-0.165,-0.68
-2.19174,11999965570.481134,0.7967199683,35.56313185689853,5271.08476236396,1.765,1.13,-0.293,-0.812
-2.19174,11999965570.481134,0.7968774438,39.62780342554395,5251.701096404131,1.655,1.015,-0.417,-0.941
-2.19174,11999965570.481134,0.7970173955,43.954161543782455,5233.59365186758,1.549,0.905,-0.537,-1.065
-2.19174,11999965570.481134,0.7971441746,48.86523593428336,5215.548640348755,1.446,0.795,-0.656,-1.189
-2.19174,11999965570.481134,0.7972630262,54.32503314924333,5196.369200594045,1.341,0.684,-0.779,-1.316
-2.19174,11999965570.481134,0.7973680496,60.11737374832779,5177.260290506427,1.239,0.576,-0.897,-1.439
-2.19174,11999965570.481134,0.7974650264,66.68067692136222,5158.221650723056,1.138,0.468,-1.015,-1.561
-2.19174,11999965570.481134,0.7975540161,73.79042301291011,5139.253022834874,1.037,0.361,-1.133,-1.684
-2.19174,11999965570.481134,0.7976331115,81.47042840208397,5120.354149383066,0.942,0.259,-1.247,-1.802
-2.19174,11999965570.481134,0.7977061868,89.74287945007487,5102.699578594392,0.846,0.157,-1.359,-1.92
-2.19174,11999965570.481134,0.797776401,99.3116048420934,5082.764640683731,0.748,0.051,-1.477,-2.042
-2.19174,11999965570.481134,0.7978365421,109.1440336448756,5064.073495238508,0.657,-0.047,-1.586,-2.157
-2.19174,11999965570.481134,0.7978921533,119.94993031493793,5046.612975635282,0.567,-0.145,-1.695,-2.27
-2.19174,11999965570.481134,0.797945261,132.1295634186575,5028.054772806391,0.473,-0.246,-1.807,-2.387
-2.19174,11999965570.481134,0.7979916334,144.87718535447618,5009.564815133986,0.387,-0.341,-1.914,-2.498
-2.19174,11999965570.481134,0.7980350256,158.48931924611142,4991.142851656184,0.301,-0.434,-2.019,-2.608
-2.19174,11999965570.481134,0.7980802059,172.98163592151016,4975.0792135144075,0.22,-0.523,-2.118,-2.711
-2.19174,11999965570.481134,0.7981302738,185.35316234148104,4961.351535855698,0.152,-0.596,-2.2,-2.797
-2.19174,11999965570.481134,0.7981536388,183.23144223712112,4965.923214503363,0.163,-0.584,-2.185,-2.78
-2.19174,11999965570.481134,0.7981594801,186.20871366628674,4962.494060797449,0.148,-0.6,-2.203,-2.799
-2.19174,11999965570.481134,0.7981917858,204.17379446695296,4943.106869868354,0.063,-0.694,-2.31,-2.911
-2.19174,11999965570.481134,0.7982243299,224.90546058357805,4924.929296050273,-0.03,-0.796,-2.424,-3.029
-2.19174,11999965570.481134,0.7982520461,246.03676041476274,4905.6888610179985,-0.111,-0.886,-2.527,-3.137
-2.19174,11999965570.481134,0.7982792258,269.77394324449205,4885.398559319364,-0.196,-0.981,-2.635,-3.251
-2.19174,11999965570.481134,0.798304677,296.4831389524342,4867.433199621377,-0.28,-1.076,-2.743,-3.364
-2.19174,11999965570.481134,0.7983269095,323.5936569296281,4848.4173870844625,-0.358,-1.164,-2.845,-3.471
-2.19174,11999965570.481134,0.7983489037,354.8133892335753,4827.252320650396,-0.433,-1.258,-2.954,-3.585
-2.19174,11999965570.481134,0.798368454,387.25764492161727,4809.500785490998,-0.503,-1.346,-3.057,-3.692
-2.19174,11999965570.481134,0.798386693,421.6965034285823,4790.711300030745,-0.57,-1.433,-3.16,-3.799
-2.19174,11999965570.481134,0.798404038,461.31757456037957,4770.896554256487,-0.635,-1.52,-3.265,-3.908
-2.19174,11999965570.481134,0.7984227538,510.50499997540646,4750.069893831193,-0.71,-1.621,-3.386,-4.033
-2.19174,11999965570.481134,0.7984378338,557.1857489319299,4728.2453051179655,-0.766,-1.705,-3.491,-4.143
-2.19174,11999965570.481134,0.798453331,613.7620051647939,4707.604832565835,-0.83,-1.798,-3.607,-4.263
-2.19174,11999965570.481134,0.798466146,668.3439175686149,4689.213428447355,-0.883,-1.88,-3.71,-4.37
-2.19174,11999965570.481134,0.7984791398,734.5138681571151,4665.519403909797,-0.932,-1.966,-3.823,-4.488
-2.19174,11999965570.481134,0.7984899879,797.9946872679768,4648.362618593011,-0.979,-2.042,-3.921,-4.589
-2.19174,11999965570.481134,0.7985013723,874.9837752274364,4625.940047661603,-1.021,-2.124,-4.032,-4.705
-2.19174,11999965570.481134,0.798512876,966.0508789898131,4602.565735813559,-1.058,-2.209,-4.152,-4.83
-2.19174,11999965570.481134,0.798522234,1051.9618738232225,4582.47389928456,-1.085,-2.281,-4.257,-4.939
-2.19174,11999965570.481134,0.798530221,1137.627285823431,4563.520439214676,-1.102,-2.343,-4.352,-5.037
-2.19174,11999965570.481134,0.798538506,1238.796586530369,4544.645372095089,-1.13,-2.412,-4.454,-5.144
-2.19174,11999965570.481134,0.7985469699,1355.1894123510365,4520.640796485013,-1.169,-2.486,-4.563,-5.259
-2.19174,11999965570.481134,0.7985541224,1472.3125024327194,4500.906591456169,-1.206,-2.554,-4.661,-5.362
-2.19174,11999965570.481134,0.798561275,1603.2453906900419,4480.226804128664,-1.242,-2.623,-4.762,-5.469
-2.19174,11999965570.481134,0.7985679507,1733.8039977541375,4460.669020551353,-1.273,-2.685,-4.854,-5.567
-2.19174,11999965570.481134,0.7985697985,1766.037820686164,4456.562483975033,-1.281,-2.701,-4.878,-5.592
-2.19174,11999965570.481134,0.7985697985,45.498806015004845,8875.646565663144,0.746,0.725,0.615,0.585
-2.19174,11999965570.481134,0.7985705137,46.13175745603793,8796.299338442333,0.722,0.696,0.573,0.539
-2.19174,11999965570.481134,0.7986187935,48.41723675840994,8582.227050540156,0.655,0.615,0.453,0.408
-2.19174,11999965570.481134,0.7986657023,48.41723675840994,8584.203408875206,0.654,0.614,0.453,0.409
-2.19174,11999965570.481134,0.7987127304,48.41723675840994,8588.157491027288,0.654,0.615,0.455,0.41
-2.19174,11999965570.481134,0.7987602353,48.41723675840994,8588.157491027288,0.654,0.615,0.455,0.41
-2.19174,11999965570.481134,0.7988090515,48.41723675840994,8584.203408875206,0.653,0.614,0.452,0.408
-2.19174,11999965570.481134,0.7988575101,48.5288500162121,8572.352082084062,0.652,0.611,0.448,0.403
-2.19174,11999965570.481134,0.7989028096,48.5288500162121,8556.575760980935,0.65,0.608,0.441,0.395
-2.19174,11999965570.481134,0.7989516854,48.64072056914617,8532.965701951112,0.646,0.603,0.432,0.385
-2.19174,11999965570.481134,0.7989967465,48.75284901033863,8505.502958970947,0.642,0.597,0.42,0.371
-2.19174,11999965570.481134,0.7990424037,48.86523593428336,8468.373413222405,0.639,0.59,0.406,0.354
-2.19174,11999965570.481134,0.7990903258,49.09078761526032,8421.704521982787,0.634,0.581,0.387,0.332
-2.19174,11999965570.481134,0.7991401553,49.31738039549359,8365.6559575581,0.627,0.57,0.363,0.305
-2.19174,11999965570.481134,0.7991866469,49.54501908047903,8302.330159249539,0.621,0.558,0.337,0.275
-2.19174,11999965570.481134,0.7992335558,49.88844874600122,8230.003122773447,0.615,0.545,0.307,0.24
-2.19174,11999965570.481134,0.7992829084,50.23425895223871,8145.1671302261875,0.609,0.53,0.271,0.198
-2.19174,11999965570.481134,0.7993294597,50.5824662003114,8057.494170914513,0.604,0.516,0.234,0.154
-2.19174,11999965570.481134,0.7993761897,51.05049999754062,7957.927898970918,0.6,0.5,0.192,0.104
-2.19174,11999965570.481134,0.7994244099,51.52286445817565,7846.934003526884,0.6,0.485,0.145,0.048
-2.19174,11999965570.481134,0.7994737625,52.11947111050805,7725.026892978104,0.602,0.469,0.093,-0.015
-2.19174,11999965570.481134,0.7995197773,52.722986142282274,7603.262769401815,0.609,0.456,0.041,-0.08
-2.19174,11999965570.481134,0.7995241284,52.722986142282274,7591.017628812527,0.609,0.455,0.036,-0.086
-2.19174,11999965570.481134,0.7995318174,52.84452517751805,7571.815097147055,0.611,0.453,0.027,-0.096
-2.19174,11999965570.481134,0.799577117,53.456435939697165,7457.615702069878,0.619,0.443,-0.022,-0.158
-2.19174,11999965570.481134,0.799621284,54.0754322945581,7336.687144183594,0.628,0.434,-0.073,-0.223
-2.19174,11999965570.481134,0.7996684909,54.70159628939716,7202.777512383406,0.64,0.426,-0.131,-0.298
-2.19174,11999965570.481134,0.7997134328,55.46257129579107,7066.429004252079,0.654,0.419,-0.189,-0.374
-2.19174,11999965570.481134,0.7997564673,56.23413251903491,6931.065451499368,0.669,0.413,-0.247,-0.451
-2.19174,11999965570.481134,0.7998009324,57.016427228074754,6796.72971950456,0.685,0.407,-0.306,-0.529
-2.19174,11999965570.481134,0.799844563,57.80960474057181,6666.532489563035,0.702,0.402,-0.364,-0.607
-2.19174,11999965570.481134,0.7998886108,58.74893525297766,6543.347723737576,0.718,0.397,-0.42,-0.683
-2.19174,11999965570.481134,0.7999327779,59.566214352901035,6431.3182363545175,0.735,0.392,-0.473,-0.755
-2.19174,11999965570.481134,0.7999771833,60.81350012787179,6308.120779076959,0.753,0.385,-0.534,-0.839
-2.19174,11999965570.481134,0.7999860048,61.09420249055721,6282.029912455561,0.757,0.384,-0.546,-0.856
-2.19174,11999965570.481134,0.8000316024,62.51726927756859,6165.9500186148225,0.771,0.373,-0.61,-0.941
-2.19174,11999965570.481134,0.8000764847,64.56542290346556,6024.208575746259,0.783,0.355,-0.693,-1.052
-2.19174,11999965570.481134,0.800114274,68.54882264526617,5846.554467527501,0.784,0.315,-0.817,-1.212
-2.19174,11999965570.481134,0.800134778,73.6207097494736,5692.460162787103,0.767,0.26,-0.946,-1.374
-2.19174,11999965570.481134,0.8001439571,79.25013304804718,5573.140604637261,0.737,0.2,-1.064,-1.518
-2.19174,11999965570.481134,0.8001481295,85.50667128846833,5473.939586745954,0.696,0.133,-1.18,-1.656
-2.19174,11999965570.481134,0.8001500964,91.83325964835811,5401.3211476463475,0.652,0.067,-1.283,-1.775
-2.19174,11999965570.481134,0.8001508713,96.38290236239705,5362.9037180085825,0.62,0.023,-1.348,-1.848
-2.19174,11999965570.481134,0.8001511097,98.4011105761134,5349.337509431612,0.604,0.003,-1.375,-1.879
-2.19174,11999965570.481134,0.8001520038,107.64652136298349,5297.854174488645,0.531,-0.087,-1.492,-2.007
-2.19174,11999965570.481134,0.8001528382,118.03206356517298,5254.120151100796,0.453,-0.178,-1.607,-2.133
-2.19174,11999965570.481134,0.8001536727,129.41958414499862,5214.347854144578,0.375,-0.27,-1.721,-2.256
-2.19174,11999965570.481134,0.8001545072,141.2537544622754,5182.030920072273,0.301,-0.356,-1.826,-2.369
-2.19174,11999965570.481134,0.8001558781,148.93610777109154,5164.163692720711,0.253,-0.411,-1.89,-2.437
-2.19174,11999965570.481134,0.8001583815,142.23287871228197,5183.224264170613,0.291,-0.365,-1.834,-2.376
-2.19174,11999965570.481134,0.8001742363,138.99526312133526,5186.8059455744215,0.315,-0.34,-1.808,-2.349
-2.19174,11999965570.481134,0.8001891375,149.2794409578996,5157.034063026461,0.254,-0.412,-1.897,-2.445
-2.19174,11999965570.481134,0.8002072573,166.72472125510626,5117.996682024606,0.16,-0.522,-2.029,-2.587
-2.19174,11999965570.481134,0.8002246022,183.23144223712112,5086.276903064366,0.076,-0.619,-2.145,-2.71
-2.19174,11999965570.481134,0.8002405167,201.83663636815618,5057.082049785993,-0.008,-0.715,-2.259,-2.831
-2.19174,11999965570.481134,0.8002548218,221.81964198002194,5029.2126585044525,-0.091,-0.811,-2.372,-2.951
-2.19174,11999965570.481134,0.8002675772,243.78108183687525,5002.648624210056,-0.176,-0.907,-2.486,-3.071
-2.19174,11999965570.481134,0.8002787828,267.91683248190316,4976.224899734694,-0.259,-1.002,-2.598,-3.19
-2.19174,11999965570.481134,0.8002886176,294.44216337987604,4949.940743969349,-0.341,-1.097,-2.709,-3.308
-2.19174,11999965570.481134,0.8002975583,323.5936569296281,4924.929296050273,-0.424,-1.192,-2.821,-3.427
-2.19174,11999965570.481134,0.8003056645,355.6313185689855,4900.044227932357,-0.506,-1.286,-2.932,-3.544
-2.19174,11999965570.481134,0.8003131747,389.9419866765436,4875.284901033865,-0.585,-1.379,-3.042,-3.661
-2.19174,11999965570.481134,0.8003200889,428.54852039743963,4850.650679999713,-0.663,-1.471,-3.153,-3.778
-2.19174,11999965570.481134,0.8003266454,469.8941086052156,4826.140932685212,-0.732,-1.564,-3.265,-3.895
-2.19174,11999965570.481134,0.8003329039,516.416369272071,4801.755030139799,-0.799,-1.655,-3.377,-4.012
-2.19174,11999965570.481134,0.8003389239,566.2392890382534,4777.4923465909405,-0.862,-1.746,-3.49,-4.13
-2.19174,11999965570.481134,0.8003445864,622.3002851691596,4753.352259428054,-0.921,-1.837,-3.604,-4.249
-2.19174,11999965570.481134,0.8003495336,685.4882264526614,4728.2453051179655,-0.978,-1.927,-3.72,-4.371
-2.19174,11999965570.481134,0.8003537655,753.355563733717,4703.2709644077795,-1.029,-2.015,-3.835,-4.491
-2.19174,11999965570.481134,0.8003572822,827.9421637123345,4677.351412871981,-1.076,-2.101,-3.95,-4.611
-2.19174,11999965570.481134,0.8003605008,907.8205301781861,4652.645890999017,-1.115,-2.182,-4.062,-4.728
-2.19174,11999965570.481134,0.8003638387,995.4054173515275,4628.0708623811315,-1.145,-2.261,-4.176,-4.847
-2.19174,11999965570.481134,0.8003668189,1104.0786199020736,4600.446663934778,-1.172,-2.345,-4.303,-4.979
-2.19174,11999965570.481134,0.8003681898,1172.1953655481304,4583.529174381888,-1.183,-2.392,-4.376,-5.056
-2.19174,11999965570.481134,0.800368607,1111.7317272815908,4598.328567699996,-1.175,-2.351,-4.311,-4.988
-2.19174,11999965570.481134,0.8003687263,1101.5393095414145,4600.446663934778,-1.173,-2.345,-4.301,-4.977
-2.19174,11999965570.481134,0.8003687859,1101.5393095414145,4600.446663934778,-1.172,-2.343,-4.299,-4.976
-2.19174,11999965570.481134,0.8003689051,1142.8783347897713,4590.922907591308,-1.179,-2.373,-4.346,-5.024
-2.19174,11999965570.481134,0.8003689647,1174.897554939529,4582.47389928456,-1.184,-2.395,-4.38,-5.06
-2.19174,11999965570.481134,0.8003691435,1241.6523075924106,4566.673896495316,-1.189,-2.436,-4.449,-5.132
-2.19174,11999965570.481134,0.8003693223,1361.4446824659497,4540.461526048465,-1.207,-2.507,-4.562,-5.251
-2.19174,11999965570.481134,0.8003696799,1538.154640303034,4504.016781680873,-1.251,-2.603,-4.71,-5.409
-2.19174,11999965570.481134,0.8003702164,1729.8163592151016,4469.922568418684,-1.289,-2.692,-4.85,-5.559
-2.19174,11999965570.481134,0.8003705144,1774.1894808901661,4443.242331287159,-1.258,-2.692,-4.885,-5.604
-2.19174,11999965570.481134,0.800370574,1078.9467222298285,4582.47389928456,-1.103,-2.306,-4.287,-4.968
-2.19174,11999965570.481134,0.8003706932,753.355563733717,4682.739513736003,-0.989,-2.003,-3.844,-4.504
-2.19174,11999965570.481134,0.8003709316,450.81670454146007,4829.475864447709,-0.691,-1.519,-3.218,-3.848
-2.19174,11999965570.481134,0.80037117,453.94161665020323,4825.029800597099,-0.692,-1.525,-3.227,-3.857
-2.19174,11999965570.481134,0.8003715873,530.8844442309885,4776.392414964196,-0.791,-1.676,-3.421,-4.061
-2.19174,11999965570.481134,0.8003720045,810.9610578538404,4651.574703021666,-0.996,-2.06,-3.939,-4.606
-2.19174,11999965570.481134,0.800372541,1193.9881044642732,4539.416166502032,-1.074,-2.367,-4.419,-5.109
-2.19174,11999965570.481134,0.800373137,1541.70045294956,4465.8075129335175,-1.161,-2.565,-4.727,-5.438
-2.19174,11999965570.481134,0.8003737926,1766.037820686164,4424.86474355665,-1.195,-2.662,-4.888,-5.612
-2.19174,11999965570.481134,0.8003745675,1870.6821403657998,4404.534336784062,-1.198,-2.698,-4.959,-5.69
-2.19174,11999965570.481134,0.800375402,1918.668740670289,4392.380956904633,-1.185,-2.707,-4.991,-5.725
