FeH,Age,Mini,L,Te,Bmag,Vmag,Jmag,Kmag
-2.0,2000000019.9681082,0.0936335474,0.0008770008211436348,3251.621601204828,16.097,14.187,10.508,10.155
-2.0,2000000019.9681082,0.0944567323,0.0009289663867799362,3277.177768051718,15.967,14.077,10.458,10.083
-2.0,2000000019.9681082,0.0955219045,0.001,3311.311214825911,15.797,13.932,10.393,9.989
-2.0,2000000019.9681082,0.0962135941,0.001049542428652322,3334.2641276323507,15.684,13.84,10.35,9.929
-2.0,2000000019.9681082,0.1027872637,0.001651961798229015,3552.2211848231955,14.65,13.02,9.955,9.402
-2.0,2000000019.9681082,0.1035686582,0.0017418068733916145,3578.49158264176,14.535,12.93,9.91,9.345
-2.0,2000000019.9681082,0.1164100021,0.002654605561975539,3735.0807894306217,13.742,12.291,9.518,8.889
-2.0,2000000019.9681082,0.1234388798,0.0032809529311311906,3815.926491189337,13.36,11.98,9.32,8.666
-2.0,2000000019.9681082,0.1351504326,0.004159106104940223,3888.6602433122985,12.972,11.652,9.088,8.413
-2.0,2000000019.9681082,0.1433091164,0.00485288500162121,3936.4070414309936,12.728,11.444,8.937,8.252
-2.0,2000000019.9681082,0.163179338,0.006531305526474723,4016.983057462358,12.283,11.055,8.643,7.945
-2.0,2000000019.9681082,0.2029198259,0.010351421666793436,4129.524052369216,11.624,10.468,8.178,7.472
-2.0,2000000019.9681082,0.2525953948,0.0162181009735893,4234.479161692072,11.005,9.906,7.723,7.021
-2.0,2000000019.9681082,0.3022710085,0.023334580622810033,4320.161676181425,10.508,9.453,7.352,6.659
-2.0,2000000019.9681082,0.3519465327,0.031768740706497704,4397.440784473689,10.089,9.069,7.038,6.357
-2.0,2000000019.9681082,0.3950534463,0.04073802778041128,4469.922568418684,9.747,8.759,6.79,6.123
-2.0,2000000019.9681082,0.4016221166,0.042169650342858224,4481.258533251555,9.699,8.715,6.755,6.09
-2.0,2000000019.9681082,0.4512977004,0.05834451042737448,4615.300680791288,9.224,8.295,6.442,5.805
-2.0,2000000019.9681082,0.5009732842,0.08317637711026708,4784.097257646801,8.699,7.834,6.107,5.507
-2.0,2000000019.9681082,0.5436606407,0.1150800388944436,4944.245193336823,8.231,7.425,5.805,5.241
-2.0,2000000019.9681082,0.5506489277,0.12105981335504823,4969.354737803068,8.159,7.362,5.759,5.2
-2.0,2000000019.9681082,0.6003244519,0.1778279410038923,5207.148940339917,7.6,6.884,5.42,4.912
-2.0,2000000019.9681082,0.6499999762,0.2594179362118814,5477.722156556586,7.06,6.428,5.104,4.647
-2.0,2000000019.9681082,0.6695566177,0.2999162518987651,5593.7106816169635,6.855,6.256,4.987,4.55
-2.0,2000000019.9681082,0.6999999881,0.37325015779572057,5772.979296482345,6.551,6.002,4.814,4.406
-2.0,2000000019.9681082,0.7349872589,0.4764309868054157,5975.85429715573,6.227,5.728,4.623,4.246
-2.0,2000000019.9681082,0.75,0.5284452517751804,6061.777620466953,6.094,5.614,4.543,4.179
-2.0,2000000019.9681082,0.7628521323,0.5754399373371569,6124.914068474841,5.984,5.519,4.475,4.12
-2.0,2000000019.9681082,0.8000000119,0.732824533138904,6309.57344480193,5.676,5.251,4.279,3.953
-2.0,2000000019.9681082,0.83432585,0.9099132726322515,6481.865274740793,5.402,5.011,4.104,3.806
-2.0,2000000019.9681082,0.8500000238,1.0023052380778996,6559.942006647443,5.28,4.901,4.024,3.738
-2.0,2000000019.9681082,0.8795929551,1.1994993031493788,6711.197196984211,5.054,4.699,3.879,3.615
-2.0,2000000019.9681082,0.8999999762,1.355189412351036,6815.535747267042,4.901,4.561,3.779,3.532
-2.0,2000000019.9681082,0.9053522944,1.399587322572618,6845.4184335848,4.861,4.526,3.755,3.511
-2.0,2000000019.9681082,0.9431992173,1.741806873391614,7051.800218620772,4.583,4.277,3.582,3.368
-2.0,2000000019.9681082,0.9500000477,1.8113400926196026,7089.2452356339845,4.534,4.232,3.551,3.342
-2.0,2000000019.9681082,0.9641576409,1.9588446735059897,7176.290320547707,4.431,4.141,3.491,3.294
-2.0,2000000019.9681082,0.9928734899,2.3014418174085085,7355.293378672722,4.223,3.955,3.37,3.197
-2.0,2000000019.9681082,1.0,2.3988329190194904,7401.163527822221,4.171,3.909,3.34,3.173
-2.0,2000000019.9681082,1.008046031,2.506109253032114,7462.769020181442,4.113,3.858,3.311,3.151
-2.0,2000000019.9681082,1.0315805674,2.8510182675039095,7643.636049263664,3.942,3.709,3.224,3.086
-2.0,2000000019.9681082,1.0499999523,3.1622776601683795,7791.1219111309265,3.808,3.592,3.157,3.036
-2.0,2000000019.9681082,1.0518294573,3.1915378551007616,7805.486914662375,3.796,3.581,3.151,3.032
-2.0,2000000019.9681082,1.0712045431,3.5399734108343472,7965.260797837781,3.661,3.464,3.086,2.984
-2.0,2000000019.9681082,1.0888952017,3.890451449942806,8109.610578538404,3.54,3.359,3.028,2.939
-2.0,2000000019.9681082,1.1000000238,4.130475019901613,8201.626731515516,3.465,3.295,2.992,2.911
-2.0,2000000019.9681082,1.1036646366,4.207266283844441,8231.898369213966,3.441,3.274,2.98,2.902
-2.0,2000000019.9681082,1.1165544987,4.508167045414602,8340.651974086626,3.355,3.2,2.938,2.869
-2.0,2000000019.9681082,1.1320954561,4.90907876152603,8472.274141405964,3.253,3.114,2.888,2.829
-2.0,2000000019.9681082,1.1458197832,5.284452517751804,8588.157491027288,3.168,3.043,2.846,2.794
-2.0,2000000019.9681082,1.1499999762,5.407543229455809,8623.826291517664,3.143,3.023,2.833,2.783
-2.0,2000000019.9681082,1.1731886864,6.137620051647943,8826.733207212583,3.004,2.906,2.76,2.722
-2.0,2000000019.9681082,1.2000000477,7.144963260755133,9069.84781505792,2.848,2.773,2.674,2.648
-2.0,2000000019.9681082,1.2206814289,8.053784411990666,9255.502447634359,2.732,2.673,2.605,2.587
-2.0,2000000019.9681082,1.2469259501,9.375620069258803,9479.818010107187,2.587,2.545,2.51,2.501
-2.0,2000000019.9681082,1.25,9.549925860214358,9503.85934011676,2.57,2.53,2.498,2.49
-2.0,2000000019.9681082,1.2600697279,10.115794542598982,9578.555059598828,2.514,2.479,2.458,2.453
-2.0,2000000019.9681082,1.2815965414,11.455129414455355,9702.865247929214,2.392,2.367,2.362,2.361
-2.0,2000000019.9681082,1.2999999523,12.76438808811344,9774.622640495892,2.282,2.264,2.267,2.268
-2.0,2000000019.9681082,1.3048068285,13.152248321922384,9783.629547845954,2.251,2.234,2.238,2.24
-2.0,2000000019.9681082,1.3180798292,14.25607593602188,9758.880500302885,2.157,2.14,2.142,2.143
-2.0,2000000019.9681082,1.3318032026,15.559656316050742,9698.397942067511,2.053,2.035,2.03,2.029
-2.0,2000000019.9681082,1.3456511497,17.10015315090288,9600.635909453471,1.935,1.915,1.898,1.894
-2.0,2000000019.9681082,1.3500000238,17.660378206861647,9587.381298845328,1.895,1.875,1.857,1.853
-2.0,2000000019.9681082,1.3519122601,17.947336268325266,9582.967163063751,1.878,1.858,1.84,1.835
-2.0,2000000019.9681082,1.3555835485,18.663796908346693,9667.184338344545,1.846,1.832,1.823,1.821
-2.0,2000000019.9681082,1.3589836359,19.76969640111861,9887.80743626928,1.816,1.814,1.83,1.835
-2.0,2000000019.9681082,1.359945178,20.606299132700006,10101.82870544834,1.803,1.811,1.848,1.859
-2.0,2000000019.9681082,1.3603799343,21.6271852372702,10299.117193407,1.783,1.799,1.854,1.87
-2.0,2000000019.9681082,1.3606241941,22.698648518838223,10435.181327286247,1.753,1.776,1.842,1.862
-2.0,2000000019.9681082,1.360650897,22.750974307720703,10406.387653975045,1.747,1.769,1.832,1.852
-2.0,2000000019.9681082,1.3608195782,23.06747188720069,10171.85123683214,1.691,1.704,1.748,1.761
-2.0,2000000019.9681082,1.3609688282,23.823194693586903,9972.407117415498,1.621,1.627,1.652,1.66
-2.0,2000000019.9681082,1.3612209558,24.660393372343385,9785.882571180126,1.554,1.553,1.559,1.561
-2.0,2000000019.9681082,1.3616629839,25.35128630497907,9589.589129147382,1.494,1.484,1.468,1.464
-2.0,2000000019.9681082,1.3624272346,26.001595631652723,9377.779134121702,1.437,1.417,1.374,1.363
-2.0,2000000019.9681082,1.363478899,26.730064086633117,9145.343031204598,1.382,1.348,1.272,1.252
-2.0,2000000019.9681082,1.3645395041,27.41574171927882,8904.304435937422,1.331,1.282,1.168,1.137
-2.0,2000000019.9681082,1.3654391766,27.98981319634363,8663.632065076616,1.293,1.226,1.067,1.024
-2.0,2000000019.9681082,1.3661723137,28.510182675039097,8429.464771677229,1.268,1.181,0.972,0.914
-2.0,2000000019.9681082,1.3667773008,28.973435877013227,8201.626731515516,1.258,1.146,0.881,0.808
-2.0,2000000019.9681082,1.3672885895,29.308932452503214,7981.78453491152,1.26,1.121,0.796,0.706
-2.0,2000000019.9681082,1.3677309752,29.580124665515466,7767.835143843521,1.274,1.105,0.716,0.607
-2.0,2000000019.9681082,1.3681230545,29.853826189179603,7559.620603389211,1.296,1.1,0.641,0.509
-2.0,2000000019.9681082,1.3684760332,30.060763026282306,7355.293378672722,1.322,1.099,0.569,0.414
-2.0,2000000019.9681082,1.3687983751,30.19951720402016,7154.841214168983,1.353,1.103,0.5,0.319
-2.0,2000000019.9681082,1.3690956831,30.338911841942704,6959.851927647889,1.388,1.11,0.434,0.225
-2.0,2000000019.9681082,1.3693740368,30.47894989627983,6773.295140086069,1.425,1.12,0.371,0.135
-2.0,2000000019.9681082,1.3696546555,30.54921113215514,6591.738952443213,1.466,1.131,0.311,0.046
-2.0,2000000019.9681082,1.3699690104,30.54921113215514,6406.192726268982,1.515,1.147,0.25,-0.045
-2.0,2000000019.9681082,1.3703570366,30.47894989627983,6215.842477525222,1.574,1.169,0.191,-0.138
-2.0,2000000019.9681082,1.3708108664,30.19951720402016,6036.705647858452,1.641,1.198,0.142,-0.22
-2.0,2000000019.9681082,1.3713469505,29.580124665515466,5873.5409368008195,1.719,1.238,0.109,-0.285
-2.0,2000000019.9681082,1.3719321489,28.773984147356696,5733.238386538407,1.8,1.285,0.092,-0.33
-2.0,2000000019.9681082,1.3724988699,28.90679882365476,5646.768716165364,1.83,1.292,0.058,-0.382
-2.0,2000000019.9681082,1.373488307,30.69021988391158,5547.534349517692,1.806,1.241,-0.04,-0.5
-2.0,2000000019.9681082,1.3743342161,33.49654391578276,5499.206143874975,1.731,1.152,-0.153,-0.622
-2.0,2000000019.9681082,1.3752623796,37.41105882720533,5460.092497542736,1.626,1.038,-0.286,-0.764
-2.0,2000000019.9681082,1.3761452436,41.78303666466218,5431.252578811117,1.517,0.921,-0.418,-0.902
-2.0,2000000019.9681082,1.3768775463,46.025657358135604,5408.788505661013,1.422,0.82,-0.529,-1.018
-2.0,2000000019.9681082,1.3777297735,51.64163692720711,5383.937379843645,1.307,0.699,-0.662,-1.157
-2.0,2000000019.9681082,1.3785660267,57.94286964268809,5360.43457816143,1.192,0.577,-0.796,-1.296
-2.0,2000000019.9681082,1.3793622255,65.01296903430907,5337.034374568299,1.077,0.457,-0.929,-1.434
-2.0,2000000019.9681082,1.3800028563,71.6143410212902,5317.408188271428,0.981,0.356,-1.04,-1.549
-2.0,2000000019.9681082,1.3807376623,80.16780633876789,5294.19581017428,0.868,0.236,-1.172,-1.686
-2.0,2000000019.9681082,1.3814433813,89.94975815300351,5271.08476236396,0.753,0.115,-1.305,-1.825
-2.0,2000000019.9681082,1.382093668,100.69316688518045,5248.074602497728,0.642,-0.004,-1.435,-1.96
-2.0,2000000019.9681082,1.3826086521,110.40786199020735,5228.775553134414,0.552,-0.101,-1.543,-2.072
-2.0,2000000019.9681082,1.3831731081,123.31048332289096,5205.950088015483,0.445,-0.215,-1.67,-2.204
-2.0,2000000019.9681082,1.3836187124,135.20725631942764,5185.611776858396,0.355,-0.313,-1.779,-2.318
-2.0,2000000019.9681082,1.3841539621,152.05475297324955,5160.597646630203,0.242,-0.434,-1.914,-2.459
-2.0,2000000019.9681082,1.3846414089,169.82436524617444,5136.886854227248,0.134,-0.551,-2.044,-2.595
-2.0,2000000019.9681082,1.3850477934,188.36490894898,5114.462515963049,0.036,-0.657,-2.163,-2.72
-2.0,2000000019.9681082,1.385391593,206.06299132700005,5095.65480608114,-0.051,-0.751,-2.269,-2.83
-2.0,2000000019.9681082,1.3857990503,230.14418174085088,5071.074606405172,-0.153,-0.863,-2.396,-2.964
-2.0,2000000019.9681082,1.3862515688,255.2701302661247,5048.937562011554,-0.251,-0.971,-2.518,-3.091
-2.0,2000000019.9681082,1.3863960505,260.6153549998895,5044.28945952414,-0.271,-0.992,-2.541,-3.115
-2.0,2000000019.9681082,1.3866556883,240.99054286865956,5062.90758346022,-0.199,-0.913,-2.451,-3.02
-2.0,2000000019.9681082,1.3868074417,219.78598727848254,5087.448196446911,-0.114,-0.818,-2.34,-2.904
-2.0,2000000019.9681082,1.3868196011,218.27299118430014,5089.791592468075,-0.108,-0.811,-2.332,-2.895
-2.0,2000000019.9681082,1.3869057894,225.42392121524304,5081.594425605605,-0.138,-0.843,-2.37,-2.935
-2.0,2000000019.9681082,1.3872151375,251.76769277588545,5055.917747662187,-0.24,-0.957,-2.499,-3.07
-2.0,2000000019.9681082,1.3875217438,280.54336379517133,5032.687915706669,-0.343,-1.07,-2.627,-3.204
-2.0,2000000019.9681082,1.3878035545,311.88895840939387,5007.258356403354,-0.441,-1.179,-2.752,-3.335
-2.0,2000000019.9681082,1.3880683184,347.53616144320574,4984.252094042598,-0.539,-1.288,-2.876,-3.465
-2.0,2000000019.9681082,1.3883117437,385.4783576657717,4960.2092739597465,-0.634,-1.394,-2.998,-3.594
-2.0,2000000019.9681082,1.3885395527,427.562886151586,4936.28243059449,-0.728,-1.5,-3.12,-3.722
-2.0,2000000019.9681082,1.388751626,474.2419852602448,4912.471004503345,-0.822,-1.606,-3.241,-3.85
-2.0,2000000019.9681082,1.3889456987,524.8074602497728,4887.648886615807,-0.912,-1.708,-3.361,-3.976
-2.0,2000000019.9681082,1.3891265392,582.1032177708715,4864.072056914614,-1.002,-1.811,-3.48,-4.102
-2.0,2000000019.9681082,1.3892917633,642.6877173170194,4839.4944930166275,-1.085,-1.911,-3.598,-4.226
-2.0,2000000019.9681082,1.3894449472,709.5777679633887,4816.14994840047,-1.162,-2.01,-3.716,-4.35
-2.0,2000000019.9681082,1.3895875216,783.429642766212,4791.814529082236,-1.234,-2.108,-3.834,-4.473
-2.0,2000000019.9681082,1.3897198439,862.9785477669702,4768.699981017778,-1.305,-2.204,-3.95,-4.594
-2.0,2000000019.9681082,1.3898411989,950.6047936562819,4743.511960856962,-1.367,-2.296,-4.066,-4.715
-2.0,2000000019.9681082,1.3899537325,1044.7202192208003,4720.630412635905,-1.429,-2.387,-4.179,-4.833
-2.0,2000000019.9681082,1.3900586367,1145.5129414455362,4695.696293383585,-1.482,-2.474,-4.292,-4.952
-2.0,2000000019.9681082,1.3901562691,1256.0299636948755,4673.045396315099,-1.534,-2.56,-4.404,-5.067
-2.0,2000000019.9681082,1.3902499676,1377.2094688939458,4648.362618593011,-1.58,-2.643,-4.515,-5.184
-2.0,2000000019.9681082,1.3903210163,1472.3125024327194,4631.268924918746,-1.612,-2.703,-4.595,-5.268
-2.0,2000000019.9681082,1.3903210163,97.72372209558107,6147.520703193109,0.295,-0.111,-1.103,-1.437
-2.0,2000000019.9681082,1.39047122,98.4011105761134,6081.350012787177,0.309,-0.111,-1.133,-1.48
-2.0,2000000019.9681082,1.3910018206,99.77000638225536,5985.494002869498,0.329,-0.113,-1.179,-1.546
-2.0,2000000019.9681082,1.3915543556,100.92528860766845,5931.984396649728,0.336,-0.118,-1.209,-1.586
-2.0,2000000019.9681082,1.3921077251,102.09394837076798,5916.978619587192,0.33,-0.128,-1.226,-1.607
-2.0,2000000019.9681082,1.3926647902,103.2761405761397,5929.2532458,0.312,-0.143,-1.234,-1.612
-2.0,2000000019.9681082,1.3932214975,104.23174293933036,5960.737545096847,0.289,-0.159,-1.236,-1.607
-2.0,2000000019.9681082,1.3937726021,105.43868963912593,5996.52985155335,0.264,-0.175,-1.235,-1.599
-2.0,2000000019.9681082,1.3943363428,106.41430182243164,6033.926282193056,0.238,-0.192,-1.234,-1.59
-2.0,2000000019.9681082,1.3948713541,107.64652136298349,6071.555929886486,0.214,-0.208,-1.233,-1.582
-2.0,2000000019.9681082,1.3953963518,108.64256236170655,6106.607404788298,0.191,-0.223,-1.231,-1.573
-2.0,2000000019.9681082,1.3959252834,109.64781961431851,6141.861234063022,0.168,-0.238,-1.23,-1.565
-2.0,2000000019.9681082,1.3965097666,110.66237839776664,6180.164001384158,0.143,-0.254,-1.229,-1.557
-2.0,2000000019.9681082,1.3970793486,111.94378834671514,6218.705637987511,0.119,-0.27,-1.228,-1.548
-2.0,2000000019.9681082,1.3976408243,112.97959146727976,6256.046959640024,0.096,-0.285,-1.226,-1.539
-2.0,2000000019.9681082,1.398189187,114.02497875611685,6293.612503885458,0.073,-0.3,-1.224,-1.53
-2.0,2000000019.9681082,1.3987197876,115.08003889444356,6328.488569256951,0.051,-0.314,-1.222,-1.521
-2.0,2000000019.9681082,1.3989665508,115.34532578210919,6344.537957757143,0.041,-0.321,-1.221,-1.518
-2.0,2000000019.9681082,1.3991574049,115.87773561551262,6357.699545271866,0.034,-0.326,-1.22,-1.515
-2.0,2000000019.9681082,1.3997368813,116.94993910198711,6394.402945292843,0.011,-0.34,-1.218,-1.506
-2.0,2000000019.9681082,1.4002861977,118.03206356517298,6428.357186713859,-0.01,-0.354,-1.217,-1.499
-2.0,2000000019.9681082,1.400870204,119.1242008027375,6461.003852547145,-0.031,-0.368,-1.216,-1.492
-2.0,2000000019.9681082,1.4014410973,120.22644346174131,6489.3320953416915,-0.049,-0.381,-1.217,-1.488
-2.0,2000000019.9681082,1.4020410776,121.33888504649774,6511.784205461806,-0.067,-0.394,-1.22,-1.487
-2.0,2000000019.9681082,1.402639389,122.4616199265049,6526.795418367307,-0.082,-0.406,-1.226,-1.49
-2.0,2000000019.9681082,1.4029541016,123.02687708123811,6532.809588303903,-0.089,-0.412,-1.229,-1.493
-2.0,2000000019.9681082,1.4030641317,123.31048332289096,6532.809588303903,-0.091,-0.414,-1.231,-1.495
-2.0,2000000019.9681082,1.4036529064,124.45146117713857,6529.801810928715,-0.101,-0.425,-1.243,-1.507
-2.0,2000000019.9681082,1.4042489529,125.89254117941675,6514.783683512198,-0.108,-0.435,-1.259,-1.526
-2.0,2000000019.9681082,1.404830575,127.05741052085419,6483.357951220567,-0.111,-0.443,-1.281,-1.552
-2.0,2000000019.9681082,1.4054254293,128.52866599436155,6435.762368376424,-0.109,-0.45,-1.308,-1.588
-2.0,2000000019.9681082,1.4060050249,130.016957803329,6376.758944326096,-0.103,-0.456,-1.341,-1.631
-2.0,2000000019.9681082,1.4065871239,131.82567385564073,6312.479779910386,-0.095,-0.462,-1.375,-1.677
-2.0,2000000019.9681082,1.4071782827,133.3521432163324,6240.221421389766,-0.085,-0.467,-1.412,-1.727
-2.0,2000000019.9681082,1.4077650309,135.20725631942764,6148.936385126267,-0.069,-0.472,-1.458,-1.79
-2.0,2000000019.9681082,1.408223033,135.8313446587154,6163.1111474198415,-0.079,-0.478,-1.458,-1.787
-2.0,2000000019.9681082,1.408613205,137.72094688939458,6036.705647858452,-0.048,-0.475,-1.514,-1.868
-2.0,2000000019.9681082,1.4088922739,139.31568029453035,5918.341211131826,-0.018,-0.473,-1.567,-1.946
-2.0,2000000019.9681082,1.4090533257,140.60475241299144,5831.764797316426,0.007,-0.469,-1.605,-2.002
-2.0,2000000019.9681082,1.4091778994,141.90575216890926,5750.425747706384,0.031,-0.466,-1.641,-2.055
-2.0,2000000019.9681082,1.4093191624,143.21878992735438,5665.001119195332,0.055,-0.464,-1.681,-2.114
-2.0,2000000019.9681082,1.4094749689,145.54590805819655,5566.72798150948,0.081,-0.464,-1.729,-2.183
-2.0,2000000019.9681082,1.4096051455,147.57065332758947,5475.200153037678,0.106,-0.465,-1.775,-2.249
-2.0,2000000019.9681082,1.4096968174,152.40527537972906,5366.609560460733,0.125,-0.48,-1.847,-2.345
-2.0,2000000019.9681082,1.4097236395,156.3147642640954,5321.082592667942,0.122,-0.497,-1.889,-2.397
-2.0,2000000019.9681082,1.4097237587,156.3147642640954,5319.857509170661,0.122,-0.498,-1.889,-2.398
-2.0,2000000019.9681082,1.4097337723,165.19617982290148,5285.669448009903,0.078,-0.553,-1.963,-2.479
-2.0,2000000019.9681082,1.4097445011,181.5515662773135,5244.4506128195335,-0.003,-0.647,-2.079,-2.605
-2.0,2000000019.9681082,1.4097583294,201.37242498623874,5209.547473285554,-0.094,-0.751,-2.202,-2.736
-2.0,2000000019.9681082,1.4098106623,191.8668740670289,5229.979661821558,-0.055,-0.705,-2.145,-2.674
-2.0,2000000019.9681082,1.4100626707,203.7042077705719,5203.553211345586,-0.105,-0.764,-2.219,-2.754
-2.0,2000000019.9681082,1.4101390839,213.30449131465772,5188.000389289609,-0.145,-0.81,-2.274,-2.813
-2.0,2000000019.9681082,1.41023314,225.42392121524304,5168.922254317574,-0.195,-0.866,-2.341,-2.885
-2.0,2000000019.9681082,1.4103562832,249.45947269429536,5136.886854227248,-0.285,-0.968,-2.461,-3.012
-2.0,2000000019.9681082,1.4104306698,271.01916318908417,5112.107761177404,-0.36,-1.053,-2.561,-3.119
-2.0,2000000019.9681082,1.410517931,297.8516429429191,5085.1058793510465,-0.444,-1.15,-2.674,-3.238
-2.0,2000000019.9681082,1.410607338,324.33961734934934,5061.74194011213,-0.521,-1.237,-2.776,-3.346
-2.0,2000000019.9681082,1.410697937,355.6313185689855,5037.3253278550155,-0.603,-1.329,-2.884,-3.46
-2.0,2000000019.9681082,1.4107804298,389.04514499428046,5013.026495398051,-0.685,-1.422,-2.991,-3.573
-2.0,2000000019.9681082,1.4108569622,426.57951880159254,4988.844874600121,-0.766,-1.514,-3.1,-3.688
-2.0,2000000019.9681082,1.4109280109,468.81338214526505,4964.779900060685,-0.849,-1.608,-3.21,-3.805
-2.0,2000000019.9681082,1.41099298,514.0436515824259,4939.693471692561,-0.932,-1.703,-3.321,-3.922
-2.0,2000000019.9681082,1.4110527039,564.9369748123022,4915.86559156862,-1.015,-1.798,-3.432,-4.04
-2.0,2000000019.9681082,1.4111056328,620.8690342300638,4891.026321245936,-1.096,-1.892,-3.542,-4.157
-2.0,2000000019.9681082,1.4111534357,680.7693586937418,4866.312560731986,-1.173,-1.982,-3.651,-4.272
-2.0,2000000019.9681082,1.4111996889,748.1695005111545,4841.7236758409945,-1.249,-2.075,-3.762,-4.39
-2.0,2000000019.9681082,1.4112436771,820.3515443298185,4817.25903559163,-1.319,-2.169,-3.875,-4.508
-2.0,2000000019.9681082,1.411285758,901.571137605957,4791.814529082236,-1.385,-2.261,-3.989,-4.627
-2.0,2000000019.9681082,1.4113265276,990.8319448927675,4767.60207367496,-1.449,-2.353,-4.102,-4.746
-2.0,2000000019.9681082,1.4113663435,1088.9300933334332,4741.3279957862,-1.507,-2.442,-4.216,-4.865
-2.0,2000000019.9681082,1.411405921,1196.7405313072431,4716.284552998378,-1.563,-2.531,-4.331,-4.985
-2.0,2000000019.9681082,1.4114462137,1315.224832192239,4689.213428447355,-1.613,-2.619,-4.446,-5.106
-2.0,2000000019.9681082,1.4114865065,1448.7718535447616,4663.37134746993,-1.66,-2.706,-4.563,-5.228
-2.0,2000000019.9681082,1.4115240574,1595.879147236732,4635.536446198508,-1.702,-2.792,-4.682,-5.353
-2.0,2000000019.9681082,1.4115536213,1761.976046411629,4606.806808300934,-1.733,-2.875,-4.804,-5.481
-2.0,2000000019.9681082,1.4115755558,1927.5249131909366,4582.47389928456,-1.755,-2.947,-4.913,-5.595
-2.0,2000000019.9681082,1.4115972519,2128.139045982711,4551.9763814842045,-1.77,-3.025,-5.038,-5.726
-2.0,2000000019.9681082,1.4116170406,2147.8304741305333,4548.8330733814555,-1.77,-3.031,-5.049,-5.738
-2.0,2000000019.9681082,1.4116196632,2213.094709605639,4540.461526048465,-1.781,-3.053,-5.084,-5.775
-2.0,2000000019.9681082,1.4116216898,2443.430552693971,4510.243611171937,-1.818,-3.131,-5.202,-5.903
-2.0,2000000019.9681082,1.4116249084,2779.7132677592886,4471.981517887507,-1.867,-3.233,-5.357,-6.07
-2.0,2000000019.9681082,1.4116258621,2811.9008303989394,4467.864566912838,-1.871,-3.242,-5.371,-6.085
-2.0,2000000019.9681082,1.411626339,2805.433637951713,4468.89344919767,-1.871,-3.241,-5.37,-6.083
-2.0,2000000019.9681082,1.4116265774,2805.433637951713,4449.385139745807,-1.837,-3.224,-5.375,-6.096
-2.0,2000000019.9681082,1.4116270542,2338.837238659356,4508.167045414601,-1.775,-3.084,-5.154,-5.856
-2.0,2000000019.9681082,1.4116275311,1927.5249131909366,4566.673896495316,-1.715,-2.934,-4.921,-5.607
-2.0,2000000019.9681082,1.4116288424,1093.956366272094,4742.419852602448,-1.514,-2.449,-4.222,-4.871
-2.0,2000000019.9681082,1.4116306305,1049.542428652322,4753.352259428054,-1.489,-2.409,-4.171,-4.818
-2.0,2000000019.9681082,1.4116331339,1158.7773561551262,4720.630412635905,-1.535,-2.498,-4.293,-4.946
-2.0,2000000019.9681082,1.4116361141,1573.9828644662198,4620.617301970837,-1.655,-2.766,-4.673,-5.348
-2.0,2000000019.9681082,1.4116398096,2142.8906011200584,4522.723107939902,-1.719,-3.006,-5.055,-5.753
-2.0,2000000019.9681082,1.4116441011,2666.8586645214805,4453.485062698576,-1.793,-3.173,-5.317,-6.037
-2.0,2000000019.9681082,1.4116489887,3013.006024186122,4412.655266224519,-1.827,-3.262,-5.465,-6.198
-2.0,2000000019.9681082,1.4116545916,3206.2693245054643,4389.34785534717,-1.836,-3.303,-5.542,-6.283
-2.0,2000000019.9681082,1.4116607904,3341.950400261143,4372.199799574554,-1.836,-3.327,-5.591,-6.339
-2.0,2000000019.9681082,1.4116611481,3221.0687912834346,4382.278761036721,-1.824,-3.299,-5.547,-6.291
-2.0,2000000019.9681082,1.411662221,2338.837238659356,4476.102262460901,-1.71,-3.056,-5.166,-5.878
-2.0,2000000019.9681082,1.4116641283,1333.521432163324,4646.222461325775,-1.541,-2.607,-4.481,-5.15
-2.0,2000000019.9681082,1.4116668701,1273.5030810166616,4658.005532200294,-1.517,-2.565,-4.425,-5.092
-2.0,2000000019.9681082,1.4116704464,1406.0475241299143,4624.875008224019,-1.545,-2.647,-4.547,-5.222
-2.0,2000000019.9681082,1.4116749763,1896.7059212111465,4526.890608773584,-1.605,-2.88,-4.919,-5.616
-2.0,2000000019.9681082,1.4116803408,2558.585886905645,4430.982144892989,-1.704,-3.107,-5.279,-6.007
-2.0,2000000019.9681082,1.4116866589,3147.748314101317,4363.148555506765,-1.754,-3.254,-5.529,-6.28
-2.0,2000000019.9681082,1.4116939306,3531.83169791957,4322.151642327874,-1.765,-3.324,-5.668,-6.434
-2.0,2000000019.9681082,1.4117021561,3741.105882720533,4298.3324252156535,-1.755,-3.351,-5.739,-6.514
-2.0,2000000019.9681082,1.4117113352,3872.576449216173,4281.539943374177,-1.74,-3.363,-5.783,-6.564
-2.0,2000000019.9681082,1.4117115736,3854.783576657717,4281.539943374177,-1.738,-3.359,-5.778,-6.559
-2.0,2000000019.9681082,1.4117121696,2818.382931264455,4375.221051582521,-1.668,-3.148,-5.404,-6.151
-2.0,2000000019.9681082,1.4117133617,1621.8100973589299,4543.599049293402,-1.475,-2.727,-4.743,-5.435
-2.0,2000000019.9681082,1.4117150307,1538.154640303034,4557.220055886471,-1.452,-2.683,-4.68,-5.368
-2.0,2000000019.9681082,1.4117171764,1698.2436524617442,4519.600000304826,-1.47,-2.753,-4.801,-5.5
-2.0,2000000019.9681082,1.4117199183,2264.6443075930597,4419.773361155814,-1.718,-3.077,-5.162,-5.904
-2.0,2000000019.9681082,1.4117232561,3019.9517204020162,4319.1670367104325,-1.945,-3.351,-5.49,-6.247
-2.0,2000000019.9681082,1.41172719,3689.775985701505,4245.2180293408355,-2.039,-3.503,-5.729,-6.513
-2.0,2000000019.9681082,1.4117316008,4120.975190973304,4195.657223387252,-2.077,-3.579,-5.863,-6.666
-2.0,2000000019.9681082,1.4117366076,4355.118736855684,4161.980106186026,-2.079,-3.608,-5.934,-6.75
-2.0,2000000019.9681082,1.4117422104,4518.559443749222,4132.377611997572,-2.062,-3.616,-5.98,-6.808
-2.0,2000000019.9681082,1.4117424488,4613.175745603796,4124.772497846638,-2.07,-3.63,-6.004,-6.835
-2.0,2000000019.9681082,1.4117431641,3380.6483620598156,4219.879016871569,-1.915,-3.391,-5.641,-6.435
-2.0,2000000019.9681082,1.4117443562,1967.886289706845,4395.416154378243,-1.565,-2.924,-5.008,-5.749
-2.0,2000000019.9681082,1.4117461443,1853.5316234148106,4406.563166924702,-1.507,-2.862,-4.943,-5.686
-2.0,2000000019.9681082,1.4117486477,2051.1621788255648,4360.1356400039895,-1.597,-2.966,-5.056,-5.798
-2.0,2000000019.9681082,1.4117516279,2722.701308077913,4245.2180293408355,-1.735,-3.183,-5.396,-6.181
-2.0,2000000019.9681082,1.4117552042,3597.4933515574235,4128.573303779981,-1.838,-3.375,-5.73,-6.561
-2.0,2000000019.9681082,1.4117593765,4365.158322401661,4038.313213488514,-1.866,-3.484,-5.963,-6.833
-2.0,2000000019.9681082,1.4117641449,4875.284901033865,3975.575449270531,-1.833,-3.519,-6.097,-6.997
-2.0,2000000019.9681082,1.4117696285,5176.068319505676,3928.2579671627864,-1.818,-3.53,-6.167,-7.09
-2.0,2000000019.9681082,1.4117757082,5382.697825162882,3887.7649492799937,-1.801,-3.528,-6.213,-7.157
