FeH,Age,Mini,L,Te,Bmag,Vmag,Jmag,Kmag
-1.6,10500016946.500366,0.0900000036,0.000647142615748583,3006.076302628232,17.342,15.327,10.746,10.363
-1.6,10500016946.500366,0.0913836136,0.0007177942912713615,3052.1087222420074,17.054,15.053,10.655,10.234
-1.6,10500016946.500366,0.1000000015,0.001333521432163324,3336.56815138526,15.471,13.649,10.117,9.518
-1.6,10500016946.500366,0.1200000048,0.0025882129151530904,3583.43886814277,14.128,12.536,9.499,8.812
-1.6,10500016946.500366,0.1400000006,0.003926449353995997,3711.07729492926,13.402,11.924,9.095,8.375
-1.6,10500016946.500366,0.1599999964,0.0054450265284242145,3797.519389713327,12.883,11.477,8.772,8.035
-1.6,10500016946.500366,0.2000000179,0.009036494737223014,3912.911271268528,12.129,10.815,8.261,7.509
-1.6,10500016946.500366,0.25,0.014487718535447617,4014.209182043213,11.46,10.216,7.782,7.027
-1.6,10500016946.500366,0.3000000417,0.020749135174549096,4095.434646443952,10.953,9.761,7.415,6.664
-1.6,10500016946.500366,0.349999994,0.02773320104651841,4166.774522219098,10.54,9.391,7.119,6.375
-1.6,10500016946.500366,0.400000006,0.038018939632056124,4269.725940480334,10.069,8.976,6.806,6.076
-1.6,10500016946.500366,0.4500000179,0.055975760149511014,4446.312674691088,9.45,8.445,6.434,5.738
-1.6,10500016946.500366,0.5,0.08609937521846008,4695.696293383585,8.739,7.841,6.037,5.398
-1.6,10500016946.500366,0.5500000715,0.1383566378971781,4955.642855622974,8.022,7.218,5.605,5.033
-1.6,10500016946.500366,0.6000000238,0.2202926463053456,5263.807517745308,7.337,6.63,5.201,4.701
-1.6,10500016946.500366,0.6065790057,0.23496328208483072,5310.066989662834,7.244,6.552,5.149,4.659
-1.6,10500016946.500366,0.6212117672,0.2703958364108844,5417.513472313468,7.04,6.38,5.032,4.563
-1.6,10500016946.500366,0.6347048283,0.3083187950249354,5516.9620938349835,6.855,6.223,4.924,4.473
-1.6,10500016946.500366,0.6462519765,0.34514373933585624,5601.444019285339,6.699,6.091,4.831,4.396
-1.6,10500016946.500366,0.6499999762,0.358096437102636,5629.891173942436,6.648,6.048,4.801,4.37
-1.6,10500016946.500366,0.6557248235,0.3784425847170933,5668.915715231895,6.572,5.984,4.755,4.331
-1.6,10500016946.500366,0.6699895859,0.4355118736855686,5767.664633922509,6.382,5.821,4.638,4.231
-1.6,10500016946.500366,0.6835317612,0.49888448746001224,5860.032167510559,6.204,5.668,4.523,4.131
-1.6,10500016946.500366,0.6960688233,0.5675446054085471,5944.290151976951,6.039,5.525,4.415,4.036
-1.6,10500016946.500366,0.6999999881,0.5915616341754739,5970.352865838366,5.987,5.479,4.38,4.005
-1.6,10500016946.500366,0.7062434554,0.6309573444801932,6010.353280502418,5.903,5.406,4.323,3.955
-1.6,10500016946.500366,0.7181747556,0.7194489780036994,6085.552311808156,5.741,5.263,4.211,3.854
-1.6,10500016946.500366,0.7287917733,0.8090958991783823,6151.7687270986835,5.594,5.131,4.105,3.759
-1.6,10500016946.500366,0.7388002276,0.9099132726322515,6212.980635293497,5.45,5.002,4.0,3.664
-1.6,10500016946.500366,0.7475848198,1.0139113857366795,6264.695981078889,5.319,4.882,3.902,3.574
-1.6,10500016946.500366,0.75,1.0447202192208,6279.137596800936,5.282,4.849,3.875,3.549
-1.6,10500016946.500366,0.7500578761,1.0447202192208,6279.137596800936,5.281,4.848,3.874,3.548
-1.6,10500016946.500366,0.7596036792,1.1830415557251648,6335.778706712548,5.132,4.711,3.76,3.443
-1.6,10500016946.500366,0.7680592537,1.330454417978091,6385.574850788397,4.992,4.582,3.65,3.342
-1.6,10500016946.500366,0.7761279941,1.4962356560944334,6432.799272608504,4.85,4.45,3.537,3.237
-1.6,10500016946.500366,0.7835649252,1.6826740610704674,6474.407045688151,4.711,4.321,3.425,3.132
-1.6,10500016946.500366,0.7903712392,1.8836490894898006,6508.786108404092,4.577,4.194,3.312,3.025
-1.6,10500016946.500366,0.7965992093,2.1037784397664754,6535.818751130748,4.449,4.071,3.2,2.917
-1.6,10500016946.500366,0.8000000119,2.2438819237827663,6546.361740672747,4.375,4.0,3.134,2.853
-1.6,10500016946.500366,0.8052779436,2.4831331052955705,6561.452663029057,4.258,3.886,3.028,2.75
-1.6,10500016946.500366,0.8063454032,2.540972705549305,6564.475019516997,4.234,3.862,3.005,2.728
-1.6,10500016946.500366,0.8082527518,2.6485001386067006,6562.9636672922,4.188,3.816,2.959,2.682
-1.6,10500016946.500366,0.8136697412,3.0060763026282307,6543.347723737576,4.051,3.678,2.815,2.535
-1.6,10500016946.500366,0.8181827664,3.3962527259040844,6493.816315762113,3.926,3.546,2.666,2.378
-1.6,10500016946.500366,0.8189457655,3.4753616144320585,6480.372941922908,3.904,3.522,2.636,2.347
-1.6,10500016946.500366,0.8196656108,3.5563131856898536,6462.491724953881,3.881,3.497,2.604,2.312
-1.6,10500016946.500366,0.8220841289,3.872576449216172,6385.574850788397,3.806,3.408,2.487,2.183
-1.6,10500016946.500366,0.8239269257,4.168693834703354,6295.061828571975,3.747,3.333,2.377,2.058
-1.6,10500016946.500366,0.8253645897,4.446312674691087,6188.708114190298,3.704,3.269,2.27,1.934
-1.6,10500016946.500366,0.8265209198,4.698941086052154,6077.15061560915,3.674,3.216,2.171,1.816
-1.6,10500016946.500366,0.8274837732,4.931738039549358,5964.856499193778,3.654,3.17,2.079,1.703
-1.6,10500016946.500366,0.8283224106,5.1641636927207095,5858.683000573763,3.638,3.129,1.992,1.597
-1.6,10500016946.500366,0.8290960789,5.445026528424211,5758.375744868389,3.617,3.083,1.902,1.489
-1.6,10500016946.500366,0.8298726082,5.821032177708714,5663.696854647211,3.577,3.019,1.795,1.364
-1.6,10500016946.500366,0.8304797411,6.2805835881331795,5601.444019285339,3.52,2.946,1.694,1.251
-1.6,10500016946.500366,0.8310806155,6.854882264526615,5547.534349517692,3.446,2.857,1.58,1.127
-1.6,10500016946.500366,0.8312692046,7.079457843841379,5536.049950434,3.414,2.822,1.539,1.083
-1.6,10500016946.500366,0.8317753077,7.7983011052325875,5504.273433125772,3.322,2.723,1.425,0.963
-1.6,10500016946.500366,0.8323287964,8.729713683881116,5473.939586745954,3.213,2.605,1.292,0.823
-1.6,10500016946.500366,0.8327986598,9.68277856261249,5451.298956889106,3.109,2.496,1.171,0.697
-1.6,10500016946.500366,0.8332476616,10.76465213629835,5428.7519703968255,3.003,2.384,1.048,0.569
-1.6,10500016946.500366,0.8337036967,12.105981335504822,5408.788505661013,2.886,2.261,0.915,0.431
-1.6,10500016946.500366,0.834122777,13.583134465871542,5388.89845373287,2.769,2.139,0.783,0.294
-1.6,10500016946.500366,0.8344989419,15.170503674593368,5369.081544647211,2.656,2.021,0.655,0.161
-1.6,10500016946.500366,0.8348277807,16.865530253887414,5351.801537712866,2.549,1.909,0.534,0.035
-1.6,10500016946.500366,0.8351482153,18.879913490962934,5333.348954876208,2.435,1.791,0.406,-0.097
-1.6,10500016946.500366,0.8354554772,21.23244462000219,5312.5129290366,2.316,1.667,0.271,-0.237
-1.6,10500016946.500366,0.8357132077,23.65919697485759,5294.19581017428,2.209,1.554,0.148,-0.364
-1.6,10500016946.500366,0.8359481692,26.302679918953814,5275.9418472699535,2.102,1.442,0.026,-0.49
-1.6,10500016946.500366,0.8361691833,29.308932452503214,5255.33009626921,1.993,1.327,-0.098,-0.62
-1.6,10500016946.500366,0.8363646269,32.50872973854344,5236.0043658575005,1.889,1.218,-0.219,-0.745
-1.6,10500016946.500366,0.8365504146,36.30780547701014,5215.548640348755,1.782,1.104,-0.343,-0.875
-1.6,10500016946.500366,0.8367141485,40.271703432545905,5195.172830110672,1.679,0.995,-0.463,-1.0
-1.6,10500016946.500366,0.8368599415,44.56562483975033,5176.068319505676,1.581,0.89,-0.579,-1.121
-1.6,10500016946.500366,0.8369988203,49.43106869868354,5154.659707832393,1.478,0.781,-0.7,-1.246
-1.6,10500016946.500366,0.8371244669,54.82769649208539,5134.521775029668,1.379,0.674,-0.819,-1.37
-1.6,10500016946.500366,0.8372352123,60.39486293763797,5113.285003019643,1.285,0.572,-0.933,-1.489
-1.6,10500016946.500366,0.8373368382,66.52731562017412,5093.308710571952,1.192,0.471,-1.045,-1.606
-1.6,10500016946.500366,0.8374352455,73.6207097494736,5071.074606405172,1.095,0.366,-1.163,-1.729
-1.6,10500016946.500366,0.8375213742,81.09610578538408,5050.100256703167,1.005,0.268,-1.274,-1.845
-1.6,10500016946.500366,0.8376005888,89.12509381337455,5029.2126585044525,0.916,0.171,-1.383,-1.96
-1.6,10500016946.500366,0.8376755714,97.94899854086991,5008.411452998231,0.827,0.072,-1.495,-2.077
-1.6,10500016946.500366,0.8377416134,107.1519305237606,4987.696282857759,0.745,-0.018,-1.598,-2.186
-1.6,10500016946.500366,0.8378051519,116.6809617060963,4968.210633313916,0.666,-0.106,-1.698,-2.291
-1.6,10500016946.500366,0.8378711939,125.89254117941675,4951.080641176657,0.597,-0.183,-1.786,-2.384
-1.6,10500016946.500366,0.8379301429,133.04544179780913,4939.693471692561,0.546,-0.239,-1.851,-2.452
-1.6,10500016946.500366,0.8379795551,127.93813041575252,4952.220800885213,0.579,-0.201,-1.804,-2.401
-1.6,10500016946.500366,0.8379861712,127.35030810166616,4953.361223155476,0.583,-0.195,-1.797,-2.394
-1.6,10500016946.500366,0.8380194306,135.20725631942764,4939.693471692561,0.528,-0.258,-1.869,-2.47
-1.6,10500016946.500366,0.8380698562,149.2794409578996,4915.86559156862,0.441,-0.356,-1.984,-2.591
-1.6,10500016946.500366,0.8381168842,164.43717232149325,4892.152651344176,0.355,-0.453,-2.097,-2.712
-1.6,10500016946.500366,0.8381602168,180.71741260109275,4868.554096577112,0.272,-0.549,-2.209,-2.831
-1.6,10500016946.500366,0.8381983042,197.696964011186,4845.069375499792,0.196,-0.638,-2.316,-2.944
-1.6,10500016946.500366,0.8382353783,217.27011788637455,4821.697939006178,0.12,-0.733,-2.427,-3.062
-1.6,10500016946.500366,0.8382680416,237.13737056616552,4797.334486366892,0.052,-0.821,-2.533,-3.173
-1.6,10500016946.500366,0.8382996917,260.0159563165272,4775.2927365769065,-0.019,-0.912,-2.642,-3.288
-1.6,10500016946.500366,0.8383277655,283.7919028441555,4751.163763775616,-0.083,-0.997,-2.746,-3.398
-1.6,10500016946.500366,0.8383604884,316.22776601683796,4721.717503108786,-0.16,-1.103,-2.876,-3.534
-1.6,10500016946.500366,0.8383895755,350.75187395256796,4692.453741364405,-0.228,-1.203,-3.002,-3.667
-1.6,10500016946.500366,0.8384124637,383.70724549227884,4668.743343920188,-0.283,-1.287,-3.108,-3.778
-1.6,10500016946.500366,0.8384367228,423.6429660495409,4639.807899821257,-0.342,-1.38,-3.229,-3.906
-1.6,10500016946.500366,0.8384561539,462.38102139926036,4616.363515404673,-0.39,-1.459,-3.333,-4.016
-1.6,10500016946.500366,0.8384766579,509.3308710571952,4587.752705471357,-0.44,-1.547,-3.451,-4.14
-1.6,10500016946.500366,0.8384963274,563.6376558259543,4559.319216592223,-0.486,-1.635,-3.572,-4.268
-1.6,10500016946.500366,0.838514626,622.3002851691596,4528.975799036209,-0.537,-1.721,-3.692,-4.397
-1.6,10500016946.500366,0.8385305405,683.9116472814293,4501.94308282431,-0.589,-1.802,-3.802,-4.517
-1.6,10500016946.500366,0.8385461569,753.355563733717,4473.0113482444785,-0.642,-1.885,-3.918,-4.643
-1.6,10500016946.500366,0.8385596871,826.0379495771783,4445.28899122317,-0.686,-1.959,-4.026,-4.761
-1.6,10500016946.500366,0.8385728002,907.8205301781861,4417.738448896479,-0.728,-2.034,-4.138,-4.882
-1.6,10500016946.500366,0.8385850191,995.4054173515275,4388.337287003648,-0.766,-2.107,-4.249,-5.004
-1.6,10500016946.500366,0.8385957479,1086.4256236170656,4362.144019080488,-0.802,-2.175,-4.352,-5.118
-1.6,10500016946.500366,0.8386061788,1188.502227437019,4335.108783875289,-0.835,-2.241,-4.458,-5.234
-1.6,10500016946.500366,0.8386159539,1300.16957803329,4306.257543211735,-0.863,-2.305,-4.563,-5.351
-1.6,10500016946.500366,0.8386247754,1415.793779957081,4280.55419586204,-0.892,-2.367,-4.664,-5.463
-1.6,10500016946.500366,0.8386336565,1548.816618912481,4253.04521683435,-0.921,-2.432,-4.771,-5.58
-1.6,10500016946.500366,0.8386414647,1686.5530253887407,4226.686142656029,-0.946,-2.49,-4.869,-5.69
-1.6,10500016946.500366,0.8386491537,1836.5383433483455,4201.457743989054,-0.972,-2.549,-4.968,-5.801
-1.6,10500016946.500366,0.8386555314,1963.3602768360474,4181.190933499036,-0.986,-2.592,-5.047,-5.888
-1.6,10500016946.500366,0.8386555314,54.954087385762456,5922.430868761306,0.998,0.531,-0.559,-0.935
-1.6,10500016946.500366,0.838707149,57.41164622073274,5865.431942902653,0.972,0.491,-0.626,-1.014
-1.6,10500016946.500366,0.8387597203,57.80960474057181,5862.731433534501,0.966,0.485,-0.634,-1.023
-1.6,10500016946.500366,0.8388131261,57.94286964268809,5866.782664019773,0.961,0.481,-0.636,-1.023
-1.6,10500016946.500366,0.8388659954,57.94286964268809,5876.246425275582,0.956,0.478,-0.634,-1.02
-1.6,10500016946.500366,0.8389207125,58.07644175213121,5887.080847020434,0.951,0.476,-0.631,-1.015
-1.6,10500016946.500366,0.8389739394,57.94286964268809,5900.651969956664,0.946,0.474,-0.626,-1.006
-1.6,10500016946.500366,0.8390312791,57.94286964268809,5918.341211131826,0.941,0.473,-0.619,-0.996
-1.6,10500016946.500366,0.8390851617,57.80960474057181,5934.716805530554,0.936,0.473,-0.611,-0.984
-1.6,10500016946.500366,0.8391409516,57.80960474057181,5952.508167809473,0.931,0.472,-0.603,-0.973
-1.6,10500016946.500366,0.8391936421,57.67664633922506,5968.978299546356,0.926,0.471,-0.596,-0.962
-1.6,10500016946.500366,0.8392510414,57.543993733715695,5985.494002869498,0.921,0.47,-0.59,-0.952
-1.6,10500016946.500366,0.8393086791,57.543993733715695,5997.910762555094,0.917,0.47,-0.584,-0.944
-1.6,10500016946.500366,0.8393633962,57.543993733715695,6008.9695048348585,0.914,0.469,-0.58,-0.938
-1.6,10500016946.500366,0.8394179344,57.543993733715695,6014.506519775483,0.912,0.468,-0.578,-0.934
-1.6,10500016946.500366,0.8394242525,57.543993733715695,6015.8915705346435,0.912,0.468,-0.577,-0.934
-1.6,10500016946.500366,0.8394297957,57.543993733715695,6015.8915705346435,0.911,0.468,-0.577,-0.934
-1.6,10500016946.500366,0.8394806385,57.543993733715695,6015.8915705346435,0.91,0.467,-0.578,-0.934
-1.6,10500016946.500366,0.8395341635,57.67664633922506,6013.121787899338,0.91,0.466,-0.58,-0.937
-1.6,10500016946.500366,0.8395873308,57.80960474057181,6006.202909194723,0.91,0.465,-0.585,-0.943
-1.6,10500016946.500366,0.8396401405,57.94286964268809,5995.149258481517,0.912,0.463,-0.592,-0.953
-1.6,10500016946.500366,0.8396911621,58.07644175213121,5978.606913524932,0.914,0.462,-0.601,-0.965
-1.6,10500016946.500366,0.8397429585,58.34451042737448,5957.993155981378,0.917,0.459,-0.613,-0.982
-1.6,10500016946.500366,0.8397955894,58.74893525297766,5933.35044380004,0.92,0.457,-0.628,-1.001
-1.6,10500016946.500366,0.8398210406,58.8843655355589,5921.067335646615,0.922,0.455,-0.636,-1.012
-1.6,10500016946.500366,0.8398294449,58.8843655355589,5915.616341754737,0.922,0.455,-0.639,-1.016
-1.6,10500016946.500366,0.8398790359,59.42921586155727,5885.725452612013,0.926,0.451,-0.657,-1.04
-1.6,10500016946.500366,0.8399274349,59.84115950603196,5855.985598492877,0.93,0.447,-0.674,-1.064
-1.6,10500016946.500366,0.8399791718,60.39486293763797,5826.396016235753,0.932,0.442,-0.694,-1.09
-1.6,10500016946.500366,0.8400284052,60.953689724016904,5796.955946535209,0.934,0.436,-0.714,-1.116
-1.6,10500016946.500366,0.8400755525,61.517687270986805,5770.321353329298,0.934,0.429,-0.733,-1.141
-1.6,10500016946.500366,0.8401242495,62.08690342300634,5746.45486597673,0.932,0.422,-0.752,-1.165
-1.6,10500016946.500366,0.8401719928,62.8058358813318,5724.004941344636,0.93,0.414,-0.771,-1.189
-1.6,10500016946.500366,0.8402203321,63.53309318517436,5702.955725720632,0.927,0.404,-0.791,-1.214
-1.6,10500016946.500366,0.8402686715,64.41692655151772,5679.367867720036,0.921,0.393,-0.814,-1.242
-1.6,10500016946.500366,0.8403173685,65.46361740672751,5661.089226332155,0.913,0.379,-0.836,-1.268
-1.6,10500016946.500366,0.8403269649,65.76578373554206,5655.877570891539,0.911,0.375,-0.843,-1.276
-1.6,10500016946.500366,0.8403769135,67.92036326171846,5607.8966337451,0.895,0.346,-0.896,-1.339
-1.6,10500016946.500366,0.840426147,71.44963260755135,5550.089671836454,0.866,0.302,-0.968,-1.423
-1.6,10500016946.500366,0.8404675126,76.73614893618189,5477.722156556586,0.82,0.235,-1.071,-1.541
-1.6,10500016946.500366,0.8404899836,83.17637711026708,5407.5432294558095,0.766,0.158,-1.183,-1.669
-1.6,10500016946.500366,0.8405000567,90.36494737223013,5345.643593969719,0.709,0.081,-1.293,-1.792
-1.6,10500016946.500366,0.8405045867,97.94899854086991,5290.539972095819,0.649,0.003,-1.4,-1.912
-1.6,10500016946.500366,0.8405067325,105.92537251772886,5244.4506128195335,0.591,-0.072,-1.5,-2.022
-1.6,10500016946.500366,0.8405076265,111.17317272815909,5217.95104239002,0.553,-0.119,-1.561,-2.09
-1.6,10500016946.500366,0.8405082226,116.94993910198711,5193.976735070076,0.512,-0.17,-1.626,-2.16
-1.6,10500016946.500366,0.8405094147,130.016957803329,5147.54319931262,0.424,-0.275,-1.757,-2.303
-1.6,10500016946.500366,0.8405103087,141.90575216890926,5113.285003019643,0.353,-0.361,-1.864,-2.418
-1.6,10500016946.500366,0.840511322,153.4616982799294,5082.764640683731,0.288,-0.439,-1.96,-2.522
-1.6,10500016946.500366,0.840513587,159.220872705117,5071.074606405172,0.256,-0.476,-2.005,-2.57
-1.6,10500016946.500366,0.8405154347,147.23125024327194,5102.699578594392,0.319,-0.399,-1.909,-2.465
-1.6,10500016946.500366,0.8405227065,137.72094688939458,5128.613839913648,0.375,-0.332,-1.826,-2.376
-1.6,10500016946.500366,0.8405534029,149.6235656094433,5092.136067911513,0.31,-0.412,-1.929,-2.488
-1.6,10500016946.500366,0.8405719995,165.19617982290148,5053.589947531675,0.231,-0.509,-2.05,-2.62
-1.6,10500016946.500366,0.8405864835,180.71741260109275,5018.801279032415,0.157,-0.599,-2.161,-2.74
-1.6,10500016946.500366,0.8406034708,199.52623149688787,4983.104559705293,0.078,-0.694,-2.28,-2.868
-1.6,10500016946.500366,0.8406197429,219.78598727848254,4949.940743969349,-0.001,-0.789,-2.397,-2.995
-1.6,10500016946.500366,0.8406342864,241.54608344449403,4915.86559156862,-0.078,-0.882,-2.513,-3.12
-1.6,10500016946.500366,0.8406472802,265.4605561975539,4884.273784229252,-0.153,-0.974,-2.627,-3.243
-1.6,10500016946.500366,0.8406588435,291.7427014001166,4851.7677121925735,-0.227,-1.064,-2.74,-3.367
-1.6,10500016946.500366,0.8406693339,320.6269324505464,4820.587829837399,-0.294,-1.156,-2.855,-3.49
-1.6,10500016946.500366,0.8406788111,352.3708710424873,4788.50560386518,-0.357,-1.248,-2.971,-3.613
-1.6,10500016946.500366,0.8406873941,387.25764492161727,4757.732275412047,-0.415,-1.336,-3.086,-3.734
-1.6,10500016946.500366,0.8406953216,424.619563946313,4726.06836898339,-0.469,-1.423,-3.2,-3.855
-1.6,10500016946.500366,0.8407026529,466.6593803142887,4694.615193825913,-0.519,-1.509,-3.315,-3.977
-1.6,10500016946.500366,0.8407096863,511.6818355403078,4662.297690149265,-0.565,-1.593,-3.428,-4.098
-1.6,10500016946.500366,0.8407164812,561.0479760324706,4631.268924918746,-0.606,-1.674,-3.542,-4.218
-1.6,10500016946.500366,0.8407230377,615.1768727098683,4599.38749388997,-0.644,-1.755,-3.656,-4.34
-1.6,10500016946.500366,0.8407289982,676.0829753919819,4567.725533088667,-0.677,-1.835,-3.772,-4.463
-1.6,10500016946.500366,0.840734601,743.0191378967014,4534.192977790139,-0.712,-1.912,-3.887,-4.589
-1.6,10500016946.500366,0.840739429,820.3515443298185,4499.8703387215055,-0.756,-1.991,-4.005,-4.718
-1.6,10500016946.500366,0.8407432437,903.6494737223014,4466.835921509631,-0.792,-2.066,-4.121,-4.846
-1.6,10500016946.500366,0.8407463431,986.279485631211,4436.086439314323,-0.825,-2.134,-4.228,-4.964
-1.6,10500016946.500366,0.8407495022,1081.4339512979375,4403.520272026519,-0.858,-2.202,-4.337,-5.085
-1.6,10500016946.500366,0.8407523036,1185.7687481671596,4370.186790706132,-0.89,-2.271,-4.448,-5.208
-1.6,10500016946.500366,0.8407549262,1312.1998990192028,4335.108783875289,-0.919,-2.341,-4.567,-5.341
-1.6,10500016946.500366,0.840755105,1435.489433353656,4301.302633821362,-0.938,-2.401,-4.676,-5.464
-1.6,10500016946.500366,0.8407552242,1531.0874616820304,4277.59831482038,-0.951,-2.442,-4.751,-5.549
-1.6,10500016946.500366,0.8407555223,1682.6740610704674,4242.286549229506,-0.971,-2.504,-4.865,-5.679
-1.6,10500016946.500366,0.8407560587,1879.3168168032685,4203.393032365499,-0.996,-2.575,-4.995,-5.827
-1.6,10500016946.500366,0.8407562375,1927.5249131909366,4194.691248825665,-0.999,-2.589,-5.023,-5.858
-1.6,10500016946.500366,0.8407562971,1936.4219639466069,4193.72549666233,-1.0,-2.593,-5.028,-5.864
-1.6,10500016946.500366,0.8407563567,2371.373705661655,4133.329236662004,-1.039,-2.718,-5.268,-6.13
-1.6,10500016946.500366,0.8407564163,1633.0519478943347,4251.087068046156,-0.96,-2.482,-4.83,-5.64
-1.6,10500016946.500366,0.8407564759,1174.897554939529,4373.2066516964505,-0.885,-2.263,-4.437,-5.196
-1.6,10500016946.500366,0.8407566547,741.3102413009177,4549.880601500485,-0.731,-1.92,-3.88,-4.576
-1.6,10500016946.500366,0.8407569528,751.6228940182053,4543.599049293402,-0.733,-1.929,-3.896,-4.594
-1.6,10500016946.500366,0.8407572508,935.4056741475521,4457.58876355946,-0.805,-2.093,-4.162,-4.89
-1.6,10500016946.500366,0.8407576084,1348.9628825916532,4316.1844920735875,-0.903,-2.349,-4.602,-5.384
-1.6,10500016946.500366,0.8407580853,1853.5316234148106,4196.623420398315,-0.96,-2.55,-4.982,-5.816
-1.6,10500016946.500366,0.8407585621,2290.8676527677726,4118.129505138526,-0.963,-2.658,-5.234,-6.104
-1.6,10500016946.500366,0.8407591581,2576.3211570025755,4073.802778041126,-0.956,-2.713,-5.373,-6.264
-1.6,10500016946.500366,0.8407598138,2741.5741719278835,4049.48691518634,-0.945,-2.736,-5.446,-6.349
-1.6,10500016946.500366,0.840760529,2851.0182675039096,4033.6666088992683,-0.932,-2.748,-5.493,-6.405
