FeH,Age,Mini,L,Te,Bmag,Vmag,Jmag,Kmag
-0.5,2000000019.9681082,0.0900000036,0.00047206304126359047,2543.899793129798,19.678,17.69,10.949,10.252
-0.5,2000000019.9681082,0.0901759937,0.0004764309868054156,2547.4167494427943,19.668,17.68,10.939,10.242
-0.5,2000000019.9681082,0.0921405852,0.0005248074602497728,2582.854846476372,19.555,17.57,10.834,10.135
-0.5,2000000019.9681082,0.1000000015,0.0007620790100254123,2724.58273325773,18.486,16.575,10.483,9.739
-0.5,2000000019.9681082,0.1199999973,0.001412537544622754,2933.593941214125,16.75,14.966,9.906,9.111
-0.5,2000000019.9681082,0.1400000006,0.00216271852372702,3067.608976917938,15.713,13.989,9.5,8.688
-0.5,2000000019.9681082,0.1599999964,0.002992264636608189,3161.5496026522924,15.014,13.334,9.183,8.366
-0.5,2000000019.9681082,0.1999999881,0.004920395356814511,3294.579562412821,14.068,12.448,8.696,7.875
-0.5,2000000019.9681082,0.2080363929,0.0053333489548762075,3313.599377790872,13.927,12.316,8.616,7.795
-0.5,2000000019.9681082,0.25,0.00776247116628692,3404.081897010009,13.294,11.731,8.239,7.417
-0.5,2000000019.9681082,0.3343403339,0.014387985782558451,3527.7678661887385,12.364,10.863,7.613,6.789
-0.5,2000000019.9681082,0.3476651609,0.015812480392703835,3544.051302809929,12.228,10.736,7.516,6.691
-0.5,2000000019.9681082,0.3499999642,0.016032453906900418,3547.316998366914,12.206,10.715,7.501,6.676
-0.5,2000000019.9681082,0.3584774137,0.01710015315090288,3563.6906696823603,12.109,10.624,7.439,6.614
-0.5,2000000019.9681082,0.3999999762,0.022594357702209782,3640.8266378940075,11.667,10.214,7.162,6.334
-0.5,2000000019.9681082,0.4499999881,0.03296097121774578,3761.8372279132846,11.068,9.659,6.795,5.964
-0.5,2000000019.9681082,0.4999999404,0.04920395356814509,3925.545359701092,10.407,9.062,6.412,5.585
-0.5,2000000019.9681082,0.5455585718,0.07211074791828997,4133.329236662004,9.729,8.479,6.051,5.24
-0.5,2000000019.9681082,0.5500000119,0.07481695005111545,4152.407817569997,9.666,8.427,6.018,5.209
-0.5,2000000019.9681082,0.5999999642,0.11220184543019636,4433.02315750427,8.868,7.777,5.649,4.893
-0.5,2000000019.9681082,0.6257869005,0.13740419750125152,4593.037592608176,8.444,7.438,5.473,4.764
-0.5,2000000019.9681082,0.6499999166,0.1651961798229015,4743.511960856962,8.082,7.144,5.316,4.654
-0.5,2000000019.9681082,0.6839962006,0.21183611352485016,4948.801109202861,7.627,6.766,5.109,4.514
-0.5,2000000019.9681082,0.6999999881,0.23768402866248767,5044.28945952414,7.431,6.602,5.016,4.449
-0.5,2000000019.9681082,0.7108108401,0.2558585886905646,5108.5776616335625,7.305,6.496,4.955,4.406
-0.5,2000000019.9681082,0.7487857342,0.3303695410368148,5332.1210472698,6.89,6.15,4.75,4.26
-0.5,2000000019.9681082,0.7549681067,0.3443499307633385,5365.373995198518,6.829,6.097,4.717,4.234
-0.5,2000000019.9681082,0.7975714207,0.45081670454146017,5585.9880205725585,6.428,5.757,4.497,4.064
-0.5,2000000019.9681082,0.8463189006,0.6067363295885054,5814.334323084471,6.011,5.403,4.255,3.867
-0.5,2000000019.9681082,0.8463571072,0.6067363295885054,5814.334323084471,6.011,5.402,4.254,3.867
-0.5,2000000019.9681082,0.8723713756,0.7063175542629619,5923.794715877255,5.803,5.225,4.127,3.76
-0.5,2000000019.9681082,0.8951427937,0.8053784411990667,6018.662628995737,5.626,5.075,4.019,3.669
-0.5,2000000019.9681082,0.9110357165,0.8830799004185628,6077.15061560915,5.507,4.972,3.943,3.603
-0.5,2000000019.9681082,0.93908149,1.0327614057613974,6180.164001384158,5.301,4.795,3.809,3.488
-0.5,2000000019.9681082,0.9439284801,1.0616955571987245,6197.264039282265,5.266,4.765,3.786,3.467
-0.5,2000000019.9681082,0.9660896659,1.202264434617413,6274.80161997852,5.11,4.627,3.679,3.373
-0.5,2000000019.9681082,0.9927142262,1.3899526312133532,6365.023332473052,4.924,4.465,3.552,3.26
-0.5,2000000019.9681082,0.9964509606,1.4190575216890922,6376.758944326096,4.899,4.442,3.535,3.245
-0.5,2000000019.9681082,1.023598671,1.6405897731995394,6468.44664171722,4.714,4.279,3.407,3.131
-0.5,2000000019.9681082,1.0414998531,1.807174126010927,6528.298441586141,4.594,4.173,3.324,3.057
-0.5,2000000019.9681082,1.0439176559,1.8281002161427427,6537.323852287956,4.578,4.158,3.313,3.047
-0.5,2000000019.9681082,1.0706145763,2.1037784397664754,6626.741046882747,4.403,4.002,3.191,2.939
-0.5,2000000019.9681082,1.0902856588,2.328091257665008,6691.138200458591,4.276,3.888,3.102,2.859
-0.5,2000000019.9681082,1.1065248251,2.535128630497908,6748.3873087075735,4.172,3.795,3.031,2.796
-0.5,2000000019.9681082,1.1232444048,2.7542287033381663,6804.559249946384,4.066,3.701,2.958,2.731
-0.5,2000000019.9681082,1.1385580301,2.9785164294291895,6856.460841231655,3.971,3.615,2.891,2.672
-0.5,2000000019.9681082,1.1390712261,2.9853826189179595,6858.039781459258,3.968,3.612,2.889,2.67
-0.5,2000000019.9681082,1.1794471741,3.6224299841669865,6998.419960022738,3.725,3.393,2.723,2.523
-0.5,2000000019.9681082,1.187857151,3.77572190925416,7025.868224350984,3.676,3.349,2.689,2.492
-0.5,2000000019.9681082,1.2366427183,4.720630412635906,7191.17735782509,3.398,3.099,2.5,2.326
-0.5,2000000019.9681082,1.2493884563,4.9888448746001215,7234.358058506353,3.328,3.035,2.453,2.283
-0.5,2000000019.9681082,1.2833824158,5.79428696426881,7329.932916517789,3.147,2.869,2.321,2.164
-0.5,2000000019.9681082,1.2854282856,5.847900841444807,7334.998004015493,3.136,2.859,2.313,2.157
-0.5,2000000019.9681082,1.3119264841,6.561452663029053,7396.052750582382,2.996,2.729,2.207,2.058
-0.5,2000000019.9681082,1.3342142105,7.244359600749901,7435.325746482759,2.881,2.621,2.113,1.969
-0.5,2000000019.9681082,1.3592638969,8.090958991783824,7466.206543779415,2.753,2.498,2.003,1.863
-0.5,2000000019.9681082,1.382999897,8.994975815300352,7469.645650780071,2.633,2.381,1.889,1.75
-0.5,2000000019.9681082,1.388204813,9.204495717531712,7464.487584100669,2.608,2.355,1.862,1.723
-0.5,2000000019.9681082,1.4072567225,10.0,7425.060556921996,2.52,2.263,1.758,1.614
-0.5,2000000019.9681082,1.4254667759,10.839269140212034,7363.766349615144,2.439,2.175,1.651,1.501
-0.5,2000000019.9681082,1.4317855835,11.142945335917299,7333.309252741507,2.413,2.146,1.611,1.458
-0.5,2000000019.9681082,1.4402987957,11.561122421920986,7287.859643647188,2.38,2.106,1.557,1.398
-0.5,2000000019.9681082,1.4545367956,12.274392311584071,7176.290320547707,2.331,2.043,1.455,1.283
-0.5,2000000019.9681082,1.4673570395,12.941958414499863,7063.175542629623,2.292,1.987,1.359,1.173
-0.5,2000000019.9681082,1.4794772863,13.645831365889245,6943.844712409821,2.258,1.935,1.264,1.063
-0.5,2000000019.9681082,1.48057127,13.708817661648537,6932.6615720512,2.255,1.93,1.255,1.053
-0.5,2000000019.9681082,1.4912356138,14.421153515248688,6832.820313691988,2.219,1.877,1.166,0.951
-0.5,2000000019.9681082,1.4982590675,14.996848355023733,6787.346173800872,2.186,1.837,1.109,0.887
-0.5,2000000019.9681082,1.5027135611,15.848931924611133,6883.352332539906,2.104,1.772,1.081,0.873
-0.5,2000000019.9681082,1.504773736,16.51961798229015,7009.709175843827,2.03,1.72,1.077,0.886
-0.5,2000000019.9681082,1.5055677891,17.179083871575884,7158.136899114738,1.957,1.671,1.083,0.911
-0.5,2000000019.9681082,1.5059758425,17.947336268325266,7319.81323199808,1.88,1.619,1.09,0.938
-0.5,2000000019.9681082,1.5062146187,18.836490894898002,7488.589075216439,1.798,1.562,1.092,0.959
-0.5,2000000019.9681082,1.5063625574,19.81527025805098,7647.156884388349,1.717,1.504,1.088,0.972
-0.5,2000000019.9681082,1.5064526796,20.511621788255656,7744.617978025183,1.665,1.467,1.083,0.977
-0.5,2000000019.9681082,1.5064982176,19.81527025805098,7675.382012183767,1.714,1.505,1.098,0.985
-0.5,2000000019.9681082,1.5065575838,18.749945080674184,7507.580541199374,1.8,1.567,1.103,0.972
-0.5,2000000019.9681082,1.5066219568,18.492686189780777,7316.443109490725,1.845,1.584,1.054,0.901
-0.5,2000000019.9681082,1.5067044497,18.967059212111465,7130.171895014071,1.85,1.562,0.966,0.791
-0.5,2000000019.9681082,1.5068134069,19.498445997580454,6955.045892395349,1.855,1.539,0.879,0.681
-0.5,2000000019.9681082,1.5069522858,19.81527025805098,6793.600430398661,1.872,1.528,0.807,0.588
-0.5,2000000019.9681082,1.5071300268,19.998618696327437,6646.606990710733,1.899,1.527,0.749,0.509
-0.5,2000000019.9681082,1.5073692799,19.998618696327437,6510.284984348614,1.934,1.534,0.702,0.441
-0.5,2000000019.9681082,1.5077013969,19.906733389871864,6376.758944326096,1.979,1.548,0.662,0.38
-0.5,2000000019.9681082,1.508182168,19.633602768360465,6231.60618945834,2.042,1.577,0.63,0.324
-0.5,2000000019.9681082,1.5087921619,18.967059212111465,6078.550092365217,2.133,1.627,0.614,0.281
-0.5,2000000019.9681082,1.5094558001,17.82378767448089,5922.430868761306,2.262,1.712,0.626,0.262
-0.5,2000000019.9681082,1.5099377632,16.672472125510627,5803.633782042343,2.384,1.8,0.659,0.271
-0.5,2000000019.9681082,1.5103398561,15.595525028269538,5701.642722807472,2.501,1.888,0.698,0.289
-0.5,2000000019.9681082,1.5106899738,14.757065332758946,5611.771769773147,2.601,1.963,0.729,0.301
-0.5,2000000019.9681082,1.5111538172,14.223287871228198,5504.273433125772,2.69,2.023,0.733,0.28
-0.5,2000000019.9681082,1.51161623,14.25607593602188,5410.034068634678,2.736,2.041,0.701,0.226
-0.5,2000000019.9681082,1.5122262239,15.595525028269538,5329.666080102771,2.679,1.959,0.575,0.081
-0.5,2000000019.9681082,1.512706995,17.10015315090288,5280.803407777241,2.607,1.872,0.461,-0.046
-0.5,2000000019.9681082,1.5131434202,18.749945080674184,5244.4506128195335,2.526,1.78,0.348,-0.168
-0.5,2000000019.9681082,1.5135564804,20.558905959841415,5214.347854144578,2.444,1.688,0.238,-0.286
-0.5,2000000019.9681082,1.5139567852,22.54239212152429,5188.000389289609,2.361,1.597,0.131,-0.4
-0.5,2000000019.9681082,1.5143526793,24.660393372343385,5161.7860549667275,2.279,1.506,0.024,-0.513
-0.5,2000000019.9681082,1.514744997,26.977394324449207,5138.069802323445,2.196,1.415,-0.082,-0.626
-0.5,2000000019.9681082,1.5152342319,30.19951720402016,5107.401503571955,2.094,1.303,-0.212,-0.765
-0.5,2000000019.9681082,1.5156247616,32.96097121774578,5082.764640683731,2.012,1.214,-0.317,-0.876
-0.5,2000000019.9681082,1.516014576,36.05786430216423,5058.246620031143,1.932,1.125,-0.421,-0.987
-0.5,2000000019.9681082,1.5164582729,39.902490236214206,5030.370810846251,1.84,1.024,-0.539,-1.113
-0.5,2000000019.9681082,1.5169824362,44.977985489328795,4996.8924263059425,1.735,0.906,-0.679,-1.263
-0.5,2000000019.9681082,1.5173790455,49.20395356814509,4971.643737252428,1.656,0.817,-0.786,-1.377
-0.5,2000000019.9681082,1.5178459883,54.82769649208539,4939.693471692561,1.562,0.711,-0.913,-1.514
-0.5,2000000019.9681082,1.5182411671,60.11737374832779,4913.6022729909155,1.482,0.622,-1.021,-1.63
-0.5,2000000019.9681082,1.5186280012,65.76578373554206,4886.523593428336,1.406,0.535,-1.126,-1.744
-0.5,2000000019.9681082,1.518999815,71.44963260755135,4861.832584649837,1.336,0.454,-1.226,-1.851
-0.5,2000000019.9681082,1.5194115639,78.34296427662116,4833.926025160843,1.262,0.368,-1.333,-1.967
-0.5,2000000019.9681082,1.5198191404,85.11380382023764,4808.393484497285,1.194,0.287,-1.433,-2.075
-0.5,2000000019.9681082,1.520221591,91.83325964835811,4786.300923226385,1.133,0.215,-1.521,-2.17
-0.5,2000000019.9681082,1.5207084417,99.08319448927675,4763.212971455834,1.072,0.143,-1.612,-2.268
-0.5,2000000019.9681082,1.5213081837,106.16955571987242,4742.419852602448,1.018,0.079,-1.692,-2.354
-0.5,2000000019.9681082,1.5216208696,101.85913880541169,4756.636893186042,1.049,0.116,-1.644,-2.302
-0.5,2000000019.9681082,1.5219465494,94.84184633008974,4780.793661491186,1.103,0.182,-1.558,-2.209
-0.5,2000000019.9681082,1.5221135616,89.12509381337455,4801.755030139799,1.152,0.241,-1.484,-2.128
-0.5,2000000019.9681082,1.5222890377,82.03515443298181,4828.363964551585,1.217,0.318,-1.387,-2.022
-0.5,2000000019.9681082,1.5224374533,76.03262769401819,4852.88500162121,1.277,0.39,-1.297,-1.925
-0.5,2000000019.9681082,1.5225998163,70.30723198838334,4878.653791974776,1.341,0.466,-1.201,-1.821
-0.5,2000000019.9681082,1.5228023529,64.86344335482384,4904.559414451102,1.405,0.541,-1.107,-1.719
-0.5,2000000019.9681082,1.5232030153,71.12135136533291,4876.407606118823,1.329,0.453,-1.217,-1.837
-0.5,2000000019.9681082,1.5236619711,78.70457896950985,4846.185122401829,1.247,0.357,-1.335,-1.965
-0.5,2000000019.9681082,1.5241165161,86.29785477669702,4817.25903559163,1.172,0.268,-1.445,-2.084
-0.5,2000000019.9681082,1.5245778561,94.84184633008974,4788.50560386518,1.095,0.177,-1.557,-2.205
-0.5,2000000019.9681082,1.5250253677,104.23174293933036,4759.923796672499,1.023,0.091,-1.667,-2.323
-0.5,2000000019.9681082,1.5254795551,114.81536214968828,4729.334149186516,0.947,0.0,-1.781,-2.447
-0.5,2000000019.9681082,1.5258908272,125.60299636948754,4701.105526734309,0.877,-0.085,-1.889,-2.564
-0.5,2000000019.9681082,1.5262994766,138.3566378971781,4670.893874825567,0.805,-0.173,-2.001,-2.686
-0.5,2000000019.9681082,1.5266703367,151.35612484362088,4641.945102393461,0.738,-0.255,-2.107,-2.801
-0.5,2000000019.9681082,1.5270354748,165.95869074375614,4612.113644917027,0.67,-0.339,-2.217,-2.921
-0.5,2000000019.9681082,1.5273735523,181.5515662773135,4583.529174381888,0.609,-0.423,-2.324,-3.036
-0.5,2000000019.9681082,1.5276917219,198.60949173573715,4554.07312683254,0.551,-0.506,-2.43,-3.15
-0.5,2000000019.9681082,1.5279934406,217.7709772353159,4524.806378555487,0.495,-0.587,-2.536,-3.264
-0.5,2000000019.9681082,1.5282758474,237.6840286624876,4495.727713019056,0.44,-0.668,-2.641,-3.377
-0.5,2000000019.9681082,1.5285420418,260.0159563165272,4466.835921509631,0.384,-0.748,-2.746,-3.491
-0.5,2000000019.9681082,1.5287864208,283.7919028441555,4438.12980308139,0.333,-0.824,-2.847,-3.601
-0.5,2000000019.9681082,1.5290201902,309.7419299216581,4408.592931591316,0.282,-0.901,-2.95,-3.713
-0.5,2000000019.9681082,1.5292357206,337.2873086588689,4381.26982022493,0.232,-0.976,-3.05,-3.821
-0.5,2000000019.9681082,1.5293569565,354.8133892335753,4364.153323262729,0.202,-1.021,-3.11,-3.887
-0.5,2000000019.9681082,1.5294830799,374.1105882720533,4346.102853675936,0.174,-1.065,-3.171,-3.954
-0.5,2000000019.9681082,1.5296809673,408.3193863326923,4318.172626237272,0.125,-1.139,-3.272,-4.065
-0.5,2000000019.9681082,1.5298657417,445.6562483975033,4289.434099967818,0.077,-1.209,-3.373,-4.179
-0.5,2000000019.9681082,1.5300410986,485.28850016212095,4259.9058433220425,0.029,-1.278,-3.475,-4.293
-0.5,2000000019.9681082,1.5302423239,540.754322945581,4223.767459498086,-0.026,-1.359,-3.6,-4.434
-0.5,2000000019.9681082,1.5304300785,602.5595860743575,4188.900070027829,-0.082,-1.441,-3.725,-4.574
-0.5,2000000019.9681082,1.5306037664,669.8846094165265,4153.364054890737,-0.135,-1.521,-3.849,-4.714
-0.5,2000000019.9681082,1.5307648182,744.7319739059889,4118.129505138526,-0.184,-1.597,-3.972,-4.853
-0.5,2000000019.9681082,1.5308871269,810.9610578538404,4090.7223162166774,-0.225,-1.66,-4.071,-4.966
-0.5,2000000019.9681082,1.5310260057,899.4975815300355,4056.0191798991405,-0.271,-1.733,-4.191,-5.102
-0.5,2000000019.9681082,1.5311557055,1000.0,4021.6104433421337,-0.313,-1.803,-4.31,-5.239
-0.5,2000000019.9681082,1.5312772989,1106.6237839776663,3987.4936090417286,-0.35,-1.87,-4.43,-5.376
-0.5,2000000019.9681082,1.5313915014,1227.4392311584072,3952.7559401972776,-0.385,-1.934,-4.55,-5.513
-0.5,2000000019.9681082,1.5314971209,1361.4446824659497,3919.2232245497667,-0.417,-1.995,-4.668,-5.649
-0.5,2000000019.9681082,1.5315942764,1503.1419660900224,3885.08030374528,-0.445,-2.053,-4.784,-5.782
-0.5,2000000019.9681082,1.53168571,1659.5869074375614,3851.2348242893136,-0.469,-2.103,-4.898,-5.914
-0.5,2000000019.9681082,1.5317744017,1832.314422371211,3817.684194975441,-0.491,-2.153,-5.011,-6.045
-0.5,2000000019.9681082,1.5317997932,1879.3168168032685,3808.9037649813513,-0.497,-2.167,-5.042,-6.081
-0.5,2000000019.9681082,1.5317997932,64.41692655151772,5086.276903064366,1.286,0.485,-1.042,-1.6
-0.5,2000000019.9681082,1.5325007439,66.22165037017619,5071.074606405172,1.265,0.46,-1.077,-1.639
-0.5,2000000019.9681082,1.5332380533,67.14288529259522,5065.239675508819,1.253,0.445,-1.095,-1.659
-0.5,2000000019.9681082,1.5339467525,67.60829753919819,5066.406124332974,1.246,0.439,-1.102,-1.665
-0.5,2000000019.9681082,1.534660697,67.7641507610675,5068.739827890221,1.242,0.435,-1.104,-1.666
-0.5,2000000019.9681082,1.5353908539,67.92036326171846,5072.242398926514,1.237,0.432,-1.105,-1.667
-0.5,2000000019.9681082,1.5361040831,68.07693586937414,5075.747390289013,1.232,0.428,-1.107,-1.668
-0.5,2000000019.9681082,1.5368378162,68.23386941416697,5078.085396648894,1.227,0.424,-1.109,-1.669
-0.5,2000000019.9681082,1.537489295,68.39116472814293,5080.424479948444,1.223,0.421,-1.111,-1.67
-0.5,2000000019.9681082,1.5375699997,68.39116472814293,5081.594425605605,1.222,0.42,-1.111,-1.67
-0.5,2000000019.9681082,1.5383107662,68.7068440014232,5083.935125244855,1.217,0.416,-1.113,-1.672
-0.5,2000000019.9681082,1.5391212702,68.86522963442762,5086.276903064366,1.212,0.411,-1.117,-1.675
-0.5,2000000019.9681082,1.5399210453,69.18309709189366,5088.619759560772,1.206,0.406,-1.12,-1.677
-0.5,2000000019.9681082,1.5407012701,69.5024317588797,5090.9636952309365,1.2,0.401,-1.124,-1.68
-0.5,2000000019.9681082,1.5415039062,69.82324040771715,5093.308710571952,1.193,0.395,-1.128,-1.684
-0.5,2000000019.9681082,1.5422543287,69.98419960022734,5095.65480608114,1.188,0.39,-1.132,-1.687
-0.5,2000000019.9681082,1.5430847406,70.30723198838334,5096.828259054277,1.181,0.384,-1.136,-1.691
-0.5,2000000019.9681082,1.5433535576,70.46930689671471,5098.001982256051,1.179,0.382,-1.138,-1.693
-0.5,2000000019.9681082,1.5438346863,70.6317554262962,5099.175975748702,1.175,0.379,-1.141,-1.695
-0.5,2000000019.9681082,1.5445934534,70.95777679633888,5100.350239594463,1.169,0.374,-1.145,-1.699
-0.5,2000000019.9681082,1.5453568697,71.28530301265195,5101.5247738556045,1.164,0.368,-1.15,-1.704
-0.5,2000000019.9681082,1.5461298227,71.77942912713618,5102.699578594392,1.158,0.362,-1.155,-1.709
-0.5,2000000019.9681082,1.5468964577,72.11074791828997,5102.699578594392,1.152,0.357,-1.16,-1.714
-0.5,2000000019.9681082,1.5477161407,72.44359600749902,5103.874653873108,1.145,0.35,-1.167,-1.72
-0.5,2000000019.9681082,1.5485022068,72.94575102545687,5103.874653873108,1.139,0.344,-1.173,-1.726
-0.5,2000000019.9681082,1.5492992401,73.2824533138904,5102.699578594392,1.133,0.338,-1.179,-1.733
-0.5,2000000019.9681082,1.5494090319,73.45138681571152,5102.699578594392,1.132,0.337,-1.18,-1.733
-0.5,2000000019.9681082,1.5495506525,73.45138681571152,5102.699578594392,1.131,0.336,-1.181,-1.735
-0.5,2000000019.9681082,1.5503319502,73.96052750582378,5101.5247738556045,1.125,0.329,-1.189,-1.742
-0.5,2000000019.9681082,1.5511342287,74.47319739059893,5100.350239594463,1.118,0.322,-1.197,-1.75
-0.5,2000000019.9681082,1.5519461632,74.98942093324558,5098.001982256051,1.111,0.315,-1.206,-1.76
-0.5,2000000019.9681082,1.5527312756,75.68328950209744,5094.481623274436,1.105,0.307,-1.215,-1.771
-0.5,2000000019.9681082,1.5535225868,76.38357835776907,5090.9636952309365,1.098,0.298,-1.226,-1.783
-0.5,2000000019.9681082,1.5543183088,77.090346906443,5086.276903064366,1.09,0.289,-1.238,-1.796
-0.5,2000000019.9681082,1.5551224947,77.98301105232585,5080.424479948444,1.081,0.278,-1.253,-1.813
-0.5,2000000019.9681082,1.5559360981,79.06786279998249,5073.410460372977,1.071,0.265,-1.271,-1.832
-0.5,2000000019.9681082,1.5567759275,80.53784411990665,5064.073495238508,1.059,0.25,-1.292,-1.857
-0.5,2000000019.9681082,1.5576255322,82.7942163712334,5045.4510838273745,1.041,0.224,-1.33,-1.899
-0.5,2000000019.9681082,1.5584567785,88.30799004185627,5008.411452998231,0.999,0.167,-1.411,-1.991
-0.5,2000000019.9681082,1.5588891506,95.49925860214358,4965.923214503363,0.947,0.097,-1.51,-2.101
-0.5,2000000019.9681082,1.5590900183,103.2761405761397,4926.063433495771,0.892,0.026,-1.608,-2.211
-0.5,2000000019.9681082,1.5591775179,111.17317272815909,4892.152651344176,0.84,-0.041,-1.699,-2.312
-0.5,2000000019.9681082,1.5592210293,120.22644346174131,4857.356732878539,0.787,-0.111,-1.794,-2.417
-0.5,2000000019.9681082,1.5592445135,130.016957803329,4823.918924327151,0.73,-0.182,-1.891,-2.525
-0.5,2000000019.9681082,1.5592552423,137.08817661648536,4802.860802396913,0.693,-0.229,-1.953,-2.594
-0.5,2000000019.9681082,1.5592553616,137.08817661648536,4801.755030139799,0.693,-0.23,-1.955,-2.596
-0.5,2000000019.9681082,1.5592602491,141.2537544622754,4789.608324977883,0.671,-0.257,-1.991,-2.636
-0.5,2000000019.9681082,1.5592756271,155.95525028269537,4751.163763775616,0.601,-0.346,-2.11,-2.767
-0.5,2000000019.9681082,1.5592955351,175.3880501841762,4705.437399531806,0.519,-0.451,-2.252,-2.923
-0.5,2000000019.9681082,1.5593764782,169.43378004473288,4720.630412635905,0.543,-0.42,-2.208,-2.875
-0.5,2000000019.9681082,1.5599036217,159.5879147236732,4738.053933388255,0.589,-0.363,-2.137,-2.798
-0.5,2000000019.9681082,1.5603597164,178.23787674480891,4698.941086052156,0.508,-0.465,-2.27,-2.944
-0.5,2000000019.9681082,1.5606800318,199.06733389871863,4655.860935229591,0.437,-0.566,-2.404,-3.09
-0.5,2000000019.9681082,1.5609303713,220.80047330188992,4616.363515404673,0.376,-0.659,-2.528,-3.223
-0.5,2000000019.9681082,1.5611385107,243.78108183687525,4579.3095315174405,0.316,-0.749,-2.648,-3.352
-0.5,2000000019.9681082,1.5613174438,269.1534803926917,4542.552967388711,0.259,-0.836,-2.765,-3.481
-0.5,2000000019.9681082,1.561471343,296.4831389524342,4506.091435730975,0.204,-0.921,-2.88,-3.607
-0.5,2000000019.9681082,1.5616054535,325.8367010020087,4470.951924630434,0.15,-1.003,-2.993,-3.73
-0.5,2000000019.9681082,1.5617258549,358.0964371026359,4429.961991003635,0.108,-1.079,-3.105,-3.856
-0.5,2000000019.9681082,1.561835289,393.55007545577763,4388.337287003648,0.067,-1.153,-3.217,-3.983
-0.5,2000000019.9681082,1.5619363785,432.5138310350088,4345.102241715715,0.029,-1.224,-3.329,-4.11
-0.5,2000000019.9681082,1.5620075464,464.5152752227492,4313.204006994161,0.0,-1.275,-3.414,-4.209
-0.5,2000000019.9681082,1.5620917082,508.1594425605605,4281.539943374177,-0.047,-1.345,-3.521,-4.328
-0.5,2000000019.9681082,1.5621732473,555.9042572704037,4249.129820811196,-0.092,-1.413,-3.626,-4.447
-0.5,2000000019.9681082,1.562253952,608.1350012787176,4217.936138166562,-0.135,-1.479,-3.73,-4.566
-0.5,2000000019.9681082,1.5623338223,665.2731562017412,4186.007479551019,-0.178,-1.545,-3.834,-4.684
-0.5,2000000019.9681082,1.5624130964,727.7798045368243,4154.320512418612,-0.22,-1.611,-3.939,-4.803
-0.5,2000000019.9681082,1.5624879599,799.8342550070284,4120.975190973304,-0.262,-1.678,-4.05,-4.93
-0.5,2000000019.9681082,1.5625455379,885.1156098308356,4086.015408138228,-0.305,-1.748,-4.166,-5.063
-0.5,2000000019.9681082,1.5625817776,968.2778562612496,4055.085354483839,-0.342,-1.81,-4.271,-5.183
-0.5,2000000019.9681082,1.5626108646,1051.9618738232225,4025.3161897421182,-0.372,-1.864,-4.368,-5.294
-0.5,2000000019.9681082,1.5626378059,1145.5129414455362,3995.765566188054,-0.4,-1.917,-4.466,-5.407
-0.5,2000000019.9681082,1.5626622438,1244.5146117713857,3967.345289316547,-0.425,-1.967,-4.562,-5.517
-0.5,2000000019.9681082,1.5626863241,1358.3134465871542,3935.5007545577764,-0.448,-2.016,-4.664,-5.635
-0.5,2000000019.9681082,1.5627106428,1482.518085145953,3903.9118250765996,-0.469,-2.064,-4.764,-5.752
-0.5,2000000019.9681082,1.5627368689,1640.5897731995387,3866.339621093609,-0.489,-2.115,-4.884,-5.892
-0.5,2000000019.9681082,1.5627553463,1737.8008287493763,3844.147117595778,-0.497,-2.141,-4.951,-5.97
-0.5,2000000019.9681082,1.5627563,1713.9573075084252,3849.46167342452,-0.494,-2.133,-4.933,-5.95
-0.5,2000000019.9681082,1.5627565384,1644.3717232149324,3864.55951581426,-0.486,-2.112,-4.884,-5.893
-0.5,2000000019.9681082,1.5627566576,1527.5660582380733,3888.6602433122985,-0.467,-2.074,-4.8,-5.796
-0.5,2000000019.9681082,1.5627567768,1733.8039977541375,3844.147117595778,-0.496,-2.139,-4.948,-5.967
-0.5,2000000019.9681082,1.5627570152,1823.8957023196383,3826.484865951097,-0.504,-2.161,-5.005,-6.034
-0.5,2000000019.9681082,1.5627571344,1786.4875748520499,3834.4228144309195,-0.501,-2.152,-4.981,-6.006
-0.5,2000000019.9681082,1.5627572536,1770.108958317422,3837.9560752329744,-0.5,-2.148,-4.97,-5.993
-0.5,2000000019.9681082,1.5627574921,1729.8163592151016,3845.9178204535356,-0.496,-2.137,-4.944,-5.962
-0.5,2000000019.9681082,1.5627582073,1737.8008287493763,3843.2620719095157,-0.496,-2.139,-4.95,-5.97
-0.5,2000000019.9681082,1.5627602339,1874.9945080674192,3815.926491189337,-0.509,-2.174,-5.038,-6.072
-0.5,2000000019.9681082,1.5627619028,1995.2623149688789,3792.276545253622,-0.516,-2.199,-5.111,-6.158
-0.5,2000000019.9681082,1.5627638102,2113.489039836648,3770.5091583339295,-0.521,-2.218,-5.178,-6.236
-0.5,2000000019.9681082,1.5627657175,2228.435149270303,3750.5935291111437,-0.524,-2.234,-5.238,-6.307
-0.5,2000000019.9681082,1.5627682209,2355.049283896009,3729.9241475247336,-0.526,-2.25,-5.304,-6.384
-0.5,2000000019.9681082,1.5627714396,2488.85731828239,3708.514658756861,-0.521,-2.26,-5.369,-6.46
-0.5,2000000019.9681082,1.5627766848,2618.1830082189863,3688.0771722615455,-0.513,-2.262,-5.429,-6.53
-0.5,2000000019.9681082,1.5627770424,2618.1830082189863,3688.0771722615455,-0.513,-2.262,-5.429,-6.53
-0.5,2000000019.9681082,1.5627776384,1559.552502826954,3869.011316551087,-0.447,-2.066,-4.827,-5.834
-0.5,2000000019.9681082,1.5627779961,1300.16957803329,3938.2202413383675,-0.409,-1.972,-4.615,-5.586
-0.5,2000000019.9681082,1.5627794266,772.6805850957021,4139.043588458339,-0.255,-1.66,-4.009,-4.88
-0.5,2000000019.9681082,1.5627814531,781.6278045883292,4133.329236662004,-0.257,-1.666,-4.022,-4.896
-0.5,2000000019.9681082,1.5627841949,966.0508789898131,4048.5545937074157,-0.328,-1.8,-4.27,-5.185
-0.5,2000000019.9681082,1.562787652,1386.755828871888,3908.4089579240213,-0.413,-2.0,-4.691,-5.678
-0.5,2000000019.9681082,1.5627918243,1931.9683170169242,3784.425847170932,-0.465,-2.148,-5.075,-6.127
-0.5,2000000019.9681082,1.5627967119,2409.9054286865953,3701.689610332348,-0.475,-2.211,-5.337,-6.431
-0.5,2000000019.9681082,1.5628023148,2716.4392688390835,3656.789826173249,-0.462,-2.222,-5.478,-6.595
-0.5,2000000019.9681082,1.5628087521,2870.780582024692,3634.1261606422304,-0.45,-2.222,-5.544,-6.672
-0.5,2000000019.9681082,1.5628159046,2958.0124665515464,3620.762177566733,-0.436,-2.211,-5.581,-6.716
-0.5,2000000019.9681082,1.562816143,2089.296130854039,3743.6910398904515,-0.446,-2.152,-5.171,-6.244
-0.5,2000000019.9681082,1.5628170967,1499.684835502374,3864.55951581426,-0.398,-2.017,-4.784,-5.793
-0.5,2000000019.9681082,1.5628187656,893.3054837332954,4062.5619818684354,-0.272,-1.731,-4.18,-5.089
-0.5,2000000019.9681082,1.5628211498,901.571137605957,4057.8874759172845,-0.274,-1.737,-4.193,-5.104
-0.5,2000000019.9681082,1.5628243685,1114.2945335917304,3975.575449270531,-0.331,-1.86,-4.438,-5.391
-0.5,2000000019.9681082,1.5628284216,1588.546748597779,3839.723926353774,-0.401,-2.038,-4.852,-5.874
-0.5,2000000019.9681082,1.5628334284,2197.8598727848253,3719.632211619559,-0.436,-2.157,-5.23,-6.316
-0.5,2000000019.9681082,1.5628391504,2735.268726306711,3639.9884030888024,-0.419,-2.185,-5.489,-6.614
-0.5,2000000019.9681082,1.5628458261,3069.021988391158,3595.837026057048,-0.395,-2.174,-5.629,-6.775
-0.5,2000000019.9681082,1.5628534555,3235.936569296281,3574.3740626448075,-0.377,-2.16,-5.695,-6.85
-0.5,2000000019.9681082,1.5628619194,3334.2641276323507,3561.2298094276216,-0.361,-2.148,-5.732,-6.893
-0.5,2000000019.9681082,1.562862277,2415.4608344449402,3675.360977714797,-0.405,-2.148,-5.344,-6.452
-0.5,2000000019.9681082,1.5628633499,1733.8039977541375,3795.7709700253163,-0.39,-2.058,-4.956,-6.002
-0.5,2000000019.9681082,1.5628652573,1032.7614057613969,3993.006342231626,-0.292,-1.803,-4.353,-5.296
-0.5,2000000019.9681082,1.5628681183,1042.3174293933037,3989.3303406008604,-0.293,-1.808,-4.364,-5.31
-0.5,2000000019.9681082,1.562871933,1279.3813041575252,3909.309005962286,-0.336,-1.916,-4.602,-5.588
-0.5,2000000019.9681082,1.5628768206,1803.017740859568,3779.2010796187897,-0.386,-2.066,-5.002,-6.057
-0.5,2000000019.9681082,1.5628825426,2466.0393372343387,3663.532089914713,-0.39,-2.138,-5.37,-6.483
-0.5,2000000019.9681082,1.5628894567,3033.891184194272,3587.566830392618,-0.356,-2.134,-5.618,-6.768
-0.5,2000000019.9681082,1.5628973246,3372.873086588689,3548.133892335753,-0.331,-2.118,-5.748,-6.916
-0.5,2000000019.9681082,1.5629062653,3531.83169791957,3531.018557237582,-0.309,-2.096,-5.804,-6.979
-0.5,2000000019.9681082,1.5629162788,3614.0986263961313,3522.897439914557,-0.298,-2.084,-5.83,-7.009
-0.5,2000000019.9681082,1.5629166365,2697.7394324449206,3628.273359403348,-0.371,-2.139,-5.477,-6.608
-0.5,2000000019.9681082,1.5629178286,1945.3600816226633,3748.8667146053936,-0.386,-2.086,-5.091,-6.162
-0.5,2000000019.9681082,1.5629199743,1161.4486138403427,3948.207780378827,-0.316,-1.867,-4.49,-5.456
-0.5,2000000019.9681082,1.5629230738,1174.897554939529,3943.6648538097975,-0.317,-1.871,-4.502,-5.471
-0.5,2000000019.9681082,1.5629272461,1435.489433353656,3863.669770540693,-0.35,-1.967,-4.736,-5.747
-0.5,2000000019.9681082,1.5629324913,2004.4720273651615,3734.220854303426,-0.379,-2.088,-5.127,-6.205
-0.5,2000000019.9681082,1.5629389286,2710.1916318908416,3619.0951388429776,-0.349,-2.118,-5.487,-6.622
-0.5,2000000019.9681082,1.5629463196,3318.944575526103,3544.051302809929,-0.296,-2.081,-5.731,-6.901
-0.5,2000000019.9681082,1.5629550219,3689.775985701505,3503.482883015712,-0.243,-2.026,-5.86,-7.048
-0.5,2000000019.9681082,1.562964797,3863.669770540693,3484.175319018589,-0.215,-1.996,-5.917,-7.114
-0.5,2000000019.9681082,1.5629757643,3962.7803425543934,3473.761519726527,-0.196,-1.976,-5.946,-7.149
-0.5,2000000019.9681082,1.5629761219,3054.9211132155124,3568.617492834813,-0.299,-2.079,-5.633,-6.791
-0.5,2000000019.9681082,1.562977314,2218.1964198002192,3689.775985701505,-0.358,-2.092,-5.248,-6.349
-0.5,2000000019.9681082,1.5629794598,1327.3944577297402,3891.3473626359746,-0.33,-1.928,-4.646,-5.642
-0.5,2000000019.9681082,1.5629826784,1342.7649611378642,3886.8698613730226,-0.33,-1.932,-4.659,-5.657
-0.5,2000000019.9681082,1.5629869699,1633.0519478943347,3807.150103801774,-0.349,-2.012,-4.887,-5.928
-0.5,2000000019.9681082,1.5629923344,2254.2392121524304,3679.594830147843,-0.343,-2.083,-5.268,-6.374
-0.5,2000000019.9681082,1.5629987717,3013.006024186122,3566.1532304264047,-0.277,-2.057,-5.619,-6.779
-0.5,2000000019.9681082,1.5630064011,3664.3757464783334,3491.4031547858626,-0.188,-1.968,-5.855,-7.05
-0.5,2000000019.9681082,1.5630152225,4055.085354483839,3451.437393358561,-0.124,-1.894,-5.98,-7.192
-0.5,2000000019.9681082,1.5630251169,4246.19563946313,3431.6263979646833,-0.082,-1.844,-6.037,-7.257
-0.5,2000000019.9681082,1.5630363226,4345.102241715715,3420.581952567498,-0.053,-1.809,-6.067,-7.292
-0.5,2000000019.9681082,1.5630366802,3467.368504525317,3504.2896826443844,-0.184,-1.964,-5.791,-6.979
-0.5,2000000019.9681082,1.5630378723,2529.2979964461447,3625.7679024119648,-0.295,-2.062,-5.409,-6.541
-0.5,2000000019.9681082,1.5630398989,1517.050367459337,3830.010812264487,-0.325,-1.971,-4.805,-5.833
-0.5,2000000019.9681082,1.5630429983,1534.6169827992942,3824.7231102392916,-0.324,-1.974,-4.818,-5.848
-0.5,2000000019.9681082,1.5630471706,1857.8044550916989,3744.553155859532,-0.325,-2.028,-5.042,-6.114
-0.5,2000000019.9681082,1.5630522966,2535.128630497907,3619.928562242391,-0.279,-2.046,-5.412,-6.548
-0.5,2000000019.9681082,1.5630586147,3357.3761424295453,3509.942484670127,-0.172,-1.953,-5.753,-6.939
-0.5,2000000019.9681082,1.5630658865,4045.7589169744288,3438.7452222912716,-0.061,-1.825,-5.982,-7.199
-0.5,2000000019.9681082,1.5630744696,4456.562483975033,3400.9480651219096,0.016,-1.731,-6.102,-7.336
-0.5,2000000019.9681082,1.5630840063,4655.860935229591,3382.9844379759015,0.062,-1.675,-6.158,-7.398
-0.5,2000000019.9681082,1.5630948544,4764.309868054156,3372.873086588689,0.094,-1.635,-6.188,-7.432
-0.5,2000000019.9681082,1.5630950928,3926.449353995997,3444.292293943154,-0.055,-1.822,-5.949,-7.164
-0.5,2000000019.9681082,1.5630960464,2877.3984147356696,3560.4099003595707,-0.206,-1.988,-5.571,-6.733
-0.5,2000000019.9681082,1.5630978346,1733.8039977541375,3761.8372279132846,-0.294,-1.987,-4.962,-6.026
-0.5,2000000019.9681082,1.563100338,1749.8466886246565,3756.64364614459,-0.554,-2.205,-4.977,-6.003
-0.5,2000000019.9681082,1.5631036758,2103.778439766475,3677.053933782149,-0.576,-2.289,-5.186,-6.256
-0.5,2000000019.9681082,1.5631079674,2837.9190284415554,3548.9509744230404,-0.579,-2.401,-5.516,-6.664
-0.5,2000000019.9681082,1.5631130934,3706.80721782576,3432.416650121203,-0.579,-2.492,-5.805,-7.029
-0.5,2000000019.9681082,1.5631190538,4425.883723626264,3349.654391578276,-0.553,-2.531,-5.996,-7.276
-0.5,2000000019.9681082,1.5631260872,4841.7236758409945,3298.3747715856816,-0.532,-2.54,-6.095,-7.408
-0.5,2000000019.9681082,1.563133955,5046.612975635282,3267.3826606314346,-0.501,-2.527,-6.138,-7.471
-0.5,2000000019.9681082,1.5631427765,5152.286445817567,3242.649439899697,-0.465,-2.506,-6.16,-7.509
-0.5,2000000019.9681082,1.5631430149,4365.158322401661,3315.125698118432,-0.459,-2.456,-5.98,-7.283
-0.5,2000000019.9681082,1.5631439686,3213.660538640318,3453.027205056406,-0.497,-2.381,-5.65,-6.861
-0.5,2000000019.9681082,1.5631456375,1940.8858775927772,3694.0264435828335,-0.564,-2.241,-5.093,-6.152
-0.5,2000000019.9681082,1.5631481409,1958.844673505989,3684.6818914786804,-0.554,-2.238,-5.104,-6.169
-0.5,2000000019.9681082,1.5631514788,2344.228815319923,3589.2193464500533,-0.515,-2.279,-5.306,-6.429
-0.5,2000000019.9681082,1.5631556511,3126.0793671239558,3439.5371138063997,-0.439,-2.331,-5.62,-6.839
-0.5,2000000019.9681082,1.5631606579,4045.7589169744288,3305.9783107043236,-0.357,-2.358,-5.896,-7.207
-0.5,2000000019.9681082,1.5631664991,4797.334486366892,3210.7020105619063,-0.314,-2.374,-6.083,-7.452
-0.5,2000000019.9681082,1.5631732941,5236.0043658575005,3151.374380204506,-0.246,-2.355,-6.183,-7.585
-0.5,2000000019.9681082,1.5631810427,5445.026528424214,3110.283668685142,-0.174,-2.318,-6.229,-7.653
-0.5,2000000019.9681082,1.5631897449,5546.25712957911,3074.680545939635,-0.095,-2.269,-6.253,-7.694
-0.5,2000000019.9681082,1.5631899834,4841.7236758409945,3138.340056432409,-0.138,-2.25,-6.098,-7.507
-0.5,2000000019.9681082,1.5631908178,3580.9643710263585,3283.976192504799,-0.177,-2.19,-5.762,-7.087
-0.5,2000000019.9681082,1.5631923676,2167.704104819694,3544.051302809929,-0.332,-2.122,-5.219,-6.371
-0.5,2000000019.9681082,1.5631946325,2187.761623949552,3535.0861336199705,-0.32,-2.118,-5.229,-6.388
-0.5,2000000019.9681082,1.563197732,2612.1613543992053,3434.788498657803,-0.251,-2.133,-5.421,-6.645
-0.5,2000000019.9681082,1.5632014275,3443.4993076333844,3282.4642137521723,-0.13,-2.144,-5.719,-7.045
-0.5,2000000019.9681082,1.5632060766,4405.548635065535,3147.748314101317,-0.073,-2.171,-5.993,-7.399
-0.5,2000000019.9681082,1.563211441,5188.000389289609,3054.9211132155124,0.023,-2.161,-6.179,-7.628
-0.5,2000000019.9681082,1.5632176399,5636.376558259543,2999.16251898765,0.099,-2.137,-6.274,-7.744
-0.5,2000000019.9681082,1.5632247925,5847.900841444806,2963.466348548615,0.163,-2.105,-6.317,-7.797
-0.5,2000000019.9681082,1.5632326603,5956.621435290103,2932.9185340084423,0.228,-2.066,-6.342,-7.829
-0.5,2000000019.9681082,1.5632328987,5345.643593969719,2984.695288301337,0.188,-2.056,-6.218,-7.691
-0.5,2000000019.9681082,1.5632337332,3981.0717055349733,3131.1220745994874,0.076,-2.032,-5.881,-7.296
-0.5,2000000019.9681082,1.5632351637,2415.4608344449402,3397.8171182708334,-0.08,-1.984,-5.332,-6.583
-0.5,2000000019.9681082,1.5632373095,2437.8108183687523,3385.3221281535407,-0.058,-1.972,-5.342,-6.602
-0.5,2000000019.9681082,1.5632401705,2897.3435877013244,3279.4423443213464,0.05,-1.956,-5.528,-6.857
-0.5,2000000019.9681082,1.5632437468,3784.425847170932,3123.2014671492143,0.149,-1.963,-5.826,-7.245
-0.5,2000000019.9681082,1.5632480383,4786.300923226385,2984.695288301337,0.295,-1.942,-6.096,-7.57
-0.5,2000000019.9681082,1.5632530451,5584.701947368307,2889.348981559081,0.412,-1.916,-6.28,-7.777
-0.5,2000000019.9681082,1.5632590055,6039.4862937638,2830.740118752184,0.495,-1.888,-6.379,-7.881
-0.5,2000000019.9681082,1.5632655621,6251.726927756856,2793.830151362531,0.56,-1.856,-6.424,-7.926
-0.5,2000000019.9681082,1.5632730722,6367.955209079156,2764.3943712203372,0.621,-1.821,-6.45,-7.949
-0.5,2000000019.9681082,1.5632733107,5888.43655355589,2801.5604642568937,0.598,-1.809,-6.358,-7.86
-0.5,2000000019.9681082,1.5632740259,4405.548635065535,2948.4923138943664,0.479,-1.785,-6.01,-7.494
-0.5,2000000019.9681082,1.5632753372,2685.344445658506,3224.0368719181865,0.275,-1.771,-5.445,-6.809
-0.5,2000000019.9681082,1.5632773638,2710.1916318908416,3199.6317673183503,0.321,-1.74,-5.457,-6.835
-0.5,2000000019.9681082,1.5632799864,3206.2693245054643,3076.805193759751,0.44,-1.702,-5.649,-7.091
-0.5,2000000019.9681082,1.5632833242,4139.996748197304,2902.685610499054,0.665,-1.635,-5.95,-7.444
-0.5,2000000019.9681082,1.5632872581,5176.068319505676,2750.4262230303175,0.848,-1.59,-6.226,-7.724
-0.5,2000000019.9681082,1.5632920265,5997.910762555094,2648.500138606701,0.964,-1.565,-6.414,-7.895
-0.5,2000000019.9681082,1.5632973909,6456.542290346556,2594.179362118815,1.006,-1.565,-6.51,-7.977
-0.5,2000000019.9681082,1.5633035898,6668.067692136218,2575.134990410314,0.994,-1.587,-6.547,-8.015
-0.5,2000000019.9681082,1.563310504,6776.41507610675,2581.071289645939,0.987,-1.599,-6.566,-8.035
-0.5,2000000019.9681082,1.5633107424,6471.426157485831,2603.154831374184,1.014,-1.562,-6.513,-7.982
-0.5,2000000019.9681082,1.5633114576,4875.284901033865,2762.4854546315764,0.902,-1.534,-6.159,-7.658
-0.5,2000000019.9681082,1.5633126497,2971.666031738025,3068.315401315068,0.559,-1.598,-5.571,-7.016
-0.5,2000000019.9681082,1.5633144379,3006.076302628232,3008.153543944214,0.711,-1.493,-5.585,-7.053
-0.5,2000000019.9681082,1.5633169413,3539.9734108343464,2837.265648662569,1.007,-1.346,-5.792,-7.293
-0.5,2000000019.9681082,1.5633199215,4518.559443749222,2627.846540838493,1.285,-1.245,-6.111,-7.583
-0.5,2000000019.9681082,1.563323617,5597.576014951104,2466.6072291544697,1.205,-1.385,-6.358,-7.827
-0.5,2000000019.9681082,1.5633280277,6426.877173170194,2386.7119083399743,1.073,-1.524,-6.509,-7.98
-0.5,2000000019.9681082,1.5633330345,6886.522963442762,2392.764738527746,0.996,-1.6,-6.585,-8.056
-0.5,2000000019.9681082,1.5633386374,7112.1351365332885,2487.711421003308,0.963,-1.634,-6.619,-8.089
-0.5,2000000019.9681082,1.5633450747,7227.698036021702,2685.344445658506,0.78,-1.768,-6.617,-8.11
