FeH,Age,Mini,L,Te,Bmag,Vmag,Jmag,Kmag
0.0,1899984246.2147348,0.0900000036,0.00038018939632056124,2308.8727601076275,19.981,18.14,11.23,10.328
0.0,1899984246.2147348,0.1000000015,0.0005767664633922509,2450.7555792438225,19.501,17.668,10.777,9.872
0.0,1899984246.2147348,0.1006560698,0.0005902010801718441,2458.1025650893434,19.476,17.644,10.753,9.848
0.0,1899984246.2147348,0.1055620462,0.0006918309709189362,2510.1518809953313,19.294,17.465,10.581,9.675
0.0,1899984246.2147348,0.1200000048,0.0010641430182243164,2657.05167035507,18.524,16.73,10.132,9.22
0.0,1899984246.2147348,0.1353145838,0.0014757065332758946,2753.5945917502636,17.582,15.856,9.813,8.898
0.0,1899984246.2147348,0.1400000006,0.0016218100973589297,2781.6340890110087,17.328,15.62,9.722,8.807
0.0,1899984246.2147348,0.1599999964,0.002243881923782766,2869.4588430750064,16.512,14.85,9.403,8.489
0.0,1899984246.2147348,0.200000003,0.003681289736425313,2995.711592427998,15.4,13.797,8.909,8.002
0.0,1899984246.2147348,0.25,0.005874893525297769,3111.716337106017,14.453,12.884,8.444,7.544
0.0,1899984246.2147348,0.3345511556,0.010939563662720937,3234.446708514467,13.396,11.881,7.807,6.917
0.0,1899984246.2147348,0.3447055519,0.011694993910198712,3248.6281257920155,13.286,11.776,7.74,6.85
0.0,1899984246.2147348,0.3500000238,0.012078138351067804,3256.1169870485296,13.23,11.723,7.706,6.817
0.0,1899984246.2147348,0.3916482925,0.01599558028614669,3325.8296441911734,12.75,11.266,7.423,6.536
0.0,1899984246.2147348,0.4000000358,0.016865530253887415,3338.8737672512307,12.663,11.183,7.371,6.484
0.0,1899984246.2147348,0.4500000179,0.02376840286624876,3433.99770042585,12.087,10.636,7.028,6.142
0.0,1899984246.2147348,0.4825295806,0.03013006024186122,3511.5592451629086,11.685,10.252,6.795,5.909
0.0,1899984246.2147348,0.5,0.03404081897010009,3552.2211848231955,11.484,10.059,6.677,5.791
0.0,1899984246.2147348,0.5500000119,0.049431068698683536,3709.3686741322836,10.831,9.425,6.322,5.44
0.0,1899984246.2147348,0.6000000238,0.07194489780036994,3911.1097238892944,10.151,8.776,5.976,5.107
0.0,1899984246.2147348,0.634796679,0.09375620069258803,4087.897521111197,9.645,8.319,5.734,4.888
0.0,1899984246.2147348,0.6499999762,0.10471285480508996,4164.856093407415,9.431,8.13,5.631,4.8
0.0,1899984246.2147348,0.7000000477,0.15031419660900225,4445.28899122317,8.672,7.492,5.312,4.553
0.0,1899984246.2147348,0.7009074688,0.15100801541641484,4451.434629201126,8.658,7.48,5.307,4.549
0.0,1899984246.2147348,0.75,0.21134890398366465,4746.789794829222,7.929,6.892,5.025,4.371
0.0,1899984246.2147348,0.7968583703,0.2831391995799379,4964.779900060685,7.401,6.453,4.772,4.188
0.0,1899984246.2147348,0.8000000119,0.28840315031266056,4978.517063739154,7.367,6.425,4.756,4.176
0.0,1899984246.2147348,0.8191259503,0.32359365692962827,5066.406124332974,7.17,6.259,4.657,4.103
0.0,1899984246.2147348,0.8500000238,0.3881503659906483,5207.148940339917,6.868,6.006,4.503,3.988
0.0,1899984246.2147348,0.8999999762,0.5152286445817565,5423.754206961006,6.424,5.63,4.263,3.802
0.0,1899984246.2147348,0.9041273594,0.5272298614228227,5440.013782467271,6.389,5.6,4.244,3.787
0.0,1899984246.2147348,0.9499999881,0.6760829753919817,5624.708239741314,6.013,5.284,4.036,3.621
0.0,1899984246.2147348,0.9528451562,0.6870684400142322,5635.078884001395,5.991,5.266,4.023,3.61
0.0,1899984246.2147348,0.9957472682,0.8629785477669702,5794.286964268809,5.667,4.991,3.832,3.451
0.0,1899984246.2147348,1.0,0.881048873008014,5810.319310119074,5.636,4.965,3.813,3.436
0.0,1899984246.2147348,1.0191253424,0.9727472237769651,5876.246425275582,5.497,4.847,3.729,3.364
0.0,1899984246.2147348,1.0499999523,1.1402497875611688,5979.983697142513,5.278,4.663,3.596,3.251
0.0,1899984246.2147348,1.0845865011,1.3583134465871542,6088.355457613952,5.044,4.462,3.446,3.12
0.0,1899984246.2147348,1.1000000238,1.4655478409559115,6134.794223881292,4.942,4.375,3.379,3.062
0.0,1899984246.2147348,1.1037142277,1.492794409578996,6146.105347195242,4.918,4.354,3.363,3.048
0.0,1899984246.2147348,1.1336649656,1.7298163592151015,6231.60618945834,4.727,4.189,3.235,2.935
0.0,1899984246.2147348,1.1499999762,1.8706821403658007,6276.246612800244,4.625,4.1,3.166,2.873
0.0,1899984246.2147348,1.1647183895,2.009092812608728,6316.841792875155,4.534,4.021,3.104,2.818
0.0,1899984246.2147348,1.2000000477,2.371373705661655,6409.143566447764,4.321,3.835,2.957,2.685
0.0,1899984246.2147348,1.2410600185,2.8510182675039095,6505.789391703234,4.091,3.631,2.792,2.535
0.0,1899984246.2147348,1.25,2.9648313895243423,6525.29274119251,4.042,3.587,2.757,2.503
0.0,1899984246.2147348,1.2918335199,3.53183169791957,6608.455958120293,3.826,3.392,2.595,2.353
0.0,1899984246.2147348,1.2999999523,3.6559479161312485,6622.165037017622,3.786,3.355,2.563,2.324
0.0,1899984246.2147348,1.3451279402,4.36515832240166,6694.220293097285,3.57,3.156,2.393,2.164
0.0,1899984246.2147348,1.3499999046,4.446312674691087,6700.388738077559,3.547,3.135,2.375,2.147
0.0,1899984246.2147348,1.3758852482,4.920395356814509,6734.416926887178,3.429,3.025,2.278,2.055
0.0,1899984246.2147348,1.3999999762,5.382697825162883,6757.716993552864,3.322,2.924,2.187,1.967
0.0,1899984246.2147348,1.4232934713,5.874893525297767,6779.536449241948,3.219,2.827,2.099,1.882
0.0,1899984246.2147348,1.4500000477,6.501296903430906,6796.72971950456,3.104,2.716,1.995,1.782
0.0,1899984246.2147348,1.4746763706,7.11213513653329,6796.72971950456,3.004,2.617,1.897,1.684
0.0,1899984246.2147348,1.4987983704,7.762471166286917,6785.783509504071,2.909,2.521,1.798,1.584
0.0,1899984246.2147348,1.5,7.7983011052325875,6784.221204982605,2.905,2.516,1.793,1.579
0.0,1899984246.2147348,1.5007224083,7.816278045883297,6784.221204982605,2.902,2.513,1.79,1.576
0.0,1899984246.2147348,1.5209058523,8.413951416451951,6763.943948096019,2.827,2.435,1.705,1.488
0.0,1899984246.2147348,1.5388475657,8.953647655495937,6732.866448596849,2.766,2.368,1.627,1.405
0.0,1899984246.2147348,1.5499999523,9.311078754678302,6706.562867022775,2.729,2.326,1.576,1.352
0.0,1899984246.2147348,1.5653079748,9.817479430199844,6672.675421386398,2.68,2.27,1.507,1.278
0.0,1899984246.2147348,1.5859831572,10.519618738232229,6616.068605559997,2.618,2.196,1.412,1.175
0.0,1899984246.2147348,1.6000000238,11.01539309541415,6565.9867197835665,2.582,2.149,1.346,1.102
0.0,1899984246.2147348,1.6037865877,11.142945335917299,6552.39394015981,2.572,2.136,1.328,1.082
0.0,1899984246.2147348,1.620672226,11.748975549395297,6481.865274740793,2.535,2.083,1.247,0.991
0.0,1899984246.2147348,1.6372345686,12.33104833228909,6406.192726268982,2.505,2.033,1.166,0.898
0.0,1899984246.2147348,1.6500000954,12.823305826560219,6343.077242082354,2.485,1.995,1.102,0.824
0.0,1899984246.2147348,1.6516999006,12.882495516931343,6335.778706712548,2.483,1.99,1.094,0.815
0.0,1899984246.2147348,1.6700162888,13.708817661648537,6253.166606822608,2.443,1.927,0.996,0.703
0.0,1899984246.2147348,1.6775428057,14.157937799570817,6228.7370894402875,2.417,1.894,0.952,0.655
0.0,1899984246.2147348,1.6818300486,15.100801541641486,6286.370884130498,2.324,1.819,0.903,0.616
0.0,1899984246.2147348,1.6853396893,16.405897731995395,6382.634861905489,2.199,1.722,0.848,0.578
0.0,1899984246.2147348,1.6862169504,17.498466886246575,6481.865274740793,2.094,1.645,0.813,0.558
0.0,1899984246.2147348,1.6865617037,18.57804455091698,6581.122882388993,1.997,1.573,0.781,0.542
0.0,1899984246.2147348,1.6867281199,19.67886289706845,6683.439175686149,1.903,1.503,0.753,0.528
0.0,1899984246.2147348,1.686855197,20.701413487910425,6779.536449241948,1.822,1.443,0.731,0.52
0.0,1899984246.2147348,1.6868895292,20.183663636815606,6753.050539950786,1.858,1.473,0.751,0.536
0.0,1899984246.2147348,1.6869513988,18.793168168032686,6657.328693784393,1.963,1.556,0.795,0.567
0.0,1899984246.2147348,1.6870290041,17.906058540352937,6520.786785135783,2.056,1.618,0.802,0.553
0.0,1899984246.2147348,1.6871449947,17.988709151287875,6378.227416392381,2.099,1.622,0.747,0.476
0.0,1899984246.2147348,1.6873322725,18.238957023196374,6233.041235019454,2.135,1.616,0.678,0.383
0.0,1899984246.2147348,1.6876240969,18.197008586099834,6089.757514677301,2.195,1.632,0.63,0.31
0.0,1899984246.2147348,1.6880316734,17.701089583174213,5951.137709938006,2.287,1.679,0.611,0.265
0.0,1899984246.2147348,1.6885434389,16.749428760264372,5815.6732771851475,2.409,1.757,0.622,0.248
0.0,1899984246.2147348,1.6890726089,15.595525028269538,5689.839291528672,2.549,1.857,0.657,0.257
0.0,1899984246.2147348,1.689468503,14.621771744567184,5598.865052860273,2.665,1.944,0.696,0.276
0.0,1899984246.2147348,1.6898552179,13.708817661648537,5511.883123276055,2.781,2.034,0.738,0.297
0.0,1899984246.2147348,1.6903582811,12.76438808811344,5402.564990999317,2.921,2.14,0.782,0.315
0.0,1899984246.2147348,1.690860033,12.33104833228909,5302.735926292144,3.016,2.204,0.788,0.297
0.0,1899984246.2147348,1.6913603544,12.274392311584071,5213.147344399808,3.077,2.234,0.763,0.249
0.0,1899984246.2147348,1.6916048527,12.705741052085418,5179.645056050334,3.063,2.209,0.717,0.194
0.0,1899984246.2147348,1.6920933723,13.772094688939466,5119.175279997109,3.015,2.14,0.609,0.07
0.0,1899984246.2147348,1.6925393343,15.13561248436208,5073.410460372977,2.949,2.056,0.494,-0.057
0.0,1899984246.2147348,1.6929334402,16.595869074375607,5037.3253278550155,2.875,1.968,0.382,-0.179
0.0,1899984246.2147348,1.6933015585,18.197008586099834,5007.258356403354,2.798,1.879,0.272,-0.298
0.0,1899984246.2147348,1.6936563253,19.998618696327437,4978.517063739154,2.72,1.79,0.163,-0.415
0.0,1899984246.2147348,1.694000721,21.928049353504484,4952.220800885213,2.642,1.701,0.055,-0.53
0.0,1899984246.2147348,1.6943401098,23.9883291901949,4926.063433495771,2.564,1.612,-0.053,-0.646
0.0,1899984246.2147348,1.6946755648,26.302679918953814,4901.172634719431,2.486,1.524,-0.159,-0.759
0.0,1899984246.2147348,1.6951774359,30.060763026282306,4864.072056914614,2.373,1.396,-0.314,-0.925
0.0,1899984246.2147348,1.695595026,33.57376142429547,4835.039205916214,2.28,1.29,-0.443,-1.064
0.0,1899984246.2147348,1.6960139275,37.497300224548354,4803.966829296808,2.186,1.183,-0.572,-1.203
0.0,1899984246.2147348,1.6963452101,41.02041029866068,4778.592531515467,2.111,1.099,-0.677,-1.315
0.0,1899984246.2147348,1.6967049837,45.18559443749224,4751.163763775616,2.032,1.007,-0.79,-1.438
0.0,1899984246.2147348,1.6970744133,50.11872336272722,4720.630412635905,1.95,0.912,-0.91,-1.567
0.0,1899984246.2147348,1.6973910332,54.82769649208539,4694.615193825913,1.877,0.829,-1.014,-1.681
0.0,1899984246.2147348,1.6977133751,60.11737374832779,4666.593803142887,1.803,0.743,-1.124,-1.8
0.0,1899984246.2147348,1.6980353594,66.06934480075961,4637.671681240619,1.734,0.657,-1.234,-1.92
0.0,1899984246.2147348,1.6983516216,72.61059574351547,4608.928809808955,1.667,0.574,-1.344,-2.039
0.0,1899984246.2147348,1.6987165213,80.90958991783822,4576.147348863334,1.589,0.476,-1.472,-2.178
0.0,1899984246.2147348,1.6990120411,88.30799004185627,4548.8330733814555,1.529,0.399,-1.576,-2.292
0.0,1899984246.2147348,1.6993169785,96.38290236239705,4521.681832344975,1.47,0.323,-1.678,-2.403
0.0,1899984246.2147348,1.6996999979,105.68175092136585,4493.657830540859,1.408,0.243,-1.785,-2.52
0.0,1899984246.2147348,1.7000000477,111.42945335917304,4477.133041763624,1.372,0.197,-1.847,-2.588
0.0,1899984246.2147348,1.7001119852,113.24003632355566,4473.0113482444785,1.362,0.184,-1.865,-2.607
0.0,1899984246.2147348,1.7004138231,106.90548792226576,4491.588901059318,1.398,0.232,-1.798,-2.534
0.0,1899984246.2147348,1.7005956173,98.8553094656939,4516.479049291119,1.45,0.299,-1.706,-2.433
0.0,1899984246.2147348,1.7007535696,89.12509381337455,4549.880601500485,1.519,0.389,-1.583,-2.298
0.0,1899984246.2147348,1.7008661032,81.09610578538408,4580.364077908267,1.582,0.471,-1.474,-2.179
0.0,1899984246.2147348,1.700987339,72.94575102545687,4614.238090876438,1.656,0.564,-1.349,-2.043
0.0,1899984246.2147348,1.7010973692,66.3743070401909,4644.083289410481,1.722,0.648,-1.238,-1.922
0.0,1899984246.2147348,1.7012146711,60.673632958850526,4673.045396315099,1.788,0.73,-1.13,-1.804
0.0,1899984246.2147348,1.701366663,54.954087385762456,4704.35405725976,1.865,0.82,-1.015,-1.678
0.0,1899984246.2147348,1.7014784813,51.999599653351595,4722.804843922316,1.908,0.871,-0.95,-1.607
0.0,1899984246.2147348,1.7016952038,55.335010921573684,4703.2709644077795,1.859,0.814,-1.022,-1.686
0.0,1899984246.2147348,1.7020261288,60.53408747539136,4675.197908845073,1.787,0.73,-1.128,-1.801
0.0,1899984246.2147348,1.7024539709,66.52731562017412,4646.222461325775,1.717,0.645,-1.239,-1.922
0.0,1899984246.2147348,1.7028981447,73.11390834834177,4617.4265947729555,1.65,0.56,-1.35,-2.042
0.0,1899984246.2147348,1.7033289671,79.98342550070285,4590.922907591308,1.586,0.479,-1.456,-2.157
0.0,1899984246.2147348,1.703781724,87.70008211436348,4561.419344219829,1.521,0.397,-1.565,-2.276
0.0,1899984246.2147348,1.7042213678,96.16122783836649,4533.14906146412,1.459,0.318,-1.671,-2.392
0.0,1899984246.2147348,1.7046608925,105.43868963912593,4504.016781680873,1.397,0.237,-1.78,-2.511
0.0,1899984246.2147348,1.7050808668,115.34532578210919,4476.102262460901,1.337,0.159,-1.886,-2.627
0.0,1899984246.2147348,1.705491662,126.4736347471151,4447.3365938979705,1.278,0.082,-1.993,-2.744
0.0,1899984246.2147348,1.705889225,138.3566378971781,4418.755787887183,1.221,0.006,-2.099,-2.861
0.0,1899984246.2147348,1.7062708139,151.70503674593368,4389.34785534717,1.163,-0.07,-2.206,-2.978
0.0,1899984246.2147348,1.7066277266,165.57699634695277,4362.144019080488,1.109,-0.146,-2.308,-3.09
0.0,1899984246.2147348,1.7069740295,181.13400926196024,4333.112852118383,1.056,-0.221,-2.411,-3.202
0.0,1899984246.2147348,1.7072988749,198.1527025805099,4305.266104917106,1.002,-0.296,-2.513,-3.312
0.0,1899984246.2147348,1.7076081038,216.271852372702,4276.613474797276,0.948,-0.37,-2.614,-3.423
0.0,1899984246.2147348,1.7079030275,236.59196974857588,4249.129820811196,0.894,-0.444,-2.716,-3.534
0.0,1899984246.2147348,1.7081762552,257.63211570025754,4221.8227905113345,0.84,-0.516,-2.815,-3.642
0.0,1899984246.2147348,1.7084387541,281.8382931264455,4193.72549666233,0.786,-0.588,-2.915,-3.753
0.0,1899984246.2147348,1.7086832523,306.90219883911584,4165.815197379616,0.733,-0.659,-3.014,-3.862
0.0,1899984246.2147348,1.7089136839,334.19504002611427,4138.090648167254,0.682,-0.727,-3.111,-3.97
0.0,1899984246.2147348,1.7091321945,364.75394692560764,4111.497211045221,0.629,-0.795,-3.209,-4.079
0.0,1899984246.2147348,1.7093839645,405.5085354483839,4076.617833479447,0.573,-0.873,-3.331,-4.217
0.0,1899984246.2147348,1.709617734,449.77985489328796,4042.9651707596545,0.523,-0.943,-3.454,-4.354
0.0,1899984246.2147348,1.7098331451,498.88448746001217,4009.5903122771956,0.475,-1.012,-3.574,-4.49
0.0,1899984246.2147348,1.7099986076,543.250331492433,3982.9054790171745,0.435,-1.069,-3.672,-4.6
0.0,1899984246.2147348,1.710185647,601.1737374832779,3949.1169934897503,0.395,-1.126,-3.79,-4.734
0.0,1899984246.2147348,1.7103600502,663.7430704019089,3915.6151483961166,0.354,-1.184,-3.908,-4.867
0.0,1899984246.2147348,1.710521102,732.8245331389045,3882.397512057637,0.317,-1.238,-4.024,-4.999
0.0,1899984246.2147348,1.7106724977,809.0958991783822,3849.46167342452,0.284,-1.285,-4.141,-5.131
0.0,1899984246.2147348,1.7108123302,893.3054837332954,3815.926491189337,0.255,-1.329,-4.255,-5.262
0.0,1899984246.2147348,1.7109408379,981.7479430199844,3782.683455893896,0.238,-1.357,-4.369,-5.391
0.0,1899984246.2147348,1.7110594511,1078.9467222298285,3749.730022454834,0.226,-1.376,-4.48,-5.517
0.0,1899984246.2147348,1.7111711502,1183.0415557251647,3717.0636679606755,0.215,-1.396,-4.59,-5.642
0.0,1899984246.2147348,1.7112760544,1297.1792709839558,3683.8335597906507,0.217,-1.394,-4.702,-5.767
0.0,1899984246.2147348,1.7113726139,1415.793779957081,3651.741272548377,0.222,-1.388,-4.81,-5.89
0.0,1899984246.2147348,1.7114653587,1548.816618912481,3619.0951388429776,0.236,-1.372,-4.917,-6.011
0.0,1899984246.2147348,1.7115222216,1633.0519478943347,3598.321800388802,0.253,-1.35,-4.984,-6.087
0.0,1899984246.2147348,1.7115222216,50.35006087879047,4852.88500162121,1.823,0.838,-0.878,-1.492
0.0,1899984246.2147348,1.7126761675,52.84452517751805,4832.813100695309,1.788,0.795,-0.936,-1.556
0.0,1899984246.2147348,1.7138754129,53.33348954876211,4830.5880203977285,1.778,0.784,-0.948,-1.569
0.0,1899984246.2147348,1.7149915695,53.33348954876211,4833.926025160843,1.776,0.783,-0.946,-1.566
0.0,1899984246.2147348,1.7161138058,53.21082592667942,4837.266336532547,1.774,0.783,-0.944,-1.563
0.0,1899984246.2147348,1.7173695564,53.21082592667942,4840.60895610673,1.772,0.782,-0.943,-1.56
0.0,1899984246.2147348,1.7185902596,53.21082592667942,4843.953885478403,1.769,0.78,-0.942,-1.558
0.0,1899984246.2147348,1.7197233438,53.21082592667942,4846.185122401829,1.767,0.779,-0.941,-1.557
0.0,1899984246.2147348,1.72093606,53.21082592667942,4849.5339049834165,1.764,0.777,-0.94,-1.555
0.0,1899984246.2147348,1.7222200632,53.33348954876211,4852.88500162121,1.76,0.775,-0.941,-1.554
0.0,1899984246.2147348,1.7234984636,53.33348954876211,4855.120352422797,1.756,0.772,-0.942,-1.555
0.0,1899984246.2147348,1.7247265577,53.456435939697165,4857.356732878539,1.752,0.768,-0.943,-1.556
0.0,1899984246.2147348,1.7260192633,53.57966575133417,4859.594143462719,1.748,0.765,-0.945,-1.556
0.0,1899984246.2147348,1.7273392677,53.70317963702527,4861.832584649837,1.743,0.761,-0.947,-1.557
0.0,1899984246.2147348,1.7285226583,53.826978251628844,4864.072056914614,1.739,0.758,-0.949,-1.559
0.0,1899984246.2147348,1.7292349339,53.95106225151276,4865.192179849536,1.736,0.755,-0.95,-1.56
0.0,1899984246.2147348,1.7298029661,54.0754322945581,4865.192179849536,1.734,0.754,-0.952,-1.561
0.0,1899984246.2147348,1.7309861183,54.20008904016238,4866.312560731986,1.73,0.749,-0.955,-1.564
0.0,1899984246.2147348,1.7322933674,54.450265284242114,4868.554096577112,1.724,0.745,-0.959,-1.567
0.0,1899984246.2147348,1.7335008383,54.57578610912711,4868.554096577112,1.719,0.74,-0.963,-1.571
0.0,1899984246.2147348,1.7347080708,54.82769649208539,4869.675251658631,1.714,0.735,-0.967,-1.575
0.0,1899984246.2147348,1.7359446287,55.08076964054035,4869.675251658631,1.709,0.73,-0.972,-1.58
0.0,1899984246.2147348,1.7371439934,55.335010921573684,4870.796664925371,1.703,0.725,-0.977,-1.585
0.0,1899984246.2147348,1.7384345531,55.71857489319299,4870.796664925371,1.697,0.718,-0.983,-1.591
0.0,1899984246.2147348,1.7387897968,55.71857489319299,4869.675251658631,1.696,0.717,-0.985,-1.593
0.0,1899984246.2147348,1.7400406599,56.104797603247064,4869.675251658631,1.689,0.71,-0.992,-1.6
0.0,1899984246.2147348,1.7412387133,56.49369748123026,4868.554096577112,1.683,0.703,-1.0,-1.608
0.0,1899984246.2147348,1.7424455881,56.88529308438413,4866.312560731986,1.676,0.696,-1.009,-1.618
0.0,1899984246.2147348,1.7436519861,57.41164622073274,4864.072056914614,1.669,0.688,-1.018,-1.628
0.0,1899984246.2147348,1.7448849678,58.07644175213121,4860.713235201249,1.661,0.678,-1.031,-1.642
0.0,1899984246.2147348,1.7461150885,58.74893525297766,4856.238413914264,1.651,0.667,-1.045,-1.658
0.0,1899984246.2147348,1.7473326921,59.42921586155727,4851.7677121925735,1.642,0.655,-1.06,-1.674
0.0,1899984246.2147348,1.7485479116,59.979107625550945,4849.5339049834165,1.635,0.648,-1.069,-1.683
0.0,1899984246.2147348,1.7497751713,60.673632958850526,4846.185122401829,1.626,0.637,-1.083,-1.698
0.0,1899984246.2147348,1.7506891489,61.94410750767815,4837.266336532547,1.612,0.619,-1.107,-1.726
0.0,1899984246.2147348,1.7521144152,66.22165037017619,4806.1796472595415,1.566,0.561,-1.189,-1.817
0.0,1899984246.2147348,1.753068924,72.11074791828997,4768.699981017778,1.508,0.487,-1.293,-1.933
0.0,1899984246.2147348,1.7535363436,78.52356346100719,4732.602186090037,1.454,0.413,-1.397,-2.049
0.0,1899984246.2147348,1.7537951469,86.09937521846008,4694.615193825913,1.395,0.334,-1.508,-2.172
0.0,1899984246.2147348,1.7539149523,93.9723310564638,4660.151117021843,1.339,0.258,-1.613,-2.288
0.0,1899984246.2147348,1.7539783716,102.80162981264735,4625.940047661603,1.284,0.183,-1.72,-2.406
0.0,1899984246.2147348,1.7540149689,112.2018454301963,4591.980128368686,1.228,0.108,-1.825,-2.522
0.0,1899984246.2147348,1.7540365458,120.78138351067798,4564.571349614057,1.181,0.045,-1.913,-2.619
0.0,1899984246.2147348,1.7540369034,121.05981335504829,4564.571349614057,1.18,0.044,-1.914,-2.621
0.0,1899984246.2147348,1.7540504932,128.23305826560218,4542.552967388711,1.144,-0.005,-1.985,-2.699
0.0,1899984246.2147348,1.7540739775,142.8893958511102,4504.016781680873,1.079,-0.094,-2.111,-2.839
0.0,1899984246.2147348,1.7541162968,155.23870099580816,4474.041415755961,1.028,-0.163,-2.209,-2.947
0.0,1899984246.2147348,1.7541552782,145.8814260275349,4496.763011769069,1.065,-0.112,-2.136,-2.867
0.0,1899984246.2147348,1.754278779,132.1295634186575,4533.14906146412,1.125,-0.03,-2.019,-2.736
0.0,1899984246.2147348,1.7552822828,134.58603540559483,4527.933083871694,1.113,-0.046,-2.04,-2.76
0.0,1899984246.2147348,1.7561905384,146.55478409559115,4495.727713019056,1.062,-0.116,-2.142,-2.873
0.0,1899984246.2147348,1.7567470074,161.80800376430662,4460.669020551353,1.002,-0.197,-2.258,-3.001
0.0,1899984246.2147348,1.757170558,177.82794100389228,4426.90293835173,0.949,-0.275,-2.369,-3.124
0.0,1899984246.2147348,1.7575175762,195.43394557753942,4393.3924564447625,0.895,-0.354,-2.479,-3.244
0.0,1899984246.2147348,1.7578105927,214.28906011200584,4359.131797247284,0.842,-0.432,-2.588,-3.363
0.0,1899984246.2147348,1.7580652237,235.5049283896009,4326.1343249159545,0.789,-0.508,-2.696,-3.482
0.0,1899984246.2147348,1.7582880259,258.22601906345955,4294.375337334884,0.735,-0.585,-2.803,-3.601
0.0,1899984246.2147348,1.7584865093,283.7919028441555,4261.868054241604,0.681,-0.66,-2.91,-3.719
0.0,1899984246.2147348,1.7586629391,311.17163371060167,4229.60684266539,0.629,-0.733,-3.015,-3.836
0.0,1899984246.2147348,1.7588272095,340.4081897010009,4198.556481973773,0.576,-0.805,-3.118,-3.95
0.0,1899984246.2147348,1.7589869499,372.39170625456865,4167.734067976717,0.522,-0.878,-3.221,-4.065
0.0,1899984246.2147348,1.7591025829,398.1071705534973,4118.129505138526,0.524,-0.9,-3.304,-4.17
0.0,1899984246.2147348,1.7592508793,436.5158322401661,4082.2537814298526,0.486,-0.96,-3.412,-4.294
0.0,1899984246.2147348,1.7593860626,479.73344863668916,4048.5545937074157,0.446,-1.02,-3.522,-4.42
0.0,1899984246.2147348,1.759495616,529.6634438916581,4015.1335942882924,0.403,-1.084,-3.638,-4.551
0.0,1899984246.2147348,1.7595710754,582.1032177708715,3981.988486715585,0.363,-1.144,-3.749,-4.677
0.0,1899984246.2147348,1.7596263885,636.7955209079155,3950.936047894297,0.329,-1.194,-3.854,-4.796
0.0,1899984246.2147348,1.7596734762,696.6265141107687,3920.125762951651,0.296,-1.242,-3.958,-4.915
0.0,1899984246.2147348,1.7597171068,760.3262769401815,3889.555743517412,0.265,-1.29,-4.061,-5.032
0.0,1899984246.2147348,1.7597593069,829.8507675144226,3859.2241159472915,0.24,-1.328,-4.164,-5.15
0.0,1899984246.2147348,1.7597998381,903.6494737223014,3828.2474331682283,0.216,-1.364,-4.264,-5.265
0.0,1899984246.2147348,1.7598395348,984.0111057611335,3796.6450792221963,0.198,-1.395,-4.367,-5.383
0.0,1899984246.2147348,1.7598816156,1078.9467222298285,3762.7035226776516,0.191,-1.41,-4.477,-5.508
0.0,1899984246.2147348,1.7599250078,1177.6059735208078,3729.9241475247336,0.185,-1.423,-4.583,-5.628
0.0,1899984246.2147348,1.759971261,1285.2866599436154,3696.5790681932745,0.189,-1.422,-4.687,-5.748
0.0,1899984246.2147348,1.7600213289,1402.8137045619576,3662.6886275878364,0.199,-1.411,-4.795,-5.87
0.0,1899984246.2147348,1.7600636482,1489.3610777109154,3638.3125123993877,0.208,-1.402,-4.87,-5.955
0.0,1899984246.2147348,1.7600696087,1462.1771744567184,3645.8601019727603,0.204,-1.406,-4.847,-5.929
0.0,1899984246.2147348,1.7600733042,1503.1419660900224,3634.9630454608155,0.21,-1.401,-4.881,-5.968
0.0,1899984246.2147348,1.7600768805,1599.5580286146694,3610.7714510035285,0.232,-1.373,-4.955,-6.053
0.0,1899984246.2147348,1.7600812912,1702.15850839495,3585.0894827655493,0.258,-1.339,-5.031,-6.141
0.0,1899984246.2147348,1.7600910664,1761.976046411629,3569.4392919884644,0.276,-1.317,-5.077,-6.193
0.0,1899984246.2147348,1.7600928545,1422.32878712282,3655.1061999238823,0.206,-1.404,-4.812,-5.891
0.0,1899984246.2147348,1.7600929737,1127.1974561755105,3743.6910398904515,0.196,-1.409,-4.53,-5.569
0.0,1899984246.2147348,1.7600930929,1621.8100973589299,3603.296501281602,0.242,-1.36,-4.975,-6.076
0.0,1899984246.2147348,1.7600932121,1849.2686189780777,3550.5857031262385,0.297,-1.291,-5.135,-6.259
0.0,1899984246.2147348,1.7600933313,1986.0949173573717,3519.654225247658,0.35,-1.222,-5.225,-6.363
0.0,1899984246.2147348,1.7600934505,1879.3168168032685,3544.051302809929,0.307,-1.279,-5.154,-6.281
0.0,1899984246.2147348,1.760093689,1648.1623915255086,3597.4933515574235,0.246,-1.355,-4.992,-6.096
0.0,1899984246.2147348,1.7600939274,1531.0874616820304,3627.4380147645793,0.215,-1.394,-4.903,-5.993
0.0,1899984246.2147348,1.7600940466,1425.607593602188,3655.9479161312506,0.202,-1.409,-4.815,-5.893
0.0,1899984246.2147348,1.7600941658,1336.5955165464418,3680.4421857199322,0.193,-1.418,-4.738,-5.805
0.0,1899984246.2147348,1.7600944042,1256.0299636948755,3705.1005630192394,0.186,-1.426,-4.662,-5.719
0.0,1899984246.2147348,1.7600946426,1180.3206356517298,3729.065399621527,0.185,-1.424,-4.585,-5.631
0.0,1899984246.2147348,1.7600947618,1099.0058394325208,3755.7787465577244,0.19,-1.413,-4.5,-5.534
0.0,1899984246.2147348,1.7600948811,1044.7202192208003,3774.8526172405905,0.194,-1.404,-4.437,-5.462
0.0,1899984246.2147348,1.7600950003,972.747223776965,3801.0186455476655,0.202,-1.39,-4.353,-5.367
0.0,1899984246.2147348,1.7600951195,1124.6049739669268,3747.1406951440317,0.188,-1.416,-4.526,-5.564
0.0,1899984246.2147348,1.7600952387,1321.2956341865752,3685.5304185247937,0.192,-1.419,-4.721,-5.786
0.0,1899984246.2147348,1.7600953579,1527.5660582380733,3629.108896409478,0.213,-1.396,-4.899,-5.989
0.0,1899984246.2147348,1.7600957155,1506.6070661867418,3634.9630454608155,0.21,-1.4,-4.881,-5.969
0.0,1899984246.2147348,1.7600958347,1406.0475241299143,3661.845359452976,0.199,-1.412,-4.799,-5.874
0.0,1899984246.2147348,1.7600960732,1312.1998990192028,3688.0771722615455,0.191,-1.42,-4.714,-5.778
0.0,1899984246.2147348,1.7600964308,1213.3888504649774,3718.7758332493545,0.184,-1.428,-4.618,-5.669
0.0,1899984246.2147348,1.7600992918,1185.7687481671596,3726.490341997325,0.185,-1.425,-4.592,-5.639
0.0,1899984246.2147348,1.7601014376,1261.8275345906707,3702.5420540013483,0.188,-1.424,-4.667,-5.724
0.0,1899984246.2147348,1.7601033449,1358.3134465871542,3674.5147919993988,0.196,-1.415,-4.757,-5.827
0.0,1899984246.2147348,1.7601054907,1465.5478409559114,3644.181507888609,0.207,-1.403,-4.85,-5.933
0.0,1899984246.2147348,1.7601081133,1595.879147236732,3610.7714510035285,0.231,-1.374,-4.954,-6.052
0.0,1899984246.2147348,1.7601114511,1749.8466886246565,3574.3740626448075,0.269,-1.326,-5.067,-6.181
0.0,1899984246.2147348,1.7601165771,1918.668740670289,3536.7144758575937,0.315,-1.267,-5.181,-6.311
0.0,1899984246.2147348,1.7601226568,2041.7379446695295,3510.750771848301,0.359,-1.209,-5.259,-6.4
0.0,1899984246.2147348,1.7601230145,2041.7379446695295,3510.750771848301,0.359,-1.209,-5.259,-6.4
0.0,1899984246.2147348,1.7601236105,1016.2486928706959,3773.9835253658575,0.222,-1.374,-4.409,-5.434
0.0,1899984246.2147348,1.7601239681,870.9635899560806,3836.1890380502714,0.238,-1.338,-4.223,-5.22
0.0,1899984246.2147348,1.7601253986,518.8000389289609,4049.48691518634,0.365,-1.106,-3.608,-4.504
0.0,1899984246.2147348,1.7601274252,528.4452517751803,4041.103745134904,0.362,-1.115,-3.63,-4.53
0.0,1899984246.2147348,1.7601302862,676.0829753919819,3936.4070414309936,0.297,-1.236,-3.924,-4.873
0.0,1899984246.2147348,1.7601337433,1011.5794542598983,3770.5091583339295,0.234,-1.361,-4.405,-5.433
0.0,1899984246.2147348,1.760138154,1462.1771744567184,3625.7679024119648,0.266,-1.337,-4.853,-5.945
0.0,1899984246.2147348,1.76014328,1879.3168168032685,3528.5802582852702,0.367,-1.206,-5.161,-6.295
0.0,1899984246.2147348,1.7601492405,2152.781734724374,3476.161938153812,0.458,-1.089,-5.33,-6.485
0.0,1899984246.2147348,1.7601560354,2296.148648112363,3449.848313627505,0.523,-1.006,-5.41,-6.577
0.0,1899984246.2147348,1.7601636648,2382.319469358689,3433.2070842609537,0.571,-0.945,-5.458,-6.631
0.0,1899984246.2147348,1.7601639032,1425.607593602188,3621.5959848601933,0.306,-1.293,-4.827,-5.921
0.0,1899984246.2147348,1.7601646185,1030.386120441616,3748.003605517044,0.274,-1.323,-4.43,-5.468
0.0,1899984246.2147348,1.7601661682,612.3503917247733,3957.3093392936153,0.357,-1.162,-3.81,-4.75
0.0,1899984246.2147348,1.760168314,622.3002851691596,3950.936047894297,0.353,-1.169,-3.829,-4.772
0.0,1899984246.2147348,1.760171175,792.5013304804718,3852.1217059810283,0.3,-1.266,-4.116,-5.106
0.0,1899984246.2147348,1.7601748705,1174.897554939529,3694.877122539323,0.279,-1.324,-4.592,-5.653
0.0,1899984246.2147348,1.7601794004,1682.6740610704674,3557.9513055974294,0.363,-1.219,-5.03,-6.152
0.0,1899984246.2147348,1.7601846457,2142.8906011200584,3468.1669875535863,0.498,-1.042,-5.328,-6.488
0.0,1899984246.2147348,1.7601908445,2437.8108183687523,3420.581952567498,0.61,-0.897,-5.487,-6.665
0.0,1899984246.2147348,1.7601978779,2576.3211570025755,3400.1650580407095,0.661,-0.831,-5.557,-6.743
0.0,1899984246.2147348,1.7602058649,2648.500138606701,3389.221868727554,0.689,-0.795,-5.592,-6.783
0.0,1899984246.2147348,1.7602061033,1614.3585568264868,3570.2612803901543,0.361,-1.224,-4.979,-6.095
0.0,1899984246.2147348,1.7602069378,1166.8096170609629,3694.877122539323,0.287,-1.315,-4.583,-5.644
0.0,1899984246.2147348,1.7602086067,695.0243175887969,3903.9118250765996,0.33,-1.214,-3.959,-4.924
0.0,1899984246.2147348,1.7602109909,704.6930689671467,3897.6245309771994,0.326,-1.221,-3.977,-4.945
0.0,1899984246.2147348,1.7602142096,893.3054837332954,3801.0186455476655,0.286,-1.299,-4.259,-5.274
0.0,1899984246.2147348,1.7602183819,1315.224832192239,3647.5394692560767,0.305,-1.295,-4.729,-5.811
0.0,1899984246.2147348,1.7602233887,1866.3796908346694,3513.176750372876,0.439,-1.122,-5.16,-6.3
0.0,1899984246.2147348,1.7602293491,2365.9196974857587,3425.3109270831965,0.615,-0.893,-5.452,-6.629
0.0,1899984246.2147348,1.7602362633,2673.0064086633115,3379.8700286198914,0.734,-0.74,-5.605,-6.799
0.0,1899984246.2147348,1.7602441311,2811.9008303989394,3361.243690470534,0.8,-0.657,-5.669,-6.871
0.0,1899984246.2147348,1.7602530718,2877.3984147356696,3351.969050221629,0.833,-0.616,-5.699,-6.904
0.0,1899984246.2147348,1.7602533102,1794.7336268325266,3526.1436430685917,0.427,-1.14,-5.111,-6.246
0.0,1899984246.2147348,1.7602542639,1300.16957803329,3650.059970708618,0.31,-1.29,-4.716,-5.797
0.0,1899984246.2147348,1.760256052,774.4617978025184,3859.2241159472915,0.309,-1.254,-4.089,-5.075
0.0,1899984246.2147348,1.7602585554,785.2356346100718,3853.0087919083076,0.306,-1.259,-4.107,-5.096
0.0,1899984246.2147348,1.7602621317,990.8319448927675,3757.508744904872,0.287,-1.306,-4.386,-5.42
0.0,1899984246.2147348,1.7602665424,1448.7718535447616,3606.6167888195973,0.342,-1.25,-4.849,-5.949
0.0,1899984246.2147348,1.7602719069,2041.7379446695295,3473.761519726527,0.516,-1.024,-5.273,-6.43
0.0,1899984246.2147348,1.7602783442,2576.3211570025755,3387.661433708217,0.725,-0.754,-5.562,-6.753
0.0,1899984246.2147348,1.7602857351,2897.3435877013244,3343.489779723791,0.879,-0.56,-5.711,-6.92
0.0,1899984246.2147348,1.760294199,3047.8949896279833,3324.298395649131,0.948,-0.474,-5.774,-6.99
0.0,1899984246.2147348,1.7603037357,3118.8895840939385,3315.8891219088578,0.981,-0.433,-5.803,-7.023
0.0,1899984246.2147348,1.7603039742,1995.2623149688789,3480.96775232401,0.51,-1.033,-5.245,-6.399
0.0,1899984246.2147348,1.760305047,1452.111617587742,3604.1262864914356,0.348,-1.244,-4.852,-5.953
0.0,1899984246.2147348,1.7603068352,864.967918775693,3814.169596669385,0.289,-1.291,-4.222,-5.23
0.0,1899984246.2147348,1.760309577,879.0225168308842,3808.026833442713,0.288,-1.295,-4.24,-5.251
0.0,1899984246.2147348,1.7603132725,1104.0786199020736,3713.6417019195583,0.29,-1.313,-4.516,-5.57
0.0,1899984246.2147348,1.7603179216,1595.879147236732,3565.3321878292813,0.39,-1.192,-4.97,-6.089
0.0,1899984246.2147348,1.7603235245,2233.5722228305326,3434.788498657803,0.621,-0.891,-5.388,-6.56
0.0,1899984246.2147348,1.7603303194,2798.981319634363,3349.654391578276,0.872,-0.571,-5.67,-6.876
0.0,1899984246.2147348,1.7603381872,3140.5086938762165,3305.9783107043236,1.038,-0.362,-5.816,-7.04
0.0,1899984246.2147348,1.7603471279,3303.6954103681487,3287.0022396877516,1.126,-0.246,-5.876,-7.108
0.0,1899984246.2147348,1.7603571415,3372.873086588689,3278.687311745482,1.17,-0.189,-5.904,-7.14
0.0,1899984246.2147348,1.7603573799,2228.435149270303,3433.2070842609537,0.633,-0.878,-5.385,-6.558
0.0,1899984246.2147348,1.7603584528,1625.5487557504835,3556.3131856898544,0.404,-1.176,-4.992,-6.114
0.0,1899984246.2147348,1.7603602409,970.5099672454899,3767.0379898390893,0.285,-1.308,-4.36,-5.39
0.0,1899984246.2147348,1.7603628635,986.279485631211,3760.971132597691,0.285,-1.308,-4.379,-5.411
0.0,1899984246.2147348,1.760366559,1230.268770812381,3668.5969444134184,0.31,-1.29,-4.65,-5.722
0.0,1899984246.2147348,1.760371089,1757.923613958693,3524.5201677586315,0.452,-1.112,-5.091,-6.227
0.0,1899984246.2147348,1.7603766918,2437.8108183687523,3397.0348320337944,0.729,-0.755,-5.498,-6.685
0.0,1899984246.2147348,1.7603833675,3026.913428101305,3314.36245009259,1.016,-0.393,-5.771,-6.991
0.0,1899984246.2147348,1.7603911161,3380.6483620598156,3272.6533057537135,1.211,-0.137,-5.91,-7.148
0.0,1899984246.2147348,1.7603999376,3539.9734108343464,3254.61783498046,1.295,-0.027,-5.967,-7.213
0.0,1899984246.2147348,1.760409832,3614.0986263961313,3247.1324216780226,1.333,0.022,-5.992,-7.241
0.0,1899984246.2147348,1.7604100704,2466.0393372343387,3391.5638690582196,0.745,-0.735,-5.513,-6.702
0.0,1899984246.2147348,1.7604111433,1807.1741260109275,3514.7950006430638,0.467,-1.093,-5.123,-6.262
0.0,1899984246.2147348,1.7604130507,1081.4339512979375,3727.348496903337,0.277,-1.325,-4.49,-5.537
0.0,1899984246.2147348,1.7604159117,1099.0058394325208,3720.488787200874,0.278,-1.326,-4.509,-5.559
0.0,1899984246.2147348,1.7604197264,1364.583136588924,3629.108896409478,0.324,-1.276,-4.775,-5.866
0.0,1899984246.2147348,1.7604244947,1931.9683170169242,3487.385841352184,0.516,-1.03,-5.206,-6.358
0.0,1899984246.2147348,1.7604304552,2648.500138606701,3362.017734543793,0.851,-0.602,-5.604,-6.806
0.0,1899984246.2147348,1.7604374886,3273.406948788383,3280.1975507699003,1.184,-0.176,-5.87,-7.105
0.0,1899984246.2147348,1.7604455948,3647.5394692560767,3238.918349968776,1.386,0.089,-6.006,-7.259
0.0,1899984246.2147348,1.7604547739,3819.442708400464,3221.0687912834346,1.457,0.183,-6.064,-7.323
0.0,1899984246.2147348,1.7604652643,3899.419866765436,3212.9206511412604,1.491,0.228,-6.091,-7.353
0.0,1899984246.2147348,1.7604655027,2754.2287033381663,3345.8001785330107,0.912,-0.526,-5.655,-6.863
0.0,1899984246.2147348,1.7604664564,2027.6827195212818,3468.1669875535863,0.55,-0.986,-5.268,-6.427
0.0,1899984246.2147348,1.7604682446,1218.9895989248662,3682.1374823089295,0.283,-1.321,-4.635,-5.702
0.0,1899984246.2147348,1.7604708672,1235.9474334445108,3675.360977714797,0.287,-1.317,-4.654,-5.724
0.0,1899984246.2147348,1.7604744434,1527.5660582380733,3585.9150751717484,0.364,-1.226,-4.914,-6.023
0.0,1899984246.2147348,1.7604789734,2137.9620895022326,3446.6723487178924,0.608,-0.913,-5.334,-6.502
0.0,1899984246.2147348,1.7604845762,2897.3435877013244,3324.298395649131,0.997,-0.42,-5.72,-6.936
0.0,1899984246.2147348,1.7604911327,3556.3131856898544,3244.1430790488475,1.371,0.066,-5.976,-7.226
0.0,1899984246.2147348,1.7604986429,3953.666200681279,3203.3176008528117,1.543,0.293,-6.109,-7.375
0.0,1899984246.2147348,1.7605073452,4130.475019901614,3184.9307947187244,1.624,0.398,-6.165,-7.438
0.0,1899984246.2147348,1.7605171204,4226.686142656029,3176.1426525728807,1.668,0.454,-6.192,-7.47
0.0,1899984246.2147348,1.7605173588,3083.1879502493534,3297.6153801591913,1.117,-0.268,-5.799,-7.027
0.0,1899984246.2147348,1.7605184317,2280.3420720004187,3419.0070790206964,0.682,-0.819,-5.417,-6.595
0.0,1899984246.2147348,1.7605202198,1374.041975012515,3634.1261606422304,0.304,-1.3,-4.782,-5.87
0.0,1899984246.2147348,1.7605228424,1396.3683610559376,3627.4380147645793,0.31,-1.293,-4.801,-5.892
0.0,1899984246.2147348,1.7605265379,1710.015315090288,3539.1583956694994,0.42,-1.155,-5.055,-6.185
0.0,1899984246.2147348,1.7605310678,2365.9196974857587,3403.2981684204196,0.729,-0.76,-5.463,-6.649
0.0,1899984246.2147348,1.7605366707,3176.8740706497692,3283.976192504799,1.19,-0.174,-5.835,-7.069
0.0,1899984246.2147348,1.7605433464,3863.669770540693,3205.531138700436,1.546,0.294,-6.082,-7.347
0.0,1899984246.2147348,1.760551095,4275.62886151586,3165.920463432239,1.734,0.536,-6.209,-7.491
0.0,1899984246.2147348,1.7605599165,4456.562483975033,3147.748314101317,1.808,0.627,-6.262,-7.551
0.0,1899984246.2147348,1.7605698109,4549.880601500485,3139.062769137658,1.845,0.672,-6.289,-7.581
0.0,1899984246.2147348,1.7605700493,3443.4993076333844,3247.8801876353714,1.373,0.063,-5.939,-7.188
0.0,1899984246.2147348,1.760571003,2558.585886905645,3368.992157414906,0.844,-0.616,-5.563,-6.761
0.0,1899984246.2147348,1.7605725527,1545.254439538414,3585.0894827655493,0.357,-1.235,-4.927,-6.036
0.0,1899984246.2147348,1.7605750561,1566.7510701081485,3578.49158264176,0.365,-1.225,-4.945,-6.057
0.0,1899984246.2147348,1.7605782747,1909.8532585662388,3492.2071726340682,0.508,-1.043,-5.192,-6.341
0.0,1899984246.2147348,1.7605824471,2606.153549998895,3360.4698246069956,0.881,-0.57,-5.587,-6.789
0.0,1899984246.2147348,1.7605875731,3451.437393358561,3244.1430790488475,1.4,0.097,-5.943,-7.193
0.0,1899984246.2147348,1.7605936527,4159.106104940223,3168.8377271814975,1.735,0.533,-6.178,-7.458
0.0,1899984246.2147348,1.7606005669,4570.881896148751,3130.401190096238,1.895,0.73,-6.298,-7.594
0.0,1899984246.2147348,1.7606085539,4753.352259428054,3113.8665771825613,1.964,0.812,-6.348,-7.65
0.0,1899984246.2147348,1.7606176138,4841.7236758409945,3105.989619905655,1.999,0.854,-6.371,-7.676
0.0,1899984246.2147348,1.7606178522,3784.425847170932,3203.3176008528117,1.582,0.333,-6.062,-7.328
0.0,1899984246.2147348,1.7606186867,2824.8799749157074,3323.533035774775,1.027,-0.39,-5.692,-6.908
0.0,1899984246.2147348,1.7606203556,1713.9573075084252,3540.788613684981,0.415,-1.164,-5.055,-6.184
0.0,1899984246.2147348,1.7606227398,1737.8008287493763,3534.2722436627364,0.427,-1.148,-5.073,-6.205
0.0,1899984246.2147348,1.7606259584,2103.778439766475,3449.0540481442044,0.613,-0.911,-5.316,-6.483
0.0,1899984246.2147348,1.7606301308,2837.9190284415554,3319.708878746796,1.046,-0.367,-5.699,-6.917
0.0,1899984246.2147348,1.7606351376,3715.352290971724,3207.007680303629,1.574,0.321,-6.04,-7.305
0.0,1899984246.2147348,1.760641098,4446.312674691088,3133.2857243155854,1.9,0.732,-6.266,-7.561
0.0,1899984246.2147348,1.7606480122,4875.284901033865,3095.993213309174,2.055,0.92,-6.382,-7.691
0.0,1899984246.2147348,1.76065588,5058.246620031143,3079.6403415023933,2.105,0.967,-6.43,-7.745
0.0,1899984246.2147348,1.7606648207,5140.436515824259,3071.8499642344627,2.125,0.982,-6.452,-7.77
0.0,1899984246.2147348,1.7606650591,4159.106104940223,3157.9118286322528,1.812,0.625,-6.183,-7.468
0.0,1899984246.2147348,1.7606658936,3118.8895840939385,3277.932453002282,1.254,-0.1,-5.819,-7.055
0.0,1899984246.2147348,1.7606673241,1896.7059212111465,3496.2300400270183,0.5,-1.056,-5.184,-6.331
0.0,1899984246.2147348,1.7606694698,1923.0917289101576,3489.7956743787454,0.515,-1.037,-5.201,-6.351
0.0,1899984246.2147348,1.7606724501,2317.39464996848,3405.6498956736095,0.74,-0.753,-5.439,-6.623
0.0,1899984246.2147348,1.7606761456,3083.1879502493534,3280.1975507699003,1.248,-0.109,-5.806,-7.041
0.0,1899984246.2147348,1.7606806755,3999.4474976109736,3170.297366952724,1.765,0.562,-6.134,-7.414
0.0,1899984246.2147348,1.7606861591,4731.512589614803,3098.846042012061,2.064,0.928,-6.35,-7.658
0.0,1899984246.2147348,1.760692358,5164.163692720711,3061.963433690679,2.166,1.017,-6.459,-7.78
0.0,1899984246.2147348,1.7606995106,5345.643593969719,3046.491705257325,2.206,1.045,-6.504,-7.831
0.0,1899984246.2147348,1.7607076168,5432.503314924331,3038.785182061179,2.228,1.061,-6.525,-7.854
0.0,1899984246.2147348,1.7607078552,4528.975799036209,3113.149665447022,2.014,0.865,-6.294,-7.596
0.0,1899984246.2147348,1.7607085705,3411.9291162192844,3232.9575336809407,1.496,0.21,-5.935,-7.19
0.0,1899984246.2147348,1.760710001,2079.696687103696,3453.027205056406,0.61,-0.92,-5.302,-6.467
0.0,1899984246.2147348,1.7607121468,2108.6281499332886,3445.8788144433506,0.631,-0.894,-5.321,-6.489
0.0,1899984246.2147348,1.7607148886,2529.2979964461447,3362.791956867804,0.9,-0.555,-5.554,-6.755
0.0,1899984246.2147348,1.7607184649,3334.2641276323507,3238.918349968776,1.476,0.182,-5.909,-7.162
0.0,1899984246.2147348,1.7607228756,4275.62886151586,3131.1220745994874,1.954,0.79,-6.225,-7.52
0.0,1899984246.2147348,1.7607280016,5035.006087879047,3060.5536720536616,2.195,1.046,-6.433,-7.755
0.0,1899984246.2147348,1.7607340813,5470.159628939716,3024.126821283228,2.286,1.109,-6.539,-7.874
0.0,1899984246.2147348,1.7607408762,5662.3928903825345,3007.460970731941,2.322,1.133,-6.584,-7.923
0.0,1899984246.2147348,1.7607486248,5767.664633922509,2998.4720157970514,2.343,1.148,-6.606,-7.948
0.0,1899984246.2147348,1.7607488632,4943.106869868354,3061.963433690679,2.208,1.061,-6.412,-7.732
0.0,1899984246.2147348,1.7607494593,3741.105882720533,3180.5336883295204,1.754,0.538,-6.058,-7.333
0.0,1899984246.2147348,1.7607507706,2290.8676527677726,3401.731252517908,0.779,-0.713,-5.429,-6.614
0.0,1899984246.2147348,1.7607526779,2317.39464996848,3394.6890538007865,0.801,-0.686,-5.446,-6.634
0.0,1899984246.2147348,1.7607553005,2766.9416454115126,3312.8364811728147,1.125,-0.282,-5.674,-6.895
0.0,1899984246.2147348,1.7607585192,3605.7864302164235,3192.272818462188,1.709,0.478,-6.014,-7.284
0.0,1899984246.2147348,1.7607624531,4570.881896148751,3087.450475587445,2.166,1.036,-6.317,-7.629
0.0,1899984246.2147348,1.7607672215,5345.643593969719,3019.256430871959,2.332,1.153,-6.515,-7.851
0.0,1899984246.2147348,1.7607727051,5767.664633922509,2984.0081159302204,2.397,1.192,-6.614,-7.96
0.0,1899984246.2147348,1.760778904,5956.621435290103,2967.563358073529,2.432,1.213,-6.655,-8.006
0.0,1899984246.2147348,1.7607859373,6039.4862937638,2958.6936525140045,2.455,1.229,-6.675,-8.028
0.0,1899984246.2147348,1.7607861757,5321.082592667942,3012.312333777606,2.364,1.18,-6.514,-7.851
0.0,1899984246.2147348,1.7607867718,4045.7589169744288,3130.401190096238,2.015,0.853,-6.165,-7.461
0.0,1899984246.2147348,1.7607880831,2483.13310529557,3351.969050221629,0.987,-0.46,-5.54,-6.745
0.0,1899984246.2147348,1.7607898712,2517.676927758854,3345.0298682601374,1.019,-0.42,-5.557,-6.765
0.0,1899984246.2147348,1.7607923746,2992.264636608189,3262.871721430849,1.41,0.079,-5.779,-7.021
0.0,1899984246.2147348,1.7607954741,3863.669770540693,3144.126420258796,1.97,0.796,-6.108,-7.398
0.0,1899984246.2147348,1.7607992887,4852.88500162121,3041.585295947742,2.321,1.16,-6.4,-7.728
0.0,1899984246.2147348,1.7608038187,5623.413251903491,2974.404298125139,2.46,1.249,-6.59,-7.938
0.0,1899984246.2147348,1.7608091831,6053.408747539136,2939.002801171145,2.526,1.287,-6.685,-8.043
0.0,1899984246.2147348,1.7608151436,6237.348354824191,2921.4603738773317,2.561,1.309,-6.725,-8.088
0.0,1899984246.2147348,1.7608219385,6324.118513762197,2910.717118066605,2.588,1.329,-6.744,-8.11
0.0,1899984246.2147348,1.7608220577,5714.786366718672,2953.928642960281,2.526,1.299,-6.616,-7.97
0.0,1899984246.2147348,1.760822773,4365.158322401661,3071.142726067833,2.284,1.146,-6.273,-7.591
0.0,1899984246.2147348,1.7608238459,2691.5348039269165,3295.3382547359615,1.285,-0.096,-5.65,-6.879
0.0,1899984246.2147348,1.760825634,2722.701308077913,3287.0022396877516,1.33,-0.039,-5.668,-6.9
0.0,1899984246.2147348,1.760827899,3221.0687912834346,3205.531138700436,1.737,0.489,-5.885,-7.15
0.0,1899984246.2147348,1.7608308792,4120.975190973304,3088.1614691845125,2.265,1.139,-6.204,-7.516
0.0,1899984246.2147348,1.7608344555,5128.613839913648,2986.070107816526,2.5,1.301,-6.484,-7.828
0.0,1899984246.2147348,1.7608386278,5902.010801718442,2919.4429974027034,2.619,1.369,-6.666,-8.029
0.0,1899984246.2147348,1.7608436346,6338.69711256927,2883.367506780263,2.688,1.412,-6.758,-8.131
0.0,1899984246.2147348,1.7608492374,6516.283940608428,2864.8375471900267,2.723,1.445,-6.796,-8.172
0.0,1899984246.2147348,1.7608555555,6606.934480075957,2851.674814305012,2.753,1.474,-6.815,-8.193
0.0,1899984246.2147348,1.7608556747,6109.420249055721,2885.359954579744,2.716,1.442,-6.717,-8.09
0.0,1899984246.2147348,1.7608562708,4688.13382145265,3001.9261222416912,2.526,1.34,-6.381,-7.721
0.0,1899984246.2147348,1.7608573437,2897.3435877013244,3227.007687515532,1.709,0.433,-5.761,-7.018
0.0,1899984246.2147348,1.7608590126,2937.6496519615307,3217.3625326955976,1.756,0.493,-5.779,-7.04
0.0,1899984246.2147348,1.7608611584,3459.3937782612206,3134.007273083861,2.15,0.988,-5.992,-7.286
0.0,1899984246.2147348,1.760863781,4385.306977749856,3016.4768731622175,2.535,1.36,-6.302,-7.638
0.0,1899984246.2147348,1.7608671188,5407.5432294558095,2914.070134770806,2.722,1.473,-6.572,-7.935
0.0,1899984246.2147348,1.7608710527,6194.410750767812,2845.7713318638043,2.835,1.56,-6.746,-8.125
0.0,1899984246.2147348,1.7608757019,6622.165037017622,2806.725885414676,2.897,1.623,-6.834,-8.22
0.0,1899984246.2147348,1.7608809471,6792.036326171843,2784.1972488835645,2.938,1.673,-6.872,-8.26
0.0,1899984246.2147348,1.7608867884,6886.522963442762,2766.9416454115126,2.98,1.722,-6.892,-8.282
0.0,1899984246.2147348,1.7608869076,6516.283940608428,2790.6154863980737,2.96,1.694,-6.823,-8.21
0.0,1899984246.2147348,1.7608875036,5023.4258952238715,2906.698590298831,2.823,1.572,-6.493,-7.858
0.0,1899984246.2147348,1.7608884573,3118.8895840939385,3132.5643416709277,2.269,1.11,-5.88,-7.174
0.0,1899984246.2147348,1.760890007,3147.748314101317,3122.4824062232706,2.323,1.173,-5.895,-7.194
0.0,1899984246.2147348,1.7608920336,3689.775985701505,3036.686788465786,2.615,1.458,-6.106,-7.435
0.0,1899984246.2147348,1.760894537,4645.152752227492,2918.098853741841,2.857,1.616,-6.405,-7.767
0.0,1899984246.2147348,1.7608977556,5675.446054085472,2814.4918798121453,3.026,1.755,-6.664,-8.048
0.0,1899984246.2147348,1.7609014511,6456.542290346556,2744.100418256573,3.113,1.87,-6.831,-8.224
0.0,1899984246.2147348,1.7609057426,6886.522963442762,2702.713431942815,3.173,1.958,-6.916,-8.314
0.0,1899984246.2147348,1.7609106302,7063.175542629623,2677.3182599684565,3.225,2.034,-6.952,-8.353
0.0,1899984246.2147348,1.7609162331,7144.963260755135,2658.2755696601644,3.27,2.104,-6.971,-8.373
