FeH,Age,Mini,L,Te,Bmag,Vmag,Jmag,Kmag
-1.5,3400008478.258595,0.0900000036,0.0006456542290346556,2975.7743773728107,17.469,15.458,10.74,10.328
-1.5,3400008478.258595,0.0950068682,0.0009099132726322518,3126.0793671239558,16.537,14.578,10.441,9.917
-1.5,3400008478.258595,0.1000000015,0.0012618275345906706,3275.668919368471,15.709,13.847,10.155,9.549
-1.5,3400008478.258595,0.1199999973,0.0024378108183687524,3520.4647488942164,14.341,12.696,9.542,8.849
-1.5,3400008478.258595,0.1400000006,0.003681289736425313,3645.8601019727603,13.612,12.08,9.144,8.42
-1.5,3400008478.258595,0.1599999964,0.005035006087879048,3732.5015779572063,13.097,11.638,8.836,8.095
-1.5,3400008478.258595,0.2000000179,0.008128305161640995,3849.46167342452,12.363,10.997,8.356,7.6
-1.5,3400008478.258595,0.25,0.012882495516931342,3951.8458892843655,11.693,10.402,7.889,7.127
-1.5,3400008478.258595,0.3228180408,0.021478304741305344,4061.626650090735,10.972,9.754,7.366,6.607
-1.5,3400008478.258595,0.3481975794,0.024945947269429548,4094.4917463268844,10.766,9.568,7.214,6.457
-1.5,3400008478.258595,0.349999994,0.025176769277588558,4096.377763696796,10.752,9.555,7.203,6.447
-1.5,3400008478.258595,0.3524515629,0.025644840365177175,4102.041029866068,10.726,9.533,7.186,6.43
-1.5,3400008478.258595,0.3892776668,0.03265878321723358,4175.418393198107,10.365,9.214,6.942,6.194
-1.5,3400008478.258595,0.400000006,0.03491403154785861,4195.657223387252,10.268,9.129,6.877,6.132
-1.5,3400008478.258595,0.431366533,0.04446312674691086,4300.312336305446,9.876,8.793,6.643,5.913
-1.5,3400008478.258595,0.4500000179,0.050933087105719546,4361.139713930648,9.658,8.607,6.513,5.793
-1.5,3400008478.258595,0.5,0.07691304402866095,4597.269885308723,8.961,8.02,6.129,5.461
-1.5,3400008478.258595,0.5500000715,0.11694993910198709,4850.650679999713,8.282,7.44,5.751,5.149
-1.5,3400008478.258595,0.6000000238,0.1753880501841761,5117.996682024606,7.666,6.911,5.399,4.864
-1.5,3400008478.258595,0.6356600523,0.23280912576650079,5333.348954876208,7.242,6.554,5.164,4.677
-1.5,3400008478.258595,0.6499999762,0.2600159563165272,5420.008904016238,7.081,6.418,5.073,4.604
-1.5,3400008478.258595,0.6587618589,0.278612116862977,5473.939586745954,6.983,6.336,5.017,4.559
-1.5,3400008478.258595,0.6933100224,0.3614098626396133,5685.910246988551,6.615,6.027,4.807,4.388
-1.5,3400008478.258595,0.6999999881,0.3801893963205612,5726.641550089671,6.546,5.969,4.768,4.356
-1.5,3400008478.258595,0.713870883,0.4207266283844441,5808.981588672952,6.407,5.852,4.688,4.289
-1.5,3400008478.258595,0.7441411018,0.5236004365857502,5986.872372480598,6.114,5.606,4.516,4.145
-1.5,3400008478.258595,0.75,0.5457578610912709,6021.434963870294,6.059,5.559,4.483,4.118
-1.5,3400008478.258595,0.779012382,0.6698846094165264,6161.692202002784,5.799,5.333,4.312,3.969
-1.5,3400008478.258595,0.8000000119,0.7744617978025188,6261.81164615689,5.615,5.172,4.19,3.862
-1.5,3400008478.258595,0.8246216178,0.9183325964835809,6382.634861905489,5.401,4.984,4.049,3.74
-1.5,3400008478.258595,0.8491672277,1.0864256236170655,6501.296903430909,5.191,4.797,3.907,3.617
-1.5,3400008478.258595,0.8500000238,1.093956366272094,6505.789391703234,5.183,4.79,3.903,3.613
-1.5,3400008478.258595,0.8689192533,1.241652307592411,6599.332342635646,5.025,4.648,3.795,3.52
-1.5,3400008478.258595,0.8926196694,1.455459080581966,6715.83472933331,4.826,4.468,3.66,3.402
-1.5,3400008478.258595,0.8999999762,1.53108746168203,6751.495771606426,4.765,4.413,3.618,3.366
-1.5,3400008478.258595,0.9012352824,1.5417004529495595,6759.273194551448,4.754,4.404,3.611,3.36
-1.5,3400008478.258595,0.9216445684,1.770108958317421,6867.521061488186,4.582,4.248,3.497,3.262
-1.5,3400008478.258595,0.9398169518,1.9998618696327441,6967.86936762078,4.427,4.108,3.394,3.173
-1.5,3400008478.258595,0.9499999881,2.147830474130534,7024.250644645007,4.34,4.029,3.335,3.122
-1.5,3400008478.258595,0.9602678418,2.3014418174085085,7087.613064511822,4.25,3.948,3.279,3.075
-1.5,3400008478.258595,0.9731003046,2.5176769277588558,7171.33482657721,4.137,3.846,3.208,3.015
-1.5,3400008478.258595,0.9904981256,2.8510182675039095,7291.216599950674,3.979,3.705,3.11,2.933
-1.5,3400008478.258595,1.0,3.054921113215513,7360.375990609082,3.891,3.626,3.056,2.889
-1.5,3400008478.258595,1.0017893314,3.0902954325135905,7375.644909068814,3.875,3.612,3.047,2.881
-1.5,3400008478.258595,1.0157995224,3.4276778654645037,7497.215596874701,3.741,3.494,2.972,2.822
-1.5,3400008478.258595,1.0285948515,3.77572190925416,7613.774324561515,3.616,3.383,2.902,2.766
-1.5,3400008478.258595,1.0408529043,4.1591061049402205,7726.805850957021,3.494,3.275,2.833,2.71
-1.5,3400008478.258595,1.0499999523,4.466835921509632,7810.88061671057,3.402,3.194,2.781,2.666
-1.5,3400008478.258595,1.0517185926,4.528975799036208,7825.282050666118,3.385,3.179,2.771,2.658
-1.5,3400008478.258595,1.0596576929,4.819477976251274,7890.417802871681,3.307,3.109,2.723,2.617
-1.5,3400008478.258595,1.0678147078,5.14043651582426,7954.263981453599,3.227,3.037,2.672,2.573
-1.5,3400008478.258595,1.0753400326,5.470159628939716,8009.400305332871,3.151,2.969,2.622,2.528
-1.5,3400008478.258595,1.0819766521,5.767664633922507,8055.639077901697,3.085,2.909,2.577,2.488
-1.5,3400008478.258595,1.0859349966,5.970352865838369,8083.510373900677,3.046,2.873,2.551,2.464
-1.5,3400008478.258595,1.0874853134,6.0673632958850545,8098.414473257882,3.025,2.855,2.537,2.452
-1.5,3400008478.258595,1.0958641768,6.622165037017619,8184.647881347895,2.919,2.761,2.47,2.392
-1.5,3400008478.258595,1.0967158079,6.66806769213622,8192.189693228678,2.909,2.753,2.463,2.386
-1.5,3400008478.258595,1.1000000238,6.8865229634427605,8211.074640850884,2.873,2.719,2.436,2.36
-1.5,3400008478.258595,1.1138256788,7.925013304804718,8256.576326213262,2.71,2.565,2.297,2.226
-1.5,3400008478.258595,1.1295642853,9.52796164023652,8203.515443298185,2.505,2.36,2.081,2.006
-1.5,3400008478.258595,1.1375681162,10.641430182243159,8066.776045948456,2.389,2.231,1.917,1.831
-1.5,3400008478.258595,1.1426616907,11.561122421920986,7870.457896950985,2.317,2.137,1.766,1.663
-1.5,3400008478.258595,1.1462357044,12.33104833228909,7601.512254993878,2.277,2.067,1.61,1.48
-1.5,3400008478.258595,1.1482008696,12.852866599436155,7351.906920715666,2.27,2.03,1.488,1.329
-1.5,3400008478.258595,1.149553895,13.212956341865752,7117.049722679209,2.28,2.008,1.383,1.194
-1.5,3400008478.258595,1.1499999762,13.33521432163324,7021.016602403146,2.288,2.003,1.342,1.14
-1.5,3400008478.258595,1.1505607367,13.489628825916533,6899.220098440474,2.3,1.997,1.291,1.073
-1.5,3400008478.258595,1.1515822411,13.740419750125149,6669.603248243567,2.329,1.991,1.197,0.944
-1.5,3400008478.258595,1.1523555517,13.931568029453029,6496.80751738794,2.356,1.989,1.127,0.847
-1.5,3400008478.258595,1.1529715061,14.028137045619582,6366.489102003723,2.384,1.992,1.077,0.776
-1.5,3400008478.258595,1.1534832716,14.092887984218748,6260.3699767264325,2.409,1.996,1.037,0.717
-1.5,3400008478.258595,1.1539438963,14.092887984218748,6168.790197459376,2.435,2.003,1.006,0.67
-1.5,3400008478.258595,1.1543990374,14.060475241299136,6084.151222917084,2.464,2.014,0.981,0.631
-1.5,3400008478.258595,1.1548939943,13.995873225726179,5993.768983266384,2.497,2.026,0.955,0.588
-1.5,3400008478.258595,1.1554256678,13.931568029453029,5907.449258672259,2.532,2.04,0.93,0.546
-1.5,3400008478.258595,1.1560027599,13.867558288718882,5835.7946294173225,2.563,2.053,0.911,0.514
-1.5,3400008478.258595,1.1566421986,13.772094688939466,5759.701812546716,2.597,2.067,0.891,0.48
-1.5,3400008478.258595,1.1575045586,13.677288255958487,5659.785862426966,2.644,2.087,0.865,0.434
-1.5,3400008478.258595,1.1578457355,13.772094688939466,5631.1876535486645,2.647,2.082,0.847,0.41
-1.5,3400008478.258595,1.1586952209,14.421153515248688,5583.416170259268,2.617,2.04,0.782,0.335
-1.5,3400008478.258595,1.1599427462,15.776112696993485,5528.406895630934,2.541,1.949,0.664,0.206
-1.5,3400008478.258595,1.1609815359,17.298163592151013,5494.143519621415,2.456,1.854,0.553,0.087
-1.5,3400008478.258595,1.1620604992,19.230917289101587,5465.123745198722,2.355,1.745,0.429,-0.043
-1.5,3400008478.258595,1.1629852057,21.183611352485023,5441.266536154456,2.261,1.645,0.317,-0.161
-1.5,3400008478.258595,1.1637657881,23.06747188720069,5422.505485172428,2.175,1.554,0.216,-0.266
-1.5,3400008478.258595,1.1645693779,25.35128630497907,5403.809120790774,2.081,1.456,0.108,-0.379
-1.5,3400008478.258595,1.1653274298,27.797132677592884,5385.177219975279,1.988,1.357,0.0,-0.491
-1.5,3400008478.258595,1.1660809517,30.69021988391158,5365.373995198518,1.889,1.253,-0.114,-0.61
-1.5,3400008478.258595,1.1667239666,33.65115693754907,5348.105920748282,1.799,1.158,-0.218,-0.718
-1.5,3400008478.258595,1.1673583984,36.982817978026624,5328.439020411989,1.704,1.058,-0.328,-0.832
-1.5,3400008478.258595,1.1679612398,40.73802778041128,5308.8444423098845,1.608,0.956,-0.44,-0.949
-1.5,3400008478.258595,1.1685092449,44.77133041763626,5289.321920487208,1.515,0.857,-0.55,-1.063
-1.5,3400008478.258595,1.169033885,49.31738039549359,5269.871189967232,1.419,0.755,-0.662,-1.18
-1.5,3400008478.258595,1.1695051193,54.20008904016238,5249.283155466852,1.328,0.658,-0.77,-1.293
-1.5,3400008478.258595,1.1699398756,59.42921586155727,5229.979661821558,1.238,0.562,-0.877,-1.405
-1.5,3400008478.258595,1.1703648567,65.46361740672751,5209.547473285554,1.143,0.461,-0.989,-1.523
-1.5,3400008478.258595,1.1707445383,71.94489780036994,5188.000389289609,1.054,0.364,-1.098,-1.636
-1.5,3400008478.258595,1.1711051464,79.06786279998249,5166.542425669501,0.964,0.266,-1.208,-1.751
-1.5,3400008478.258595,1.1714366674,86.69618757582165,5146.35807013727,0.875,0.17,-1.316,-1.864
-1.5,3400008478.258595,1.1717416048,94.84184633008974,5125.0723423117615,0.789,0.075,-1.422,-1.975
-1.5,3400008478.258595,1.1720296144,103.9920165829059,5103.874653873108,0.702,-0.02,-1.529,-2.087
-1.5,3400008478.258595,1.1722952127,113.7627285823431,5082.764640683731,0.618,-0.111,-1.633,-2.197
-1.5,3400008478.258595,1.1725441217,124.45146117713857,5061.74194011213,0.536,-0.203,-1.737,-2.306
-1.5,3400008478.258595,1.1727811098,135.8313446587154,5039.645636126428,0.454,-0.294,-1.842,-2.416
-1.5,3400008478.258595,1.1730110645,147.91083881682073,5018.801279032415,0.376,-0.381,-1.941,-2.521
-1.5,3400008478.258595,1.1732670069,159.5879147236732,5000.345349769783,0.307,-0.457,-2.029,-2.613
-1.5,3400008478.258595,1.1733789444,164.05897731995387,4993.441887213498,0.282,-0.485,-2.062,-2.648
-1.5,3400008478.258595,1.1735049486,158.48931924611142,5003.800659252664,0.312,-0.45,-2.02,-2.603
-1.5,3400008478.258595,1.1736370325,146.21771744567184,5028.054772806391,0.384,-0.369,-1.924,-2.501
-1.5,3400008478.258595,1.1736681461,143.21878992735438,5032.687915706669,0.4,-0.35,-1.902,-2.477
-1.5,3400008478.258595,1.1738222837,154.88166189124811,5013.026495398051,0.331,-0.427,-1.991,-2.572
-1.5,3400008478.258595,1.1740180254,170.60823890031244,4988.844874600121,0.243,-0.525,-2.104,-2.691
-1.5,3400008478.258595,1.1742037535,187.49945080674192,4964.779900060685,0.159,-0.621,-2.217,-2.81
-1.5,3400008478.258595,1.1743785143,206.06299132700005,4939.693471692561,0.075,-0.717,-2.329,-2.929
-1.5,3400008478.258595,1.1745419502,226.46443075930597,4914.733801992678,-0.007,-0.811,-2.44,-3.048
-1.5,3400008478.258595,1.1746934652,248.88573182823905,4889.900250464924,-0.087,-0.904,-2.55,-3.165
-1.5,3400008478.258595,1.1748379469,273.5268726306711,4864.072056914614,-0.168,-0.997,-2.662,-3.285
-1.5,3400008478.258595,1.1749694347,299.916251898765,4838.380286511588,-0.243,-1.089,-2.772,-3.403
-1.5,3400008478.258595,1.1750930548,328.85163087598295,4812.824218676023,-0.316,-1.182,-2.884,-3.521
-1.5,3400008478.258595,1.1752078533,361.40986263961315,4786.300923226385,-0.385,-1.274,-2.995,-3.639
-1.5,3400008478.258595,1.1753138304,395.3666200681279,4761.019935823142,-0.452,-1.363,-3.104,-3.753
-1.5,3400008478.258595,1.1754156351,434.51022417157145,4733.692033483014,-0.517,-1.453,-3.216,-3.872
-1.5,3400008478.258595,1.1755076647,475.3352259428054,4707.604832565835,-0.579,-1.54,-3.325,-3.986
-1.5,3400008478.258595,1.1755948067,519.9959965335162,4680.583528968204,-0.634,-1.626,-3.435,-4.103
-1.5,3400008478.258595,1.1756751537,568.8529308438414,4653.717325654918,-0.687,-1.71,-3.544,-4.217
-1.5,3400008478.258595,1.1757512093,623.7348354824192,4625.940047661603,-0.738,-1.793,-3.653,-4.333
-1.5,3400008478.258595,1.1758379936,696.6265141107687,4591.980128368686,-0.794,-1.892,-3.787,-4.476
-1.5,3400008478.258595,1.1759028435,760.3262769401815,4565.622502022357,-0.836,-1.971,-3.895,-4.59
-1.5,3400008478.258595,1.1759644747,831.7637711026708,4537.326169379414,-0.879,-2.049,-4.003,-4.707
-1.5,3400008478.258595,1.1760337353,926.8298233793495,4504.016781680873,-0.939,-2.141,-4.131,-4.847
-1.5,3400008478.258595,1.176087141,1013.9113857366789,4475.071720476557,-0.986,-2.216,-4.238,-4.963
-1.5,3400008478.258595,1.1761473417,1129.7959146727976,4440.174108068949,-1.039,-2.303,-4.365,-5.103
-1.5,3400008478.258595,1.1762037277,1256.0299636948755,4406.563166924702,-1.085,-2.387,-4.492,-5.243
-1.5,3400008478.258595,1.1762473583,1374.041975012515,4378.244391318432,-1.122,-2.456,-4.597,-5.359
-1.5,3400008478.258595,1.1762963533,1524.0527537972907,4343.101708860921,-1.161,-2.535,-4.722,-5.497
-1.5,3400008478.258595,1.176342845,1694.3378004473288,4309.233228186264,-1.198,-2.612,-4.847,-5.636
-1.5,3400008478.258595,1.1763931513,1901.0782799232995,4272.676381599791,-1.236,-2.694,-4.98,-5.785
-1.5,3400008478.258595,1.1763931513,78.52356346100719,5501.739205107149,0.79,0.206,-1.089,-1.555
-1.5,3400008478.258595,1.1766674519,80.53784411990665,5481.507340176555,0.772,0.182,-1.123,-1.594
-1.5,3400008478.258595,1.1769454479,81.47042840208397,5475.200153037678,0.764,0.171,-1.137,-1.609
-1.5,3400008478.258595,1.1771970987,82.22426499470713,5472.679310676925,0.756,0.163,-1.147,-1.619
-1.5,3400008478.258595,1.1774492264,82.7942163712334,5473.939586745954,0.747,0.154,-1.154,-1.626
-1.5,3400008478.258595,1.1777054071,83.36811846196343,5478.983593917484,0.738,0.146,-1.16,-1.631
-1.5,3400008478.258595,1.1779825687,83.94599865193973,5484.032248931384,0.727,0.138,-1.166,-1.636
-1.5,3400008478.258595,1.178234458,84.33347577642752,5490.349610252034,0.718,0.13,-1.17,-1.639
-1.5,3400008478.258595,1.1785099506,84.91804750363139,5496.674248892049,0.707,0.122,-1.175,-1.642
-1.5,3400008478.258595,1.1787945032,85.50667128846833,5504.273433125772,0.697,0.114,-1.18,-1.645
-1.5,3400008478.258595,1.1790775061,86.09937521846008,5510.614111390659,0.686,0.105,-1.185,-1.649
-1.5,3400008478.258595,1.1793470383,86.49679187756934,5516.9620938349835,0.677,0.097,-1.189,-1.652
-1.5,3400008478.258595,1.1796045303,87.09635899560806,5523.317388872846,0.668,0.09,-1.194,-1.655
-1.5,3400008478.258595,1.179825902,87.4983775227436,5528.406895630934,0.66,0.083,-1.198,-1.658
-1.5,3400008478.258595,1.1799778938,87.90225168308842,5530.953407403111,0.655,0.079,-1.2,-1.66
-1.5,3400008478.258595,1.1802489758,88.30799004185627,5536.049950434,0.646,0.072,-1.205,-1.663
-1.5,3400008478.258595,1.1803870201,88.51156098308356,5538.599982773566,0.642,0.068,-1.207,-1.665
-1.5,3400008478.258595,1.1804442406,88.71560120379608,5539.875439385942,0.64,0.067,-1.208,-1.665
-1.5,3400008478.258595,1.1807314157,89.33054837332953,5544.980203697426,0.631,0.059,-1.213,-1.67
-1.5,3400008478.258595,1.1810050011,89.74287945007487,5548.8118635809,0.623,0.052,-1.218,-1.673
-1.5,3400008478.258595,1.1812996864,90.36494737223013,5552.646171195634,0.614,0.045,-1.224,-1.678
-1.5,3400008478.258595,1.1815718412,90.78205301781857,5555.203848137405,0.606,0.038,-1.229,-1.683
-1.5,3400008478.258595,1.1818466187,91.41132414702504,5557.762703204188,0.599,0.031,-1.235,-1.688
-1.5,3400008478.258595,1.182123065,91.83325964835811,5559.042572704037,0.592,0.025,-1.241,-1.693
-1.5,3400008478.258595,1.1823980808,92.46981739382225,5559.042572704037,0.585,0.018,-1.247,-1.7
-1.5,3400008478.258595,1.1824221611,92.46981739382225,5559.042572704037,0.585,0.017,-1.248,-1.701
-1.5,3400008478.258595,1.1826114655,92.89663867799364,5557.762703204188,0.581,0.013,-1.253,-1.706
-1.5,3400008478.258595,1.1828671694,93.5405674147552,5555.203848137405,0.575,0.007,-1.261,-1.714
-1.5,3400008478.258595,1.1831290722,94.18895965228413,5551.367774352115,0.569,-0.0,-1.269,-1.723
-1.5,3400008478.258595,1.1833945513,94.84184633008974,5546.25712957911,0.564,-0.007,-1.279,-1.734
-1.5,3400008478.258595,1.1836583614,95.49925860214358,5539.875439385942,0.559,-0.014,-1.289,-1.746
-1.5,3400008478.258595,1.1839170456,96.16122783836649,5532.227103123719,0.554,-0.021,-1.299,-1.758
-1.5,3400008478.258595,1.1841677427,97.05099672454898,5522.045744453592,0.549,-0.029,-1.312,-1.773
-1.5,3400008478.258595,1.1844214201,97.94899854086991,5510.614111390659,0.544,-0.038,-1.327,-1.79
-1.5,3400008478.258595,1.1846796274,99.08319448927675,5495.408738576249,0.538,-0.047,-1.344,-1.811
-1.5,3400008478.258595,1.1848007441,99.77000638225536,5487.821792914581,0.535,-0.053,-1.353,-1.821
-1.5,3400008478.258595,1.1850527525,101.15794542598982,5466.382281334191,0.529,-0.066,-1.377,-1.85
-1.5,3400008478.258595,1.1853047609,103.5142166679344,5436.257251684059,0.519,-0.085,-1.412,-1.892
-1.5,3400008478.258595,1.1855574846,109.39563662720941,5375.266487867444,0.49,-0.134,-1.492,-1.985
-1.5,3400008478.258595,1.1857117414,117.48975549395291,5311.289818550133,0.446,-0.2,-1.592,-2.1
-1.5,3400008478.258595,1.1857737303,128.82495516931337,5248.074602497728,0.381,-0.287,-1.713,-2.235
-1.5,3400008478.258595,1.1857911348,140.60475241299144,5198.762768142835,0.314,-0.372,-1.826,-2.359
-1.5,3400008478.258595,1.1857922077,142.23287871228197,5193.976735070076,0.305,-0.382,-1.839,-2.373
-1.5,3400008478.258595,1.1857942343,146.21771744567184,5182.030920072273,0.283,-0.41,-1.873,-2.41
-1.5,3400008478.258595,1.1858001947,162.18100973589299,5139.253022834874,0.195,-0.514,-2.001,-2.549
-1.5,3400008478.258595,1.1858049631,178.23787674480891,5106.225616299567,0.115,-0.607,-2.114,-2.67
-1.5,3400008478.258595,1.1858098507,194.98445997580455,5074.578790806499,0.039,-0.696,-2.223,-2.787
-1.5,3400008478.258595,1.1858170033,211.83611352485022,5046.612975635282,-0.032,-0.779,-2.323,-2.894
-1.5,3400008478.258595,1.1858304739,198.1527025805099,5071.074606405172,0.022,-0.715,-2.243,-2.808
-1.5,3400008478.258595,1.185857892,182.81002161427426,5099.175975748702,0.091,-0.633,-2.144,-2.702
-1.5,3400008478.258595,1.1859771013,190.54607179632464,5081.594425605605,0.059,-0.673,-2.195,-2.757
-1.5,3400008478.258595,1.1860508919,207.49135174549107,5050.100256703167,-0.013,-0.758,-2.3,-2.87
-1.5,3400008478.258595,1.1861314774,227.50974307720716,5018.801279032415,-0.09,-0.85,-2.412,-2.991
-1.5,3400008478.258595,1.1862074137,250.6109253032114,4986.547955557967,-0.169,-0.944,-2.527,-3.115
-1.5,3400008478.258595,1.1862758398,275.4228703338166,4955.642855622974,-0.248,-1.037,-2.641,-3.238
-1.5,3400008478.258595,1.1863366365,302.6913428101305,4924.929296050273,-0.326,-1.131,-2.755,-3.36
-1.5,3400008478.258595,1.1863907576,332.65955329400435,4893.279240819371,-0.403,-1.223,-2.869,-3.483
-1.5,3400008478.258595,1.1864385605,366.43757464783334,4861.832584649837,-0.478,-1.314,-2.983,-3.606
-1.5,3400008478.258595,1.1864807606,402.71703432545905,4830.5880203977285,-0.549,-1.406,-3.097,-3.729
-1.5,3400008478.258595,1.1865184307,441.57044735331255,4800.649512466846,-0.616,-1.498,-3.211,-3.85
-1.5,3400008478.258595,1.1865530014,485.28850016212095,4769.798141192216,-0.678,-1.588,-3.326,-3.972
-1.5,3400008478.258595,1.1865850687,532.1082592667942,4738.053933388255,-0.736,-1.676,-3.439,-4.093
-1.5,3400008478.258595,1.1866152287,584.7900841444806,4707.604832565835,-0.791,-1.763,-3.553,-4.213
-1.5,3400008478.258595,1.186643362,641.2095765851615,4676.274536892873,-0.841,-1.849,-3.667,-4.334
-1.5,3400008478.258595,1.1866685152,703.0723198838334,4644.083289410481,-0.888,-1.932,-3.78,-4.455
-1.5,3400008478.258595,1.1866923571,770.90346906443,4613.175745603796,-0.931,-2.013,-3.892,-4.574
-1.5,3400008478.258595,1.1867161989,845.27884516029,4581.418867145335,-0.969,-2.093,-4.005,-4.694
-1.5,3400008478.258595,1.1867398024,924.698173938223,4550.928370849554,-1.0,-2.17,-4.117,-4.814
-1.5,3400008478.258595,1.1867634058,1013.9113857366789,4518.559443749222,-1.046,-2.246,-4.226,-4.935
-1.5,3400008478.258595,1.1867866516,1114.2945335917304,4485.387826207934,-1.092,-2.323,-4.339,-5.059
-1.5,3400008478.258595,1.186807394,1230.268770812381,4451.434629201126,-1.134,-2.401,-4.458,-5.191
-1.5,3400008478.258595,1.1868228912,1361.4446824659497,4414.687837052633,-1.171,-2.477,-4.578,-5.325
-1.5,3400008478.258595,1.1868351698,1485.9356422870076,4384.297339745673,-1.203,-2.543,-4.683,-5.441
-1.5,3400008478.258595,1.186846137,1629.296032639723,4351.1093709276765,-1.234,-2.61,-4.794,-5.565
-1.5,3400008478.258595,1.1868569851,1794.7336268325266,4316.1844920735875,-1.263,-2.678,-4.909,-5.694
-1.5,3400008478.258595,1.1868646145,1995.2623149688789,4277.59831482038,-1.291,-2.751,-5.035,-5.837
-1.5,3400008478.258595,1.1868658066,2037.042077705719,4269.725940480334,-1.296,-2.765,-5.06,-5.865
-1.5,3400008478.258595,1.186866045,1963.3602768360474,4283.512119459382,-1.286,-2.739,-5.016,-5.815
-1.5,3400008478.258595,1.1868661642,2837.9190284415554,4067.2418726426044,-1.14,-2.847,-5.467,-6.369
-1.5,3400008478.258595,1.1868662834,2065.3801558105292,4180.228289540325,-1.111,-2.673,-5.095,-5.941
-1.5,3400008478.258595,1.1868662834,1614.3585568264868,4272.676381599791,-1.057,-2.516,-4.804,-5.608
-1.5,3400008478.258595,1.1868665218,944.0608762859235,4479.195312542835,-0.902,-2.138,-4.161,-4.884
-1.5,3400008478.258595,1.1868667603,946.237161365793,4477.133041763624,-0.902,-2.14,-4.164,-4.888
-1.5,3400008478.258595,1.1868671179,1109.174815262401,4413.671434634397,-0.951,-2.255,-4.356,-5.103
-1.5,3400008478.258595,1.1868675947,1538.154640303034,4286.472087023835,-1.038,-2.48,-4.748,-5.546
-1.5,3400008478.258595,1.1868681908,2070.1413487910413,4174.457078262909,-1.1,-2.67,-5.1,-5.949
-1.5,3400008478.258595,1.1868687868,2517.676927758854,4101.0966087481165,-1.113,-2.774,-5.33,-6.215
-1.5,3400008478.258595,1.1868695021,2779.7132677592886,4063.497529039034,-1.11,-2.821,-5.446,-6.349
-1.5,3400008478.258595,1.1868703365,2890.6798823654744,4047.6224868787363,-1.104,-2.836,-5.492,-6.403
-1.5,3400008478.258595,1.186871171,2930.8932452503213,4041.103745134904,-1.098,-2.839,-5.509,-6.423
-1.5,3400008478.258595,1.186871171,2421.0290467361774,4109.604232515482,-1.094,-2.745,-5.286,-6.166
-1.5,3400008478.258595,1.1868714094,1678.8040181225606,4244.240644295681,-1.036,-2.526,-4.853,-5.67
-1.5,3400008478.258595,1.1868716478,984.0111057611335,4449.385139745807,-0.889,-2.156,-4.214,-4.948
-1.5,3400008478.258595,1.1868721247,986.279485631211,4447.3365938979705,-0.888,-2.158,-4.218,-4.953
-1.5,3400008478.258595,1.1868726015,1156.1122421920993,4383.2879341924645,-0.936,-2.272,-4.411,-5.17
-1.5,3400008478.258595,1.1868733168,1603.2453906900419,4256.964220731747,-1.015,-2.491,-4.801,-5.612
-1.5,3400008478.258595,1.186874032,2157.744409152667,4144.765840379393,-1.068,-2.674,-5.152,-6.015
-1.5,3400008478.258595,1.1868749857,2624.218543384442,4070.989666502739,-1.069,-2.771,-5.383,-6.282
-1.5,3400008478.258595,1.1868759394,2904.022654464451,4032.7379297611305,-1.062,-2.815,-5.5,-6.418
-1.5,3400008478.258595,1.1868771315,3019.9517204020162,4016.058219411669,-1.054,-2.829,-5.548,-6.475
-1.5,3400008478.258595,1.1868784428,3069.021988391158,4007.7442528043107,-1.044,-2.832,-5.567,-6.499
-1.5,3400008478.258595,1.1868784428,2558.585886905645,4071.927154442865,-1.043,-2.745,-5.355,-6.254
-1.5,3400008478.258595,1.1868786812,1774.1894808901661,4206.297636505622,-1.006,-2.541,-4.925,-5.759
-1.5,3400008478.258595,1.1868790388,1039.920165829059,4408.592931591316,-0.87,-2.181,-4.289,-5.038
-1.5,3400008478.258595,1.1868793964,1044.7202192208003,4406.563166924702,-0.869,-2.182,-4.293,-5.043
-1.5,3400008478.258595,1.1868799925,1224.6161992650489,4343.101708860921,-0.913,-2.294,-4.485,-5.26
-1.5,3400008478.258595,1.1868807077,1694.3378004473288,4218.907465677975,-0.984,-2.504,-4.87,-5.699
-1.5,3400008478.258595,1.1868815422,2275.0974307720717,4107.712125533876,-1.018,-2.673,-5.218,-6.099
-1.5,3400008478.258595,1.1868824959,2760.577856220345,4035.5246088074728,-1.013,-2.764,-5.446,-6.363
-1.5,3400008478.258595,1.186883688,3047.8949896279833,3997.606108001501,-1.005,-2.806,-5.562,-6.499
-1.5,3400008478.258595,1.1868848801,3176.8740706497692,3980.155135426724,-0.994,-2.82,-5.61,-6.556
-1.5,3400008478.258595,1.1868863106,3228.4941217126348,3971.915494694405,-0.983,-2.821,-5.63,-6.581
