FeH,Age,Mini,L,Te,Bmag,Vmag,Jmag,Kmag
-1.25,4900044227.932367,0.0900000036,0.0006165950018614823,2880.713049775041,17.968,15.953,10.76,10.271
-1.25,4900044227.932367,0.091364406,0.0006714288529259523,2916.755328939502,17.718,15.713,10.684,10.172
-1.25,4900044227.932367,0.1000000089,0.0011271974561755105,3140.5086938762165,16.273,14.355,10.23,9.59
-1.25,4900044227.932367,0.1199999899,0.002167704104819694,3384.542718663093,14.806,13.063,9.625,8.898
-1.25,4900044227.932367,0.1400000006,0.0032809529311311906,3511.5592451629086,14.036,12.402,9.224,8.472
-1.25,4900044227.932367,0.1599999964,0.004487453899331323,3596.665093461474,13.504,11.941,8.914,8.15
-1.25,4900044227.932367,0.2000000179,0.007294575102545687,3715.352290971724,12.734,11.266,8.43,7.651
-1.25,4900044227.932367,0.25,0.011587773561551261,3814.169596669385,12.053,10.659,7.959,7.175
-1.25,4900044227.932367,0.3000000417,0.016788040181225608,3889.555743517412,11.524,10.183,7.582,6.795
-1.25,4900044227.932367,0.3499999642,0.02296148648112362,3951.8458892843655,11.088,9.789,7.261,6.476
-1.25,4900044227.932367,0.4000000358,0.031915378551007616,4050.419451364931,10.589,9.352,6.932,6.155
-1.25,4900044227.932367,0.4365840256,0.04255984131337431,4162.938547861454,10.124,8.954,6.65,5.884
-1.25,4900044227.932367,0.4500000179,0.04698941086052153,4203.393032365499,9.964,8.817,6.552,5.792
-1.25,4900044227.932367,0.5,0.07277798045368242,4456.562483975033,9.189,8.176,6.145,5.429
-1.25,4900044227.932367,0.5374503136,0.10232929922807542,4683.817878502438,8.58,7.672,5.84,5.179
-1.25,4900044227.932367,0.5500000715,0.11428783347897718,4758.827909888171,8.393,7.515,5.744,5.104
-1.25,4900044227.932367,0.6000000238,0.17338039977541378,5038.485348423044,7.729,6.946,5.382,4.822
-1.25,4900044227.932367,0.6069430709,0.18365383433483465,5083.935125244855,7.638,6.869,5.333,4.785
-1.25,4900044227.932367,0.6413276196,0.24322040090738153,5307.622176426454,7.208,6.505,5.102,4.607
-1.25,4900044227.932367,0.6499999762,0.26121613543992067,5365.373995198518,7.103,6.417,5.045,4.563
-1.25,4900044227.932367,0.6573287845,0.27669416454115114,5412.526055151543,7.018,6.345,4.997,4.525
-1.25,4900044227.932367,0.6815341115,0.3357376142429547,5566.72798150948,6.744,6.113,4.84,4.399
-1.25,4900044227.932367,0.6999999285,0.38725764492161724,5683.292391383383,6.542,5.943,4.726,4.306
-1.25,4900044227.932367,0.7192142606,0.4487453899331322,5800.961725227041,6.338,5.772,4.608,4.209
-1.25,4900044227.932367,0.7411270738,0.5308844442309884,5931.984396649728,6.113,5.582,4.474,4.098
-1.25,4900044227.932367,0.75,0.5675446054085471,5984.115950603199,6.023,5.506,4.421,4.053
-1.25,4900044227.932367,0.750449419,0.5688529308438415,5986.872372480598,6.019,5.503,4.418,4.051
-1.25,4900044227.932367,0.7735285163,0.6776415076106751,6099.580958722386,5.797,5.309,4.269,3.92
-1.25,4900044227.932367,0.7943537235,0.7943282347242815,6198.69117636061,5.598,5.134,4.134,3.8
-1.25,4900044227.932367,0.8000000715,0.8279421637123342,6224.435916032886,5.545,5.087,4.097,3.767
-1.25,4900044227.932367,0.8076384068,0.8770008211436348,6260.3699767264325,5.473,5.023,4.047,3.723
-1.25,4900044227.932367,0.8313238025,1.0495424286523223,6372.355556351471,5.249,4.823,3.891,3.585
-1.25,4900044227.932367,0.8500000238,1.2105981335504823,6458.029135322341,5.071,4.665,3.766,3.473
-1.25,4900044227.932367,0.857010901,1.2793813041575246,6492.321231432129,5.006,4.605,3.719,3.432
-1.25,4900044227.932367,0.8765615821,1.485935642287007,6584.154299433819,4.819,4.436,3.586,3.313
-1.25,4900044227.932367,0.8943297863,1.7139573075084253,6669.603248243567,4.645,4.277,3.46,3.2
-1.25,4900044227.932367,0.8999999762,1.7947336268325265,6697.303805418961,4.588,4.225,3.418,3.162
-1.25,4900044227.932367,0.9096355438,1.940885877592778,6746.833613988271,4.49,4.136,3.348,3.1
-1.25,4900044227.932367,0.9235655069,2.1877616239495525,6821.8159793818195,4.345,4.003,3.244,3.007
-1.25,4900044227.932367,0.9364562035,2.4490632418447453,6891.281648380538,4.206,3.875,3.143,2.916
-1.25,4900044227.932367,0.9477707744,2.710191631890843,6953.4446182566335,4.081,3.761,3.052,2.834
-1.25,4900044227.932367,0.9499999285,2.7669416454115114,6964.661283938881,4.056,3.737,3.033,2.817
-1.25,4900044227.932367,0.9593874216,3.013006024186121,7021.016602403146,3.951,3.641,2.959,2.75
-1.25,4900044227.932367,0.9706677794,3.3419504002611427,7085.981269167692,3.823,3.523,2.865,2.666
-1.25,4900044227.932367,0.9808731675,3.6897759857015027,7140.0293992784445,3.704,3.412,2.775,2.584
-1.25,4900044227.932367,0.9931809306,4.1975898399100755,7201.119202497902,3.548,3.267,2.654,2.471
-1.25,4900044227.932367,1.0,4.528975799036208,7231.027280500616,3.459,3.182,2.581,2.403
-1.25,4900044227.932367,1.0001889467,4.528975799036208,7232.692477768494,3.456,3.18,2.579,2.401
-1.25,4900044227.932367,1.001804471,4.613175745603794,7241.024217924128,3.434,3.159,2.562,2.385
-1.25,4900044227.932367,1.0093238354,5.069907082747043,7259.38784607024,3.325,3.054,2.465,2.291
-1.25,4900044227.932367,1.0161383152,5.5718574893192985,7251.03497617198,3.221,2.951,2.361,2.186
-1.25,4900044227.932367,1.0207221508,5.956621435290105,7221.044144820456,3.15,2.876,2.277,2.099
-1.25,4900044227.932367,1.0251985788,6.397348354826482,7161.43410212902,3.081,2.801,2.183,1.997
-1.25,4900044227.932367,1.029889822,6.918309709189364,7068.056297002477,3.01,2.719,2.068,1.871
-1.25,4900044227.932367,1.0335649252,7.396052750582378,6942.246017141189,2.958,2.649,1.954,1.74
-1.25,4900044227.932367,1.0364228487,7.834296427662118,6795.164894815247,2.923,2.593,1.844,1.61
-1.25,4900044227.932367,1.0381233692,8.109610578538408,6684.978271615899,2.906,2.56,1.77,1.52
-1.25,4900044227.932367,1.0393811464,8.35603018231248,6578.092861041911,2.899,2.535,1.704,1.438
-1.25,4900044227.932367,1.0403820276,8.531001140175896,6484.850971441381,2.898,2.517,1.65,1.369
-1.25,4900044227.932367,1.041493535,8.729713683881116,6362.092805735179,2.904,2.5,1.583,1.283
-1.25,4900044227.932367,1.0425121784,8.912509381337454,6233.041235019454,2.919,2.488,1.519,1.197
-1.25,4900044227.932367,1.0434241295,9.015711376059569,6106.607404788298,2.944,2.485,1.464,1.119
-1.25,4900044227.932367,1.0442699194,9.057326008982,5985.494002869498,2.977,2.49,1.417,1.051
-1.25,4900044227.932367,1.0450947285,9.015711376059569,5868.133696187728,3.022,2.506,1.381,0.993
-1.25,4900044227.932367,1.0459228754,8.994975815300352,5763.681848104129,3.064,2.521,1.349,0.941
-1.25,4900044227.932367,1.0469559431,9.141132414702502,5650.670713353118,3.089,2.515,1.293,0.863
-1.25,4900044227.932367,1.0479984283,9.660508789898133,5565.446342582577,3.064,2.467,1.204,0.757
-1.25,4900044227.932367,1.0482982397,9.862794856312105,5544.980203697426,3.049,2.448,1.175,0.723
-1.25,4900044227.932367,1.0487604141,10.303861204416158,5520.774392807573,3.012,2.404,1.119,0.662
-1.25,4900044227.932367,1.0496855974,11.37627285823431,5478.983593917484,2.922,2.303,0.998,0.532
-1.25,4900044227.932367,1.0499999523,11.803206356517299,5466.382281334191,2.887,2.265,0.954,0.485
-1.25,4900044227.932367,1.0505062342,12.531411749414161,5447.534633275434,2.831,2.203,0.882,0.409
-1.25,4900044227.932367,1.0512549877,13.803842646028846,5422.505485172428,2.738,2.103,0.77,0.29
-1.25,4900044227.932367,1.0519794226,15.240527537972914,5400.077590665929,2.639,1.999,0.654,0.169
-1.25,4900044227.932367,1.0526580811,16.82674061070467,5378.980873168731,2.541,1.895,0.539,0.048
-1.25,4900044227.932367,1.0533406734,18.749945080674184,5357.966575133417,2.434,1.783,0.415,-0.081
-1.25,4900044227.932367,1.0539599657,20.79696687103696,5338.263413640386,2.331,1.674,0.295,-0.206
-1.25,4900044227.932367,1.0545310974,23.06747188720069,5317.408188271428,2.229,1.566,0.177,-0.329
-1.25,4900044227.932367,1.0550477505,25.468302525850405,5297.854174488645,2.13,1.461,0.062,-0.449
-1.25,4900044227.932367,1.0555369854,28.183829312644534,5278.37206781577,2.03,1.355,-0.055,-0.57
-1.25,4900044227.932367,1.0560154915,31.40508693876218,5255.33009626921,1.924,1.243,-0.18,-0.7
-1.25,4900044227.932367,1.0564228296,34.673685045253166,5234.798870090691,1.828,1.14,-0.294,-0.82
-1.25,4900044227.932367,1.0568122864,38.37072454922788,5213.147344399808,1.729,1.034,-0.412,-0.944
-1.25,4900044227.932367,1.0571793318,42.55984131337431,5190.390101970821,1.629,0.927,-0.533,-1.071
-1.25,4900044227.932367,1.0575140715,47.20630412635904,5166.542425669501,1.531,0.821,-0.652,-1.196
-1.25,4900044227.932367,1.0578256845,52.239618899911974,5142.804319487918,1.433,0.715,-0.771,-1.322
-1.25,4900044227.932367,1.0581132174,57.94286964268809,5119.175279997109,1.336,0.61,-0.891,-1.448
-1.25,4900044227.932367,1.0583748817,63.973483548264824,5095.65480608114,1.241,0.507,-1.008,-1.57
-1.25,4900044227.932367,1.058624506,70.95777679633888,5069.907082747044,1.146,0.401,-1.129,-1.697
-1.25,4900044227.932367,1.0588525534,78.52356346100719,5045.4510838273745,1.052,0.297,-1.247,-1.822
-1.25,4900044227.932367,1.0590667725,86.8960429286302,5018.801279032415,0.959,0.194,-1.367,-1.948
-1.25,4900044227.932367,1.0592637062,96.16122783836649,4993.441887213498,0.868,0.092,-1.484,-2.072
-1.25,4900044227.932367,1.05945158,106.41430182243164,4967.066792234226,0.778,-0.01,-1.603,-2.198
-1.25,4900044227.932367,1.0596261024,117.21953655481303,4941.96880847838,0.692,-0.106,-1.716,-2.317
-1.25,4900044227.932367,1.0598255396,128.23305826560218,4918.129952683078,0.611,-0.198,-1.823,-2.431
-1.25,4900044227.932367,1.0599206686,132.1295634186575,4910.20924883086,0.584,-0.228,-1.858,-2.468
-1.25,4900044227.932367,1.0600243807,127.05741052085419,4923.795419719503,0.617,-0.189,-1.81,-2.416
-1.25,4900044227.932367,1.0601136684,116.94993910198711,4949.940743969349,0.689,-0.106,-1.71,-2.31
-1.25,4900044227.932367,1.0601267815,115.61122421920993,4953.361223155476,0.697,-0.096,-1.698,-2.297
-1.25,4900044227.932367,1.0602456331,125.89254117941675,4930.6025956279445,0.622,-0.181,-1.798,-2.403
-1.25,4900044227.932367,1.0603784323,138.67558288718882,4903.430227918956,0.538,-0.277,-1.911,-2.523
-1.25,4900044227.932367,1.0605031252,152.40527537972906,4878.653791974776,0.456,-0.371,-2.023,-2.643
-1.25,4900044227.932367,1.0606222153,167.88040181225605,4850.650679999713,0.376,-0.464,-2.137,-2.766
-1.25,4900044227.932367,1.0607284307,183.65383433483456,4825.029800597099,0.303,-0.556,-2.247,-2.882
-1.25,4900044227.932367,1.0608321428,202.30191786782717,4797.334486366892,0.23,-0.651,-2.361,-3.004
-1.25,4900044227.932367,1.0609258413,221.81964198002194,4770.896554256487,0.161,-0.742,-2.471,-3.12
-1.25,4900044227.932367,1.0610144138,243.2204009073816,4742.419852602448,0.094,-0.832,-2.583,-3.238
-1.25,4900044227.932367,1.0610952377,266.68586645214805,4716.284552998378,0.029,-0.92,-2.692,-3.353
-1.25,4900044227.932367,1.0611723661,292.41523778433367,4688.13382145265,-0.034,-1.01,-2.803,-3.472
-1.25,4900044227.932367,1.0612415075,319.88951096913974,4661.22428001887,-0.093,-1.094,-2.91,-3.585
-1.25,4900044227.932367,1.0613079071,349.94516702835733,4632.335436779563,-0.149,-1.179,-3.019,-3.701
-1.25,4900044227.932367,1.0613677502,381.94427084004644,4605.746173947351,-0.202,-1.261,-3.125,-3.813
-1.25,4900044227.932367,1.0614247322,417.83036664662177,4577.2011670508655,-0.251,-1.342,-3.232,-3.928
-1.25,4900044227.932367,1.0614778996,456.03691595129595,4549.880601500485,-0.295,-1.42,-3.339,-4.042
-1.25,4900044227.932367,1.0615270138,497.7370849789361,4522.723107939902,-0.347,-1.496,-3.442,-4.155
-1.25,4900044227.932367,1.0615733862,544.5026528424214,4493.657830540859,-0.397,-1.571,-3.547,-4.27
-1.25,4900044227.932367,1.0616259575,605.3408747539136,4459.642031793193,-0.457,-1.661,-3.672,-4.408
-1.25,4900044227.932367,1.0616660118,660.6934480075957,4430.982144892989,-0.505,-1.733,-3.775,-4.522
-1.25,4900044227.932367,1.0617114305,732.8245331389045,4396.428352878889,-0.56,-1.819,-3.9,-4.66
-1.25,4900044227.932367,1.0617531538,814.7042840208396,4362.144019080488,-0.614,-1.904,-4.022,-4.796
-1.25,4900044227.932367,1.0617923737,903.6494737223014,4328.127042202217,-0.666,-1.987,-4.145,-4.934
-1.25,4900044227.932367,1.0618289709,1004.6157902783947,4293.386634704304,-0.707,-2.065,-4.27,-5.072
-1.25,4900044227.932367,1.061861515,1111.7317272815908,4259.9058433220425,-0.744,-2.138,-4.388,-5.205
-1.25,4900044227.932367,1.061892271,1230.268770812381,4226.686142656029,-0.779,-2.21,-4.507,-5.338
-1.25,4900044227.932367,1.0619214773,1361.4446824659497,4192.759966846054,-0.814,-2.281,-4.627,-5.474
-1.25,4900044227.932367,1.0619484186,1506.6070661867418,4159.106104940223,-0.846,-2.35,-4.745,-5.607
-1.25,4900044227.932367,1.0619733334,1663.4126503701698,4126.6724632293635,-0.877,-2.417,-4.86,-5.738
-1.25,4900044227.932367,1.0619974136,1840.7720014689564,4093.5490632955944,-0.906,-2.483,-4.976,-5.87
-1.25,4900044227.932367,1.0620206594,2023.0191786782718,4063.497529039034,-0.931,-2.543,-5.085,-5.994
-1.25,4900044227.932367,1.0620206594,69.18309709189366,5396.348637300686,0.985,0.354,-0.992,-1.481
-1.25,4900044227.932367,1.0621850491,71.28530301265195,5381.458555867279,0.96,0.325,-1.03,-1.522
-1.25,4900044227.932367,1.0623500347,71.94489780036994,5376.504331222544,0.951,0.315,-1.042,-1.535
-1.25,4900044227.932367,1.0625170469,72.61059574351547,5376.504331222544,0.943,0.307,-1.051,-1.544
-1.25,4900044227.932367,1.0626678467,72.94575102545687,5377.742459634421,0.937,0.301,-1.055,-1.548
-1.25,4900044227.932367,1.0628201962,73.11390834834177,5382.697825162882,0.931,0.296,-1.058,-1.55
-1.25,4900044227.932367,1.0629895926,73.45138681571152,5387.657756854133,0.925,0.292,-1.06,-1.55
-1.25,4900044227.932367,1.0631395578,73.6207097494736,5392.622258915705,0.92,0.288,-1.061,-1.55
-1.25,4900044227.932367,1.0632907152,73.79042301291011,5397.591335559007,0.914,0.284,-1.062,-1.549
-1.25,4900044227.932367,1.0634410381,73.96052750582378,5403.809120790774,0.909,0.281,-1.062,-1.549
-1.25,4900044227.932367,1.0636074543,74.13102413009177,5408.788505661013,0.903,0.276,-1.064,-1.549
-1.25,4900044227.932367,1.0637655258,74.30191378967014,5415.019189534895,0.897,0.272,-1.065,-1.549
-1.25,4900044227.932367,1.0639352798,74.64487584100665,5420.008904016238,0.891,0.268,-1.067,-1.549
-1.25,4900044227.932367,1.0640870333,74.81695005111546,5423.754206961006,0.885,0.264,-1.068,-1.55
-1.25,4900044227.932367,1.064248085,74.98942093324558,5428.7519703968255,0.879,0.26,-1.07,-1.551
-1.25,4900044227.932367,1.0644023418,75.33555637337174,5432.503314924331,0.874,0.256,-1.072,-1.552
-1.25,4900044227.932367,1.0644533634,75.33555637337174,5433.754339063341,0.872,0.254,-1.073,-1.553
-1.25,4900044227.932367,1.0646129847,75.68328950209744,5437.50914029847,0.867,0.25,-1.076,-1.554
-1.25,4900044227.932367,1.0647701025,75.85775750291836,5440.013782467271,0.861,0.245,-1.078,-1.556
-1.25,4900044227.932367,1.0649329424,76.20790100254119,5442.519578332044,0.856,0.241,-1.082,-1.559
-1.25,4900044227.932367,1.0650918484,76.38357835776907,5445.026528424214,0.851,0.236,-1.085,-1.562
-1.25,4900044227.932367,1.0652524233,76.73614893618189,5446.280436471701,0.846,0.232,-1.089,-1.566
-1.25,4900044227.932367,1.0654177666,77.090346906443,5446.280436471701,0.841,0.227,-1.094,-1.57
-1.25,4900044227.932367,1.0655704737,77.44617978025188,5446.280436471701,0.836,0.222,-1.099,-1.575
-1.25,4900044227.932367,1.0655858517,77.44617978025188,5446.280436471701,0.835,0.221,-1.099,-1.576
-1.25,4900044227.932367,1.0657212734,77.8036551039804,5445.026528424214,0.831,0.217,-1.105,-1.581
-1.25,4900044227.932367,1.0658812523,78.34296427662116,5442.519578332044,0.826,0.211,-1.112,-1.589
-1.25,4900044227.932367,1.066036582,78.70457896950985,5438.76131720408,0.821,0.205,-1.119,-1.597
-1.25,4900044227.932367,1.0661956072,79.25013304804718,5435.005651294466,0.816,0.198,-1.129,-1.608
-1.25,4900044227.932367,1.0663560629,79.98342550070285,5427.502097963167,0.81,0.19,-1.14,-1.621
-1.25,4900044227.932367,1.0665113926,80.72350302488383,5420.008904016238,0.804,0.181,-1.153,-1.635
-1.25,4900044227.932367,1.0666691065,81.65823713585922,5411.279918442833,0.797,0.171,-1.167,-1.652
-1.25,4900044227.932367,1.0668228865,82.60379495771788,5401.3211476463475,0.789,0.161,-1.183,-1.669
-1.25,4900044227.932367,1.0669792891,83.56030182312479,5391.380704697852,0.781,0.148,-1.201,-1.689
-1.25,4900044227.932367,1.0671352148,85.11380382023764,5374.028929503504,0.769,0.132,-1.226,-1.718
-1.25,4900044227.932367,1.0672922134,87.4983775227436,5350.569381731372,0.752,0.106,-1.264,-1.762
-1.25,4900044227.932367,1.0674474239,94.18895965228413,5290.539972095819,0.703,0.037,-1.365,-1.877
-1.25,4900044227.932367,1.0675094128,102.09394837076798,5236.0043658575005,0.647,-0.039,-1.471,-1.996
-1.25,4900044227.932367,1.067535162,110.40786199020735,5189.195108067298,0.591,-0.113,-1.571,-2.107
-1.25,4900044227.932367,1.0675470829,119.94993031493793,5145.173213816577,0.528,-0.192,-1.676,-2.223
-1.25,4900044227.932367,1.0675528049,130.31667784523,5103.874653873108,0.464,-0.272,-1.781,-2.338
-1.25,4900044227.932367,1.0675542355,134.58603540559483,5089.791592468075,0.44,-0.302,-1.819,-2.38
-1.25,4900044227.932367,1.0675565004,143.21878992735438,5061.74194011213,0.389,-0.364,-1.898,-2.466
-1.25,4900044227.932367,1.0675593615,156.3147642640954,5026.897153690667,0.32,-0.448,-2.004,-2.58
-1.25,4900044227.932367,1.0675622225,168.26740610704672,4998.043135782391,0.261,-0.52,-2.094,-2.679
-1.25,4900044227.932367,1.0675652027,178.23787674480891,4976.224899734694,0.216,-0.575,-2.163,-2.754
-1.25,4900044227.932367,1.0675697327,179.88709151287873,4972.788632333997,0.209,-0.583,-2.174,-2.766
-1.25,4900044227.932367,1.0675780773,172.98163592151016,4988.844874600121,0.238,-0.546,-2.127,-2.714
-1.25,4900044227.932367,1.0675945282,167.49428760264382,5001.496854402788,0.264,-0.515,-2.087,-2.67
-1.25,4900044227.932367,1.0676845312,171.0015315090288,4991.142851656184,0.248,-0.536,-2.114,-2.701
-1.25,4900044227.932367,1.0677400827,184.50154191794738,4960.2092739597465,0.19,-0.607,-2.206,-2.801
-1.25,4900044227.932367,1.0677957535,203.7042077705719,4921.528450161719,0.114,-0.702,-2.327,-2.933
-1.25,4900044227.932367,1.0678457022,224.3881923782766,4885.398559319364,0.039,-0.794,-2.445,-3.062
-1.25,4900044227.932367,1.0678898096,247.1724145016129,4848.4173870844625,-0.034,-0.886,-2.563,-3.191
-1.25,4900044227.932367,1.0679283142,272.27013080779125,4813.932540001449,-0.1,-0.979,-2.681,-3.318
-1.25,4900044227.932367,1.0679621696,299.2264636608189,4778.592531515467,-0.164,-1.071,-2.798,-3.443
-1.25,4900044227.932367,1.0679923296,328.85163087598295,4744.604320607653,-0.224,-1.161,-2.915,-3.568
-1.25,4900044227.932367,1.0680191517,362.24299841669875,4706.520991281343,-0.279,-1.249,-3.032,-3.694
-1.25,4900044227.932367,1.0680378675,389.9419866765436,4665.519403909797,-0.3,-1.31,-3.127,-3.799
-1.25,4900044227.932367,1.0680602789,428.54852039743963,4609.990177075899,-0.319,-1.385,-3.25,-3.936
-1.25,4900044227.932367,1.0680812597,472.06304126359043,4565.622502022357,-0.35,-1.465,-3.371,-4.069
-1.25,4900044227.932367,1.0681009293,519.9959965335162,4531.0619497855805,-0.395,-1.546,-3.488,-4.197
-1.25,4900044227.932367,1.0681195259,572.7960309858292,4495.727713019056,-0.445,-1.626,-3.603,-4.325
-1.25,4900044227.932367,1.0681370497,630.957344480193,4460.669020551353,-0.493,-1.705,-3.719,-4.454
-1.25,4900044227.932367,1.0681529045,695.0243175887969,4423.845998088853,-0.537,-1.78,-3.834,-4.582
-1.25,4900044227.932367,1.0681689978,765.5966069112561,4386.316848258552,-0.58,-1.855,-3.95,-4.713
-1.25,4900044227.932367,1.068185091,843.3347577642757,4349.106072324534,-0.62,-1.928,-4.065,-4.843
-1.25,4900044227.932367,1.068200469,928.9663867799363,4309.233228186264,-0.644,-1.993,-4.182,-4.977
-1.25,4900044227.932367,1.0682139397,1025.651926251408,4266.777536749634,-0.664,-2.057,-4.301,-5.114
-1.25,4900044227.932367,1.0682235956,1132.4003632355566,4228.63305181499,-0.685,-2.119,-4.417,-5.247
-1.25,4900044227.932367,1.0682313442,1244.5146117713857,4188.900070027829,-0.701,-2.177,-4.53,-5.379
-1.25,4900044227.932367,1.068239212,1377.2094688939458,4144.765840379393,-0.712,-2.235,-4.652,-5.521
-1.25,4900044227.932367,1.0682457685,1527.5660582380733,4101.0966087481165,-0.719,-2.289,-4.772,-5.662
-1.25,4900044227.932367,1.0682524443,1733.8039977541375,4046.6905946508737,-0.72,-2.352,-4.922,-5.84
-1.25,4900044227.932367,1.0682544708,1862.0871366628676,4017.9081084894,-0.713,-2.383,-5.007,-5.939
-1.25,4900044227.932367,1.0682551861,2060.6299132700005,3979.2387763422494,-0.708,-2.427,-5.124,-6.076
-1.25,4900044227.932367,1.0682556629,2167.704104819694,3958.2206483572263,-0.703,-2.448,-5.185,-6.148
-1.25,4900044227.932367,1.068256259,2296.148648112363,3936.4070414309936,-0.697,-2.47,-5.251,-6.227
-1.25,4900044227.932367,1.0682572126,2477.4220576332864,3905.710056937564,-0.685,-2.499,-5.341,-6.332
-1.25,4900044227.932367,1.0682585239,2618.1830082189863,3884.1858339296286,-0.667,-2.515,-5.405,-6.409
