FeH,Age,Mini,L,Te,Bmag,Vmag,Jmag,Kmag
-1.25,2100003410.2666123,0.0900000036,0.0006151768727098684,2879.3867378079763,17.976,15.96,10.761,10.273
-1.25,2100003410.2666123,0.0923321769,0.0007112135136533288,2940.356573672507,17.556,15.558,10.633,10.106
-1.25,2100003410.2666123,0.1000000089,0.001122018454301963,3138.340056432409,16.284,14.365,10.233,9.593
-1.25,2100003410.2666123,0.1158105358,0.0019010782799232997,3333.496473327569,15.089,13.305,9.747,9.033
-1.25,2100003410.2666123,0.1199999899,0.0021577444091526667,3382.20556669654,14.815,13.071,9.628,8.902
-1.25,2100003410.2666123,0.1400000006,0.0032658783217233566,3509.942484670127,14.045,12.41,9.227,8.476
-1.25,2100003410.2666123,0.1599999964,0.004456562483975033,3594.181463147148,13.516,11.951,8.92,8.156
-1.25,2100003410.2666123,0.2000000179,0.007177942912713615,3712.786702756398,12.758,11.287,8.447,7.669
-1.25,2100003410.2666123,0.2003315687,0.007194489780036998,3712.786702756398,12.753,11.283,8.443,7.666
-1.25,2100003410.2666123,0.25,0.011220184543019636,3812.4135110429906,12.093,10.696,7.995,7.211
-1.25,2100003410.2666123,0.3000000417,0.016069412530128772,3888.6602433122985,11.575,10.233,7.63,6.845
-1.25,2100003410.2666123,0.3499999642,0.022490546058357815,3950.936047894297,11.112,9.812,7.283,6.498
-1.25,2100003410.2666123,0.4000000358,0.031188895840939368,4046.6905946508737,10.617,9.378,6.955,6.177
-1.25,2100003410.2666123,0.4500000179,0.04570881896148749,4194.691248825665,10.006,8.854,6.581,5.82
-1.25,2100003410.2666123,0.4925160408,0.06591738952443213,4400.479478359837,9.36,8.318,6.238,5.511
-1.25,2100003410.2666123,0.5,0.06998419960022735,4436.086439314323,9.254,8.23,6.181,5.461
-1.25,2100003410.2666123,0.5500000715,0.10789467222298288,4728.2453051179655,8.485,7.594,5.798,5.15
-1.25,2100003410.2666123,0.6000000238,0.1606941253012877,4996.8924263059425,7.838,7.042,5.45,4.879
-1.25,2100003410.2666123,0.6049101949,0.16710906143107074,5026.897153690667,7.776,6.989,5.417,4.854
-1.25,2100003410.2666123,0.6499999762,0.2360478233180577,5299.074190947546,7.246,6.54,5.132,4.635
-1.25,2100003410.2666123,0.6610537171,0.25644840365177174,5366.609560460733,7.122,6.436,5.065,4.583
-1.25,2100003410.2666123,0.6999999285,0.34040818970100084,5604.024173641845,6.714,6.093,4.839,4.405
-1.25,2100003410.2666123,0.7004031539,0.3411929116219285,5606.60551647698,6.71,6.089,4.836,4.403
-1.25,2100003410.2666123,0.75,0.4797334486366891,5902.010801718442,6.233,5.693,4.572,4.191
-1.25,2100003410.2666123,0.7862806916,0.6081350012787179,6072.954118270236,5.923,5.428,4.378,4.024
-1.25,2100003410.2666123,0.8000000715,0.6637430704019088,6136.206975096898,5.81,5.33,4.305,3.961
-1.25,2100003410.2666123,0.8500000238,0.9078205301781858,6356.235799378436,5.413,4.982,4.043,3.734
-1.25,2100003410.2666123,0.8725224137,1.0423174293933042,6455.055787690059,5.24,4.83,3.929,3.635
-1.25,2100003410.2666123,0.8989310265,1.2217996601648717,6570.52390963554,5.042,4.653,3.796,3.52
-1.25,2100003410.2666123,0.8999999762,1.2274392311584073,6575.064234749979,5.034,4.646,3.791,3.515
-1.25,2100003410.2666123,0.945419848,1.599558028614669,6779.536449241948,4.703,4.35,3.571,3.326
-1.25,2100003410.2666123,0.9499999285,1.6405897731995394,6799.860450033224,4.67,4.32,3.549,3.307
-1.25,2100003410.2666123,0.9799929261,1.9453600816226626,6947.043207498577,4.455,4.128,3.411,3.19
-1.25,2100003410.2666123,1.0,2.177709772353159,7045.308260711936,4.313,4.001,3.32,3.112
-1.25,2100003410.2666123,1.0067662001,2.2594357702209775,7082.718805467454,4.265,3.958,3.291,3.089
-1.25,2100003410.2666123,1.0402215719,2.7227013080779123,7271.098031596613,4.028,3.747,3.148,2.971
-1.25,2100003410.2666123,1.0499999523,2.870780582024691,7328.245331389045,3.959,3.686,3.107,2.937
-1.25,2100003410.2666123,1.0631753206,3.083187950249354,7418.224971807317,3.866,3.604,3.057,2.899
-1.25,2100003410.2666123,1.0816366673,3.404081897010009,7543.970821979903,3.738,3.492,2.989,2.845
-1.25,2100003410.2666123,1.0972445011,3.698281797802662,7650.679341290927,3.632,3.399,2.933,2.801
-1.25,2100003410.2666123,1.1000000238,3.749730022454835,7670.081876935095,3.613,3.383,2.923,2.794
-1.25,2100003410.2666123,1.1053316593,3.854783576657718,7709.034690644301,3.577,3.351,2.904,2.78
-1.25,2100003410.2666123,1.1499999762,4.875284901033862,8029.712576698627,3.276,3.089,2.748,2.656
-1.25,2100003410.2666123,1.1634215117,5.236004365857502,8122.692266200639,3.187,3.012,2.7,2.617
-1.25,2100003410.2666123,1.1996281147,6.33869711256927,8363.729915840262,2.954,2.811,2.569,2.505
-1.25,2100003410.2666123,1.2000000477,6.353309318517438,8365.6559575581,2.952,2.809,2.567,2.504
-1.25,2100003410.2666123,1.2075681686,6.622165037017619,8412.01425557393,2.905,2.768,2.539,2.478
-1.25,2100003410.2666123,1.2415100336,7.925013304804718,8594.092029532832,2.699,2.586,2.403,2.354
-1.25,2100003410.2666123,1.25,8.279421637123342,8633.760555974379,2.649,2.541,2.367,2.32
-1.25,2100003410.2666123,1.2534145117,8.433347577642754,8647.687754802233,2.628,2.523,2.352,2.306
-1.25,2100003410.2666123,1.2769415379,9.571940712948445,8711.641598245316,2.487,2.392,2.236,2.195
-1.25,2100003410.2666123,1.2999999523,10.864256236170656,8735.746039721522,2.347,2.258,2.108,2.068
-1.25,2100003410.2666123,1.3102734089,11.508003889444357,8711.641598245316,2.282,2.192,2.038,1.997
-1.25,2100003410.2666123,1.3253581524,12.531411749414161,8637.737465291839,2.183,2.089,1.921,1.875
-1.25,2100003410.2666123,1.3398567438,13.645831365889245,8523.147415083682,2.084,1.983,1.792,1.74
-1.25,2100003410.2666123,1.3500000238,14.52111617587742,8427.524039128371,2.015,1.905,1.693,1.635
-1.25,2100003410.2666123,1.3560999632,15.100801541641486,8367.582442814502,1.973,1.857,1.631,1.569
-1.25,2100003410.2666123,1.3638644218,15.958791472367329,8309.98041044432,1.913,1.791,1.552,1.487
-1.25,2100003410.2666123,1.3650825024,16.14358556826486,8325.302067492423,1.899,1.779,1.544,1.48
-1.25,2100003410.2666123,1.3695213795,17.179083871575884,8525.110168263653,1.825,1.732,1.545,1.494
-1.25,2100003410.2666123,1.3705793619,17.78279410038923,8709.635899560806,1.792,1.715,1.567,1.527
-1.25,2100003410.2666123,1.371068716,18.407720014689556,8900.204796255253,1.763,1.702,1.59,1.559
-1.25,2100003410.2666123,1.3713340759,19.230917289101587,9090.755973601954,1.73,1.684,1.604,1.582
-1.25,2100003410.2666123,1.3715046644,20.23019178678272,9270.432584045268,1.691,1.658,1.605,1.591
-1.25,2100003410.2666123,1.3715513945,20.511621788255656,9306.791831626531,1.68,1.65,1.603,1.59
-1.25,2100003410.2666123,1.3716390133,19.998618696327437,9115.909395361672,1.689,1.646,1.571,1.55
-1.25,2100003410.2666123,1.3717199564,20.090928126087277,8924.830977580354,1.667,1.611,1.504,1.475
-1.25,2100003410.2666123,1.3718516827,20.892961308540396,8693.606925094164,1.609,1.536,1.387,1.346
-1.25,2100003410.2666123,1.3720594645,21.67704104819695,8460.577343842877,1.562,1.469,1.271,1.216
-1.25,2100003410.2666123,1.3723822832,22.23309890651403,8230.003122773447,1.542,1.422,1.168,1.098
-1.25,2100003410.2666123,1.3728547096,22.646443075930595,8000.184448550986,1.538,1.39,1.073,0.985
-1.25,2100003410.2666123,1.3734419346,23.01441817408509,7764.258747121095,1.548,1.368,0.98,0.871
-1.25,2100003410.2666123,1.3740426302,23.280912576650078,7526.620170564824,1.569,1.357,0.891,0.757
-1.25,2100003410.2666123,1.3745807409,23.550492838960103,7294.575102545687,1.596,1.354,0.806,0.646
-1.25,2100003410.2666123,1.3750374317,23.65919697485759,7074.5692162786,1.631,1.357,0.73,0.54
-1.25,2100003410.2666123,1.3754233122,23.76840286624876,6873.8491959032335,1.669,1.365,0.661,0.444
-1.25,2100003410.2666123,1.3757531643,23.76840286624876,6697.303805418961,1.708,1.375,0.604,0.361
-1.25,2100003410.2666123,1.3760402203,23.71373705661655,6549.377145933659,1.746,1.387,0.557,0.291
-1.25,2100003410.2666123,1.3762952089,23.65919697485759,6423.918168243863,1.784,1.401,0.52,0.233
-1.25,2100003410.2666123,1.3765286207,23.49632820848307,6316.841792875155,1.821,1.417,0.491,0.187
-1.25,2100003410.2666123,1.3767627478,23.280912576650078,6217.2738929396055,1.861,1.436,0.468,0.147
-1.25,2100003410.2666123,1.3770227432,22.961486481123618,6117.866558211328,1.908,1.46,0.451,0.111
-1.25,2100003410.2666123,1.3773415089,22.438819237827662,6007.586047756748,1.97,1.497,0.44,0.081
-1.25,2100003410.2666123,1.3777110577,21.67704104819695,5895.219770654917,2.049,1.547,0.438,0.056
-1.25,2100003410.2666123,1.3781428337,20.701413487910425,5779.6295119546585,2.142,1.61,0.45,0.046
-1.25,2100003410.2666123,1.3786193132,19.952623149688797,5674.139384779082,2.225,1.663,0.454,0.029
-1.25,2100003410.2666123,1.3787381649,19.81527025805098,5649.369748123023,2.243,1.675,0.454,0.024
-1.25,2100003410.2666123,1.3788653612,19.860949173573715,5628.594992827296,2.25,1.676,0.445,0.01
-1.25,2100003410.2666123,1.3796266317,20.989398836235246,5536.049950434,2.228,1.629,0.353,-0.102
-1.25,2100003410.2666123,1.380384922,23.12064790175595,5477.722156556586,2.148,1.533,0.228,-0.24
-1.25,2100003410.2666123,1.3810147047,25.35128630497907,5443.7729090664825,2.064,1.44,0.117,-0.359
-1.25,2100003410.2666123,1.3816423416,27.797132677592884,5416.266187341721,1.976,1.344,0.007,-0.476
-1.25,2100003410.2666123,1.3822616339,30.47894989627983,5392.622258915705,1.887,1.249,-0.101,-0.589
-1.25,2100003410.2666123,1.3829389811,33.65115693754907,5369.081544647211,1.791,1.145,-0.217,-0.711
-1.25,2100003410.2666123,1.3837016821,37.583740428844415,5344.412855743935,1.683,1.031,-0.344,-0.844
-1.25,2100003410.2666123,1.3844218254,41.59106104940221,5321.082592667942,1.584,0.925,-0.463,-0.968
-1.25,2100003410.2666123,1.3852399588,46.77351412871981,5294.19581017428,1.47,0.802,-0.6,-1.112
-1.25,2100003410.2666123,1.3858910799,51.52286445817565,5271.08476236396,1.377,0.702,-0.712,-1.23
-1.25,2100003410.2666123,1.3865401745,56.754460540854716,5248.074602497728,1.284,0.601,-0.825,-1.348
-1.25,2100003410.2666123,1.3871464729,62.373483548241914,5226.368167369365,1.193,0.504,-0.935,-1.464
-1.25,2100003410.2666123,1.3877105713,68.39116472814293,5203.553211345586,1.105,0.409,-1.044,-1.579
-1.25,2100003410.2666123,1.3882631063,75.16228940182053,5179.645056050334,1.016,0.312,-1.154,-1.695
-1.25,2100003410.2666123,1.388843298,82.98507675144225,5155.846748750552,0.924,0.211,-1.269,-1.816
-1.25,2100003410.2666123,1.3895677328,93.75620069258802,5125.0723423117615,0.809,0.084,-1.413,-1.968
-1.25,2100003410.2666123,1.3901113272,103.5142166679344,5100.350239594463,0.718,-0.017,-1.528,-2.089
-1.25,2100003410.2666123,1.3906004429,114.02497875611685,5074.578790806499,0.63,-0.115,-1.642,-2.209
-1.25,2100003410.2666123,1.3910537958,125.31411749414156,5050.100256703167,0.543,-0.212,-1.754,-2.327
-1.25,2100003410.2666123,1.3915432692,138.03842646028852,5023.4258952238715,0.456,-0.31,-1.868,-2.447
-1.25,2100003410.2666123,1.3921387196,152.05475297324955,4998.043135782391,0.369,-0.408,-1.982,-2.568
-1.25,2100003410.2666123,1.3923547268,154.5254439538414,4993.441887213498,0.353,-0.425,-2.001,-2.588
-1.25,2100003410.2666123,1.392763257,139.95873225726177,5024.582714960762,0.441,-0.324,-1.881,-2.46
-1.25,2100003410.2666123,1.3929321766,130.016957803329,5046.612975635282,0.505,-0.251,-1.795,-2.369
-1.25,2100003410.2666123,1.3930215836,125.02590302177201,5058.246620031143,0.54,-0.211,-1.747,-2.318
-1.25,2100003410.2666123,1.393355608,137.08817661648536,5033.846868348144,0.457,-0.305,-1.856,-2.433
-1.25,2100003410.2666123,1.3937071562,150.31419660900224,5007.258356403354,0.374,-0.399,-1.966,-2.549
-1.25,2100003410.2666123,1.3940472603,164.81623915255085,4983.104559705293,0.292,-0.49,-2.074,-2.664
-1.25,2100003410.2666123,1.3943737745,180.71741260109275,4955.642855622974,0.212,-0.582,-2.183,-2.78
-1.25,2100003410.2666123,1.3946781158,197.696964011186,4930.6025956279445,0.132,-0.673,-2.29,-2.894
-1.25,2100003410.2666123,1.3949657679,216.271852372702,4904.559414451102,0.056,-0.762,-2.396,-3.007
-1.25,2100003410.2666123,1.3952362537,236.59196974857588,4878.653791974776,-0.019,-0.849,-2.502,-3.121
-1.25,2100003410.2666123,1.3954916,258.82129151530904,4852.88500162121,-0.093,-0.936,-2.609,-3.236
-1.25,2100003410.2666123,1.3957289457,282.48799749157075,4826.140932685212,-0.161,-1.024,-2.715,-3.349
-1.25,2100003410.2666123,1.3959501982,308.31879502493535,4799.544249319445,-0.227,-1.11,-2.819,-3.46
-1.25,2100003410.2666123,1.3961570263,336.5115693754908,4774.193311370779,-0.291,-1.195,-2.924,-3.571
-1.25,2100003410.2666123,1.3963961601,374.1105882720533,4740.236390350336,-0.365,-1.298,-3.053,-3.708
-1.25,2100003410.2666123,1.3965784311,408.3193863326923,4714.113123725611,-0.426,-1.383,-3.158,-3.819
-1.25,2100003410.2666123,1.3967823982,452.8975799036209,4681.661397243642,-0.496,-1.483,-3.283,-3.952
-1.25,2100003410.2666123,1.3969373703,493.1738039549359,4654.789007046166,-0.548,-1.562,-3.385,-4.06
-1.25,2100003410.2666123,1.3971163034,547.0159628939716,4621.681360922446,-0.608,-1.657,-3.51,-4.194
-1.25,2100003410.2666123,1.3972784281,605.3408747539136,4589.865930219982,-0.664,-1.75,-3.633,-4.324
-1.25,2100003410.2666123,1.3974312544,671.4288529259522,4556.170837990161,-0.714,-1.841,-3.756,-4.457
-1.25,2100003410.2666123,1.3975714445,741.3102413009177,4522.723107939902,-0.769,-1.927,-3.876,-4.588
-1.25,2100003410.2666123,1.3976984024,818.4647881347895,4491.588901059318,-0.825,-2.01,-3.992,-4.715
-1.25,2100003410.2666123,1.3978184462,903.6494737223014,4458.615279480707,-0.879,-2.092,-4.109,-4.844
-1.25,2100003410.2666123,1.3979303837,995.4054173515275,4424.86474355665,-0.93,-2.172,-4.225,-4.973
-1.25,2100003410.2666123,1.3980317116,1093.956366272094,4394.404188918088,-0.98,-2.25,-4.336,-5.097
-1.25,2100003410.2666123,1.3981271982,1202.2644346174131,4364.153323262729,-1.029,-2.327,-4.448,-5.22
-1.25,2100003410.2666123,1.3982168436,1321.2956341865752,4331.1178393104055,-1.066,-2.397,-4.559,-5.345
-1.25,2100003410.2666123,1.3983001709,1452.111617587742,4299.3222667877035,-1.102,-2.465,-4.669,-5.468
-1.25,2100003410.2666123,1.3983770609,1588.546748597779,4269.725940480334,-1.136,-2.532,-4.775,-5.587
-1.25,2100003410.2666123,1.3984519243,1733.8039977541375,4240.333353850188,-1.167,-2.594,-4.878,-5.702
-1.25,2100003410.2666123,1.3984832764,1798.8709151287874,4227.659485162412,-1.18,-2.62,-4.921,-5.751
-1.25,2100003410.2666123,1.3984832764,84.91804750363139,5445.026528424214,0.74,0.125,-1.197,-1.675
-1.25,2100003410.2666123,1.3990191221,86.29785477669702,5423.754206961006,0.732,0.11,-1.223,-1.706
-1.25,2100003410.2666123,1.3995331526,87.29713683881117,5415.019189534895,0.725,0.1,-1.238,-1.722
-1.25,2100003410.2666123,1.4000486135,88.10488730080142,5412.526055151543,0.715,0.089,-1.25,-1.735
-1.25,2100003410.2666123,1.4005689621,88.92011178579486,5415.019189534895,0.703,0.079,-1.259,-1.744
-1.25,2100003410.2666123,1.4010921717,89.74287945007487,5418.761044516261,0.691,0.067,-1.268,-1.752
-1.25,2100003410.2666123,1.4016281366,90.78205301781857,5423.754206961006,0.678,0.056,-1.277,-1.759
-1.25,2100003410.2666123,1.4021751881,91.62204901219997,5428.7519703968255,0.664,0.044,-1.286,-1.767
-1.25,2100003410.2666123,1.4027068615,92.46981739382225,5433.754339063341,0.651,0.033,-1.295,-1.775
-1.25,2100003410.2666123,1.40327847,93.3254300796991,5438.76131720408,0.638,0.021,-1.304,-1.783
-1.25,2100003410.2666123,1.403807044,94.40608762859236,5443.7729090664825,0.625,0.01,-1.313,-1.791
-1.25,2100003410.2666123,1.4043415785,95.2796164023652,5447.534633275434,0.612,-0.002,-1.322,-1.799
-1.25,2100003410.2666123,1.4048761129,96.16122783836649,5452.554309382917,0.599,-0.013,-1.331,-1.807
-1.25,2100003410.2666123,1.405407548,97.05099672454898,5456.3221016639,0.587,-0.024,-1.34,-1.815
-1.25,2100003410.2666123,1.4059387445,97.94899854086991,5460.092497542736,0.574,-0.035,-1.349,-1.823
-1.25,2100003410.2666123,1.4065202475,99.08319448927675,5465.123745198722,0.561,-0.047,-1.359,-1.832
-1.25,2100003410.2666123,1.406660676,99.3116048420934,5465.123745198722,0.558,-0.05,-1.361,-1.834
-1.25,2100003410.2666123,1.4068385363,99.5405417351527,5466.382281334191,0.554,-0.054,-1.364,-1.836
-1.25,2100003410.2666123,1.407360673,100.46157902783946,5470.159628939716,0.543,-0.064,-1.373,-1.844
-1.25,2100003410.2666123,1.4078835249,101.39113857366789,5472.679310676925,0.531,-0.074,-1.382,-1.853
-1.25,2100003410.2666123,1.4084135294,102.32929922807536,5475.200153037678,0.52,-0.085,-1.39,-1.861
-1.25,2100003410.2666123,1.408940196,103.03861204416158,5477.722156556586,0.51,-0.094,-1.399,-1.869
-1.25,2100003410.2666123,1.409506321,103.9920165829059,5478.983593917484,0.499,-0.105,-1.409,-1.878
-1.25,2100003410.2666123,1.4100186825,104.9542428652322,5480.245321768504,0.489,-0.114,-1.417,-1.886
-1.25,2100003410.2666123,1.410545826,105.92537251772886,5480.245321768504,0.48,-0.123,-1.426,-1.895
-1.25,2100003410.2666123,1.4106142521,105.92537251772886,5480.245321768504,0.479,-0.124,-1.428,-1.897
-1.25,2100003410.2666123,1.4109159708,106.41430182243164,5480.245321768504,0.474,-0.13,-1.433,-1.902
-1.25,2100003410.2666123,1.4114416838,107.3989412341245,5477.722156556586,0.466,-0.138,-1.443,-1.912
-1.25,2100003410.2666123,1.4119786024,108.14339512979376,5473.939586745954,0.458,-0.147,-1.453,-1.923
-1.25,2100003410.2666123,1.4125105143,109.1440336448756,5470.159628939716,0.451,-0.155,-1.464,-1.935
-1.25,2100003410.2666123,1.4130370617,110.15393095414144,5462.607542126947,0.445,-0.163,-1.475,-1.948
-1.25,2100003410.2666123,1.4135619402,111.17317272815909,5455.065881703734,0.44,-0.171,-1.487,-1.962
-1.25,2100003410.2666123,1.4140985012,112.2018454301963,5445.026528424214,0.435,-0.18,-1.5,-1.977
-1.25,2100003410.2666123,1.4146299362,113.24003632355566,5435.005651294466,0.429,-0.188,-1.514,-1.993
-1.25,2100003410.2666123,1.4151619673,114.28783347897712,5426.252513290146,0.422,-0.198,-1.529,-2.01
-1.25,2100003410.2666123,1.4156955481,114.81536214968828,5428.7519703968255,0.416,-0.204,-1.533,-2.013
-1.25,2100003410.2666123,1.4160308838,116.14486138403426,5410.034068634678,0.415,-0.211,-1.55,-2.035
-1.25,2100003410.2666123,1.41629076,116.94993910198711,5392.622258915705,0.415,-0.217,-1.565,-2.053
-1.25,2100003410.2666123,1.4168360233,121.33888504649774,5332.1210472698,0.407,-0.245,-1.625,-2.127
-1.25,2100003410.2666123,1.4172016382,130.61708881318418,5257.7508225669435,0.369,-0.31,-1.73,-2.249
-1.25,2100003410.2666123,1.4173051119,141.2537544622754,5202.355186873041,0.317,-0.382,-1.833,-2.367
-1.25,2100003410.2666123,1.4173367023,152.75660582380732,5158.221650723056,0.258,-0.457,-1.934,-2.477
-1.25,2100003410.2666123,1.4173433781,158.12480392703827,5140.436515824259,0.23,-0.492,-1.978,-2.526
-1.25,2100003410.2666123,1.4173434973,158.48931924611142,5140.436515824259,0.23,-0.492,-1.979,-2.527
-1.25,2100003410.2666123,1.4173498154,165.95869074375614,5120.354149383066,0.191,-0.539,-2.038,-2.591
-1.25,2100003410.2666123,1.4173611403,183.65383433483456,5080.424479948444,0.107,-0.639,-2.161,-2.724
-1.25,2100003410.2666123,1.4173753262,202.76827195212817,5043.128102663999,0.025,-0.736,-2.281,-2.853
-1.25,2100003410.2666123,1.4174120426,189.2343618644976,5071.074606405172,0.082,-0.668,-2.196,-2.761
-1.25,2100003410.2666123,1.417691946,192.75249131909365,5062.90758346022,0.068,-0.685,-2.219,-2.787
-1.25,2100003410.2666123,1.4178769588,214.7830474130533,5021.113054699537,-0.021,-0.791,-2.35,-2.928
-1.25,2100003410.2666123,1.4179762602,236.59196974857588,4985.3998926398735,-0.098,-0.885,-2.467,-3.055
-1.25,2100003410.2666123,1.4180969,264.24087573219475,4944.245193336823,-0.187,-0.992,-2.602,-3.201
-1.25,2100003410.2666123,1.4182069302,290.4022654464451,4911.339996469978,-0.263,-1.084,-2.717,-3.326
-1.25,2100003410.2666123,1.4183098078,319.15378551007615,4877.530569745951,-0.337,-1.174,-2.831,-3.45
-1.25,2100003410.2666123,1.4184046984,350.75187395256796,4842.83865227851,-0.407,-1.264,-2.945,-3.575
-1.25,2100003410.2666123,1.4184930325,385.4783576657717,4803.966829296808,-0.468,-1.355,-3.064,-3.703
-1.25,2100003410.2666123,1.4185522795,413.9996748197304,4750.069893831193,-0.483,-1.412,-3.161,-3.813
-1.25,2100003410.2666123,1.4186247587,454.9880601500485,4717.370642684883,-0.544,-1.502,-3.276,-3.936
-1.25,2100003410.2666123,1.4186903238,500.0345349769783,4684.8964916001305,-0.603,-1.591,-3.39,-4.058
-1.25,2100003410.2666123,1.4187500477,549.5408738576248,4654.789007046166,-0.659,-1.678,-3.504,-4.178
-1.25,2100003410.2666123,1.4188053608,603.94862937638,4622.74566491089,-0.71,-1.764,-3.618,-4.3
-1.25,2100003410.2666123,1.41885674,663.7430704019089,4588.8091961986775,-0.756,-1.848,-3.734,-4.425
-1.25,2100003410.2666123,1.4189025164,729.4575102545687,4557.220055886471,-0.799,-1.93,-3.848,-4.547
-1.25,2100003410.2666123,1.4189466238,799.8342550070284,4525.848373686597,-0.847,-2.008,-3.958,-4.667
-1.25,2100003410.2666123,1.4189895391,877.0008211436349,4491.588901059318,-0.894,-2.085,-4.069,-4.791
-1.25,2100003410.2666123,1.4190315008,961.6122783836648,4458.615279480707,-0.941,-2.16,-4.179,-4.914
-1.25,2100003410.2666123,1.4190733433,1054.3868963912591,4424.86474355665,-0.986,-2.234,-4.289,-5.036
-1.25,2100003410.2666123,1.4191155434,1156.1122421920993,4391.369690244064,-1.029,-2.307,-4.398,-5.159
-1.25,2100003410.2666123,1.4191583395,1270.5741052085418,4356.121655464697,-1.067,-2.376,-4.509,-5.284
-1.25,2100003410.2666123,1.4191983938,1396.3683610559376,4320.161676181425,-1.097,-2.444,-4.624,-5.413
-1.25,2100003410.2666123,1.4192283154,1545.254439538414,4282.5259178891965,-1.129,-2.514,-4.743,-5.548
-1.25,2100003410.2666123,1.4192485809,1682.6740610704674,4249.129820811196,-1.15,-2.571,-4.845,-5.665
-1.25,2100003410.2666123,1.4192658663,1832.314422371211,4215.994153984273,-1.171,-2.625,-4.944,-5.779
-1.25,2100003410.2666123,1.4192831516,1999.8618696327449,4182.153799140227,-1.192,-2.682,-5.048,-5.899
-1.25,2100003410.2666123,1.4193025827,2192.80493535045,4145.720317867256,-1.21,-2.739,-5.158,-6.026
-1.25,2100003410.2666123,1.4193097353,2382.319469358689,4114.338313870812,-1.227,-2.788,-5.254,-6.137
-1.25,2100003410.2666123,1.4193118811,1836.5383433483455,4210.173564456214,-1.16,-2.621,-4.948,-5.786
-1.25,2100003410.2666123,1.4193120003,1706.0823890031243,4238.381057743502,-1.14,-2.572,-4.861,-5.686
-1.25,2100003410.2666123,1.4193121195,2103.778439766475,4160.063884776209,-1.196,-2.71,-5.109,-5.97
-1.25,2100003410.2666123,1.4193123579,2070.1413487910413,4164.856093407415,-1.192,-2.7,-5.091,-5.949
-1.25,2100003410.2666123,1.4193129539,1972.4227361148535,4183.116886514957,-1.18,-2.669,-5.034,-5.884
-1.25,2100003410.2666123,1.4193140268,2137.9620895022326,4153.364054890737,-1.199,-2.72,-5.128,-5.992
-1.25,2100003410.2666123,1.4193149805,2301.441817408509,4127.622774083493,-1.218,-2.766,-5.212,-6.089
-1.25,2100003410.2666123,1.4193160534,2471.724145016129,4101.0966087481165,-1.234,-2.811,-5.298,-6.187
-1.25,2100003410.2666123,1.4193172455,2660.7250597988086,4073.802778041126,-1.249,-2.855,-5.383,-6.286
-1.25,2100003410.2666123,1.419319272,2917.427014001166,4040.1733537300024,-1.257,-2.903,-5.49,-6.41
-1.25,2100003410.2666123,1.4193221331,3155.0046233746275,4011.437222087667,-1.258,-2.941,-5.582,-6.517
-1.25,2100003410.2666123,1.4193269014,3475.3616144320576,3975.575449270531,-1.258,-2.986,-5.693,-6.647
-1.25,2100003410.2666123,1.4193304777,3580.9643710263585,3962.7803425543934,-1.253,-2.997,-5.728,-6.689
-1.25,2100003410.2666123,1.4193307161,3580.9643710263585,3962.7803425543934,-1.253,-2.997,-5.728,-6.689
-1.25,2100003410.2666123,1.419331193,2741.5741719278835,4057.8874759172845,-1.239,-2.863,-5.418,-6.329
-1.25,2100003410.2666123,1.4193315506,2259.435770220978,4127.622774083493,-1.199,-2.746,-5.192,-6.069
-1.25,2100003410.2666123,1.4193326235,1300.16957803329,4334.110703101766,-1.046,-2.38,-4.543,-5.327
-1.25,2100003410.2666123,1.4193341732,1309.181922999407,4330.1206773800395,-1.045,-2.382,-4.549,-5.334
-1.25,2100003410.2666123,1.4193361998,1517.050367459337,4272.676381599791,-1.087,-2.485,-4.727,-5.536
-1.25,2100003410.2666123,1.4193388224,2055.8905959841427,4157.19120675218,-1.166,-2.681,-5.083,-5.945
-1.25,2100003410.2666123,1.4193419218,2716.4392688390835,4054.1517440650287,-1.22,-2.848,-5.409,-6.323
-1.25,2100003410.2666123,1.4193456173,3273.406948788383,3984.7400971777515,-1.225,-2.939,-5.627,-6.577
-1.25,2100003410.2666123,1.4193497896,3614.0986263961313,3948.207780378827,-1.22,-2.981,-5.74,-6.709
-1.25,2100003410.2666123,1.419354558,3767.0379898390893,3930.0674134185306,-1.213,-2.996,-5.789,-6.768
-1.25,2100003410.2666123,1.4193598032,3837.0724549227884,3920.125762951651,-1.203,-2.999,-5.813,-6.797
-1.25,2100003410.2666123,1.4193600416,3419.794425137087,3960.955834906334,-1.2,-2.944,-5.678,-6.64
-1.25,2100003410.2666123,1.4193608761,2477.4220576332864,4074.740913798705,-1.175,-2.778,-5.303,-6.206
-1.25,2100003410.2666123,1.4193624258,1432.187899273544,4275.62886151586,-1.034,-2.425,-4.662,-5.47
-1.25,2100003410.2666123,1.4193645716,1442.1153515248682,4270.709194407456,-1.033,-2.429,-4.672,-5.483
-1.25,2100003410.2666123,1.4193673134,1678.8040181225606,4211.143104363183,-1.07,-2.527,-4.852,-5.689
-1.25,2100003410.2666123,1.4193708897,2269.8648518838213,4097.321098135413,-1.137,-2.714,-5.205,-6.097
-1.25,2100003410.2666123,1.4193751812,2999.16251898765,3993.006342231626,-1.158,-2.859,-5.529,-6.474
-1.25,2100003410.2666123,1.4193800688,3614.0986263961313,3922.8346253952054,-1.151,-2.941,-5.746,-6.729
-1.25,2100003410.2666123,1.4193857908,3999.4474976109736,3883.291570049549,-1.136,-2.977,-5.863,-6.868
-1.25,2100003410.2666123,1.4193922281,4197.589839910078,3861.0017636183584,-1.117,-2.987,-5.92,-6.937
-1.25,2100003410.2666123,1.4193994999,4315.19076827765,3845.032367094809,-1.097,-2.987,-5.952,-6.979
-1.25,2100003410.2666123,1.4193997383,3944.573020752785,3875.252454410245,-1.1,-2.95,-5.851,-6.86
-1.25,2100003410.2666123,1.4194008112,2877.3984147356696,3985.6577231340093,-1.094,-2.802,-5.485,-6.434
-1.25,2100003410.2666123,1.4194024801,1667.2472125510626,4182.153799140227,-1.001,-2.487,-4.851,-5.701
-1.25,2100003410.2666123,1.4194048643,1682.6740610704674,4175.418393198107,-0.995,-2.488,-4.863,-5.717
-1.25,2100003410.2666123,1.419408083,1958.844673505989,4113.391061524547,-1.018,-2.576,-5.041,-5.925
-1.25,2100003410.2666123,1.4194121361,2624.218543384442,3999.4474976109736,-1.037,-2.726,-5.382,-6.324
-1.25,2100003410.2666123,1.4194170237,3427.6778654645045,3895.8300217812994,-1.017,-2.837,-5.693,-6.691
-1.25,2100003410.2666123,1.4194226265,4102.041029866068,3823.8425365811263,-0.978,-2.892,-5.902,-6.941
-1.25,2100003410.2666123,1.419429183,4528.975799036209,3780.0713730181124,-0.935,-2.907,-6.015,-7.079
-1.25,2100003410.2666123,1.419436574,4742.419852602448,3753.185242379138,-0.894,-2.9,-6.071,-7.151
-1.25,2100003410.2666123,1.4194447994,4886.523593428336,3732.5015779572063,-0.849,-2.883,-6.106,-7.198
-1.25,2100003410.2666123,1.4194449186,4634.46919736288,3749.730022454834,-0.856,-2.867,-6.047,-7.129
-1.25,2100003410.2666123,1.4194453955,3396.2527259040853,3858.335599053513,-0.886,-2.755,-5.689,-6.709
-1.25,2100003410.2666123,1.4194462299,1972.4227361148535,4062.5619818684354,-0.897,-2.513,-5.058,-5.968
-1.25,2100003410.2666123,1.4194473028,1981.527025805099,4061.626650090735,-0.899,-2.517,-5.065,-5.974
-1.25,2100003410.2666123,1.4194488525,2290.8676527677726,4004.9767571215903,-0.896,-2.584,-5.233,-6.172
-1.25,2100003410.2666123,1.4194507599,3006.076302628232,3893.1398070156406,-0.862,-2.689,-5.553,-6.552
-1.25,2100003410.2666123,1.4194530249,3863.669770540693,3787.040939050054,-0.79,-2.751,-5.841,-6.902
-1.25,2100003410.2666123,1.4194557667,4549.880601500485,3711.931900441403,-0.711,-2.764,-6.033,-7.138
-1.25,2100003410.2666123,1.4194587469,4965.923214503363,3670.2867848109704,-0.648,-2.751,-6.136,-7.263
-1.25,2100003410.2666123,1.419462204,5152.286445817567,3651.741272548377,-0.614,-2.742,-6.181,-7.318
-1.25,2100003410.2666123,1.4194661379,5260.172663907063,3646.699688942269,-0.602,-2.743,-6.204,-7.344
-1.25,2100003410.2666123,1.4194662571,5093.308710571952,3663.532089914713,-0.627,-2.75,-6.166,-7.296
-1.25,2100003410.2666123,1.4194667339,3741.105882720533,3830.010812264487,-0.843,-2.781,-5.804,-6.837
-1.25,2100003410.2666123,1.4194674492,2177.709772353159,4146.675015156991,-1.105,-2.7,-5.16,-6.021
-1.25,2100003410.2666123,1.4194685221,2182.7299118430014,4158.148545615802,-1.128,-2.716,-5.163,-6.017
-1.25,2100003410.2666123,1.4194698334,2517.676927758854,4087.897521111197,-1.102,-2.77,-5.334,-6.222
-1.25,2100003410.2666123,1.4194716215,3288.51630875983,3942.7568959559076,-1.384,-3.061,-5.664,-6.584
-1.25,2100003410.2666123,1.4194736481,4187.935651179182,3812.4135110429906,-1.371,-3.151,-5.947,-6.932
-1.25,2100003410.2666123,1.4194761515,4909.078761526029,3732.5015779572063,-1.404,-3.22,-6.124,-7.155
-1.25,2100003410.2666123,1.4194788933,5333.348954876208,3701.689610332348,-1.436,-3.267,-6.214,-7.264
-1.25,2100003410.2666123,1.4194821119,5533.501092157366,3704.2475302995863,-1.481,-3.31,-6.253,-7.302
-1.25,2100003410.2666123,1.4194856882,5636.376558259543,3724.774624863983,-1.54,-3.359,-6.273,-7.309
