FeH,Age,Mini,L,Te,Bmag,Vmag,Jmag,Kmag
-0.25,4900044227.932367,0.0900000036,0.00042266861426560286,2424.3761335250756,19.835,17.927,11.094,10.281
-0.25,4900044227.932367,0.1000000015,0.0006668067692136219,2591.194421354662,19.309,17.41,10.599,9.781
-0.25,4900044227.932367,0.1200000048,0.0012274392311584072,2795.1170539918453,17.571,15.796,10.015,9.163
-0.25,4900044227.932367,0.1400000006,0.0018706821403657997,2922.8060659319312,16.473,14.763,9.609,8.746
-0.25,4900044227.932367,0.1599999964,0.002600159563165272,3015.0880540378826,15.707,14.041,9.289,8.424
-0.25,4900044227.932367,0.200000003,0.00427562886151586,3144.850465476959,14.672,13.054,8.797,7.935
-0.25,4900044227.932367,0.25,0.006839116472814293,3253.8685178010755,13.824,12.251,8.326,7.468
-0.25,4900044227.932367,0.3000000119,0.009954054173515275,3333.496473327569,13.209,11.667,7.947,7.091
-0.25,4900044227.932367,0.3335654736,0.012676518658578455,3379.09187437723,12.837,11.316,7.698,6.843
-0.25,4900044227.932367,0.3500000536,0.014190575216890919,3400.1650580407095,12.668,11.156,7.582,6.727
-0.25,4900044227.932367,0.4000000358,0.0199526231496888,3488.188934073285,12.121,10.642,7.241,6.386
-0.25,4900044227.932367,0.4500000179,0.028773984147356695,3597.4933515574235,11.531,10.084,6.88,6.024
-0.25,4900044227.932367,0.4503381848,0.028840315031266057,3598.321800388802,11.526,10.08,6.878,6.021
-0.25,4900044227.932367,0.5,0.04236429660495411,3743.6910398904515,10.884,9.472,6.51,5.654
-0.25,4900044227.932367,0.5194201469,0.05000345349769786,3821.202031837345,10.596,9.204,6.355,5.502
-0.25,4900044227.932367,0.5500000119,0.06397348354826482,3940.0342764474544,10.174,8.816,6.122,5.275
-0.25,4900044227.932367,0.5929927826,0.09078205301781857,4157.19120675218,9.529,8.253,5.797,4.973
-0.25,4900044227.932367,0.6000000238,0.09594006315159331,4192.759966846054,9.426,8.166,5.746,4.928
-0.25,4900044227.932367,0.6149857044,0.10839269140212036,4284.498548137013,9.175,7.958,5.634,4.834
-0.25,4900044227.932367,0.6499999762,0.14321878992735435,4499.8703387215055,8.585,7.48,5.39,4.648
-0.25,4900044227.932367,0.6583390236,0.1527566058238073,4551.9763814842045,8.447,7.369,5.334,4.609
-0.25,4900044227.932367,0.7000001073,0.20941124558508925,4810.608341479539,7.815,6.856,5.067,4.43
-0.25,4900044227.932367,0.7181414962,0.23878112829131776,4919.262524341649,7.573,6.655,4.955,4.353
-0.25,4900044227.932367,0.75,0.2999162518987651,5108.5776616335625,7.176,6.325,4.768,4.22
-0.25,4900044227.932367,0.7754279971,0.3572728381519289,5244.4506128195335,6.892,6.085,4.62,4.109
-0.25,4900044227.932367,0.7983130813,0.4168693834703354,5365.373995198518,6.651,5.881,4.49,4.009
-0.25,4900044227.932367,0.8116179109,0.45603691595129614,5432.503314924331,6.516,5.766,4.414,3.95
-0.25,4900044227.932367,0.8375505209,0.5420008904016238,5560.322736938655,6.26,5.549,4.27,3.834
-0.25,4900044227.932367,0.8466261625,0.5754399373371569,5604.024173641845,6.173,5.474,4.22,3.794
-0.25,4900044227.932367,0.8672825694,0.660693448007596,5697.705527561363,5.983,5.311,4.104,3.698
-0.25,4900044227.932367,0.8935809135,0.7834296427662117,5812.9956772538835,5.745,5.107,3.957,3.574
-0.25,4900044227.932367,0.8949391842,0.7906786279998251,5818.35211048072,5.733,5.097,3.95,3.567
-0.25,4900044227.932367,0.9077906013,0.8609937521846006,5869.48503947816,5.619,4.998,3.876,3.504
-0.25,4900044227.932367,0.9243463874,0.9594006315159331,5934.716805530554,5.473,4.872,3.782,3.422
-0.25,4900044227.932367,0.9394571185,1.0616955571987245,5991.0093861135365,5.342,4.758,3.695,3.346
-0.25,4900044227.932367,0.9432522058,1.0889300933334334,6004.820089075465,5.308,4.73,3.673,3.327
-0.25,4900044227.932367,0.9538639784,1.1668096170609625,6042.2682204988105,5.217,4.65,3.61,3.27
-0.25,4900044227.932367,0.967613101,1.2793813041575246,6086.953723349015,5.1,4.546,3.527,3.196
-0.25,4900044227.932367,0.980373323,1.3963683610559376,6127.735345213944,4.992,4.45,3.449,3.125
-0.25,4900044227.932367,0.9915652275,1.506607066186742,6161.692202002784,4.896,4.365,3.378,3.061
-0.25,4900044227.932367,0.9925047755,1.5135612484362082,6164.530419598767,4.888,4.358,3.372,3.055
-0.25,4900044227.932367,1.0051321983,1.651961798229015,6200.118642087248,4.782,4.262,3.292,2.981
-0.25,4900044227.932367,1.0172119141,1.7947336268325265,6231.60618945834,4.681,4.17,3.213,2.907
-0.25,4900044227.932367,1.0282356739,1.931968317016924,6258.928639214407,4.59,4.086,3.141,2.84
-0.25,4900044227.932367,1.0388045311,2.07491351745491,6280.58358813318,4.506,4.008,3.072,2.774
-0.25,4900044227.932367,1.0398783684,2.0892961308540396,6282.029912455561,4.497,4.0,3.065,2.768
-0.25,4900044227.932367,1.0441602468,2.147830474130534,6290.714855478365,4.463,3.969,3.038,2.741
-0.25,4900044227.932367,1.0613275766,2.409905428686595,6316.841792875155,4.33,3.843,2.923,2.631
-0.25,4900044227.932367,1.0746912956,2.654605561975539,6337.237741643961,4.217,3.737,2.825,2.537
-0.25,4900044227.932367,1.0860632658,2.890679882365476,6353.309318517436,4.118,3.642,2.737,2.452
-0.25,4900044227.932367,1.0881915092,2.937649651961531,6354.77239048616,4.1,3.625,2.721,2.435
-0.25,4900044227.932367,1.0885374546,2.944421633798761,6354.77239048616,4.097,3.622,2.718,2.433
-0.25,4900044227.932367,1.097871542,3.169567463043491,6362.092805735179,4.013,3.541,2.641,2.356
-0.25,4900044227.932367,1.1074889898,3.4276778654645037,6363.55790040944,3.927,3.455,2.556,2.272
-0.25,4900044227.932367,1.118822813,3.77572190925416,6354.77239048616,3.824,3.351,2.448,2.164
-0.25,4900044227.932367,1.1286062002,4.111497211045222,6334.320007697662,3.735,3.258,2.348,2.06
-0.25,4900044227.932367,1.1314682961,4.216965034285822,6325.574863525833,3.709,3.231,2.318,2.029
-0.25,4900044227.932367,1.1365044117,4.425883723626265,6300.862465664393,3.666,3.181,2.258,1.965
-0.25,4900044227.932367,1.1378623247,4.487453899331322,6292.163512879859,3.653,3.166,2.24,1.946
-0.25,4900044227.932367,1.1422924995,4.677351412871983,6257.487633544409,3.617,3.121,2.181,1.882
-0.25,4900044227.932367,1.1464303732,4.864072056914616,6215.842477525222,3.589,3.082,2.124,1.818
-0.25,4900044227.932367,1.1508028507,5.046612975635283,6156.019686448958,3.568,3.045,2.063,1.747
-0.25,4900044227.932367,1.1563614607,5.248074602497725,6047.835918818006,3.565,3.012,1.983,1.647
-0.25,4900044227.932367,1.161182642,5.260172663907062,5885.725452612013,3.627,3.026,1.921,1.552
-0.25,4900044227.932367,1.1642380953,5.116818355403077,5727.960309858292,3.726,3.078,1.897,1.497
-0.25,4900044227.932367,1.1658488512,4.9888448746001215,5623.413251903491,3.802,3.124,1.89,1.468
-0.25,4900044227.932367,1.1672310829,4.852885001621211,5524.589326132767,3.878,3.172,1.886,1.442
-0.25,4900044227.932367,1.1682809591,4.742419852602447,5445.026528424214,3.943,3.214,1.885,1.422
-0.25,4900044227.932367,1.1696090698,4.698941086052154,5354.266700982399,4.004,3.248,1.868,1.383
-0.25,4900044227.932367,1.171236515,4.786300923226384,5263.807517745308,4.033,3.25,1.818,1.31
-0.25,4900044227.932367,1.1732755899,5.152286445817564,5186.8059455744215,3.999,3.193,1.714,1.186
-0.25,4900044227.932367,1.1734969616,5.211947111050804,5179.645056050334,3.993,3.185,1.701,1.171
-0.25,4900044227.932367,1.1737716198,5.284452517751804,5172.494052829933,3.981,3.171,1.683,1.151
-0.25,4900044227.932367,1.1754260063,5.821032177708714,5136.886854227248,3.899,3.078,1.568,1.026
-0.25,4900044227.932367,1.1769795418,6.4416926551517735,5108.5776616335625,3.807,2.977,1.449,0.9
-0.25,4900044227.932367,1.1786966324,7.294575102545687,5082.764640683731,3.691,2.851,1.306,0.75
-0.25,4900044227.932367,1.1801034212,8.147042840208396,5061.74194011213,3.584,2.737,1.179,0.617
-0.25,4900044227.932367,1.181184411,8.953647655495937,5045.4510838273745,3.494,2.641,1.072,0.506
-0.25,4900044227.932367,1.1824467182,10.046157902783952,5025.739801095915,3.381,2.521,0.94,0.368
-0.25,4900044227.932367,1.1835976839,11.297959146727976,5004.95295959168,3.269,2.402,0.807,0.229
-0.25,4900044227.932367,1.1846818924,12.735030810166617,4981.957289567119,3.156,2.28,0.669,0.085
-0.25,4900044227.932367,1.1848175526,12.941958414499863,4979.663541644856,3.141,2.264,0.651,0.066
-0.25,4900044227.932367,1.1857235432,14.35489433353656,4959.067275049038,3.044,2.158,0.532,-0.06
-0.25,4900044227.932367,1.1866326332,16.106456351782708,4936.28243059449,2.938,2.043,0.399,-0.199
-0.25,4900044227.932367,1.1874117851,17.947336268325266,4913.6022729909155,2.84,1.935,0.275,-0.329
-0.25,4900044227.932367,1.1881108284,19.952623149688797,4889.900250464924,2.744,1.829,0.153,-0.459
-0.25,4900044227.932367,1.1887578964,22.23309890651403,4866.312560731986,2.648,1.723,0.029,-0.59
-0.25,4900044227.932367,1.1893268824,24.603676041476273,4841.7236758409945,2.556,1.622,-0.089,-0.716
-0.25,4900044227.932367,1.1898547411,27.289777828080403,4817.25903559163,2.464,1.521,-0.209,-0.843
-0.25,4900044227.932367,1.1903464794,30.338911841942704,4791.814529082236,2.372,1.419,-0.33,-0.972
-0.25,4900044227.932367,1.1907942295,33.57376142429547,4766.504419105543,2.284,1.32,-0.448,-1.099
-0.25,4900044227.932367,1.191187501,36.982817978026624,4741.3279957862,2.201,1.227,-0.56,-1.22
-0.25,4900044227.932367,1.1915726662,40.926065973001094,4715.198713364481,2.116,1.131,-0.677,-1.345
-0.25,4900044227.932367,1.1919252872,45.08167045414601,4690.293284059374,2.036,1.04,-0.788,-1.465
-0.25,4900044227.932367,1.1922717094,49.20395356814509,4666.593803142887,1.966,0.957,-0.891,-1.575
-0.25,4900044227.932367,1.1927142143,53.33348954876211,4646.222461325775,1.903,0.882,-0.984,-1.675
-0.25,4900044227.932367,1.192898035,51.40436515824262,4658.005532200294,1.929,0.915,-0.94,-1.627
-0.25,4900044227.932367,1.1931369305,47.20630412635904,4684.8964916001305,1.99,0.991,-0.841,-1.519
-0.25,4900044227.932367,1.1932381392,45.18559443749224,4698.941086052156,2.024,1.032,-0.789,-1.462
-0.25,4900044227.932367,1.1933885813,47.64309868054156,4684.8964916001305,1.982,0.982,-0.85,-1.529
-0.25,4900044227.932367,1.193692565,52.722986142282274,4655.860935229591,1.903,0.887,-0.97,-1.657
-0.25,4900044227.932367,1.1939911842,58.613816451402876,4627.00533236181,1.823,0.79,-1.092,-1.789
-0.25,4900044227.932367,1.1942631006,64.86344335482384,4598.328567699996,1.746,0.697,-1.21,-1.917
-0.25,4900044227.932367,1.1945163012,71.77942912713618,4569.82953285961,1.67,0.604,-1.329,-2.045
-0.25,4900044227.932367,1.1947524548,79.43282347242814,4540.461526048465,1.597,0.513,-1.447,-2.174
-0.25,4900044227.932367,1.194965601,87.4983775227436,4511.282252715862,1.526,0.426,-1.562,-2.299
-0.25,4900044227.932367,1.195168376,96.8277856261249,4482.290499966203,1.455,0.336,-1.679,-2.426
-0.25,4900044227.932367,1.1953486204,106.6596121230258,4453.485062698576,1.387,0.251,-1.792,-2.55
-0.25,4900044227.932367,1.1955177784,117.76059735208078,4423.845998088853,1.323,0.166,-1.907,-2.675
-0.25,4900044227.932367,1.19567132,129.7179270983956,4394.404188918088,1.263,0.08,-2.018,-2.795
-0.25,4900044227.932367,1.1958142519,142.8893958511102,4365.158322401661,1.202,-0.005,-2.131,-2.916
-0.25,4900044227.932367,1.1959471703,157.39828644662197,4335.108783875289,1.144,-0.089,-2.243,-3.037
-0.25,4900044227.932367,1.1960680485,173.38039977541374,4306.257543211735,1.086,-0.171,-2.352,-3.156
-0.25,4900044227.932367,1.1961816549,190.54607179632464,4277.59831482038,1.028,-0.254,-2.463,-3.276
-0.25,4900044227.932367,1.1962840557,209.41124558508935,4248.15153514646,0.971,-0.333,-2.57,-3.393
-0.25,4900044227.932367,1.1963794231,230.14418174085088,4219.879016871569,0.916,-0.411,-2.677,-3.511
-0.25,4900044227.932367,1.1964691877,252.92979964461446,4189.864710967686,0.859,-0.49,-2.785,-3.631
-0.25,4900044227.932367,1.1965503693,277.3320104651841,4161.021885174549,0.804,-0.566,-2.891,-3.748
-0.25,4900044227.932367,1.19662714,304.7894989627983,4131.426206427586,0.756,-0.636,-3.0,-3.87
-0.25,4900044227.932367,1.1966956854,333.4264127632351,4102.985668470057,0.709,-0.703,-3.105,-3.988
-0.25,4900044227.932367,1.1967612505,365.59479161312504,4074.740913798705,0.662,-0.771,-3.212,-4.108
-0.25,4900044227.932367,1.1968216896,400.866717627303,4045.7589169744288,0.619,-0.834,-3.318,-4.228
-0.25,4900044227.932367,1.1968765259,437.5221051582521,4017.9081084894,0.578,-0.895,-3.42,-4.343
-0.25,4900044227.932367,1.1969283819,478.6300923226385,3989.3303406008604,0.538,-0.955,-3.524,-4.461
-0.25,4900044227.932367,1.1969772577,523.6004365857501,3960.0438961152527,0.499,-1.013,-3.627,-4.578
-0.25,4900044227.932367,1.1970207691,570.1642722807472,3932.7831456834174,0.464,-1.065,-3.726,-4.69
-0.25,4900044227.932367,1.1970635653,622.3002851691596,3903.9118250765996,0.431,-1.118,-3.828,-4.808
-0.25,4900044227.932367,1.1971021891,677.641507610675,3875.252454410245,0.402,-1.166,-3.927,-4.92
-0.25,4900044227.932367,1.1971466541,753.355563733717,3841.4925917875894,0.372,-1.217,-4.049,-5.059
-0.25,4900044227.932367,1.1971801519,818.4647881347895,3813.2914527677754,0.349,-1.259,-4.147,-5.171
-0.25,4900044227.932367,1.1972122192,891.2509381337459,3783.5545512323115,0.333,-1.29,-4.247,-5.285
-0.25,4900044227.932367,1.1972475052,984.0111057611335,3748.8667146053936,0.32,-1.319,-4.365,-5.419
-0.25,4900044227.932367,1.1972805262,1086.4256236170656,3714.496897976222,0.307,-1.348,-4.481,-5.552
-0.25,4900044227.932367,1.1973112822,1196.7405313072431,3680.4421857199322,0.305,-1.357,-4.597,-5.685
-0.25,4900044227.932367,1.1973398924,1318.2567385564075,3645.0207083030436,0.307,-1.363,-4.713,-5.816
-0.25,4900044227.932367,1.1973661184,1448.7718535447616,3610.7714510035285,0.321,-1.352,-4.825,-5.945
-0.25,4900044227.932367,1.1973906755,1588.546748597779,3576.0205018090237,0.347,-1.327,-4.938,-6.073
-0.25,4900044227.932367,1.1974136829,1741.8068733916145,3541.6040042646177,0.381,-1.291,-5.051,-6.201
-0.25,4900044227.932367,1.1974349022,1905.4607179632462,3506.711196464777,0.433,-1.228,-5.16,-6.325
-0.25,4900044227.932367,1.1974549294,2079.696687103696,3472.9617486579155,0.49,-1.161,-5.268,-6.448
-0.25,4900044227.932367,1.1974738836,2264.6443075930597,3438.7452222912716,0.56,-1.073,-5.375,-6.569
-0.25,4900044227.932367,1.1974912882,2437.8108183687523,3409.5730529319967,0.628,-0.988,-5.468,-6.673
-0.25,4900044227.932367,1.1974912882,56.36376558259543,4840.60895610673,1.66,0.717,-0.99,-1.615
-0.25,4900044227.932367,1.1977088451,57.94286964268809,4830.5880203977285,1.642,0.693,-1.022,-1.649
-0.25,4900044227.932367,1.197924614,58.47900841444806,4827.252320650396,1.632,0.682,-1.035,-1.663
-0.25,4900044227.932367,1.1981412172,58.74893525297766,4828.363964551585,1.628,0.679,-1.037,-1.665
-0.25,4900044227.932367,1.1983613968,58.613816451402876,4831.700432460599,1.627,0.679,-1.035,-1.662
-0.25,4900044227.932367,1.198584199,58.47900841444806,4836.152643020435,1.625,0.679,-1.031,-1.656
-0.25,4900044227.932367,1.1988033056,58.34451042737448,4840.60895610673,1.624,0.68,-1.027,-1.651
-0.25,4900044227.932367,1.1990045309,58.21032177708713,4845.069375499792,1.623,0.681,-1.023,-1.646
-0.25,4900044227.932367,1.1992270947,58.07644175213121,4849.5339049834165,1.622,0.681,-1.019,-1.641
-0.25,4900044227.932367,1.1994490623,57.94286964268809,4852.88500162121,1.62,0.681,-1.017,-1.637
-0.25,4900044227.932367,1.1996614933,57.94286964268809,4856.238413914264,1.619,0.681,-1.014,-1.634
-0.25,4900044227.932367,1.1998704672,57.80960474057181,4859.594143462719,1.617,0.68,-1.013,-1.631
-0.25,4900044227.932367,1.2000747919,57.80960474057181,4861.832584649837,1.615,0.68,-1.011,-1.629
-0.25,4900044227.932367,1.2002837658,57.80960474057181,4864.072056914614,1.613,0.679,-1.01,-1.627
-0.25,4900044227.932367,1.2005060911,57.80960474057181,4867.433199621377,1.611,0.677,-1.01,-1.625
-0.25,4900044227.932367,1.2005577087,57.80960474057181,4867.433199621377,1.61,0.677,-1.01,-1.625
-0.25,4900044227.932367,1.2005833387,57.80960474057181,4867.433199621377,1.61,0.677,-1.01,-1.625
-0.25,4900044227.932367,1.2008038759,57.80960474057181,4869.675251658631,1.607,0.675,-1.009,-1.624
-0.25,4900044227.932367,1.2010322809,57.94286964268809,4871.918336436785,1.605,0.674,-1.01,-1.624
-0.25,4900044227.932367,1.2012492418,57.94286964268809,4874.162454431541,1.602,0.671,-1.011,-1.624
-0.25,4900044227.932367,1.2014600039,58.07644175213121,4874.162454431541,1.599,0.669,-1.012,-1.626
-0.25,4900044227.932367,1.2016698122,58.21032177708713,4875.284901033865,1.596,0.666,-1.015,-1.628
-0.25,4900044227.932367,1.2018795013,58.34451042737448,4875.284901033865,1.593,0.663,-1.018,-1.631
-0.25,4900044227.932367,1.2020968199,58.613816451402876,4875.284901033865,1.59,0.659,-1.022,-1.635
-0.25,4900044227.932367,1.2021318674,58.613816451402876,4875.284901033865,1.589,0.659,-1.022,-1.635
-0.25,4900044227.932367,1.2022053003,58.74893525297766,4875.284901033865,1.588,0.657,-1.024,-1.637
-0.25,4900044227.932367,1.2024258375,59.02010801718442,4874.162454431541,1.583,0.652,-1.03,-1.643
-0.25,4900044227.932367,1.2026541233,59.42921586155727,4871.918336436785,1.578,0.646,-1.038,-1.652
-0.25,4900044227.932367,1.2028771639,59.84115950603196,4868.554096577112,1.573,0.639,-1.047,-1.662
-0.25,4900044227.932367,1.2031058073,60.39486293763797,4865.192179849536,1.566,0.63,-1.059,-1.675
-0.25,4900044227.932367,1.2033411264,61.235039172477336,4859.594143462719,1.558,0.619,-1.074,-1.691
-0.25,4900044227.932367,1.2035678625,61.94410750767815,4854.002548344871,1.549,0.608,-1.09,-1.709
-0.25,4900044227.932367,1.2037947178,62.95061828571975,4847.301126243664,1.539,0.594,-1.108,-1.729
-0.25,4900044227.932367,1.2040199041,62.95061828571975,4848.4173870844625,1.537,0.593,-1.109,-1.729
-0.25,4900044227.932367,1.2042486668,64.86344335482384,4832.813100695309,1.518,0.568,-1.145,-1.771
-0.25,4900044227.932367,1.2044756413,68.54882264526617,4806.1796472595415,1.483,0.519,-1.215,-1.849
-0.25,4900044227.932367,1.2046601772,75.16228940182053,4763.212971455834,1.427,0.442,-1.325,-1.972
-0.25,4900044227.932367,1.2047464848,82.03515443298181,4722.804843922316,1.372,0.366,-1.433,-2.093
-0.25,4900044227.932367,1.2047917843,90.57326008982002,4680.583528968204,1.309,0.282,-1.553,-2.227
-0.25,4900044227.932367,1.2048114538,98.8553094656939,4643.01407281803,1.256,0.208,-1.659,-2.345
-0.25,4900044227.932367,1.2048215866,107.89467222298286,4605.746173947351,1.202,0.134,-1.766,-2.465
-0.25,4900044227.932367,1.2048276663,118.30415557251646,4567.725533088667,1.145,0.058,-1.875,-2.587
-0.25,4900044227.932367,1.2048306465,126.18275345906706,4542.552967388711,1.109,0.005,-1.951,-2.672
-0.25,4900044227.932367,1.2048317194,129.41958414499862,4532.1053854810425,1.095,-0.017,-1.982,-2.705
-0.25,4900044227.932367,1.2048351765,141.5793779957081,4496.763011769069,1.046,-0.094,-2.089,-2.823
-0.25,4900044227.932367,1.2048382759,153.81546403030342,4465.8075129335175,1.0,-0.164,-2.187,-2.93
-0.25,4900044227.932367,1.204841733,162.9296032639723,4443.242331287159,0.969,-0.212,-2.256,-3.005
-0.25,4900044227.932367,1.2048500776,161.80800376430662,4446.312674691088,0.972,-0.206,-2.246,-2.995
-0.25,4900044227.932367,1.2048568726,153.10874616820303,4467.864566912838,1.001,-0.161,-2.182,-2.924
-0.25,4900044227.932367,1.2048742771,142.8893958511102,4493.657830540859,1.039,-0.103,-2.101,-2.835
-0.25,4900044227.932367,1.2050242424,147.91083881682073,4480.226804128664,1.021,-0.132,-2.142,-2.88
-0.25,4900044227.932367,1.2051105499,163.30519478943347,4441.1966136558885,0.969,-0.214,-2.258,-3.008
-0.25,4900044227.932367,1.2051903009,180.71741260109275,4402.50644073913,0.914,-0.298,-2.378,-3.141
-0.25,4900044227.932367,1.2052564621,199.52623149688787,4366.163552976836,0.861,-0.38,-2.493,-3.268
-0.25,4900044227.932367,1.2053127289,219.78598727848254,4330.1206773800395,0.81,-0.457,-2.605,-3.392
-0.25,4900044227.932367,1.2053619623,241.54608344449403,4294.375337334884,0.76,-0.534,-2.715,-3.515
-0.25,4900044227.932367,1.2054049969,265.4605561975539,4259.9058433220425,0.709,-0.61,-2.825,-3.636
-0.25,4900044227.932367,1.2054427862,291.0717118066605,4226.686142656029,0.66,-0.683,-2.932,-3.757
-0.25,4900044227.932367,1.2054767609,319.88951096913974,4192.759966846054,0.616,-0.751,-3.042,-3.882
-0.25,4900044227.932367,1.2055073977,350.75187395256796,4159.106104940223,0.572,-0.818,-3.15,-4.005
-0.25,4900044227.932367,1.2055356503,384.5917820453535,4123.822843217308,0.534,-0.879,-3.258,-4.129
-0.25,4900044227.932367,1.2055556774,412.0975190973304,4071.927154442865,0.547,-0.897,-3.345,-4.241
-0.25,4900044227.932367,1.2055805922,451.85594437492216,4035.5246088074728,0.517,-0.952,-3.453,-4.366
-0.25,4900044227.932367,1.205604434,495.45019080479005,4004.0546833054636,0.48,-1.011,-3.559,-4.488
-0.25,4900044227.932367,1.2056264877,543.250331492433,3971.915494694405,0.446,-1.068,-3.665,-4.61
-0.25,4900044227.932367,1.205647707,594.2921586155727,3939.1271544686583,0.415,-1.118,-3.77,-4.73
-0.25,4900044227.932367,1.2056691647,650.1296903430909,3906.609483459363,0.386,-1.169,-3.876,-4.853
-0.25,4900044227.932367,1.2056888342,712.8530301265198,3872.576449216173,0.365,-1.212,-3.983,-4.977
-0.25,4900044227.932367,1.2057037354,778.0365510398041,3839.723926353774,0.348,-1.249,-4.087,-5.097
-0.25,4900044227.932367,1.2057135105,839.4599865193973,3811.5357714484903,0.335,-1.28,-4.176,-5.2
-0.25,4900044227.932367,1.2057214975,912.0108393559096,3780.0713730181124,0.326,-1.305,-4.273,-5.312
-0.25,4900044227.932367,1.2057287693,988.553094656939,3748.8667146053936,0.321,-1.324,-4.371,-5.425
-0.25,4900044227.932367,1.205735445,1076.465213629835,3716.2078809514237,0.319,-1.341,-4.47,-5.54
-0.25,4900044227.932367,1.20574224,1177.6059735208078,3679.594830147843,0.33,-1.336,-4.579,-5.666
-0.25,4900044227.932367,1.2057480812,1279.3813041575252,3645.0207083030436,0.344,-1.329,-4.68,-5.783
-0.25,4900044227.932367,1.2057546377,1402.8137045619576,3605.7864302164235,0.375,-1.3,-4.791,-5.913
-0.25,4900044227.932367,1.2057621479,1559.552502826954,3559.59018006083,0.43,-1.244,-4.923,-6.065
-0.25,4900044227.932367,1.2057665586,1857.8044550916989,3479.3650764909435,0.574,-1.075,-5.145,-6.322
-0.25,4900044227.932367,1.2057676315,1963.3602768360474,3455.413295778485,0.627,-1.011,-5.213,-6.4
-0.25,4900044227.932367,1.205768466,2037.042077705719,3437.953513094916,0.672,-0.955,-5.26,-6.454
-0.25,4900044227.932367,1.2057700157,2009.0928126087279,3439.5371138063997,0.675,-0.952,-5.246,-6.439
-0.25,4900044227.932367,1.2057701349,2084.4908830972886,3422.9456231604145,0.717,-0.9,-5.292,-6.491
-0.25,4900044227.932367,1.2057702541,1958.844673505989,3449.848313627505,0.655,-0.978,-5.213,-6.402
-0.25,4900044227.932367,1.2057703733,1883.6490894898002,3464.974158289286,0.622,-1.02,-5.163,-6.346
-0.25,4900044227.932367,1.2057704926,2060.6299132700005,3429.2567329756016,0.7,-0.921,-5.276,-6.473
-0.25,4900044227.932367,1.2057706118,2027.6827195212818,3435.5794789987463,0.685,-0.94,-5.257,-6.451
-0.25,4900044227.932367,1.2057709694,2060.6299132700005,3427.6778654645045,0.706,-0.914,-5.279,-6.476
-0.25,4900044227.932367,1.2057714462,2162.71852372702,3407.218616593573,0.755,-0.852,-5.339,-6.545
-0.25,4900044227.932367,1.2057718039,2032.3570109362208,3428.467208333132,0.717,-0.902,-5.263,-6.46
-0.25,4900044227.932367,1.2057722807,2162.71852372702,3403.2981684204196,0.775,-0.829,-5.341,-6.548
-0.25,4900044227.932367,1.2057727575,2285.59880337543,3379.8700286198914,0.84,-0.747,-5.41,-6.627
-0.25,4900044227.932367,1.2057732344,2404.362800006932,3357.3761424295453,0.918,-0.648,-5.477,-6.702
-0.25,4900044227.932367,1.2057739496,2558.585886905645,3328.894257585374,1.019,-0.522,-5.556,-6.793
-0.25,4900044227.932367,1.2057747841,2710.1916318908416,3302.934793960337,1.125,-0.386,-5.63,-6.877
-0.25,4900044227.932367,1.2057759762,2837.9190284415554,3280.9529311311903,1.228,-0.251,-5.689,-6.944
-0.25,4900044227.932367,1.2057769299,2897.3435877013244,3269.640468343053,1.284,-0.178,-5.718,-6.978
-0.25,4900044227.932367,1.2057770491,1674.9428760264382,3501.8698409688745,0.586,-1.067,-5.023,-6.191
-0.25,4900044227.932367,1.2057771683,1297.1792709839558,3614.9308991735757,0.426,-1.248,-4.704,-5.822
-0.25,4900044227.932367,1.2057774067,845.27884516029,3813.2914527677754,0.332,-1.289,-4.184,-5.206
-0.25,4900044227.932367,1.2057777643,874.9837752274364,3795.7709700253163,0.338,-1.292,-4.225,-5.256
-0.25,4900044227.932367,1.2057781219,1135.0108156723154,3671.977403587995,0.392,-1.275,-4.542,-5.633
-0.25,4900044227.932367,1.205778718,1618.0800376430661,3509.942484670127,0.585,-1.07,-4.983,-6.147
-0.25,4900044227.932367,1.2057794333,2187.761623949552,3378.313899290581,0.891,-0.692,-5.363,-6.58
-0.25,4900044227.932367,1.2057801485,2648.500138606701,3295.3382547359615,1.198,-0.299,-5.608,-6.858
-0.25,4900044227.932367,1.205780983,2917.427014001166,3252.370400952974,1.391,-0.043,-5.733,-6.999
-0.25,4900044227.932367,1.2057820559,3040.88502567628,3232.2132033960884,1.487,0.084,-5.787,-7.059
-0.25,4900044227.932367,1.2057831287,3097.419299216581,3221.0687912834346,1.542,0.156,-5.812,-7.088
-0.25,4900044227.932367,1.2057831287,2060.6299132700005,3389.221868727554,0.887,-0.702,-5.295,-6.508
-0.25,4900044227.932367,1.2057833672,1402.8137045619576,3555.4944085859292,0.546,-1.12,-4.81,-5.955
-0.25,4900044227.932367,1.2057836056,914.1132414702499,3750.5935291111437,0.401,-1.243,-4.286,-5.339
-0.25,4900044227.932367,1.2057840824,946.237161365793,3734.220854303426,0.408,-1.242,-4.326,-5.388
-0.25,4900044227.932367,1.2057845592,1224.6161992650489,3613.2665452345186,0.488,-1.181,-4.642,-5.761
-0.25,4900044227.932367,1.2057851553,1741.8068733916145,3456.209025701263,0.741,-0.888,-5.081,-6.269
-0.25,4900044227.932367,1.2057859898,2338.837238659356,3328.1278395965264,1.114,-0.419,-5.458,-6.695
-0.25,4900044227.932367,1.2057868242,2824.8799749157074,3247.1324216780226,1.457,0.034,-5.7,-6.967
-0.25,4900044227.932367,1.2057878971,3104.5595881283557,3205.531138700436,1.643,0.282,-5.823,-7.104
-0.25,4900044227.932367,1.20578897,3228.4941217126348,3187.1316270228012,1.735,0.403,-5.874,-7.162
-0.25,4900044227.932367,1.2057902813,3288.51630875983,3176.8740706497692,1.79,0.475,-5.898,-7.189
-0.25,4900044227.932367,1.2057904005,2223.309890651403,3337.3365130514867,1.109,-0.431,-5.4,-6.633
-0.25,4900044227.932367,1.2057905197,1517.050367459337,3501.8698409688745,0.682,-0.965,-4.916,-6.083
-0.25,4900044227.932367,1.2057908773,990.8319448927675,3695.72799739443,0.465,-1.195,-4.386,-5.466
-0.25,4900044227.932367,1.2057913542,1025.651926251408,3678.7476696641274,0.478,-1.184,-4.429,-5.516
-0.25,4900044227.932367,1.2057919502,1321.2956341865752,3560.4099003595707,0.593,-1.071,-4.743,-5.886
-0.25,4900044227.932367,1.2057926655,1866.3796908346694,3404.865806080549,0.911,-0.686,-5.18,-6.387
-0.25,4900044227.932367,1.2057936192,2500.345361696432,3278.687311745482,1.365,-0.102,-5.552,-6.807
-0.25,4900044227.932367,1.2057945728,3013.006024186122,3198.895109691397,1.721,0.372,-5.792,-7.075
-0.25,4900044227.932367,1.2057957649,3303.6954103681487,3157.1847762703,1.915,0.628,-5.913,-7.211
-0.25,4900044227.932367,1.2057971954,3435.5794789987463,3138.340056432409,1.994,0.73,-5.965,-7.268
-0.25,4900044227.932367,1.2057986259,3499.451670283573,3127.519311407983,2.043,0.792,-5.989,-7.296
-0.25,4900044227.932367,1.2057987452,2415.4608344449402,3280.1975507699003,1.392,-0.077,-5.515,-6.771
-0.25,4900044227.932367,1.2057988644,1655.7699634695275,3443.4993076333844,0.853,-0.767,-5.032,-6.224
-0.25,4900044227.932367,1.205799222,1081.4339512979375,3637.4748564263245,0.543,-1.126,-4.499,-5.606
-0.25,4900044227.932367,1.2057996988,1119.4378834671513,3619.928562242391,0.563,-1.106,-4.541,-5.657
-0.25,4900044227.932367,1.2058004141,1435.489433353656,3502.6762691381296,0.74,-0.907,-4.855,-6.023
-0.25,4900044227.932367,1.2058011293,2013.7242498623875,3348.883193942221,1.144,-0.405,-5.287,-6.516
-0.25,4900044227.932367,1.205802083,2679.1683248190316,3223.2945954551496,1.673,0.289,-5.653,-6.928
-0.25,4900044227.932367,1.2058032751,3213.660538640318,3143.4025417390094,2.028,0.76,-5.889,-7.191
-0.25,4900044227.932367,1.2058044672,3523.7087104248726,3100.9873885323427,2.202,0.982,-6.01,-7.324
-0.25,4900044227.932367,1.2058058977,3655.9479161312506,3081.0588948997392,2.278,1.07,-6.061,-7.381
-0.25,4900044227.932367,1.2058074474,3723.917062545687,3069.728738183665,2.317,1.109,-6.086,-7.409
-0.25,4900044227.932367,1.2058075666,2636.3313858253787,3212.9206511412604,1.756,0.387,-5.641,-6.92
-0.25,4900044227.932367,1.2058076859,1815.515662773135,3377.5361033186905,1.091,-0.485,-5.16,-6.378
-0.25,4900044227.932367,1.2058080435,1185.7687481671596,3573.5511273490297,0.666,-1.001,-4.62,-5.757
-0.25,4900044227.932367,1.2058085203,1224.6161992650489,3555.4944085859292,0.694,-0.972,-4.663,-5.808
-0.25,4900044227.932367,1.2058092356,1566.7510701081485,3438.7452222912716,0.939,-0.679,-4.975,-6.168
-0.25,4900044227.932367,1.2058099508,2177.709772353159,3286.2454665820464,1.459,-0.019,-5.399,-6.652
-0.25,4900044227.932367,1.2058109045,2870.780582024692,3162.2776601683795,2.03,0.74,-5.759,-7.055
-0.25,4900044227.932367,1.2058120966,3427.6778654645045,3083.1879502493534,2.337,1.13,-5.99,-7.31
-0.25,4900044227.932367,1.2058132887,3749.730022454834,3041.585295947742,2.449,1.239,-6.107,-7.437
-0.25,4900044227.932367,1.2058147192,3890.4514499428046,3022.0385498282735,2.512,1.298,-6.157,-7.492
-0.25,4900044227.932367,1.2058162689,3953.666200681279,3010.925432053001,2.545,1.329,-6.181,-7.518
-0.25,4900044227.932367,1.2058163881,2877.3984147356696,3147.023601705661,2.129,0.854,-5.768,-7.068
-0.25,4900044227.932367,1.2058165073,1986.0949173573717,3313.599377790872,1.383,-0.137,-5.287,-6.53
-0.25,4900044227.932367,1.205816865,1300.16957803329,3514.7950006430638,0.808,-0.852,-4.743,-5.904
-0.25,4900044227.932367,1.2058173418,1342.7649611378642,3497.840484251412,0.844,-0.81,-4.785,-5.954
-0.25,4900044227.932367,1.2058179379,1706.0823890031243,3382.20556669654,1.139,-0.449,-5.093,-6.308
-0.25,4900044227.932367,1.2058186531,2349.6328208483073,3232.2132033960884,1.766,0.364,-5.508,-6.78
-0.25,4900044227.932367,1.2058196068,3076.096814740708,3110.283668685142,2.303,1.07,-5.859,-7.171
-0.25,4900044227.932367,1.2058205605,3655.9479161312506,3033.891184194272,2.535,1.319,-6.084,-7.416
-0.25,4900044227.932367,1.2058217525,3981.0717055349733,2995.711592427998,2.623,1.4,-6.197,-7.538
-0.25,4900044227.932367,1.2058231831,4120.975190973304,2979.8884028194198,2.658,1.43,-6.243,-7.588
-0.25,4900044227.932367,1.2058246136,4197.589839910078,2973.0348496770193,2.676,1.445,-6.265,-7.611
