FeH,Age,Mini,L,Te,Bmag,Vmag,Jmag,Kmag
-0.25,3599979270.4335685,0.0900000036,0.00042169650342858224,2424.3761335250756,19.836,17.928,11.095,10.282
-0.25,3599979270.4335685,0.0950547084,0.0005345643593969719,2508.9961794654014,19.563,17.659,10.838,10.023
-0.25,3599979270.4335685,0.1000000015,0.0006668067692136219,2591.194421354662,19.309,17.41,10.599,9.782
-0.25,3599979270.4335685,0.1200000048,0.0012274392311584072,2794.473528597117,17.575,15.8,10.016,9.164
-0.25,3599979270.4335685,0.1400000006,0.0018706821403657997,2922.13314244037,16.477,14.767,9.61,8.747
-0.25,3599979270.4335685,0.1599999964,0.002594179362118815,3014.3938842794687,15.711,14.045,9.29,8.425
-0.25,3599979270.4335685,0.200000003,0.004265795188015926,3144.126420258796,14.677,13.059,8.799,7.937
-0.25,3599979270.4335685,0.25,0.0067920363261718434,3253.1193731384888,13.835,12.261,8.334,7.477
-0.25,3599979270.4335685,0.3000000119,0.009817479430199843,3333.496473327569,13.223,11.681,7.961,7.106
-0.25,3599979270.4335685,0.3500000536,0.01412537544622754,3399.3822312328007,12.674,11.162,7.587,6.732
-0.25,3599979270.4335685,0.4000000358,0.01981527025805098,3488.188934073285,12.129,10.65,7.249,6.394
-0.25,3599979270.4335685,0.4250207543,0.023933157564053877,3543.2353487838454,11.822,10.361,7.063,6.208
-0.25,3599979270.4335685,0.4500000179,0.028575905433749466,3596.665093461474,11.54,10.094,6.888,6.032
-0.25,3599979270.4335685,0.5,0.041879356511791845,3741.105882720533,10.899,9.486,6.521,5.665
-0.25,3599979270.4335685,0.5047429204,0.043651583224016584,3759.239540129174,10.828,9.42,6.483,5.627
-0.25,3599979270.4335685,0.5500000119,0.06295061828571975,3934.5946763407965,10.2,8.84,6.139,5.291
-0.25,3599979270.4335685,0.6000000238,0.09375620069258803,4181.190933499036,9.464,8.199,5.768,4.948
-0.25,3599979270.4335685,0.6378867626,0.12676518658578456,4408.592931591316,8.84,7.687,5.498,4.729
-0.25,3599979270.4335685,0.6499999762,0.13899526312133534,4481.258533251555,8.642,7.527,5.416,4.669
-0.25,3599979270.4335685,0.7000001073,0.20183663636815613,4787.4031366341615,7.877,6.909,5.101,4.456
-0.25,3599979270.4335685,0.7054873109,0.2098939883623524,4819.477976251272,7.805,6.849,5.068,4.433
-0.25,3599979270.4335685,0.7374219298,0.26242185433844417,5006.10552528821,7.398,6.512,4.881,4.304
-0.25,3599979270.4335685,0.75,0.28575905433749466,5079.2548036502085,7.249,6.388,4.81,4.255
-0.25,3599979270.4335685,0.7564759254,0.29853826189179594,5113.285003019643,7.177,6.327,4.773,4.228
-0.25,3599979270.4335685,0.7983130813,0.3926449353995998,5330.893422367013,6.737,5.956,4.544,4.055
-0.25,3599979270.4335685,0.8110179305,0.42657951880159267,5393.864099044902,6.612,5.849,4.475,4.001
-0.25,3599979270.4335685,0.8466261625,0.5345643593969717,5566.72798150948,6.274,5.564,4.288,3.854
-0.25,3599979270.4335685,0.8801844716,0.6576578373554205,5716.102396416138,5.978,5.312,4.114,3.711
-0.25,3599979270.4335685,0.8949391842,0.7194489780036994,5779.6295119546585,5.852,5.204,4.038,3.649
-0.25,3599979270.4335685,0.8989713788,0.737904230129101,5796.955946535209,5.818,5.175,4.018,3.631
-0.25,3599979270.4335685,0.9224778414,0.8511380382023764,5889.792572290247,5.623,5.008,3.896,3.527
-0.25,3599979270.4335685,0.9432522058,0.9660508789898133,5970.352865838366,5.453,4.863,3.79,3.437
-0.25,3599979270.4335685,0.9434440732,0.9660508789898133,5971.72774867241,5.452,4.862,3.789,3.436
-0.25,3599979270.4335685,0.9633375406,1.0914403364487566,6042.2682204988105,5.293,4.724,3.684,3.345
-0.25,3599979270.4335685,0.9818040133,1.2189895989248665,6105.201468341019,5.148,4.598,3.587,3.259
-0.25,3599979270.4335685,0.9915652275,1.2941958414499861,6137.620051647939,5.072,4.532,3.535,3.213
-0.25,3599979270.4335685,1.0082345009,1.428893958511103,6190.133280967256,4.944,4.419,3.444,3.131
-0.25,3599979270.4335685,1.0259994268,1.5922087270511702,6244.533502805022,4.809,4.3,3.347,3.043
-0.25,3599979270.4335685,1.0398783684,1.7298163592151015,6284.923560377511,4.704,4.206,3.27,2.973
-0.25,3599979270.4335685,1.0522392988,1.86637969083467,6319.751475952436,4.612,4.123,3.202,2.91
-0.25,3599979270.4335685,1.0654941797,2.0183663636815607,6356.235799378436,4.514,4.035,3.129,2.842
-0.25,3599979270.4335685,1.0780061483,2.177709772353159,6388.516193898019,4.422,3.952,3.059,2.778
-0.25,3599979270.4335685,1.0881915092,2.3120647901755946,6413.572375458588,4.348,3.885,3.002,2.724
-0.25,3599979270.4335685,1.095092535,2.4043628000069335,6428.357186713859,4.299,3.84,2.964,2.689
-0.25,3599979270.4335685,1.1075229645,2.582260190634596,6453.569627274052,4.214,3.762,2.895,2.624
-0.25,3599979270.4335685,1.119017601,2.7542287033381663,6471.426157485831,4.138,3.691,2.832,2.564
-0.25,3599979270.4335685,1.1365044117,3.054921113215513,6498.303634842379,4.018,3.578,2.73,2.466
-0.25,3599979270.4335685,1.1387528181,3.0902954325135905,6499.80009683025,4.004,3.564,2.718,2.454
-0.25,3599979270.4335685,1.1563360691,3.3962527259040844,6505.789391703234,3.898,3.461,2.617,2.354
-0.25,3599979270.4335685,1.1713898182,3.672823004980846,6499.80009683025,3.813,3.375,2.53,2.267
-0.25,3599979270.4335685,1.173371911,3.7068072178257596,6499.80009683025,3.802,3.364,2.518,2.255
-0.25,3599979270.4335685,1.179464817,3.8636697705406915,6504.291550788014,3.756,3.319,2.476,2.214
-0.25,3599979270.4335685,1.184504509,4.03645392967605,6517.7845431913875,3.705,3.272,2.434,2.174
-0.25,3599979270.4335685,1.1848175526,4.045758916974426,6519.285491340651,3.702,3.269,2.432,2.172
-0.25,3599979270.4335685,1.1921360493,4.2559841313374305,6526.795418367307,3.642,3.211,2.378,2.119
-0.25,3599979270.4335685,1.1989457607,4.539416166502032,6547.869269722528,3.566,3.141,2.316,2.06
-0.25,3599979270.4335685,1.2024878263,4.852885001621211,6587.187112819285,3.481,3.065,2.256,2.007
-0.25,3599979270.4335685,1.2050700188,4.954501908047901,6576.578373554205,3.461,3.042,2.23,1.979
-0.25,3599979270.4335685,1.2175517082,5.420008904016238,6520.786785135783,3.377,2.948,2.114,1.856
-0.25,3599979270.4335685,1.2291344404,5.861381645140288,6462.491724953881,3.307,2.865,2.009,1.742
-0.25,3599979270.4335685,1.233130455,6.025595860743578,6438.726829014615,3.284,2.836,1.971,1.7
-0.25,3599979270.4335685,1.2366125584,6.151768727098682,6412.095765851615,3.267,2.813,1.937,1.663
-0.25,3599979270.4335685,1.249607563,6.622165037017619,6253.166606822608,3.236,2.742,1.802,1.503
-0.25,3599979270.4335685,1.259688735,6.66806769213622,6017.27694025024,3.314,2.754,1.711,1.37
-0.25,3599979270.4335685,1.2659230232,6.295061828571976,5768.992840692839,3.481,2.847,1.686,1.295
-0.25,3599979270.4335685,1.2694171667,5.956621435290105,5591.135275705602,3.624,2.937,1.687,1.258
-0.25,3599979270.4335685,1.2716497183,5.727960309858292,5470.159628939716,3.725,3.004,1.689,1.232
-0.25,3599979270.4335685,1.2730451822,5.649369748123025,5401.3211476463475,3.777,3.035,1.682,1.209
-0.25,3599979270.4335685,1.2740181684,5.688529308438414,5362.9037180085825,3.79,3.038,1.663,1.181
-0.25,3599979270.4335685,1.2749453783,5.727960309858292,5328.439020411989,3.802,3.039,1.644,1.153
-0.25,3599979270.4335685,1.2760734558,5.79428696426881,5288.104149313063,3.811,3.036,1.618,1.117
-0.25,3599979270.4335685,1.2775945663,5.929253245799998,5237.210139231933,3.816,3.026,1.579,1.065
-0.25,3599979270.4335685,1.2786667347,6.0673632958850545,5209.547473285554,3.809,3.01,1.545,1.023
-0.25,3599979270.4335685,1.279037118,6.151768727098682,5203.553211345586,3.798,2.998,1.529,1.005
-0.25,3599979270.4335685,1.2814434767,6.714288529259523,5167.732202999587,3.724,2.913,1.422,0.889
-0.25,3599979270.4335685,1.2832589149,7.177942912713617,5146.35807013727,3.664,2.846,1.343,0.804
-0.25,3599979270.4335685,1.2859505415,8.035261221856173,5119.175279997109,3.559,2.732,1.212,0.666
-0.25,3599979270.4335685,1.2884831429,9.036494737223014,5095.65480608114,3.447,2.612,1.076,0.523
-0.25,3599979270.4335685,1.2906079292,10.092528860766844,5074.578790806499,3.342,2.499,0.95,0.392
-0.25,3599979270.4335685,1.2927685976,11.428783347897719,5052.4264494015615,3.223,2.372,0.809,0.245
-0.25,3599979270.4335685,1.2945611477,12.793813041575246,5030.370810846251,3.114,2.256,0.679,0.109
-0.25,3599979270.4335685,1.2961608171,14.321878992735432,5009.564815133986,3.008,2.142,0.551,-0.026
-0.25,3599979270.4335685,1.2975832224,15.958791472367329,4986.547955557967,2.907,2.032,0.425,-0.157
-0.25,3599979270.4335685,1.2989093065,17.864875748520507,4963.636848845585,2.805,1.92,0.297,-0.293
-0.25,3599979270.4335685,1.3000507355,19.81527025805098,4940.831009106554,2.71,1.815,0.176,-0.421
-0.25,3599979270.4335685,1.3011068106,22.080047330189004,4916.997641778744,2.614,1.709,0.052,-0.551
-0.25,3599979270.4335685,1.3020077944,24.322040090738145,4893.279240819371,2.525,1.611,-0.062,-0.672
-0.25,3599979270.4335685,1.3028752804,26.977394324449207,4868.554096577112,2.433,1.509,-0.181,-0.799
-0.25,3599979270.4335685,1.3036249876,29.716660317380267,4845.069375499792,2.348,1.415,-0.293,-0.918
-0.25,3599979270.4335685,1.3043398857,32.88516308759829,4820.587829837399,2.261,1.318,-0.409,-1.042
-0.25,3599979270.4335685,1.304979682,36.14098626396133,4796.22998644458,2.177,1.225,-0.519,-1.16
-0.25,3599979270.4335685,1.3055657148,39.62780342554395,4771.995220268839,2.098,1.136,-0.627,-1.275
-0.25,3599979270.4335685,1.3061153889,43.35108783875289,4748.9762757306435,2.022,1.05,-0.731,-1.388
-0.25,3599979270.4335685,1.3066501617,46.88133821452653,4728.2453051179655,1.957,0.977,-0.82,-1.483
-0.25,3599979270.4335685,1.307382226,51.05049999754062,4706.520991281343,1.886,0.896,-0.918,-1.589
-0.25,3599979270.4335685,1.3076689243,48.97788193684461,4719.543572446043,1.916,0.932,-0.871,-1.538
-0.25,3599979270.4335685,1.3081150055,45.39416166502032,4744.604320607653,1.976,1.002,-0.782,-1.44
-0.25,3599979270.4335685,1.3081839085,44.77133041763626,4748.9762757306435,1.988,1.016,-0.764,-1.421
-0.25,3599979270.4335685,1.3084751368,47.533522594280534,4732.602186090037,1.937,0.958,-0.835,-1.497
-0.25,3599979270.4335685,1.3089622259,52.60172663907063,4704.35405725976,1.855,0.863,-0.952,-1.623
-0.25,3599979270.4335685,1.3094305992,58.21032177708713,4676.274536892873,1.776,0.768,-1.071,-1.751
-0.25,3599979270.4335685,1.3098700047,64.41692655151772,4647.292416762036,1.699,0.675,-1.189,-1.879
-0.25,3599979270.4335685,1.310270071,71.12135136533291,4618.489918952487,1.624,0.583,-1.306,-2.005
-0.25,3599979270.4335685,1.3106424809,78.52356346100719,4589.865930219982,1.549,0.492,-1.423,-2.131
-0.25,3599979270.4335685,1.3109790087,86.49679187756934,4561.419344219829,1.478,0.405,-1.535,-2.253
-0.25,3599979270.4335685,1.3113037348,95.71940712948447,4532.1053854810425,1.406,0.316,-1.652,-2.381
-0.25,3599979270.4335685,1.3115955591,105.43868963912593,4502.9798128808925,1.337,0.229,-1.766,-2.505
-0.25,3599979270.4335685,1.3118618727,116.14486138403426,4474.041415755961,1.27,0.144,-1.879,-2.629
-0.25,3599979270.4335685,1.3121135235,128.23305826560218,4444.265543439951,1.204,0.059,-1.993,-2.754
-0.25,3599979270.4335685,1.3123381138,140.92887984218748,4415.704473533126,1.145,-0.025,-2.103,-2.872
-0.25,3599979270.4335685,1.3125503063,155.23870099580816,4385.306977749856,1.086,-0.11,-2.215,-2.992
-0.25,3599979270.4335685,1.3127422333,170.60823890031244,4357.124805030842,1.028,-0.192,-2.324,-3.11
-0.25,3599979270.4335685,1.3129242659,187.49945080674192,4327.130568849061,0.97,-0.274,-2.434,-3.23
-0.25,3599979270.4335685,1.313090086,206.06299132700005,4298.3324252156535,0.914,-0.355,-2.542,-3.348
-0.25,3599979270.4335685,1.3132425547,225.94357702209783,4268.742912929737,0.857,-0.435,-2.649,-3.464
-0.25,3599979270.4335685,1.3133877516,248.88573182823905,4239.357093413646,0.801,-0.515,-2.759,-3.584
-0.25,3599979270.4335685,1.3135168552,272.27013080779125,4210.173564456214,0.747,-0.59,-2.863,-3.7
-0.25,3599979270.4335685,1.3136386871,299.2264636608189,4181.190933499036,0.692,-0.667,-2.97,-3.817
-0.25,3599979270.4335685,1.3137514591,328.09529311311906,4152.407817569997,0.642,-0.738,-3.076,-3.937
-0.25,3599979270.4335685,1.3138551712,358.92193464500536,4123.822843217308,0.595,-0.806,-3.182,-4.055
-0.25,3599979270.4335685,1.3139536381,394.4573020752785,4094.4917463268844,0.547,-0.874,-3.289,-4.176
-0.25,3599979270.4335685,1.3140417337,430.5266104917105,4066.305463404283,0.504,-0.937,-3.392,-4.291
-0.25,3599979270.4335685,1.3141256571,470.97732639695295,4037.3834645533043,0.462,-0.999,-3.496,-4.409
-0.25,3599979270.4335685,1.3142045736,516.416369272071,4008.6671762730302,0.421,-1.061,-3.601,-4.528
-0.25,3599979270.4335685,1.3142757416,562.341325190349,3981.0717055349733,0.382,-1.119,-3.701,-4.641
-0.25,3599979270.4335685,1.3143434525,613.7620051647939,3952.7559401972776,0.346,-1.174,-3.802,-4.756
-0.25,3599979270.4335685,1.3144075871,671.4288529259522,3923.737995448608,0.311,-1.228,-3.905,-4.873
-0.25,3599979270.4335685,1.3144794703,746.448758410067,3888.6602433122985,0.272,-1.291,-4.027,-5.014
-0.25,3599979270.4335685,1.3145329952,810.9610578538404,3861.0017636183584,0.248,-1.332,-4.125,-5.125
-0.25,3599979270.4335685,1.3145847321,883.079900418563,3832.6574040003447,0.224,-1.374,-4.225,-5.239
-0.25,3599979270.4335685,1.3146431446,979.4899854086991,3797.519389713327,0.199,-1.421,-4.346,-5.377
-0.25,3599979270.4335685,1.314696312,1081.4339512979375,3761.8372279132846,0.185,-1.451,-4.464,-5.512
-0.25,3599979270.4335685,1.3147460222,1193.9881044642732,3727.348496903337,0.172,-1.48,-4.581,-5.646
-0.25,3599979270.4335685,1.314792037,1318.2567385564075,3693.175960479867,0.166,-1.497,-4.698,-5.779
-0.25,3599979270.4335685,1.3148350716,1452.111617587742,3658.474227939712,0.167,-1.504,-4.814,-5.911
-0.25,3599979270.4335685,1.3148748875,1595.879147236732,3623.2641755313257,0.175,-1.502,-4.928,-6.042
-0.25,3599979270.4335685,1.3149119616,1753.880501841762,3588.3929932948636,0.2,-1.477,-5.042,-6.172
-0.25,3599979270.4335685,1.3149468899,1923.0917289101576,3553.0392081527184,0.229,-1.448,-5.155,-6.3
-0.25,3599979270.4335685,1.3149790764,2103.778439766475,3518.8438882095843,0.278,-1.391,-5.266,-6.425
-0.25,3599979270.4335685,1.3150091171,2290.8676527677726,3485.7802105603496,0.331,-1.328,-5.371,-6.545
-0.25,3599979270.4335685,1.3150326014,2443.430552693971,3460.9872548535277,0.374,-1.276,-5.449,-6.634
-0.25,3599979270.4335685,1.3150326014,58.21032177708713,4867.433199621377,1.599,0.67,-1.017,-1.633
-0.25,3599979270.4335685,1.315382719,59.84115950603196,4856.238413914264,1.58,0.645,-1.05,-1.67
-0.25,3599979270.4335685,1.315728426,60.673632958850526,4852.88500162121,1.57,0.633,-1.065,-1.686
-0.25,3599979270.4335685,1.3160769939,60.81350012787179,4854.002548344871,1.566,0.629,-1.068,-1.688
-0.25,3599979270.4335685,1.3164310455,60.81350012787179,4857.356732878539,1.563,0.628,-1.066,-1.685
-0.25,3599979270.4335685,1.3167881966,60.673632958850526,4860.713235201249,1.562,0.628,-1.064,-1.682
-0.25,3599979270.4335685,1.3171341419,60.53408747539136,4865.192179849536,1.56,0.628,-1.061,-1.678
-0.25,3599979270.4335685,1.3174853325,60.53408747539136,4868.554096577112,1.558,0.628,-1.058,-1.674
-0.25,3599979270.4335685,1.317843318,60.39486293763797,4871.918336436785,1.556,0.627,-1.056,-1.67
-0.25,3599979270.4335685,1.3181854486,60.39486293763797,4875.284901033865,1.554,0.627,-1.054,-1.668
-0.25,3599979270.4335685,1.3185327053,60.39486293763797,4877.530569745951,1.552,0.625,-1.054,-1.667
-0.25,3599979270.4335685,1.3188693523,60.39486293763797,4880.901012475759,1.549,0.624,-1.053,-1.665
-0.25,3599979270.4335685,1.3192079067,60.53408747539136,4883.149268098355,1.546,0.622,-1.053,-1.664
-0.25,3599979270.4335685,1.3195781708,60.53408747539136,4885.398559319364,1.543,0.62,-1.054,-1.664
-0.25,3599979270.4335685,1.3199148178,60.53408747539136,4887.648886615807,1.54,0.617,-1.054,-1.664
-0.25,3599979270.4335685,1.3199906349,60.673632958850526,4887.648886615807,1.54,0.617,-1.054,-1.664
-0.25,3599979270.4335685,1.3203428984,60.673632958850526,4889.900250464924,1.537,0.615,-1.055,-1.664
-0.25,3599979270.4335685,1.3206994534,60.81350012787179,4892.152651344176,1.533,0.612,-1.057,-1.665
-0.25,3599979270.4335685,1.3210337162,60.953689724016904,4893.279240819371,1.53,0.609,-1.058,-1.666
-0.25,3599979270.4335685,1.3213900328,61.09420249055721,4894.4060897312465,1.527,0.606,-1.061,-1.669
-0.25,3599979270.4335685,1.3217236996,61.235039172477336,4894.4060897312465,1.523,0.603,-1.064,-1.671
-0.25,3599979270.4335685,1.3220689297,61.37620051647942,4894.4060897312465,1.52,0.599,-1.067,-1.675
-0.25,3599979270.4335685,1.3224189281,61.65950018614822,4894.4060897312465,1.516,0.595,-1.072,-1.679
-0.25,3599979270.4335685,1.322529912,61.80164001384158,4894.4060897312465,1.514,0.594,-1.073,-1.681
-0.25,3599979270.4335685,1.3226844072,61.94410750767815,4894.4060897312465,1.512,0.591,-1.076,-1.683
-0.25,3599979270.4335685,1.3230247498,62.23002851691595,4892.152651344176,1.508,0.586,-1.082,-1.69
-0.25,3599979270.4335685,1.323367238,62.66138646723353,4891.026321245936,1.503,0.58,-1.089,-1.697
-0.25,3599979270.4335685,1.3237183094,63.09573444801933,4887.648886615807,1.498,0.573,-1.098,-1.707
-0.25,3599979270.4335685,1.324054122,63.67955209079159,4884.273784229252,1.491,0.566,-1.109,-1.719
-0.25,3599979270.4335685,1.3243919611,64.26877173170197,4879.77727286486,1.484,0.557,-1.121,-1.732
-0.25,3599979270.4335685,1.324731946,65.01296903430907,4875.284901033865,1.476,0.546,-1.135,-1.748
-0.25,3599979270.4335685,1.3250699043,65.91738952443212,4869.675251658631,1.468,0.535,-1.151,-1.765
-0.25,3599979270.4335685,1.3254113197,66.83439175686145,4862.952191867843,1.458,0.522,-1.169,-1.786
-0.25,3599979270.4335685,1.3257514238,66.83439175686145,4864.072056914614,1.456,0.521,-1.168,-1.785
-0.25,3599979270.4335685,1.3261114359,69.02398038402418,4848.4173870844625,1.437,0.494,-1.207,-1.828
-0.25,3599979270.4335685,1.3264602423,73.45138681571152,4818.368378188961,1.397,0.44,-1.284,-1.914
-0.25,3599979270.4335685,1.3267122507,79.98342550070285,4778.592531515467,1.342,0.365,-1.389,-2.032
-0.25,3599979270.4335685,1.3268414736,87.90225168308842,4735.872481253356,1.282,0.284,-1.505,-2.161
-0.25,3599979270.4335685,1.3268985748,96.16122783836649,4696.777641902296,1.225,0.207,-1.614,-2.283
-0.25,3599979270.4335685,1.326926589,105.68175092136585,4658.005532200294,1.166,0.127,-1.727,-2.409
-0.25,3599979270.4335685,1.3269402981,115.61122421920993,4620.617301970837,1.11,0.052,-1.834,-2.528
-0.25,3599979270.4335685,1.3269484043,126.18275345906706,4585.640453674645,1.054,-0.024,-1.941,-2.647
-0.25,3599979270.4335685,1.3269504309,129.7179270983956,4574.040440300427,1.037,-0.047,-1.975,-2.684
-0.25,3599979270.4335685,1.3269505501,130.016957803329,4574.040440300427,1.036,-0.048,-1.976,-2.686
-0.25,3599979270.4335685,1.3269542456,138.03842646028852,4550.928370849554,1.0,-0.098,-2.047,-2.765
-0.25,3599979270.4335685,1.3269608021,153.4616982799294,4509.205208756537,0.94,-0.19,-2.175,-2.905
-0.25,3599979270.4335685,1.3269689083,170.215850839495,4469.922568418684,0.882,-0.279,-2.298,-3.039
-0.25,3599979270.4335685,1.3269839287,161.4358556826487,4490.554793555168,0.912,-0.232,-2.233,-2.968
-0.25,3599979270.4335685,1.3270170689,146.21771744567184,4528.975799036209,0.966,-0.149,-2.117,-2.841
-0.25,3599979270.4335685,1.3272664547,153.4616982799294,4510.243611171937,0.941,-0.189,-2.173,-2.902
-0.25,3599979270.4335685,1.3273944855,169.43378004473288,4471.981517887507,0.886,-0.274,-2.291,-3.032
-0.25,3599979270.4335685,1.3274940252,184.50154191794738,4439.1518378955125,0.84,-0.345,-2.391,-3.142
-0.25,3599979270.4335685,1.3275928497,202.30191786782717,4404.534336784062,0.789,-0.422,-2.501,-3.262
-0.25,3599979270.4335685,1.3276789188,222.3309890651403,4370.186790706132,0.738,-0.5,-2.609,-3.382
-0.25,3599979270.4335685,1.3277556896,243.78108183687525,4336.107094491863,0.688,-0.576,-2.717,-3.502
-0.25,3599979270.4335685,1.3278236389,267.91683248190316,4301.302633821362,0.638,-0.652,-2.826,-3.622
-0.25,3599979270.4335685,1.3278843164,293.76496519615307,4267.7601117035365,0.587,-0.728,-2.934,-3.743
-0.25,3599979270.4335685,1.3279385567,322.84941217126345,4234.479161692072,0.537,-0.802,-3.042,-3.864
-0.25,3599979270.4335685,1.3279871941,353.9973410834346,4200.4904339619925,0.492,-0.87,-3.151,-3.987
-0.25,3599979270.4335685,1.3280318975,388.15036599064825,4148.585069344544,0.477,-0.917,-3.263,-4.123
-0.25,3599979270.4335685,1.3280725479,425.59841313374307,4103.930524610162,0.455,-0.968,-3.372,-4.253
-0.25,3599979270.4335685,1.3281112909,466.6593803142887,4072.8648582724245,0.412,-1.033,-3.479,-4.375
-0.25,3599979270.4335685,1.328148365,511.6818355403078,4041.103745134904,0.373,-1.093,-3.587,-4.498
-0.25,3599979270.4335685,1.3281822205,561.0479760324706,4009.5903122771956,0.337,-1.152,-3.693,-4.619
-0.25,3599979270.4335685,1.3282157183,615.1768727098683,3977.4066910502825,0.3,-1.211,-3.8,-4.741
-0.25,3599979270.4335685,1.3282498121,674.5280276979222,3943.6648538097975,0.269,-1.264,-3.908,-4.866
-0.25,3599979270.4335685,1.3282828331,741.3102413009177,3910.2092612681363,0.238,-1.316,-4.017,-4.992
-0.25,3599979270.4335685,1.3283104897,816.5823713585922,3875.252454410245,0.215,-1.363,-4.129,-5.121
-0.25,3599979270.4335685,1.328328371,893.3054837332954,3842.3772299890893,0.195,-1.404,-4.236,-5.244
-0.25,3599979270.4335685,1.3283414841,974.9896377173867,3810.65823393773,0.177,-1.442,-4.34,-5.364
-0.25,3599979270.4335685,1.3283537626,1069.0548792226577,3775.72190925416,0.167,-1.468,-4.449,-5.49
-0.25,3599979270.4335685,1.3283646107,1169.4993910198712,3741.105882720533,0.162,-1.488,-4.556,-5.613
-0.25,3599979270.4335685,1.3283749819,1285.2866599436154,3704.2475302995863,0.164,-1.501,-4.667,-5.743
-0.25,3599979270.4335685,1.3283852339,1412.537544622754,3666.0636424947174,0.177,-1.495,-4.78,-5.874
-0.25,3599979270.4335685,1.3283953667,1548.816618912481,3628.273359403348,0.193,-1.486,-4.894,-6.006
-0.25,3599979270.4335685,1.3283976316,1527.5660582380733,3633.2894685013125,0.191,-1.487,-4.877,-5.987
-0.25,3599979270.4335685,1.3283991814,1555.965631605075,3625.7679024119648,0.197,-1.482,-4.899,-6.012
-0.25,3599979270.4335685,1.328400135,1625.5487557504835,3608.278079727421,0.211,-1.467,-4.951,-6.072
-0.25,3599979270.4335685,1.3284012079,1690.440931643265,3591.6995478714375,0.23,-1.448,-4.999,-6.128
-0.25,3599979270.4335685,1.3284029961,1770.108958317422,3571.083458083457,0.253,-1.424,-5.058,-6.195
-0.25,3599979270.4335685,1.3284050226,1757.923613958693,3573.5511273490297,0.251,-1.426,-5.05,-6.186
-0.25,3599979270.4335685,1.3284051418,1479.1083881682073,3641.665065732136,0.201,-1.475,-4.838,-5.943
-0.25,3599979270.4335685,1.328405261,1954.3394557753943,3526.1436430685917,0.322,-1.346,-5.182,-6.338
-0.25,3599979270.4335685,1.3284053802,1694.3378004473288,3589.2193464500533,0.233,-1.444,-5.004,-6.134
-0.25,3599979270.4335685,1.3284054995,1636.8165214278085,3604.1262864914356,0.217,-1.46,-4.962,-6.084
-0.25,3599979270.4335685,1.3284056187,1462.1771744567184,3648.379442958715,0.192,-1.483,-4.824,-5.926
-0.25,3599979270.4335685,1.3284057379,1659.5869074375614,3598.321800388802,0.223,-1.455,-4.977,-6.102
-0.25,3599979270.4335685,1.3284058571,1698.2436524617442,3588.3929932948636,0.235,-1.442,-5.006,-6.136
-0.25,3599979270.4335685,1.3284059763,1573.9828644662198,3619.928562242391,0.205,-1.473,-4.912,-6.028
-0.25,3599979270.4335685,1.3284060955,1510.0801541641476,3635.8001230014343,0.196,-1.482,-4.862,-5.97
-0.25,3599979270.4335685,1.3284062147,1452.111617587742,3650.900524844982,0.192,-1.483,-4.817,-5.918
-0.25,3599979270.4335685,1.3284068108,1425.607593602188,3657.631930094523,0.19,-1.483,-4.795,-5.892
-0.25,3599979270.4335685,1.3284076452,1465.5478409559114,3648.379442958715,0.191,-1.485,-4.827,-5.929
-0.25,3599979270.4335685,1.3284083605,1499.684835502374,3639.1503612720708,0.193,-1.485,-4.854,-5.961
-0.25,3599979270.4335685,1.3284091949,1618.0800376430661,3607.447338641916,0.216,-1.462,-4.948,-6.069
-0.25,3599979270.4335685,1.3284100294,1753.880501841762,3575.197187450261,0.25,-1.427,-5.045,-6.181
-0.25,3599979270.4335685,1.3284111023,1901.0782799232995,3540.788613684981,0.293,-1.381,-5.146,-6.296
-0.25,3599979270.4335685,1.3284124136,2046.444636724674,3508.326468551656,0.349,-1.313,-5.24,-6.404
-0.25,3599979270.4335685,1.3284145594,2233.5722228305326,3470.5635400798756,0.42,-1.229,-5.347,-6.528
-0.25,3599979270.4335685,1.3284146786,2233.5722228305326,3470.5635400798756,0.42,-1.229,-5.347,-6.528
-0.25,3599979270.4335685,1.3284147978,1291.2192736135348,3696.5790681932745,0.181,-1.485,-4.674,-5.753
-0.25,3599979270.4335685,1.3284150362,1025.651926251408,3794.8970620763503,0.166,-1.464,-4.399,-5.431
-0.25,3599979270.4335685,1.3284153938,654.6361740672747,3993.925871780298,0.212,-1.299,-3.865,-4.797
-0.25,3599979270.4335685,1.3284161091,674.5280276979222,3978.3226282329574,0.208,-1.313,-3.902,-4.842
-0.25,3599979270.4335685,1.3284169436,872.9713683881113,3861.8908944898994,0.181,-1.411,-4.207,-5.205
-0.25,3599979270.4335685,1.3284178972,1258.9254117941675,3701.689610332348,0.193,-1.471,-4.645,-5.722
-0.25,3599979270.4335685,1.3284190893,1729.8163592151016,3566.9744620973356,0.287,-1.386,-5.034,-6.172
-0.25,3599979270.4335685,1.3284205198,2137.9620895022326,3479.3650764909435,0.425,-1.226,-5.296,-6.473
-0.25,3599979270.4335685,1.3284221888,2398.83291901949,3430.8363277495027,0.53,-1.095,-5.442,-6.638
-0.25,3599979270.4335685,1.3284240961,2540.972705549304,3404.865806080549,0.595,-1.014,-5.516,-6.723
-0.25,3599979270.4335685,1.3284261227,2642.4087573219476,3386.881485634765,0.645,-0.952,-5.564,-6.778
-0.25,3599979270.4335685,1.3284262419,1774.1894808901661,3544.051302809929,0.343,-1.326,-5.068,-6.217
-0.25,3599979270.4335685,1.3284264803,1227.4392311584072,3695.72799739443,0.233,-1.429,-4.621,-5.701
-0.25,3599979270.4335685,1.3284269571,781.6278045883292,3891.3473626359746,0.229,-1.344,-4.079,-5.063
-0.25,3599979270.4335685,1.3284276724,803.5261221856169,3877.9303087618246,0.229,-1.351,-4.113,-5.104
-0.25,3599979270.4335685,1.3284286261,1032.7614057613969,3767.0379898390893,0.225,-1.411,-4.412,-5.458
-0.25,3599979270.4335685,1.3284296989,1475.7065332758946,3614.9308991735757,0.284,-1.387,-4.844,-5.962
-0.25,3599979270.4335685,1.3284310102,2009.0928126087279,3487.385841352184,0.451,-1.198,-5.224,-6.398
-0.25,3599979270.4335685,1.3284326792,2454.708915685031,3405.6498956736095,0.625,-0.981,-5.477,-6.684
-0.25,3599979270.4335685,1.3284344673,2728.9777828080405,3362.017734543793,0.753,-0.82,-5.611,-6.835
-0.25,3599979270.4335685,1.3284364939,2864.1779699065796,3341.1809763304277,0.828,-0.725,-5.673,-6.904
-0.25,3599979270.4335685,1.3284387589,2937.6496519615307,3328.1278395965264,0.877,-0.663,-5.707,-6.944
-0.25,3599979270.4335685,1.3284388781,2004.4720273651615,3478.5640153042373,0.489,-1.156,-5.226,-6.404
-0.25,3599979270.4335685,1.3284392357,1389.9526312133526,3629.108896409478,0.298,-1.373,-4.776,-5.888
-0.25,3599979270.4335685,1.3284397125,885.1156098308356,3823.8425365811263,0.249,-1.36,-4.23,-5.247
-0.25,3599979270.4335685,1.328440547,907.8205301781861,3811.5357714484903,0.249,-1.367,-4.262,-5.285
-0.25,3599979270.4335685,1.3284416199,1161.4486138403427,3704.2475302995863,0.267,-1.391,-4.556,-5.632
-0.25,3599979270.4335685,1.3284429312,1644.3717232149324,3556.3131856898544,0.375,-1.291,-4.981,-6.126
-0.25,3599979270.4335685,1.3284446001,2218.1964198002192,3432.416650121203,0.598,-1.021,-5.355,-6.551
-0.25,3599979270.4335685,1.3284463882,2691.5348039269165,3354.2853083268956,0.812,-0.75,-5.599,-6.826
-0.25,3599979270.4335685,1.328448534,2971.666031738025,3313.599377790872,0.954,-0.571,-5.724,-6.967
-0.25,3599979270.4335685,1.3284510374,3097.419299216581,3295.3382547359615,1.032,-0.469,-5.777,-7.027
-0.25,3599979270.4335685,1.32845366,3155.0046233746275,3286.2454665820464,1.075,-0.412,-5.803,-7.056
-0.25,3599979270.4335685,1.3284537792,2197.8598727848253,3430.0464394337664,0.619,-0.998,-5.347,-6.544
-0.25,3599979270.4335685,1.3284541368,1531.0874616820304,3580.1399184306892,0.363,-1.304,-4.896,-6.03
-0.25,3599979270.4335685,1.3284547329,974.9896377173867,3776.591401452663,0.261,-1.37,-4.348,-5.388
-0.25,3599979270.4335685,1.3284555674,1002.3052380778994,3763.5700169367306,0.265,-1.372,-4.381,-5.428
-0.25,3599979270.4335685,1.3284567595,1276.4388088113435,3656.789826173249,0.306,-1.36,-4.673,-5.772
-0.25,3599979270.4335685,1.32845819,1794.7336268325266,3509.1343835855246,0.473,-1.18,-5.095,-6.259
-0.25,3599979270.4335685,1.3284598589,2409.9054286865953,3386.881485634765,0.737,-0.853,-5.464,-6.679
-0.25,3599979270.4335685,1.3284618855,2917.427014001166,3308.2627885569786,1.009,-0.508,-5.706,-6.951
-0.25,3599979270.4335685,1.3284641504,3213.660538640318,3266.6304045806874,1.187,-0.27,-5.831,-7.091
-0.25,3599979270.4335685,1.328466773,3357.3761424295453,3247.8801876353714,1.276,-0.153,-5.886,-7.153
-0.25,3599979270.4335685,1.3284696341,3427.6778654645045,3237.42711634235,1.33,-0.082,-5.914,-7.185
-0.25,3599979270.4335685,1.3284697533,2449.0632418447444,3372.096543265998,0.803,-0.774,-5.488,-6.708
-0.25,3599979270.4335685,1.3284701109,1710.015315090288,3522.086356184678,0.47,-1.187,-5.039,-6.197
-0.25,3599979270.4335685,1.3284707069,1091.440336448756,3720.488787200874,0.289,-1.366,-4.485,-5.554
-0.25,3599979270.4335685,1.3284715414,1122.018454301963,3706.80721782576,0.297,-1.362,-4.519,-5.594
-0.25,3599979270.4335685,1.3284727335,1422.32878712282,3600.8082917348274,0.373,-1.296,-4.808,-5.933
-0.25,3599979270.4335685,1.328474164,1981.527025805099,3455.413295778485,0.607,-1.024,-5.224,-6.412
-0.25,3599979270.4335685,1.3284758329,2642.4087573219476,3333.496473327569,0.95,-0.591,-5.587,-6.822
-0.25,3599979270.4335685,1.3284778595,3176.8740706497692,3256.1169870485296,1.272,-0.167,-5.824,-7.088
-0.25,3599979270.4335685,1.3284801245,3499.451670283573,3215.140824832692,1.456,0.078,-5.948,-7.226
-0.25,3599979270.4335685,1.3284826279,3647.5394692560767,3195.9501748147595,1.55,0.201,-6.002,-7.287
-0.25,3599979270.4335685,1.3284854889,3723.917062545687,3184.1975217261256,1.61,0.279,-6.031,-7.32
-0.25,3599979270.4335685,1.3284856081,2735.268726306711,3309.0246319221333,1.063,-0.453,-5.638,-6.882
-0.25,3599979270.4335685,1.3284859657,1923.0917289101576,3458.597315106485,0.623,-1.01,-5.189,-6.375
-0.25,3599979270.4335685,1.3284865618,1227.4392311584072,3658.474227939712,0.345,-1.323,-4.632,-5.729
-0.25,3599979270.4335685,1.3284875154,1261.8275345906707,3645.0207083030436,0.355,-1.315,-4.665,-5.769
-0.25,3599979270.4335685,1.3284885883,1588.546748597779,3539.1583956694994,0.477,-1.186,-4.952,-6.103
-0.25,3599979270.4335685,1.3284900188,2197.8598727848253,3396.2527259040853,0.785,-0.81,-5.36,-6.57
-0.25,3599979270.4335685,1.328491807,2897.3435877013244,3276.4232568537846,1.226,-0.242,-5.714,-6.97
-0.25,3599979270.4335685,1.3284938335,3467.368504525317,3199.6317673183503,1.57,0.216,-5.945,-7.228
-0.25,3599979270.4335685,1.3284962177,3801.8939632056126,3159.3664356825157,1.763,0.472,-6.065,-7.362
-0.25,3599979270.4335685,1.3284988403,3953.666200681279,3139.062769137658,1.845,0.577,-6.118,-7.421
-0.25,3599979270.4335685,1.3285017014,4036.4539296760486,3126.799256376112,1.901,0.647,-6.146,-7.453
-0.25,3599979270.4335685,1.3285018206,3054.9211132155124,3241.902878227874,1.412,-0.003,-5.788,-7.058
-0.25,3599979270.4335685,1.3285021782,2157.744409152667,3390.783022519265,0.83,-0.762,-5.343,-6.556
-0.25,3599979270.4335685,1.328502655,1380.3842646028852,3592.5266624766173,0.434,-1.236,-4.779,-5.907
-0.25,3599979270.4335685,1.3285034895,1419.0575216890927,3579.3156556503877,0.455,-1.215,-4.813,-5.947
-0.25,3599979270.4335685,1.3285046816,1774.1894808901661,3473.761519726527,0.64,-1.001,-5.095,-6.275
-0.25,3599979270.4335685,1.3285059929,2426.6100950824143,3332.728995761379,1.048,-0.49,-5.495,-6.73
-0.25,3599979270.4335685,1.3285076618,3162.2776601683795,3214.400596524381,1.561,0.186,-5.839,-7.117
-0.25,3599979270.4335685,1.32850945,3758.374042884443,3138.340056432409,1.901,0.635,-6.063,-7.366
-0.25,3599979270.4335685,1.3285117149,4111.497211045221,3097.419299216581,2.072,0.854,-6.179,-7.495
-0.25,3599979270.4335685,1.3285140991,4265.795188015925,3076.805193759751,2.144,0.933,-6.23,-7.552
-0.25,3599979270.4335685,1.3285168409,4345.102241715715,3063.37384469643,2.188,0.977,-6.258,-7.582
-0.25,3599979270.4335685,1.3285169601,3388.441561392024,3168.10815932805,1.82,0.518,-5.935,-7.23
-0.25,3599979270.4335685,1.3285171986,2404.362800006932,3316.6527215043507,1.154,-0.37,-5.493,-6.734
-0.25,3599979270.4335685,1.3285177946,1538.154640303034,3520.4647488942164,0.596,-1.064,-4.924,-6.083
-0.25,3599979270.4335685,1.3285185099,1581.2480392703826,3505.9038393261267,0.631,-1.024,-4.959,-6.124
-0.25,3599979270.4335685,1.3285195827,1967.886289706845,3400.1650580407095,0.885,-0.713,-5.238,-6.446
-0.25,3599979270.4335685,1.3285207748,2654.605561975539,3259.8678890446836,1.435,-0.006,-5.627,-6.89
-0.25,3599979270.4335685,1.3285223246,3435.5794789987463,3141.9552846410716,1.971,0.703,-5.962,-7.265
-0.25,3599979270.4335685,1.3285241127,4055.085354483839,3065.490679425787,2.251,1.041,-6.18,-7.504
-0.25,3599979270.4335685,1.3285261393,4405.548635065535,3023.430570511337,2.373,1.159,-6.292,-7.627
-0.25,3599979270.4335685,1.3285284042,4570.881896148751,3001.234982781183,2.432,1.215,-6.342,-7.681
-0.25,3599979270.4335685,1.3285309076,4645.152752227492,2986.75775503349,2.477,1.257,-6.368,-7.71
-0.25,3599979270.4335685,1.3285310268,3723.917062545687,3081.768416611512,2.261,1.052,-6.08,-7.401
-0.25,3599979270.4335685,1.3285312653,2654.605561975539,3232.2132033960884,1.63,0.228,-5.639,-6.911
-0.25,3599979270.4335685,1.3285317421,1702.15850839495,3441.9138826842905,0.846,-0.782,-5.065,-6.257
-0.25,3599979270.4335685,1.3285324574,1749.8466886246565,3427.6778654645045,0.888,-0.732,-5.099,-6.297
-0.25,3599979270.4335685,1.328533411,2162.71852372702,3322.7678521107573,1.237,-0.295,-5.374,-6.613
-0.25,3599979270.4335685,1.3285346031,2890.6798823654744,3184.9307947187244,1.876,0.546,-5.754,-7.043
-0.25,3599979270.4335685,1.3285360336,3698.281797802663,3069.728738183665,2.335,1.124,-6.08,-7.403
-0.25,3599979270.4335685,1.3285377026,4335.108783875289,2995.711592427998,2.522,1.301,-6.289,-7.63
-0.25,3599979270.4335685,1.3285394907,4698.941086052156,2956.650565082943,2.606,1.377,-6.395,-7.744
-0.25,3599979270.4335685,1.3285416365,4864.072056914614,2938.3261486728097,2.651,1.419,-6.441,-7.793
-0.25,3599979270.4335685,1.3285440207,4943.106869868354,2928.195035574271,2.678,1.445,-6.465,-7.818
