FeH,Age,Mini,L,Te,Bmag,Vmag,Jmag,Kmag
-0.25,2699976598.401209,0.0900000036,0.00042169650342858224,2423.817964554634,19.836,17.927,11.094,10.282
-0.25,2699976598.401209,0.0932541266,0.0004920395356814511,2479.1339913758666,19.659,17.753,10.928,10.114
-0.25,2699976598.401209,0.1000000015,0.0006668067692136219,2590.5978454758697,19.309,17.411,10.6,9.782
-0.25,2699976598.401209,0.1200000048,0.001224616199265049,2794.473528597117,17.577,15.802,10.016,9.164
-0.25,2699976598.401209,0.1400000006,0.0018663796908346695,2921.4603738773317,16.479,14.769,9.611,8.748
-0.25,2699976598.401209,0.1599999964,0.002594179362118815,3014.3938842794687,15.714,14.048,9.29,8.426
-0.25,2699976598.401209,0.200000003,0.0042559841313374305,3143.4025417390094,14.681,13.063,8.801,7.939
-0.25,2699976598.401209,0.25,0.006760829753919818,3253.1193731384888,13.841,12.267,8.339,7.481
-0.25,2699976598.401209,0.3000000119,0.00972747223776965,3333.496473327569,13.234,11.692,7.971,7.116
-0.25,2699976598.401209,0.3404755294,0.013152248321922383,3387.661433708217,12.777,11.26,7.66,6.805
-0.25,2699976598.401209,0.3500000536,0.014092887984218748,3399.3822312328007,12.678,11.166,7.591,6.736
-0.25,2699976598.401209,0.4000000358,0.019724227361148535,3488.188934073285,12.135,10.655,7.255,6.4
-0.25,2699976598.401209,0.4309529066,0.024831331052955704,3557.132151345879,11.759,10.302,7.027,6.172
-0.25,2699976598.401209,0.4500000179,0.028379190284415566,3596.665093461474,11.546,10.099,6.895,6.039
-0.25,2699976598.401209,0.5,0.04159106104940221,3741.105882720533,10.906,9.494,6.529,5.673
-0.25,2699976598.401209,0.5408097506,0.05794286964268809,3897.6245309771994,10.335,8.963,6.218,5.369
-0.25,2699976598.401209,0.5500000119,0.062086903423006344,3930.972449074674,10.216,8.856,6.151,5.304
-0.25,2699976598.401209,0.6000000238,0.09225714271547633,4174.457078262909,9.489,8.221,5.783,4.962
-0.25,2699976598.401209,0.6499999762,0.136144468246595,4468.89344919767,8.681,7.559,5.435,4.683
-0.25,2699976598.401209,0.6542274356,0.1406047524129914,4494.692652627942,8.612,7.504,5.408,4.665
-0.25,2699976598.401209,0.7000001073,0.1967886289706845,4771.995220268839,7.922,6.946,5.124,4.474
-0.25,2699976598.401209,0.7207847834,0.2269864851883822,4892.152651344176,7.652,6.723,5.001,4.39
-0.25,2699976598.401209,0.75,0.27669416454115114,5060.5765651324455,7.298,6.431,4.839,4.278
-0.25,2699976598.401209,0.7556384206,0.28707805820246907,5089.791592468075,7.236,6.378,4.807,4.255
-0.25,2699976598.401209,0.7983130813,0.37757219092541605,5307.622176426454,6.794,6.005,4.579,4.085
-0.25,2699976598.401209,0.8282117248,0.45498806015004856,5452.554309382917,6.509,5.765,4.424,3.964
-0.25,2699976598.401209,0.8466261625,0.5081594425605606,5539.875439385942,6.341,5.623,4.332,3.892
-0.25,2699976598.401209,0.858766973,0.5470159628939716,5593.7106816169635,6.234,5.532,4.272,3.844
-0.25,2699976598.401209,0.8949391842,0.6776415076106751,5753.074526484432,5.93,5.273,4.094,3.699
-0.25,2699976598.401209,0.9108303785,0.7430191378967014,5817.01253962689,5.802,5.165,4.017,3.634
-0.25,2699976598.401209,0.9410889149,0.8851156098308355,5936.083481913702,5.563,4.962,3.871,3.512
-0.25,2699976598.401209,0.9432522058,0.8953647655495938,5944.290151976951,5.546,4.947,3.861,3.503
-0.25,2699976598.401209,0.9676491022,1.030386120441616,6032.537079266128,5.36,4.788,3.742,3.401
-0.25,2699976598.401209,0.9915652275,1.1776059735208073,6115.0498251702875,5.182,4.635,3.627,3.301
-0.25,2699976598.401209,1.0190799236,1.3740419750125152,6204.403011913813,4.983,4.461,3.491,3.18
-0.25,2699976598.401209,1.0398783684,1.5452544395384138,6269.024974761653,4.835,4.331,3.389,3.088
-0.25,2699976598.401209,1.0556718111,1.686553025388741,6316.841792875155,4.724,4.234,3.311,3.018
-0.25,2699976598.401209,1.0735677481,1.8578044550916986,6369.421653777093,4.601,4.125,3.223,2.939
-0.25,2699976598.401209,1.0881915092,2.0137242498623884,6412.095765851615,4.501,4.036,3.152,2.874
-0.25,2699976598.401209,1.1052213907,2.2080047330188997,6459.516322696259,4.386,3.933,3.068,2.798
-0.25,2699976598.401209,1.1228599548,2.4266100950824154,6507.287577548787,4.269,3.828,2.982,2.718
-0.25,2699976598.401209,1.1365044117,2.6121613543992064,6541.841235692386,4.18,3.747,2.914,2.656
-0.25,2699976598.401209,1.1399497986,2.6607250597988097,6550.885369386104,4.158,3.727,2.898,2.641
-0.25,2699976598.401209,1.1571195126,2.904022654464451,6588.704043340734,4.052,3.63,2.816,2.565
-0.25,2699976598.401209,1.1737002134,3.1477483141013156,6616.068605559997,3.955,3.54,2.737,2.49
-0.25,2699976598.401209,1.1848175526,3.311311214825911,6629.793476706679,3.894,3.482,2.685,2.44
-0.25,2699976598.401209,1.1974036694,3.5075187395256804,6638.959204886984,3.829,3.42,2.627,2.384
-0.25,2699976598.401209,1.2301818132,4.045758916974426,6646.606990710733,3.67,3.264,2.475,2.233
-0.25,2699976598.401209,1.233130455,4.092606597300109,6646.606990710733,3.657,3.25,2.461,2.22
-0.25,2699976598.401209,1.2749373913,4.897788193684462,6629.793476706679,3.461,3.053,2.26,2.016
-0.25,2699976598.401209,1.2814434767,5.035006087879047,6623.690022431073,3.432,3.023,2.228,1.984
-0.25,2699976598.401209,1.3082977533,5.649369748123025,6582.638416409018,3.315,2.899,2.089,1.839
-0.25,2699976598.401209,1.3297567368,6.1944107507678146,6537.323852287956,3.227,2.801,1.975,1.719
-0.25,2699976598.401209,1.3411746025,6.501296903430906,6508.786108404092,3.179,2.748,1.911,1.651
-0.25,2699976598.401209,1.3659678698,7.261059574351547,6438.726829014615,3.077,2.631,1.767,1.497
-0.25,2699976598.401209,1.3780696392,7.691304402866097,6403.24324468947,3.025,2.57,1.693,1.418
-0.25,2699976598.401209,1.3834129572,7.888601176185544,6385.574850788397,3.002,2.544,1.659,1.381
-0.25,2699976598.401209,1.3923500776,8.241381150130023,6359.163628244043,2.961,2.496,1.601,1.319
-0.25,2699976598.401209,1.4028054476,9.33254300796991,6441.692655151775,2.799,2.356,1.495,1.226
-0.25,2699976598.401209,1.4053747654,10.139113857366794,6546.361740672747,2.676,2.258,1.44,1.188
-0.25,2699976598.401209,1.4061462879,10.964781961431852,6655.795963672291,2.561,2.168,1.394,1.158
-0.25,2699976598.401209,1.4064993858,11.694993910198711,6751.495771606426,2.465,2.092,1.356,1.133
-0.25,2699976598.401209,1.4065630436,11.830415557251646,6771.735710786895,2.446,2.077,1.348,1.129
-0.25,2699976598.401209,1.4066616297,11.561122421920986,6731.316327276249,2.483,2.106,1.362,1.137
-0.25,2699976598.401209,1.4068440199,11.117317272815914,6632.847312550216,2.553,2.154,1.372,1.132
-0.25,2699976598.401209,1.4072910547,11.168632477805613,6465.468497750434,2.591,2.156,1.307,1.043
-0.25,2699976598.401209,1.4087094069,11.508003889444357,6279.137596800936,2.62,2.137,1.212,0.919
-0.25,2699976598.401209,1.411711812,11.297959146727976,6070.158063410441,2.714,2.173,1.157,0.827
-0.25,2699976598.401209,1.4139429331,10.839269140212034,5918.341211131826,2.823,2.236,1.149,0.788
-0.25,2699976598.401209,1.4154648781,10.209394837076797,5791.619210831195,2.941,2.316,1.169,0.783
-0.25,2699976598.401209,1.4164787531,9.68277856261249,5696.3937334118355,3.044,2.39,1.195,0.789
-0.25,2699976598.401209,1.4174221754,9.141132414702502,5600.154387615568,3.151,2.469,1.225,0.798
-0.25,2699976598.401209,1.4183268547,8.729713683881116,5506.808828468291,3.246,2.538,1.244,0.796
-0.25,2699976598.401209,1.419493556,8.531001140175896,5400.077590665929,3.328,2.589,1.236,0.763
-0.25,2699976598.401209,1.4211646318,8.790225168308842,5274.727156616845,3.363,2.586,1.162,0.657
-0.25,2699976598.401209,1.4217017889,9.015711376059569,5239.622519059377,3.358,2.57,1.125,0.612
-0.25,2699976598.401209,1.4219931364,9.22571427154763,5227.571721671628,3.34,2.548,1.096,0.579
-0.25,2699976598.401209,1.4231358767,10.18591388054117,5179.645056050334,3.262,2.454,0.973,0.443
-0.25,2699976598.401209,1.4241986275,11.324003632355572,5143.988630287732,3.171,2.35,0.846,0.307
-0.25,2699976598.401209,1.4253941774,12.882495516931343,5109.7540905467595,3.053,2.221,0.695,0.146
-0.25,2699976598.401209,1.426299572,14.288939585111029,5083.935125244855,2.959,2.118,0.576,0.021
-0.25,2699976598.401209,1.4263827801,14.421153515248688,5081.594425605605,2.951,2.109,0.565,0.01
-0.25,2699976598.401209,1.426934123,15.452544395384141,5065.239675508819,2.886,2.039,0.485,-0.075
-0.25,2699976598.401209,1.4276629686,16.94337800447329,5044.28945952414,2.801,1.946,0.379,-0.187
-0.25,2699976598.401209,1.4283840656,18.535316234148116,5022.2693418239,2.718,1.856,0.275,-0.297
-0.25,2699976598.401209,1.4290889502,20.183663636815606,5001.496854402788,2.639,1.77,0.175,-0.403
-0.25,2699976598.401209,1.4299012423,22.23309890651403,4978.517063739154,2.554,1.674,0.062,-0.522
-0.25,2699976598.401209,1.4307153225,24.434305526939713,4955.642855622974,2.471,1.582,-0.046,-0.638
-0.25,2699976598.401209,1.4314255714,26.485001386067008,4935.145940408827,2.4,1.502,-0.14,-0.738
-0.25,2699976598.401209,1.4322351217,29.174270140011675,4910.20924883086,2.314,1.406,-0.254,-0.859
-0.25,2699976598.401209,1.4329375029,31.915378551007617,4887.648886615807,2.237,1.32,-0.356,-0.968
-0.25,2699976598.401209,1.4336205721,34.914031547858606,4864.072056914614,2.159,1.232,-0.462,-1.081
-0.25,2699976598.401209,1.4342714548,38.459178204535355,4837.266336532547,2.075,1.138,-0.575,-1.203
-0.25,2699976598.401209,1.4348837137,42.36429660495411,4811.716152521639,1.992,1.045,-0.687,-1.323
-0.25,2699976598.401209,1.4356335402,47.64309868054156,4779.692969796099,1.894,0.933,-0.823,-1.469
-0.25,2699976598.401209,1.4364513159,53.826978251628844,4745.696931912426,1.792,0.818,-0.964,-1.622
-0.25,2699976598.401209,1.4375276566,60.53408747539136,4711.94269420276,1.696,0.705,-1.104,-1.772
-0.25,2699976598.401209,1.4378404617,62.373483548241914,4704.35405725976,1.672,0.677,-1.139,-1.809
-0.25,2699976598.401209,1.43813622,60.673632958850526,4714.113123725611,1.693,0.703,-1.105,-1.773
-0.25,2699976598.401209,1.4383896589,57.94286964268809,4728.2453051179655,1.727,0.745,-1.05,-1.713
-0.25,2699976598.401209,1.4385583401,55.71857489319299,4741.3279957862,1.757,0.782,-1.003,-1.662
-0.25,2699976598.401209,1.4387423992,52.60172663907063,4758.827909888171,1.802,0.834,-0.938,-1.591
-0.25,2699976598.401209,1.438923955,49.659232145033606,4777.4923465909405,1.85,0.889,-0.868,-1.515
-0.25,2699976598.401209,1.4391748905,45.708818961487495,4802.860802396913,1.917,0.966,-0.772,-1.41
-0.25,2699976598.401209,1.4394290447,42.85485203974394,4823.918924327151,1.971,1.028,-0.695,-1.327
-0.25,2699976598.401209,1.4395911694,44.157044735331255,4815.041116556669,1.945,0.999,-0.73,-1.364
-0.25,2699976598.401209,1.4401090145,48.41723675840994,4788.50560386518,1.866,0.91,-0.839,-1.482
-0.25,2699976598.401209,1.4406446218,52.966344389165776,4763.212971455834,1.791,0.824,-0.944,-1.596
-0.25,2699976598.401209,1.4411998987,58.21032177708713,4735.872481253356,1.715,0.736,-1.054,-1.715
-0.25,2699976598.401209,1.4417536259,64.12095765851615,4707.604832565835,1.64,0.645,-1.168,-1.837
-0.25,2699976598.401209,1.4422638416,70.30723198838334,4679.505908852532,1.569,0.559,-1.277,-1.955
-0.25,2699976598.401209,1.4427646399,77.44617978025188,4651.574703021666,1.497,0.472,-1.388,-2.076
-0.25,2699976598.401209,1.4432371855,85.11380382023764,4623.810213992603,1.427,0.386,-1.499,-2.196
-0.25,2699976598.401209,1.4436920881,93.5405674147552,4595.153251697754,1.357,0.299,-1.611,-2.317
-0.25,2699976598.401209,1.4441196918,103.03861204416158,4565.622502022357,1.287,0.213,-1.723,-2.439
-0.25,2699976598.401209,1.4445185661,113.24003632355566,4536.281531692419,1.221,0.129,-1.834,-2.56
-0.25,2699976598.401209,1.4448977709,124.73835142429432,4507.129121091093,1.153,0.044,-1.947,-2.684
-0.25,2699976598.401209,1.4452453852,137.08817661648536,4478.164058439384,1.088,-0.039,-2.058,-2.805
-0.25,2699976598.401209,1.4455659389,150.31419660900224,4449.385139745807,1.028,-0.121,-2.166,-2.923
-0.25,2699976598.401209,1.4458706379,165.19617982290148,4419.773361155814,0.971,-0.204,-2.276,-3.041
-0.25,2699976598.401209,1.4461501837,181.5515662773135,4390.358656409448,0.914,-0.285,-2.384,-3.158
-0.25,2699976598.401209,1.4464142323,199.06733389871863,4361.139713930648,0.856,-0.367,-2.493,-3.276
-0.25,2699976598.401209,1.4466540813,218.27299118430014,4332.115230872224,0.802,-0.445,-2.598,-3.39
-0.25,2699976598.401209,1.446882844,239.88329190194898,4302.2931593879675,0.746,-0.525,-2.706,-3.508
-0.25,2699976598.401209,1.447091341,262.4218543384442,4272.676381599791,0.692,-0.603,-2.811,-3.623
-0.25,2699976598.401209,1.4472860098,287.73984147356697,4244.240644295681,0.638,-0.678,-2.916,-3.738
-0.25,2699976598.401209,1.4474701881,315.50046233746275,4215.023497210444,0.584,-0.754,-3.021,-3.854
-0.25,2699976598.401209,1.4476407766,345.1437393358561,4186.007479551019,0.531,-0.829,-3.125,-3.97
-0.25,2699976598.401209,1.4478000402,378.44258471709315,4157.19120675218,0.483,-0.898,-3.23,-4.088
-0.25,2699976598.401209,1.4479476213,413.9996748197304,4127.622774083493,0.437,-0.964,-3.335,-4.205
-0.25,2699976598.401209,1.4480851889,451.85594437492216,4099.208418770049,0.392,-1.029,-3.438,-4.321
-0.25,2699976598.401209,1.4482158422,494.3106869868354,4070.989666502739,0.347,-1.094,-3.542,-4.439
-0.25,2699976598.401209,1.4483340979,539.5106225151279,4042.9651707596545,0.309,-1.153,-3.643,-4.553
-0.25,2699976598.401209,1.448448658,590.2010801718442,4014.209182043213,0.268,-1.214,-3.746,-4.67
-0.25,2699976598.401209,1.4485533237,642.6877173170194,3986.5755604057836,0.23,-1.272,-3.846,-4.783
-0.25,2699976598.401209,1.4486517906,701.4552984199714,3958.2206483572263,0.194,-1.326,-3.946,-4.897
-0.25,2699976598.401209,1.4487440586,763.8357835776907,3930.0674134185306,0.16,-1.378,-4.045,-5.01
-0.25,2699976598.401209,1.4488297701,831.7637711026708,3902.114421141359,0.129,-1.429,-4.143,-5.122
-0.25,2699976598.401209,1.448910594,905.7326008981998,3873.468245564424,0.103,-1.474,-4.242,-5.235
-0.25,2699976598.401209,1.4489872456,984.0111057611335,3845.9178204535356,0.079,-1.516,-4.341,-5.347
-0.25,2699976598.401209,1.4490755796,1091.440336448756,3810.65823393773,0.053,-1.564,-4.461,-5.485
-0.25,2699976598.401209,1.4491552114,1205.0359403717973,3775.72190925416,0.037,-1.597,-4.578,-5.619
-0.25,2699976598.401209,1.4492306709,1330.4544179780914,3741.105882720533,0.023,-1.628,-4.695,-5.753
-0.25,2699976598.401209,1.4493010044,1468.9262776438661,3706.80721782576,0.013,-1.652,-4.811,-5.886
-0.25,2699976598.401209,1.4493654966,1614.3585568264868,3671.977403587995,0.013,-1.66,-4.926,-6.016
-0.25,2699976598.401209,1.4494264126,1778.2794100389228,3637.4748564263245,0.017,-1.664,-5.04,-6.147
-0.25,2699976598.401209,1.4494837523,1954.3394557753943,3602.466907114875,0.037,-1.645,-5.154,-6.277
-0.25,2699976598.401209,1.4495375156,2137.9620895022326,3568.617492834813,0.064,-1.618,-5.264,-6.402
-0.25,2699976598.401209,1.4495766163,2280.3420720004187,3544.8674447379985,0.086,-1.595,-5.342,-6.49
-0.25,2699976598.401209,1.4495766163,60.25595860743578,4900.044227932357,1.534,0.618,-1.045,-1.651
-0.25,2699976598.401209,1.4501188993,62.08690342300634,4887.648886615807,1.513,0.592,-1.08,-1.69
-0.25,2699976598.401209,1.4506582022,62.95061828571975,4883.149268098355,1.502,0.579,-1.096,-1.708
-0.25,2699976598.401209,1.4512046576,63.09573444801933,4884.273784229252,1.497,0.575,-1.1,-1.711
-0.25,2699976598.401209,1.4517558813,63.09573444801933,4887.648886615807,1.494,0.573,-1.099,-1.709
-0.25,2699976598.401209,1.4523106813,63.09573444801933,4891.026321245936,1.492,0.572,-1.097,-1.706
-0.25,2699976598.401209,1.4528650045,63.09573444801933,4894.4060897312465,1.49,0.571,-1.095,-1.703
-0.25,2699976598.401209,1.4534227848,63.09573444801933,4897.7881936844615,1.487,0.57,-1.094,-1.701
-0.25,2699976598.401209,1.4539881945,63.09573444801933,4901.172634719431,1.485,0.569,-1.093,-1.699
-0.25,2699976598.401209,1.4545422792,63.09573444801933,4904.559414451102,1.482,0.567,-1.092,-1.697
-0.25,2699976598.401209,1.4550673962,63.09573444801933,4906.818567679515,1.479,0.565,-1.092,-1.697
-0.25,2699976598.401209,1.4556337595,63.24118513762193,4909.078761526029,1.476,0.563,-1.093,-1.697
-0.25,2699976598.401209,1.4561574459,63.24118513762193,4911.339996469978,1.473,0.56,-1.094,-1.697
-0.25,2699976598.401209,1.4567227364,63.3869711256927,4913.6022729909155,1.469,0.558,-1.096,-1.698
-0.25,2699976598.401209,1.4572557211,63.53309318517436,4914.733801992678,1.465,0.555,-1.097,-1.699
-0.25,2699976598.401209,1.4573092461,63.53309318517436,4914.733801992678,1.465,0.554,-1.097,-1.699
-0.25,2699976598.401209,1.4574372768,63.53309318517436,4915.86559156862,1.464,0.554,-1.098,-1.699
-0.25,2699976598.401209,1.4579917192,63.67955209079159,4916.997641778744,1.46,0.551,-1.1,-1.701
-0.25,2699976598.401209,1.4585193396,63.82634861905486,4918.129952683078,1.457,0.547,-1.102,-1.703
-0.25,2699976598.401209,1.4590700865,64.12095765851615,4919.262524341649,1.453,0.544,-1.105,-1.705
-0.25,2699976598.401209,1.4596060514,64.26877173170197,4920.395356814511,1.449,0.54,-1.108,-1.708
-0.25,2699976598.401209,1.4601261616,64.56542290346556,4920.395356814511,1.445,0.536,-1.112,-1.711
-0.25,2699976598.401209,1.4606543779,64.71426157485831,4920.395356814511,1.441,0.532,-1.116,-1.716
-0.25,2699976598.401209,1.4612133503,65.01296903430907,4920.395356814511,1.436,0.527,-1.121,-1.721
-0.25,2699976598.401209,1.4612593651,65.01296903430907,4920.395356814511,1.435,0.527,-1.121,-1.721
-0.25,2699976598.401209,1.4617408514,65.31305526474723,4919.262524341649,1.431,0.522,-1.127,-1.727
-0.25,2699976598.401209,1.4622639418,65.76578373554206,4918.129952683078,1.426,0.516,-1.133,-1.734
-0.25,2699976598.401209,1.4627894163,66.22165037017619,4915.86559156862,1.421,0.51,-1.141,-1.742
-0.25,2699976598.401209,1.4633024931,66.68067692136222,4913.6022729909155,1.415,0.503,-1.15,-1.752
-0.25,2699976598.401209,1.4638131857,67.29766562843179,4910.20924883086,1.408,0.495,-1.16,-1.763
-0.25,2699976598.401209,1.4643154144,67.92036326171846,4906.818567679515,1.401,0.486,-1.172,-1.776
-0.25,2699976598.401209,1.4648180008,68.7068440014232,4901.172634719431,1.393,0.475,-1.186,-1.792
-0.25,2699976598.401209,1.4653205872,69.66265141107687,4894.4060897312465,1.384,0.463,-1.204,-1.811
-0.25,2699976598.401209,1.465847373,70.95777679633888,4885.398559319364,1.372,0.447,-1.227,-1.837
-0.25,2699976598.401209,1.4663600922,71.77942912713618,4879.77727286486,1.363,0.436,-1.242,-1.853
-0.25,2699976598.401209,1.4668763876,74.47319739059893,4861.832584649837,1.34,0.404,-1.287,-1.904
-0.25,2699976598.401209,1.4673813581,80.72350302488383,4823.918924327151,1.289,0.334,-1.386,-2.014
-0.25,2699976598.401209,1.4676386118,87.90225168308842,4785.198963583403,1.234,0.26,-1.489,-2.13
-0.25,2699976598.401209,1.4677673578,96.38290236239705,4743.511960856962,1.174,0.18,-1.603,-2.257
-0.25,2699976598.401209,1.4678221941,105.19618738232224,4706.520991281343,1.117,0.104,-1.709,-2.374
-0.25,2699976598.401209,1.4678509235,115.08003889444356,4669.818485578366,1.059,0.026,-1.818,-2.495
-0.25,2699976598.401209,1.4678654671,125.02590302177201,4636.603940805552,1.007,-0.044,-1.916,-2.605
-0.25,2699976598.401209,1.4678730965,132.43415351946643,4613.175745603796,0.971,-0.092,-1.985,-2.681
-0.25,2699976598.401209,1.4678732157,132.43415351946643,4613.175745603796,0.97,-0.093,-1.986,-2.683
-0.25,2699976598.401209,1.4678786993,139.95873225726177,4591.980128368686,0.934,-0.14,-2.052,-2.755
-0.25,2699976598.401209,1.4678889513,155.59656316050751,4551.9763814842045,0.868,-0.23,-2.178,-2.895
-0.25,2699976598.401209,1.467903614,172.18685749860077,4513.360253409558,0.812,-0.316,-2.297,-3.025
-0.25,2699976598.401209,1.467952013,165.19617982290148,4530.018754322402,0.834,-0.282,-2.249,-2.972
-0.25,2699976598.401209,1.4682177305,153.4616982799294,4556.170837990161,0.876,-0.219,-2.163,-2.879
-0.25,2699976598.401209,1.4685504436,169.43378004473288,4519.600000304826,0.821,-0.303,-2.279,-3.005
-0.25,2699976598.401209,1.4687540531,188.36490894898,4479.195312542835,0.761,-0.393,-2.404,-3.142
-0.25,2699976598.401209,1.4689174891,207.49135174549107,4442.2193547105535,0.707,-0.476,-2.519,-3.269
-0.25,2699976598.401209,1.4690567255,228.559880337543,4406.563166924702,0.654,-0.557,-2.632,-3.393
-0.25,2699976598.401209,1.469178319,251.76769277588545,4372.199799574554,0.6,-0.638,-2.745,-3.517
-0.25,2699976598.401209,1.4692837,277.3320104651841,4337.105635004415,0.548,-0.716,-2.856,-3.64
-0.25,2699976598.401209,1.4693754911,304.088502567628,4303.283913057769,0.498,-0.792,-2.965,-3.761
-0.25,2699976598.401209,1.4694575071,334.19504002611427,4269.725940480334,0.446,-0.869,-3.073,-3.88
-0.25,2699976598.401209,1.4695312977,366.43757464783334,4231.555097166164,0.405,-0.936,-3.18,-4.003
-0.25,2699976598.401209,1.4695991278,400.866717627303,4184.080195674278,0.381,-0.99,-3.29,-4.134
-0.25,2699976598.401209,1.469645977,429.53642676488727,4151.451800405685,0.363,-1.029,-3.372,-4.231
-0.25,2699976598.401209,1.469704628,469.8941086052156,4120.975190973304,0.32,-1.093,-3.476,-4.349
-0.25,2699976598.401209,1.4697601795,514.0436515824259,4090.7223162166774,0.277,-1.157,-3.581,-4.468
-0.25,2699976598.401209,1.4698127508,563.6376558259543,4058.8219466191827,0.237,-1.22,-3.687,-4.588
-0.25,2699976598.401209,1.4698604345,613.7620051647939,4029.025350832952,0.201,-1.275,-3.787,-4.703
-0.25,2699976598.401209,1.4699085951,668.3439175686149,3999.4474976109736,0.167,-1.331,-3.886,-4.816
-0.25,2699976598.401209,1.4699572325,729.4575102545687,3968.2589095091143,0.135,-1.384,-3.988,-4.933
-0.25,2699976598.401209,1.4700055122,801.678063387679,3935.5007545577764,0.102,-1.438,-4.098,-5.06
-0.25,2699976598.401209,1.4700472355,893.3054837332954,3896.7271730789967,0.069,-1.498,-4.224,-5.205
-0.25,2699976598.401209,1.4700741768,993.1160484209336,3859.2241159472915,0.044,-1.547,-4.346,-5.346
-0.25,2699976598.401209,1.470092535,1083.9269140212039,3828.2474331682283,0.025,-1.586,-4.45,-5.465
-0.25,2699976598.401209,1.4701099396,1185.7687481671596,3794.0233553289568,0.009,-1.621,-4.557,-5.588
-0.25,2699976598.401209,1.4701251984,1297.1792709839558,3760.10523668496,0.004,-1.641,-4.662,-5.71
-0.25,2699976598.401209,1.4701396227,1415.793779957081,3726.490341997325,0.001,-1.66,-4.766,-5.831
-0.25,2699976598.401209,1.4701538086,1534.6169827992942,3694.0264435828335,0.006,-1.664,-4.864,-5.945
-0.25,2699976598.401209,1.4701693058,1663.4126503701698,3661.845359452976,0.014,-1.662,-4.961,-6.057
-0.25,2699976598.401209,1.4701755047,1702.15850839495,3652.5822138633744,0.018,-1.66,-4.989,-6.089
-0.25,2699976598.401209,1.4701782465,1629.296032639723,3669.4417673371618,0.016,-1.659,-4.935,-6.027
-0.25,2699976598.401209,1.4701789618,1442.1153515248682,3715.352290971724,0.01,-1.656,-4.789,-5.859
-0.25,2699976598.401209,1.470179081,1625.5487557504835,3670.2867848109704,0.016,-1.659,-4.933,-6.025
-0.25,2699976598.401209,1.4701792002,1629.296032639723,3668.5969444134184,0.017,-1.658,-4.937,-6.03
-0.25,2699976598.401209,1.4701793194,1603.2453906900419,3676.2073582940866,0.013,-1.66,-4.915,-6.004
-0.25,2699976598.401209,1.4701794386,1573.9828644662198,3682.9854234157206,0.012,-1.66,-4.894,-5.979
-0.25,2699976598.401209,1.4701795578,1548.816618912481,3689.775985701505,0.01,-1.66,-4.874,-5.956
-0.25,2699976598.401209,1.4701800346,1527.5660582380733,3694.877122539323,0.009,-1.661,-4.857,-5.937
-0.25,2699976598.401209,1.4701815844,1655.7699634695275,3662.6886275878364,0.017,-1.659,-4.956,-6.051
-0.25,2699976598.401209,1.470182538,1790.6058540352947,3632.4529689937044,0.027,-1.656,-5.048,-6.158
-0.25,2699976598.401209,1.4701837301,1931.9683170169242,3600.8082917348274,0.055,-1.627,-5.143,-6.267
-0.25,2699976598.401209,1.4701850414,2065.3801558105292,3571.9058251119704,0.085,-1.595,-5.226,-6.363
-0.25,2699976598.401209,1.4701868296,2213.094709605639,3544.051302809929,0.118,-1.561,-5.31,-6.458
-0.25,2699976598.401209,1.4701896906,2393.3157564053877,3510.750771848301,0.176,-1.491,-5.408,-6.571
-0.25,2699976598.401209,1.4701902866,2415.4608344449402,3506.711196464777,0.184,-1.483,-5.42,-6.585
-0.25,2699976598.401209,1.4701904058,2415.4608344449402,3506.711196464777,0.184,-1.483,-5.42,-6.585
-0.25,2699976598.401209,1.4701906443,1425.607593602188,3715.352290971724,0.021,-1.643,-4.775,-5.846
-0.25,2699976598.401209,1.4701908827,1166.8096170609629,3798.3939015450715,0.018,-1.611,-4.538,-5.568
-0.25,2699976598.401209,1.4701917171,722.7698036021702,4003.132821780234,0.083,-1.42,-3.972,-4.899
-0.25,2699976598.401209,1.4701926708,741.3102413009177,3992.087024388079,0.08,-1.431,-4.0,-4.933
-0.25,2699976598.401209,1.4701941013,941.8895965228418,3885.974979543936,0.043,-1.535,-4.283,-5.269
-0.25,2699976598.401209,1.4701958895,1348.9628825916532,3732.5015779572063,0.033,-1.623,-4.713,-5.775
-0.25,2699976598.401209,1.4701980352,1857.8044550916989,3599.979270433565,0.093,-1.584,-5.1,-6.225
-0.25,2699976598.401209,1.4702005386,2306.747188720069,3512.3679046568063,0.202,-1.463,-5.367,-6.529
-0.25,2699976598.401209,1.4702033997,2600.159563165272,3464.1764103524893,0.288,-1.36,-5.514,-6.698
-0.25,2699976598.401209,1.4702066183,2760.577856220345,3437.953513094916,0.349,-1.283,-5.59,-6.784
-0.25,2699976598.401209,1.4702101946,2864.1779699065796,3419.794425137087,0.396,-1.225,-5.639,-6.84
-0.25,2699976598.401209,1.4702103138,1981.527025805099,3562.8701940455303,0.157,-1.516,-5.182,-6.323
-0.25,2699976598.401209,1.4702107906,1402.8137045619576,3700.8373629231564,0.074,-1.588,-4.763,-5.84
-0.25,2699976598.401209,1.4702116251,868.960429286302,3903.013019642094,0.089,-1.475,-4.191,-5.169
-0.25,2699976598.401209,1.4702128172,885.1156098308356,3893.1398070156406,0.087,-1.483,-4.215,-5.198
-0.25,2699976598.401209,1.4702143669,1116.863247780561,3793.1498497368207,0.071,-1.555,-4.491,-5.524
-0.25,2699976598.401209,1.4702163935,1584.893192461114,3647.5394692560767,0.1,-1.571,-4.913,-6.015
-0.25,2699976598.401209,1.4702187777,2162.71852372702,3523.7087104248726,0.22,-1.444,-5.291,-6.449
-0.25,2699976598.401209,1.4702216387,2648.500138606701,3442.7065038944434,0.365,-1.267,-5.545,-6.737
-0.25,2699976598.401209,1.4702248573,2951.209226666387,3400.1650580407095,0.461,-1.146,-5.68,-6.889
-0.25,2699976598.401209,1.4702285528,3097.419299216581,3379.8700286198914,0.518,-1.074,-5.742,-6.958
-0.25,2699976598.401209,1.4702326059,3176.8740706497692,3368.2165076063116,0.56,-1.021,-5.775,-6.996
-0.25,2699976598.401209,1.4702327251,2238.72113856834,3502.6762691381296,0.269,-1.388,-5.338,-6.505
-0.25,2699976598.401209,1.4702333212,1588.546748597779,3639.9884030888024,0.121,-1.551,-4.917,-6.023
-0.25,2699976598.401209,1.4702341557,984.0111057611335,3840.6081572581174,0.094,-1.506,-4.342,-5.351
-0.25,2699976598.401209,1.4702355862,1004.6157902783947,3831.7750036138436,0.094,-1.511,-4.366,-5.379
-0.25,2699976598.401209,1.4702373743,1261.8275345906707,3734.220854303426,0.095,-1.555,-4.638,-5.7
-0.25,2699976598.401209,1.4702395201,1778.2794100389228,3591.6995478714375,0.164,-1.506,-5.053,-6.182
-0.25,2699976598.401209,1.4702422619,2398.83291901949,3470.5635400798756,0.336,-1.309,-5.426,-6.607
-0.25,2699976598.401209,1.4702454805,2930.8932452503213,3391.5638690582196,0.508,-1.092,-5.675,-6.887
-0.25,2699976598.401209,1.4702490568,3243.3961734934933,3350.425766809598,0.64,-0.924,-5.805,-7.033
-0.25,2699976598.401209,1.4702531099,3396.2527259040853,3331.194570682003,0.708,-0.839,-5.862,-7.098
-0.25,2699976598.401209,1.4702577591,3475.3616144320576,3320.4733579750687,0.748,-0.789,-5.891,-7.131
-0.25,2699976598.401209,1.4702578783,2506.109253032114,3447.4660657314944,0.398,-1.234,-5.482,-6.672
-0.25,2699976598.401209,1.4702584743,1786.4875748520499,3583.43886814277,0.187,-1.483,-5.061,-6.193
-0.25,2699976598.401209,1.4702595472,1106.6237839776663,3785.297343755959,0.101,-1.527,-4.483,-5.52
-0.25,2699976598.401209,1.4702609777,1129.7959146727976,3776.591401452663,0.103,-1.529,-4.507,-5.548
-0.25,2699976598.401209,1.4702628851,1412.537544622754,3679.594830147843,0.128,-1.536,-4.777,-5.864
-0.25,2699976598.401209,1.4702653885,1972.4227361148535,3540.788613684981,0.243,-1.423,-5.185,-6.335
-0.25,2699976598.401209,1.4702682495,2642.4087573219476,3421.369661353676,0.468,-1.147,-5.55,-6.75
-0.25,2699976598.401209,1.4702717066,3198.895109691397,3344.2597353373435,0.689,-0.868,-5.792,-7.022
-0.25,2699976598.401209,1.4702756405,3531.83169791957,3304.4562019345226,0.835,-0.681,-5.917,-7.163
-0.25,2699976598.401209,1.4702801704,3689.775985701505,3286.2454665820464,0.915,-0.575,-5.971,-7.225
-0.25,2699976598.401209,1.4702851772,3767.0379898390893,3276.4232568537846,0.959,-0.516,-5.999,-7.256
-0.25,2699976598.401209,1.4702852964,2798.981319634363,3393.1261016293192,0.546,-1.052,-5.625,-6.836
-0.25,2699976598.401209,1.4702858925,2004.4720273651615,3529.3928374635293,0.273,-1.39,-5.206,-6.362
-0.25,2699976598.401209,1.4702869654,1244.5146117713857,3733.3611171608127,0.114,-1.538,-4.624,-5.686
-0.25,2699976598.401209,1.4702883959,1270.5741052085418,3723.917062545687,0.117,-1.539,-4.649,-5.715
-0.25,2699976598.401209,1.4702904224,1581.2480392703826,3628.273359403348,0.164,-1.51,-4.914,-6.026
-0.25,2699976598.401209,1.4702928066,2182.7299118430014,3491.4031547858626,0.344,-1.306,-5.314,-6.486
-0.25,2699976598.401209,1.4702957869,2897.3435877013244,3374.4267097541338,0.615,-0.967,-5.671,-6.89
-0.25,2699976598.401209,1.4702992439,3491.4031547858626,3298.3747715856816,0.885,-0.622,-5.906,-7.154
-0.25,2699976598.401209,1.470303297,3837.0724549227884,3259.1173631348456,1.057,-0.392,-6.028,-7.291
-0.25,2699976598.401209,1.470307827,4008.6671762730302,3241.1564884384366,1.142,-0.28,-6.082,-7.352
-0.25,2699976598.401209,1.4703128338,4092.6065973001096,3231.4690444798844,1.189,-0.218,-6.11,-7.383
-0.25,2699976598.401209,1.470312953,3140.5086938762165,3337.3365130514867,0.752,-0.796,-5.774,-7.007
-0.25,2699976598.401209,1.470313549,2254.2392121524304,3472.9617486579155,0.388,-1.257,-5.357,-6.537
-0.25,2699976598.401209,1.4703145027,1406.0475241299143,3678.7476696641274,0.139,-1.528,-4.772,-5.86
-0.25,2699976598.401209,1.4703159332,1435.489433353656,3669.4417673371618,0.146,-1.523,-4.798,-5.89
-0.25,2699976598.401209,1.4703177214,1774.1894808901661,3574.3740626448075,0.229,-1.442,-5.059,-6.195
-0.25,2699976598.401209,1.4703201056,2426.6100950824143,3439.5371138063997,0.472,-1.154,-5.45,-6.643
-0.25,2699976598.401209,1.4703228474,3191.5378551007616,3324.298395649131,0.814,-0.722,-5.797,-7.035
-0.25,2699976598.401209,1.4703261852,3810.65823393773,3249.376236187617,1.133,-0.3,-6.025,-7.292
-0.25,2699976598.401209,1.4703298807,4187.935651179182,3209.96280421069,1.311,-0.063,-6.145,-7.425
-0.25,2699976598.401209,1.4703341722,4355.118736855684,3190.8030609514212,1.404,0.059,-6.199,-7.485
-0.25,2699976598.401209,1.4703389406,4456.562483975033,3179.069335643364,1.462,0.136,-6.228,-7.518
-0.25,2699976598.401209,1.4703390598,3523.7087104248726,3274.1607653757505,1.041,-0.428,-5.929,-7.186
-0.25,2699976598.401209,1.4703396559,2546.8302525850418,3410.3582265334926,0.562,-1.046,-5.517,-6.721
-0.25,2699976598.401209,1.4703404903,1592.20872705117,3617.4288676421797,0.196,-1.48,-4.926,-6.042
-0.25,2699976598.401209,1.4703419209,1625.5487557504835,3608.278079727421,0.209,-1.466,-4.951,-6.072
-0.25,2699976598.401209,1.4703435898,1995.2623149688789,3513.985782353995,0.345,-1.314,-5.208,-6.37
-0.25,2699976598.401209,1.4703458548,2691.5348039269165,3381.4268747382753,0.651,-0.937,-5.588,-6.804
-0.25,2699976598.401209,1.4703484774,3499.451670283573,3268.1350899154786,1.088,-0.372,-5.923,-7.182
-0.25,2699976598.401209,1.4703515768,4149.5404263436285,3195.2143648082215,1.422,0.072,-6.143,-7.428
-0.25,2699976598.401209,1.4703552723,4528.975799036209,3155.7311736800216,1.604,0.313,-6.257,-7.555
-0.25,2699976598.401209,1.4703593254,4709.77326396953,3136.8951301583775,1.683,0.415,-6.307,-7.611
-0.25,2699976598.401209,1.4703638554,4797.334486366892,3125.35964361334,1.738,0.483,-6.334,-7.642
-0.25,2699976598.401209,1.4703639746,3917.4187710778306,3208.484902035953,1.384,0.014,-6.074,-7.354
-0.25,2699976598.401209,1.4703644514,2844.4611074479167,3344.2597353373435,0.811,-0.743,-5.665,-6.895
-0.25,2699976598.401209,1.4703652859,1782.378767448089,3554.6758199906994,0.303,-1.37,-5.07,-6.215
-0.25,2699976598.401209,1.470366478,1815.515662773135,3544.051302809929,0.322,-1.35,-5.095,-6.244
-0.25,2699976598.401209,1.4703681469,2218.1964198002192,3450.6427620182526,0.513,-1.12,-5.347,-6.536
-0.25,2699976598.401209,1.4703701735,2958.0124665515464,3320.4733579750687,0.914,-0.617,-5.716,-6.957
-0.25,2699976598.401209,1.4703725576,3801.8939632056126,3209.96280421069,1.408,0.037,-6.04,-7.32
-0.25,2699976598.401209,1.4703754187,4466.835921509631,3137.6175101187496,1.73,0.462,-6.251,-7.555
-0.25,2699976598.401209,1.4703787565,4852.88500162121,3098.846042012061,1.892,0.669,-6.36,-7.676
-0.25,2699976598.401209,1.470382452,5023.4258952238715,3079.6403415023933,1.963,0.75,-6.408,-7.729
-0.25,2699976598.401209,1.4703866243,5116.818355403078,3067.608976917938,2.005,0.791,-6.432,-7.757
-0.25,2699976598.401209,1.4703867435,4305.266104917106,3139.7856482728203,1.755,0.486,-6.208,-7.511
-0.25,2699976598.401209,1.4703872204,3140.5086938762165,3274.9147555557906,1.156,-0.312,-5.802,-7.059
-0.25,2699976598.401209,1.4703879356,1967.886289706845,3486.582933528731,0.481,-1.171,-5.205,-6.379
-0.25,2699976598.401209,1.4703891277,2009.0928126087279,3475.3616144320576,0.508,-1.14,-5.229,-6.408
-0.25,2699976598.401209,1.4703906775,2437.8108183687523,3382.9844379759015,0.752,-0.837,-5.479,-6.694
-0.25,2699976598.401209,1.4703925848,3213.660538640318,3253.8685178010755,1.277,-0.159,-5.837,-7.102
-0.25,2699976598.401209,1.4703948498,4083.1938633269233,3144.126420258796,1.778,0.504,-6.15,-7.452
-0.25,2699976598.401209,1.4703974724,4775.2927365769065,3072.557365267445,2.048,0.836,-6.354,-7.677
-0.25,2699976598.401209,1.4704005718,5164.163692720711,3033.1926853535583,2.161,0.945,-6.459,-7.791
-0.25,2699976598.401209,1.4704040289,5333.348954876208,3013.006024186122,2.224,1.006,-6.505,-7.842
-0.25,2699976598.401209,1.4704079628,5420.008904016238,2999.16251898765,2.269,1.048,-6.529,-7.869
-0.25,2699976598.401209,1.470408082,4677.351412871981,3060.5536720536616,2.127,0.915,-6.339,-7.665
-0.25,2699976598.401209,1.4704084396,3435.5794789987463,3195.2143648082215,1.613,0.265,-5.937,-7.221
-0.25,2699976598.401209,1.4704091549,2157.744409152667,3408.7880601025868,0.749,-0.86,-5.336,-6.541
-0.25,2699976598.401209,1.4704102278,2197.8598727848253,3397.8171182708334,0.786,-0.815,-5.361,-6.57
-0.25,2699976598.401209,1.4704116583,2654.605561975539,3304.4562019345226,1.135,-0.377,-5.606,-6.852
-0.25,2699976598.401209,1.4704133272,3467.368504525317,3176.8740706497692,1.735,0.417,-5.956,-7.247
-0.25,2699976598.401209,1.470415473,4365.158322401661,3069.021988391158,2.16,0.949,-6.259,-7.582
-0.25,2699976598.401209,1.4704178572,5058.246620031143,2997.7816715823815,2.345,1.125,-6.455,-7.795
-0.25,2699976598.401209,1.4704207182,5445.026528424214,2958.6936525140045,2.434,1.207,-6.555,-7.903
-0.25,2699976598.401209,1.4704238176,5610.479760324706,2936.9733110014463,2.491,1.261,-6.599,-7.95
-0.25,2699976598.401209,1.4704273939,5701.642722807472,2922.13314244037,2.535,1.304,-6.621,-7.976
