FeH,Age,Mini,L,Te,Bmag,Vmag,Jmag,Kmag
-0.75,4000000079.8724174,0.0900000036,0.00052360043658575,2661.950651151836,19.286,17.245,10.845,10.247
-0.75,4000000079.8724174,0.0934795067,0.000628058358813318,2730.863545120826,18.701,16.708,10.681,10.046
-0.75,4000000079.8724174,0.0995518565,0.0008491804750363135,2848.3935915323636,17.763,15.844,10.408,9.722
-0.75,4000000079.8724174,0.1133505404,0.0013396766874259345,3010.2322206633794,16.519,14.679,9.988,9.247
-0.75,4000000079.8724174,0.1186555773,0.0015703628043335532,3069.728738183665,16.104,14.291,9.841,9.085
-0.75,4000000079.8724174,0.1377592981,0.00239883291901949,3207.746206134075,15.149,13.41,9.441,8.662
-0.75,4000000079.8724174,0.1568630189,0.003303695410368149,3301.4140864591145,14.506,12.822,9.131,8.342
-0.75,4000000079.8724174,0.1950704604,0.0053456435939697195,3427.6778654645045,13.653,12.049,8.656,7.86
-0.75,4000000079.8724174,0.2428297698,0.008413951416451947,3531.018557237582,12.928,11.39,8.201,7.401
-0.75,4000000079.8724174,0.2905890644,0.012105981335504822,3606.6167888195973,12.378,10.885,7.833,7.029
-0.75,4000000079.8724174,0.3383483291,0.016865530253887415,3668.5969444134184,11.906,10.447,7.497,6.689
-0.75,4000000079.8724174,0.3861076236,0.02349632820848307,3753.185242379138,11.406,9.99,7.167,6.356
-0.75,4000000079.8724174,0.4338669777,0.03357376142429547,3866.339621093609,10.848,9.49,6.817,6.005
-0.75,4000000079.8724174,0.443584919,0.03647539469256078,3899.419866765436,10.711,9.369,6.738,5.927
-0.75,4000000079.8724174,0.4816262424,0.04954501908047903,4028.0977402609537,10.203,8.931,6.441,5.637
-0.75,4000000079.8724174,0.5293855667,0.07516228940182053,4260.886835827885,9.455,8.308,6.048,5.268
-0.75,4000000079.8724174,0.5771448612,0.1137627285823431,4551.9763814842045,8.638,7.653,5.677,4.964
-0.75,4000000079.8724174,0.6249040961,0.16826740610704674,4857.356732878539,7.911,7.055,5.344,4.722
-0.75,4000000079.8724174,0.6429113746,0.19408858775927784,4970.499105762351,7.666,6.848,5.226,4.64
-0.75,4000000079.8724174,0.6726634502,0.2443430552693972,5159.409511903314,7.293,6.532,5.038,4.505
-0.75,4000000079.8724174,0.6797285676,0.25763211570025757,5203.553211345586,7.209,6.461,4.995,4.473
-0.75,4000000079.8724174,0.7116756439,0.3258367010020088,5403.809120790774,6.846,6.155,4.804,4.332
-0.75,4000000079.8724174,0.7213617563,0.34994516702835726,5463.86549881854,6.741,6.066,4.748,4.289
-0.75,4000000079.8724174,0.7392479777,0.3971915494694403,5569.292144857989,6.558,5.909,4.645,4.208
-0.75,4000000079.8724174,0.7643097639,0.47424198526024464,5713.470640013352,6.309,5.697,4.503,4.094
-0.75,4000000079.8724174,0.7700599432,0.4931738039549359,5746.45486597673,6.253,5.65,4.47,4.068
-0.75,4000000079.8724174,0.7960320115,0.5902010801718443,5874.893525297769,6.012,5.443,4.321,3.942
-0.75,4000000079.8724174,0.8187582493,0.690239803840242,5982.738215608625,5.807,5.267,4.192,3.831
-0.75,4000000079.8724174,0.8204926252,0.6982324040771714,5991.0093861135365,5.792,5.254,4.181,3.822
-0.75,4000000079.8724174,0.846242249,0.8298507675144224,6099.580958722386,5.568,5.057,4.03,3.69
-0.75,4000000079.8724174,0.8674564958,0.9571940712948445,6185.858764917845,5.386,4.898,3.906,3.579
-0.75,4000000079.8724174,0.8727531433,0.9931160484209338,6205.831792990621,5.342,4.858,3.874,3.551
-0.75,4000000079.8724174,0.8908195496,1.1220184543019633,6274.80161997852,5.189,4.723,3.767,3.455
-0.75,4000000079.8724174,0.9078328609,1.2560299636948749,6338.69711256927,5.046,4.595,3.665,3.363
-0.75,4000000079.8724174,0.9161547422,1.330454417978091,6369.421653777093,4.977,4.532,3.614,3.317
-0.75,4000000079.8724174,0.9239127636,1.4028137045619582,6398.821568325593,4.912,4.474,3.568,3.275
-0.75,4000000079.8724174,0.9382137656,1.5452544395384138,6453.569627274052,4.791,4.366,3.481,3.197
-0.75,4000000079.8724174,0.9520876408,1.6982436524617444,6505.789391703234,4.674,4.26,3.395,3.119
-0.75,4000000079.8724174,0.9648530483,1.8535316234148114,6552.39394015981,4.566,4.162,3.315,3.046
-0.75,4000000079.8724174,0.9698681831,1.9186687406702894,6570.52390963554,4.524,4.123,3.284,3.018
-0.75,4000000079.8724174,0.9893616438,2.202926463053456,6645.076729077792,4.356,3.971,3.16,2.906
-0.75,4000000079.8724174,1.0068974495,2.494594726942955,6708.107287992274,4.205,3.832,3.046,2.801
-0.75,4000000079.8724174,1.0135512352,2.6121613543992064,6729.766562843175,4.147,3.779,3.001,2.76
-0.75,4000000079.8724174,1.0225083828,2.78612116862977,6763.943948096019,4.07,3.708,2.943,2.707
-0.75,4000000079.8724174,1.0371747017,3.0902954325135905,6812.397799659153,3.945,3.592,2.846,2.617
-0.75,4000000079.8724174,1.0510729551,3.4197944251370886,6853.304051260454,3.825,3.479,2.75,2.527
-0.75,4000000079.8724174,1.0622495413,3.715352290971725,6883.352332539906,3.724,3.385,2.668,2.449
-0.75,4000000079.8724174,1.0683994293,3.899419866765434,6900.808885484521,3.668,3.331,2.622,2.405
-0.75,4000000079.8724174,1.0768768787,4.178303666466218,6921.49644226647,3.588,3.256,2.554,2.341
-0.75,4000000079.8724174,1.0818001032,4.345102241715716,6929.469698425558,3.542,3.211,2.513,2.302
-0.75,4000000079.8724174,1.0859131813,4.518559443749224,6937.452139421235,3.498,3.169,2.474,2.264
-0.75,4000000079.8724174,1.0923229456,4.808393484497286,6942.246017141189,3.426,3.099,2.407,2.198
-0.75,4000000079.8724174,1.0983475447,5.1286138399136485,6937.452139421235,3.355,3.028,2.335,2.125
-0.75,4000000079.8724174,1.1022439003,5.382697825162883,6929.469698425558,3.304,2.976,2.281,2.07
-0.75,4000000079.8724174,1.1050012112,5.533501092157366,6918.309709189362,3.275,2.946,2.248,2.035
-0.75,4000000079.8724174,1.1109478474,5.847900841444807,6892.868607318448,3.218,2.885,2.178,1.963
-0.75,4000000079.8724174,1.111199975,5.861381645140288,6891.281648380538,3.215,2.883,2.176,1.96
-0.75,4000000079.8724174,1.1210576296,6.456542290346556,6834.393809860222,3.118,2.777,2.05,1.828
-0.75,4000000079.8724174,1.1279389858,6.950243175887968,6757.716993552864,3.051,2.699,1.945,1.712
-0.75,4000000079.8724174,1.1348341703,7.533555637337174,6629.793476706679,2.992,2.618,1.816,1.565
-0.75,4000000079.8724174,1.140444994,8.016780633876792,6443.17608047901,2.967,2.558,1.685,1.406
-0.75,4000000079.8724174,1.1441231966,8.260379495771788,6251.726927756856,2.991,2.54,1.589,1.279
-0.75,4000000079.8724174,1.1466231346,8.222426499470712,6072.954118270236,3.053,2.56,1.535,1.193
-0.75,4000000079.8724174,1.1483995914,8.016780633876792,5919.704116460876,3.133,2.601,1.509,1.139
-0.75,4000000079.8724174,1.1497530937,7.870457896950986,5799.626158196422,3.2,2.637,1.49,1.097
-0.75,4000000079.8724174,1.1508731842,7.744617978025188,5701.642722807472,3.256,2.667,1.475,1.062
-0.75,4000000079.8724174,1.151696682,7.655966069112563,5632.484431714734,3.296,2.689,1.463,1.036
-0.75,4000000079.8724174,1.1525093317,7.603262769401819,5565.446342582577,3.331,2.708,1.45,1.008
-0.75,4000000079.8724174,1.1537197828,7.744617978025188,5486.558320717441,3.346,2.702,1.405,0.946
-0.75,4000000079.8724174,1.1547948122,8.016780633876792,5432.503314924331,3.333,2.674,1.348,0.877
-0.75,4000000079.8724174,1.1552482843,8.1846478813479,5412.526055151543,3.32,2.655,1.32,0.843
-0.75,4000000079.8724174,1.1559659243,8.531001140175896,5390.139436325507,3.285,2.614,1.266,0.784
-0.75,4000000079.8724174,1.1575807333,9.506047936562814,5346.874615616075,3.189,2.506,1.135,0.643
-0.75,4000000079.8724174,1.1588922739,10.495424286523221,5318.632707726801,3.097,2.405,1.02,0.521
-0.75,4000000079.8724174,1.1596461535,11.142945335917299,5302.735926292144,3.038,2.342,0.948,0.446
-0.75,4000000079.8724174,1.1601401567,11.561122421920986,5294.19581017428,3.002,2.303,0.905,0.4
-0.75,4000000079.8724174,1.161329031,12.735030810166617,5273.512745624402,2.907,2.203,0.793,0.284
-0.75,4000000079.8724174,1.1625261307,14.157937799570817,5251.701096404131,2.804,2.094,0.673,0.158
-0.75,4000000079.8724174,1.1637102365,15.812480392703835,5228.775553134414,2.695,1.978,0.544,0.024
-0.75,4000000079.8724174,1.1647056341,17.498466886246575,5208.348068742078,2.596,1.873,0.427,-0.098
-0.75,4000000079.8724174,1.165638566,19.408858775927783,5186.8059455744215,2.497,1.766,0.309,-0.223
-0.75,4000000079.8724174,1.1665463448,21.6271852372702,5164.163692720711,2.392,1.655,0.183,-0.355
-0.75,4000000079.8724174,1.1673210859,23.933157564053875,5141.620281354357,2.296,1.551,0.066,-0.478
-0.75,4000000079.8724174,1.1680585146,26.54605561975539,5119.175279997109,2.198,1.445,-0.055,-0.605
-0.75,4000000079.8724174,1.1686962843,29.308932452503214,5096.828259054277,2.106,1.346,-0.168,-0.725
-0.75,4000000079.8724174,1.1693067551,32.359365692962825,5072.242398926514,2.012,1.243,-0.286,-0.85
-0.75,4000000079.8724174,1.1698850393,35.974933515574236,5047.775135009473,1.916,1.138,-0.407,-0.978
-0.75,4000000079.8724174,1.1704019308,39.71915494694403,5023.4258952238715,1.824,1.037,-0.524,-1.103
-0.75,4000000079.8724174,1.170869112,43.752210515825205,4998.043135782391,1.735,0.94,-0.638,-1.225
-0.75,4000000079.8724174,1.1713130474,48.41723675840994,4972.788632333997,1.644,0.84,-0.755,-1.35
-0.75,4000000079.8724174,1.1717169285,53.33348954876211,4946.522626750653,1.556,0.743,-0.87,-1.472
-0.75,4000000079.8724174,1.1720893383,58.74893525297766,4920.395356814511,1.471,0.647,-0.983,-1.593
-0.75,4000000079.8724174,1.1724433899,64.86344335482384,4894.4060897312465,1.386,0.551,-1.098,-1.716
-0.75,4000000079.8724174,1.1727694273,71.12135136533291,4868.554096577112,1.306,0.46,-1.208,-1.834
-0.75,4000000079.8724174,1.1730985641,78.16278045883297,4842.83865227851,1.228,0.37,-1.317,-1.952
-0.75,4000000079.8724174,1.1735516787,85.11380382023764,4819.477976251272,1.154,0.285,-1.419,-2.061
-0.75,4000000079.8724174,1.1737526655,81.65823713585922,4833.926025160843,1.187,0.325,-1.369,-2.006
-0.75,4000000079.8724174,1.1739435196,75.33555637337174,4860.713235201249,1.252,0.401,-1.272,-1.901
-0.75,4000000079.8724174,1.1739937067,73.6207097494736,4867.433199621377,1.27,0.423,-1.245,-1.871
-0.75,4000000079.8724174,1.1742722988,81.47042840208397,4839.4944930166275,1.185,0.324,-1.365,-2.001
-0.75,4000000079.8724174,1.1745370626,89.74287945007487,4810.608341479539,1.104,0.231,-1.48,-2.125
-0.75,4000000079.8724174,1.1747946739,99.08319448927675,4782.995805358158,1.022,0.136,-1.596,-2.25
-0.75,4000000079.8724174,1.1750259399,108.89300933334333,4754.4468852521,0.946,0.046,-1.707,-2.37
-0.75,4000000079.8724174,1.1752480268,119.94993031493793,4726.06836898339,0.868,-0.045,-1.821,-2.493
-0.75,4000000079.8724174,1.1754504442,131.82567385564073,4697.859239439367,0.793,-0.135,-1.932,-2.614
-0.75,4000000079.8724174,1.1756408215,145.2111617587742,4668.743343920188,0.721,-0.227,-2.046,-2.735
-0.75,4000000079.8724174,1.1758124828,159.5879147236732,4639.807899821257,0.658,-0.316,-2.157,-2.852
-0.75,4000000079.8724174,1.175970912,174.98466886246564,4611.051788759832,0.596,-0.404,-2.268,-2.969
-0.75,4000000079.8724174,1.1761184931,191.8668740670289,4581.418867145335,0.535,-0.492,-2.378,-3.086
-0.75,4000000079.8724174,1.1762559414,210.86281499332887,4551.9763814842045,0.477,-0.577,-2.488,-3.204
-0.75,4000000079.8724174,1.1763846874,231.20647901755942,4522.723107939902,0.42,-0.663,-2.598,-3.323
-0.75,4000000079.8724174,1.1765007973,252.92979964461446,4493.657830540859,0.365,-0.745,-2.705,-3.438
-0.75,4000000079.8724174,1.1766108274,277.3320104651841,4464.779341129965,0.31,-0.829,-2.814,-3.556
-0.75,4000000079.8724174,1.1767084599,302.6913428101305,4436.086439314323,0.262,-0.906,-2.917,-3.667
-0.75,4000000079.8724174,1.176802516,331.1311214825911,4407.5779324153655,0.213,-0.985,-3.023,-3.783
-0.75,4000000079.8724174,1.1768876314,361.40986263961315,4379.25263541926,0.163,-1.058,-3.125,-3.895
-0.75,4000000079.8724174,1.1769673824,394.4573020752785,4350.10760630697,0.115,-1.129,-3.227,-4.009
-0.75,4000000079.8724174,1.1770437956,430.5266104917105,4321.1565447029925,0.065,-1.2,-3.33,-4.124
-0.75,4000000079.8724174,1.1771118641,468.81338214526505,4293.386634704304,0.02,-1.267,-3.429,-4.235
-0.75,4000000079.8724174,1.1771776676,511.6818355403078,4264.813065450337,-0.027,-1.336,-3.53,-4.348
-0.75,4000000079.8724174,1.1772377491,555.9042572704037,4237.405246788001,-0.069,-1.4,-3.628,-4.458
-0.75,4000000079.8724174,1.1772942543,605.3408747539136,4210.173564456214,-0.111,-1.464,-3.726,-4.569
-0.75,4000000079.8724174,1.1773481369,659.1738952443212,4182.153799140227,-0.152,-1.528,-3.824,-4.68
-0.75,4000000079.8724174,1.1774088144,729.4575102545687,4147.629932299208,-0.199,-1.602,-3.942,-4.814
-0.75,4000000079.8724174,1.1774550676,792.5013304804718,4120.026410605537,-0.235,-1.662,-4.038,-4.923
-0.75,4000000079.8724174,1.1774986982,860.9937521846008,4093.5490632955944,-0.27,-1.721,-4.134,-5.031
-0.75,4000000079.8724174,1.1775480509,950.6047936562819,4060.691533656346,-0.306,-1.788,-4.249,-5.163
-0.75,4000000079.8724174,1.177593708,1049.542428652322,4028.0977402609537,-0.338,-1.851,-4.363,-5.293
-0.75,4000000079.8724174,1.1776292324,1137.627285823431,4001.2897354069864,-0.365,-1.903,-4.457,-5.4
-0.75,4000000079.8724174,1.1776695251,1253.1411749414156,3970.0867811218423,-0.396,-1.965,-4.569,-5.528
-0.75,4000000079.8724174,1.1777065992,1377.2094688939458,3938.2202413383675,-0.421,-2.021,-4.678,-5.654
-0.75,4000000079.8724174,1.1777414083,1517.050367459337,3906.609483459363,-0.445,-2.077,-4.787,-5.78
-0.75,4000000079.8724174,1.1777738333,1663.4126503701698,3875.252454410245,-0.466,-2.128,-4.895,-5.904
-0.75,4000000079.8724174,1.1778043509,1828.1002161427427,3844.147117595778,-0.485,-2.177,-5.001,-6.028
-0.75,4000000079.8724174,1.1778326035,1995.2623149688789,3814.169596669385,-0.496,-2.22,-5.105,-6.148
-0.75,4000000079.8724174,1.1778590679,2172.7011788637456,3785.297343755959,-0.501,-2.254,-5.202,-6.26
-0.75,4000000079.8724174,1.1778686047,2233.5722228305326,3775.72190925416,-0.502,-2.265,-5.235,-6.298
-0.75,4000000079.8724174,1.1778686047,65.46361740672751,5148.7286014054735,1.2,0.455,-1.029,-1.574
-0.75,4000000079.8724174,1.1780962944,67.29766562843179,5135.704178483554,1.18,0.43,-1.062,-1.61
-0.75,4000000079.8724174,1.1783368587,68.07693586937414,5130.97619778,1.17,0.418,-1.077,-1.626
-0.75,4000000079.8724174,1.1785798073,68.54882264526617,5130.97619778,1.163,0.411,-1.085,-1.634
-0.75,4000000079.8724174,1.1788202524,68.7068440014232,5133.339643802892,1.157,0.407,-1.087,-1.635
-0.75,4000000079.8724174,1.1790727377,68.86522963442762,5138.069802323445,1.153,0.403,-1.088,-1.635
-0.75,4000000079.8724174,1.1793180704,69.02398038402418,5142.804319487918,1.148,0.4,-1.088,-1.634
-0.75,4000000079.8724174,1.179564476,69.18309709189366,5147.54319931262,1.144,0.398,-1.088,-1.633
-0.75,4000000079.8724174,1.1798098087,69.18309709189366,5152.286445817567,1.139,0.395,-1.088,-1.632
-0.75,4000000079.8724174,1.1800382137,69.3425806016569,5155.846748750552,1.134,0.391,-1.089,-1.631
-0.75,4000000079.8724174,1.1802841425,69.5024317588797,5159.409511903314,1.129,0.388,-1.091,-1.632
-0.75,4000000079.8724174,1.1805403233,69.66265141107687,5162.974736975886,1.124,0.384,-1.092,-1.633
-0.75,4000000079.8724174,1.18078053,69.98419960022734,5166.542425669501,1.119,0.38,-1.094,-1.634
-0.75,4000000079.8724174,1.1810362339,70.14552984199715,5168.922254317574,1.114,0.376,-1.097,-1.636
-0.75,4000000079.8724174,1.1812899113,70.30723198838334,5172.494052829933,1.109,0.371,-1.099,-1.637
-0.75,4000000079.8724174,1.1813114882,70.30723198838334,5172.494052829933,1.108,0.371,-1.099,-1.638
-0.75,4000000079.8724174,1.1815485954,70.6317554262962,5174.876622934801,1.103,0.367,-1.102,-1.64
-0.75,4000000079.8724174,1.1818014383,70.79457843841381,5177.260290506427,1.098,0.362,-1.105,-1.642
-0.75,4000000079.8724174,1.1820478439,71.12135136533291,5178.452536000238,1.093,0.358,-1.109,-1.645
-0.75,4000000079.8724174,1.1822831631,71.44963260755135,5179.645056050334,1.088,0.353,-1.113,-1.649
-0.75,4000000079.8724174,1.182533741,71.77942912713618,5180.837850719928,1.083,0.348,-1.117,-1.653
-0.75,4000000079.8724174,1.182770133,72.11074791828997,5180.837850719928,1.078,0.343,-1.122,-1.658
-0.75,4000000079.8724174,1.1830031872,72.44359600749902,5180.837850719928,1.073,0.338,-1.127,-1.663
-0.75,4000000079.8724174,1.1830272675,72.44359600749902,5180.837850719928,1.072,0.338,-1.128,-1.664
-0.75,4000000079.8724174,1.1832429171,72.77798045368242,5179.645056050334,1.068,0.332,-1.134,-1.67
-0.75,4000000079.8724174,1.1834795475,73.2824533138904,5178.452536000238,1.062,0.326,-1.141,-1.677
-0.75,4000000079.8724174,1.1837090254,73.6207097494736,5174.876622934801,1.057,0.32,-1.149,-1.686
-0.75,4000000079.8724174,1.1839421988,74.30191378967014,5172.494052829933,1.05,0.312,-1.158,-1.696
-0.75,4000000079.8724174,1.1841747761,74.81695005111546,5167.732202999587,1.044,0.304,-1.169,-1.708
-0.75,4000000079.8724174,1.1844027042,75.68328950209744,5162.974736975886,1.037,0.295,-1.181,-1.721
-0.75,4000000079.8724174,1.1846312284,76.38357835776907,5157.034063026461,1.029,0.285,-1.194,-1.736
-0.75,4000000079.8724174,1.1848615408,77.26805850957021,5149.914276478671,1.021,0.274,-1.21,-1.754
-0.75,4000000079.8724174,1.1850922108,78.34296427662116,5142.804319487918,1.011,0.262,-1.226,-1.772
-0.75,4000000079.8724174,1.1853251457,78.88601176185544,5140.436515824259,1.006,0.255,-1.235,-1.781
-0.75,4000000079.8724174,1.1855670214,81.2830516164099,5119.175279997109,0.987,0.228,-1.274,-1.826
-0.75,4000000079.8724174,1.1857985258,86.49679187756934,5080.424479948444,0.946,0.173,-1.355,-1.917
-0.75,4000000079.8724174,1.185949564,93.75620069258802,5033.846868348144,0.892,0.1,-1.457,-2.032
-0.75,4000000079.8724174,1.186019659,102.32929922807536,4985.3998926398735,0.831,0.019,-1.569,-2.157
-0.75,4000000079.8724174,1.1860489845,111.42945335917304,4943.106869868354,0.771,-0.059,-1.676,-2.275
-0.75,4000000079.8724174,1.1860622168,121.05981335504829,4903.430227918956,0.712,-0.134,-1.777,-2.388
-0.75,4000000079.8724174,1.1860692501,130.9181922999407,4867.433199621377,0.656,-0.205,-1.874,-2.497
-0.75,4000000079.8724174,1.1860723495,137.4041975012515,4846.185122401829,0.622,-0.248,-1.932,-2.562
-0.75,4000000079.8724174,1.1860724688,137.4041975012515,4846.185122401829,0.622,-0.249,-1.934,-2.564
-0.75,4000000079.8724174,1.1860748529,144.5439770745928,4823.918924327151,0.585,-0.295,-1.996,-2.634
-0.75,4000000079.8724174,1.1860793829,159.220872705117,4784.097257646801,0.519,-0.385,-2.115,-2.764
-0.75,4000000079.8724174,1.1860859394,172.5837891990204,4752.257885621896,0.47,-0.459,-2.211,-2.867
-0.75,4000000079.8724174,1.186117053,161.4358556826487,4779.692969796099,0.509,-0.399,-2.132,-2.782
-0.75,4000000079.8724174,1.1863063574,170.60823890031244,4756.636893186042,0.477,-0.448,-2.198,-2.853
-0.75,4000000079.8724174,1.1863914728,190.54607179632464,4710.8578542037,0.409,-0.552,-2.335,-3.001
-0.75,4000000079.8724174,1.1864686012,214.7830474130533,4663.37134746993,0.339,-0.661,-2.479,-3.157
-0.75,4000000079.8724174,1.186532855,238.2319469358689,4623.810213992603,0.28,-0.754,-2.604,-3.291
-0.75,4000000079.8724174,1.1865891218,263.63313858253787,4584.584692493264,0.224,-0.845,-2.726,-3.424
-0.75,4000000079.8724174,1.1866383553,290.4022654464451,4545.6919358492405,0.171,-0.932,-2.845,-3.554
-0.75,4000000079.8724174,1.1866812706,319.88951096913974,4509.205208756537,0.12,-1.016,-2.961,-3.681
-0.75,4000000079.8724174,1.1867192984,352.3708710424873,4464.779341129965,0.082,-1.094,-3.077,-3.812
-0.75,4000000079.8724174,1.186753273,387.25764492161727,4412.655266224519,0.053,-1.157,-3.194,-3.949
-0.75,4000000079.8724174,1.186784029,425.59841313374307,4374.2137356813055,0.009,-1.23,-3.307,-4.078
-0.75,4000000079.8724174,1.1868056059,457.0881896148752,4334.110703101766,-0.01,-1.275,-3.394,-4.181
-0.75,4000000079.8724174,1.1868320704,501.18723362727246,4301.302633821362,-0.057,-1.346,-3.503,-4.304
-0.75,4000000079.8724174,1.1868571043,549.5408738576248,4267.7601117035365,-0.102,-1.417,-3.611,-4.427
-0.75,4000000079.8724174,1.186880827,603.94862937638,4234.479161692072,-0.144,-1.486,-3.721,-4.552
-0.75,4000000079.8724174,1.1869033575,663.7430704019089,4200.4904339619925,-0.185,-1.553,-3.83,-4.676
-0.75,4000000079.8724174,1.1869240999,724.4359600749899,4168.693834703355,-0.221,-1.616,-3.932,-4.792
-0.75,4000000079.8724174,1.1869453192,790.6786279998254,4135.233143476055,-0.254,-1.675,-4.034,-4.911
-0.75,4000000079.8724174,1.1869665384,864.967918775693,4100.152405066133,-0.28,-1.732,-4.14,-5.033
-0.75,4000000079.8724174,1.1869860888,952.7961640236521,4064.4332916521275,-0.306,-1.792,-4.252,-5.163
-0.75,4000000079.8724174,1.1870006323,1054.3868963912591,4026.243159764701,-0.331,-1.852,-4.371,-5.3
-0.75,4000000079.8724174,1.1870099306,1150.8003889444356,3993.006342231626,-0.352,-1.904,-4.473,-5.42
-0.75,4000000079.8724174,1.1870183945,1253.1411749414156,3960.955834906334,-0.368,-1.95,-4.57,-5.533
-0.75,4000000079.8724174,1.1870261431,1364.583136588924,3928.2579671627864,-0.382,-1.995,-4.67,-5.65
-0.75,4000000079.8724174,1.187033534,1492.794409578996,3894.0363387971706,-0.393,-2.04,-4.773,-5.772
-0.75,4000000079.8724174,1.1870405674,1636.8165214278085,3856.559178913931,-0.398,-2.079,-4.881,-5.901
-0.75,4000000079.8724174,1.1870468855,1811.3400926196025,3815.047942794385,-0.396,-2.117,-4.997,-6.04
-0.75,4000000079.8724174,1.1870487928,1874.9945080674192,3801.0186455476655,-0.391,-2.128,-5.038,-6.088
-0.75,4000000079.8724174,1.1870490313,1819.7008586099826,3812.4135110429906,-0.393,-2.117,-5.005,-6.049
-0.75,4000000079.8724174,1.1870491505,1640.5897731995387,3850.3481467861507,-0.384,-2.07,-4.883,-5.906
-0.75,4000000079.8724174,1.1870492697,1845.0154191794736,3806.273576012056,-0.391,-2.121,-5.02,-6.068
-0.75,4000000079.8724174,1.1870493889,1774.1894808901661,3821.202031837345,-0.391,-2.106,-4.975,-6.014
-0.75,4000000079.8724174,1.1870496273,1832.314422371211,3809.7808984641915,-0.39,-2.118,-5.011,-6.056
-0.75,4000000079.8724174,1.1870499849,1914.255925021086,3792.276545253622,-0.389,-2.133,-5.063,-6.118
-0.75,4000000079.8724174,1.1870502234,2004.4720273651615,3773.9835253658575,-0.385,-2.145,-5.117,-6.181
-0.75,4000000079.8724174,1.1870507002,2108.6281499332886,3754.0495447208405,-0.379,-2.159,-5.177,-6.252
-0.75,4000000079.8724174,1.187051177,2228.435149270303,3731.642236647028,-0.372,-2.171,-5.24,-6.327
-0.75,4000000079.8724174,1.1870518923,2355.049283896009,3709.3686741322836,-0.361,-2.182,-5.306,-6.405
-0.75,4000000079.8724174,1.187052846,2506.109253032114,3682.9854234157206,-0.346,-2.185,-5.381,-6.494
-0.75,4000000079.8724174,1.1870541573,2691.5348039269165,3650.900524844982,-0.321,-2.184,-5.466,-6.595
-0.75,4000000079.8724174,1.187056303,2890.6798823654744,3617.4288676421797,-0.285,-2.169,-5.553,-6.699
-0.75,4000000079.8724174,1.1870570183,2937.6496519615307,3609.1090121201505,-0.274,-2.163,-5.571,-6.722
-0.75,4000000079.8724174,1.1870571375,2937.6496519615307,3609.1090121201505,-0.274,-2.163,-5.571,-6.722
-0.75,4000000079.8724174,1.1870572567,1883.6490894898002,3780.0713730181124,-0.34,-2.093,-5.049,-6.11
-0.75,4000000079.8724174,1.1870573759,1462.1771744567184,3880.6100135487018,-0.337,-1.996,-4.754,-5.761
-0.75,4000000079.8724174,1.1870577335,918.332596483581,4071.927154442865,-0.272,-1.758,-4.211,-5.118
-0.75,4000000079.8724174,1.1870580912,931.10787546783,4064.4332916521275,-0.271,-1.764,-4.228,-5.138
-0.75,4000000079.8724174,1.1870586872,1166.8096170609629,3968.2589095091143,-0.304,-1.882,-4.492,-5.452
-0.75,4000000079.8724174,1.1870594025,1640.5897731995387,3828.2474331682283,-0.329,-2.034,-4.888,-5.924
-0.75,4000000079.8724174,1.1870602369,2202.9264630534562,3710.2228861746507,-0.299,-2.114,-5.234,-6.333
-0.75,4000000079.8724174,1.1870611906,2666.8586645214805,3634.1261606422304,-0.26,-2.133,-5.46,-6.598
-0.75,4000000079.8724174,1.1870623827,2937.6496519615307,3595.0091493002346,-0.226,-2.119,-5.575,-6.733
-0.75,4000000079.8724174,1.1870635748,3054.9211132155124,3576.0205018090237,-0.203,-2.106,-5.624,-6.791
-0.75,4000000079.8724174,1.1870650053,3111.716337106017,3566.1532304264047,-0.185,-2.093,-5.645,-6.818
-0.75,4000000079.8724174,1.1870651245,2290.8676527677726,3680.4421857199322,-0.249,-2.085,-5.283,-6.396
-0.75,4000000079.8724174,1.1870653629,1570.3628043335532,3826.484865951097,-0.281,-1.986,-4.841,-5.877
-0.75,4000000079.8724174,1.1870657206,986.279485631211,4015.1335942882924,-0.231,-1.764,-4.301,-5.236
-0.75,4000000079.8724174,1.1870663166,1002.3052380778994,4006.8215418221093,-0.229,-1.77,-4.319,-5.258
-0.75,4000000079.8724174,1.1870670319,1253.1411749414156,3911.1097238892944,-0.251,-1.878,-4.581,-5.571
-0.75,4000000079.8724174,1.1870678663,1757.923613958693,3773.1146335838903,-0.25,-2.005,-4.975,-6.04
-0.75,4000000079.8724174,1.1870689392,2355.049283896009,3655.1061999238823,-0.201,-2.054,-5.319,-6.446
-0.75,4000000079.8724174,1.1870702505,2851.0182675039096,3579.3156556503877,-0.142,-2.04,-5.545,-6.711
-0.75,4000000079.8724174,1.187071681,3133.2857243155854,3538.343568147222,-0.097,-2.013,-5.662,-6.848
-0.75,4000000079.8724174,1.1870732307,3265.8783217233567,3518.0337377370256,-0.062,-1.981,-5.713,-6.908
-0.75,4000000079.8724174,1.1870750189,3326.5955329400435,3505.9038393261267,-0.034,-1.955,-5.737,-6.938
-0.75,4000000079.8724174,1.1870751381,2494.5947269429535,3614.0986263961313,-0.124,-2.004,-5.392,-6.54
-0.75,4000000079.8724174,1.1870753765,1717.9083871575876,3759.239540129174,-0.184,-1.951,-4.951,-6.024
-0.75,4000000079.8724174,1.1870758533,1078.9467222298285,3947.298776597855,-0.174,-1.768,-4.411,-5.382
-0.75,4000000079.8724174,1.1870764494,1096.4781961431852,3939.1271544686583,-0.171,-1.773,-4.43,-5.405
-0.75,4000000079.8724174,1.1870772839,1370.8817661648536,3844.147117595778,-0.179,-1.867,-4.689,-5.716
-0.75,4000000079.8724174,1.1870783567,1914.255925021086,3706.80721782576,-0.141,-1.955,-5.08,-6.181
-0.75,4000000079.8724174,1.1870795488,2552.701302661247,3590.872623694513,-0.064,-1.955,-5.422,-6.582
-0.75,4000000079.8724174,1.1870809793,3076.096814740708,3514.7950006430638,0.017,-1.903,-5.647,-6.844
-0.75,4000000079.8724174,1.1870826483,3380.6483620598156,3473.761519726527,0.081,-1.847,-5.765,-6.981
-0.75,4000000079.8724174,1.1870844364,3523.7087104248726,3453.822385498232,0.127,-1.8,-5.818,-7.042
-0.75,4000000079.8724174,1.187086463,3597.4933515574235,3441.9138826842905,0.162,-1.764,-5.845,-7.074
