FeH,Age,Mini,L,Te,Bmag,Vmag,Jmag,Kmag
-1.0,4000000079.8724174,0.0900000036,0.0005714786366718672,2773.958758729893,18.577,16.565,10.795,10.255
-1.0,4000000079.8724174,0.0995577052,0.0009682778562612496,2988.133524568443,17.001,15.076,10.327,9.674
-1.0,4000000079.8724174,0.1000000015,0.0009908319448927675,2998.4720157970514,16.934,15.014,10.306,9.649
-1.0,4000000079.8724174,0.1173654869,0.0017498466886246564,3207.007680303629,15.534,13.721,9.783,9.052
-1.0,4000000079.8724174,0.1200000048,0.001892343618644976,3237.42711634235,15.35,13.555,9.711,8.972
-1.0,4000000079.8724174,0.1400000006,0.0028906798823654747,3372.096543265998,14.495,12.795,9.307,8.542
-1.0,4000000079.8724174,0.1599999964,0.003971915494694405,3460.9872548535277,13.926,12.293,8.995,8.22
-1.0,4000000079.8724174,0.2000000179,0.0064416926551517754,3580.9643710263585,13.132,11.588,8.514,7.728
-1.0,4000000079.8724174,0.25,0.010162486928706953,3679.594830147843,12.44,10.964,8.054,7.26
-1.0,4000000079.8724174,0.3000000417,0.014689262776438668,3754.9140460984254,11.905,10.479,7.682,6.884
-1.0,4000000079.8724174,0.349999994,0.020511621788255656,3815.926491189337,11.44,10.053,7.339,6.538
-1.0,4000000079.8724174,0.400000006,0.028707805820246905,3912.911271268528,10.927,9.598,7.005,6.205
-1.0,4000000079.8724174,0.4499999881,0.042461956394631274,4053.218348593218,10.304,9.058,6.62,5.83
-1.0,4000000079.8724174,0.5,0.06531305526474723,4277.59831482038,9.55,8.429,6.212,5.448
-1.0,4000000079.8724174,0.5255458355,0.08279421637123341,4436.086439314323,9.101,8.065,5.996,5.263
-1.0,4000000079.8724174,0.5500000715,0.10280162981264736,4585.640453674645,8.693,7.734,5.803,5.108
-1.0,4000000079.8724174,0.6000000238,0.15595525028269536,4885.398559319364,7.96,7.121,5.443,4.835
-1.0,4000000079.8724174,0.6133435965,0.17378008287493754,4970.499105762351,7.779,6.968,5.351,4.769
-1.0,4000000079.8724174,0.6499999762,0.2322736796357107,5204.751511705225,7.315,6.575,5.112,4.592
-1.0,4000000079.8724174,0.6561968923,0.24378108183687525,5244.4506128195335,7.24,6.511,5.072,4.562
-1.0,4000000079.8724174,0.688252151,0.3118889584093937,5448.789118901898,6.873,6.202,4.873,4.41
-1.0,4000000079.8724174,0.6999999881,0.34040818970100084,5522.045744453592,6.745,6.094,4.802,4.354
-1.0,4000000079.8724174,0.7212772369,0.3981071705534972,5654.575406876214,6.521,5.905,4.678,4.256
-1.0,4000000079.8724174,0.75,0.49090787615260306,5830.4221384328575,6.23,5.661,4.515,4.125
-1.0,4000000079.8724174,0.7734490633,0.5794286964268811,5945.6590329583905,6.011,5.473,4.377,4.006
-1.0,4000000079.8724174,0.8000000119,0.6982324040771714,6072.954118270236,5.768,5.264,4.22,3.87
-1.0,4000000079.8724174,0.8055169582,0.7261059574351547,6098.176639987856,5.719,5.221,4.187,3.841
-1.0,4000000079.8724174,0.8370765448,0.9036494737223014,6234.476611050059,5.441,4.976,3.997,3.673
-1.0,4000000079.8724174,0.8500000238,0.9885530946569389,6289.266531604159,5.328,4.876,3.918,3.603
-1.0,4000000079.8724174,0.8676009774,1.1168632477805611,6365.023332473052,5.177,4.742,3.813,3.51
-1.0,4000000079.8724174,0.8942365646,1.3427649611378638,6475.898004649498,4.947,4.537,3.651,3.366
-1.0,4000000079.8724174,0.8999999762,1.399587322572618,6499.80009683025,4.898,4.492,3.616,3.334
-1.0,4000000079.8724174,0.9167197347,1.5703628043335525,6572.037002870897,4.754,4.362,3.514,3.242
-1.0,4000000079.8724174,0.9372829199,1.8155156627731355,6660.395212984232,4.575,4.199,3.385,3.127
-1.0,4000000079.8724174,0.9499999881,1.9906733389871867,6714.288529259523,4.463,4.098,3.304,3.054
-1.0,4000000079.8724174,0.9509079456,1.9998618696327441,6718.928197763023,4.455,4.09,3.298,3.049
-1.0,4000000079.8724174,0.9706653953,2.3120647901755946,6810.829367676388,4.277,3.928,3.172,2.937
-1.0,4000000079.8724174,0.9884382486,2.6424087573219466,6894.455931709223,4.113,3.779,3.054,2.831
-1.0,4000000079.8724174,1.0,2.884031503126606,6947.043207498577,4.006,3.68,2.976,2.76
-1.0,4000000079.8724174,1.0094306469,3.0974192992165803,6996.808699785598,3.918,3.6,2.914,2.706
-1.0,4000000079.8724174,1.0258523226,3.5075187395256804,7076.1983835979,3.763,3.458,2.803,2.606
-1.0,4000000079.8724174,1.039648056,3.9174187710778305,7140.0293992784445,3.63,3.335,2.704,2.515
-1.0,4000000079.8724174,1.0499999523,4.275628861515862,7184.557087925965,3.524,3.237,2.623,2.44
-1.0,4000000079.8724174,1.0540790558,4.425883723626265,7202.777512383406,3.482,3.198,2.591,2.411
-1.0,4000000079.8724174,1.0627971888,4.775292736576909,7236.024022802513,3.391,3.112,2.518,2.343
-1.0,4000000079.8724174,1.0651129484,4.875284901033862,7244.359600749898,3.366,3.088,2.497,2.323
-1.0,4000000079.8724174,1.0693488121,5.081594425605605,7252.704780912472,3.318,3.042,2.455,2.282
-1.0,4000000079.8724174,1.076015234,5.445026528424211,7261.0595743515505,3.241,2.967,2.384,2.213
-1.0,4000000079.8724174,1.0823526382,5.821032177708714,7262.731687606836,3.164,2.891,2.31,2.139
-1.0,4000000079.8724174,1.0864869356,6.123503917247735,7257.716502674278,3.109,2.836,2.255,2.083
-1.0,4000000079.8724174,1.0905275345,6.412095765851617,7234.358058506353,3.061,2.786,2.197,2.024
-1.0,4000000079.8724174,1.0974940062,6.934258060165691,7182.9029729652575,2.981,2.7,2.094,1.914
-1.0,4000000079.8724174,1.1000000238,7.16143410212902,7143.31826156051,2.951,2.666,2.047,1.863
-1.0,4000000079.8724174,1.105453372,7.67361489361819,7068.056297002477,2.887,2.592,1.948,1.754
-1.0,4000000079.8724174,1.110822916,8.279421637123342,6919.902892284818,2.83,2.515,1.818,1.604
-1.0,4000000079.8724174,1.1146111488,8.74983775227436,6743.727297598055,2.805,2.463,1.701,1.463
-1.0,4000000079.8724174,1.1168146133,9.015711376059569,6597.8129651395675,2.805,2.438,1.62,1.36
-1.0,4000000079.8724174,1.1185160875,9.204495717531712,6458.029135322341,2.817,2.424,1.552,1.27
-1.0,4000000079.8724174,1.1198052168,9.289663867799362,6334.320007697662,2.839,2.421,1.499,1.197
-1.0,4000000079.8724174,1.1211881638,9.311078754678302,6187.283275532346,2.88,2.429,1.446,1.12
-1.0,4000000079.8724174,1.1223784685,9.311078754678302,6052.01505912521,2.924,2.443,1.403,1.053
-1.0,4000000079.8724174,1.1234029531,9.204495717531712,5934.716805530554,2.976,2.464,1.374,1.002
-1.0,4000000079.8724174,1.1243306398,9.120108393559097,5830.4221384328575,3.024,2.485,1.348,0.956
-1.0,4000000079.8724174,1.1251974106,9.036494737223014,5737.200135493514,3.07,2.506,1.326,0.916
-1.0,4000000079.8724174,1.1260490417,9.099132726322514,5665.001119195332,3.091,2.508,1.295,0.871
-1.0,4000000079.8724174,1.1271119118,9.268298233793493,5583.416170259268,3.105,2.5,1.249,0.808
-1.0,4000000079.8724174,1.1283500195,9.594006315159332,5501.739205107149,3.101,2.474,1.183,0.725
-1.0,4000000079.8724174,1.1285008192,9.660508789898133,5492.878591960475,3.099,2.47,1.174,0.714
-1.0,4000000079.8724174,1.1287019253,9.772372209558107,5485.29513941203,3.088,2.457,1.157,0.695
-1.0,4000000079.8724174,1.1301035881,10.839269140212034,5437.50914029847,2.998,2.354,1.03,0.557
-1.0,4000000079.8724174,1.1312683821,11.93988104464273,5405.053537086691,2.909,2.255,0.914,0.433
-1.0,4000000079.8724174,1.1323560476,13.182567385564074,5377.742459634421,2.814,2.153,0.798,0.31
-1.0,4000000079.8724174,1.1334512234,14.655478409559112,5353.033977441431,2.709,2.042,0.673,0.18
-1.0,4000000079.8724174,1.1344555616,16.29296032639722,5330.893422367013,2.605,1.931,0.551,0.052
-1.0,4000000079.8724174,1.1353149414,17.947336268325266,5310.066989662834,2.509,1.83,0.439,-0.065
-1.0,4000000079.8724174,1.1362187862,20.044720273651613,5288.104149313063,2.401,1.716,0.313,-0.196
-1.0,4000000079.8724174,1.1369991302,22.181964198002195,5267.444883319061,2.301,1.609,0.196,-0.319
-1.0,4000000079.8724174,1.1377347708,24.603676041476273,5245.6583312381235,2.199,1.5,0.075,-0.445
-1.0,4000000079.8724174,1.1383911371,27.227013080779127,5223.9618899911975,2.102,1.397,-0.041,-0.567
-1.0,4000000079.8724174,1.13902843,30.269134281013063,5201.157438224064,2.001,1.288,-0.164,-0.696
-1.0,4000000079.8724174,1.1395802498,33.419504002611426,5178.452536000238,1.906,1.186,-0.279,-0.817
-1.0,4000000079.8724174,1.140126586,37.15352290971726,5154.659707832393,1.805,1.077,-0.403,-0.947
-1.0,4000000079.8724174,1.1405932903,41.02041029866068,5130.97619778,1.712,0.976,-0.517,-1.068
-1.0,4000000079.8724174,1.1410444975,45.39416166502032,5106.225616299567,1.616,0.872,-0.636,-1.194
-1.0,4000000079.8724174,1.1414620876,50.23425895223871,5081.594425605605,1.522,0.769,-0.756,-1.321
-1.0,4000000079.8724174,1.1418373585,55.59042572704037,5055.917747662187,1.43,0.668,-0.872,-1.444
-1.0,4000000079.8724174,1.1421948671,61.517687270986805,5030.370810846251,1.337,0.565,-0.991,-1.57
-1.0,4000000079.8724174,1.1425162554,67.7641507610675,5004.95295959168,1.248,0.466,-1.107,-1.692
-1.0,4000000079.8724174,1.1428294182,75.16228940182053,4977.37084978936,1.157,0.364,-1.226,-1.819
-1.0,4000000079.8724174,1.1431092024,82.7942163712334,4952.220800885213,1.072,0.267,-1.34,-1.94
-1.0,4000000079.8724174,1.1433861256,91.20108393559097,4924.929296050273,0.986,0.171,-1.454,-2.061
-1.0,4000000079.8724174,1.1436630487,99.3116048420934,4902.30130136168,0.912,0.086,-1.554,-2.167
-1.0,4000000079.8724174,1.1439374685,106.41430182243164,4884.273784229252,0.851,0.017,-1.635,-2.255
-1.0,4000000079.8724174,1.1440265179,104.9542428652322,4888.774438941448,0.862,0.03,-1.619,-2.237
-1.0,4000000079.8724174,1.1442027092,96.38290236239705,4916.997641778744,0.933,0.113,-1.517,-2.126
-1.0,4000000079.8724174,1.1442775726,92.04495717531712,4931.738039549359,0.97,0.156,-1.464,-2.069
-1.0,4000000079.8724174,1.144380331,96.60508789898135,4918.129952683078,0.929,0.109,-1.52,-2.129
-1.0,4000000079.8724174,1.1445938349,106.6596121230258,4889.900250464924,0.844,0.012,-1.636,-2.253
-1.0,4000000079.8724174,1.1447976828,117.21953655481303,4862.952191867843,0.763,-0.081,-1.749,-2.375
-1.0,4000000079.8724174,1.1449946165,129.41958414499862,4833.926025160843,0.68,-0.176,-1.864,-2.499
-1.0,4000000079.8724174,1.1451705694,141.90575216890926,4807.286438439701,0.602,-0.267,-1.975,-2.619
-1.0,4000000079.8724174,1.1453374624,156.3147642640954,4778.592531515467,0.527,-0.36,-2.088,-2.739
-1.0,4000000079.8724174,1.1454916,171.79083871575875,4751.163763775616,0.457,-0.453,-2.2,-2.858
-1.0,4000000079.8724174,1.1456329823,188.36490894898,4722.804843922316,0.39,-0.543,-2.311,-2.976
-1.0,4000000079.8724174,1.145763278,206.53801558105292,4694.615193825913,0.325,-0.633,-2.421,-3.092
-1.0,4000000079.8724174,1.1458852291,226.46443075930597,4666.593803142887,0.261,-0.721,-2.531,-3.209
-1.0,4000000079.8724174,1.1459957361,247.74220576332863,4638.7396675603095,0.202,-0.806,-2.638,-3.323
-1.0,4000000079.8724174,1.1461002827,271.01916318908417,4609.990177075899,0.144,-0.891,-2.746,-3.438
-1.0,4000000079.8724174,1.1461964846,296.4831389524342,4581.418867145335,0.087,-0.975,-2.853,-3.552
-1.0,4000000079.8724174,1.14628613,324.33961734934934,4553.024633460011,0.033,-1.057,-2.959,-3.666
-1.0,4000000079.8724174,1.1463702917,353.9973410834346,4524.806378555487,-0.019,-1.138,-3.064,-3.78
-1.0,4000000079.8724174,1.1464464664,386.36697705406937,4496.763011769069,-0.07,-1.213,-3.166,-3.891
-1.0,4000000079.8724174,1.1465201378,421.6965034285823,4468.89344919767,-0.123,-1.289,-3.271,-4.007
-1.0,4000000079.8724174,1.146586895,459.19801283686854,4440.174108068949,-0.171,-1.36,-3.371,-4.118
-1.0,4000000079.8724174,1.1466504335,501.18723362727246,4411.6393317691345,-0.22,-1.431,-3.473,-4.231
-1.0,4000000079.8724174,1.1467097998,545.757861091271,4383.2879341924645,-0.269,-1.503,-3.575,-4.344
-1.0,4000000079.8724174,1.1467773914,606.7363295885053,4348.1047689272755,-0.326,-1.588,-3.699,-4.482
-1.0,4000000079.8724174,1.1468282938,660.6934480075957,4320.161676181425,-0.37,-1.655,-3.797,-4.592
-1.0,4000000079.8724174,1.1468875408,734.5138681571151,4285.485203974396,-0.424,-1.738,-3.921,-4.731
-1.0,4000000079.8724174,1.146941185,812.8305161640995,4251.087068046156,-0.473,-1.817,-4.04,-4.866
-1.0,4000000079.8724174,1.1469913721,901.571137605957,4216.965034285822,-0.52,-1.893,-4.16,-5.0
-1.0,4000000079.8724174,1.1470299959,979.4899854086991,4189.864710967686,-0.553,-1.954,-4.257,-5.11
-1.0,4000000079.8724174,1.1470727921,1081.4339512979375,4156.2340882986055,-0.589,-2.023,-4.373,-5.242
-1.0,4000000079.8724174,1.1471133232,1193.9881044642732,4122.873407228869,-0.623,-2.091,-4.489,-5.374
-1.0,4000000079.8724174,1.1471514702,1321.2956341865752,4089.7805010288275,-0.658,-2.159,-4.606,-5.506
-1.0,4000000079.8724174,1.1471871138,1458.814260275349,4056.9532203604513,-0.689,-2.225,-4.722,-5.638
-1.0,4000000079.8724174,1.1472200155,1610.64563517827,4024.389433137699,-0.717,-2.286,-4.835,-5.768
-1.0,4000000079.8724174,1.1472511292,1778.2794100389228,3992.087024388079,-0.744,-2.348,-4.947,-5.898
-1.0,4000000079.8724174,1.1472802162,1949.8445997580454,3960.955834906334,-0.766,-2.404,-5.055,-6.022
-1.0,4000000079.8724174,1.1473069191,2123.2444620002193,3932.7831456834174,-0.782,-2.452,-5.153,-6.135
-1.0,4000000079.8724174,1.1473069191,68.86522963442762,5282.019497699969,1.058,0.374,-1.033,-1.547
-1.0,4000000079.8724174,1.1475360394,70.79457843841381,5268.657896973707,1.036,0.348,-1.067,-1.584
-1.0,4000000079.8724174,1.1477763653,71.6143410212902,5263.807517745308,1.026,0.336,-1.082,-1.599
-1.0,4000000079.8724174,1.1480168104,72.27698036021702,5262.595620803182,1.018,0.327,-1.091,-1.608
-1.0,4000000079.8724174,1.1482636929,72.61059574351547,5266.2321489389715,1.011,0.321,-1.095,-1.612
-1.0,4000000079.8724174,1.1485078335,72.77798045368242,5269.871189967232,1.005,0.316,-1.098,-1.614
-1.0,4000000079.8724174,1.1487588882,73.11390834834177,5274.727156616845,0.999,0.312,-1.1,-1.614
-1.0,4000000079.8724174,1.1490033865,73.2824533138904,5279.587597837324,0.993,0.308,-1.101,-1.615
-1.0,4000000079.8724174,1.1492425203,73.45138681571152,5284.452517751803,0.986,0.303,-1.103,-1.615
-1.0,4000000079.8724174,1.1494777203,73.79042301291011,5289.321920487208,0.98,0.299,-1.105,-1.616
-1.0,4000000079.8724174,1.1497349739,73.96052750582378,5292.97691687475,0.974,0.293,-1.108,-1.618
-1.0,4000000079.8724174,1.1499872208,74.30191378967014,5297.854174488645,0.967,0.288,-1.111,-1.62
-1.0,4000000079.8724174,1.1502306461,74.64487584100665,5301.515066784589,0.961,0.283,-1.114,-1.622
-1.0,4000000079.8724174,1.1504693031,74.98942093324558,5305.178488808972,0.955,0.278,-1.117,-1.624
-1.0,4000000079.8724174,1.1507123709,75.16228940182053,5307.622176426454,0.948,0.273,-1.12,-1.627
-1.0,4000000079.8724174,1.1507437229,75.33555637337174,5308.8444423098845,0.948,0.272,-1.121,-1.627
-1.0,4000000079.8724174,1.1509532928,75.50922276654337,5311.289818550133,0.942,0.268,-1.124,-1.63
-1.0,4000000079.8724174,1.151206255,75.85775750291836,5313.736321187098,0.936,0.262,-1.128,-1.633
-1.0,4000000079.8724174,1.1514526606,76.20790100254119,5316.183950739626,0.93,0.257,-1.132,-1.637
-1.0,4000000079.8724174,1.1517004967,76.55966069112561,5317.408188271428,0.924,0.252,-1.137,-1.641
-1.0,4000000079.8724174,1.1519544125,76.91304402866095,5318.632707726801,0.918,0.246,-1.142,-1.646
-1.0,4000000079.8724174,1.1522017717,77.44617978025188,5318.632707726801,0.912,0.24,-1.147,-1.651
-1.0,4000000079.8724174,1.1524490118,77.8036551039804,5318.632707726801,0.906,0.234,-1.153,-1.657
-1.0,4000000079.8724174,1.1524631977,77.8036551039804,5318.632707726801,0.906,0.234,-1.154,-1.658
-1.0,4000000079.8724174,1.1524856091,77.8036551039804,5318.632707726801,0.905,0.233,-1.154,-1.658
-1.0,4000000079.8724174,1.1527132988,78.34296427662116,5317.408188271428,0.9,0.227,-1.161,-1.665
-1.0,4000000079.8724174,1.152941227,78.70457896950985,5314.959995066477,0.894,0.221,-1.168,-1.673
-1.0,4000000079.8724174,1.1531745195,79.25013304804718,5312.5129290366,0.888,0.214,-1.177,-1.682
-1.0,4000000079.8724174,1.1534091234,79.98342550070285,5307.622176426454,0.882,0.207,-1.186,-1.693
-1.0,4000000079.8724174,1.1536389589,80.53784411990665,5303.957066945361,0.876,0.198,-1.197,-1.705
-1.0,4000000079.8724174,1.1538671255,81.2830516164099,5297.854174488645,0.869,0.19,-1.209,-1.718
-1.0,4000000079.8724174,1.1540968418,82.22426499470713,5290.539972095819,0.862,0.18,-1.222,-1.733
-1.0,4000000079.8724174,1.154328227,83.17637711026708,5282.019497699969,0.853,0.169,-1.238,-1.75
-1.0,4000000079.8724174,1.1545773745,84.527884516029,5273.512745624402,0.842,0.154,-1.258,-1.772
-1.0,4000000079.8724174,1.154817462,85.70378452303697,5265.019693769153,0.831,0.14,-1.276,-1.792
-1.0,4000000079.8724174,1.1550376415,85.11380382023764,5269.871189967232,0.835,0.145,-1.268,-1.784
-1.0,4000000079.8724174,1.1552758217,88.51156098308356,5238.416190277907,0.811,0.11,-1.321,-1.844
-1.0,4000000079.8724174,1.155507803,95.71940712948447,5183.224264170613,0.759,0.038,-1.426,-1.962
-1.0,4000000079.8724174,1.155610323,103.5142166679344,5134.521775029668,0.705,-0.034,-1.526,-2.075
-1.0,4000000079.8724174,1.1556551456,111.68632477805612,5092.136067911513,0.651,-0.105,-1.623,-2.183
-1.0,4000000079.8724174,1.1556756496,121.6186000646368,5047.775135009473,0.59,-0.184,-1.729,-2.3
-1.0,4000000079.8724174,1.1556850672,132.1295634186575,5007.258356403354,0.527,-0.263,-1.834,-2.416
-1.0,4000000079.8724174,1.1556892395,140.60475241299144,4978.517063739154,0.481,-0.321,-1.91,-2.5
-1.0,4000000079.8724174,1.1556893587,140.92887984218748,4978.517063739154,0.48,-0.322,-1.912,-2.501
-1.0,4000000079.8724174,1.1556923389,149.9684835502374,4951.080641176657,0.431,-0.382,-1.99,-2.587
-1.0,4000000079.8724174,1.1556973457,165.57699634695277,4911.339996469978,0.355,-0.477,-2.111,-2.72
-1.0,4000000079.8724174,1.155703783,175.3880501841762,4888.774438941448,0.313,-0.53,-2.18,-2.795
-1.0,4000000079.8724174,1.1557163,167.1090614310707,4909.078761526029,0.348,-0.485,-2.12,-2.729
-1.0,4000000079.8724174,1.1558197737,166.72472125510626,4909.078761526029,0.35,-0.483,-2.119,-2.728
-1.0,4000000079.8724174,1.155911088,179.88709151287873,4877.530569745951,0.295,-0.553,-2.211,-2.829
-1.0,4000000079.8724174,1.1559678316,195.8844673505989,4842.83865227851,0.233,-0.632,-2.315,-2.944
-1.0,4000000079.8724174,1.1560101509,212.32444620002192,4811.716152521639,0.18,-0.709,-2.414,-3.052
-1.0,4000000079.8724174,1.156060338,236.04782331805782,4768.699981017778,0.111,-0.811,-2.546,-3.194
-1.0,4000000079.8724174,1.1561104059,261.8183008218986,4729.334149186516,0.047,-0.907,-2.671,-3.328
-1.0,4000000079.8724174,1.1561559439,287.73984147356697,4692.453741364405,-0.011,-0.996,-2.788,-3.454
-1.0,4000000079.8724174,1.1561980247,316.22776601683796,4656.933110262015,-0.067,-1.084,-2.903,-3.578
-1.0,4000000079.8724174,1.1562362909,347.53616144320574,4620.617301970837,-0.119,-1.169,-3.017,-3.701
-1.0,4000000079.8724174,1.1562712193,381.94427084004644,4580.364077908267,-0.162,-1.251,-3.133,-3.828
-1.0,4000000079.8724174,1.1562944651,409.26065973001096,4522.723107939902,-0.157,-1.292,-3.224,-3.938
-1.0,4000000079.8724174,1.1563229561,448.7453899331323,4482.290499966203,-0.198,-1.364,-3.336,-4.065
-1.0,4000000079.8724174,1.1563493013,492.0395356814511,4448.360748898113,-0.246,-1.438,-3.445,-4.188
-1.0,4000000079.8724174,1.1563739777,539.5106225151279,4414.687837052633,-0.294,-1.512,-3.554,-4.31
-1.0,4000000079.8724174,1.1563975811,590.2010801718442,4382.278761036721,-0.341,-1.585,-3.663,-4.431
-1.0,4000000079.8724174,1.1564192772,647.1426157485831,4349.106072324534,-0.387,-1.658,-3.771,-4.554
-1.0,4000000079.8724174,1.1564394236,707.945784384138,4316.1844920735875,-0.428,-1.725,-3.876,-4.672
-1.0,4000000079.8724174,1.1564598083,774.4617978025184,4282.5259178891965,-0.468,-1.792,-3.982,-4.792
-1.0,4000000079.8724174,1.1564803123,847.2274141405964,4248.15153514646,-0.504,-1.857,-4.087,-4.913
-1.0,4000000079.8724174,1.1565008163,926.8298233793495,4212.112867540665,-0.529,-1.916,-4.193,-5.036
-1.0,4000000079.8724174,1.1565196514,1016.2486928706959,4174.457078262909,-0.553,-1.976,-4.304,-5.163
-1.0,4000000079.8724174,1.1565343142,1116.863247780561,4138.090648167254,-0.577,-2.035,-4.414,-5.291
-1.0,4000000079.8724174,1.1565445662,1224.6161992650489,4103.930524610162,-0.599,-2.091,-4.52,-5.413
-1.0,4000000079.8724174,1.1565546989,1345.8603540559484,4065.3692697573383,-0.618,-2.147,-4.632,-5.545
-1.0,4000000079.8724174,1.1565624475,1465.5478409559114,4031.809464434654,-0.631,-2.195,-4.732,-5.661
-1.0,4000000079.8724174,1.1565705538,1614.3585568264868,3993.006342231626,-0.642,-2.246,-4.844,-5.793
-1.0,4000000079.8724174,1.1565765142,1770.108958317422,3956.398240042518,-0.647,-2.29,-4.949,-5.919
-1.0,4000000079.8724174,1.1565779448,1836.5383433483455,3940.9416073228585,-0.65,-2.309,-4.993,-5.971
-1.0,4000000079.8724174,1.1565788984,1721.8685749860078,3962.7803425543934,-0.636,-2.271,-4.918,-5.884
-1.0,4000000079.8724174,1.1565790176,1686.5530253887407,3970.0867811218423,-0.632,-2.26,-4.896,-5.858
-1.0,4000000079.8724174,1.1565791368,1717.9083871575876,3963.6929115081043,-0.635,-2.27,-4.917,-5.883
-1.0,4000000079.8724174,1.1565792561,1753.880501841762,3955.4873505556216,-0.638,-2.281,-4.94,-5.91
-1.0,4000000079.8724174,1.1565798521,1803.017740859568,3945.481396833012,-0.64,-2.294,-4.97,-5.946
-1.0,4000000079.8724174,1.1565803289,1874.9945080674192,3930.0674134185306,-0.642,-2.313,-5.016,-6.0
-1.0,4000000079.8724174,1.1565808058,1940.8858775927772,3916.5168559121084,-0.642,-2.329,-5.058,-6.049
-1.0,4000000079.8724174,1.1565812826,2013.7242498623875,3903.9118250765996,-0.643,-2.345,-5.099,-6.097
-1.0,4000000079.8724174,1.1565818787,2084.4908830972886,3890.4514499428046,-0.642,-2.36,-5.139,-6.144
-1.0,4000000079.8724174,1.1565829515,2218.1964198002192,3866.339621093609,-0.638,-2.384,-5.212,-6.23
-1.0,4000000079.8724174,1.1565843821,2360.478233180578,3840.6081572581174,-0.628,-2.405,-5.285,-6.318
-1.0,4000000079.8724174,1.1565867662,2576.3211570025755,3803.6452032855573,-0.61,-2.431,-5.385,-6.438
-1.0,4000000079.8724174,1.1565876007,2636.3313858253787,3793.1498497368207,-0.603,-2.435,-5.413,-6.472
-1.0,4000000079.8724174,1.1565877199,1761.976046411629,3937.313537008506,-0.595,-2.256,-4.947,-5.927
-1.0,4000000079.8724174,1.1565878391,1361.4446824659497,4035.5246088074728,-0.557,-2.118,-4.65,-5.578
-1.0,4000000079.8724174,1.156588316,843.3347577642757,4225.713024244244,-0.443,-1.824,-4.088,-4.924
-1.0,4000000079.8724174,1.1565887928,851.1380382023768,4218.907465677975,-0.443,-1.83,-4.101,-4.94
-1.0,4000000079.8724174,1.1565895081,1056.8175092136585,4130.475019901614,-0.494,-1.963,-4.356,-5.236
-1.0,4000000079.8724174,1.1565903425,1489.3610777109154,3993.006342231626,-0.556,-2.159,-4.757,-5.706
-1.0,4000000079.8724174,1.1565912962,2018.3663636815618,3876.144867002412,-0.567,-2.3,-5.106,-6.12
-1.0,4000000079.8724174,1.1565924883,2460.3676041476274,3799.2686147637874,-0.55,-2.374,-5.336,-6.393
-1.0,4000000079.8724174,1.1565937996,2735.268726306711,3756.64364614459,-0.53,-2.401,-5.459,-6.539
-1.0,4000000079.8724174,1.1565952301,2870.780582024692,3735.0807894306217,-0.512,-2.408,-5.516,-6.608
-1.0,4000000079.8724174,1.156596899,2951.209226666387,3721.3455600387106,-0.495,-2.408,-5.548,-6.649
-1.0,4000000079.8724174,1.1565970182,2254.2392121524304,3818.563350459785,-0.517,-2.316,-5.237,-6.283
-1.0,4000000079.8724174,1.1565972567,1545.254439538414,3959.1321672816603,-0.511,-2.149,-4.802,-5.77
-1.0,4000000079.8724174,1.1565977335,957.1940712948442,4145.720317867256,-0.417,-1.872,-4.244,-5.116
-1.0,4000000079.8724174,1.1565984488,966.0508789898131,4139.043588458339,-0.415,-1.876,-4.256,-5.132
-1.0,4000000079.8724174,1.1565994024,1196.7405313072431,4052.2851680189106,-0.455,-2.0,-4.506,-5.425
-1.0,4000000079.8724174,1.1566005945,1674.9428760264382,3918.3208939411097,-0.488,-2.172,-4.897,-5.887
-1.0,4000000079.8724174,1.1566019058,2249.0546058357804,3803.6452032855573,-0.467,-2.286,-5.239,-6.293
-1.0,4000000079.8724174,1.1566034555,2728.9777828080405,3728.2068494295654,-0.432,-2.338,-5.463,-6.56
-1.0,4000000079.8724174,1.1566052437,3019.9517204020162,3686.3791409739756,-0.402,-2.352,-5.581,-6.7
-1.0,4000000079.8724174,1.156607151,3162.2776601683795,3665.219597323419,-0.377,-2.35,-5.635,-6.766
-1.0,4000000079.8724174,1.156609416,3235.936569296281,3651.741272548377,-0.354,-2.341,-5.663,-6.802
