FeH,Age,Mini,L,Te,Bmag,Vmag,Jmag,Kmag
0.0,1400006332.2395284,0.0900000036,0.0003908408957924021,2314.728186015243,19.944,18.105,11.199,10.296
0.0,1400006332.2395284,0.0956610292,0.0004909078761526029,2392.764738527746,19.684,17.849,10.952,10.048
0.0,1400006332.2395284,0.1000000015,0.0005821032177708716,2451.884453809514,19.49,17.658,10.768,9.863
0.0,1400006332.2395284,0.102492705,0.000628058358813318,2477.9925708234186,19.403,17.572,10.685,9.779
0.0,1400006332.2395284,0.1175758913,0.0009931160484209335,2633.2979436755145,18.76,16.95,10.196,9.287
0.0,1400006332.2395284,0.1200000048,0.0010641430182243164,2657.05167035507,18.526,16.731,10.132,9.22
0.0,1400006332.2395284,0.1239055321,0.0011614486138403425,2682.2546076084946,18.261,16.483,10.048,9.134
0.0,1400006332.2395284,0.1400000006,0.0016180800376430662,2781.6340890110087,17.329,15.621,9.723,8.807
0.0,1400006332.2395284,0.1488674879,0.0018793168168032685,2821.629583090804,16.951,15.268,9.575,8.66
0.0,1400006332.2395284,0.1599999964,0.00223872113856834,2869.4588430750064,16.513,14.851,9.403,8.489
0.0,1400006332.2395284,0.200000003,0.003681289736425313,2995.711592427998,15.402,13.798,8.91,8.002
0.0,1400006332.2395284,0.25,0.005861381645140285,3110.999920424558,14.456,12.886,8.445,7.546
0.0,1400006332.2395284,0.3245770335,0.010139113857366794,3221.810555177115,13.516,11.994,7.885,6.994
0.0,1400006332.2395284,0.3326522708,0.010715193052376065,3233.7020353739117,13.422,11.905,7.829,6.939
0.0,1400006332.2395284,0.3500000238,0.011994993031493787,3258.367010020087,13.234,11.726,7.715,6.826
0.0,1400006332.2395284,0.3568561971,0.012589254117941675,3270.3934175663962,13.149,11.645,7.665,6.776
0.0,1400006332.2395284,0.4000000358,0.016788040181225608,3340.4117295457277,12.664,11.184,7.376,6.489
0.0,1400006332.2395284,0.4500000179,0.023713737056616554,3435.5794789987463,12.089,10.637,7.033,6.147
0.0,1400006332.2395284,0.5,0.033884415613920256,3553.857419860757,11.484,10.059,6.681,5.796
0.0,1400006332.2395284,0.5261155367,0.041304750199016145,3635.8001230014343,11.137,9.724,6.492,5.608
0.0,1400006332.2395284,0.5500000119,0.04920395356814509,3710.2228861746507,10.836,9.43,6.328,5.446
0.0,1400006332.2395284,0.6000000238,0.07144963260755134,3909.309005962286,10.16,8.785,5.983,5.114
0.0,1400006332.2395284,0.6499999762,0.10375284158180126,4161.021885174549,9.446,8.144,5.64,4.809
0.0,1400006332.2395284,0.7000000477,0.14825180851459538,4440.174108068949,8.692,7.509,5.324,4.563
0.0,1400006332.2395284,0.7369305491,0.1909853258566238,4660.151117021843,8.137,7.061,5.11,4.425
0.0,1400006332.2395284,0.75,0.20844908830972886,4740.236390350336,7.951,6.912,5.039,4.383
0.0,1400006332.2395284,0.8000000119,0.2831391995799379,4969.354737803068,7.395,6.449,4.773,4.19
0.0,1400006332.2395284,0.8500000238,0.37931498497368193,5195.172830110672,6.9,6.034,4.523,4.005
0.0,1400006332.2395284,0.8938225508,0.48528850016212105,5383.937379843645,6.514,5.706,4.315,3.844
0.0,1400006332.2395284,0.8999999762,0.5011872336272722,5410.034068634678,6.461,5.662,4.287,3.823
0.0,1400006332.2395284,0.9131923914,0.5395106225151276,5462.607542126947,6.351,5.569,4.227,3.775
0.0,1400006332.2395284,0.9499999881,0.6561452663029054,5610.479760324706,6.055,5.322,4.065,3.647
0.0,1400006332.2395284,0.9779312611,0.7585775750291838,5713.470640013352,5.845,5.144,3.943,3.546
0.0,1400006332.2395284,1.0,0.8491804750363139,5795.621301763043,5.684,5.008,3.849,3.468
0.0,1400006332.2395284,1.0499999523,1.0914403364487566,5964.856499193778,5.334,4.714,3.639,3.292
0.0,1400006332.2395284,1.0812138319,1.2705741052085415,6063.17355705252,5.127,4.537,3.51,3.18
0.0,1400006332.2395284,1.1000000238,1.3899526312133532,6122.094090682573,5.006,4.434,3.433,3.113
0.0,1400006332.2395284,1.1379016638,1.6634126503701694,6233.041235019454,4.77,4.232,3.279,2.978
0.0,1400006332.2395284,1.1499999762,1.7579236139586927,6267.581644592105,4.697,4.169,3.231,2.936
0.0,1400006332.2395284,1.1690939665,1.9186687406702894,6321.2068200526855,4.582,4.07,3.155,2.869
0.0,1400006332.2395284,1.2000000477,2.2080047330188997,6406.192726268982,4.401,3.913,3.034,2.761
0.0,1400006332.2395284,1.25,2.7415741719278826,6537.323852287956,4.125,3.672,2.845,2.593
0.0,1400006332.2395284,1.2999999523,3.3651156937549076,6660.395212984232,3.867,3.444,2.665,2.431
0.0,1400006332.2395284,1.3433288336,3.9810717055349722,6763.943948096019,3.654,3.255,2.517,2.297
0.0,1400006332.2395284,1.3499999046,4.083193863326921,6779.536449241948,3.622,3.226,2.494,2.277
0.0,1400006332.2395284,1.3789074421,4.549880601500486,6850.1487147100715,3.487,3.105,2.4,2.192
0.0,1400006332.2395284,1.3999999762,4.920395356814509,6896.043621637035,3.391,3.019,2.332,2.13
0.0,1400006332.2395284,1.4366992712,5.610479760324705,6982.324040771711,3.227,2.871,2.217,2.027
0.0,1400006332.2395284,1.4500000477,5.88843655355589,7011.3234068673655,3.168,2.819,2.175,1.989
0.0,1400006332.2395284,1.4633692503,6.165950018614822,7040.443214699752,3.111,2.767,2.134,1.952
0.0,1400006332.2395284,1.4954073429,6.8865229634427605,7099.046158552872,2.976,2.644,2.034,1.859
0.0,1400006332.2395284,1.5,6.998419960022734,7105.587633694735,2.958,2.626,2.019,1.845
0.0,1400006332.2395284,1.5146019459,7.345138681571149,7130.171895014071,2.898,2.572,1.973,1.803
0.0,1400006332.2395284,1.5499738455,8.279421637123342,7171.33482657721,2.759,2.44,1.859,1.694
0.0,1400006332.2395284,1.5499999523,8.279421637123342,7171.33482657721,2.759,2.44,1.859,1.693
0.0,1400006332.2395284,1.572624445,8.912509381337454,7199.461274408394,2.67,2.357,1.786,1.625
0.0,1400006332.2395284,1.5982527733,9.705099672454896,7217.719496686993,2.572,2.263,1.7,1.541
0.0,1400006332.2395284,1.6000000238,9.772372209558107,7217.719496686993,2.566,2.257,1.694,1.535
0.0,1400006332.2395284,1.6227536201,10.519618738232229,7222.707043121718,2.482,2.175,1.614,1.456
0.0,1400006332.2395284,1.6453973055,11.324003632355572,7216.057746678523,2.4,2.093,1.532,1.374
0.0,1400006332.2395284,1.6500000954,11.508003889444357,7214.396379258091,2.384,2.077,1.515,1.356
0.0,1400006332.2395284,1.660918355,11.91242008027375,7209.414571644229,2.345,2.038,1.475,1.316
0.0,1400006332.2395284,1.683852911,12.823305826560219,7186.211583804578,2.267,1.957,1.387,1.225
0.0,1400006332.2395284,1.7000000477,13.520725631942772,7156.488866926982,2.215,1.901,1.321,1.156
0.0,1400006332.2395284,1.7193162441,14.387985782558452,7113.772954721317,2.155,1.834,1.24,1.07
0.0,1400006332.2395284,1.7388191223,15.275660582380723,7055.048440506529,2.099,1.769,1.154,0.977
0.0,1400006332.2395284,1.75,15.812480392703835,7014.552984199714,2.07,1.732,1.103,0.921
0.0,1400006332.2395284,1.7605624199,16.330519478943348,6975.8960433280445,2.042,1.698,1.055,0.869
0.0,1400006332.2395284,1.7800732851,17.298163592151013,6884.937465475145,1.998,1.637,0.962,0.764
0.0,1400006332.2395284,1.7999998331,18.323144223712113,6765.501583068961,1.963,1.58,0.859,0.645
0.0,1400006332.2395284,1.8004715443,18.365383433483466,6762.386671740489,1.962,1.578,0.857,0.643
0.0,1400006332.2395284,1.8192948103,19.31968317016924,6649.668571246756,1.935,1.527,0.762,0.532
0.0,1400006332.2395284,1.8393241167,20.417379446695296,6520.786785135783,1.911,1.473,0.658,0.409
0.0,1400006332.2395284,1.8499999046,21.183611352485023,6463.9799399953445,1.889,1.437,0.599,0.342
0.0,1400006332.2395284,1.8546885252,21.527817347243726,6438.726829014615,1.881,1.422,0.573,0.312
0.0,1400006332.2395284,1.863370657,22.23309890651403,6403.24324468947,1.856,1.387,0.523,0.257
0.0,1400006332.2395284,1.8689544201,23.60478233180577,6471.426157485831,1.766,1.317,0.483,0.227
0.0,1400006332.2395284,1.8716574907,24.94594726942955,6581.122882388993,1.672,1.25,0.462,0.223
0.0,1400006332.2395284,1.8726189137,26.121613543992066,6703.475091727316,1.587,1.193,0.454,0.233
0.0,1400006332.2395284,1.8731064796,27.289777828080403,6834.393809860222,1.503,1.138,0.45,0.247
0.0,1400006332.2395284,1.8733927011,28.575905433749465,6971.078929020044,1.419,1.081,0.445,0.261
0.0,1400006332.2395284,1.8735723495,29.991625189876515,7103.951700029559,1.335,1.023,0.438,0.27
0.0,1400006332.2395284,1.8737068176,31.622776601683793,7241.024217924128,1.248,0.96,0.425,0.275
0.0,1400006332.2395284,1.8737888336,32.284941217126345,7304.65989520411,1.212,0.937,0.425,0.282
0.0,1400006332.2395284,1.8738462925,30.69021988391158,7236.024022802513,1.283,0.995,0.457,0.306
0.0,1400006332.2395284,1.8739013672,28.64177969906581,7097.411730944613,1.389,1.075,0.486,0.318
0.0,1400006332.2395284,1.8739545345,27.542287033381662,6948.643007488283,1.466,1.123,0.479,0.291
0.0,1400006332.2395284,1.8740284443,27.352687263067125,6773.295140086069,1.514,1.137,0.426,0.215
0.0,1400006332.2395284,1.874119401,27.925438412373378,6613.022494817666,1.538,1.125,0.35,0.117
0.0,1400006332.2395284,1.8742369413,28.379190284415568,6461.003852547145,1.566,1.116,0.28,0.024
0.0,1400006332.2395284,1.8743928671,28.510182675039097,6322.6624992968755,1.61,1.121,0.225,-0.053
0.0,1400006332.2395284,1.8746236563,28.31391995799379,6180.164001384158,1.674,1.141,0.183,-0.12
0.0,1400006332.2395284,1.8749543428,27.542287033381662,6031.148196178177,1.765,1.185,0.159,-0.17
0.0,1400006332.2395284,1.8753880262,26.18183008218985,5877.5996368060005,1.893,1.263,0.16,-0.2
0.0,1400006332.2395284,1.8757613897,24.660393372343385,5762.3548640942545,2.014,1.346,0.185,-0.199
0.0,1400006332.2395284,1.8761360645,22.8559880337543,5651.97197817602,2.15,1.447,0.229,-0.178
0.0,1400006332.2395284,1.8764538765,21.281390459827122,5562.883949883727,2.275,1.544,0.277,-0.151
0.0,1400006332.2395284,1.8768391609,19.498445997580454,5456.3221016639,2.428,1.664,0.337,-0.116
0.0,1400006332.2395284,1.8772203922,18.281002161427427,5357.966575133417,2.555,1.76,0.377,-0.099
0.0,1400006332.2395284,1.8775058985,17.82378767448089,5289.321920487208,2.625,1.807,0.383,-0.11
0.0,1400006332.2395284,1.8779224157,18.407720014689556,5210.747154033924,2.641,1.796,0.324,-0.19
0.0,1400006332.2395284,1.8782644272,19.453600816226626,5155.846748750552,2.618,1.754,0.247,-0.281
0.0,1400006332.2395284,1.8785231113,20.46444636724674,5120.354149383066,2.588,1.71,0.18,-0.357
0.0,1400006332.2395284,1.8787549734,21.527817347243726,5090.9636952309365,2.553,1.664,0.115,-0.431
0.0,1400006332.2395284,1.8789703846,22.750974307720703,5066.406124332974,2.511,1.613,0.047,-0.505
0.0,1400006332.2395284,1.8791766167,24.043628000069333,5043.128102663999,2.47,1.563,-0.018,-0.577
0.0,1400006332.2395284,1.8793754578,25.35128630497907,5021.113054699537,2.429,1.513,-0.083,-0.648
0.0,1400006332.2395284,1.8795690536,26.730064086633117,5000.345349769783,2.387,1.463,-0.147,-0.717
0.0,1400006332.2395284,1.8797605038,28.183829312644534,4981.957289567119,2.345,1.413,-0.21,-0.786
0.0,1400006332.2395284,1.8799978495,30.13006024186122,4959.067275049038,2.293,1.352,-0.289,-0.871
0.0,1400006332.2395284,1.8801860809,31.768740706497706,4940.831009106554,2.249,1.301,-0.352,-0.94
0.0,1400006332.2395284,1.8803726435,33.49654391578276,4922.661804443356,2.205,1.25,-0.415,-1.008
0.0,1400006332.2395284,1.8805578947,35.3183169791957,4905.6888610179985,2.161,1.199,-0.479,-1.077
0.0,1400006332.2395284,1.8807411194,37.32501577957206,4887.648886615807,2.117,1.148,-0.543,-1.147
0.0,1400006332.2395284,1.880915761,39.26449353995999,4870.796664925371,2.076,1.1,-0.604,-1.213
0.0,1400006332.2395284,1.881106019,41.59106104940221,4851.7677121925735,2.03,1.046,-0.672,-1.287
0.0,1400006332.2395284,1.8812990189,44.157044735331255,4832.813100695309,1.982,0.991,-0.742,-1.364
0.0,1400006332.2395284,1.8814632893,46.55860935229589,4816.14994840047,1.941,0.943,-0.803,-1.43
0.0,1400006332.2395284,1.8816297054,49.09078761526032,4798.439240638985,1.899,0.893,-0.866,-1.498
0.0,1400006332.2395284,1.8818128109,51.999599653351595,4778.592531515467,1.852,0.838,-0.936,-1.574
0.0,1400006332.2395284,1.8819856644,54.954087385762456,4761.019935823142,1.809,0.788,-1.001,-1.645
0.0,1400006332.2395284,1.8821624517,58.21032177708713,4742.419852602448,1.766,0.737,-1.067,-1.717
0.0,1400006332.2395284,1.8823605776,61.80164001384158,4722.804843922316,1.72,0.683,-1.137,-1.794
0.0,1400006332.2395284,1.8826116323,65.61452663029053,4703.2709644077795,1.673,0.627,-1.208,-1.871
0.0,1400006332.2395284,1.8827124834,66.98846094165265,4696.777641902296,1.656,0.608,-1.232,-1.898
0.0,1400006332.2395284,1.8828092813,67.14288529259522,4697.859239439367,1.654,0.606,-1.234,-1.899
0.0,1400006332.2395284,1.8829286098,65.76578373554206,4705.437399531806,1.668,0.623,-1.21,-1.873
0.0,1400006332.2395284,1.8829951286,64.12095765851615,4715.198713364481,1.687,0.646,-1.18,-1.839
0.0,1400006332.2395284,1.8830480576,62.373483548241914,4724.980276801948,1.707,0.67,-1.147,-1.804
0.0,1400006332.2395284,1.8830949068,60.673632958850526,4734.782131851524,1.726,0.694,-1.116,-1.768
0.0,1400006332.2395284,1.883146286,59.02010801718442,4744.604320607653,1.749,0.721,-1.081,-1.73
0.0,1400006332.2395284,1.8832012415,57.279603098582925,4755.541763152083,1.77,0.747,-1.047,-1.693
0.0,1400006332.2395284,1.8832749128,55.46257129579107,4766.504419105543,1.794,0.775,-1.009,-1.651
0.0,1400006332.2395284,1.8833551407,54.32503314924333,4775.2927365769065,1.81,0.795,-0.982,-1.622
0.0,1400006332.2395284,1.883369565,54.20008904016238,4775.2927365769065,1.811,0.796,-0.981,-1.62
0.0,1400006332.2395284,1.8834550381,55.84701947368309,4766.504419105543,1.788,0.769,-1.015,-1.657
0.0,1400006332.2395284,1.8836083412,58.74893525297766,4750.069893831193,1.747,0.721,-1.076,-1.723
0.0,1400006332.2395284,1.8838540316,63.3869711256927,4727.156711736158,1.688,0.653,-1.163,-1.818
0.0,1400006332.2395284,1.8841232061,68.54882264526617,4703.2709644077795,1.625,0.579,-1.256,-1.919
0.0,1400006332.2395284,1.8843872547,74.13102413009177,4678.428536839501,1.566,0.508,-1.347,-2.019
0.0,1400006332.2395284,1.8846428394,79.98342550070285,4654.789007046166,1.513,0.44,-1.436,-2.115
0.0,1400006332.2395284,1.8849132061,86.69618757582165,4629.136637776056,1.456,0.368,-1.531,-2.218
0.0,1400006332.2395284,1.8851722479,93.75620069258802,4604.685783785738,1.401,0.298,-1.623,-2.319
0.0,1400006332.2395284,1.8854317665,101.39113857366789,4579.3095315174405,1.345,0.228,-1.717,-2.421
0.0,1400006332.2395284,1.8856734037,109.39563662720941,4555.121861657392,1.294,0.161,-1.806,-2.519
0.0,1400006332.2395284,1.8859128952,118.03206356517298,4530.018754322402,1.243,0.095,-1.897,-2.617
0.0,1400006332.2395284,1.8861413002,127.35030810166616,4506.091435730975,1.193,0.03,-1.985,-2.714
0.0,1400006332.2395284,1.8863561153,137.08817661648536,4482.290499966203,1.146,-0.032,-2.071,-2.808
0.0,1400006332.2395284,1.8865604401,146.89262776438662,4459.642031793193,1.1,-0.092,-2.154,-2.9
0.0,1400006332.2395284,1.8867554665,157.76112696993485,4437.1080035723835,1.057,-0.149,-2.235,-2.989
0.0,1400006332.2395284,1.8869376183,168.26740610704672,4414.687837052633,1.017,-0.203,-2.312,-3.075
0.0,1400006332.2395284,1.8871107101,179.47336268325265,4393.3924564447625,0.979,-0.257,-2.387,-3.156
0.0,1400006332.2395284,1.8872724771,190.54607179632464,4374.2137356813055,0.943,-0.308,-2.457,-3.232
0.0,1400006332.2395284,1.8874219656,201.37242498623874,4355.118736855684,0.909,-0.356,-2.521,-3.302
0.0,1400006332.2395284,1.8875621557,212.32444620002192,4338.104405465892,0.879,-0.399,-2.581,-3.368
0.0,1400006332.2395284,1.8876955509,222.8435149270303,4322.151642327874,0.851,-0.439,-2.637,-3.429
0.0,1400006332.2395284,1.887819767,232.80912576650078,4307.249209819747,0.825,-0.476,-2.689,-3.486
0.0,1400006332.2395284,1.8879349232,241.54608344449403,4294.375337334884,0.803,-0.507,-2.731,-3.532
0.0,1400006332.2395284,1.8880428076,250.03453616964322,4283.512119459382,0.784,-0.534,-2.768,-3.573
0.0,1400006332.2395284,1.8881453276,257.63211570025754,4272.676381599791,0.766,-0.56,-2.804,-3.613
0.0,1400006332.2395284,1.888240099,265.4605561975539,4262.849498615229,0.749,-0.584,-2.838,-3.65
0.0,1400006332.2395284,1.8883299828,272.89777828080406,4253.04521683435,0.733,-0.606,-2.871,-3.686
0.0,1400006332.2395284,1.8883299828,135.20725631942764,4498.834324565384,1.14,-0.029,-2.051,-2.782
0.0,1400006332.2395284,1.889439702,133.6595516546442,4502.9798128808925,1.147,-0.02,-2.039,-2.769
0.0,1400006332.2395284,1.889736414,128.82495516931337,4515.439211278319,1.169,0.01,-1.996,-2.722
0.0,1400006332.2395284,1.890001297,123.59474334445108,4530.018754322402,1.197,0.047,-1.945,-2.666
0.0,1400006332.2395284,1.89019835,118.30415557251646,4544.645372095089,1.225,0.084,-1.894,-2.609
0.0,1400006332.2395284,1.8904018402,112.46049739669269,4562.469770768501,1.256,0.126,-1.835,-2.544
0.0,1400006332.2395284,1.8906160593,105.92537251772886,4582.47389928456,1.295,0.177,-1.764,-2.466
0.0,1400006332.2395284,1.8908412457,99.08319448927675,4605.746173947351,1.34,0.236,-1.685,-2.379
0.0,1400006332.2395284,1.8911216259,90.99132726322517,4634.46919736288,1.398,0.31,-1.584,-2.269
0.0,1400006332.2395284,1.8917037249,81.47042840208397,4673.045396315099,1.473,0.407,-1.453,-2.126
0.0,1400006332.2395284,1.8923325539,76.73614893618189,4694.615193825913,1.514,0.461,-1.381,-2.047
0.0,1400006332.2395284,1.8927767277,50.81594425605605,4830.5880203977285,1.831,0.838,-0.896,-1.518
0.0,1400006332.2395284,1.892786026,49.54501908047903,4839.4944930166275,1.853,0.863,-0.864,-1.482
0.0,1400006332.2395284,1.8927938938,48.30588020397726,4848.4173870844625,1.871,0.885,-0.835,-1.451
0.0,1400006332.2395284,1.8928040266,46.98941086052154,4857.356732878539,1.894,0.912,-0.801,-1.414
0.0,1400006332.2395284,1.892816186,45.60369159512962,4867.433199621377,1.917,0.939,-0.767,-1.376
0.0,1400006332.2395284,1.8928316832,44.25883723626264,4877.530569745951,1.941,0.967,-0.731,-1.337
0.0,1400006332.2395284,1.892852664,42.85485203974394,4888.774438941448,1.967,0.997,-0.692,-1.295
0.0,1400006332.2395284,1.8928828239,41.30475019901615,4901.172634719431,1.996,1.032,-0.649,-1.248
0.0,1400006332.2395284,1.892940402,39.35500754557774,4915.86559156862,2.035,1.076,-0.594,-1.188
0.0,1400006332.2395284,1.8930234909,37.7572190925416,4930.6025956279445,2.069,1.116,-0.544,-1.134
0.0,1400006332.2395284,1.8931638002,35.727283815192884,4948.801109202861,2.114,1.168,-0.478,-1.063
0.0,1400006332.2395284,1.8935321569,33.419504002611426,4971.643737252428,2.168,1.231,-0.399,-0.978
0.0,1400006332.2395284,1.8938083649,35.727283815192884,4947.661736816762,2.116,1.17,-0.477,-1.063
0.0,1400006332.2395284,1.8939762115,37.068072178257594,4934.00971187958,2.086,1.135,-0.522,-1.112
0.0,1400006332.2395284,1.8943202496,36.812897364253146,4936.28243059449,2.091,1.14,-0.515,-1.104
0.0,1400006332.2395284,1.8999999762,34.673685045253166,4956.784065941179,2.139,1.197,-0.444,-1.026
0.0,1400006332.2395284,1.9235134125,35.727283815192884,4980.810283567242,2.087,1.154,-0.469,-1.045
0.0,1400006332.2395284,1.9468231201,38.63669770540692,4989.993730845963,1.996,1.066,-0.551,-1.123
0.0,1400006332.2395284,1.9500000477,39.084089579240214,4991.142851656184,1.982,1.052,-0.563,-1.135
0.0,1400006332.2395284,1.9598357677,40.55085354483839,4993.441887213498,1.94,1.011,-0.603,-1.174
0.0,1400006332.2395284,1.9812965393,44.6683592150963,4991.142851656184,1.838,0.907,-0.707,-1.279
0.0,1400006332.2395284,2.0,49.09078761526032,4979.663541644856,1.743,0.808,-0.815,-1.389
0.0,1400006332.2395284,2.0043447018,50.23425895223871,4976.224899734694,1.721,0.784,-0.841,-1.417
0.0,1400006332.2395284,2.0188109875,54.954087385762456,4956.784065941179,1.641,0.696,-0.942,-1.524
0.0,1400006332.2395284,2.0229728222,56.88529308438413,4944.245193336823,1.613,0.664,-0.983,-1.569
0.0,1400006332.2395284,2.0286204815,59.979107625550945,4928.332491971514,1.568,0.612,-1.047,-1.637
0.0,1400006332.2395284,2.0311641693,60.953689724016904,4923.795419719503,1.555,0.597,-1.065,-1.656
0.0,1400006332.2395284,2.0351266861,67.7641507610675,4873.040266252349,1.483,0.504,-1.195,-1.802
0.0,1400006332.2395284,2.036252737,74.64487584100665,4828.363964551585,1.416,0.42,-1.312,-1.933
0.0,1400006332.2395284,2.0367894173,82.7942163712334,4784.097257646801,1.341,0.327,-1.439,-2.075
0.0,1400006332.2395284,2.0370326042,91.20108393559097,4745.696931912426,1.279,0.244,-1.555,-2.202
0.0,1400006332.2395284,2.0371510983,99.3116048420934,4713.027784024217,1.222,0.169,-1.658,-2.315
0.0,1400006332.2395284,2.0372152328,107.3989412341245,4681.661397243642,1.17,0.099,-1.753,-2.42
0.0,1400006332.2395284,2.0372495651,114.81536214968828,4658.005532200294,1.128,0.044,-1.83,-2.505
0.0,1400006332.2395284,2.0372645855,118.57687481671597,4646.222461325775,1.106,0.015,-1.869,-2.548
0.0,1400006332.2395284,2.0372934341,126.4736347471151,4621.681360922446,1.064,-0.041,-1.947,-2.633
0.0,1400006332.2395284,2.0373258591,133.04544179780913,4603.625637759879,1.032,-0.084,-2.006,-2.699
0.0,1400006332.2395284,2.0374026299,137.08817661648536,4593.037592608176,1.011,-0.111,-2.043,-2.74
0.0,1400006332.2395284,2.0374970436,133.04544179780913,4604.685783785738,1.03,-0.086,-2.008,-2.7
0.0,1400006332.2395284,2.0377130508,126.4736347471151,4623.810213992603,1.063,-0.041,-1.945,-2.631
0.0,1400006332.2395284,2.0390057564,126.4736347471151,4624.875008224019,1.061,-0.042,-1.946,-2.631
0.0,1400006332.2395284,2.0413994789,147.23125024327194,4569.82953285961,0.963,-0.173,-2.126,-2.83
0.0,1400006332.2395284,2.0423047543,162.18100973589299,4535.237134514455,0.903,-0.254,-2.24,-2.957
0.0,1400006332.2395284,2.0429713726,179.06058540352947,4499.8703387215055,0.842,-0.337,-2.358,-3.087
0.0,1400006332.2395284,2.0434989929,198.1527025805099,4463.75140604447,0.78,-0.42,-2.478,-3.22
0.0,1400006332.2395284,2.0439310074,217.7709772353159,4428.942071986359,0.726,-0.5,-2.59,-3.342
0.0,1400006332.2395284,2.0442986488,239.33157564053874,4396.428352878889,0.672,-0.579,-2.699,-3.461
0.0,1400006332.2395284,2.044624567,262.4218543384442,4363.148555506765,0.619,-0.656,-2.806,-3.579
0.0,1400006332.2395284,2.0449199677,287.73984147356697,4330.1206773800395,0.567,-0.732,-2.913,-3.696
0.0,1400006332.2395284,2.045191288,316.22776601683796,4298.3324252156535,0.512,-0.809,-3.02,-3.814
0.0,1400006332.2395284,2.0454385281,347.53616144320574,4261.868054241604,0.46,-0.885,-3.131,-3.938
0.0,1400006332.2395284,2.0456526279,384.5917820453535,4219.879016871569,0.411,-0.959,-3.248,-4.072
0.0,1400006332.2395284,2.0458216667,427.562886151586,4160.063884776209,0.383,-1.019,-3.373,-4.221
0.0,1400006332.2395284,2.0459494591,475.3352259428054,4124.772497846638,0.323,-1.099,-3.495,-4.357
0.0,1400006332.2395284,2.0460417271,521.1947111050805,4093.5490632955944,0.278,-1.165,-3.603,-4.479
0.0,1400006332.2395284,2.0461194515,570.1642722807472,4062.5619818684354,0.236,-1.226,-3.708,-4.598
0.0,1400006332.2395284,2.0461959839,626.6138646723356,4030.881212870604,0.194,-1.287,-3.818,-4.724
0.0,1400006332.2395284,2.0462610722,682.3386941416697,4002.2111724970323,0.159,-1.341,-3.916,-4.835
0.0,1400006332.2395284,2.0463290215,744.7319739059889,3971.915494694405,0.122,-1.395,-4.019,-4.952
0.0,1400006332.2395284,2.0463962555,810.9610578538404,3941.849147142968,0.09,-1.442,-4.12,-5.066
0.0,1400006332.2395284,2.0464651585,883.079900418563,3912.911271268528,0.059,-1.489,-4.219,-5.18
0.0,1400006332.2395284,2.046536684,961.6122783836648,3883.291570049549,0.03,-1.533,-4.318,-5.292
0.0,1400006332.2395284,2.046610117,1042.3174293933037,3853.8960821181918,0.008,-1.567,-4.414,-5.402
0.0,1400006332.2395284,2.046687603,1129.7959146727976,3824.7231102392916,-0.012,-1.599,-4.51,-5.512
0.0,1400006332.2395284,2.0467677116,1227.4392311584072,3794.8970620763503,-0.029,-1.628,-4.607,-5.622
0.0,1400006332.2395284,2.0468435287,1327.3944577297402,3767.0379898390893,-0.038,-1.644,-4.701,-5.729
0.0,1400006332.2395284,2.046872139,1336.5955165464418,3763.5700169367306,-0.038,-1.645,-4.71,-5.74
0.0,1400006332.2395284,2.0468802452,1412.537544622754,3743.6910398904515,-0.043,-1.655,-4.777,-5.815
0.0,1400006332.2395284,2.0468893051,1472.3125024327194,3727.348496903337,-0.045,-1.661,-4.827,-5.873
0.0,1400006332.2395284,2.0469024181,1183.0415557251647,3807.150103801774,-0.021,-1.616,-4.564,-5.574
0.0,1400006332.2395284,2.0469033718,1028.0162981264734,3859.2241159472915,0.011,-1.562,-4.399,-5.384
0.0,1400006332.2395284,2.0469036102,974.9896377173867,3878.8233380237325,0.025,-1.54,-4.334,-5.31
0.0,1400006332.2395284,2.0469038486,966.0508789898131,3882.397512057637,0.027,-1.536,-4.324,-5.298
0.0,1400006332.2395284,2.0469040871,970.5099672454899,3880.6100135487018,0.026,-1.538,-4.328,-5.304
0.0,1400006332.2395284,2.0469043255,970.5099672454899,3880.6100135487018,0.026,-1.538,-4.329,-5.304
0.0,1400006332.2395284,2.0469045639,977.2372209558112,3877.9303087618246,0.024,-1.541,-4.337,-5.313
0.0,1400006332.2395284,2.0469048023,981.7479430199844,3876.144867002412,0.022,-1.543,-4.344,-5.321
0.0,1400006332.2395284,2.0469050407,988.553094656939,3874.3602472800194,0.021,-1.546,-4.351,-5.329
0.0,1400006332.2395284,2.0469052792,995.4054173515275,3870.793472432571,0.019,-1.549,-4.36,-5.34
0.0,1400006332.2395284,2.0469055176,1000.0,3869.9022919026884,0.017,-1.551,-4.365,-5.346
0.0,1400006332.2395284,2.0469059944,1011.5794542598983,3865.44946598284,0.014,-1.556,-4.379,-5.362
0.0,1400006332.2395284,2.0469064713,1023.2929922807537,3861.0017636183584,0.012,-1.56,-4.392,-5.376
0.0,1400006332.2395284,2.0469071865,1039.920165829059,3855.671275573944,0.007,-1.567,-4.411,-5.399
0.0,1400006332.2395284,2.0469074249,1047.1285480508996,3853.0087919083076,0.006,-1.569,-4.418,-5.407
0.0,1400006332.2395284,2.0469076633,1047.1285480508996,3853.0087919083076,0.005,-1.57,-4.42,-5.409
0.0,1400006332.2395284,2.0469079018,1056.8175092136585,3849.46167342452,0.003,-1.574,-4.43,-5.421
0.0,1400006332.2395284,2.0469081402,1059.2537251772887,3848.57540415743,0.003,-1.574,-4.432,-5.422
0.0,1400006332.2395284,2.0469083786,1056.8175092136585,3849.46167342452,0.003,-1.574,-4.431,-5.422
0.0,1400006332.2395284,2.0469088554,1056.8175092136585,3849.46167342452,0.003,-1.573,-4.43,-5.42
0.0,1400006332.2395284,2.0469095707,1054.3868963912591,3850.3481467861507,0.003,-1.573,-4.428,-5.418
0.0,1400006332.2395284,2.0469100475,1054.3868963912591,3850.3481467861507,0.004,-1.572,-4.426,-5.416
0.0,1400006332.2395284,2.0469150543,1093.956366272094,3837.0724549227884,-0.005,-1.587,-4.47,-5.467
0.0,1400006332.2395284,2.046918869,1193.9881044642732,3805.397250027089,-0.024,-1.621,-4.574,-5.585
0.0,1400006332.2395284,2.0469224453,1288.2495516931335,3776.591401452663,-0.034,-1.637,-4.667,-5.69
0.0,1400006332.2395284,2.0469264984,1393.1568029453035,3748.003605517044,-0.041,-1.652,-4.761,-5.798
0.0,1400006332.2395284,2.0469329357,1520.5475297324954,3715.352290971724,-0.046,-1.665,-4.864,-5.916
0.0,1400006332.2395284,2.0469424725,1648.1623915255086,3683.8335597906507,-0.037,-1.655,-4.965,-6.03
0.0,1400006332.2395284,2.0469453335,1674.9428760264382,3678.7476696641274,-0.036,-1.654,-4.982,-6.05
0.0,1400006332.2395284,2.0469458103,1674.9428760264382,3678.7476696641274,-0.036,-1.654,-4.982,-6.05
0.0,1400006332.2395284,2.046946764,743.0191378967014,3970.0867811218423,0.128,-1.39,-4.017,-4.95
0.0,1400006332.2395284,2.0469472408,665.2731562017412,4011.437222087667,0.167,-1.326,-3.887,-4.801
0.0,1400006332.2395284,2.0469491482,377.572190925416,4230.5808577652315,0.417,-0.947,-3.225,-4.044
0.0,1400006332.2395284,2.0469522476,381.06582339377303,4225.713024244244,0.413,-0.953,-3.236,-4.057
0.0,1400006332.2395284,2.0469563007,478.6300923226385,4134.281080471346,0.3,-1.119,-3.501,-4.359
0.0,1400006332.2395284,2.0469617844,739.6052750582381,3966.431879468582,0.138,-1.38,-4.013,-4.948
0.0,1400006332.2395284,2.0469684601,1119.4378834671513,3813.2914527677754,0.021,-1.568,-4.503,-5.511
0.0,1400006332.2395284,2.0469763279,1492.794409578996,3708.514658756861,-0.01,-1.626,-4.848,-5.903
0.0,1400006332.2395284,2.0469856262,1749.8466886246565,3651.741272548377,-0.002,-1.616,-5.039,-6.118
0.0,1400006332.2395284,2.0469963551,1879.3168168032685,3623.2641755313257,0.012,-1.601,-5.127,-6.219
0.0,1400006332.2395284,2.0470085144,1954.3394557753943,3606.6167888195973,0.032,-1.576,-5.176,-6.276
0.0,1400006332.2395284,2.0470087528,1066.596121230258,3817.684194975441,0.059,-1.525,-4.449,-5.455
0.0,1400006332.2395284,2.0470099449,788.860117618554,3927.3535564672516,0.145,-1.39,-4.093,-5.047
0.0,1400006332.2395284,2.0470120907,446.683592150963,4143.811582642788,0.359,-1.052,-3.424,-4.279
0.0,1400006332.2395284,2.0470151901,450.81670454146007,4139.996748197304,0.355,-1.058,-3.433,-4.289
0.0,1400006332.2395284,2.0470197201,563.6376558259543,4053.218348593218,0.264,-1.201,-3.697,-4.591
0.0,1400006332.2395284,2.0470252037,864.967918775693,3893.1398070156406,0.117,-1.435,-4.199,-5.169
0.0,1400006332.2395284,2.0470323563,1297.1792709839558,3747.1406951440317,0.033,-1.571,-4.682,-5.72
0.0,1400006332.2395284,2.0470407009,1717.9083871575876,3648.379442958715,0.025,-1.587,-5.019,-6.1
0.0,1400006332.2395284,2.0470504761,1995.2623149688789,3596.665093461474,0.046,-1.558,-5.2,-6.304
0.0,1400006332.2395284,2.0470616817,2128.139045982711,3574.3740626448075,0.061,-1.538,-5.279,-6.393
0.0,1400006332.2395284,2.0470745564,2197.8598727848253,3562.049907308445,0.072,-1.524,-5.317,-6.437
0.0,1400006332.2395284,2.0470747948,1218.9895989248662,3765.3036041227815,0.048,-1.55,-4.609,-5.639
0.0,1400006332.2395284,2.0470759869,903.6494737223014,3874.3602472800194,0.111,-1.448,-4.252,-5.231
0.0,1400006332.2395284,2.047078371,510.50499997540646,4088.838902676978,0.307,-1.136,-3.58,-4.458
0.0,1400006332.2395284,2.0470817089,512.8613839913648,4086.9563562815833,0.305,-1.14,-3.586,-4.465
0.0,1400006332.2395284,2.0470864773,636.7955209079155,4004.0546833054636,0.225,-1.269,-3.841,-4.759
0.0,1400006332.2395284,2.0470924377,966.0508789898131,3848.57540415743,0.095,-1.474,-4.331,-5.322
0.0,1400006332.2395284,2.0470998287,1432.187899273544,3707.660840003112,0.036,-1.575,-4.802,-5.857
0.0,1400006332.2395284,2.0471088886,1870.6821403657998,3613.2665452345186,0.05,-1.557,-5.126,-6.223
0.0,1400006332.2395284,2.0471191406,2147.8304741305333,3565.3321878292813,0.08,-1.516,-5.293,-6.411
0.0,1400006332.2395284,2.0471313,2264.6443075930597,3547.316998366914,0.092,-1.5,-5.358,-6.483
0.0,1400006332.2395284,2.0471448898,2312.064790175594,3540.788613684981,0.1,-1.489,-5.381,-6.509
0.0,1400006332.2395284,2.0471451283,1312.1998990192028,3737.6617831757117,0.043,-1.561,-4.698,-5.74
0.0,1400006332.2395284,2.0471465588,974.9896377173867,3845.9178204535356,0.092,-1.478,-4.342,-5.334
0.0,1400006332.2395284,2.0471489429,552.0774392807573,4060.691533656346,0.272,-1.189,-3.673,-4.564
0.0,1400006332.2395284,2.0471525192,554.625712957911,4059.7566325156818,0.271,-1.191,-3.676,-4.568
0.0,1400006332.2395284,2.047157526,687.0684400142325,3977.4066910502825,0.195,-1.315,-3.929,-4.86
0.0,1400006332.2395284,2.0471639633,1035.1421666793442,3822.9621656591935,0.079,-1.501,-4.413,-5.416
0.0,1400006332.2395284,2.0471718311,1527.5660582380733,3682.1374823089295,0.044,-1.566,-4.88,-5.947
0.0,1400006332.2395284,2.0471813679,1990.6733389871863,3588.3929932948636,0.076,-1.524,-5.202,-6.31
0.0,1400006332.2395284,2.0471925735,2285.59880337543,3539.9734108343464,0.113,-1.474,-5.37,-6.498
0.0,1400006332.2395284,2.0472054482,2415.4608344449402,3521.2754591922267,0.139,-1.439,-5.437,-6.574
0.0,1400006332.2395284,2.0472199917,2471.724145016129,3513.176750372876,0.15,-1.424,-5.464,-6.604
0.0,1400006332.2395284,2.0472202301,1442.1153515248682,3702.5420540013483,0.043,-1.566,-4.81,-5.868
0.0,1400006332.2395284,2.0472216606,1071.519305237606,3810.65823393773,0.07,-1.516,-4.455,-5.464
0.0,1400006332.2395284,2.0472242832,610.9420249055721,4025.3161897421182,0.231,-1.252,-3.791,-4.699
0.0,1400006332.2395284,2.0472280979,610.9420249055721,4025.3161897421182,0.231,-1.252,-3.791,-4.699
0.0,1400006332.2395284,2.0472333431,755.0922276654342,3942.7568959559076,0.162,-1.365,-4.041,-4.988
0.0,1400006332.2395284,2.0472400188,1129.7959146727976,3790.5305394288553,0.065,-1.527,-4.517,-5.536
0.0,1400006332.2395284,2.0472483635,1655.7699634695275,3650.059970708618,0.055,-1.554,-4.98,-6.06
0.0,1400006332.2395284,2.0472586155,2152.781734724374,3557.132151345879,0.109,-1.482,-5.299,-6.42
0.0,1400006332.2395284,2.047270298,2471.724145016129,3508.326468551656,0.171,-1.399,-5.468,-6.61
0.0,1400006332.2395284,2.0472838879,2618.1830082189863,3487.385841352184,0.204,-1.357,-5.538,-6.688
0.0,1400006332.2395284,2.0472991467,2685.344445658506,3478.5640153042373,0.22,-1.336,-5.569,-6.723
0.0,1400006332.2395284,2.0472996235,1614.3585568264868,3657.631930094523,0.058,-1.55,-4.949,-6.027
0.0,1400006332.2395284,2.0473008156,1205.0359403717973,3765.3036041227815,0.061,-1.536,-4.595,-5.625
0.0,1400006332.2395284,2.0473034382,690.239803840242,3979.2387763422494,0.186,-1.324,-3.934,-4.863
0.0,1400006332.2395284,2.0473074913,687.0684400142325,3981.0717055349733,0.187,-1.322,-3.929,-4.858
0.0,1400006332.2395284,2.0473129749,847.2274141405964,3899.419866765436,0.126,-1.423,-4.175,-5.142
0.0,1400006332.2395284,2.0473201275,1253.1411749414156,3750.5935291111437,0.059,-1.542,-4.643,-5.68
0.0,1400006332.2395284,2.0473287106,1823.8957023196383,3612.434655644614,0.081,-1.523,-5.097,-6.194
0.0,1400006332.2395284,2.047339201,2355.049283896009,3520.4647488942164,0.166,-1.409,-5.41,-6.548
0.0,1400006332.2395284,2.0473513603,2697.7394324449206,3472.1621617221945,0.242,-1.31,-5.577,-6.734
0.0,1400006332.2395284,2.047365427,2857.5905433749467,3452.2322076905675,0.286,-1.253,-5.647,-6.812
0.0,1400006332.2395284,2.0473814011,2930.8932452503213,3442.7065038944434,0.309,-1.224,-5.679,-6.848
0.0,1400006332.2395284,2.0473818779,1823.8957023196383,3611.602957582318,0.084,-1.52,-5.097,-6.195
0.0,1400006332.2395284,2.04738307,1364.583136588924,3718.7758332493545,0.052,-1.557,-4.745,-5.796
0.0,1400006332.2395284,2.047385931,787.0457896950985,3931.877693146969,0.14,-1.393,-4.088,-5.04
0.0,1400006332.2395284,2.0473899841,779.8301105232586,3935.5007545577764,0.143,-1.389,-4.078,-5.028
0.0,1400006332.2395284,2.0473954678,954.992586021436,3855.671275573944,0.093,-1.475,-4.318,-5.306
0.0,1400006332.2395284,2.0474028587,1399.5873225726177,3708.514658756861,0.055,-1.554,-4.776,-5.831
0.0,1400006332.2395284,2.0474116802,2013.7242498623875,3572.7283815192886,0.119,-1.475,-5.219,-6.334
0.0,1400006332.2395284,2.0474224091,2588.2129151530903,3482.571166386543,0.239,-1.317,-5.527,-6.68
0.0,1400006332.2395284,2.0474350452,2951.209226666387,3434.788498657803,0.341,-1.185,-5.69,-6.862
0.0,1400006332.2395284,2.0474493504,3118.8895840939385,3414.286807579689,0.39,-1.121,-5.759,-6.939
0.0,1400006332.2395284,2.0474658012,3198.895109691397,3404.081897010009,0.416,-1.088,-5.791,-6.975
0.0,1400006332.2395284,2.0474660397,2060.6299132700005,3562.049907308445,0.133,-1.457,-5.249,-6.369
0.0,1400006332.2395284,2.0474674702,1548.816618912481,3669.4417673371618,0.067,-1.541,-4.9,-5.973
0.0,1400006332.2395284,2.0474700928,899.4975815300355,3881.5036599064824,0.101,-1.458,-4.246,-5.221
0.0,1400006332.2395284,2.0474739075,887.1560120379609,3886.8698613730226,0.103,-1.453,-4.229,-5.202
0.0,1400006332.2395284,2.0474793911,1078.9467222298285,3808.9037649813513,0.067,-1.52,-4.463,-5.473
0.0,1400006332.2395284,2.0474863052,1559.552502826954,3666.0636424947174,0.069,-1.538,-4.908,-5.982
0.0,1400006332.2395284,2.0474948883,2213.094709605639,3534.2722436627364,0.169,-1.411,-5.337,-6.469
0.0,1400006332.2395284,2.0475051403,2818.382931264455,3445.8788144433506,0.327,-1.205,-5.635,-6.803
0.0,1400006332.2395284,2.0475170612,3191.5378551007616,3400.1650580407095,0.436,-1.064,-5.792,-6.977
0.0,1400006332.2395284,2.0475308895,3365.115693754908,3381.4268747382753,0.488,-0.997,-5.856,-7.049
0.0,1400006332.2395284,2.0475466251,3435.5794789987463,3373.6498087376713,0.517,-0.961,-5.883,-7.079
0.0,1400006332.2395284,2.047547102,2301.441817408509,3520.4647488942164,0.19,-1.382,-5.384,-6.521
0.0,1400006332.2395284,2.0475482941,1733.8039977541375,3627.4380147645793,0.08,-1.527,-5.038,-6.128
0.0,1400006332.2395284,2.0475511551,1013.9113857366789,3838.8398990276855,0.066,-1.51,-4.388,-5.384
0.0,1400006332.2395284,2.0475552082,995.4054173515275,3846.8034777189105,0.069,-1.505,-4.366,-5.358
0.0,1400006332.2395284,2.0475606918,1207.8138351067798,3769.641066462436,0.05,-1.548,-4.596,-5.624
0.0,1400006332.2395284,2.0475680828,1721.8685749860078,3629.9446258272606,0.078,-1.53,-5.03,-6.119
0.0,1400006332.2395284,2.0475769043,2421.0290467361774,3500.2575415843376,0.226,-1.337,-5.448,-6.593
0.0,1400006332.2395284,2.0475876331,3054.9211132155124,3413.5007294931106,0.413,-1.095,-5.739,-6.919
0.0,1400006332.2395284,2.0476000309,3451.437393358561,3368.2165076063116,0.542,-0.931,-5.891,-7.089
0.0,1400006332.2395284,2.0476145744,3630.780547701014,3349.654391578276,0.607,-0.849,-5.954,-7.16
0.0,1400006332.2395284,2.0476307869,3715.352290971724,3341.950400261143,0.636,-0.812,-5.983,-7.192
0.0,1400006332.2395284,2.0476312637,2588.2129151530903,3476.161938153812,0.265,-1.286,-5.53,-6.686
0.0,1400006332.2395284,2.0476324558,1958.844673505989,3582.613845838672,0.113,-1.484,-5.187,-6.297
0.0,1400006332.2395284,2.0476350784,1156.1122421920993,3794.0233553289568,0.033,-1.563,-4.543,-5.559
0.0,1400006332.2395284,2.0476391315,1129.7959146727976,3803.6452032855573,0.033,-1.56,-4.516,-5.528
0.0,1400006332.2395284,2.0476446152,1361.4446824659497,3727.348496903337,0.033,-1.576,-4.741,-5.788
0.0,1400006332.2395284,2.0476515293,1918.668740670289,3590.0458899019936,0.107,-1.492,-5.162,-6.269
0.0,1400006332.2395284,2.0476601124,2666.8586645214805,3463.378846082793,0.295,-1.248,-5.568,-6.729
0.0,1400006332.2395284,2.0476706028,3341.950400261143,3377.5361033186905,0.518,-0.963,-5.851,-7.046
0.0,1400006332.2395284,2.0476827621,3767.0379898390893,3333.496473327569,0.677,-0.763,-6.0,-7.212
0.0,1400006332.2395284,2.0476965904,3953.666200681279,3314.36245009259,0.75,-0.671,-6.063,-7.283
0.0,1400006332.2395284,2.0477125645,4055.085354483839,3304.4562019345226,0.794,-0.615,-6.093,-7.318
0.0,1400006332.2395284,2.0477128029,2930.8932452503213,3426.099724881373,0.391,-1.126,-5.688,-6.864
0.0,1400006332.2395284,2.0477142334,2233.5722228305326,3531.83169791957,0.173,-1.406,-5.346,-6.479
0.0,1400006332.2395284,2.0477166176,1327.3944577297402,3741.9674033666447,0.023,-1.585,-4.709,-5.749
0.0,1400006332.2395284,2.0477201939,1291.2192736135348,3754.0495447208405,0.022,-1.583,-4.675,-5.709
0.0,1400006332.2395284,2.0477252007,1545.254439538414,3679.594830147843,0.041,-1.57,-4.894,-5.962
0.0,1400006332.2395284,2.047731638,2147.8304741305333,3546.5002924732053,0.152,-1.435,-5.299,-6.425
0.0,1400006332.2395284,2.0477395058,2937.6496519615307,3422.9456231604145,0.403,-1.112,-5.691,-6.868
0.0,1400006332.2395284,2.0477490425,3647.5394692560767,3340.4117295457277,0.663,-0.782,-5.962,-7.171
0.0,1400006332.2395284,2.0477602482,4073.802778041126,3297.6153801591913,0.837,-0.561,-6.102,-7.33
0.0,1400006332.2395284,2.0477731228,4275.62886151586,3279.4423443213464,0.925,-0.445,-6.16,-7.396
0.0,1400006332.2395284,2.0477876663,4365.158322401661,3270.3934175663962,0.97,-0.387,-6.187,-7.426
0.0,1400006332.2395284,2.0477879047,3280.9529311311903,3379.09187437723,0.529,-0.951,-5.829,-7.023
0.0,1400006332.2395284,2.0477893353,2506.109253032114,3484.175319018589,0.261,-1.294,-5.491,-6.643
0.0,1400006332.2395284,2.0477917194,1503.1419660900224,3694.0264435828335,0.029,-1.585,-4.859,-5.921
0.0,1400006332.2395284,2.0477952957,1455.4590805819653,3707.660840003112,0.021,-1.593,-4.819,-5.875
0.0,1400006332.2395284,2.0478003025,1733.8039977541375,3634.1261606422304,0.06,-1.551,-5.034,-6.122
0.0,1400006332.2395284,2.0478067398,2376.840286624876,3504.2896826443844,0.225,-1.34,-5.426,-6.57
0.0,1400006332.2395284,2.0478146076,3213.660538640318,3384.542718663093,0.515,-0.971,-5.806,-6.998
0.0,1400006332.2395284,2.0478241444,3953.666200681279,3304.4562019345226,0.817,-0.59,-6.065,-7.29
0.0,1400006332.2395284,2.04783535,4405.548635065535,3262.871721430849,1.016,-0.329,-6.2,-7.442
0.0,1400006332.2395284,2.0478482246,4602.565735813559,3244.8901566053664,1.103,-0.215,-6.256,-7.506
0.0,1400006332.2395284,2.0478627682,4698.941086052156,3236.6817570165304,1.147,-0.158,-6.283,-7.537
0.0,1400006332.2395284,2.0478630066,3664.3757464783334,3331.9616948930816,0.71,-0.726,-5.972,-7.185
0.0,1400006332.2395284,2.0478641987,2811.9008303989394,3436.370641490611,0.377,-1.147,-5.638,-6.81
0.0,1400006332.2395284,2.0478663445,1706.0823890031243,3644.181507888609,0.047,-1.566,-5.014,-6.097
0.0,1400006332.2395284,2.0478696823,1640.5897731995387,3660.1594055804926,0.037,-1.576,-4.967,-6.043
0.0,1400006332.2395284,2.0478742123,1945.3600816226633,3588.3929932948636,0.102,-1.498,-5.177,-6.285
0.0,1400006332.2395284,2.0478799343,2636.3313858253787,3462.5814654379196,0.312,-1.231,-5.556,-6.717
0.0,1400006332.2395284,2.0478873253,3515.6044052829798,3346.5706661967974,0.662,-0.787,-5.921,-7.128
0.0,1400006332.2395284,2.0478959084,4285.485203974396,3268.8876924727197,1.0,-0.352,-6.169,-7.409
0.0,1400006332.2395284,2.0479059219,4753.352259428054,3228.4941217126348,1.191,-0.103,-6.298,-7.554
0.0,1400006332.2395284,2.0479176044,4965.923214503363,3210.7020105619063,1.265,-0.005,-6.352,-7.616
0.0,1400006332.2395284,2.0479307175,5069.907082747044,3201.842758202777,1.306,0.047,-6.378,-7.646
0.0,1400006332.2395284,2.0479309559,4083.1938633269233,3284.7324430306794,0.926,-0.451,-6.11,-7.343
0.0,1400006332.2395284,2.047932148,3155.0046233746275,3388.441561392024,0.512,-0.977,-5.782,-6.973
0.0,1400006332.2395284,2.0479340553,1923.0917289101576,3594.181463147148,0.093,-1.51,-5.163,-6.268
0.0,1400006332.2395284,2.0479371548,1845.0154191794736,3612.434655644614,0.072,-1.537,-5.11,-6.207
0.0,1400006332.2395284,2.0479414463,2172.7011788637456,3541.6040042646177,0.159,-1.428,-5.314,-6.442
0.0,1400006332.2395284,2.0479469299,2910.717118066605,3419.794425137087,0.43,-1.082,-5.681,-6.859
0.0,1400006332.2395284,2.0479536057,3828.2474331682283,3308.2627885569786,0.822,-0.589,-6.03,-7.253
0.0,1400006332.2395284,2.0479617119,4613.175745603796,3233.7020353739117,1.185,-0.114,-6.265,-7.519
0.0,1400006332.2395284,2.0479712486,5081.594425605605,3195.2143648082215,1.352,0.103,-6.386,-7.656
0.0,1400006332.2395284,2.0479822159,5284.452517751803,3179.069335643364,1.433,0.207,-6.436,-7.713
0.0,1400006332.2395284,2.0479946136,5382.697825162882,3171.027438947892,1.474,0.26,-6.459,-7.739
0.0,1400006332.2395284,2.0479948521,4487.453899331323,3241.902878227874,1.153,-0.157,-6.231,-7.482
0.0,1400006332.2395284,2.0479960442,3483.3731503601166,3344.2597353373435,0.685,-0.762,-5.909,-7.117
0.0,1400006332.2395284,2.0479979515,2142.8906011200584,3548.133892335753,0.148,-1.443,-5.297,-6.422
0.0,1400006332.2395284,2.0480010509,2046.444636724674,3568.617492834813,0.123,-1.474,-5.238,-6.354
0.0,1400006332.2395284,2.0480053425,2398.83291901949,3499.451670283573,0.241,-1.324,-5.438,-6.584
0.0,1400006332.2395284,2.0480105877,3169.56746304349,3381.4268747382753,0.551,-0.931,-5.793,-6.986
0.0,1400006332.2395284,2.0480172634,4130.475019901614,3272.6533057537135,1.006,-0.352,-6.126,-7.364
0.0,1400006332.2395284,2.0480253696,4931.738039549359,3201.10559153497,1.338,0.082,-6.35,-7.617
0.0,1400006332.2395284,2.048034668,5407.5432294558095,3164.462838835526,1.519,0.315,-6.465,-7.748
0.0,1400006332.2395284,2.0480456352,5610.479760324706,3149.1982396022863,1.584,0.393,-6.512,-7.801
0.0,1400006332.2395284,2.0480577946,5701.642722807472,3141.9552846410716,1.614,0.43,-6.534,-7.826
0.0,1400006332.2395284,2.048058033,4909.078761526029,3200.368594586517,1.346,0.091,-6.346,-7.614
0.0,1400006332.2395284,2.0480589867,3828.2474331682283,3302.1743526707673,0.866,-0.536,-6.031,-7.256
0.0,1400006332.2395284,2.0480606556,2376.840286624876,3505.09666806693,0.228,-1.341,-5.427,-6.57
0.0,1400006332.2395284,2.0480635166,2259.435770220978,3527.7678661887385,0.183,-1.398,-5.362,-6.496
0.0,1400006332.2395284,2.0480673313,2642.4087573219476,3458.597315106485,0.332,-1.21,-5.559,-6.721
0.0,1400006332.2395284,2.0480720997,3451.437393358561,3343.489779723791,0.7,-0.747,-5.901,-7.11
0.0,1400006332.2395284,2.0480780602,4436.086439314323,3238.1726473132535,1.191,-0.114,-6.22,-7.473
0.0,1400006332.2395284,2.0480852127,5260.172663907063,3168.10815932805,1.513,0.303,-6.435,-7.716
0.0,1400006332.2395284,2.0480935574,5741.164622073275,3132.5643416709277,1.666,0.491,-6.546,-7.841
0.0,1400006332.2395284,2.0481030941,5956.621435290103,3116.7358754452835,1.732,0.57,-6.592,-7.894
0.0,1400006332.2395284,2.0481140614,6053.408747539136,3108.1359027394765,1.77,0.615,-6.614,-7.919
0.0,1400006332.2395284,2.0481142998,5370.317963702527,3155.7311736800216,1.579,0.385,-6.463,-7.749
0.0,1400006332.2395284,2.0481152534,4207.266283844442,3256.8668220166983,1.11,-0.222,-6.152,-7.397
0.0,1400006332.2395284,2.0481169224,2636.3313858253787,3457.0049388687194,0.345,-1.196,-5.558,-6.722
0.0,1400006332.2395284,2.0481197834,2488.85731828239,3481.769367055342,0.285,-1.272,-5.487,-6.64
0.0,1400006332.2395284,2.0481235981,2897.3435877013244,3414.286807579689,0.467,-1.042,-5.68,-6.86
0.0,1400006332.2395284,2.0481283665,3749.730022454834,3302.1743526707673,0.887,-0.514,-6.009,-7.235
0.0,1400006332.2395284,2.0481343269,4764.309868054156,3201.10559153497,1.373,0.119,-6.313,-7.581
0.0,1400006332.2395284,2.0481414795,5597.576014951104,3134.007273083861,1.68,0.505,-6.517,-7.812
0.0,1400006332.2395284,2.0481498241,6081.350012787177,3099.559659837377,1.824,0.678,-6.621,-7.93
0.0,1400006332.2395284,2.0481593609,6280.58358813318,3084.6081377571413,1.879,0.736,-6.664,-7.978
0.0,1400006332.2395284,2.0481703281,6382.634861905489,3076.805193759751,1.899,0.752,-6.683,-8.0
0.0,1400006332.2395284,2.0481705666,5821.032177708716,3113.149665447022,1.774,0.616,-6.569,-7.872
0.0,1400006332.2395284,2.0481715202,4581.418867145335,3212.9206511412604,1.33,0.06,-6.264,-7.526
0.0,1400006332.2395284,2.0481729507,2897.3435877013244,3411.1435809487116,0.483,-1.024,-5.68,-6.862
0.0,1400006332.2395284,2.0481755733,2722.701308077913,3438.7452222912716,0.406,-1.122,-5.602,-6.772
0.0,1400006332.2395284,2.0481789112,3155.0046233746275,3372.096543265998,0.615,-0.859,-5.791,-6.988
0.0,1400006332.2395284,2.0481832027,4045.7589169744288,3263.623111913169,1.101,-0.241,-6.107,-7.349
0.0,1400006332.2395284,2.0481886864,5081.594425605605,3165.191567226265,1.572,0.368,-6.397,-7.68
0.0,1400006332.2395284,2.0481951237,5915.616341754737,3100.2734419981916,1.842,0.696,-6.592,-7.9
0.0,1400006332.2395284,2.0482025146,6382.634861905489,3066.9027151623077,1.942,0.788,-6.69,-8.01
0.0,1400006332.2395284,2.0482113361,6591.738952443213,3052.1087222420074,1.98,0.815,-6.73,-8.055
0.0,1400006332.2395284,2.0482211113,6683.439175686149,3044.3879900225406,2.003,0.833,-6.749,-8.077
0.0,1400006332.2395284,2.0482213497,6280.58358813318,3069.728738183665,1.945,0.793,-6.669,-7.988
0.0,1400006332.2395284,2.048222065,4954.5019080479005,3169.56746304349,1.566,0.357,-6.368,-7.648
0.0,1400006332.2395284,2.0482234955,3155.0046233746275,3365.8906294925205,0.654,-0.815,-5.795,-6.994
0.0,1400006332.2395284,2.0482258797,2958.0124665515464,3395.4707998402328,0.548,-0.948,-5.71,-6.898
0.0,1400006332.2395284,2.0482289791,3419.794425137087,3328.894257585374,0.804,-0.629,-5.896,-7.11
0.0,1400006332.2395284,2.0482330322,4335.108783875289,3223.2945954551496,1.318,0.036,-6.2,-7.458
0.0,1400006332.2395284,2.048238039,5395.1062251512785,3127.519311407983,1.755,0.586,-6.478,-7.776
0.0,1400006332.2395284,2.0482439995,6237.348354824191,3064.7849053700324,1.975,0.82,-6.663,-7.984
0.0,1400006332.2395284,2.0482509136,6698.846094165266,3032.494347329631,2.056,0.878,-6.757,-8.089
0.0,1400006332.2395284,2.0482590199,6902.398038402419,3017.866332008685,2.097,0.906,-6.796,-8.134
0.0,1400006332.2395284,2.0482680798,6998.419960022738,3009.539168873201,2.117,0.92,-6.815,-8.154
0.0,1400006332.2395284,2.0482683182,6792.036326171843,3022.0385498282735,2.095,0.908,-6.775,-8.111
0.0,1400006332.2395284,2.0482690334,5333.348954876208,3123.2014671492143,1.795,0.631,-6.47,-7.769
0.0,1400006332.2395284,2.0482704639,3435.5794789987463,3318.180448272474,0.873,-0.55,-5.907,-7.126
0.0,1400006332.2395284,2.0482726097,3206.2693245054643,3348.883193942221,0.746,-0.707,-5.817,-7.023
0.0,1400006332.2395284,2.0482757092,3689.775985701505,3283.2201160919944,1.047,-0.325,-5.999,-7.233
0.0,1400006332.2395284,2.0482795238,4645.152752227492,3179.069335643364,1.558,0.335,-6.293,-7.57
0.0,1400006332.2395284,2.0482842922,5714.786366718672,3086.0289794360633,1.96,0.822,-6.561,-7.875
0.0,1400006332.2395284,2.0482897758,6576.578373554205,3024.126821283228,2.113,0.93,-6.739,-8.074
0.0,1400006332.2395284,2.0482964516,7046.930689671467,2991.575721530859,2.179,0.97,-6.829,-8.173
0.0,1400006332.2395284,2.0483043194,7261.0595743515505,2975.7743773728107,2.215,0.992,-6.868,-8.217
0.0,1400006332.2395284,2.0483129025,7362.070974947361,2965.514145782622,2.242,1.011,-6.887,-8.24
0.0,1400006332.2395284,2.0483131409,7345.138681571151,2966.1970592694383,2.242,1.011,-6.885,-8.237
0.0,1400006332.2395284,2.0483138561,5767.664633922509,3069.021988391158,2.031,0.881,-6.577,-7.896
0.0,1400006332.2395284,2.0483150482,3741.105882720533,3262.1205039426677,1.19,-0.149,-6.023,-7.265
0.0,1400006332.2395284,2.048317194,3467.368504525317,3296.097121774576,1.02,-0.372,-5.928,-7.156
0.0,1400006332.2395284,2.0483198166,3981.0717055349733,3229.9812405956245,1.36,0.069,-6.106,-7.362
0.0,1400006332.2395284,2.0483233929,4965.923214503363,3128.2395322577386,1.834,0.667,-6.39,-7.686
0.0,1400006332.2395284,2.0483279228,6067.363295885053,3037.3860919461044,2.129,0.957,-6.646,-7.976
0.0,1400006332.2395284,2.048333168,6918.309709189362,2977.1450877105985,2.254,1.035,-6.814,-8.163
0.0,1400006332.2395284,2.0483393669,7379.042301291008,2945.099689996018,2.319,1.073,-6.899,-8.258
0.0,1400006332.2395284,2.0483462811,7585.775750291836,2928.8693550290154,2.354,1.096,-6.935,-8.298
0.0,1400006332.2395284,2.0483543873,7673.614893618185,2918.098853741841,2.38,1.115,-6.953,-8.319
0.0,1400006332.2395284,2.0483546257,7870.457896950985,2907.3679594442274,2.396,1.123,-6.985,-8.354
0.0,1400006332.2395284,2.0483551025,6165.9500186148225,3011.6188030788244,2.227,1.037,-6.676,-8.014
0.0,1400006332.2395284,2.0483565331,4036.4539296760486,3203.3176008528117,1.527,0.272,-6.13,-7.397
0.0,1400006332.2395284,2.0483584404,3723.917062545687,3238.918349968776,1.371,0.069,-6.029,-7.282
0.0,1400006332.2395284,2.048361063,4265.795188015925,3172.488087350881,1.69,0.479,-6.205,-7.484
0.0,1400006332.2395284,2.0483644009,5272.298614228227,3071.8499642344627,2.104,0.959,-6.479,-7.797
0.0,1400006332.2395284,2.048368454,6382.634861905489,2982.634245778771,2.309,1.098,-6.725,-8.071
0.0,1400006332.2395284,2.0483734608,7227.698036021702,2922.8060659319312,2.42,1.161,-6.885,-8.249
0.0,1400006332.2395284,2.0483794212,7691.304402866098,2890.014355349471,2.482,1.199,-6.966,-8.34
0.0,1400006332.2395284,2.048386097,7888.601176185541,2872.1029297978343,2.52,1.232,-7.001,-8.378
0.0,1400006332.2395284,2.0483937263,7979.946872679769,2859.565178927503,2.552,1.264,-7.018,-8.397
0.0,1400006332.2395284,2.0483939648,8394.599865193974,2837.265648662569,2.574,1.283,-7.082,-8.466
0.0,1400006332.2395284,2.0483944416,6576.578373554205,2943.0659896990132,2.438,1.196,-6.772,-8.131
0.0,1400006332.2395284,2.0483956337,4325.138310350088,3133.2857243155854,1.941,0.772,-6.237,-7.531
0.0,1400006332.2395284,2.048397541,3981.0717055349733,3169.56746304349,1.786,0.58,-6.131,-7.411
0.0,1400006332.2395284,2.0483999252,4549.880601500485,3101.7014994776896,2.095,0.954,-6.305,-7.612
0.0,1400006332.2395284,2.0484032631,5584.701947368307,2999.8531811907933,2.371,1.176,-6.572,-7.913
0.0,1400006332.2395284,2.0484070778,6698.846094165266,2909.3769918965468,2.542,1.278,-6.808,-8.175
0.0,1400006332.2395284,2.0484118462,7550.922276654342,2847.7378001737457,2.643,1.358,-6.962,-8.343
0.0,1400006332.2395284,2.0484173298,8016.78063387679,2811.253440841773,2.703,1.416,-7.041,-8.428
0.0,1400006332.2395284,2.0484237671,8203.515443298185,2788.04641783178,2.748,1.47,-7.076,-8.466
0.0,1400006332.2395284,2.0484309196,8298.507675144225,2770.1290391637326,2.792,1.522,-7.096,-8.488
0.0,1400006332.2395284,2.0484311581,8933.054837332953,2736.5286541924665,2.813,1.558,-7.19,-8.588
0.0,1400006332.2395284,2.0484316349,6998.419960022738,2842.496901815529,2.734,1.451,-6.881,-8.262
0.0,1400006332.2395284,2.048432827,4634.46919736288,3029.7026026614167,2.431,1.261,-6.357,-7.689
0.0,1400006332.2395284,2.0484344959,4255.984131337431,3064.7849053700324,2.355,1.21,-6.247,-7.567
0.0,1400006332.2395284,2.0484366417,4841.7236758409945,2991.575721530859,2.547,1.35,-6.421,-7.764
0.0,1400006332.2395284,2.0484397411,5902.010801718442,2884.6956523813637,2.759,1.483,-6.68,-8.053
0.0,1400006332.2395284,2.0484433174,7030.723198838334,2789.330656339983,2.898,1.625,-6.908,-8.296
0.0,1400006332.2395284,2.0484478474,7870.457896950985,2720.821182091787,2.988,1.751,-7.057,-8.455
0.0,1400006332.2395284,2.0484528542,8317.63771102671,2676.7018556258904,3.067,1.868,-7.133,-8.537
0.0,1400006332.2395284,2.0484588146,8511.380382023768,2645.452694724049,3.136,1.979,-7.167,-8.573
0.0,1400006332.2395284,2.0484654903,8609.937521846008,2619.38900372149,3.194,2.068,-7.185,-8.594
