FeH,Age,Mini,L,Te,Bmag,Vmag,Jmag,Kmag
0.0,3699985311.728588,0.0900000036,0.00037844258471709315,2307.809729698403,19.988,18.146,11.236,10.333
0.0,3699985311.728588,0.1000000015,0.0005767664633922509,2450.7555792438225,19.502,17.669,10.777,9.872
0.0,3699985311.728588,0.1200000048,0.0010641430182243164,2657.6635495543114,18.519,16.725,10.131,9.219
0.0,3699985311.728588,0.1368468255,0.0015240527537972906,2763.7579191703653,17.493,15.774,9.782,8.867
0.0,3699985311.728588,0.1400000006,0.0016218100973589297,2782.274657675122,17.324,15.616,9.721,8.806
0.0,3699985311.728588,0.1599999964,0.002243881923782766,2870.780582024692,16.506,14.845,9.402,8.488
0.0,3699985311.728588,0.200000003,0.0036897759857015045,2997.091486307045,15.393,13.79,8.907,7.999
0.0,3699985311.728588,0.25,0.005915616341754737,3112.4329187675094,14.442,12.873,8.436,7.536
0.0,3699985311.728588,0.3000000119,0.008531001140175895,3190.0684359752117,13.798,12.262,8.063,7.169
0.0,3699985311.728588,0.3393065631,0.011402497875611685,3240.4102704918173,13.334,11.822,7.765,6.874
0.0,3699985311.728588,0.3500000238,0.012274392311584071,3253.1193731384888,13.22,11.712,7.688,6.798
0.0,3699985311.728588,0.4000000358,0.01702158508394951,3338.1050516598925,12.654,11.174,7.359,6.472
0.0,3699985311.728588,0.4500000179,0.024043628000069334,3431.6263979646833,12.079,10.628,7.015,6.129
0.0,3699985311.728588,0.4924727082,0.032734069487883814,3534.2722436627364,11.557,10.13,6.714,5.828
0.0,3699985311.728588,0.5,0.03443499307633384,3552.2211848231955,11.471,10.047,6.664,5.778
0.0,3699985311.728588,0.5500000119,0.05046612975635284,3711.931900441403,10.806,9.401,6.301,5.418
0.0,3699985311.728588,0.6000000238,0.07396052750582378,3918.3208939411097,10.114,8.741,5.95,5.081
0.0,3699985311.728588,0.6322338581,0.09484184633008974,4087.897521111197,9.632,8.306,5.72,4.874
0.0,3699985311.728588,0.6499999762,0.10839269140212036,4181.190933499036,9.374,8.079,5.598,4.769
0.0,3699985311.728588,0.6634390354,0.11994993031493788,4258.9250766720725,9.163,7.899,5.506,4.696
0.0,3699985311.728588,0.7000000477,0.15667510701081488,4469.922568418684,8.593,7.425,5.273,4.521
0.0,3699985311.728588,0.7427882552,0.21232444620002192,4729.334149186516,7.944,6.9,5.017,4.357
0.0,3699985311.728588,0.75,0.22284351492703036,4773.094139287512,7.841,6.816,4.976,4.332
0.0,3699985311.728588,0.8000000119,0.3076096814740708,5015.335611066592,7.264,6.336,4.696,4.128
0.0,3699985311.728588,0.8226394653,0.35481338923357547,5122.712702645385,7.026,6.135,4.574,4.036
0.0,3699985311.728588,0.8500000238,0.41975898399100753,5251.701096404131,6.75,5.903,4.431,3.927
0.0,3699985311.728588,0.8853437304,0.519995996533516,5408.788505661013,6.422,5.623,4.247,3.782
0.0,3699985311.728588,0.8999999762,0.5675446054085471,5472.679310676925,6.288,5.51,4.173,3.724
0.0,3699985311.728588,0.9253900051,0.660693448007596,5578.27602141201,6.064,5.321,4.046,3.62
0.0,3699985311.728588,0.94880867,0.7568328950209744,5672.833016309789,5.866,5.152,3.93,3.524
0.0,3699985311.728588,0.9499999881,0.762079010025412,5678.060295486644,5.856,5.144,3.924,3.519
0.0,3699985311.728588,0.9703290462,0.8590135215053957,5754.399373371566,5.689,5.001,3.82,3.431
0.0,3699985311.728588,0.990239501,0.9660508789898133,5826.396016235753,5.529,4.864,3.721,3.347
0.0,3699985311.728588,1.0,1.02093948370768,5861.3816451402845,5.451,4.797,3.672,3.305
0.0,3699985311.728588,1.0185694695,1.1376272858234309,5923.794715877255,5.305,4.672,3.578,3.223
0.0,3699985311.728588,1.0379799604,1.2735030810166617,5986.872372480598,5.155,4.542,3.479,3.136
0.0,3699985311.728588,1.0499999523,1.3645831365889245,6024.208575746259,5.063,4.463,3.418,3.082
0.0,3699985311.728588,1.0649200678,1.485935642287007,6067.363295885053,4.953,4.366,3.341,3.012
0.0,3699985311.728588,1.0824286938,1.6443717232149315,6115.0498251702875,4.824,4.252,3.249,2.929
0.0,3699985311.728588,1.0990023613,1.807174126010927,6157.437325570652,4.705,4.146,3.162,2.849
0.0,3699985311.728588,1.1000000238,1.8155156627731355,6160.273583272377,4.698,4.14,3.156,2.844
0.0,3699985311.728588,1.1056962013,1.8749945080674189,6174.474480506815,4.657,4.104,3.126,2.816
0.0,3699985311.728588,1.1215686798,2.0511621788255656,6208.690342300638,4.548,4.005,3.044,2.74
0.0,3699985311.728588,1.1365768909,2.218196419800219,6237.348354824191,4.45,3.916,2.967,2.667
0.0,3699985311.728588,1.1499999762,2.38231946935869,6257.487633544409,4.367,3.839,2.898,2.602
0.0,3699985311.728588,1.1592324972,2.488857318282391,6263.253647582229,4.316,3.79,2.853,2.558
0.0,3699985311.728588,1.1735329628,2.6607250597988097,6266.138646723356,4.242,3.717,2.781,2.487
0.0,3699985311.728588,1.1984751225,2.930893245250321,6245.971525332753,4.141,3.612,2.667,2.37
0.0,3699985311.728588,1.2000000477,2.9512092266663856,6244.533502805022,4.136,3.605,2.66,2.363
0.0,3699985311.728588,1.25,3.6475394692560785,6195.837230776552,3.92,3.378,2.414,2.109
0.0,3699985311.728588,1.2503714561,3.6475394692560785,6195.837230776552,3.919,3.377,2.412,2.107
0.0,3699985311.728588,1.2709676027,4.3151907682776525,6248.848563929625,3.715,3.19,2.249,1.953
0.0,3699985311.728588,1.2746258974,4.720630412635906,6315.3874537438505,3.595,3.089,2.177,1.892
0.0,3699985311.728588,1.2763129473,5.176068319505676,6378.227416392381,3.472,2.984,2.099,1.825
0.0,3699985311.728588,1.2764325142,5.211947111050804,6382.634861905489,3.462,2.976,2.093,1.819
0.0,3699985311.728588,1.2793238163,5.333348954876209,6344.537957757143,3.449,2.952,2.053,1.773
0.0,3699985311.728588,1.2954875231,5.847900841444807,6197.264039282265,3.399,2.861,1.901,1.597
0.0,3699985311.728588,1.2999999523,5.997910762555095,6146.105347195242,3.392,2.839,1.856,1.544
0.0,3699985311.728588,1.3056945801,6.151768727098682,6068.760518768,3.394,2.817,1.801,1.475
0.0,3699985311.728588,1.3131207228,6.137620051647943,5914.25437756224,3.464,2.839,1.748,1.393
0.0,3699985311.728588,1.3168442249,5.956621435290105,5796.955946535209,3.549,2.888,1.74,1.361
0.0,3699985311.728588,1.3193558455,5.714786366718671,5696.3937334118355,3.641,2.948,1.748,1.348
0.0,3699985311.728588,1.3216611147,5.457578610912709,5591.135275705602,3.746,3.02,1.765,1.342
0.0,3699985311.728588,1.3238363266,5.188000389289611,5485.29513941203,3.854,3.096,1.783,1.336
0.0,3699985311.728588,1.3263914585,4.96592321450336,5361.66900594989,3.973,3.177,1.793,1.317
0.0,3699985311.728588,1.3296958208,4.864072056914616,5221.556720489596,4.08,3.24,1.771,1.259
0.0,3699985311.728588,1.3339418173,5.211947111050804,5102.699578594392,4.084,3.206,1.66,1.115
0.0,3699985311.728588,1.3343359232,5.2722986142282275,5095.65480608114,4.078,3.197,1.646,1.099
0.0,3699985311.728588,1.3372582197,5.88843655355589,5051.263219145947,3.987,3.092,1.512,0.953
0.0,3699985311.728588,1.3400601149,6.66806769213622,5018.801279032415,3.876,2.97,1.368,0.8
0.0,3699985311.728588,1.3429149389,7.638357835776907,4991.142851656184,3.751,2.833,1.212,0.635
0.0,3699985311.728588,1.3453178406,8.649679187756934,4969.354737803068,3.633,2.706,1.069,0.486
0.0,3699985311.728588,1.347520709,9.817479430199844,4947.661736816762,3.516,2.579,0.927,0.338
0.0,3699985311.728588,1.34945786,11.04078619902073,4926.063433495771,3.404,2.458,0.791,0.196
0.0,3699985311.728588,1.3499999046,11.455129414455355,4919.262524341649,3.371,2.422,0.75,0.154
0.0,3699985311.728588,1.3517166376,12.793813041575246,4898.916080940641,3.268,2.31,0.623,0.02
0.0,3699985311.728588,1.3535504341,14.52111617587742,4873.040266252349,3.153,2.184,0.478,-0.133
0.0,3699985311.728588,1.3551951647,16.443717232149314,4848.4173870844625,3.042,2.061,0.336,-0.282
0.0,3699985311.728588,1.356564641,18.450154191794738,4822.808303816475,2.939,1.948,0.203,-0.423
0.0,3699985311.728588,1.357814312,20.79696687103696,4797.334486366892,2.834,1.831,0.067,-0.567
0.0,3699985311.728588,1.3589653969,23.49632820848307,4768.699981017778,2.728,1.713,-0.074,-0.717
0.0,3699985311.728588,1.3599711657,26.42408757321946,4740.236390350336,2.627,1.601,-0.209,-0.861
0.0,3699985311.728588,1.3609051704,29.716660317380267,4711.94269420276,2.526,1.487,-0.346,-1.008
0.0,3699985311.728588,1.3618500233,33.57376142429547,4681.661397243642,2.423,1.371,-0.487,-1.159
0.0,3699985311.728588,1.3629624844,38.106582339377304,4649.433066875436,2.319,1.253,-0.632,-1.315
0.0,3699985311.728588,1.3632962704,38.90451449942807,4645.152752227492,2.301,1.233,-0.656,-1.341
0.0,3699985311.728588,1.3641163111,35.3183169791957,4675.197908845073,2.374,1.319,-0.543,-1.217
0.0,3699985311.728588,1.3643237352,33.96252725904083,4687.05446301803,2.404,1.354,-0.498,-1.169
0.0,3699985311.728588,1.3644145727,34.514373933585624,4682.739513736003,2.392,1.34,-0.516,-1.187
0.0,3699985311.728588,1.3650275469,38.282474331682266,4654.789007046166,2.306,1.243,-0.636,-1.318
0.0,3699985311.728588,1.3656550646,42.65795188015925,4625.940047661603,2.219,1.142,-0.762,-1.453
0.0,3699985311.728588,1.3662247658,47.424198526024455,4598.328567699996,2.135,1.046,-0.882,-1.584
0.0,3699985311.728588,1.3667514324,52.60172663907063,4569.82953285961,2.057,0.951,-1.004,-1.715
0.0,3699985311.728588,1.3672401905,58.34451042737448,4540.461526048465,1.982,0.858,-1.125,-1.846
0.0,3699985311.728588,1.367683053,64.56542290346556,4512.321133443373,1.91,0.767,-1.244,-1.974
0.0,3699985311.728588,1.3680922985,71.44963260755135,4483.322704327333,1.838,0.676,-1.362,-2.103
0.0,3699985311.728588,1.3684780598,79.25013304804718,4453.485062698576,1.767,0.586,-1.483,-2.234
0.0,3699985311.728588,1.3688234091,87.70008211436348,4424.86474355665,1.7,0.5,-1.599,-2.361
0.0,3699985311.728588,1.3691395521,96.8277856261249,4395.416154378243,1.634,0.415,-1.715,-2.488
0.0,3699985311.728588,1.3694295883,106.90548792226576,4366.163552976836,1.569,0.331,-1.83,-2.614
0.0,3699985311.728588,1.3697006702,118.03206356517298,4337.105635004415,1.507,0.249,-1.946,-2.742
0.0,3699985311.728588,1.3699430227,130.016957803329,4307.249209819747,1.447,0.166,-2.057,-2.862
0.0,3699985311.728588,1.3701739311,143.8798578255845,4277.59831482038,1.385,0.08,-2.172,-2.985
0.0,3699985311.728588,1.3703805208,158.48931924611142,4248.15153514646,1.326,-0.001,-2.282,-3.105
0.0,3699985311.728588,1.3705734015,174.5822152920504,4218.907465677975,1.266,-0.082,-2.392,-3.225
0.0,3699985311.728588,1.3707512617,192.30917289101575,4189.864710967686,1.205,-0.162,-2.502,-3.346
0.0,3699985311.728588,1.3709156513,211.34890398366477,4160.063884776209,1.145,-0.242,-2.611,-3.466
0.0,3699985311.728588,1.3710676432,232.80912576650078,4131.426206427586,1.086,-0.318,-2.72,-3.586
0.0,3699985311.728588,1.3712073565,255.85858869056452,4102.041029866068,1.027,-0.394,-2.828,-3.705
0.0,3699985311.728588,1.3713359833,281.1900830398939,4072.8648582724245,0.969,-0.469,-2.934,-3.823
0.0,3699985311.728588,1.3714570999,309.0295432513592,4042.9651707596545,0.919,-0.537,-3.044,-3.946
0.0,3699985311.728588,1.3715655804,338.84415613920237,4014.209182043213,0.875,-0.598,-3.151,-4.066
0.0,3699985311.728588,1.3716659546,371.5352290971724,3984.7400971777515,0.833,-0.659,-3.257,-4.186
0.0,3699985311.728588,1.3717619181,407.3802778041126,3955.4873505556216,0.791,-0.716,-3.366,-4.309
0.0,3699985311.728588,1.3718475103,445.6562483975033,3926.449353995997,0.754,-0.768,-3.47,-4.426
0.0,3699985311.728588,1.3719288111,487.5284901033865,3896.7271730789967,0.718,-0.819,-3.576,-4.546
0.0,3699985311.728588,1.3720058203,534.5643593969719,3867.2299811937696,0.685,-0.865,-3.683,-4.666
0.0,3699985311.728588,1.3720744848,582.1032177708715,3837.9560752329744,0.657,-0.905,-3.784,-4.781
0.0,3699985311.728588,1.3721398115,635.3309318517436,3808.9037649813513,0.631,-0.944,-3.886,-4.897
0.0,3699985311.728588,1.3722015619,693.4258060165695,3779.2010796187897,0.611,-0.972,-3.99,-5.015
0.0,3699985311.728588,1.3722721338,772.6805850957021,3741.9674033666447,0.595,-0.996,-4.119,-5.16
0.0,3699985311.728588,1.3723359108,857.0378452303693,3705.1005630192394,0.588,-1.01,-4.243,-5.301
0.0,3699985311.728588,1.3723950386,948.4184633008969,3667.7523159949515,0.592,-1.005,-4.367,-5.441
0.0,3699985311.728588,1.3724497557,1049.542428652322,3631.616662075049,0.599,-0.998,-4.49,-5.579
0.0,3699985311.728588,1.3725005388,1158.7773561551262,3595.0091493002346,0.627,-0.962,-4.611,-5.717
0.0,3699985311.728588,1.3725475073,1279.3813041575252,3557.9513055974294,0.657,-0.922,-4.731,-5.853
0.0,3699985311.728588,1.3725918531,1412.537544622754,3521.2754591922267,0.707,-0.856,-4.853,-5.99
0.0,3699985311.728588,1.3726325035,1555.965631605075,3484.175319018589,0.765,-0.779,-4.972,-6.125
0.0,3699985311.728588,1.3726710081,1710.015315090288,3447.4660657314944,0.847,-0.674,-5.092,-6.259
0.0,3699985311.728588,1.3727067709,1879.3168168032685,3410.3582265334926,0.942,-0.552,-5.21,-6.392
0.0,3699985311.728588,1.3727402687,2060.6299132700005,3373.6498087376713,1.052,-0.413,-5.327,-6.523
0.0,3699985311.728588,1.3727711439,2249.0546058357804,3337.3365130514867,1.186,-0.245,-5.439,-6.65
0.0,3699985311.728588,1.3728010654,2449.0632418447444,3302.934793960337,1.327,-0.067,-5.545,-6.77
0.0,3699985311.728588,1.3728096485,2506.109253032114,3293.821044764936,1.373,-0.007,-5.574,-6.804
0.0,3699985311.728588,1.3728096485,54.32503314924333,4728.2453051179655,1.854,0.816,-0.998,-1.652
0.0,3699985311.728588,1.3731597662,55.97576014951102,4717.370642684883,1.834,0.79,-1.033,-1.691
0.0,3699985311.728588,1.3735231161,56.623928903825316,4714.113123725611,1.825,0.778,-1.047,-1.706
0.0,3699985311.728588,1.3738883734,56.623928903825316,4716.284552998378,1.822,0.777,-1.047,-1.705
0.0,3699985311.728588,1.3742550611,56.49369748123026,4719.543572446043,1.822,0.778,-1.042,-1.699
0.0,3699985311.728588,1.374630332,56.36376558259543,4723.892435134152,1.822,0.78,-1.038,-1.693
0.0,3699985311.728588,1.3749936819,56.104797603247064,4727.156711736158,1.821,0.781,-1.033,-1.687
0.0,3699985311.728588,1.3753621578,55.97576014951102,4730.423243999551,1.821,0.782,-1.029,-1.682
0.0,3699985311.728588,1.3757289648,55.84701947368309,4734.782131851524,1.82,0.783,-1.025,-1.677
0.0,3699985311.728588,1.376077652,55.71857489319299,4736.963081746328,1.819,0.784,-1.021,-1.672
0.0,3699985311.728588,1.3764200211,55.59042572704037,4740.236390350336,1.818,0.784,-1.019,-1.669
0.0,3699985311.728588,1.3766386509,55.59042572704037,4741.3279957862,1.817,0.784,-1.017,-1.667
0.0,3699985311.728588,1.3768390417,55.59042572704037,4743.511960856962,1.817,0.784,-1.017,-1.665
0.0,3699985311.728588,1.377259016,55.46257129579107,4745.696931912426,1.815,0.784,-1.015,-1.663
0.0,3699985311.728588,1.3776620626,55.46257129579107,4747.882909415973,1.813,0.783,-1.013,-1.661
0.0,3699985311.728588,1.3780261278,55.46257129579107,4750.069893831193,1.811,0.782,-1.013,-1.659
0.0,3699985311.728588,1.378070116,55.46257129579107,4750.069893831193,1.811,0.782,-1.013,-1.659
0.0,3699985311.728588,1.3784716129,55.46257129579107,4752.257885621896,1.809,0.781,-1.012,-1.658
0.0,3699985311.728588,1.3788706064,55.46257129579107,4754.4468852521,1.807,0.78,-1.012,-1.657
0.0,3699985311.728588,1.3792570829,55.46257129579107,4755.541763152083,1.804,0.778,-1.013,-1.657
0.0,3699985311.728588,1.379668951,55.59042572704037,4756.636893186042,1.802,0.775,-1.014,-1.658
0.0,3699985311.728588,1.3800619841,55.71857489319299,4757.732275412047,1.799,0.773,-1.016,-1.66
0.0,3699985311.728588,1.3804609776,55.84701947368309,4757.732275412047,1.796,0.77,-1.019,-1.663
0.0,3699985311.728588,1.380869627,56.104797603247064,4757.732275412047,1.792,0.766,-1.022,-1.666
0.0,3699985311.728588,1.3809072971,56.104797603247064,4757.732275412047,1.792,0.766,-1.023,-1.667
0.0,3699985311.728588,1.3809551001,56.104797603247064,4757.732275412047,1.792,0.765,-1.023,-1.667
0.0,3699985311.728588,1.3813397884,56.36376558259543,4756.636893186042,1.788,0.761,-1.028,-1.672
0.0,3699985311.728588,1.3817324638,56.623928903825316,4755.541763152083,1.784,0.756,-1.034,-1.679
0.0,3699985311.728588,1.3821332455,57.016427228074754,4753.352259428054,1.779,0.75,-1.042,-1.687
0.0,3699985311.728588,1.3825213909,57.41164622073274,4751.163763775616,1.773,0.743,-1.051,-1.697
0.0,3699985311.728588,1.3829197884,57.94286964268809,4747.882909415973,1.767,0.734,-1.063,-1.71
0.0,3699985311.728588,1.3833098412,58.613816451402876,4743.511960856962,1.759,0.724,-1.076,-1.725
0.0,3699985311.728588,1.3836942911,59.42921586155727,4738.053933388255,1.75,0.713,-1.092,-1.742
0.0,3699985311.728588,1.3840869665,60.25595860743578,4732.602186090037,1.741,0.7,-1.11,-1.762
0.0,3699985311.728588,1.38448596,61.517687270986805,4724.980276801948,1.728,0.684,-1.132,-1.787
0.0,3699985311.728588,1.3848940134,62.8058358813318,4715.198713364481,1.714,0.665,-1.159,-1.816
0.0,3699985311.728588,1.3852901459,65.76578373554206,4695.696293383585,1.686,0.625,-1.216,-1.879
0.0,3699985311.728588,1.385586381,71.77942912713618,4659.078201101275,1.634,0.553,-1.32,-1.996
0.0,3699985311.728588,1.385735631,78.88601176185544,4620.617301970837,1.577,0.475,-1.433,-2.121
0.0,3699985311.728588,1.3858128786,86.8960429286302,4579.3095315174405,1.518,0.393,-1.552,-2.254
0.0,3699985311.728588,1.3858481646,95.06047936562814,4544.645372095089,1.465,0.319,-1.659,-2.373
0.0,3699985311.728588,1.3858678341,104.23174293933036,4509.205208756537,1.413,0.246,-1.767,-2.493
0.0,3699985311.728588,1.3858793974,113.7627285823431,4475.071720476557,1.361,0.173,-1.872,-2.611
0.0,3699985311.728588,1.3858870268,123.8796586530369,4444.265543439951,1.313,0.106,-1.972,-2.722
0.0,3699985311.728588,1.3858878613,125.02590302177201,4440.174108068949,1.307,0.097,-1.985,-2.737
0.0,3699985311.728588,1.3858879805,125.31411749414156,4439.1518378955125,1.306,0.096,-1.987,-2.739
0.0,3699985311.728588,1.3858950138,138.03842646028852,4403.520272026519,1.253,0.017,-2.1,-2.864
0.0,3699985311.728588,1.3859019279,151.35612484362088,4371.193179262241,1.202,-0.059,-2.206,-2.98
0.0,3699985311.728588,1.3859196901,161.80800376430662,4347.103696062099,1.164,-0.114,-2.284,-3.066
0.0,3699985311.728588,1.3859561682,146.21771744567184,4384.297339745673,1.22,-0.03,-2.165,-2.935
0.0,3699985311.728588,1.386092782,137.4041975012515,4406.563166924702,1.254,0.02,-2.094,-2.857
0.0,3699985311.728588,1.3864275217,148.2518085145953,4378.244391318432,1.213,-0.043,-2.184,-2.955
0.0,3699985311.728588,1.3866043091,164.05897731995387,4341.1020970734535,1.157,-0.124,-2.3,-3.083
0.0,3699985311.728588,1.3867442608,180.71741260109275,4306.257543211735,1.103,-0.204,-2.413,-3.209
0.0,3699985311.728588,1.3868610859,199.52623149688787,4271.692674763224,1.048,-0.283,-2.526,-3.333
0.0,3699985311.728588,1.3869605064,219.28049353504497,4237.405246788001,0.994,-0.359,-2.636,-3.455
0.0,3699985311.728588,1.3870470524,241.54608344449403,4203.393032365499,0.939,-0.436,-2.747,-3.578
0.0,3699985311.728588,1.3871219158,266.0725059798809,4169.653822449889,0.883,-0.511,-2.856,-3.701
0.0,3699985311.728588,1.3871878386,292.41523778433367,4137.137927273515,0.83,-0.583,-2.964,-3.822
0.0,3699985311.728588,1.3872476816,321.3660538640318,4103.930524610162,0.782,-0.651,-3.073,-3.945
0.0,3699985311.728588,1.3873022795,352.3708710424873,4070.989666502739,0.74,-0.714,-3.183,-4.07
0.0,3699985311.728588,1.3873528242,387.25764492161727,4028.0977402609537,0.718,-0.759,-3.293,-4.2
0.0,3699985311.728588,1.3873887062,414.95404263436285,3980.155135426724,0.728,-0.774,-3.381,-4.311
0.0,3699985311.728588,1.3874332905,454.9880601500485,3949.1169934897503,0.691,-0.826,-3.489,-4.434
0.0,3699985311.728588,1.3874759674,500.0345349769783,3916.5168559121084,0.657,-0.877,-3.599,-4.558
0.0,3699985311.728588,1.3875149488,547.0159628939716,3885.08030374528,0.626,-0.924,-3.705,-4.679
0.0,3699985311.728588,1.3875540495,598.4115950603199,3853.0087919083076,0.601,-0.962,-3.81,-4.8
0.0,3699985311.728588,1.3875932693,657.6578373554206,3817.684194975441,0.578,-1.0,-3.922,-4.929
0.0,3699985311.728588,1.3876302242,734.5138681571151,3777.461093882191,0.56,-1.029,-4.053,-5.078
0.0,3699985311.728588,1.3876581192,831.7637711026708,3729.9241475247336,0.552,-1.048,-4.205,-5.251
0.0,3699985311.728588,1.3876749277,926.8298233793495,3688.926481189961,0.558,-1.045,-4.336,-5.4
0.0,3699985311.728588,1.3876883984,1020.9394837076798,3650.059970708618,0.572,-1.03,-4.455,-5.536
0.0,3699985311.728588,1.3877006769,1124.6049739669268,3611.602957582318,0.599,-0.997,-4.573,-5.671
0.0,3699985311.728588,1.3877120018,1233.1048332289097,3575.197187450261,0.637,-0.949,-4.685,-5.799
0.0,3699985311.728588,1.3877233267,1352.0725631942764,3535.90021100387,0.688,-0.884,-4.8,-5.931
0.0,3699985311.728588,1.3877333403,1462.1771744567184,3503.482883015712,0.748,-0.807,-4.897,-6.042
0.0,3699985311.728588,1.3877450228,1577.6112696993484,3471.362758876978,0.811,-0.727,-4.993,-6.151
0.0,3699985311.728588,1.3877522945,1651.961798229015,3451.437393358561,0.863,-0.661,-5.051,-6.217
0.0,3699985311.728588,1.38775599,1702.15850839495,3437.953513094916,0.9,-0.614,-5.091,-6.263
0.0,3699985311.728588,1.3877569437,1621.8100973589299,3458.597315106485,0.844,-0.686,-5.029,-6.192
0.0,3699985311.728588,1.3877575397,1534.6169827992942,3480.96775232401,0.794,-0.749,-4.961,-6.115
0.0,3699985311.728588,1.3877586126,1592.20872705117,3465.7720899354867,0.826,-0.708,-5.006,-6.167
0.0,3699985311.728588,1.3877594471,1671.090614310707,3445.8788144433506,0.878,-0.642,-5.066,-6.235
0.0,3699985311.728588,1.3877604008,1741.8068733916145,3427.6778654645045,0.93,-0.576,-5.121,-6.296
0.0,3699985311.728588,1.3877615929,1811.3400926196025,3410.3582265334926,0.978,-0.515,-5.171,-6.353
0.0,3699985311.728588,1.3877644539,2004.4720273651615,3365.8906294925205,1.124,-0.331,-5.3,-6.5
0.0,3699985311.728588,1.3877649307,1766.037820686164,3420.581952567498,0.951,-0.55,-5.138,-6.316
0.0,3699985311.728588,1.3877650499,2264.6443075930597,3312.0737601979727,1.34,-0.062,-5.457,-6.678
0.0,3699985311.728588,1.3877651691,2098.9398836235246,3345.8001785330107,1.206,-0.229,-5.36,-6.567
0.0,3699985311.728588,1.3877652884,1807.1741260109275,3410.3582265334926,0.98,-0.513,-5.168,-6.351
0.0,3699985311.728588,1.3877654076,1644.3717232149324,3449.0540481442044,0.878,-0.644,-5.048,-6.215
0.0,3699985311.728588,1.3877655268,1435.489433353656,3502.6762691381296,0.767,-0.786,-4.878,-6.023
0.0,3699985311.728588,1.387765646,1303.1667784523,3538.343568147222,0.715,-0.857,-4.76,-5.89
0.0,3699985311.728588,1.3877657652,1870.6821403657998,3396.2527259040853,1.021,-0.462,-5.21,-6.398
0.0,3699985311.728588,1.3877658844,1733.8039977541375,3426.888704327863,0.938,-0.567,-5.116,-6.291
0.0,3699985311.728588,1.3877660036,1651.961798229015,3445.8788144433506,0.887,-0.632,-5.055,-6.223
0.0,3699985311.728588,1.3877661228,1577.6112696993484,3464.974158289286,0.837,-0.696,-4.996,-6.156
0.0,3699985311.728588,1.3877671957,1651.961798229015,3444.292293943154,0.896,-0.622,-5.056,-6.225
0.0,3699985311.728588,1.3877680302,1786.4875748520499,3411.9291162192844,0.983,-0.51,-5.153,-6.335
0.0,3699985311.728588,1.3877687454,1901.0782799232995,3385.3221281535407,1.059,-0.414,-5.235,-6.427
0.0,3699985311.728588,1.3877695799,2032.3570109362208,3357.3761424295453,1.164,-0.282,-5.318,-6.521
0.0,3699985311.728588,1.3877706528,2172.7011788637456,3328.1278395965264,1.277,-0.141,-5.405,-6.62
0.0,3699985311.728588,1.3877720833,2317.39464996848,3299.8940791083483,1.403,0.019,-5.487,-6.714
0.0,3699985311.728588,1.3877729177,2382.319469358689,3287.7591870669708,1.466,0.101,-5.523,-6.755
0.0,3699985311.728588,1.387773037,2382.319469358689,3287.7591870669708,1.466,0.101,-5.523,-6.755
0.0,3699985311.728588,1.3877732754,1330.4544179780914,3535.90021100387,0.706,-0.866,-4.783,-5.914
0.0,3699985311.728588,1.3877733946,1069.0548792226577,3632.4529689937044,0.58,-1.022,-4.512,-5.6
0.0,3699985311.728588,1.3877738714,688.6522963442762,3835.3058245685934,0.499,-1.081,-3.968,-4.965
0.0,3699985311.728588,1.3877745867,716.143410212902,3815.047942794385,0.502,-1.086,-4.016,-5.023
0.0,3699985311.728588,1.3877755404,933.2543007969915,3690.6256858412085,0.548,-1.058,-4.343,-5.406
0.0,3699985311.728588,1.3877766132,1348.9628825916532,3524.5201677586315,0.741,-0.823,-4.802,-5.938
0.0,3699985311.728588,1.3877780437,1853.5316234148106,3385.3221281535407,1.083,-0.388,-5.207,-6.399
0.0,3699985311.728588,1.3877795935,2296.148648112363,3295.3382547359615,1.445,0.07,-5.478,-6.707
0.0,3699985311.728588,1.3877815008,2576.3211570025755,3244.8901566053664,1.698,0.4,-5.626,-6.876
0.0,3699985311.728588,1.3877835274,2735.268726306711,3218.103443093442,1.82,0.559,-5.703,-6.963
0.0,3699985311.728588,1.3877859116,2844.4611074479167,3198.895109691397,1.905,0.669,-5.753,-7.02
0.0,3699985311.728588,1.3877860308,1857.8044550916989,3372.096543265998,1.161,-0.294,-5.213,-6.411
0.0,3699985311.728588,1.3877862692,1294.1958414499863,3526.1436430685917,0.775,-0.786,-4.756,-5.891
0.0,3699985311.728588,1.387786746,829.8507675144226,3724.774624863983,0.571,-1.031,-4.203,-5.251
0.0,3699985311.728588,1.3877874613,859.013521505396,3708.514658756861,0.58,-1.024,-4.246,-5.302
0.0,3699985311.728588,1.387788415,1111.7317272815908,3591.6995478714375,0.683,-0.903,-4.566,-5.673
0.0,3699985311.728588,1.387789607,1584.893192461114,3435.5794789987463,0.978,-0.527,-5.014,-6.187
0.0,3699985311.728588,1.3877910376,2157.744409152667,3306.739627988452,1.421,0.032,-5.405,-6.628
0.0,3699985311.728588,1.3877927065,2630.2679918953813,3224.779319316378,1.815,0.548,-5.657,-6.915
0.0,3699985311.728588,1.387794733,2917.427014001166,3181.9987155303106,1.996,0.784,-5.788,-7.062
0.0,3699985311.728588,1.3877968788,3054.9211132155124,3162.2776601683795,2.092,0.908,-5.846,-7.129
0.0,3699985311.728588,1.387799263,3133.2857243155854,3150.648832972395,2.14,0.965,-5.877,-7.164
0.0,3699985311.728588,1.3877993822,2074.9135174549106,3316.6527215043507,1.394,-0.006,-5.36,-6.58
0.0,3699985311.728588,1.3877997398,1448.7718535447616,3468.1669875535863,0.905,-0.624,-4.903,-6.062
0.0,3699985311.728588,1.3878002167,931.10787546783,3665.219597323419,0.624,-0.976,-4.348,-5.422
0.0,3699985311.728588,1.3878010511,963.8290236239706,3649.2196100947112,0.636,-0.962,-4.392,-5.473
0.0,3699985311.728588,1.387802124,1241.6523075924106,3535.0861336199705,0.781,-0.784,-4.707,-5.839
0.0,3699985311.728588,1.3878035545,1761.976046411629,3382.20556669654,1.154,-0.309,-5.152,-6.346
0.0,3699985311.728588,1.3878051043,2382.319469358689,3255.3673247163633,1.696,0.387,-5.535,-6.78
0.0,3699985311.728588,1.3878070116,2897.3435877013244,3174.6803215678747,2.049,0.848,-5.783,-7.06
0.0,3699985311.728588,1.3878091574,3206.2693245054643,3133.2857243155854,2.228,1.069,-5.91,-7.205
0.0,3699985311.728588,1.3878116608,3349.654391578276,3113.8665771825613,2.309,1.167,-5.967,-7.269
0.0,3699985311.728588,1.3878144026,3427.6778654645045,3102.4157748720872,2.358,1.226,-5.997,-7.303
0.0,3699985311.728588,1.3878145218,2322.7367963571073,3259.8678890446836,1.691,0.376,-5.506,-6.75
0.0,3699985311.728588,1.3878148794,1625.5487557504835,3410.3582265334926,1.084,-0.4,-5.053,-6.236
0.0,3699985311.728588,1.3878154755,1044.7202192208003,3607.447338641916,0.692,-0.898,-4.494,-5.594
0.0,3699985311.728588,1.3878163099,1081.4339512979375,3590.872623694513,0.714,-0.871,-4.537,-5.644
0.0,3699985311.728588,1.387817502,1383.566378971781,3478.5640153042373,0.906,-0.628,-4.848,-6.003
0.0,3699985311.728588,1.3878189325,1949.8445997580454,3329.660852068807,1.375,-0.035,-5.285,-6.499
0.0,3699985311.728588,1.3878207207,2612.1613543992053,3205.531138700436,1.94,0.7,-5.656,-6.92
0.0,3699985311.728588,1.3878227472,3155.0046233746275,3126.799256376112,2.278,1.127,-5.895,-7.191
0.0,3699985311.728588,1.3878251314,3475.3616144320576,3086.73964568386,2.439,1.317,-6.017,-7.33
0.0,3699985311.728588,1.387827754,3614.0986263961313,3068.315401315068,2.483,1.349,-6.069,-7.387
0.0,3699985311.728588,1.3878307343,3689.775985701505,3059.1445594864085,2.509,1.368,-6.095,-7.416
0.0,3699985311.728588,1.3878308535,2564.484036517716,3206.2693245054643,1.951,0.711,-5.636,-6.9
0.0,3699985311.728588,1.3878312111,1803.017740859568,3356.603166999334,1.285,-0.151,-5.188,-6.392
0.0,3699985311.728588,1.3878319263,1158.7773561551262,3554.6758199906994,0.773,-0.802,-4.626,-5.749
0.0,3699985311.728588,1.3878327608,1199.4993031493793,3538.343568147222,0.801,-0.766,-4.669,-5.799
0.0,3699985311.728588,1.3878340721,1527.5660582380733,3427.6778654645045,1.058,-0.439,-4.977,-6.153
0.0,3699985311.728588,1.3878356218,2133.0449131465775,3280.1975507699003,1.621,0.276,-5.403,-6.638
0.0,3699985311.728588,1.38783741,2831.391995799379,3158.6390484234703,2.178,1.001,-5.765,-7.048
0.0,3699985311.728588,1.3878395557,3404.081897010009,3081.0588948997392,2.48,1.356,-5.998,-7.312
0.0,3699985311.728588,1.3878420591,3741.105882720533,3040.88502567628,2.575,1.422,-6.117,-7.444
0.0,3699985311.728588,1.3878449202,3890.4514499428046,3023.430570511337,2.622,1.455,-6.168,-7.502
0.0,3699985311.728588,1.3878480196,3971.915494694405,3013.699874341145,2.644,1.471,-6.193,-7.53
0.0,3699985311.728588,1.3878481388,2844.4611074479167,3151.374380204506,2.224,1.054,-5.772,-7.058
0.0,3699985311.728588,1.3878484964,2009.0928126087279,3300.6539952850767,1.535,0.158,-5.33,-6.556
0.0,3699985311.728588,1.3878492117,1294.1958414499863,3501.063598465195,0.884,-0.664,-4.766,-5.912
0.0,3699985311.728588,1.3878500462,1339.6766874259345,3484.175319018589,0.92,-0.618,-4.809,-5.962
0.0,3699985311.728588,1.3878513575,1694.3378004473288,3374.4267097541338,1.242,-0.212,-5.113,-6.31
0.0,3699985311.728588,1.3878529072,2338.837238659356,3229.2375955486873,1.902,0.635,-5.527,-6.783
0.0,3699985311.728588,1.3878546953,3083.1879502493534,3108.8516598805636,2.415,1.282,-5.878,-7.181
0.0,3699985311.728588,1.3878568411,3681.289736425313,3031.796170085468,2.632,1.474,-6.105,-7.435
0.0,3699985311.728588,1.3878593445,4036.4539296760486,2991.575721530859,2.712,1.524,-6.221,-7.563
0.0,3699985311.728588,1.3878622055,4197.589839910078,2973.0348496770193,2.75,1.548,-6.271,-7.618
0.0,3699985311.728588,1.3878653049,4275.62886151586,2962.1019360527644,2.775,1.564,-6.297,-7.647
0.0,3699985311.728588,1.3878654242,3162.2776601683795,3088.1614691845125,2.518,1.4,-5.915,-7.226
0.0,3699985311.728588,1.3878657818,2243.881923782766,3238.1726473132535,1.886,0.606,-5.478,-6.731
0.0,3699985311.728588,1.387866497,1448.7718535447616,3440.329187682278,1.051,-0.458,-4.914,-6.085
0.0,3699985311.728588,1.3878673315,1499.684835502374,3423.733876264524,1.105,-0.392,-4.958,-6.135
0.0,3699985311.728588,1.3878686428,1883.6490894898002,3314.36245009259,1.508,0.113,-5.255,-6.476
0.0,3699985311.728588,1.3878701925,2570.3957827688646,3170.297366952724,2.192,1.002,-5.656,-6.933
0.0,3699985311.728588,1.3878719807,3357.3761424295453,3051.4060291410433,2.628,1.487,-5.995,-7.318
0.0,3699985311.728588,1.3878741264,3981.0717055349733,2975.089258880875,2.788,1.59,-6.214,-7.56
0.0,3699985311.728588,1.3878766298,4345.102241715715,2934.945222269793,2.856,1.63,-6.325,-7.681
0.0,3699985311.728588,1.3878794909,4508.167045414601,2915.4124227107563,2.891,1.651,-6.373,-7.735
0.0,3699985311.728588,1.3878825903,4591.980128368686,2903.3540555153136,2.918,1.669,-6.398,-7.763
0.0,3699985311.728588,1.3878827095,3507.5187395256794,3018.5613014197993,2.74,1.575,-6.057,-7.392
0.0,3699985311.728588,1.3878830671,2506.109253032114,3168.10815932805,2.237,1.05,-5.627,-6.906
0.0,3699985311.728588,1.3878836632,1618.0800376430661,3373.6498087376713,1.301,-0.154,-5.064,-6.261
0.0,3699985311.728588,1.3878844976,1671.090614310707,3355.8303695328004,1.377,-0.061,-5.108,-6.312
0.0,3699985311.728588,1.3878856897,2089.296130854039,3246.384827880331,1.902,0.61,-5.396,-6.645
0.0,3699985311.728588,1.3878871202,2818.382931264455,3103.844819159537,2.534,1.408,-5.783,-7.088
0.0,3699985311.728588,1.3878889084,3639.1503612720708,2985.3826189179604,2.833,1.646,-6.111,-7.454
0.0,3699985311.728588,1.3878909349,4285.485203974396,2909.3769918965468,2.958,1.718,-6.321,-7.683
0.0,3699985311.728588,1.3878933191,4655.860935229591,2868.1377126684647,3.034,1.77,-6.427,-7.8
0.0,3699985311.728588,1.3878959417,4819.477976251272,2847.082159799288,3.07,1.805,-6.474,-7.851
0.0,3699985311.728588,1.387898922,4909.078761526029,2833.3485277843724,3.1,1.834,-6.498,-7.877
0.0,3699985311.728588,1.3878990412,3863.669770540693,2936.9733110014463,2.962,1.741,-6.197,-7.552
0.0,3699985311.728588,1.3878993988,2773.320104651841,3086.73964568386,2.659,1.543,-5.773,-7.085
0.0,3699985311.728588,1.3878999949,1798.8709151287874,3293.821044764936,1.71,0.343,-5.213,-6.442
0.0,3699985311.728588,1.3879008293,1857.8044550916989,3274.1607653757505,1.823,0.487,-5.257,-6.494
0.0,3699985311.728588,1.3879019022,2301.441817408509,3163.0058853452065,2.363,1.185,-5.538,-6.819
0.0,3699985311.728588,1.3879032135,3076.096814740708,3019.256430871959,2.867,1.707,-5.913,-7.247
0.0,3699985311.728588,1.3879048824,3926.449353995997,2899.3456931707387,3.079,1.837,-6.229,-7.593
0.0,3699985311.728588,1.387906909,4591.980128368686,2820.3304738015363,3.208,1.945,-6.431,-7.811
0.0,3699985311.728588,1.3879090548,4965.923214503363,2775.8756035343426,3.268,2.02,-6.533,-7.919
0.0,3699985311.728588,1.3879115582,5140.436515824259,2751.6931328087903,3.313,2.076,-6.579,-7.968
0.0,3699985311.728588,1.3879144192,5223.9618899911975,2734.6389799122753,3.35,2.125,-6.603,-7.994
0.0,3699985311.728588,1.3879145384,4236.429660495409,2828.1341110474723,3.265,2.003,-6.341,-7.72
0.0,3699985311.728588,1.3879147768,3054.9211132155124,2981.261008172248,3.036,1.847,-5.924,-7.268
0.0,3699985311.728588,1.3879153728,1986.0949173573717,3198.1586216666074,2.292,1.061,-5.363,-6.63
0.0,3699985311.728588,1.3879162073,2051.1621788255648,3179.069335643364,2.39,1.183,-5.405,-6.68
0.0,3699985311.728588,1.3879172802,2523.4807724805755,3067.608976917938,2.865,1.733,-5.679,-6.997
0.0,3699985311.728588,1.3879185915,3334.2641276323507,2923.4791443876893,3.182,1.951,-6.041,-7.4
0.0,3699985311.728588,1.3879201412,4207.266283844442,2804.78773734921,3.374,2.109,-6.343,-7.727
0.0,3699985311.728588,1.3879219294,4886.523593428336,2731.492422089182,3.456,2.22,-6.534,-7.928
0.0,3699985311.728588,1.3879240751,5260.172663907063,2698.3606814262994,3.498,2.278,-6.627,-8.028
0.0,3699985311.728588,1.3879264593,5432.503314924331,2692.154624075288,3.504,2.276,-6.665,-8.07
0.0,3699985311.728588,1.3879290819,5508.076964054036,2702.091180818971,3.479,2.231,-6.679,-8.087
