FeH,Age,Mini,L,Te,Bmag,Vmag,Jmag,Kmag
-1.25,2499999950.07974,0.0900000036,0.000613762005164794,2879.3867378079763,17.978,15.963,10.762,10.275
-1.25,2499999950.07974,0.0961795673,0.0008974287945007481,3040.1849166294414,16.894,14.928,10.427,9.84
-1.25,2499999950.07974,0.1000000089,0.001122018454301963,3138.340056432409,16.283,14.363,10.232,9.593
-1.25,2499999950.07974,0.101916045,0.001202264434617413,3163.0058853452065,16.122,14.217,10.17,9.519
-1.25,2499999950.07974,0.1199999899,0.0021577444091526667,3382.20556669654,14.814,13.07,9.627,8.901
-1.25,2499999950.07974,0.1400000006,0.0032658783217233566,3509.942484670127,14.044,12.409,9.227,8.476
-1.25,2499999950.07974,0.1599999964,0.0044668359215096305,3594.181463147148,13.514,11.95,8.919,8.156
-1.25,2499999950.07974,0.2000000179,0.007194489780036998,3712.786702756398,12.755,11.284,8.445,7.667
-1.25,2499999950.07974,0.25,0.011271974561755105,3812.4135110429906,12.087,10.691,7.989,7.206
-1.25,2499999950.07974,0.3000000417,0.01618080037643066,3888.6602433122985,11.567,10.224,7.622,6.836
-1.25,2499999950.07974,0.3499999642,0.022594357702209782,3950.936047894297,11.107,9.807,7.278,6.494
-1.25,2499999950.07974,0.4000000358,0.031332857243155855,4047.6224868787363,10.613,9.374,6.951,6.174
-1.25,2499999950.07974,0.4500000179,0.045919801283686855,4195.657223387252,9.999,8.848,6.576,5.815
-1.25,2499999950.07974,0.5,0.07046930689671471,4439.1518378955125,9.244,8.222,6.176,5.456
-1.25,2499999950.07974,0.5500000715,0.10864256236170655,4731.512589614803,8.471,7.582,5.79,5.143
-1.25,2499999950.07974,0.6000000238,0.16255487557504839,5002.648624210056,7.822,7.028,5.44,4.87
-1.25,2499999950.07974,0.6497106552,0.23878112829131776,5306.40019194775,7.229,6.525,5.121,4.626
-1.25,2499999950.07974,0.6499999762,0.23933157564053875,5307.622176426454,7.226,6.523,5.119,4.625
-1.25,2499999950.07974,0.6812903881,0.30269134281013055,5500.47252867634,6.884,6.235,4.93,4.476
-1.25,2499999950.07974,0.6999999285,0.34593937782612194,5615.649583575098,6.69,6.072,4.823,4.391
-1.25,2499999950.07974,0.7215037346,0.4027170343254591,5745.131848169437,6.475,5.893,4.705,4.297
-1.25,2499999950.07974,0.75,0.49090787615260306,5912.89272693748,6.205,5.668,4.553,4.173
-1.25,2499999950.07974,0.7977598906,0.6729766562843178,6139.0334536093505,5.794,5.314,4.29,3.947
-1.25,2499999950.07974,0.8000000715,0.6839116472814293,6148.936385126267,5.775,5.298,4.278,3.936
-1.25,2499999950.07974,0.8125754595,0.7413102413009175,6204.403011913813,5.672,5.208,4.21,3.877
-1.25,2499999950.07974,0.8500000238,0.9418895965228413,6369.421653777093,5.37,4.942,4.009,3.702
-1.25,2499999950.07974,0.8573219776,0.9862794856312105,6403.24324468947,5.312,4.891,3.97,3.668
-1.25,2499999950.07974,0.8999999762,1.2852866599436155,6593.25693118515,4.98,4.597,3.747,3.475
-1.25,2499999950.07974,0.9013243914,1.2941958414499861,6599.332342635646,4.97,4.588,3.741,3.469
-1.25,2499999950.07974,0.9400731921,1.6368165214278085,6776.41507610675,4.678,4.325,3.544,3.299
-1.25,2499999950.07974,0.9499999285,1.7378008287493754,6821.8159793818195,4.603,4.257,3.494,3.256
-1.25,2499999950.07974,0.9696833491,1.9543394557753946,6919.902892284818,4.456,4.125,3.399,3.174
-1.25,2499999950.07974,1.0,2.338837238659355,7074.5692162786,4.228,3.921,3.252,3.049
-1.25,2499999950.07974,1.0193476677,2.618183008218985,7187.866460688802,4.083,3.791,3.164,2.976
-1.25,2499999950.07974,1.0428674221,3.013006024186121,7333.309252741507,3.904,3.632,3.056,2.887
-1.25,2499999950.07974,1.0499999523,3.1477483141013156,7379.042301291008,3.849,3.583,3.024,2.86
-1.25,2499999950.07974,1.0596945286,3.326595532940045,7447.319739059889,3.776,3.519,2.984,2.829
-1.25,2499999950.07974,1.0737091303,3.6140986263961334,7547.445749001341,3.67,3.426,2.926,2.783
-1.25,2499999950.07974,1.0860704184,3.8815036599064823,7636.599241361576,3.578,3.345,2.876,2.744
-1.25,2499999950.07974,1.0973187685,4.139996748197304,7719.692476102512,3.495,3.272,2.831,2.708
-1.25,2499999950.07974,1.1000000238,4.1975898399100755,7737.488205148097,3.475,3.255,2.82,2.699
-1.25,2499999950.07974,1.1325794458,5.069907082747043,7959.760490562859,3.238,3.045,2.685,2.587
-1.25,2499999950.07974,1.1499999762,5.597576014951102,8072.350302488382,3.114,2.936,2.611,2.524
-1.25,2499999950.07974,1.1506084204,5.623413251903491,8076.068613289757,3.11,2.932,2.608,2.521
-1.25,2499999950.07974,1.1826921701,6.745280276979219,8220.533433757724,2.892,2.735,2.456,2.381
-1.25,2499999950.07974,1.2000000477,7.447319739059891,8264.184417157952,2.778,2.629,2.364,2.294
-1.25,2499999950.07974,1.2051775455,7.67361489361819,8273.704390165749,2.745,2.597,2.335,2.265
-1.25,2499999950.07974,1.2258074284,8.629785477669705,8262.281737435991,2.612,2.467,2.204,2.133
-1.25,2499999950.07974,1.2472963333,9.794899854086989,8197.85061237576,2.472,2.323,2.045,1.971
-1.25,2499999950.07974,1.25,9.954054173515269,8186.532683155699,2.455,2.305,2.024,1.949
-1.25,2499999950.07974,1.2516672611,10.046157902783952,8178.996079175055,2.444,2.293,2.011,1.934
-1.25,2499999950.07974,1.2678892612,11.168632477805613,8083.510373900677,2.332,2.173,1.866,1.783
-1.25,2499999950.07974,1.279135704,12.105981335504822,8027.863879897863,2.246,2.082,1.761,1.673
-1.25,2499999950.07974,1.285081625,12.91219273613534,8143.29185209245,2.163,2.015,1.729,1.651
-1.25,2499999950.07974,1.2886208296,13.645831365889245,8321.469006867934,2.088,1.964,1.726,1.662
-1.25,2499999950.07974,1.2897834778,14.25607593602188,8507.461648896982,2.034,1.934,1.741,1.688
-1.25,2499999950.07974,1.290271759,14.825180851459537,8673.61218401464,1.992,1.908,1.75,1.707
-1.25,2499999950.07974,1.2905579805,15.488166189124811,8816.576902621913,1.949,1.878,1.749,1.714
-1.25,2499999950.07974,1.2907229662,16.032453906900418,8910.457436461142,1.918,1.855,1.744,1.713
-1.25,2499999950.07974,1.2907837629,15.9220872705117,8843.007635355161,1.92,1.852,1.728,1.695
-1.25,2499999950.07974,1.2909302711,15.88546748597779,8667.622733900389,1.915,1.833,1.675,1.632
-1.25,2499999950.07974,1.2910854816,16.14358556826486,8487.895030072437,1.892,1.794,1.599,1.545
-1.25,2499999950.07974,1.2913626432,16.749428760264372,8277.51544930572,1.857,1.735,1.489,1.422
-1.25,2499999950.07974,1.2918292284,17.25837891990204,8070.491789118655,1.838,1.691,1.39,1.308
-1.25,2499999950.07974,1.2925977707,17.660378206861647,7854.164626145399,1.834,1.66,1.295,1.194
-1.25,2499999950.07974,1.293664813,18.071741260109267,7619.035550493709,1.841,1.637,1.197,1.072
-1.25,2499999950.07974,1.2947869301,18.407720014689556,7375.644909068814,1.857,1.622,1.099,0.946
-1.25,2499999950.07974,1.2957533598,18.706821403658008,7146.608638768426,1.881,1.614,1.009,0.828
-1.25,2499999950.07974,1.2965329885,18.879913490962934,6937.452139421235,1.911,1.613,0.931,0.721
-1.25,2499999950.07974,1.2971661091,19.010782799232995,6754.605666335012,1.943,1.617,0.864,0.629
-1.25,2499999950.07974,1.2976942062,19.098532585662376,6602.372147378005,1.975,1.623,0.811,0.552
-1.25,2499999950.07974,1.2981494665,19.098532585662376,6472.916429993276,2.007,1.632,0.768,0.488
-1.25,2499999950.07974,1.2985719442,19.054607179632473,6354.77239048616,2.042,1.643,0.731,0.432
-1.25,2499999950.07974,1.299008131,18.967059212111465,6241.658450909745,2.081,1.659,0.699,0.381
-1.25,2499999950.07974,1.2995123863,18.793168168032686,6120.684588704598,2.13,1.681,0.671,0.331
-1.25,2499999950.07974,1.2999999523,18.407720014689556,6014.506519775483,2.186,1.712,0.656,0.298
-1.25,2499999950.07974,1.3000971079,18.323144223712113,5988.251059509566,2.201,1.721,0.654,0.291
-1.25,2499999950.07974,1.3005479574,17.741894808901662,5880.306994811631,2.276,1.768,0.652,0.267
-1.25,2499999950.07974,1.3010562658,17.060823890031234,5774.3087271398535,2.356,1.821,0.657,0.252
-1.25,2499999950.07974,1.3015681505,16.672472125510627,5685.910246988551,2.417,1.857,0.653,0.229
-1.25,2499999950.07974,1.3019509315,16.51961798229015,5626.003525795433,2.451,1.875,0.642,0.207
-1.25,2499999950.07974,1.3028575182,17.619760464116293,5546.25712957911,2.416,1.818,0.547,0.094
-1.25,2499999950.07974,1.303910017,19.5884467350599,5480.245321768504,2.329,1.714,0.409,-0.058
-1.25,2499999950.07974,1.3048075438,21.827299118430012,5443.7729090664825,2.229,1.603,0.28,-0.196
-1.25,2499999950.07974,1.3057342768,24.434305526939713,5412.526055151543,2.119,1.485,0.146,-0.338
-1.25,2499999950.07974,1.3065061569,26.915348039269155,5390.139436325507,2.025,1.385,0.034,-0.455
-1.25,2499999950.07974,1.3073294163,29.785164294291896,5366.609560460733,1.924,1.277,-0.086,-0.581
-1.25,2499999950.07974,1.3080970049,32.96097121774578,5344.412855743935,1.826,1.173,-0.202,-0.701
-1.25,2499999950.07974,1.3088269234,36.30780547701014,5322.307958283607,1.73,1.071,-0.315,-0.82
-1.25,2499999950.07974,1.3095574379,40.179081084894,5300.294488357958,1.633,0.966,-0.432,-0.942
-1.25,2499999950.07974,1.3102391958,44.157044735331255,5279.587597837324,1.54,0.867,-0.543,-1.058
-1.25,2499999950.07974,1.3109036684,48.64072056914617,5257.7508225669435,1.446,0.767,-0.655,-1.176
-1.25,2499999950.07974,1.3115400076,53.456435939697165,5236.0043658575005,1.354,0.668,-0.766,-1.293
-1.25,2499999950.07974,1.3121204376,58.613816451402876,5214.347854144578,1.268,0.575,-0.871,-1.403
-1.25,2499999950.07974,1.3126628399,63.973483548264824,5192.78091540883,1.185,0.484,-0.974,-1.511
-1.25,2499999950.07974,1.3131812811,69.98419960022734,5171.303179169629,1.099,0.392,-1.079,-1.622
-1.25,2499999950.07974,1.3136447668,76.20790100254119,5149.914276478671,1.018,0.303,-1.179,-1.728
-1.25,2499999950.07974,1.3141101599,83.36811846196343,5127.433068882606,0.934,0.21,-1.285,-1.839
-1.25,2499999950.07974,1.314571023,91.41132414702504,5105.049999754065,0.848,0.116,-1.393,-1.952
-1.25,2499999950.07974,1.3149609566,99.3116048420934,5083.935125244855,0.772,0.032,-1.49,-2.054
-1.25,2499999950.07974,1.3153098822,107.1519305237606,5064.073495238508,0.703,-0.045,-1.579,-2.148
-1.25,2499999950.07974,1.3156665564,115.61122421920993,5044.28945952414,0.633,-0.123,-1.668,-2.243
-1.25,2499999950.07974,1.3160237074,124.45146117713857,5025.739801095915,0.567,-0.197,-1.754,-2.333
-1.25,2499999950.07974,1.3164656162,134.2764961137864,5004.95295959168,0.498,-0.275,-1.844,-2.428
-1.25,2499999950.07974,1.3165946007,136.4583136588924,5001.496854402788,0.483,-0.292,-1.863,-2.449
-1.25,2499999950.07974,1.3169353008,126.4736347471151,5025.739801095915,0.55,-0.215,-1.771,-2.35
-1.25,2499999950.07974,1.3171588182,115.08003889444356,5053.589947531675,0.634,-0.119,-1.658,-2.23
-1.25,2499999950.07974,1.3171678782,114.55129414455361,5054.753713597985,0.637,-0.115,-1.654,-2.225
-1.25,2499999950.07974,1.3172256947,116.41260294104909,5050.100256703167,0.621,-0.133,-1.674,-2.247
-1.25,2499999950.07974,1.3175379038,127.93813041575252,5025.739801095915,0.538,-0.227,-1.783,-2.362
-1.25,2499999950.07974,1.3178598881,140.60475241299144,4999.1941102499995,0.453,-0.322,-1.895,-2.481
-1.25,2499999950.07974,1.3181631565,154.170045294956,4973.933791067749,0.37,-0.416,-2.005,-2.597
-1.25,2499999950.07974,1.3184511662,169.43378004473288,4947.661736816762,0.288,-0.509,-2.115,-2.714
-1.25,2499999950.07974,1.3187177181,185.35316234148104,4922.661804443356,0.208,-0.6,-2.222,-2.829
-1.25,2499999950.07974,1.3189694881,203.23570109362208,4895.533198139543,0.13,-0.691,-2.331,-2.945
-1.25,2499999950.07974,1.3192045689,222.8435149270303,4870.796664925371,0.054,-0.78,-2.439,-3.061
-1.25,2499999950.07974,1.3194235563,243.78108183687525,4842.83865227851,-0.019,-0.868,-2.547,-3.177
-1.25,2499999950.07974,1.3196289539,266.68586645214805,4817.25903559163,-0.089,-0.958,-2.655,-3.292
-1.25,2499999950.07974,1.3198210001,291.7427014001166,4789.608324977883,-0.156,-1.046,-2.763,-3.407
-1.25,2499999950.07974,1.3200005293,319.15378551007615,4763.212971455834,-0.221,-1.134,-2.871,-3.521
-1.25,2499999950.07974,1.3201671839,348.33731503601166,4735.872481253356,-0.284,-1.219,-2.977,-3.633
-1.25,2499999950.07974,1.3203222752,380.1893963205613,4709.77326396953,-0.345,-1.305,-3.082,-3.745
-1.25,2499999950.07974,1.3204674721,414.95404263436285,4681.661397243642,-0.402,-1.388,-3.188,-3.857
-1.25,2499999950.07974,1.320604682,452.8975799036209,4654.789007046166,-0.458,-1.47,-3.293,-3.969
-1.25,2499999950.07974,1.3207615614,504.6612975635282,4620.617301970837,-0.522,-1.57,-3.423,-4.107
-1.25,2499999950.07974,1.3209052086,561.0479760324706,4585.640453674645,-0.578,-1.666,-3.552,-4.244
-1.25,2499999950.07974,1.321038723,625.1726927756855,4551.9763814842045,-0.632,-1.761,-3.68,-4.382
-1.25,2499999950.07974,1.3211610317,693.4258060165695,4518.559443749222,-0.692,-1.852,-3.805,-4.518
-1.25,2499999950.07974,1.3212724924,769.1304402866099,4483.322704327333,-0.748,-1.938,-3.928,-4.654
-1.25,2499999950.07974,1.3213768005,853.1001140175895,4449.385139745807,-0.805,-2.025,-4.05,-4.789
-1.25,2499999950.07974,1.3214747906,946.237161365793,4416.721344129766,-0.863,-2.111,-4.173,-4.924
-1.25,2499999950.07974,1.3215625286,1047.1285480508996,4382.278761036721,-0.913,-2.192,-4.291,-5.056
-1.25,2499999950.07974,1.3216454983,1158.7773561551262,4348.1047689272755,-0.962,-2.271,-4.41,-5.189
-1.25,2499999950.07974,1.3217231035,1279.3813041575252,4315.19076827765,-1.003,-2.347,-4.528,-5.321
-1.25,2499999950.07974,1.3217951059,1415.793779957081,4281.539943374177,-1.041,-2.42,-4.646,-5.452
-1.25,2499999950.07974,1.3218613863,1559.552502826954,4248.15153514646,-1.074,-2.489,-4.76,-5.581
-1.25,2499999950.07974,1.3219246864,1717.9083871575876,4215.023497210444,-1.106,-2.557,-4.874,-5.71
-1.25,2499999950.07974,1.3219969273,1918.668740670289,4179.265867213064,-1.144,-2.634,-5.003,-5.855
-1.25,2499999950.07974,1.3219969273,81.65823713585922,5423.754206961006,0.793,0.171,-1.162,-1.644
-1.25,2499999950.07974,1.3224439621,83.17637711026708,5405.053537086691,0.78,0.153,-1.19,-1.676
-1.25,2499999950.07974,1.3228554726,84.13951416451951,5398.834319992117,0.772,0.142,-1.204,-1.692
-1.25,2499999950.07974,1.3232785463,84.91804750363139,5396.348637300686,0.763,0.133,-1.215,-1.704
-1.25,2499999950.07974,1.3236950636,85.70378452303697,5397.591335559007,0.753,0.123,-1.223,-1.712
-1.25,2499999950.07974,1.3241280317,86.29785477669702,5401.3211476463475,0.742,0.114,-1.231,-1.719
-1.25,2499999950.07974,1.3245562315,87.09635899560806,5406.298239953035,0.732,0.104,-1.238,-1.725
-1.25,2499999950.07974,1.3247545958,87.29713683881117,5407.5432294558095,0.727,0.1,-1.241,-1.727
-1.25,2499999950.07974,1.324950099,87.70008211436348,5410.034068634678,0.721,0.096,-1.244,-1.73
-1.25,2499999950.07974,1.325352788,88.30799004185627,5415.019189534895,0.711,0.086,-1.251,-1.736
-1.25,2499999950.07974,1.3257527351,88.92011178579486,5420.008904016238,0.7,0.077,-1.258,-1.741
-1.25,2499999950.07974,1.3261902332,89.74287945007487,5425.003216311501,0.688,0.067,-1.265,-1.748
-1.25,2499999950.07974,1.3266122341,90.57326008982002,5428.7519703968255,0.677,0.057,-1.273,-1.754
-1.25,2499999950.07974,1.3270400763,91.20108393559097,5432.503314924331,0.666,0.047,-1.281,-1.761
-1.25,2499999950.07974,1.327452898,92.04495717531712,5437.50914029847,0.655,0.038,-1.288,-1.767
-1.25,2499999950.07974,1.3278576136,92.68298233793494,5441.266536154456,0.645,0.029,-1.295,-1.773
-1.25,2499999950.07974,1.3282586336,93.3254300796991,5443.7729090664825,0.634,0.02,-1.302,-1.78
-1.25,2499999950.07974,1.3284968138,93.75620069258802,5446.280436471701,0.629,0.014,-1.306,-1.783
-1.25,2499999950.07974,1.3286345005,93.9723310564638,5447.534633275434,0.625,0.011,-1.309,-1.785
-1.25,2499999950.07974,1.3290387392,94.84184633008974,5451.298956889106,0.615,0.003,-1.316,-1.792
-1.25,2499999950.07974,1.3294430971,95.49925860214358,5453.809950965599,0.606,-0.006,-1.323,-1.798
-1.25,2499999950.07974,1.3298528194,96.16122783836649,5456.3221016639,0.596,-0.015,-1.33,-1.805
-1.25,2499999950.07974,1.3302596807,96.8277856261249,5457.57861091271,0.587,-0.023,-1.338,-1.812
-1.25,2499999950.07974,1.330696702,97.72372209558107,5460.092497542736,0.578,-0.032,-1.346,-1.819
-1.25,2499999950.07974,1.331092,98.4011105761134,5460.092497542736,0.57,-0.04,-1.353,-1.827
-1.25,2499999950.07974,1.3314982653,99.08319448927675,5460.092497542736,0.562,-0.048,-1.361,-1.835
-1.25,2499999950.07974,1.331551075,99.08319448927675,5460.092497542736,0.561,-0.049,-1.362,-1.836
-1.25,2499999950.07974,1.3315817118,99.3116048420934,5460.092497542736,0.56,-0.049,-1.363,-1.836
-1.25,2499999950.07974,1.3320002556,100.0,5458.835409516774,0.552,-0.058,-1.372,-1.845
-1.25,2499999950.07974,1.3323976994,100.69316688518045,5456.3221016639,0.546,-0.065,-1.38,-1.854
-1.25,2499999950.07974,1.3328273296,101.62486928706959,5452.554309382917,0.539,-0.073,-1.39,-1.865
-1.25,2499999950.07974,1.3332289457,102.32929922807536,5447.534633275434,0.533,-0.081,-1.4,-1.876
-1.25,2499999950.07974,1.3336369991,103.2761405761397,5441.266536154456,0.527,-0.089,-1.412,-1.889
-1.25,2499999950.07974,1.3340417147,103.9920165829059,5433.754339063341,0.521,-0.097,-1.424,-1.903
-1.25,2499999950.07974,1.334444046,104.9542428652322,5425.003216311501,0.515,-0.106,-1.437,-1.918
-1.25,2499999950.07974,1.3348423243,106.16955571987242,5416.266187341721,0.509,-0.114,-1.45,-1.934
-1.25,2499999950.07974,1.3352394104,106.41430182243164,5420.008904016238,0.504,-0.119,-1.453,-1.935
-1.25,2499999950.07974,1.3356494904,108.14339512979376,5396.348637300686,0.499,-0.131,-1.477,-1.965
-1.25,2499999950.07974,1.3360580206,110.9174815262401,5356.732999763011,0.49,-0.153,-1.52,-2.017
-1.25,2499999950.07974,1.3364593983,118.30415557251646,5288.104149313063,0.458,-0.209,-1.613,-2.126
-1.25,2499999950.07974,1.336630702,128.23305826560218,5226.368167369365,0.407,-0.282,-1.72,-2.247
-1.25,2499999950.07974,1.336681962,138.67558288718882,5178.452536000238,0.351,-0.357,-1.822,-2.361
-1.25,2499999950.07974,1.3366994858,149.6235656094433,5138.069802323445,0.292,-0.431,-1.919,-2.468
-1.25,2499999950.07974,1.3367022276,152.75660582380732,5128.613839913648,0.276,-0.451,-1.945,-2.496
-1.25,2499999950.07974,1.336709857,165.95869074375614,5093.308710571952,0.209,-0.532,-2.047,-2.606
-1.25,2499999950.07974,1.3367170095,180.71741260109275,5060.5765651324455,0.138,-0.616,-2.151,-2.719
-1.25,2499999950.07974,1.3367238045,194.98445997580455,5031.529229893185,0.077,-0.689,-2.241,-2.817
-1.25,2499999950.07974,1.336730957,199.06733389871863,5024.582714960762,0.058,-0.711,-2.268,-2.845
-1.25,2499999950.07974,1.336750865,192.75249131909365,5037.3253278550155,0.084,-0.68,-2.228,-2.802
-1.25,2499999950.07974,1.3367717266,190.98532585662386,5041.967013185367,0.092,-0.669,-2.216,-2.789
-1.25,2499999950.07974,1.3369121552,188.79913490962926,5045.4510838273745,0.103,-0.657,-2.202,-2.774
-1.25,2499999950.07974,1.337031126,199.06733389871863,5023.4258952238715,0.06,-0.71,-2.267,-2.844
-1.25,2499999950.07974,1.3371460438,220.80047330188992,4984.252094042598,-0.024,-0.81,-2.393,-2.982
-1.25,2499999950.07974,1.3372578621,248.31331052955704,4940.831009106554,-0.117,-0.923,-2.535,-3.135
-1.25,2499999950.07974,1.3373590708,274.78941531023975,4903.430227918956,-0.198,-1.022,-2.66,-3.271
-1.25,2499999950.07974,1.3374489546,303.3891184194272,4868.554096577112,-0.275,-1.117,-2.779,-3.401
-1.25,2499999950.07974,1.3375288248,334.9654391578276,4833.926025160843,-0.347,-1.21,-2.898,-3.53
-1.25,2499999950.07974,1.3375990391,368.1289736425313,4798.439240638985,-0.41,-1.301,-3.014,-3.655
-1.25,2499999950.07974,1.337661624,404.57589169744284,4753.352259428054,-0.46,-1.388,-3.135,-3.786
-1.25,2499999950.07974,1.3377164602,444.6312674691088,4695.696293383585,-0.489,-1.466,-3.257,-3.922
-1.25,2499999950.07974,1.3377666473,487.5284901033865,4664.445252037798,-0.546,-1.554,-3.37,-4.042
-1.25,2499999950.07974,1.3378129005,535.7966575133418,4634.46919736288,-0.599,-1.639,-3.483,-4.163
-1.25,2499999950.07974,1.3378561735,587.4893525297769,4601.506077890588,-0.647,-1.724,-3.597,-4.285
-1.25,2499999950.07974,1.337896347,645.6542290346556,4568.777411858178,-0.691,-1.807,-3.712,-4.408
-1.25,2499999950.07974,1.3379327059,707.945784384138,4536.281531692419,-0.735,-1.886,-3.824,-4.53
-1.25,2499999950.07974,1.3379662037,776.247116628692,4504.016781680873,-0.784,-1.962,-3.933,-4.65
-1.25,2499999950.07974,1.3379994631,851.1380382023768,4470.951924630434,-0.831,-2.038,-4.043,-4.772
-1.25,2499999950.07974,1.3380320072,933.2543007969915,4438.12980308139,-0.876,-2.111,-4.151,-4.894
-1.25,2499999950.07974,1.3380646706,1020.9394837076798,4404.534336784062,-0.919,-2.183,-4.26,-5.015
-1.25,2499999950.07974,1.3380975723,1119.4378834671513,4370.186790706132,-0.96,-2.254,-4.369,-5.138
-1.25,2499999950.07974,1.3381299973,1230.268770812381,4334.110703101766,-0.992,-2.321,-4.48,-5.264
-1.25,2499999950.07974,1.3381580114,1352.0725631942764,4297.342811536805,-1.018,-2.385,-4.593,-5.393
-1.25,2499999950.07974,1.3381769657,1475.7065332758946,4263.831169000789,-1.044,-2.446,-4.697,-5.511
-1.25,2499999950.07974,1.3381925821,1603.2453906900419,4231.555097166164,-1.064,-2.5,-4.797,-5.625
-1.25,2499999950.07974,1.3382046223,1729.8163592151016,4201.457743989054,-1.082,-2.548,-4.886,-5.728
-1.25,2499999950.07974,1.3382190466,1901.0782799232995,4164.856093407415,-1.101,-2.607,-4.997,-5.856
-1.25,2499999950.07974,1.3382333517,2094.1124558508936,4126.6724632293635,-1.118,-2.665,-5.111,-5.989
-1.25,2499999950.07974,1.3382387161,2213.094709605639,4105.820889699131,-1.129,-2.698,-5.176,-6.064
-1.25,2499999950.07974,1.3382403851,2322.7367963571073,4086.9563562815833,-1.138,-2.727,-5.233,-6.13
-1.25,2499999950.07974,1.3382419348,2443.430552693971,4069.115338091966,-1.146,-2.755,-5.29,-6.196
-1.25,2499999950.07974,1.3382444382,2710.1916318908416,4030.881212870604,-1.154,-2.809,-5.41,-6.335
-1.25,2499999950.07974,1.3382474184,2910.717118066605,4003.132821780234,-1.153,-2.843,-5.496,-6.435
-1.25,2499999950.07974,1.3382476568,2910.717118066605,4003.132821780234,-1.153,-2.843,-5.496,-6.435
-1.25,2499999950.07974,1.3382480145,2162.71852372702,4109.604232515482,-1.111,-2.676,-5.148,-6.034
-1.25,2499999950.07974,1.3382482529,1749.8466886246565,4186.007479551019,-1.059,-2.542,-4.902,-5.75
-1.25,2499999950.07974,1.3382492065,1025.651926251408,4388.337287003648,-0.892,-2.173,-4.268,-5.03
-1.25,2499999950.07974,1.3382503986,1035.1421666793442,4383.2879341924645,-0.895,-2.179,-4.28,-5.044
-1.25,2499999950.07974,1.3382520676,1224.6161992650489,4317.1784447092305,-0.951,-2.299,-4.481,-5.272
-1.25,2499999950.07974,1.3382540941,1690.440931643265,4194.691248825665,-1.039,-2.514,-4.862,-5.707
-1.25,2499999950.07974,1.3382565975,2275.0974307720717,4083.1938633269233,-1.106,-2.698,-5.21,-6.109
-1.25,2499999950.07974,1.3382594585,2786.1211686297693,4008.6671762730302,-1.122,-2.803,-5.445,-6.382
-1.25,2499999950.07974,1.3382626772,3111.716337106017,3966.431879468582,-1.119,-2.854,-5.575,-6.535
-1.25,2499999950.07974,1.3382663727,3296.097121774576,3943.6648538097975,-1.112,-2.876,-5.642,-6.614
-1.25,2499999950.07974,1.338270545,3419.794425137087,3927.3535564672516,-1.104,-2.887,-5.684,-6.665
-1.25,2499999950.07974,1.3382707834,2930.8932452503213,3981.0717055349733,-1.099,-2.814,-5.506,-6.458
-1.25,2499999950.07974,1.3382714987,2089.296130854039,4101.0966087481165,-1.058,-2.63,-5.114,-6.004
-1.25,2499999950.07974,1.3382726908,1224.6161992650489,4298.3324252156535,-0.914,-2.28,-4.487,-5.286
-1.25,2499999950.07974,1.3382744789,1235.9474334445108,4292.398159704706,-0.913,-2.285,-4.498,-5.299
-1.25,2499999950.07974,1.3382767439,1458.814260275349,4227.659485162412,-0.954,-2.393,-4.694,-5.524
-1.25,2499999950.07974,1.3382796049,1995.2623149688789,4107.712125533876,-1.025,-2.589,-5.063,-5.95
-1.25,2499999950.07974,1.3382829428,2660.7250597988086,3999.4474976109736,-1.051,-2.741,-5.397,-6.339
-1.25,2499999950.07974,1.3382869959,3228.4941217126348,3926.449353995997,-1.042,-2.825,-5.622,-6.604
-1.25,2499999950.07974,1.3382915258,3580.9643710263585,3884.1858339296286,-1.025,-2.862,-5.744,-6.748
-1.25,2499999950.07974,1.338296771,3767.0379898390893,3860.1128374531977,-1.002,-2.87,-5.803,-6.821
-1.25,2499999950.07974,1.3383024931,3890.4514499428046,3842.3772299890893,-0.977,-2.868,-5.839,-6.867
-1.25,2499999950.07974,1.3383027315,3427.6778654645045,3884.1858339296286,-0.981,-2.816,-5.696,-6.701
-1.25,2499999950.07974,1.338303566,2460.3676041476274,3999.4474976109736,-0.97,-2.658,-5.312,-6.254
-1.25,2499999950.07974,1.3383048773,1445.439770745928,4191.7946593256365,-0.869,-2.344,-4.694,-5.54
-1.25,2499999950.07974,1.3383067846,1462.1771744567184,4183.116886514957,-0.86,-2.344,-4.707,-5.558
-1.25,2499999950.07974,1.3383094072,1725.837891990204,4114.338313870812,-0.882,-2.438,-4.902,-5.785
-1.25,2499999950.07974,1.3383126259,2338.837238659356,3993.006342231626,-0.895,-2.591,-5.258,-6.203
-1.25,2499999950.07974,1.3383164406,3083.1879502493534,3883.291570049549,-0.863,-2.699,-5.581,-6.586
-1.25,2499999950.07974,1.3383208513,3715.352290971724,3807.150103801774,-0.812,-2.75,-5.797,-6.846
-1.25,2499999950.07974,1.3383259773,4120.975190973304,3760.10523668496,-0.76,-2.759,-5.916,-6.991
-1.25,2499999950.07974,1.3383316994,4335.108783875289,3732.5015779572063,-0.709,-2.748,-5.977,-7.068
-1.25,2499999950.07974,1.3383381367,4466.835921509631,3712.786702756398,-0.66,-2.73,-6.016,-7.119
