FeH,Age,Mini,L,Te,Bmag,Vmag,Jmag,Kmag
-1.0,4099963590.4176536,0.0900000036,0.0005714786366718672,2774.5975598804152,18.576,16.565,10.795,10.255
-1.0,4099963590.4176536,0.098348476,0.0009078205301781861,2961.419965394361,17.183,15.248,10.383,9.742
-1.0,4099963590.4176536,0.1000000015,0.0009908319448927675,2998.4720157970514,16.934,15.014,10.306,9.649
-1.0,4099963590.4176536,0.1127028838,0.0015170503674593369,3152.825975955186,15.874,14.028,9.916,9.2
-1.0,4099963590.4176536,0.1200000048,0.001892343618644976,3237.42711634235,15.349,13.555,9.71,8.972
-1.0,4099963590.4176536,0.1400000006,0.0028906798823654747,3372.096543265998,14.495,12.795,9.307,8.542
-1.0,4099963590.4176536,0.1599999964,0.003971915494694405,3460.9872548535277,13.925,12.293,8.995,8.22
-1.0,4099963590.4176536,0.2000000179,0.0064416926551517754,3580.9643710263585,13.132,11.587,8.514,7.727
-1.0,4099963590.4176536,0.25,0.010185913880541169,3679.594830147843,12.438,10.962,8.053,7.259
-1.0,4099963590.4176536,0.3000000417,0.014689262776438668,3754.9140460984254,11.903,10.477,7.681,6.882
-1.0,4099963590.4176536,0.349999994,0.020511621788255656,3815.926491189337,11.44,10.053,7.338,6.538
-1.0,4099963590.4176536,0.400000006,0.028707805820246905,3912.911271268528,10.927,9.597,7.004,6.204
-1.0,4099963590.4176536,0.4499999881,0.042461956394631274,4054.1517440650287,10.303,9.057,6.619,5.83
-1.0,4099963590.4176536,0.5,0.06531305526474723,4277.59831482038,9.548,8.427,6.211,5.447
-1.0,4099963590.4176536,0.5500000715,0.10280162981264736,4586.696457982016,8.69,7.731,5.801,5.106
-1.0,4099963590.4176536,0.6000000238,0.15631476426409538,4887.648886615807,7.956,7.118,5.44,4.833
-1.0,4099963590.4176536,0.6066921949,0.1651961798229015,4929.467413122061,7.864,7.04,5.394,4.8
-1.0,4099963590.4176536,0.6499999762,0.23334580622810028,5207.148940339917,7.31,6.571,5.109,4.589
-1.0,4099963590.4176536,0.6517170072,0.23659196974857583,5217.95104239002,7.289,6.553,5.098,4.581
-1.0,4099963590.4176536,0.6835402846,0.3019951720402016,5421.2570508795725,6.92,6.241,4.899,4.429
-1.0,4099963590.4176536,0.6999999881,0.3419794425137088,5524.589326132767,6.739,6.089,4.799,4.351
-1.0,4099963590.4176536,0.7164221406,0.3863669770540692,5627.299110134534,6.565,5.942,4.702,4.275
-1.0,4099963590.4176536,0.7459119558,0.4786300923226383,5808.981588672952,6.264,5.689,4.533,4.139
-1.0,4099963590.4176536,0.75,0.4931738039549359,5833.107765394218,6.223,5.655,4.51,4.12
-1.0,4099963590.4176536,0.7682130337,0.5623413251903491,5923.794715877255,6.051,5.508,4.402,4.027
-1.0,4099963590.4176536,0.796272397,0.6854882264526616,6058.9867113896535,5.793,5.285,4.235,3.883
-1.0,4099963590.4176536,0.8000000119,0.7030723198838335,6077.15061560915,5.759,5.256,4.213,3.864
-1.0,4099963590.4176536,0.8001349568,0.7030723198838335,6077.15061560915,5.758,5.254,4.212,3.863
-1.0,4099963590.4176536,0.8314813375,0.8770008211436348,6214.411391668482,5.479,5.01,4.022,3.695
-1.0,4099963590.4176536,0.8500000238,1.0,6293.612503885458,5.316,4.866,3.909,3.594
-1.0,4099963590.4176536,0.8618531823,1.0839269140212036,6343.077242082354,5.214,4.774,3.838,3.531
-1.0,4099963590.4176536,0.8883101344,1.3031667784522993,6455.055787690059,4.984,4.569,3.676,3.387
-1.0,4099963590.4176536,0.8999999762,1.4157937799570817,6502.7940547237,4.882,4.477,3.603,3.321
-1.0,4099963590.4176536,0.9106664658,1.5275660582380726,6549.377145933659,4.79,4.394,3.537,3.262
-1.0,4099963590.4176536,0.9310926795,1.7660378206861644,6637.43070401909,4.61,4.231,3.408,3.147
-1.0,4099963590.4176536,0.9496456981,2.0183663636815607,6717.381285473806,4.445,4.08,3.288,3.039
-1.0,4099963590.4176536,0.9499999881,2.027682719521282,6718.928197763023,4.441,4.077,3.285,3.036
-1.0,4099963590.4176536,0.9642621279,2.2490546058357808,6785.783509504071,4.312,3.959,3.193,2.954
-1.0,4099963590.4176536,0.9819182158,2.5703957827688635,6869.102548718842,4.148,3.809,3.075,2.848
-1.0,4099963590.4176536,0.9977341294,2.904022654464451,6940.647689943377,3.999,3.672,2.966,2.749
-1.0,4099963590.4176536,1.0,2.958012466551546,6951.843712782462,3.978,3.653,2.95,2.735
-1.0,4099963590.4176536,1.0029138327,3.019951720402016,6966.265141107687,3.95,3.628,2.931,2.718
-1.0,4099963590.4176536,1.0192303658,3.4276778654645037,7046.930689671467,3.795,3.485,2.819,2.617
-1.0,4099963590.4176536,1.0329378843,3.8282474331682264,7108.860631304903,3.661,3.362,2.719,2.526
-1.0,4099963590.4176536,1.0444380045,4.22668614265603,7158.136899114738,3.542,3.251,2.627,2.441
-1.0,4099963590.4176536,1.0499999523,4.436086439314326,7181.249238834741,3.482,3.195,2.58,2.398
-1.0,4099963590.4176536,1.0565861464,4.709773263969529,7206.0952778941455,3.411,3.128,2.524,2.345
-1.0,4099963590.4176536,1.0588886738,4.808393484497286,7214.396379258091,3.386,3.104,2.503,2.325
-1.0,4099963590.4176536,1.0631529093,5.011872336272722,7221.044144820456,3.338,3.058,2.46,2.283
-1.0,4099963590.4176536,1.0698627234,5.370317963702527,7229.362466614446,3.259,2.981,2.387,2.211
-1.0,4099963590.4176536,1.0762398243,5.767664633922507,7227.698036021702,3.181,2.904,2.31,2.135
-1.0,4099963590.4176536,1.0803992748,6.0534087475391365,7219.381629371591,3.126,2.848,2.253,2.077
-1.0,4099963590.4176536,1.0842608213,6.33869711256927,7194.489780036998,3.079,2.799,2.196,2.017
-1.0,4099963590.4176536,1.0909216404,6.854882264526615,7138.385536016632,3.001,2.714,2.093,1.907
-1.0,4099963590.4176536,1.0982662439,7.550922276654339,7022.633437357637,2.915,2.613,1.952,1.752
-1.0,4099963590.4176536,1.1000000238,7.726805850957024,6972.684264076381,2.896,2.588,1.909,1.702
-1.0,4099963590.4176536,1.10338521,8.109610578538408,6878.5991230880745,2.861,2.539,1.825,1.606
-1.0,4099963590.4176536,1.1070643663,8.570378452303697,6709.652064618787,2.836,2.487,1.712,1.469
-1.0,4099963590.4176536,1.1092046499,8.81048873008014,6569.011164762662,2.836,2.463,1.634,1.37
-1.0,4099963590.4176536,1.1108576059,8.974287945007484,6434.280649922961,2.849,2.451,1.569,1.284
-1.0,4099963590.4176536,1.1121100187,9.057326008982,6313.933449447962,2.872,2.449,1.519,1.215
-1.0,4099963590.4176536,1.1134537458,9.078205301781857,6171.631684555837,2.913,2.459,1.469,1.141
-1.0,4099963590.4176536,1.1146103144,9.057326008982,6040.877096990727,2.957,2.472,1.427,1.075
-1.0,4099963590.4176536,1.1156058311,8.994975815300352,5925.158877066759,3.005,2.49,1.395,1.022
-1.0,4099963590.4176536,1.1165072918,8.953647655495937,5822.372674224978,3.048,2.507,1.366,0.973
-1.0,4099963590.4176536,1.1173496246,8.892011178579484,5729.279373317534,3.09,2.524,1.341,0.93
-1.0,4099963590.4176536,1.1181772947,8.933054837332952,5655.877570891539,3.115,2.529,1.312,0.886
-1.0,4099963590.4176536,1.1192103624,9.120108393559097,5575.7077217879405,3.127,2.52,1.265,0.822
-1.0,4099963590.4176536,1.120413661,9.506047936562814,5497.940050635924,3.114,2.486,1.193,0.734
-1.0,4099963590.4176536,1.1205602884,9.571940712948445,5489.085556070448,3.111,2.481,1.184,0.722
-1.0,4099963590.4176536,1.1207559109,9.705099672454896,5481.507340176555,3.1,2.468,1.166,0.703
-1.0,4099963590.4176536,1.1221200228,10.739894123412446,5433.754339063341,3.009,2.364,1.038,0.564
-1.0,4099963590.4176536,1.1232535839,11.857687481671602,5402.564990999317,2.918,2.264,0.922,0.44
-1.0,4099963590.4176536,1.1243121624,13.09181922999407,5375.266487867444,2.823,2.161,0.805,0.317
-1.0,4099963590.4176536,1.1253781319,14.554590805819661,5350.569381731372,2.718,2.05,0.68,0.186
-1.0,4099963590.4176536,1.126355648,16.218100973589298,5328.439020411989,2.613,1.939,0.557,0.057
-1.0,4099963590.4176536,1.1271921396,17.864875748520507,5307.622176426454,2.517,1.837,0.445,-0.06
-1.0,4099963590.4176536,1.1280719042,19.952623149688797,5285.669448009903,2.408,1.722,0.318,-0.192
-1.0,4099963590.4176536,1.1288315058,22.080047330189004,5265.019693769153,2.307,1.615,0.2,-0.315
-1.0,4099963590.4176536,1.1295477152,24.490632418447454,5243.243172456372,2.205,1.506,0.08,-0.441
-1.0,4099963590.4176536,1.1301865578,27.10191631890843,5221.556720489596,2.108,1.402,-0.037,-0.563
-1.0,4099963590.4176536,1.1308070421,30.13006024186122,5198.762768142835,2.007,1.293,-0.16,-0.693
-1.0,4099963590.4176536,1.1313443184,33.265955329400455,5176.068319505676,1.912,1.191,-0.276,-0.814
-1.0,4099963590.4176536,1.1318762302,37.068072178257594,5151.100224595073,1.81,1.081,-0.4,-0.945
-1.0,4099963590.4176536,1.1323305368,40.83193863326921,5128.613839913648,1.717,0.98,-0.515,-1.066
-1.0,4099963590.4176536,1.1327698231,45.28975799036207,5103.874653873108,1.621,0.876,-0.634,-1.193
-1.0,4099963590.4176536,1.1331763268,50.11872336272722,5078.085396648894,1.526,0.772,-0.754,-1.32
-1.0,4099963590.4176536,1.1335417032,55.46257129579107,5053.589947531675,1.434,0.671,-0.87,-1.443
-1.0,4099963590.4176536,1.1338897943,61.37620051647942,5026.897153690667,1.341,0.568,-0.99,-1.57
-1.0,4099963590.4176536,1.1342027187,67.7641507610675,5001.496854402788,1.252,0.468,-1.106,-1.692
-1.0,4099963590.4176536,1.1345076561,74.98942093324558,4975.0792135144075,1.16,0.366,-1.226,-1.82
-1.0,4099963590.4176536,1.1347800493,82.60379495771788,4948.801109202861,1.074,0.269,-1.34,-1.941
-1.0,4099963590.4176536,1.1350497007,91.20108393559097,4921.528450161719,0.988,0.171,-1.455,-2.064
-1.0,4099963590.4176536,1.1353193521,99.5405417351527,4897.7881936844615,0.912,0.084,-1.558,-2.172
-1.0,4099963590.4176536,1.1355865002,106.41430182243164,4879.77727286486,0.853,0.017,-1.638,-2.259
-1.0,4099963590.4176536,1.1356728077,105.19618738232224,4885.398559319364,0.863,0.03,-1.622,-2.241
-1.0,4099963590.4176536,1.1358436346,96.38290236239705,4913.6022729909155,0.934,0.113,-1.519,-2.13
-1.0,4099963590.4176536,1.1359161139,92.25714271547633,4927.19783211614,0.972,0.157,-1.466,-2.072
-1.0,4099963590.4176536,1.1360157728,96.60508789898135,4914.733801992678,0.931,0.11,-1.522,-2.132
-1.0,4099963590.4176536,1.1362226009,106.6596121230258,4886.523593428336,0.846,0.013,-1.637,-2.256
-1.0,4099963590.4176536,1.1364201307,117.48975549395291,4859.594143462719,0.765,-0.08,-1.75,-2.377
-1.0,4099963590.4176536,1.1366108656,129.41958414499862,4830.5880203977285,0.683,-0.175,-1.866,-2.502
-1.0,4099963590.4176536,1.1367813349,142.23287871228197,4803.966829296808,0.604,-0.266,-1.976,-2.621
-1.0,4099963590.4176536,1.1369431019,156.3147642640954,4775.2927365769065,0.53,-0.359,-2.089,-2.742
-1.0,4099963590.4176536,1.1370924711,171.79083871575875,4746.789794829222,0.46,-0.452,-2.202,-2.861
-1.0,4099963590.4176536,1.1372293234,188.36490894898,4719.543572446043,0.393,-0.542,-2.313,-2.978
-1.0,4099963590.4176536,1.1373556852,206.53801558105292,4691.37338834597,0.328,-0.632,-2.423,-3.095
-1.0,4099963590.4176536,1.1374738216,226.46443075930597,4662.297690149265,0.265,-0.72,-2.533,-3.212
-1.0,4099963590.4176536,1.1375808716,247.74220576332863,4634.46919736288,0.206,-0.805,-2.64,-3.325
-1.0,4099963590.4176536,1.1376821995,271.01916318908417,4605.746173947351,0.148,-0.89,-2.748,-3.441
-1.0,4099963590.4176536,1.1377754211,296.4831389524342,4578.255227916937,0.092,-0.974,-2.855,-3.555
-1.0,4099963590.4176536,1.1378622055,324.33961734934934,4549.880601500485,0.038,-1.055,-2.96,-3.669
-1.0,4099963590.4176536,1.1379438639,354.8133892335753,4521.681832344975,-0.014,-1.136,-3.066,-3.783
-1.0,4099963590.4176536,1.1380176544,386.36697705406937,4493.657830540859,-0.065,-1.211,-3.168,-3.894
-1.0,4099963590.4176536,1.1380890608,421.6965034285823,4464.779341129965,-0.118,-1.287,-3.272,-4.01
-1.0,4099963590.4176536,1.1381537914,459.19801283686854,4436.086439314323,-0.167,-1.358,-3.373,-4.121
-1.0,4099963590.4176536,1.1382153034,501.18723362727246,4408.592931591316,-0.215,-1.429,-3.475,-4.234
-1.0,4099963590.4176536,1.1382728815,547.0159628939716,4380.261111703606,-0.264,-1.501,-3.577,-4.347
-1.0,4099963590.4176536,1.1383383274,606.7363295885053,4345.102241715715,-0.321,-1.586,-3.7,-4.485
-1.0,4099963590.4176536,1.1383875608,660.6934480075957,4317.1784447092305,-0.364,-1.652,-3.799,-4.595
-1.0,4099963590.4176536,1.1384450197,734.5138681571151,4281.539943374177,-0.418,-1.735,-3.922,-4.734
-1.0,4099963590.4176536,1.138496995,812.8305161640995,4247.173474714387,-0.467,-1.814,-4.041,-4.868
-1.0,4099963590.4176536,1.1385456324,901.571137605957,4214.053063912862,-0.513,-1.89,-4.161,-5.003
-1.0,4099963590.4176536,1.1385830641,979.4899854086991,4186.007479551019,-0.546,-1.95,-4.258,-5.113
-1.0,4099963590.4176536,1.1386245489,1081.4339512979375,4153.364054890737,-0.582,-2.019,-4.374,-5.244
-1.0,4099963590.4176536,1.1386637688,1193.9881044642732,4119.077848677374,-0.616,-2.087,-4.49,-5.376
-1.0,4099963590.4176536,1.1387007236,1321.2956341865752,4086.015408138228,-0.651,-2.155,-4.607,-5.509
-1.0,4099963590.4176536,1.1387352943,1458.814260275349,4053.218348593218,-0.682,-2.22,-4.722,-5.641
-1.0,4099963590.4176536,1.1387672424,1610.64563517827,4020.6845399191266,-0.71,-2.282,-4.835,-5.77
-1.0,4099963590.4176536,1.1387972832,1778.2794100389228,3988.4118690905275,-0.736,-2.343,-4.948,-5.9
-1.0,4099963590.4176536,1.1388255358,1949.8445997580454,3957.3093392936153,-0.758,-2.399,-5.056,-6.025
-1.0,4099963590.4176536,1.1388514042,2123.2444620002193,3930.0674134185306,-0.773,-2.447,-5.153,-6.137
-1.0,4099963590.4176536,1.1388514042,68.54882264526617,5282.019497699969,1.063,0.379,-1.029,-1.542
-1.0,4099963590.4176536,1.1390676498,70.46930689671471,5267.444883319061,1.041,0.352,-1.063,-1.579
-1.0,4099963590.4176536,1.1392878294,71.28530301265195,5262.595620803182,1.031,0.341,-1.077,-1.595
-1.0,4099963590.4176536,1.1395097971,71.94489780036994,5262.595620803182,1.023,0.332,-1.086,-1.604
-1.0,4099963590.4176536,1.1397354603,72.27698036021702,5265.019693769153,1.016,0.326,-1.09,-1.607
-1.0,4099963590.4176536,1.1399626732,72.44359600749902,5269.871189967232,1.01,0.322,-1.093,-1.609
-1.0,4099963590.4176536,1.1401840448,72.77798045368242,5273.512745624402,1.005,0.318,-1.094,-1.609
-1.0,4099963590.4176536,1.1403918266,72.94575102545687,5278.37206781577,0.999,0.314,-1.096,-1.61
-1.0,4099963590.4176536,1.1406201124,73.11390834834177,5283.235867669997,0.993,0.309,-1.097,-1.61
-1.0,4099963590.4176536,1.1408246756,73.2824533138904,5288.104149313063,0.987,0.305,-1.099,-1.61
-1.0,4099963590.4176536,1.140917182,73.45138681571152,5289.321920487208,0.985,0.303,-1.1,-1.611
-1.0,4099963590.4176536,1.1410999298,73.6207097494736,5292.97691687475,0.98,0.3,-1.102,-1.612
-1.0,4099963590.4176536,1.1413440704,73.96052750582378,5296.634438916581,0.974,0.295,-1.105,-1.614
-1.0,4099963590.4176536,1.1415797472,74.13102413009177,5301.515066784589,0.967,0.29,-1.107,-1.616
-1.0,4099963590.4176536,1.1418107748,74.47319739059893,5303.957066945361,0.961,0.285,-1.11,-1.618
-1.0,4099963590.4176536,1.1420460939,74.81695005111546,5307.622176426454,0.955,0.28,-1.114,-1.62
-1.0,4099963590.4176536,1.1420764923,74.81695005111546,5307.622176426454,0.954,0.279,-1.114,-1.621
-1.0,4099963590.4176536,1.1422798634,74.98942093324558,5311.289818550133,0.949,0.275,-1.117,-1.623
-1.0,4099963590.4176536,1.1425251961,75.33555637337174,5313.736321187098,0.943,0.269,-1.121,-1.626
-1.0,4099963590.4176536,1.1427642107,75.68328950209744,5314.959995066477,0.937,0.264,-1.125,-1.63
-1.0,4099963590.4176536,1.1430046558,76.03262769401819,5317.408188271428,0.931,0.259,-1.129,-1.634
-1.0,4099963590.4176536,1.1432510614,76.38357835776907,5318.632707726801,0.925,0.253,-1.135,-1.639
-1.0,4099963590.4176536,1.1434911489,76.91304402866095,5318.632707726801,0.919,0.247,-1.14,-1.644
-1.0,4099963590.4176536,1.143730998,77.26805850957021,5318.632707726801,0.913,0.241,-1.146,-1.65
-1.0,4099963590.4176536,1.1437447071,77.26805850957021,5318.632707726801,0.913,0.241,-1.146,-1.651
-1.0,4099963590.4176536,1.1437666416,77.26805850957021,5318.632707726801,0.912,0.24,-1.147,-1.651
-1.0,4099963590.4176536,1.1439892054,77.8036551039804,5317.408188271428,0.907,0.235,-1.154,-1.658
-1.0,4099963590.4176536,1.1442118883,78.16278045883297,5314.959995066477,0.902,0.228,-1.161,-1.666
-1.0,4099963590.4176536,1.1444399357,78.70457896950985,5312.5129290366,0.896,0.222,-1.169,-1.675
-1.0,4099963590.4176536,1.1446691751,79.43282347242814,5307.622176426454,0.89,0.214,-1.179,-1.686
-1.0,4099963590.4176536,1.1448938847,80.16780633876789,5302.735926292144,0.883,0.205,-1.19,-1.698
-1.0,4099963590.4176536,1.145116806,80.90958991783822,5296.634438916581,0.876,0.197,-1.202,-1.711
-1.0,4099963590.4176536,1.1453413963,81.65823713585922,5290.539972095819,0.869,0.187,-1.216,-1.727
-1.0,4099963590.4176536,1.1455675364,82.60379495771788,5282.019497699969,0.86,0.175,-1.232,-1.745
-1.0,4099963590.4176536,1.1458109617,83.94599865193973,5272.298614228227,0.848,0.16,-1.252,-1.767
-1.0,4099963590.4176536,1.1460456848,85.31001140175896,5261.38400287851,0.836,0.144,-1.274,-1.791
-1.0,4099963590.4176536,1.1462608576,84.527884516029,5269.871189967232,0.843,0.154,-1.26,-1.775
-1.0,4099963590.4176536,1.1464936733,87.90225168308842,5239.622519059377,0.819,0.118,-1.313,-1.835
-1.0,4099963590.4176536,1.1467204094,95.06047936562814,5183.224264170613,0.767,0.046,-1.417,-1.953
-1.0,4099963590.4176536,1.1468206644,102.80162981264735,5135.704178483554,0.713,-0.026,-1.518,-2.067
-1.0,4099963590.4176536,1.1468644142,110.9174815262401,5090.9636952309365,0.658,-0.098,-1.617,-2.176
-1.0,4099963590.4176536,1.1468844414,120.78138351067798,5047.775135009473,0.596,-0.178,-1.723,-2.294
-1.0,4099963590.4176536,1.1468936205,131.5224832192239,5006.10552528821,0.532,-0.259,-1.83,-2.412
-1.0,4099963590.4176536,1.1468977928,140.28137045619576,4976.224899734694,0.485,-0.318,-1.909,-2.499
-1.0,4099963590.4176536,1.146897912,140.60475241299144,4976.224899734694,0.484,-0.32,-1.91,-2.501
-1.0,4099963590.4176536,1.146900773,149.6235656094433,4948.801109202861,0.436,-0.379,-1.988,-2.585
-1.0,4099963590.4176536,1.1469056606,164.81623915255085,4910.20924883086,0.361,-0.472,-2.107,-2.716
-1.0,4099963590.4176536,1.1469117403,174.98466886246564,4886.523593428336,0.316,-0.527,-2.179,-2.795
-1.0,4099963590.4176536,1.1469237804,164.81623915255085,4911.339996469978,0.361,-0.471,-2.105,-2.713
-1.0,4099963590.4176536,1.1470234394,165.57699634695277,4909.078761526029,0.358,-0.474,-2.11,-2.719
-1.0,4099963590.4176536,1.1471114159,179.06058540352947,4876.407606118823,0.301,-0.547,-2.206,-2.825
-1.0,4099963590.4176536,1.1471661329,194.98445997580455,4842.83865227851,0.24,-0.626,-2.31,-2.94
-1.0,4099963590.4176536,1.1472067833,210.86281499332887,4810.608341479539,0.187,-0.703,-2.408,-3.046
-1.0,4099963590.4176536,1.1472551823,235.5049283896009,4766.504419105543,0.116,-0.807,-2.544,-3.192
-1.0,4099963590.4176536,1.147303462,261.21613543992055,4726.06836898339,0.052,-0.905,-2.672,-3.329
-1.0,4099963590.4176536,1.1473472118,287.73984147356697,4689.213428447355,-0.007,-0.995,-2.789,-3.455
-1.0,4099963590.4176536,1.147387743,316.22776601683796,4653.717325654918,-0.062,-1.082,-2.904,-3.58
-1.0,4099963590.4176536,1.1474246979,347.53616144320574,4617.4265947729555,-0.114,-1.168,-3.018,-3.703
-1.0,4099963590.4176536,1.1474583149,381.94427084004644,4580.364077908267,-0.161,-1.251,-3.132,-3.828
-1.0,4099963590.4176536,1.147480607,409.26065973001096,4520.640796485013,-0.153,-1.289,-3.224,-3.939
-1.0,4099963590.4176536,1.1475081444,447.7133041763623,4479.195312542835,-0.192,-1.36,-3.336,-4.067
-1.0,4099963590.4176536,1.1475334167,490.9078761526029,4444.265543439951,-0.24,-1.434,-3.445,-4.188
-1.0,4099963590.4176536,1.1475572586,538.2697825162882,4411.6393317691345,-0.287,-1.507,-3.553,-4.31
-1.0,4099963590.4176536,1.1475799084,588.843655355589,4379.25263541926,-0.334,-1.58,-3.661,-4.431
-1.0,4099963590.4176536,1.1476008892,645.6542290346556,4346.102853675936,-0.379,-1.652,-3.769,-4.552
-1.0,4099963590.4176536,1.1476203203,704.6930689671467,4313.204006994161,-0.42,-1.719,-3.873,-4.67
-1.0,4099963590.4176536,1.1476399899,770.90346906443,4280.55419586204,-0.459,-1.785,-3.977,-4.789
-1.0,4099963590.4176536,1.1476596594,841.3951416451947,4246.19563946313,-0.494,-1.849,-4.081,-4.908
-1.0,4099963590.4176536,1.1476794481,920.4495717531712,4210.173564456214,-0.519,-1.907,-4.187,-5.03
-1.0,4099963590.4176536,1.1476975679,1009.2528860766844,4173.495984653169,-0.541,-1.966,-4.296,-5.156
-1.0,4099963590.4176536,1.1477116346,1106.6237839776663,4138.090648167254,-0.565,-2.023,-4.403,-5.28
-1.0,4099963590.4176536,1.147721529,1210.598133550483,4102.985668470057,-0.586,-2.079,-4.508,-5.402
-1.0,4099963590.4176536,1.1477313042,1330.4544179780914,4065.3692697573383,-0.604,-2.134,-4.619,-5.531
-1.0,4099963590.4176536,1.1477388144,1445.439770745928,4032.7379297611305,-0.617,-2.181,-4.717,-5.646
-1.0,4099963590.4176536,1.1477466822,1588.546748597779,3994.845613082856,-0.628,-2.23,-4.826,-5.775
-1.0,4099963590.4176536,1.147752285,1729.8163592151016,3960.0438961152527,-0.633,-2.272,-4.924,-5.891
-1.0,4099963590.4176536,1.1477537155,1803.017740859568,3944.573020752785,-0.637,-2.292,-4.971,-5.947
-1.0,4099963590.4176536,1.1477546692,1629.296032639723,3978.3226282329574,-0.617,-2.236,-4.857,-5.814
-1.0,4099963590.4176536,1.1477547884,1621.8100973589299,3980.155135426724,-0.616,-2.233,-4.851,-5.808
-1.0,4099963590.4176536,1.1477549076,1659.5869074375614,3971.915494694405,-0.619,-2.245,-4.878,-5.839
-1.0,4099963590.4176536,1.1477555037,1694.3378004473288,3963.6929115081043,-0.621,-2.256,-4.902,-5.867
-1.0,4099963590.4176536,1.1477559805,1761.976046411629,3949.1169934897503,-0.626,-2.276,-4.947,-5.92
-1.0,4099963590.4176536,1.1477564573,1828.1002161427427,3935.5007545577764,-0.63,-2.294,-4.989,-5.969
-1.0,4099963590.4176536,1.1477569342,1896.7059212111465,3921.931463326502,-0.631,-2.311,-5.03,-6.018
-1.0,4099963590.4176536,1.1477575302,1963.3602768360474,3909.309005962286,-0.631,-2.327,-5.072,-6.067
-1.0,4099963590.4176536,1.1477586031,2079.696687103696,3886.8698613730226,-0.63,-2.352,-5.138,-6.145
-1.0,4099963590.4176536,1.1477599144,2208.004733018899,3862.780230114958,-0.621,-2.373,-5.207,-6.228
-1.0,4099963590.4176536,1.1477621794,2426.6100950824143,3823.8425365811263,-0.606,-2.403,-5.317,-6.359
-1.0,4099963590.4176536,1.1477630138,2488.85731828239,3812.4135110429906,-0.599,-2.411,-5.348,-6.396
-1.0,4099963590.4176536,1.147763133,1655.7699634695275,3955.4873505556216,-0.576,-2.218,-4.876,-5.846
-1.0,4099963590.4176536,1.1477633715,1276.4388088113435,4055.085354483839,-0.534,-2.075,-4.577,-5.494
-1.0,4099963590.4176536,1.1477637291,792.5013304804718,4244.240644295681,-0.415,-1.778,-4.016,-4.843
-1.0,4099963590.4176536,1.1477643251,801.678063387679,4237.405246788001,-0.416,-1.785,-4.032,-4.862
-1.0,4099963590.4176536,1.1477650404,1000.0,4146.675015156991,-0.469,-1.922,-4.291,-5.163
-1.0,4099963590.4176536,1.1477659941,1415.793779957081,4007.7442528043107,-0.535,-2.123,-4.698,-5.64
-1.0,4099963590.4176536,1.147767067,1923.0917289101576,3888.6602433122985,-0.554,-2.271,-5.051,-6.058
-1.0,4099963590.4176536,1.147768259,2355.049283896009,3810.65823393773,-0.538,-2.348,-5.286,-6.336
-1.0,4099963590.4176536,1.1477696896,2624.218543384442,3767.0379898390893,-0.518,-2.378,-5.413,-6.487
-1.0,4099963590.4176536,1.1477713585,2766.9416454115126,3743.6910398904515,-0.499,-2.386,-5.475,-6.563
-1.0,4099963590.4176536,1.1477731466,2857.5905433749467,3727.348496903337,-0.482,-2.387,-5.512,-6.609
-1.0,4099963590.4176536,1.1477732658,2172.7011788637456,3827.366048098136,-0.502,-2.291,-5.196,-6.236
-1.0,4099963590.4176536,1.1477736235,1485.9356422870076,3968.2589095091143,-0.491,-2.12,-4.758,-5.722
-1.0,4099963590.4176536,1.1477741003,922.5714271547629,4153.364054890737,-0.395,-1.843,-4.203,-5.072
-1.0,4099963590.4176536,1.1477749348,933.2543007969915,4146.675015156991,-0.393,-1.847,-4.217,-5.089
-1.0,4099963590.4176536,1.1477758884,1158.7773561551262,4057.8874759172845,-0.434,-1.973,-4.47,-5.386
-1.0,4099963590.4176536,1.1477770805,1629.296032639723,3923.737995448608,-0.47,-2.148,-4.865,-5.852
-1.0,4099963590.4176536,1.147778511,2192.80493535045,3808.026833442713,-0.449,-2.264,-5.21,-6.261
-1.0,4099963590.4176536,1.1477802992,2666.8586645214805,3731.642236647028,-0.414,-2.318,-5.436,-6.531
-1.0,4099963590.4176536,1.1477822065,2951.209226666387,3688.926481189961,-0.384,-2.333,-5.557,-6.674
-1.0,4099963590.4176536,1.1477843523,3097.419299216581,3667.7523159949515,-0.358,-2.331,-5.613,-6.743
-1.0,4099963590.4176536,1.1477867365,3176.8740706497692,3653.423348834556,-0.335,-2.324,-5.645,-6.782
