FeH,Age,Mini,L,Te,Bmag,Vmag,Jmag,Kmag
-1.25,1099993198.935193,0.0900000036,0.0006412095765851616,2896.0096188517136,17.854,15.843,10.723,10.223
-1.25,1099993198.935193,0.0914781839,0.0006918309709189362,2927.520871369441,17.637,15.635,10.656,10.136
-1.25,1099993198.935193,0.0967734009,0.0009332543007969915,3056.3282803659663,16.787,14.828,10.393,9.796
-1.25,1099993198.935193,0.0997547954,0.0011091748152624009,3131.843125111643,16.319,14.396,10.243,9.607
-1.25,1099993198.935193,0.1000000089,0.0011246049739669268,3138.340056432409,16.282,14.362,10.231,9.592
-1.25,1099993198.935193,0.1052375436,0.0013458603540559483,3204.0552769132337,15.861,13.982,10.064,9.396
-1.25,1099993198.935193,0.1199999899,0.0021577444091526667,3381.4268747382753,14.818,13.073,9.628,8.903
-1.25,1099993198.935193,0.1400000006,0.003258367010020087,3509.1343835855246,14.048,12.412,9.228,8.477
-1.25,1099993198.935193,0.1599999964,0.004456562483975033,3593.3539675538973,13.519,11.954,8.921,8.158
-1.25,1099993198.935193,0.2000000179,0.007144963260755135,3711.07729492926,12.763,11.292,8.45,7.673
-1.25,1099993198.935193,0.25,0.01109174815262401,3811.5357714484903,12.106,10.709,8.006,7.223
-1.25,1099993198.935193,0.3014242351,0.0159220872705117,3890.4514499428046,11.583,10.241,7.64,6.855
-1.25,1099993198.935193,0.3490936756,0.022080047330189003,3950.936047894297,11.133,9.832,7.302,6.518
-1.25,1099993198.935193,0.3499999642,0.022181964198002193,3951.8458892843655,11.125,9.825,7.297,6.513
-1.25,1099993198.935193,0.3556629121,0.023120647901755952,3962.7803425543934,11.064,9.772,7.256,6.473
-1.25,1099993198.935193,0.4000000358,0.030902954325135904,4046.6905946508737,10.628,9.388,6.965,6.188
-1.25,1099993198.935193,0.4500000179,0.045081670454146,4193.72549666233,10.022,8.869,6.595,5.835
-1.25,1099993198.935193,0.4803086519,0.05861381645140288,4340.10263644744,9.559,8.485,6.35,5.611
-1.25,1099993198.935193,0.5,0.06886522963442762,4432.002533708497,9.277,8.251,6.199,5.478
-1.25,1099993198.935193,0.5500000715,0.1051961873823223,4719.543572446043,8.518,7.624,5.82,5.17
-1.25,1099993198.935193,0.6000000238,0.15631476426409538,4984.252094042598,7.877,7.077,5.476,4.901
-1.25,1099993198.935193,0.6002775431,0.15667510701081488,4985.3998926398735,7.874,7.074,5.474,4.9
-1.25,1099993198.935193,0.6499999762,0.22750974307720706,5277.15681764812,7.296,6.584,5.164,4.663
-1.25,1099993198.935193,0.6999999285,0.3250872973854344,5578.27602141201,6.773,6.145,4.878,4.439
-1.25,1099993198.935193,0.7497480512,0.4528975799036208,5872.188659713034,6.304,5.756,4.623,4.237
-1.25,1099993198.935193,0.75,0.45394161665020316,5873.5409368008195,6.302,5.754,4.622,4.236
-1.25,1099993198.935193,0.771071136,0.5188000389289611,5973.102948121369,6.126,5.604,4.513,4.144
-1.25,1099993198.935193,0.8000000715,0.6194410750767815,6106.607404788298,5.894,5.406,4.369,4.02
-1.25,1099993198.935193,0.839933455,0.7870457896950986,6279.137596800936,5.589,5.142,4.172,3.851
-1.25,1099993198.935193,0.8500000238,0.8336811846196344,6321.2068200526855,5.515,5.077,4.124,3.809
-1.25,1099993198.935193,0.8698429465,0.933254300796991,6406.192726268982,5.371,4.951,4.03,3.729
-1.25,1099993198.935193,0.8999999762,1.1066237839776663,6532.809588303903,5.158,4.763,3.891,3.609
-1.25,1099993198.935193,0.9225716591,1.2502590302177201,6629.793476706679,5.005,4.626,3.79,3.523
-1.25,1099993198.935193,0.9499999285,1.4454397707459274,6746.833613988271,4.822,4.463,3.671,3.421
-1.25,1099993198.935193,0.9859156609,1.7378008287493754,6910.349294049405,4.59,4.256,3.523,3.297
-1.25,1099993198.935193,1.0,1.86637969083467,6974.289968817341,4.5,4.176,3.467,3.249
-1.25,1099993198.935193,1.0043805838,1.9054607179632472,6995.197810512134,4.472,4.151,3.45,3.236
-1.25,1099993198.935193,1.0398346186,2.2646443075930596,7174.638108861394,4.251,3.955,3.319,3.128
-1.25,1099993198.935193,1.0499999523,2.3768402866248763,7226.0339886341535,4.188,3.899,3.281,3.098
-1.25,1099993198.935193,1.0882093906,2.837919028441556,7452.465942515137,3.957,3.697,3.159,3.003
-1.25,1099993198.935193,1.1000000238,2.992264636608189,7523.1548318687155,3.887,3.636,3.123,2.976
-1.25,1099993198.935193,1.1187309027,3.2583670100200877,7652.441178142356,3.776,3.541,3.072,2.939
-1.25,1099993198.935193,1.1499999762,3.7325015779572053,7868.64586567395,3.597,3.386,2.988,2.88
-1.25,1099993198.935193,1.1661247015,3.9994474976109746,7981.78453491152,3.507,3.31,2.948,2.851
-1.25,1099993198.935193,1.2000000477,4.613175745603794,8220.533433757724,3.325,3.156,2.867,2.791
-1.25,1099993198.935193,1.25,5.688529308438414,8570.378452303692,3.075,2.948,2.753,2.702
-1.25,1099993198.935193,1.2999999523,6.966265141107686,8912.509381337459,2.857,2.767,2.646,2.613
-1.25,1099993198.935193,1.3264734745,7.744617978025188,9088.662990655877,2.749,2.675,2.586,2.562
-1.25,1099993198.935193,1.3500000238,8.531001140175896,9242.724327301174,2.656,2.596,2.532,2.514
-1.25,1099993198.935193,1.3585761786,8.81048873008014,9296.08315715038,2.623,2.567,2.512,2.497
-1.25,1099993198.935193,1.3999998569,10.39920165829059,9547.727161666111,2.467,2.43,2.411,2.406
-1.25,1099993198.935193,1.4366010427,12.050359403717973,9756.633693709555,2.332,2.31,2.317,2.319
-1.25,1099993198.935193,1.4500000477,12.705741052085418,9828.788730000326,2.283,2.266,2.28,2.285
-1.25,1099993198.935193,1.4720304012,13.899526312133533,9942.600739529567,2.201,2.192,2.219,2.227
-1.25,1099993198.935193,1.5,15.523870099580824,10064.68066438325,2.096,2.095,2.134,2.146
-1.25,1099993198.935193,1.5187439919,16.749428760264372,10134.445697847914,2.024,2.028,2.074,2.087
-1.25,1099993198.935193,1.5397675037,18.238957023196374,10192.952491349293,1.94,1.948,1.999,2.014
-1.25,1099993198.935193,1.5499999523,19.010782799232995,10214.09751989849,1.897,1.906,1.959,1.975
-1.25,1099993198.935193,1.5669145584,20.37042077705718,10240.001022367001,1.826,1.838,1.893,1.91
-1.25,1099993198.935193,1.5890740156,22.284351492703042,10244.717803103822,1.727,1.742,1.797,1.814
-1.25,1099993198.935193,1.6000001431,23.334580622810034,10230.573974866691,1.674,1.689,1.743,1.76
-1.25,1099993198.935193,1.6097416878,24.322040090738145,10216.449673558562,1.627,1.642,1.695,1.711
-1.25,1099993198.935193,1.6292648315,26.3633138582538,10160.14719899765,1.527,1.542,1.59,1.604
-1.25,1099993198.935193,1.6494264603,28.773984147356696,10062.36345280598,1.415,1.427,1.466,1.478
-1.25,1099993198.935193,1.6499999762,28.84031503126606,10057.730630017391,1.411,1.423,1.462,1.474
-1.25,1099993198.935193,1.6550346613,29.512092266663856,10029.978451983308,1.382,1.394,1.43,1.441
-1.25,1099993198.935193,1.6731551886,31.988951096913972,9890.084450210657,1.27,1.278,1.3,1.307
-1.25,1099993198.935193,1.6899290085,34.59393778261219,9731.95293592278,1.16,1.162,1.168,1.17
-1.25,1099993198.935193,1.7000000477,36.391503612720705,9644.950431350744,1.09,1.089,1.085,1.085
-1.25,1099993198.935193,1.7102203369,38.459178204535355,9569.736945876579,1.019,1.015,1.003,1.001
-1.25,1099993198.935193,1.7137156725,39.44573020752785,9620.552191862149,0.998,0.998,0.991,0.991
-1.25,1099993198.935193,1.7181192636,41.30475019901615,9853.715068586182,0.981,0.992,1.011,1.017
-1.25,1099993198.935193,1.7193822861,42.65795188015925,10083.237577615504,0.983,1.005,1.046,1.059
-1.25,1099993198.935193,1.7199580669,44.05548635065532,10318.106352675928,0.987,1.018,1.08,1.098
-1.25,1099993198.935193,1.7202510834,45.81418867145335,10541.44142785385,0.986,1.025,1.104,1.128
-1.25,1099993198.935193,1.7204432487,47.86300923226383,10764.65213629835,0.977,1.023,1.119,1.149
-1.25,1099993198.935193,1.7205183506,48.64072056914617,10839.269140212038,0.974,1.023,1.124,1.155
-1.25,1099993198.935193,1.7205433846,47.97334486366892,10789.467222298297,0.979,1.026,1.124,1.154
-1.25,1099993198.935193,1.7206420898,46.025657358135604,10551.154926754916,0.982,1.021,1.101,1.126
-1.25,1099993198.935193,1.7207411528,46.34469197362879,10289.635722967549,0.928,0.96,1.019,1.037
-1.25,1099993198.935193,1.7208875418,48.5288500162121,10009.214583192957,0.829,0.85,0.884,0.895
-1.25,1099993198.935193,1.7210867405,50.5824662003114,9731.95293592278,0.738,0.748,0.755,0.758
-1.25,1099993198.935193,1.7213451862,52.11947111050805,9460.193072899136,0.668,0.665,0.64,0.634
-1.25,1099993198.935193,1.7216662169,53.08844442309885,9191.788016944913,0.613,0.595,0.535,0.519
-1.25,1099993198.935193,1.7220360041,53.826978251628844,8926.88623246788,0.57,0.536,0.436,0.409
-1.25,1099993198.935193,1.7224260569,54.450265284242114,8667.622733900389,0.54,0.487,0.342,0.302
-1.25,1099993198.935193,1.7228072882,54.82769649208539,8413.951416451948,0.525,0.45,0.252,0.197
-1.25,1099993198.935193,1.7231603861,55.08076964054035,8167.704180469861,0.526,0.423,0.167,0.095
-1.25,1099993198.935193,1.723477006,55.207743928075736,7930.489601281983,0.541,0.407,0.086,-0.005
-1.25,1099993198.935193,1.7237561941,55.207743928075736,7703.71131697609,0.571,0.402,0.011,-0.1
-1.25,1099993198.935193,1.724001646,55.207743928075736,7485.141246454854,0.608,0.407,-0.058,-0.193
-1.25,1099993198.935193,1.7242176533,54.954087385762456,7274.44726711485,0.648,0.416,-0.123,-0.282
-1.25,1099993198.935193,1.7244092226,54.70159628939716,7072.94042404576,0.693,0.431,-0.183,-0.368
-1.25,1099993198.935193,1.7245802879,54.450265284242114,6880.183161430384,0.742,0.449,-0.239,-0.451
-1.25,1099993198.935193,1.7247341871,54.0754322945581,6698.846094165266,0.792,0.469,-0.29,-0.529
-1.25,1099993198.935193,1.7248737812,53.57966575133417,6538.8293000474205,0.843,0.49,-0.334,-0.598
-1.25,1099993198.935193,1.7250012159,53.08844442309885,6400.295121083712,0.892,0.512,-0.369,-0.656
-1.25,1099993198.935193,1.7251191139,52.60172663907063,6286.370884130498,0.938,0.535,-0.394,-0.7
-1.25,1099993198.935193,1.7252310514,51.88000389289612,6188.708114190298,0.983,0.559,-0.413,-0.736
-1.25,1099993198.935193,1.7253494263,51.16818355403078,6096.772644572435,1.031,0.585,-0.426,-0.766
-1.25,1099993198.935193,1.725491643,50.003453497697855,6000.673538641165,1.089,0.621,-0.433,-0.79
-1.25,1099993198.935193,1.7256768942,48.19477976251274,5893.862502405809,1.17,0.674,-0.43,-0.81
-1.25,1099993198.935193,1.7259068489,45.60369159512962,5782.291742660339,1.273,0.748,-0.408,-0.811
-1.25,1099993198.935193,1.7261713743,43.151907682776525,5670.221181605434,1.38,0.824,-0.385,-0.811
-1.25,1099993198.935193,1.7263697386,41.87935651179185,5593.7106816169635,1.447,0.869,-0.377,-0.819
-1.25,1099993198.935193,1.7266675234,43.752210515825205,5516.9620938349835,1.433,0.834,-0.451,-0.911
-1.25,1099993198.935193,1.7270389795,47.75292736576909,5450.043893417617,1.37,0.751,-0.569,-1.044
-1.25,1099993198.935193,1.7274091244,52.60172663907063,5406.298239953035,1.285,0.653,-0.689,-1.175
-1.25,1099993198.935193,1.7277783155,57.94286964268809,5371.554667486636,1.196,0.553,-0.807,-1.301
-1.25,1099993198.935193,1.7281461954,63.82634861905486,5341.952229293112,1.105,0.454,-0.922,-1.423
-1.25,1099993198.935193,1.7285131216,70.30723198838334,5314.959995066477,1.015,0.355,-1.036,-1.543
-1.25,1099993198.935193,1.7288788557,77.26805850957021,5289.321920487208,0.925,0.257,-1.147,-1.661
-1.25,1099993198.935193,1.728951931,78.70457896950985,5284.452517751803,0.907,0.237,-1.17,-1.684
-1.25,1099993198.935193,1.7291083336,82.03515443298181,5273.512745624402,0.869,0.196,-1.217,-1.734
-1.25,1099993198.935193,1.7293424606,87.09635899560806,5256.540320069867,0.813,0.134,-1.288,-1.809
-1.25,1099993198.935193,1.7296379805,93.75620069258802,5237.210139231933,0.742,0.058,-1.375,-1.902
-1.25,1099993198.935193,1.7300021648,102.80162981264735,5213.147344399808,0.657,-0.036,-1.483,-2.016
-1.25,1099993198.935193,1.7304538488,115.08003889444356,5183.224264170613,0.553,-0.151,-1.615,-2.155
-1.25,1099993198.935193,1.7308182716,125.60299636948754,5159.409511903314,0.47,-0.242,-1.719,-2.264
-1.25,1099993198.935193,1.7311819792,137.08817661648536,5135.704178483554,0.39,-0.332,-1.822,-2.373
-1.25,1099993198.935193,1.7316074371,151.70503674593368,5108.5776616335625,0.298,-0.435,-1.941,-2.499
-1.25,1099993198.935193,1.7319722176,165.19617982290148,5083.935125244855,0.221,-0.521,-2.042,-2.606
-1.25,1099993198.935193,1.73234272,179.88709151287873,5060.5765651324455,0.144,-0.607,-2.143,-2.712
-1.25,1099993198.935193,1.732712388,195.8844673505989,5036.16557436085,0.069,-0.693,-2.243,-2.819
-1.25,1099993198.935193,1.7330583334,212.32444620002192,5011.872336272725,-0.003,-0.775,-2.339,-2.921
-1.25,1099993198.935193,1.7334623337,233.8837238659356,4984.252094042598,-0.088,-0.871,-2.454,-3.043
-1.25,1099993198.935193,1.7338368893,255.2701302661247,4957.92553906303,-0.163,-0.958,-2.557,-3.153
-1.25,1099993198.935193,1.7340931892,268.5344445658506,4943.106869868354,-0.207,-1.009,-2.618,-3.218
-1.25,1099993198.935193,1.7341367006,239.88329190194898,4978.517063739154,-0.111,-0.897,-2.483,-3.073
-1.25,1099993198.935193,1.7341400385,222.3309890651403,5001.496854402788,-0.046,-0.822,-2.394,-2.978
-1.25,1099993198.935193,1.7341423035,209.89398836235245,5018.801279032415,0.003,-0.766,-2.326,-2.906
-1.25,1099993198.935193,1.7341444492,199.06733389871863,5035.006087879047,0.05,-0.712,-2.262,-2.838
-1.25,1099993198.935193,1.7341476679,184.92686189780778,5058.246620031143,0.115,-0.638,-2.175,-2.745
-1.25,1099993198.935193,1.7341513634,171.79083871575875,5078.085396648894,0.181,-0.563,-2.088,-2.653
-1.25,1099993198.935193,1.7341566086,158.48931924611142,5101.5247738556045,0.253,-0.483,-1.993,-2.552
-1.25,1099993198.935193,1.7341636419,145.8814260275349,5126.252569702836,0.328,-0.398,-1.894,-2.447
-1.25,1099993198.935193,1.7341736555,134.58603540559483,5148.7286014054735,0.402,-0.315,-1.798,-2.345
-1.25,1099993198.935193,1.7341884375,123.59474334445108,5173.685200730607,0.481,-0.227,-1.696,-2.238
-1.25,1099993198.935193,1.7342113256,112.71974561755106,5199.959965335162,0.565,-0.133,-1.588,-2.124
-1.25,1099993198.935193,1.7342469692,102.5651926251408,5226.368167369365,0.652,-0.037,-1.476,-2.006
-1.25,1099993198.935193,1.7343035936,93.3254300796991,5252.910484500485,0.739,0.06,-1.364,-1.887
-1.25,1099993198.935193,1.7343956232,84.527884516029,5282.019497699969,0.83,0.16,-1.249,-1.764
-1.25,1099993198.935193,1.7345672846,79.25013304804718,5301.515066784589,0.892,0.228,-1.169,-1.68
-1.25,1099993198.935193,1.735855937,74.47319739059893,5321.082592667942,0.95,0.292,-1.095,-1.601
-1.25,1099993198.935193,1.7373188734,65.46361740672751,5365.373995198518,1.067,0.423,-0.94,-1.436
-1.25,1099993198.935193,1.7402882576,57.279603098582925,5436.257251684059,1.177,0.555,-0.772,-1.25
-1.25,1099993198.935193,1.7426595688,54.82769649208539,5486.558320717441,1.2,0.593,-0.707,-1.175
-1.25,1099993198.935193,1.7462104559,57.67664633922506,5553.924862434803,1.114,0.527,-0.739,-1.191
-1.25,1099993198.935193,1.7485692501,59.70352865838369,5587.2743899402,1.06,0.483,-0.767,-1.211
-1.25,1099993198.935193,1.75,61.09420249055721,5606.60551647698,1.025,0.454,-0.786,-1.226
-1.25,1099993198.935193,1.7500354052,61.235039172477336,5606.60551647698,1.025,0.453,-0.786,-1.226
-1.25,1099993198.935193,1.7520502806,63.09573444801933,5624.708239741314,0.983,0.417,-0.813,-1.249
-1.25,1099993198.935193,1.7577168941,67.60829753919819,5650.670713353118,0.894,0.336,-0.881,-1.311
-1.25,1099993198.935193,1.7694960833,77.98301105232585,5685.910246988551,0.723,0.176,-1.024,-1.446
-1.25,1099993198.935193,1.7810989618,89.74287945007487,5718.735365066645,0.555,0.018,-1.166,-1.581
-1.25,1099993198.935193,1.791041851,101.15794542598982,5749.101815675034,0.409,-0.118,-1.286,-1.695
-1.25,1099993198.935193,1.7999999523,112.46049739669269,5776.968506969277,0.281,-0.238,-1.392,-1.795
-1.25,1099993198.935193,1.8048443794,118.85022274370189,5792.952933981774,0.213,-0.301,-1.449,-1.848
-1.25,1099993198.935193,1.8151054382,133.3521432163324,5812.9956772538835,0.077,-0.431,-1.568,-1.962
-1.25,1099993198.935193,1.8228257895,143.8798578255845,5766.336732947877,0.013,-0.506,-1.666,-2.07
-1.25,1099993198.935193,1.8310403824,155.23870099580816,5662.3928903825345,-0.023,-0.572,-1.782,-2.209
-1.25,1099993198.935193,1.8330000639,161.4358556826487,5645.468649299897,-0.059,-0.613,-1.831,-2.262
-1.25,1099993198.935193,1.8330612183,161.80800376430662,5645.468649299897,-0.061,-0.615,-1.833,-2.263
-1.25,1099993198.935193,1.834867239,160.69412530128773,5631.1876535486645,-0.047,-0.605,-1.831,-2.265
-1.25,1099993198.935193,1.8373279572,159.95580286146696,5499.206143874975,0.022,-0.575,-1.868,-2.332
-1.25,1099993198.935193,1.8386826515,159.5879147236732,5337.034374568299,0.106,-0.544,-1.922,-2.423
-1.25,1099993198.935193,1.8390225172,170.60823890031244,5244.4506128195335,0.087,-0.596,-2.024,-2.547
-1.25,1099993198.935193,1.8390737772,178.64875748520498,5211.947111050806,0.056,-0.639,-2.085,-2.615
-1.25,1099993198.935193,1.8390886784,184.50154191794738,5196.369200594045,0.03,-0.671,-2.125,-2.66
-1.25,1099993198.935193,1.8391604424,205.58905959841425,5153.472940209034,-0.063,-0.78,-2.259,-2.804
-1.25,1099993198.935193,1.8396962881,209.41124558508935,5147.54319931262,-0.077,-0.797,-2.28,-2.826
-1.25,1099993198.935193,1.8403172493,221.30947096056389,5123.892386646796,-0.122,-0.851,-2.348,-2.9
-1.25,1099993198.935193,1.8407659531,247.74220576332863,5080.424479948444,-0.218,-0.964,-2.487,-3.05
-1.25,1099993198.935193,1.8410608768,273.5268726306711,5044.28945952414,-0.301,-1.062,-2.606,-3.178
-1.25,1099993198.935193,1.8412641287,300.6076302628232,5011.872336272725,-0.379,-1.154,-2.719,-3.299
-1.25,1099993198.935193,1.8414039612,322.84941217126345,4986.547955557967,-0.436,-1.223,-2.805,-3.393
-1.25,1099993198.935193,1.8415368795,346.73685045253166,4954.5019080479005,-0.49,-1.291,-2.894,-3.491
-1.25,1099993198.935193,1.8417379856,385.4783576657717,4903.430227918956,-0.564,-1.388,-3.026,-3.637
-1.25,1099993198.935193,1.8419141769,420.7266283844442,4867.433199621377,-0.629,-1.471,-3.135,-3.757
-1.25,1099993198.935193,1.8420846462,461.31757456037957,4838.380286511588,-0.699,-1.559,-3.243,-3.874
-1.25,1099993198.935193,1.8422459364,504.6612975635282,4808.393484497285,-0.765,-1.648,-3.354,-3.992
-1.25,1099993198.935193,1.8423985243,553.3501092157366,4777.4923465909405,-0.829,-1.738,-3.466,-4.112
-1.25,1099993198.935193,1.8425399065,608.1350012787176,4744.604320607653,-0.889,-1.826,-3.58,-4.233
-1.25,1099993198.935193,1.8426697254,666.8067692136219,4713.027784024217,-0.95,-1.915,-3.693,-4.354
-1.25,1099993198.935193,1.8427892923,731.1390834834173,4681.661397243642,-1.006,-2.002,-3.806,-4.473
-1.25,1099993198.935193,1.8429008722,801.678063387679,4650.503761666063,-1.057,-2.086,-3.918,-4.593
-1.25,1099993198.935193,1.8430070877,881.0488730080137,4619.553487999654,-1.107,-2.17,-4.03,-4.713
-1.25,1099993198.935193,1.8431098461,966.0508789898131,4587.752705471357,-1.152,-2.254,-4.144,-4.834
-1.25,1099993198.935193,1.8432098627,1061.6955571987241,4554.07312683254,-1.193,-2.335,-4.259,-4.958
-1.25,1099993198.935193,1.8433084488,1166.8096170609629,4520.640796485013,-1.242,-2.414,-4.372,-5.082
-1.25,1099993198.935193,1.8434085846,1285.2866599436154,4487.453899331323,-1.293,-2.494,-4.486,-5.209
-1.25,1099993198.935193,1.8435131311,1415.793779957081,4452.459727917414,-1.341,-2.573,-4.602,-5.338
-1.25,1099993198.935193,1.8436328173,1592.20872705117,4409.608164506378,-1.397,-2.666,-4.742,-5.494
-1.25,1099993198.935193,1.8436980247,1725.837891990204,4380.261111703606,-1.433,-2.73,-4.839,-5.603
-1.25,1099993198.935193,1.8437417746,1853.5316234148106,4355.118736855684,-1.461,-2.783,-4.924,-5.698
-1.25,1099993198.935193,1.8437848091,2013.7242498623875,4325.138310350088,-1.488,-2.841,-5.02,-5.806
-1.25,1099993198.935193,1.8438303471,2197.8598727848253,4293.386634704304,-1.517,-2.903,-5.124,-5.924
-1.25,1099993198.935193,1.8438817263,2432.204009073816,4255.004267591057,-1.547,-2.973,-5.244,-6.06
-1.25,1099993198.935193,1.8439208269,2792.543841237339,4203.393032365499,-1.585,-3.064,-5.408,-6.248
-1.25,1099993198.935193,1.8439284563,2897.3435877013244,4189.864710967686,-1.594,-3.088,-5.45,-6.296
-1.25,1099993198.935193,1.843934536,3019.9517204020162,4175.418393198107,-1.605,-3.115,-5.499,-6.351
-1.25,1099993198.935193,1.8439432383,3213.660538640318,4151.451800405685,-1.621,-3.156,-5.573,-6.437
-1.25,1099993198.935193,1.8439577818,2890.6798823654744,4189.864710967686,-1.592,-3.086,-5.448,-6.293
-1.25,1099993198.935193,1.8439580202,2870.780582024692,4192.759966846054,-1.591,-3.082,-5.441,-6.286
-1.25,1099993198.935193,1.8439582586,2864.1779699065796,4193.72549666233,-1.59,-3.079,-5.436,-6.28
-1.25,1099993198.935193,1.843958497,2844.4611074479167,4195.657223387252,-1.588,-3.076,-5.43,-6.273
-1.25,1099993198.935193,1.8439586163,2831.391995799379,4197.589839910078,-1.587,-3.073,-5.425,-6.267
-1.25,1099993198.935193,1.8439587355,2824.8799749157074,4198.556481973773,-1.586,-3.072,-5.423,-6.265
-1.25,1099993198.935193,1.8439588547,2818.382931264455,4199.52334664066,-1.585,-3.069,-5.418,-6.259
-1.25,1099993198.935193,1.8439592123,2798.981319634363,4201.457743989054,-1.584,-3.065,-5.411,-6.252
-1.25,1099993198.935193,1.8439593315,2792.543841237339,4203.393032365499,-1.583,-3.063,-5.407,-6.246
-1.25,1099993198.935193,1.8439594507,2779.7132677592886,4204.36101081749,-1.581,-3.06,-5.402,-6.241
-1.25,1099993198.935193,1.8439604044,2722.701308077913,4212.112867540665,-1.575,-3.046,-5.377,-6.212
-1.25,1099993198.935193,1.8439612389,2666.8586645214805,4219.879016871569,-1.57,-3.033,-5.354,-6.186
-1.25,1099993198.935193,1.8439620733,2618.1830082189863,4226.686142656029,-1.564,-3.02,-5.331,-6.16
-1.25,1099993198.935193,1.8439632654,2552.701302661247,4235.4542988140065,-1.557,-3.003,-5.301,-6.126
-1.25,1099993198.935193,1.8439648151,2460.3676041476274,4249.129820811196,-1.546,-2.978,-5.258,-6.077
-1.25,1099993198.935193,1.8439691067,2228.435149270303,4285.485203974396,-1.517,-2.912,-5.143,-5.946
-1.25,1099993198.935193,1.8439730406,2254.2392121524304,4282.5259178891965,-1.521,-2.92,-5.155,-5.96
-1.25,1099993198.935193,1.8439756632,2409.9054286865953,4257.944535825967,-1.542,-2.966,-5.235,-6.05
-1.25,1099993198.935193,1.8439780474,2570.3957827688646,4234.479161692072,-1.561,-3.009,-5.309,-6.135
-1.25,1099993198.935193,1.8439807892,2735.268726306711,4210.173564456214,-1.577,-3.049,-5.383,-6.22
-1.25,1099993198.935193,1.8439843655,2937.6496519615307,4184.080195674278,-1.596,-3.096,-5.467,-6.316
-1.25,1099993198.935193,1.8439888954,3147.748314101317,4159.106104940223,-1.614,-3.141,-5.548,-6.408
-1.25,1099993198.935193,1.8439946175,3258.367010020087,4145.720317867256,-1.622,-3.163,-5.59,-6.457
-1.25,1099993198.935193,1.8440037966,3435.5794789987463,4125.7223711671995,-1.631,-3.193,-5.65,-6.527
-1.25,1099993198.935193,1.8440196514,4064.4332916521275,4064.4332916521275,-1.66,-3.293,-5.848,-6.755
-1.25,1099993198.935193,1.8440414667,4415.704473533126,4033.6666088992683,-1.662,-3.333,-5.945,-6.868
-1.25,1099993198.935193,1.844042182,4415.704473533126,4033.6666088992683,-1.662,-3.333,-5.945,-6.868
-1.25,1099993198.935193,1.8440431356,3681.289736425313,4098.264649809825,-1.643,-3.234,-5.732,-6.622
-1.25,1099993198.935193,1.8440436125,3273.406948788383,4140.950127434679,-1.615,-3.161,-5.594,-6.463
-1.25,1099993198.935193,1.8440457582,1995.2623149688789,4323.146969108837,-1.474,-2.83,-5.012,-5.8
-1.25,1099993198.935193,1.8440488577,1778.2794100389228,4366.163552976836,-1.435,-2.747,-4.874,-5.644
-1.25,1099993198.935193,1.8440531492,1963.3602768360474,4328.127042202217,-1.467,-2.817,-4.992,-5.777
-1.25,1099993198.935193,1.8440586329,2558.585886905645,4228.63305181499,-1.546,-2.999,-5.308,-6.136
-1.25,1099993198.935193,1.8440653086,3341.950400261143,4131.426206427586,-1.614,-3.17,-5.619,-6.492
-1.25,1099993198.935193,1.8440732956,4008.6671762730302,4065.3692697573383,-1.647,-3.277,-5.831,-6.737
-1.25,1099993198.935193,1.8440825939,4395.416154378243,4030.881212870604,-1.651,-3.324,-5.94,-6.864
-1.25,1099993198.935193,1.8440932035,4570.881896148751,4016.058219411669,-1.651,-3.342,-5.985,-6.917
-1.25,1099993198.935193,1.8441051245,4645.152752227492,4008.6671762730302,-1.648,-3.348,-6.005,-6.94
-1.25,1099993198.935193,1.8441056013,4560.369159512959,4016.058219411669,-1.646,-3.338,-5.981,-6.913
-1.25,1099993198.935193,1.8441072702,3499.451670283573,4108.6580701062485,-1.614,-3.193,-5.675,-6.559
-1.25,1099993198.935193,1.8441103697,2147.8304741305333,4286.472087023835,-1.482,-2.873,-5.102,-5.905
-1.25,1099993198.935193,1.8441151381,1914.255925021086,4329.123745028265,-1.445,-2.792,-4.966,-5.75
-1.25,1099993198.935193,1.8441214561,2123.2444620002193,4289.434099967818,-1.476,-2.864,-5.088,-5.89
-1.25,1099993198.935193,1.8441295624,2773.320104651841,4189.864710967686,-1.551,-3.043,-5.404,-6.25
-1.25,1099993198.935193,1.8441394567,3614.0986263961313,4093.5490632955944,-1.613,-3.209,-5.713,-6.606
-1.25,1099993198.935193,1.8441512585,4345.102241715715,4026.243159764701,-1.629,-3.305,-5.928,-6.854
-1.25,1099993198.935193,1.8441649675,4797.334486366892,3990.2490236214207,-1.632,-3.354,-6.044,-6.989
-1.25,1099993198.935193,1.844180584,5035.006087879047,3971.915494694405,-1.629,-3.374,-6.098,-7.053
-1.25,1099993198.935193,1.8441983461,5164.163692720711,3960.955834906334,-1.625,-3.384,-6.129,-7.09
-1.25,1099993198.935193,1.844198823,5188.000389289609,3959.1321672816603,-1.624,-3.385,-6.134,-7.096
-1.25,1099993198.935193,1.8442006111,3999.4474976109736,4050.419451364931,-1.608,-3.254,-5.832,-6.746
-1.25,1099993198.935193,1.8442040682,2471.724145016129,4223.767459498086,-1.501,-2.957,-5.27,-6.101
-1.25,1099993198.935193,1.844209075,2192.80493535045,4267.7601117035365,-1.466,-2.876,-5.129,-5.94
-1.25,1099993198.935193,1.8442158699,2426.6100950824143,4228.63305181499,-1.492,-2.942,-5.249,-6.077
-1.25,1099993198.935193,1.8442245722,3140.5086938762165,4132.377611997572,-1.556,-3.107,-5.551,-6.425
-1.25,1099993198.935193,1.844235301,4045.7589169744288,4038.313213488514,-1.59,-3.249,-5.846,-6.766
-1.25,1099993198.935193,1.8442479372,4808.393484497285,3974.660144576364,-1.593,-3.332,-6.048,-7.002
-1.25,1099993198.935193,1.8442627192,5272.298614228227,3939.1271544686583,-1.588,-3.371,-6.155,-7.128
-1.25,1099993198.935193,1.8442795277,5495.408738576249,3921.931463326502,-1.581,-3.385,-6.203,-7.185
-1.25,1099993198.935193,1.8442986012,5623.413251903491,3912.01039387351,-1.575,-3.391,-6.229,-7.217
-1.25,1099993198.935193,1.844299078,5794.286964268809,3900.317844750656,-1.998,-3.654,-6.281,-7.224
-1.25,1099993198.935193,1.8443006277,4487.453899331323,3992.087024388079,-1.917,-3.493,-5.985,-6.885
-1.25,1099993198.935193,1.8443034887,2805.433637951713,4166.774522219098,-1.717,-3.161,-5.432,-6.257
-1.25,1099993198.935193,1.8443078995,2471.724145016129,4214.053063912862,-1.652,-3.065,-5.284,-6.09
-1.25,1099993198.935193,1.8443137407,2735.268726306711,4173.495984653169,-1.701,-3.14,-5.404,-6.227
-1.25,1099993198.935193,1.8443212509,3507.5187395256794,4072.8648582724245,-1.817,-3.32,-5.697,-6.562
-1.25,1099993198.935193,1.84433043,4477.133041763624,3974.660144576364,-1.886,-3.47,-5.983,-6.891
-1.25,1099993198.935193,1.8443413973,5284.452517751803,3903.9118250765996,-1.919,-3.562,-6.178,-7.119
-1.25,1099993198.935193,1.8443541527,5780.960474057181,3861.0017636183584,-1.925,-3.602,-6.281,-7.244
-1.25,1099993198.935193,1.8443686962,6025.595860743575,3834.4228144309195,-1.915,-3.612,-6.33,-7.306
-1.25,1099993198.935193,1.8443851471,6165.9500186148225,3814.169596669385,-1.894,-3.608,-6.358,-7.345
-1.25,1099993198.935193,1.8443856239,6501.296903430909,3791.4034418330666,-1.906,-3.637,-6.42,-7.419
-1.25,1099993198.935193,1.8443870544,5058.246620031143,3892.2434816444134,-1.859,-3.504,-6.131,-7.079
-1.25,1099993198.935193,1.8443899155,3176.8740706497692,4086.9563562815833,-1.735,-3.226,-5.586,-6.445
-1.25,1099993198.935193,1.844394207,2792.543841237339,4141.903726221008,-1.679,-3.136,-5.433,-6.269
-1.25,1099993198.935193,1.8444000483,3090.295432513592,4094.4917463268844,-1.716,-3.202,-5.553,-6.409
-1.25,1099993198.935193,1.8444074392,3935.5007545577764,3983.8226824883504,-1.78,-3.346,-5.839,-6.744
-1.25,1099993198.935193,1.8444163799,4965.923214503363,3876.144867002412,-1.811,-3.464,-6.112,-7.069
-1.25,1099993198.935193,1.844427228,5821.032177708716,3797.519389713327,-1.815,-3.53,-6.297,-7.293
-1.25,1099993198.935193,1.8444397449,6338.69711256927,3748.8667146053936,-1.797,-3.551,-6.394,-7.417
-1.25,1099993198.935193,1.8444540501,6591.738952443213,3717.9196520448604,-1.771,-3.548,-6.44,-7.481
-1.25,1099993198.935193,1.8444701433,6745.280276979222,3690.6256858412085,-1.736,-3.533,-6.466,-7.523
-1.25,1099993198.935193,1.8444705009,7277.798045368242,3656.789826173249,-1.741,-3.563,-6.551,-7.628
-1.25,1099993198.935193,1.8444720507,5688.529308438413,3766.1706971416666,-1.73,-3.462,-6.273,-7.287
-1.25,1099993198.935193,1.8444747925,3597.4933515574235,3979.2387763422494,-1.687,-3.247,-5.741,-6.649
-1.25,1099993198.935193,1.8444788456,3140.5086938762165,4042.034350795005,-1.657,-3.17,-5.581,-6.461
-1.25,1099993198.935193,1.8444843292,3475.3616144320576,3988.4118690905275,-1.668,-3.22,-5.7,-6.604
-1.25,1099993198.935193,1.8444913626,4385.306977749856,3868.120546330521,-1.679,-3.325,-5.976,-6.937
-1.25,1099993198.935193,1.8445000648,5470.159628939716,3753.185242379138,-1.668,-3.405,-6.233,-7.255
-1.25,1099993198.935193,1.8445103168,6367.955209079156,3670.2867848109704,-1.636,-3.442,-6.404,-7.473
-1.25,1099993198.935193,1.8445222378,6886.522963442762,3617.4288676421797,-1.608,-3.449,-6.491,-7.593
-1.25,1099993198.935193,1.8445359468,7144.963260755135,3581.789013481115,-1.578,-3.435,-6.529,-7.654
-1.25,1099993198.935193,1.8445513248,7294.575102545687,3550.5857031262385,-1.537,-3.41,-6.549,-7.696
-1.25,1099993198.935193,1.8445516825,8035.261221856169,3504.2896826443844,-1.548,-3.443,-6.653,-7.831
-1.25,1099993198.935193,1.844553113,6295.061828571975,3619.928562242391,-1.515,-3.354,-6.394,-7.495
-1.25,1099993198.935193,1.8445556164,4017.9081084894,3843.2620719095157,-1.548,-3.202,-5.883,-6.858
-1.25,1099993198.935193,1.8445594311,3491.4031547858626,3913.812356122119,-1.542,-3.141,-5.719,-6.659
-1.25,1099993198.935193,1.8445645571,3854.783576657717,3857.447286724761,-1.534,-3.176,-5.835,-6.804
-1.25,1099993198.935193,1.8445711136,4830.5880203977285,3735.0807894306217,-1.51,-3.249,-6.096,-7.129
-1.25,1099993198.935193,1.8445791006,5970.352865838366,3620.762177566733,-1.464,-3.299,-6.335,-7.435
-1.25,1099993198.935193,1.8445887566,6886.522963442762,3539.9734108343464,-1.453,-3.331,-6.487,-7.641
-1.25,1099993198.935193,1.844599843,7430.191378967013,3489.7956743787454,-1.432,-3.334,-6.566,-7.754
-1.25,1099993198.935193,1.8446125984,7673.614893618185,3456.209025701263,-1.399,-3.318,-6.601,-7.812
-1.25,1099993198.935193,1.8446269035,7816.278045883293,3426.888704327863,-1.351,-3.287,-6.622,-7.851
-1.25,1099993198.935193,1.8446272612,8790.225168308842,3370.5439929348295,-1.324,-3.309,-6.755,-8.019
-1.25,1099993198.935193,1.8446285725,6918.309709189362,3483.3731503601166,-1.343,-3.248,-6.49,-7.682
-1.25,1099993198.935193,1.8446308374,4446.312674691088,3703.39469397536,-1.364,-3.117,-6.007,-7.059
-1.25,1099993198.935193,1.8446344137,3845.9178204535356,3775.72190925416,-1.375,-3.068,-5.842,-6.854
-1.25,1099993198.935193,1.8446391821,4246.19563946313,3719.632211619559,-1.354,-3.092,-5.955,-6.998
-1.25,1099993198.935193,1.8446452618,5272.298614228227,3599.979270433565,-1.299,-3.138,-6.198,-7.313
-1.25,1099993198.935193,1.8446527719,6471.426157485831,3488.9922117346073,-1.28,-3.183,-6.416,-7.604
-1.25,1099993198.935193,1.8446615934,7413.102413009177,3411.9291162192844,-1.263,-3.205,-6.563,-7.802
-1.25,1099993198.935193,1.8446719646,7943.282347242814,3365.115693754908,-1.215,-3.194,-6.641,-7.91
-1.25,1099993198.935193,1.8446837664,8203.515443298185,3336.56815138526,-1.17,-3.174,-6.674,-7.963
-1.25,1099993198.935193,1.8446971178,8336.81184619634,3313.599377790872,-1.127,-3.148,-6.692,-7.997
-1.25,1099993198.935193,1.8446974754,9571.94071294844,3244.8901566053664,-1.083,-3.166,-6.845,-8.192
-1.25,1099993198.935193,1.8446985483,7568.328950209744,3359.69613691214,-1.154,-3.134,-6.587,-7.86
-1.25,1099993198.935193,1.8447008133,4897.7881936844615,3585.9150751717484,-1.196,-3.037,-6.116,-7.24
-1.25,1099993198.935193,1.8447040319,4207.266283844442,3666.9078820369723,-1.234,-3.007,-5.949,-7.023
-1.25,1099993198.935193,1.8447084427,4645.152752227492,3609.940135864167,-1.201,-3.021,-6.057,-7.166
-1.25,1099993198.935193,1.8447140455,5727.960309858292,3489.7956743787454,-1.149,-3.052,-6.283,-7.471
-1.25,1099993198.935193,1.8447208405,6950.243175887969,3378.313899290581,-1.12,-3.08,-6.493,-7.754
-1.25,1099993198.935193,1.8447290659,7888.601176185541,3301.4140864591145,-1.045,-3.071,-6.631,-7.943
-1.25,1099993198.935193,1.8447384834,8413.951416451948,3257.616829660631,-0.992,-3.057,-6.703,-8.043
-1.25,1099993198.935193,1.8447493315,8669.61875758217,3233.7020353739117,-0.955,-3.04,-6.734,-8.089
-1.25,1099993198.935193,1.84476161,8790.225168308842,3217.3625326955976,-0.929,-3.027,-6.751,-8.115
-1.25,1099993198.935193,1.8447618484,10303.861204416158,3126.799256376112,-0.851,-3.029,-6.936,-8.348
-1.25,1099993198.935193,1.8447629213,8165.823713585923,3259.1173631348456,-0.966,-3.028,-6.669,-8.008
-1.25,1099993198.935193,1.8447649479,5321.082592667942,3517.223773787032,-1.127,-3.016,-6.206,-7.375
-1.25,1099993198.935193,1.8447679281,4560.369159512959,3614.9308991735757,-1.188,-3.007,-6.037,-7.143
-1.25,1099993198.935193,1.844771862,5023.4258952238715,3550.5857031262385,-1.132,-3.004,-6.143,-7.29
-1.25,1099993198.935193,1.844776988,6137.620051647939,3422.1575515373916,-1.084,-3.019,-6.358,-7.592
-1.25,1099993198.935193,1.8447833061,7379.042301291008,3307.5011205925434,-0.992,-3.011,-6.558,-7.868
-1.25,1099993198.935193,1.8447906971,8336.81184619634,3232.2132033960884,-0.91,-2.996,-6.692,-8.048
-1.25,1099993198.935193,1.8447993994,8851.156098308356,3190.0684359752117,-0.861,-2.983,-6.762,-8.141
-1.25,1099993198.935193,1.8448092937,9078.205301781862,3165.920463432239,-0.819,-2.964,-6.793,-8.186
-1.25,1099993198.935193,1.8448204994,9204.495717531712,3145.5746774318936,-0.778,-2.94,-6.81,-8.213
-1.25,1099993198.935193,1.8448207378,11066.237839776653,3044.3879900225406,-0.701,-2.948,-7.019,-8.464
-1.25,1099993198.935193,1.8448218107,8749.837752274363,3171.757679067707,-0.799,-2.937,-6.752,-8.141
-1.25,1099993198.935193,1.8448235989,5754.399373371566,3412.7148323868673,-0.992,-2.932,-6.286,-7.526
-1.25,1099993198.935193,1.8448263407,4897.7881936844615,3506.711196464777,-1.013,-2.908,-6.114,-7.291
-1.25,1099993198.935193,1.8448301554,5395.1062251512785,3441.9138826842905,-0.984,-2.91,-6.216,-7.437
-1.25,1099993198.935193,1.8448349237,6561.452663029057,3318.180448272474,-0.899,-2.905,-6.428,-7.73
-1.25,1099993198.935193,1.844840765,7816.278045883293,3208.484902035953,-0.782,-2.885,-6.624,-7.993
-1.25,1099993198.935193,1.8448476791,8770.008211436349,3134.007273083861,-0.695,-2.866,-6.757,-8.166
-1.25,1099993198.935193,1.8448557854,9289.663867799363,3089.5839476098754,-0.64,-2.846,-6.824,-8.256
-1.25,1099993198.935193,1.8448650837,9506.04793656282,3059.1445594864085,-0.579,-2.812,-6.853,-8.293
-1.25,1099993198.935193,1.8448755741,9638.290236239705,3032.494347329631,-0.516,-2.772,-6.867,-8.317
-1.25,1099993198.935193,1.8448758125,11857.687481671597,2922.8060659319312,-0.423,-2.779,-7.109,-8.584
-1.25,1099993198.935193,1.8448767662,9375.620069258803,3040.88502567628,-0.511,-2.76,-6.838,-8.285
-1.25,1099993198.935193,1.8448784351,6208.690342300638,3259.8678890446836,-0.685,-2.737,-6.368,-7.708
-1.25,1099993198.935193,1.8448809385,5260.172663907063,3345.8001785330107,-0.748,-2.723,-6.186,-7.471
-1.25,1099993198.935193,1.8448843956,5794.286964268809,3276.4232568537846,-0.661,-2.695,-6.291,-7.621
-1.25,1099993198.935193,1.8448888063,6998.419960022738,3153.5520245507173,-0.52,-2.665,-6.506,-7.907
-1.25,1099993198.935193,1.8448941708,8260.379495771784,3044.3879900225406,-0.393,-2.634,-6.699,-8.146
-1.25,1099993198.935193,1.8449004889,9204.495717531712,2970.297844017863,-0.293,-2.603,-6.825,-8.29
-1.25,1099993198.935193,1.8449078798,9705.099672454899,2928.8693550290154,-0.23,-2.577,-6.889,-8.363
-1.25,1099993198.935193,1.8449164629,9931.160484209335,2908.707160207584,-0.195,-2.561,-6.919,-8.396
-1.25,1099993198.935193,1.8449259996,10069.316688518044,2902.017319380225,-0.184,-2.559,-6.933,-8.412
-1.25,1099993198.935193,1.8449262381,12705.74105208542,2762.4854546315764,-0.087,-2.573,-7.222,-8.697
-1.25,1099993198.935193,1.8449270725,10023.052380779005,2860.8823606272076,-0.074,-2.481,-6.938,-8.42
-1.25,1099993198.935193,1.8449286222,6683.439175686149,3043.6870744812113,-0.173,-2.408,-6.465,-7.913
-1.25,1099993198.935193,1.8449310064,5610.479760324706,3074.680545939635,-0.094,-2.29,-6.271,-7.71
-1.25,1099993198.935193,1.8449341059,6165.9500186148225,2923.4791443876893,0.219,-2.103,-6.389,-7.866
-1.25,1099993198.935193,1.844938159,7362.070974947361,2718.316366861065,0.548,-1.943,-6.634,-8.102
-1.25,1099993198.935193,1.8449431658,8609.937521846008,2540.387692316677,0.653,-1.929,-6.839,-8.269
-1.25,1099993198.935193,1.844949007,9484.184633008968,2421.5865734606236,0.55,-2.032,-6.944,-8.374
-1.25,1099993198.935193,1.844955802,9908.319448927676,2371.373705661655,0.502,-2.081,-6.993,-8.423
-1.25,1099993198.935193,1.8449636698,10069.316688518044,2396.624529408638,0.485,-2.098,-7.01,-8.44
-1.25,1099993198.935193,1.8449724913,10115.794542598982,2510.7299313735184,0.48,-2.102,-7.014,-8.444
