FeH,Age,Mini,L,Te,Bmag,Vmag,Jmag,Kmag
-0.25,2000000019.9681082,0.0900000036,0.00042266861426560286,2424.3761335250756,19.833,17.925,11.092,10.28
-0.25,2000000019.9681082,0.0904161334,0.000431519076827765,2431.644037875914,19.81,17.903,11.071,10.258
-0.25,2000000019.9681082,0.092775546,0.0004819477976251271,2471.1550750182187,19.684,17.778,10.952,10.138
-0.25,2000000019.9681082,0.1000000015,0.0006668067692136219,2590.5978454758697,19.309,17.411,10.6,9.782
-0.25,2000000019.9681082,0.1200000048,0.001224616199265049,2793.830151362531,17.579,15.803,10.017,9.165
-0.25,2000000019.9681082,0.1400000006,0.0018663796908346695,2921.4603738773317,16.481,14.771,9.611,8.748
-0.25,2000000019.9681082,0.1599999964,0.0025882129151530904,3013.699874341145,15.717,14.05,9.291,8.426
-0.25,2000000019.9681082,0.1975294203,0.004139996748197304,3135.4508691442925,14.739,13.117,8.83,7.967
-0.25,2000000019.9681082,0.200000003,0.0042559841313374305,3142.678829879227,14.684,13.065,8.802,7.94
-0.25,2000000019.9681082,0.25,0.006729766562843175,3252.370400952974,13.846,12.272,8.342,7.485
-0.25,2000000019.9681082,0.3254068196,0.011748975549395297,3368.2165076063116,12.947,11.42,7.777,6.923
-0.25,2000000019.9681082,0.3411625624,0.013182567385564075,3388.441561392024,12.773,11.256,7.657,6.803
-0.25,2000000019.9681082,0.3500000536,0.013963683610559377,3400.9480651219096,12.684,11.172,7.6,6.745
-0.25,2000000019.9681082,0.3874128163,0.018113400926196024,3466.5702053333894,12.266,10.779,7.339,6.485
-0.25,2000000019.9681082,0.4000000358,0.019633602768360466,3488.188934073285,12.139,10.659,7.259,6.405
-0.25,2000000019.9681082,0.4179464579,0.022490546058357815,3529.3928374635293,11.917,10.451,7.126,6.271
-0.25,2000000019.9681082,0.4500000179,0.028248799749157075,3597.4933515574235,11.55,10.104,6.901,6.045
-0.25,2000000019.9681082,0.5,0.04139996748197304,3741.9674033666447,10.912,9.499,6.535,5.68
-0.25,2000000019.9681082,0.5500000119,0.061517687270986804,3929.1625861305615,10.229,8.867,6.161,5.313
-0.25,2000000019.9681082,0.5788664222,0.07762471166286916,4069.115338091966,9.806,8.495,5.947,5.112
-0.25,2000000019.9681082,0.6000000238,0.09120108393559097,4170.614031267226,9.508,8.237,5.795,4.974
-0.25,2000000019.9681082,0.6389215589,0.1233104833228909,4395.416154378243,8.887,7.726,5.523,4.751
-0.25,2000000019.9681082,0.6499999762,0.1339676687425935,4459.642031793193,8.711,7.584,5.45,4.696
-0.25,2000000019.9681082,0.7000001073,0.1927524913190936,4759.923796672499,7.956,6.975,5.142,4.488
-0.25,2000000019.9681082,0.725810349,0.23014418174085083,4907.948534495558,7.624,6.702,4.992,4.386
-0.25,2000000019.9681082,0.75,0.2703958364108844,5045.4510838273745,7.336,6.463,4.86,4.296
-0.25,2000000019.9681082,0.7983130813,0.3664375746478333,5290.539972095819,6.837,6.043,4.606,4.107
-0.25,2000000019.9681082,0.8341582417,0.45498806015004856,5461.349875057235,6.503,5.761,4.426,3.968
-0.25,2000000019.9681082,0.8466261625,0.4897788193684462,5520.774392807573,6.391,5.667,4.365,3.921
-0.25,2000000019.9681082,0.8694239855,0.5597576014951101,5620.824170602134,6.196,5.502,4.256,3.834
-0.25,2000000019.9681082,0.8949391842,0.6486344335482384,5731.918411587632,5.988,5.325,4.136,3.736
-0.25,2000000019.9681082,0.9075428843,0.6950243175887968,5782.291742660339,5.889,5.241,4.076,3.687
-0.25,2000000019.9681082,0.9432522058,0.8472274141405964,5922.430868761306,5.615,5.009,3.912,3.55
-0.25,2000000019.9681082,0.9476444721,0.8689604292863018,5938.817778927777,5.582,4.981,3.892,3.533
-0.25,2000000019.9681082,0.9851784706,1.0641430182243161,6072.954118270236,5.308,4.748,3.721,3.387
-0.25,2000000019.9681082,0.9915652275,1.101539309541415,6095.368972401694,5.262,4.709,3.692,3.362
-0.25,2000000019.9681082,1.0072546005,1.1994993031493788,6147.520703193109,5.152,4.614,3.62,3.299
-0.25,2000000019.9681082,1.0398783684,1.4256075936021881,6251.726927756856,4.929,4.42,3.47,3.167
-0.25,2000000019.9681082,1.0593619347,1.5776112696993487,6312.479779910386,4.799,4.307,3.382,3.088
-0.25,2000000019.9681082,1.0826203823,1.7782794100389228,6382.634861905489,4.648,4.174,3.277,2.995
-0.25,2000000019.9681082,1.0881915092,1.8281002161427427,6400.295121083712,4.612,4.142,3.252,2.972
-0.25,2000000019.9681082,1.0893589258,1.8365383433483464,6403.24324468947,4.604,4.136,3.247,2.968
-0.25,2000000019.9681082,1.115183115,2.0941124558508926,6480.372941922908,4.439,3.991,3.133,2.865
-0.25,2000000019.9681082,1.1365044117,2.328091257665008,6540.335094488948,4.306,3.872,3.038,2.779
-0.25,2000000019.9681082,1.1388682127,2.3550492838960095,6547.869269722528,4.292,3.859,3.028,2.77
-0.25,2000000019.9681082,1.1646130085,2.673006408663311,6620.640402704609,4.135,3.719,2.916,2.669
-0.25,2000000019.9681082,1.1848175526,2.944421633798761,6674.212038584765,4.014,3.61,2.828,2.589
-0.25,2000000019.9681082,1.2195278406,3.451437393358563,6760.829753919818,3.818,3.432,2.684,2.458
-0.25,2000000019.9681082,1.233130455,3.672823004980846,6790.472582051879,3.744,3.365,2.628,2.406
-0.25,2000000019.9681082,1.2723054886,4.345102241715716,6872.266615842488,3.541,3.178,2.473,2.263
-0.25,2000000019.9681082,1.2814434767,4.508167045414602,6889.695054811368,3.495,3.135,2.437,2.229
-0.25,2000000019.9681082,1.2824463844,4.528975799036208,6891.281648380538,3.49,3.131,2.433,2.226
-0.25,2000000019.9681082,1.3297567368,5.495408738576246,6958.249547006049,3.262,2.916,2.245,2.047
-0.25,2000000019.9681082,1.3607391119,6.237348354824193,6993.587292116927,3.114,2.776,2.12,1.926
-0.25,2000000019.9681082,1.3780696392,6.698846094165264,7006.481828654113,3.033,2.698,2.047,1.855
-0.25,2000000019.9681082,1.3939093351,7.144963260755133,7019.400139695796,2.958,2.626,1.98,1.791
-0.25,2000000019.9681082,1.4235506058,8.072350302488383,7024.250644645007,2.822,2.492,1.85,1.661
-0.25,2000000019.9681082,1.4263827801,8.165823713585924,7022.633437357637,2.809,2.479,1.837,1.648
-0.25,2000000019.9681082,1.440464735,8.649679187756934,7009.709175843827,2.748,2.416,1.77,1.58
-0.25,2000000019.9681082,1.4635726213,9.48418463300897,6963.057796029315,2.654,2.315,1.654,1.458
-0.25,2000000019.9681082,1.4746959209,9.908319448927676,6932.6615720512,2.611,2.268,1.595,1.396
-0.25,2000000019.9681082,1.4828925133,10.232929922807541,6902.398038402419,2.582,2.234,1.551,1.348
-0.25,2000000019.9681082,1.4996483326,10.889300933334333,6826.529950876831,2.529,2.168,1.457,1.244
-0.25,2000000019.9681082,1.5171864033,11.614486138403427,6722.02309111567,2.482,2.101,1.352,1.125
-0.25,2000000019.9681082,1.5230088234,11.857687481671602,6684.978271615899,2.468,2.08,1.317,1.085
-0.25,2000000019.9681082,1.5350334644,12.387965865303691,6608.455958120293,2.44,2.037,1.245,1.002
-0.25,2000000019.9681082,1.5511448383,13.152248321922384,6501.296903430909,2.403,1.977,1.144,0.885
-0.25,2000000019.9681082,1.5656112432,14.060475241299136,6429.8375410824665,2.35,1.907,1.045,0.776
-0.25,2000000019.9681082,1.5713219643,15.488166189124811,6556.921737208478,2.207,1.795,0.986,0.736
-0.25,2000000019.9681082,1.5720773935,15.667510701081493,6573.550444548967,2.188,1.781,0.978,0.731
-0.25,2000000019.9681082,1.5731115341,16.595869074375607,6706.562867022775,2.089,1.709,0.959,0.732
-0.25,2000000019.9681082,1.5735007524,17.538805018417612,6848.571591258556,1.994,1.643,0.948,0.74
-0.25,2000000019.9681082,1.5737123489,18.620871366628677,7003.255967370536,1.892,1.569,0.934,0.747
-0.25,2000000019.9681082,1.5738303661,19.543394557753942,7120.327999992026,1.815,1.513,0.921,0.75
-0.25,2000000019.9681082,1.5738757849,19.81527025805098,7161.43410212902,1.789,1.495,0.918,0.752
-0.25,2000000019.9681082,1.5739716291,18.113400926196025,6995.197810512134,1.926,1.602,0.962,0.774
-0.25,2000000019.9681082,1.574023366,17.418068733916144,6854.882264526614,1.999,1.649,0.956,0.749
-0.25,2000000019.9681082,1.5740973949,17.498466886246575,6698.846094165266,2.031,1.651,0.899,0.67
-0.25,2000000019.9681082,1.5742001534,17.947336268325266,6556.921737208478,2.041,1.631,0.824,0.575
-0.25,2000000019.9681082,1.5743547678,18.281002161427427,6426.877173170194,2.061,1.62,0.76,0.491
-0.25,2000000019.9681082,1.5746133327,18.365383433483466,6287.818541180465,2.101,1.625,0.707,0.416
-0.25,2000000019.9681082,1.5750230551,18.113400926196025,6148.936385126267,2.167,1.652,0.674,0.359
-0.25,2000000019.9681082,1.5755767822,17.498466886246575,6007.586047756748,2.26,1.703,0.661,0.319
-0.25,2000000019.9681082,1.5762243271,16.443717232149314,5865.431942902653,2.39,1.789,0.677,0.307
-0.25,2000000019.9681082,1.5767190456,15.417004529495593,5757.049982493285,2.506,1.873,0.71,0.318
-0.25,2000000019.9681082,1.5771692991,14.35489433353656,5655.877570891539,2.632,1.968,0.754,0.34
-0.25,2000000019.9681082,1.5775690079,13.458603540559483,5562.883949883727,2.747,2.057,0.794,0.359
-0.25,2000000019.9681082,1.5780969858,12.647363474711517,5446.280436471701,2.875,2.15,0.824,0.361
-0.25,2000000019.9681082,1.5787545443,12.618275345906707,5322.307958283607,2.945,2.182,0.786,0.294
-0.25,2000000019.9681082,1.5788857937,12.735030810166617,5301.515066784589,2.946,2.177,0.769,0.272
-0.25,2000000019.9681082,1.5792946815,13.489628825916533,5249.283155466852,2.914,2.128,0.689,0.178
-0.25,2000000019.9681082,1.5798127651,14.825180851459537,5193.976735070076,2.847,2.042,0.57,0.044
-0.25,2000000019.9681082,1.5802599192,16.29296032639722,5155.846748750552,2.769,1.951,0.455,-0.081
-0.25,2000000019.9681082,1.5806773901,17.906058540352937,5123.892386646796,2.687,1.859,0.343,-0.201
-0.25,2000000019.9681082,1.5810806751,19.67886289706845,5095.65480608114,2.605,1.766,0.232,-0.319
-0.25,2000000019.9681082,1.5814739466,21.57744409152667,5069.907082747044,2.521,1.674,0.123,-0.435
-0.25,2000000019.9681082,1.5819587708,24.210290467361776,5037.3253278550155,2.417,1.559,-0.012,-0.58
-0.25,2000000019.9681082,1.5823432207,26.54605561975539,5011.872336272725,2.334,1.467,-0.12,-0.694
-0.25,2000000019.9681082,1.582726717,29.10717118066605,4985.3998926398735,2.256,1.378,-0.227,-0.809
-0.25,2000000019.9681082,1.5832051039,32.58367010020087,4954.5019080479005,2.159,1.268,-0.359,-0.95
-0.25,2000000019.9681082,1.5836771727,36.391503612720705,4924.929296050273,2.064,1.161,-0.488,-1.088
-0.25,2000000019.9681082,1.5840939283,40.08667176273028,4897.7881936844615,1.981,1.066,-0.601,-1.21
-0.25,2000000019.9681082,1.5845263004,44.36086439314325,4868.554096577112,1.894,0.968,-0.721,-1.338
-0.25,2000000019.9681082,1.5849121809,48.64072056914617,4842.83865227851,1.816,0.88,-0.828,-1.454
-0.25,2000000019.9681082,1.5852909088,53.33348954876211,4815.041116556669,1.738,0.791,-0.937,-1.571
-0.25,2000000019.9681082,1.585670352,58.74893525297766,4787.4031366341615,1.658,0.7,-1.049,-1.692
-0.25,2000000019.9681082,1.5860562325,64.86344335482384,4756.636893186042,1.577,0.606,-1.166,-1.82
-0.25,2000000019.9681082,1.5863958597,71.12135136533291,4729.334149186516,1.508,0.522,-1.273,-1.935
-0.25,2000000019.9681082,1.5867540836,78.16278045883297,4700.023181798009,1.436,0.435,-1.384,-2.055
-0.25,2000000019.9681082,1.5870966911,85.11380382023764,4674.121528671508,1.371,0.355,-1.486,-2.165
-0.25,2000000019.9681082,1.5875030756,93.3254300796991,4645.152752227492,1.304,0.272,-1.594,-2.283
-0.25,2000000019.9681082,1.5880130529,101.85913880541169,4618.489918952487,1.24,0.193,-1.695,-2.393
-0.25,2000000019.9681082,1.5883851051,106.16955571987242,4606.806808300934,1.209,0.155,-1.744,-2.446
-0.25,2000000019.9681082,1.5888127089,97.49896377173872,4634.46919736288,1.268,0.23,-1.646,-2.338
-0.25,2000000019.9681082,1.5890002251,90.36494737223013,4659.078201101275,1.322,0.298,-1.556,-2.24
-0.25,2000000019.9681082,1.589146018,82.7942163712334,4687.05446301803,1.386,0.377,-1.452,-2.127
-0.25,2000000019.9681082,1.5893013477,74.30191378967014,4722.804843922316,1.468,0.478,-1.322,-1.986
-0.25,2000000019.9681082,1.5894263983,67.92036326171846,4751.163763775616,1.534,0.559,-1.217,-1.872
-0.25,2000000019.9681082,1.5895652771,62.08690342300634,4780.793661491186,1.603,0.643,-1.11,-1.755
-0.25,2000000019.9681082,1.5897901058,55.46257129579107,4816.14994840047,1.694,0.748,-0.979,-1.613
-0.25,2000000019.9681082,1.5898172855,54.954087385762456,4819.477976251272,1.702,0.757,-0.967,-1.6
-0.25,2000000019.9681082,1.5901834965,60.11737374832779,4792.918012190856,1.628,0.672,-1.073,-1.714
-0.25,2000000019.9681082,1.5906482935,66.68067692136222,4761.019935823142,1.545,0.575,-1.195,-1.846
-0.25,2000000019.9681082,1.5911501646,73.79042301291011,4729.334149186516,1.467,0.481,-1.314,-1.976
-0.25,2000000019.9681082,1.5916472673,81.47042840208397,4698.941086052156,1.392,0.389,-1.431,-2.102
-0.25,2000000019.9681082,1.592130065,89.74287945007487,4669.818485578366,1.32,0.301,-1.544,-2.224
-0.25,2000000019.9681082,1.5925983191,98.62794856312105,4640.876378080087,1.251,0.215,-1.654,-2.344
-0.25,2000000019.9681082,1.5930719376,108.64256236170655,4609.990177075899,1.18,0.127,-1.77,-2.47
-0.25,2000000019.9681082,1.5935127735,119.3988104464273,4580.364077908267,1.112,0.042,-1.881,-2.591
-0.25,2000000019.9681082,1.5939297676,131.2199899019203,4550.928370849554,1.046,-0.041,-1.99,-2.711
-0.25,2000000019.9681082,1.5943292379,143.8798578255845,4521.681832344975,0.982,-0.122,-2.099,-2.83
-0.25,2000000019.9681082,1.5947170258,158.12480392703827,4490.554793555168,0.918,-0.205,-2.211,-2.953
-0.25,2000000019.9681082,1.5950680971,172.98163592151016,4461.696245809645,0.861,-0.285,-2.317,-3.067
-0.25,2000000019.9681082,1.5954043865,189.67059212111465,4433.02315750427,0.806,-0.365,-2.422,-3.181
-0.25,2000000019.9681082,1.5957199335,207.49135174549107,4403.520272026519,0.752,-0.443,-2.527,-3.294
-0.25,2000000019.9681082,1.5960184336,226.98648518838212,4375.221051582521,0.697,-0.522,-2.632,-3.408
-0.25,2000000019.9681082,1.5963002443,248.31331052955704,4346.102853675936,0.644,-0.599,-2.736,-3.522
-0.25,2000000019.9681082,1.596557498,271.01916318908417,4317.1784447092305,0.592,-0.672,-2.837,-3.631
-0.25,2000000019.9681082,1.596801281,295.80124665515467,4289.434099967818,0.541,-0.746,-2.937,-3.742
-0.25,2000000019.9681082,1.5970273018,322.10687912834345,4261.868054241604,0.49,-0.819,-3.036,-3.85
-0.25,2000000019.9681082,1.5972434282,351.560440528298,4233.504249077914,0.44,-0.89,-3.135,-3.96
-0.25,2000000019.9681082,1.5974440575,382.82474331682283,4206.297636505622,0.39,-0.96,-3.232,-4.068
-0.25,2000000019.9681082,1.5976313353,415.9106104940223,4178.303666466218,0.345,-1.024,-3.33,-4.177
-0.25,2000000019.9681082,1.5978072882,451.85594437492216,4151.451800405685,0.302,-1.086,-3.427,-4.286
-0.25,2000000019.9681082,1.5979720354,490.9078761526029,4125.7223711671995,0.26,-1.147,-3.523,-4.394
-0.25,2000000019.9681082,1.5981236696,532.1082592667942,4099.208418770049,0.22,-1.206,-3.617,-4.5
-0.25,2000000019.9681082,1.5982705355,578.0960474057181,4071.927154442865,0.181,-1.264,-3.712,-4.607
-0.25,2000000019.9681082,1.5984032154,625.1726927756855,4046.6905946508737,0.145,-1.318,-3.803,-4.711
-0.25,2000000019.9681082,1.5985305309,677.641507610675,4020.6845399191266,0.11,-1.371,-3.894,-4.814
-0.25,2000000019.9681082,1.5986492634,731.1390834834173,3995.765566188054,0.076,-1.423,-3.984,-4.916
-0.25,2000000019.9681082,1.5987858772,803.5261221856169,3964.605690612772,0.037,-1.484,-4.094,-5.041
-0.25,2000000019.9681082,1.5988885164,866.9618757582169,3940.0342764474544,0.007,-1.529,-4.18,-5.14
-0.25,2000000019.9681082,1.5989857912,933.2543007969915,3915.6151483961166,-0.021,-1.574,-4.267,-5.239
-0.25,2000000019.9681082,1.5990976095,1023.2929922807537,3885.08030374528,-0.049,-1.624,-4.372,-5.359
-0.25,2000000019.9681082,1.5992013216,1116.863247780561,3854.783576657717,-0.074,-1.667,-4.476,-5.477
-0.25,2000000019.9681082,1.5992970467,1216.1860006463678,3825.6038866803838,-0.096,-1.708,-4.576,-5.592
-0.25,2000000019.9681082,1.5993870497,1324.3415351946644,3795.7709700253163,-0.115,-1.745,-4.676,-5.707
-0.25,2000000019.9681082,1.5994713306,1442.1153515248682,3767.0379898390893,-0.127,-1.771,-4.775,-5.82
-0.25,2000000019.9681082,1.5995494127,1563.1476426409538,3738.522510697288,-0.139,-1.796,-4.871,-5.93
-0.25,2000000019.9681082,1.5996222496,1690.440931643265,3711.07729492926,-0.147,-1.817,-4.964,-6.037
-0.25,2000000019.9681082,1.5997034311,1845.0154191794736,3679.594830147843,-0.146,-1.823,-5.069,-6.156
-0.25,2000000019.9681082,1.5997034311,57.80960474057181,4955.642855622974,1.537,0.643,-0.981,-1.571
-0.25,2000000019.9681082,1.6005876064,59.84115950603196,4940.831009106554,1.511,0.611,-1.024,-1.618
-0.25,2000000019.9681082,1.6015065908,60.673632958850526,4936.28243059449,1.499,0.597,-1.04,-1.636
-0.25,2000000019.9681082,1.6023280621,60.81350012787179,4938.556196176078,1.495,0.594,-1.042,-1.637
-0.25,2000000019.9681082,1.6031764746,60.81350012787179,4941.96880847838,1.493,0.593,-1.041,-1.635
-0.25,2000000019.9681082,1.6040074825,60.81350012787179,4944.245193336823,1.49,0.592,-1.04,-1.633
-0.25,2000000019.9681082,1.6048574448,60.81350012787179,4947.661736816762,1.487,0.59,-1.04,-1.632
-0.25,2000000019.9681082,1.605717659,60.81350012787179,4951.080641176657,1.484,0.588,-1.04,-1.631
-0.25,2000000019.9681082,1.6065551043,60.953689724016904,4953.361223155476,1.481,0.586,-1.04,-1.63
-0.25,2000000019.9681082,1.607411623,60.953689724016904,4955.642855622974,1.478,0.583,-1.04,-1.63
-0.25,2000000019.9681082,1.6083359718,61.09420249055721,4959.067275049038,1.473,0.58,-1.042,-1.631
-0.25,2000000019.9681082,1.6093024015,61.235039172477336,4961.351535855698,1.469,0.576,-1.044,-1.632
-0.25,2000000019.9681082,1.6102083921,61.37620051647942,4963.636848845585,1.464,0.573,-1.046,-1.633
-0.25,2000000019.9681082,1.6110748053,61.517687270986805,4965.923214503363,1.46,0.569,-1.048,-1.634
-0.25,2000000019.9681082,1.6119538546,61.80164001384158,4967.066792234226,1.456,0.565,-1.05,-1.636
-0.25,2000000019.9681082,1.6128232479,61.94410750767815,4969.354737803068,1.451,0.562,-1.053,-1.638
-0.25,2000000019.9681082,1.6130445004,61.94410750767815,4969.354737803068,1.45,0.561,-1.054,-1.639
-0.25,2000000019.9681082,1.6132653952,62.08690342300634,4970.499105762351,1.449,0.56,-1.054,-1.64
-0.25,2000000019.9681082,1.6142063141,62.23002851691595,4971.643737252428,1.444,0.555,-1.058,-1.643
-0.25,2000000019.9681082,1.6152069569,62.51726927756859,4972.788632333997,1.439,0.55,-1.062,-1.646
-0.25,2000000019.9681082,1.6161954403,62.8058358813318,4973.933791067749,1.433,0.545,-1.066,-1.65
-0.25,2000000019.9681082,1.6171296835,63.09573444801933,4975.0792135144075,1.428,0.54,-1.07,-1.654
-0.25,2000000019.9681082,1.6181167364,63.3869711256927,4975.0792135144075,1.422,0.535,-1.075,-1.659
-0.25,2000000019.9681082,1.619109869,63.67955209079159,4975.0792135144075,1.416,0.529,-1.081,-1.665
-0.25,2000000019.9681082,1.6199069023,63.973483548264824,4975.0792135144075,1.412,0.524,-1.086,-1.669
-0.25,2000000019.9681082,1.6200913191,63.973483548264824,4975.0792135144075,1.41,0.523,-1.087,-1.671
-0.25,2000000019.9681082,1.6210631132,64.41692655151772,4975.0792135144075,1.404,0.516,-1.094,-1.678
-0.25,2000000019.9681082,1.62197721,64.86344335482384,4972.788632333997,1.398,0.51,-1.102,-1.686
-0.25,2000000019.9681082,1.6228359938,65.31305526474723,4971.643737252428,1.392,0.503,-1.11,-1.694
-0.25,2000000019.9681082,1.622915864,65.31305526474723,4971.643737252428,1.392,0.503,-1.11,-1.695
-0.25,2000000019.9681082,1.6238697767,65.91738952443212,4968.210633313916,1.384,0.494,-1.121,-1.706
-0.25,2000000019.9681082,1.6248087883,66.52731562017412,4964.779900060685,1.377,0.485,-1.133,-1.72
-0.25,2000000019.9681082,1.6257605553,67.29766562843179,4959.067275049038,1.367,0.474,-1.147,-1.735
-0.25,2000000019.9681082,1.6267188787,68.23386941416697,4953.361223155476,1.357,0.461,-1.164,-1.754
-0.25,2000000019.9681082,1.6276936531,69.3425806016569,4946.522626750653,1.346,0.448,-1.182,-1.774
-0.25,2000000019.9681082,1.6286437511,69.98419960022734,4943.106869868354,1.338,0.438,-1.195,-1.788
-0.25,2000000019.9681082,1.62961483,72.44359600749902,4926.063433495771,1.315,0.408,-1.236,-1.835
-0.25,2000000019.9681082,1.6305898428,77.26805850957021,4893.279240819371,1.272,0.351,-1.316,-1.924
-0.25,2000000019.9681082,1.6311744452,83.94599865193973,4854.002548344871,1.218,0.278,-1.419,-2.038
-0.25,2000000019.9681082,1.6314436197,91.20108393559097,4817.25903559163,1.164,0.206,-1.519,-2.15
-0.25,2000000019.9681082,1.6315797567,99.5405417351527,4778.592531515467,1.104,0.127,-1.628,-2.27
-0.25,2000000019.9681082,1.6316392422,108.39269140212039,4742.419852602448,1.048,0.053,-1.731,-2.384
-0.25,2000000019.9681082,1.6316714287,118.30415557251646,4707.604832565835,0.989,-0.024,-1.836,-2.501
-0.25,2000000019.9681082,1.6316905022,128.23305826560218,4675.197908845073,0.935,-0.095,-1.934,-2.609
-0.25,2000000019.9681082,1.6316916943,129.12192736135347,4673.045396315099,0.932,-0.1,-1.94,-2.616
-0.25,2000000019.9681082,1.6316919327,129.12192736135347,4673.045396315099,0.931,-0.101,-1.942,-2.618
-0.25,2000000019.9681082,1.631708622,142.23287871228197,4636.603940805552,0.868,-0.184,-2.056,-2.745
-0.25,2000000019.9681082,1.6317260265,156.3147642640954,4600.446663934778,0.805,-0.266,-2.17,-2.871
-0.25,2000000019.9681082,1.6317732334,170.60823890031244,4567.725533088667,0.748,-0.341,-2.274,-2.986
-0.25,2000000019.9681082,1.6319097281,146.89262776438662,4623.810213992603,0.845,-0.212,-2.096,-2.788
-0.25,2000000019.9681082,1.6327518225,152.05475297324955,4612.113644917027,0.823,-0.242,-2.136,-2.833
-0.25,2000000019.9681082,1.6331899166,167.88040181225605,4574.040440300427,0.759,-0.327,-2.254,-2.963
-0.25,2000000019.9681082,1.6335213184,184.07720014689562,4539.416166502032,0.704,-0.406,-2.364,-3.084
-0.25,2000000019.9681082,1.6337958574,201.83663636815618,4505.053989279239,0.651,-0.486,-2.474,-3.204
-0.25,2000000019.9681082,1.6340308189,221.81964198002194,4470.951924630434,0.597,-0.566,-2.583,-3.323
-0.25,2000000019.9681082,1.6342378855,243.78108183687525,4436.086439314323,0.545,-0.646,-2.694,-3.444
-0.25,2000000019.9681082,1.634419322,267.91683248190316,4402.50644073913,0.492,-0.725,-2.804,-3.566
-0.25,2000000019.9681082,1.6345796585,293.76496519615307,4368.174708649131,0.439,-0.804,-2.914,-3.686
-0.25,2000000019.9681082,1.6347243786,322.84941217126345,4334.110703101766,0.388,-0.881,-3.022,-3.806
-0.25,2000000019.9681082,1.634855628,353.9973410834346,4301.302633821362,0.337,-0.957,-3.129,-3.925
-0.25,2000000019.9681082,1.6349732876,387.25764492161727,4262.849498615229,0.296,-1.025,-3.235,-4.045
-0.25,2000000019.9681082,1.6350837946,424.619563946313,4212.112867540665,0.274,-1.079,-3.345,-4.176
-0.25,2000000019.9681082,1.6351919174,465.5860935229591,4176.379929509739,0.233,-1.144,-3.455,-4.302
-0.25,2000000019.9681082,1.6352984905,511.6818355403078,4143.811582642788,0.189,-1.211,-3.563,-4.425
-0.25,2000000019.9681082,1.6354038715,561.0479760324706,4112.4440272660895,0.144,-1.277,-3.672,-4.548
-0.25,2000000019.9681082,1.6355040073,618.0164001384157,4080.3742668966966,0.1,-1.345,-3.783,-4.674
-0.25,2000000019.9681082,1.6355859041,680.7693586937418,4046.6905946508737,0.057,-1.41,-3.896,-4.803
-0.25,2000000019.9681082,1.6356393099,746.448758410067,4015.1335942882924,0.02,-1.469,-4.002,-4.924
-0.25,2000000019.9681082,1.6356787682,812.8305161640995,3985.6577231340093,-0.015,-1.526,-4.103,-5.039
-0.25,2000000019.9681082,1.6357142925,891.2509381337459,3953.666200681279,-0.048,-1.579,-4.208,-5.16
-0.25,2000000019.9681082,1.6357468367,974.9896377173867,3922.8346253952054,-0.079,-1.631,-4.313,-5.281
-0.25,2000000019.9681082,1.6357767582,1064.1430182243164,3892.2434816444134,-0.105,-1.68,-4.416,-5.399
-0.25,2000000019.9681082,1.6358044147,1161.4486138403427,3861.0017636183584,-0.124,-1.719,-4.517,-5.515
-0.25,2000000019.9681082,1.6358350515,1273.5030810166616,3826.484865951097,-0.143,-1.759,-4.626,-5.642
-0.25,2000000019.9681082,1.635868907,1399.5873225726177,3791.4034418330666,-0.157,-1.793,-4.737,-5.769
-0.25,2000000019.9681082,1.6359015703,1506.6070661867418,3762.7035226776516,-0.163,-1.811,-4.826,-5.872
-0.25,2000000019.9681082,1.6359087229,1555.965631605075,3750.5935291111437,-0.164,-1.818,-4.863,-5.915
-0.25,2000000019.9681082,1.6359124184,1603.2453906900419,3739.3834364315157,-0.166,-1.825,-4.899,-5.957
-0.25,2000000019.9681082,1.6359169483,1651.961798229015,3728.2068494295654,-0.167,-1.831,-4.934,-5.998
-0.25,2000000019.9681082,1.6359241009,1671.090614310707,3723.059697665676,-0.167,-1.834,-4.949,-6.015
-0.25,2000000019.9681082,1.6359246969,1584.893192461114,3743.6910398904515,-0.164,-1.821,-4.885,-5.941
-0.25,2000000019.9681082,1.6359248161,1475.7065332758946,3770.5091583339295,-0.158,-1.803,-4.8,-5.843
-0.25,2000000019.9681082,1.6359249353,1625.5487557504835,3733.3611171608127,-0.164,-1.826,-4.915,-5.977
-0.25,2000000019.9681082,1.6359250546,1698.2436524617442,3716.2078809514237,-0.165,-1.834,-4.966,-6.036
-0.25,2000000019.9681082,1.6359251738,1794.7336268325266,3693.175960479867,-0.158,-1.832,-5.034,-6.115
-0.25,2000000019.9681082,1.635925293,1761.976046411629,3700.8373629231564,-0.161,-1.834,-5.012,-6.089
-0.25,2000000019.9681082,1.6359254122,1663.4126503701698,3724.774624863983,-0.167,-1.833,-4.942,-6.007
-0.25,2000000019.9681082,1.6359255314,1610.64563517827,3736.801253821156,-0.165,-1.825,-4.905,-5.964
-0.25,2000000019.9681082,1.6359256506,1588.546748597779,3742.8291224080526,-0.165,-1.822,-4.888,-5.945
-0.25,2000000019.9681082,1.635925889,1517.050367459337,3759.239540129174,-0.161,-1.81,-4.833,-5.881
-0.25,2000000019.9681082,1.6359260082,1482.518085145953,3768.773174453475,-0.158,-1.803,-4.805,-5.849
-0.25,2000000019.9681082,1.6359261274,1419.0575216890927,3783.5545512323115,-0.153,-1.791,-4.755,-5.792
-0.25,2000000019.9681082,1.6359262466,1442.1153515248682,3778.3309865888623,-0.155,-1.796,-4.773,-5.813
-0.25,2000000019.9681082,1.6359263659,1621.8100973589299,3734.220854303426,-0.166,-1.827,-4.913,-5.974
-0.25,2000000019.9681082,1.6359267235,1618.0800376430661,3735.0807894306217,-0.166,-1.826,-4.91,-5.97
-0.25,2000000019.9681082,1.6359268427,1573.9828644662198,3745.4154703610106,-0.164,-1.82,-4.878,-5.933
-0.25,2000000019.9681082,1.6359269619,1520.5475297324954,3759.239540129174,-0.161,-1.811,-4.836,-5.885
-0.25,2000000019.9681082,1.6359272003,1475.7065332758946,3769.641066462436,-0.159,-1.803,-4.801,-5.844
-0.25,2000000019.9681082,1.6359274387,1432.187899273544,3780.941866832965,-0.155,-1.795,-4.764,-5.802
-0.25,2000000019.9681082,1.6359280348,1380.3842646028852,3794.8970620763503,-0.151,-1.785,-4.721,-5.752
-0.25,2000000019.9681082,1.635931015,1333.521432163324,3808.026833442713,-0.148,-1.775,-4.68,-5.704
-0.25,2000000019.9681082,1.6359329224,1438.798578255845,3780.0713730181124,-0.157,-1.797,-4.77,-5.809
-0.25,2000000019.9681082,1.6359349489,1548.816618912481,3751.4572346200985,-0.163,-1.816,-4.858,-5.91
-0.25,2000000019.9681082,1.6359368563,1651.961798229015,3727.348496903337,-0.167,-1.831,-4.935,-6.0
-0.25,2000000019.9681082,1.6359392405,1749.8466886246565,3705.953792179554,-0.167,-1.839,-5.001,-6.076
-0.25,2000000019.9681082,1.6359421015,1896.7059212111465,3674.5147919993988,-0.159,-1.837,-5.099,-6.188
-0.25,2000000019.9681082,1.6359456778,2084.4908830972886,3635.8001230014343,-0.145,-1.831,-5.213,-6.321
-0.25,2000000019.9681082,1.6359499693,2280.3420720004187,3599.15043999954,-0.114,-1.801,-5.324,-6.448
-0.25,2000000019.9681082,1.635956049,2488.85731828239,3562.8701940455303,-0.076,-1.761,-5.432,-6.572
-0.25,2000000019.9681082,1.6359608173,2576.3211570025755,3548.9509744230404,-0.061,-1.746,-5.474,-6.62
-0.25,2000000019.9681082,1.6359610558,2576.3211570025755,3548.9509744230404,-0.061,-1.746,-5.474,-6.62
-0.25,2000000019.9681082,1.6359615326,1415.793779957081,3767.905482261025,-0.113,-1.754,-4.756,-5.801
-0.25,2000000019.9681082,1.6359618902,1191.242008027375,3835.3058245685934,-0.096,-1.702,-4.55,-5.562
-0.25,2000000019.9681082,1.6359629631,711.2135136533288,4043.8962050781943,0.021,-1.452,-3.944,-4.853
-0.25,2000000019.9681082,1.6359647512,719.4489780036998,4037.3834645533043,0.019,-1.458,-3.959,-4.871
-0.25,2000000019.9681082,1.6359670162,903.6494737223014,3942.7568959559076,-0.04,-1.578,-4.226,-5.185
-0.25,2000000019.9681082,1.635969758,1315.224832192239,3791.4034418330666,-0.098,-1.727,-4.67,-5.703
-0.25,2000000019.9681082,1.6359733343,1849.2686189780777,3658.474227939712,-0.094,-1.768,-5.077,-6.174
-0.25,2000000019.9681082,1.6359773874,2322.7367963571073,3571.9058251119704,-0.041,-1.721,-5.353,-6.49
-0.25,2000000019.9681082,1.6359820366,2618.1830082189863,3525.3318119588625,0.014,-1.659,-5.5,-6.656
-0.25,2000000019.9681082,1.635987401,2754.2287033381663,3504.2896826443844,0.052,-1.614,-5.564,-6.73
-0.25,2000000019.9681082,1.6359934807,2824.8799749157074,3491.4031547858626,0.078,-1.583,-5.596,-6.767
-0.25,2000000019.9681082,1.6359937191,1853.5316234148106,3646.699688942269,-0.061,-1.735,-5.081,-6.184
-0.25,2000000019.9681082,1.6359944344,1327.3944577297402,3773.1146335838903,-0.064,-1.698,-4.684,-5.726
-0.25,2000000019.9681082,1.6359957457,792.5013304804718,3978.3226282329574,0.025,-1.488,-4.076,-5.017
-0.25,2000000019.9681082,1.635997653,803.5261221856169,3972.830167336813,0.023,-1.494,-4.091,-5.034
-0.25,2000000019.9681082,1.6360002756,1004.6157902783947,3881.5036599064824,-0.026,-1.601,-4.355,-5.344
-0.25,2000000019.9681082,1.6360034943,1455.4590805819653,3735.0807894306217,-0.062,-1.712,-4.794,-5.855
-0.25,2000000019.9681082,1.6360074282,2032.3570109362208,3607.447338641916,-0.032,-1.708,-5.196,-6.317
-0.25,2000000019.9681082,1.6360120773,2546.8302525850418,3523.7087104248726,0.049,-1.62,-5.47,-6.627
-0.25,2000000019.9681082,1.6360174417,2857.5905433749467,3480.166322150038,0.115,-1.54,-5.612,-6.789
-0.25,2000000019.9681082,1.6360235214,2999.16251898765,3460.190424829487,0.151,-1.497,-5.673,-6.858
-0.25,2000000019.9681082,1.6360304356,3076.096814740708,3450.6427620182526,0.175,-1.467,-5.703,-6.892
-0.25,2000000019.9681082,1.636030674,2051.1621788255648,3597.4933515574235,-0.01,-1.684,-5.208,-6.334
-0.25,2000000019.9681082,1.6360315084,1475.7065332758946,3723.059697665676,-0.045,-1.7,-4.811,-5.879
-0.25,2000000019.9681082,1.636032939,883.079900418563,3926.449353995997,0.014,-1.529,-4.203,-5.169
-0.25,2000000019.9681082,1.6360350847,893.3054837332954,3921.931463326502,0.012,-1.535,-4.217,-5.186
-0.25,2000000019.9681082,1.6360379457,1114.2945335917304,3831.7750036138436,-0.024,-1.625,-4.478,-5.492
-0.25,2000000019.9681082,1.6360416412,1599.5580286146694,3689.775985701505,-0.037,-1.699,-4.91,-5.993
-0.25,2000000019.9681082,1.636046052,2223.309890651403,3564.5113342624427,0.024,-1.649,-5.307,-6.447
-0.25,2000000019.9681082,1.636051178,2766.9416454115126,3483.3731503601166,0.131,-1.523,-5.575,-6.75
-0.25,2000000019.9681082,1.6360572577,3097.419299216581,3441.9138826842905,0.208,-1.428,-5.714,-6.907
-0.25,2000000019.9681082,1.6360640526,3243.3961734934933,3423.733876264524,0.246,-1.379,-5.773,-6.973
-0.25,2000000019.9681082,1.6360718012,3318.944575526103,3415.0730666882723,0.267,-1.353,-5.801,-7.003
-0.25,2000000019.9681082,1.6360720396,2269.8648518838213,3553.857419860757,0.041,-1.631,-5.334,-6.479
-0.25,2000000019.9681082,1.6360728741,1636.8165214278085,3677.9007042238622,-0.028,-1.692,-4.938,-6.026
-0.25,2000000019.9681082,1.636074543,981.7479430199844,3882.397512057637,-0.004,-1.576,-4.327,-5.316
-0.25,2000000019.9681082,1.636076808,993.1160484209336,3877.9303087618246,-0.005,-1.581,-4.342,-5.333
-0.25,2000000019.9681082,1.6360800266,1233.1048332289097,3789.6578379947123,-0.029,-1.654,-4.599,-5.634
-0.25,2000000019.9681082,1.6360839605,1757.923613958693,3650.059970708618,-0.018,-1.687,-5.023,-6.125
-0.25,2000000019.9681082,1.6360887289,2421.0290467361774,3527.7678661887385,0.082,-1.584,-5.413,-6.569
-0.25,2000000019.9681082,1.6360943317,2992.264636608189,3447.4660657314944,0.212,-1.425,-5.675,-6.865
-0.25,2000000019.9681082,1.6361008883,3341.950400261143,3407.218616593573,0.297,-1.317,-5.811,-7.017
-0.25,2000000019.9681082,1.6361082792,3491.4031547858626,3389.221868727554,0.336,-1.269,-5.868,-7.081
-0.25,2000000019.9681082,1.6361166239,3572.7283815192886,3381.4268747382753,0.36,-1.237,-5.895,-7.111
-0.25,2000000019.9681082,1.6361168623,2517.676927758854,3510.750771848301,0.111,-1.551,-5.462,-6.625
-0.25,2000000019.9681082,1.636117816,1823.8957023196383,3634.9630454608155,-0.012,-1.686,-5.067,-6.176
-0.25,2000000019.9681082,1.6361194849,1093.956366272094,3840.6081572581174,-0.022,-1.621,-4.456,-5.465
-0.25,2000000019.9681082,1.6361218691,1109.174815262401,3835.3058245685934,-0.024,-1.625,-4.472,-5.484
-0.25,2000000019.9681082,1.6361252069,1370.8817661648536,3748.003605517044,-0.033,-1.677,-4.725,-5.78
-0.25,2000000019.9681082,1.6361292601,1931.9683170169242,3610.7714510035285,0.007,-1.666,-5.139,-6.259
-0.25,2000000019.9681082,1.6361342669,2636.3313858253787,3489.7956743787454,0.15,-1.504,-5.521,-6.694
-0.25,2000000019.9681082,1.6361402273,3243.3961734934933,3411.1435809487116,0.303,-1.313,-5.779,-6.983
-0.25,2000000019.9681082,1.6361470222,3614.0986263961313,3370.5439929348295,0.409,-1.178,-5.912,-7.132
-0.25,2000000019.9681082,1.6361547709,3784.425847170932,3352.740958484161,0.467,-1.104,-5.969,-7.197
-0.25,2000000019.9681082,1.6361634731,3863.669770540693,3344.2597353373435,0.498,-1.065,-5.997,-7.228
-0.25,2000000019.9681082,1.6361637115,2818.382931264455,3463.378846082793,0.202,-1.443,-5.602,-6.787
-0.25,2000000019.9681082,1.6361646652,2051.1621788255648,3586.740857699508,0.03,-1.643,-5.21,-6.341
-0.25,2000000019.9681082,1.6361663342,1233.1048332289097,3794.8970620763503,-0.038,-1.664,-4.598,-5.63
-0.25,2000000019.9681082,1.6361687183,1250.25903021772,3788.785337484371,-0.037,-1.666,-4.614,-5.648
-0.25,2000000019.9681082,1.636171937,1538.154640303034,3702.5420540013483,-0.029,-1.691,-4.862,-5.939
-0.25,2000000019.9681082,1.6361761093,2142.8906011200584,3567.795882885623,0.053,-1.62,-5.266,-6.405
-0.25,2000000019.9681082,1.6361811161,2890.6798823654744,3449.0540481442044,0.239,-1.398,-5.637,-6.827
-0.25,2000000019.9681082,1.6361869574,3531.83169791957,3372.096543265998,0.424,-1.164,-5.887,-7.106
-0.25,2000000019.9681082,1.6361937523,3917.4187710778306,3331.9616948930816,0.557,-0.994,-6.016,-7.252
-0.25,2000000019.9681082,1.6362015009,4092.6065973001096,3314.36245009259,0.621,-0.915,-6.071,-7.314
-0.25,2000000019.9681082,1.6362102032,4178.303666466218,3305.217168699801,0.66,-0.864,-6.099,-7.345
-0.25,2000000019.9681082,1.6362104416,3155.0046233746275,3411.9291162192844,0.328,-1.287,-5.747,-6.951
-0.25,2000000019.9681082,1.6362112761,2306.747188720069,3535.90021100387,0.098,-1.572,-5.357,-6.509
-0.25,2000000019.9681082,1.6362128258,1389.9526312133526,3745.4154703610106,-0.037,-1.685,-4.741,-5.797
-0.25,2000000019.9681082,1.6362149715,1409.2887984218748,3739.3834364315157,-0.036,-1.686,-4.757,-5.815
-0.25,2000000019.9681082,1.6362179518,1721.8685749860078,3654.264677506526,-0.007,-1.679,-5.0,-6.099
-0.25,2000000019.9681082,1.6362217665,2371.373705661655,3522.897439914557,0.124,-1.541,-5.392,-6.55
-0.25,2000000019.9681082,1.6362262964,3162.2776601683795,3407.218616593573,0.35,-1.261,-5.751,-6.957
-0.25,2000000019.9681082,1.6362316608,3828.2474331682283,3331.9616948930816,0.581,-0.969,-5.991,-7.227
-0.25,2000000019.9681082,1.6362378597,4216.965034285822,3292.3045333340656,0.732,-0.772,-6.115,-7.366
-0.25,2000000019.9681082,1.6362448931,4395.416154378243,3274.9147555557906,0.81,-0.668,-6.168,-7.426
-0.25,2000000019.9681082,1.6362528801,4487.453899331323,3265.8783217233567,0.855,-0.609,-6.194,-7.455
-0.25,2000000019.9681082,1.6362531185,3499.451670283573,3362.017734543793,0.491,-1.085,-5.881,-7.105
-0.25,2000000019.9681082,1.636253953,2570.3957827688646,3485.7802105603496,0.198,-1.454,-5.494,-6.668
-0.25,2000000019.9681082,1.6362555027,1555.965631605075,3696.5790681932745,-0.022,-1.687,-4.876,-5.955
-0.25,2000000019.9681082,1.6362576485,1573.9828644662198,3691.4755816541306,-0.018,-1.685,-4.892,-5.973
-0.25,2000000019.9681082,1.6362606287,1914.255925021086,3607.447338641916,0.034,-1.641,-5.129,-6.251
-0.25,2000000019.9681082,1.6362643242,2606.153549998895,3477.763138547455,0.217,-1.433,-5.511,-6.689
-0.25,2000000019.9681082,1.6362688541,3435.5794789987463,3365.115693754908,0.492,-1.087,-5.859,-7.081
-0.25,2000000019.9681082,1.6362742186,4120.975190973304,3291.546539470676,0.762,-0.74,-6.09,-7.341
-0.25,2000000019.9681082,1.6362804174,4528.975799036209,3253.8685178010755,0.93,-0.515,-6.209,-7.474
-0.25,2000000019.9681082,1.6362874508,4709.77326396953,3236.6817570165304,1.01,-0.409,-6.26,-7.531
-0.25,2000000019.9681082,1.6362953186,4797.334486366892,3227.750819048055,1.052,-0.353,-6.284,-7.558
-0.25,2000000019.9681082,1.636295557,3863.669770540693,3312.8364811728147,0.686,-0.845,-6.011,-7.254
-0.25,2000000019.9681082,1.6362962723,2851.0182675039096,3436.370641490611,0.317,-1.311,-5.627,-6.822
-0.25,2000000019.9681082,1.6362975836,1729.8163592151016,3650.059970708618,0.004,-1.671,-5.006,-6.107
-0.25,2000000019.9681082,1.6362994909,1749.8466886246565,3645.0207083030436,0.008,-1.668,-5.021,-6.125
-0.25,2000000019.9681082,1.6363021135,2113.489039836648,3561.2298094276216,0.092,-1.583,-5.254,-6.395
-0.25,2000000019.9681082,1.6363054514,2844.4611074479167,3435.5794789987463,0.325,-1.302,-5.624,-6.819
-0.25,2000000019.9681082,1.6363095045,3698.281797802663,3325.0639317743994,0.652,-0.889,-5.958,-7.197
-0.25,2000000019.9681082,1.6363141537,4405.548635065535,3253.8685178010755,0.954,-0.491,-6.18,-7.445
-0.25,2000000019.9681082,1.6363196373,4808.393484497285,3217.3625326955976,1.119,-0.271,-6.293,-7.571
-0.25,2000000019.9681082,1.6363258362,4988.844874600121,3201.10559153497,1.196,-0.169,-6.34,-7.623
-0.25,2000000019.9681082,1.6363328695,5069.907082747044,3193.007951074664,1.239,-0.113,-6.362,-7.648
-0.25,2000000019.9681082,1.6363331079,4207.266283844442,3267.3826606314346,0.906,-0.559,-6.124,-7.384
-0.25,2000000019.9681082,1.6363338232,3118.8895840939385,3390.783022519265,0.445,-1.156,-5.745,-6.957
-0.25,2000000019.9681082,1.6363350153,1896.7059212111465,3606.6167888195973,0.047,-1.632,-5.121,-6.242
-0.25,2000000019.9681082,1.6363369226,1923.0917289101576,3600.8082917348274,0.055,-1.623,-5.136,-6.26
-0.25,2000000019.9681082,1.636339426,2312.064790175594,3518.8438882095843,0.173,-1.492,-5.366,-6.526
-0.25,2000000019.9681082,1.6363425255,3069.021988391158,3393.907487744292,0.445,-1.158,-5.726,-6.937
-0.25,2000000019.9681082,1.6363463402,3962.7803425543934,3286.2454665820464,0.839,-0.653,-6.049,-7.302
-0.25,2000000019.9681082,1.6363508701,4677.351412871981,3216.6217928790406,1.154,-0.233,-6.263,-7.541
-0.25,2000000019.9681082,1.6363561153,5081.594425605605,3179.8014276915274,1.325,-0.005,-6.372,-7.662
-0.25,2000000019.9681082,1.6363620758,5260.172663907063,3163.73427822138,1.407,0.102,-6.417,-7.713
-0.25,2000000019.9681082,1.6363687515,5345.643593969719,3155.0046233746275,1.447,0.154,-6.438,-7.737
-0.25,2000000019.9681082,1.6363689899,4570.881896148751,3218.844524111849,1.159,-0.232,-6.236,-7.513
-0.25,2000000019.9681082,1.636369586,3404.081897010009,3341.950400261143,0.639,-0.918,-5.859,-7.091
-0.25,2000000019.9681082,1.6363707781,2074.9135174549106,3560.4099003595707,0.122,-1.556,-5.234,-6.376
-0.25,2000000019.9681082,1.636372447,2098.9398836235246,3553.857419860757,0.131,-1.546,-5.249,-6.393
-0.25,2000000019.9681082,1.636374712,2511.88643150958,3472.1621617221945,0.285,-1.365,-5.474,-6.655
-0.25,2000000019.9681082,1.636377573,3303.6954103681487,3350.425766809598,0.622,-0.942,-5.824,-7.053
-0.25,2000000019.9681082,1.6363810301,4216.965034285822,3244.8901566053664,1.064,-0.364,-6.137,-7.405
-0.25,2000000019.9681082,1.6363850832,4943.106869868354,3176.1426525728807,1.381,0.058,-6.343,-7.635
-0.25,2000000019.9681082,1.6363898516,5357.966575133417,3140.5086938762165,1.535,0.259,-6.447,-7.75
-0.25,2000000019.9681082,1.636395216,5533.501092157366,3123.920693664115,1.606,0.35,-6.49,-7.799
-0.25,2000000019.9681082,1.6364012957,5610.479760324706,3114.583654012132,1.651,0.405,-6.511,-7.822
-0.25,2000000019.9681082,1.6364014149,4920.395356814511,3169.56746304349,1.435,0.123,-6.34,-7.634
-0.25,2000000019.9681082,1.6364020109,3681.289736425313,3292.3045333340656,0.878,-0.622,-5.966,-7.218
-0.25,2000000019.9681082,1.6364030838,2249.0546058357804,3511.5592451629086,0.236,-1.429,-5.34,-6.503
-0.25,2000000019.9681082,1.6364046335,2275.0974307720717,3505.09666806693,0.251,-1.412,-5.355,-6.521
-0.25,2000000019.9681082,1.6364067793,2710.1916318908416,3423.733876264524,0.437,-1.185,-5.578,-6.777
-0.25,2000000019.9681082,1.6364094019,3531.83169791957,3303.6954103681487,0.841,-0.674,-5.918,-7.165
-0.25,2000000019.9681082,1.6364126205,4466.835921509631,3199.6317673183503,1.315,-0.045,-6.221,-7.505
-0.25,2000000019.9681082,1.6364164352,5199.959965335162,3132.5643416709277,1.613,0.348,-6.419,-7.725
-0.25,2000000019.9681082,1.636420846,5610.479760324706,3096.7061741707726,1.763,0.539,-6.52,-7.837
-0.25,2000000019.9681082,1.6364258528,5794.286964268809,3080.3495365425674,1.824,0.607,-6.562,-7.884
-0.25,2000000019.9681082,1.6364314556,5874.893525297769,3069.728738183665,1.859,0.641,-6.582,-7.906
-0.25,2000000019.9681082,1.6364315748,5260.172663907063,3115.300895973758,1.711,0.467,-6.441,-7.752
-0.25,2000000019.9681082,1.6364321709,3953.666200681279,3236.6817570165304,1.185,-0.23,-6.071,-7.342
-0.25,2000000019.9681082,1.6364331245,2421.0290467361774,3457.0049388687194,0.396,-1.247,-5.442,-6.628
-0.25,2000000019.9681082,1.6364345551,2449.0632418447444,3449.848313627505,0.419,-1.219,-5.457,-6.647
-0.25,2000000019.9681082,1.6364364624,2910.717118066605,3367.4410363771217,0.658,-0.922,-5.679,-6.9
-0.25,2000000019.9681082,1.6364389658,3758.374042884443,3247.1324216780226,1.162,-0.269,-6.011,-7.278
-0.25,2000000019.9681082,1.636441946,4709.77326396953,3143.4025417390094,1.64,0.364,-6.306,-7.608
-0.25,2000000019.9681082,1.6364454031,5457.57861091271,3074.680545939635,1.905,0.69,-6.499,-7.821
-0.25,2000000019.9681082,1.6364494562,5861.3816451402845,3037.3860919461044,2.015,0.796,-6.597,-7.929
-0.25,2000000019.9681082,1.6364541054,6039.4862937638,3017.1715226017723,2.082,0.861,-6.638,-7.976
-0.25,2000000019.9681082,1.6364592314,6109.420249055721,3004.0004957242286,2.126,0.903,-6.659,-7.998
-0.25,2000000019.9681082,1.6364593506,5597.576014951104,3040.88502567628,2.043,0.826,-6.545,-7.876
-0.25,2000000019.9681082,1.6364598274,4226.686142656029,3163.0058853452065,1.633,0.335,-6.178,-7.474
-0.25,2000000019.9681082,1.6364607811,2594.179362118815,3386.881485634765,0.668,-0.93,-5.546,-6.76
-0.25,2000000019.9681082,1.6364620924,2624.218543384442,3378.313899290581,0.704,-0.885,-5.562,-6.779
-0.25,2000000019.9681082,1.6364638805,3104.5595881283557,3293.821044764936,1.044,-0.456,-5.781,-7.031
-0.25,2000000019.9681082,1.6364661455,3981.0717055349733,3172.488087350881,1.625,0.312,-6.108,-7.401
-0.25,2000000019.9681082,1.6364688873,4943.106869868354,3066.9027151623077,2.041,0.828,-6.397,-7.721
-0.25,2000000019.9681082,1.636472106,5688.529308438413,2995.711592427998,2.229,1.007,-6.585,-7.925
-0.25,2000000019.9681082,1.6364758015,6109.420249055721,2955.2892906487523,2.325,1.096,-6.68,-8.029
-0.25,2000000019.9681082,1.636480093,6280.58358813318,2933.593941214125,2.385,1.155,-6.721,-8.073
-0.25,2000000019.9681082,1.6364848614,6353.309318517436,2918.770848197142,2.432,1.201,-6.741,-8.096
-0.25,2000000019.9681082,1.6364849806,5929.2532458,2949.171307508275,2.385,1.155,-6.653,-8.003
-0.25,2000000019.9681082,1.6364854574,4487.453899331323,3078.2224412226315,2.094,0.88,-6.286,-7.608
-0.25,2000000019.9681082,1.6364862919,2766.9416454115126,3318.944575526103,1.018,-0.52,-5.644,-6.886
-0.25,2000000019.9681082,1.636487484,2792.543841237339,3312.0737601979727,1.048,-0.484,-5.659,-6.903
-0.25,2000000019.9681082,1.6364891529,3296.097121774576,3225.52193768908,1.467,0.066,-5.878,-7.153
-0.25,2000000019.9681082,1.6364912987,4197.589839910078,3102.4157748720872,2.04,0.811,-6.2,-7.515
-0.25,2000000019.9681082,1.6364938021,5176.068319505676,2995.711592427998,2.342,1.117,-6.481,-7.822
-0.25,2000000019.9681082,1.6364967823,5929.2532458,2926.846862378789,2.486,1.252,-6.662,-8.016
-0.25,2000000019.9681082,1.6365002394,6324.118513762197,2890.6798823654744,2.565,1.327,-6.754,-8.114
-0.25,2000000019.9681082,1.6365041733,6501.296903430909,2874.0875936150214,2.6,1.364,-6.791,-8.153
-0.25,2000000019.9681082,1.636508584,6576.578373554205,2866.8171905248937,2.62,1.384,-6.807,-8.171
-0.25,2000000019.9681082,1.636508584,6251.726927756856,2896.0096188517136,2.576,1.333,-6.739,-8.099
-0.25,2000000019.9681082,1.6365087032,4742.419852602448,3050.7034978225156,2.233,1.001,-6.361,-7.691
-0.25,2000000019.9681082,1.6365088224,2917.427014001166,3335.031958716416,0.918,-0.666,-5.697,-6.932
-0.25,2000000019.9681082,1.6365090609,2937.6496519615307,3361.243690470534,0.768,-0.849,-5.693,-6.918
-0.25,2000000019.9681082,1.6365094185,3427.6778654645045,3318.944575526103,0.876,-0.708,-5.883,-7.124
-0.25,2000000019.9681082,1.6365097761,4315.19076827765,3262.871721430849,1.066,-0.442,-6.16,-7.421
-0.25,2000000019.9681082,1.636510253,5248.074602497728,3246.384827880331,1.028,-0.467,-6.385,-7.651
-0.25,2000000019.9681082,1.6365107298,5942.921586155727,3287.7591870669708,0.645,-0.946,-6.504,-7.753
-0.25,2000000019.9681082,1.6365113258,6280.58358813318,3376.758486420327,0.044,-1.687,-6.528,-7.74
-0.25,2000000019.9681082,1.6365120411,6367.955209079156,3497.840484251412,-0.545,-2.396,-6.501,-7.657
-0.25,2000000019.9681082,1.6365128756,6353.309318517436,3640.8266378940075,-1.05,-2.962,-6.458,-7.543
-0.25,2000000019.9681082,1.6365128756,6067.363295885053,3655.9479161312506,-1.053,-2.958,-6.402,-7.48
-0.25,2000000019.9681082,1.6365129948,4602.565735813559,3733.3611171608127,-1.025,-2.886,-6.077,-7.119
-0.25,2000000019.9681082,1.636513114,2831.391995799379,3861.8908944898994,-0.884,-2.64,-5.514,-6.493
-0.25,2000000019.9681082,1.6365133524,2851.0182675039096,3882.397512057637,-0.935,-2.683,-5.517,-6.485
-0.25,2000000019.9681082,1.63651371,3326.5955329400435,3885.08030374528,-1.084,-2.849,-5.689,-6.654
-0.25,2000000019.9681082,1.6365140676,4178.303666466218,3896.7271730789967,-1.318,-3.104,-5.94,-6.894
-0.25,2000000019.9681082,1.6365145445,5081.594425605605,3939.1271544686583,-1.592,-3.374,-6.15,-7.079
-0.25,2000000019.9681082,1.6365151405,5741.164622073275,4015.1335942882924,-1.865,-3.612,-6.271,-7.16
-0.25,2000000019.9681082,1.6365158558,6067.363295885053,4115.2857843551,-2.097,-3.794,-6.316,-7.153
-0.25,2000000019.9681082,1.636516571,6151.7687270986835,4230.5808577652315,-2.302,-3.935,-6.312,-7.094
-0.25,2000000019.9681082,1.6365174055,6137.620051647939,4356.121655464697,-2.501,-4.055,-6.285,-7.012
-0.25,2000000019.9681082,1.6365174055,5874.893525297769,4349.106072324534,-2.448,-4.002,-6.237,-6.968
-0.25,2000000019.9681082,1.6365175247,4466.835921509631,4297.342811536805,-2.106,-3.664,-5.942,-6.699
-0.25,2000000019.9681082,1.6365176439,2747.8941531023975,4195.657223387252,-1.482,-3.051,-5.422,-6.232
-0.25,2000000019.9681082,1.6365178823,2766.9416454115126,4206.297636505622,-1.505,-3.069,-5.428,-6.232
-0.25,2000000019.9681082,1.6365181208,3228.4941217126348,4261.868054241604,-1.744,-3.291,-5.59,-6.367
-0.25,2000000019.9681082,1.6365184784,4055.085354483839,4356.121655464697,-2.104,-3.617,-5.823,-6.556
-0.25,2000000019.9681082,1.636518836,4931.738039549359,4461.696245809645,-2.445,-3.912,-6.016,-6.704
-0.25,2000000019.9681082,1.6365194321,5571.857489319298,4563.520439214676,-2.709,-4.118,-6.125,-6.775
-0.25,2000000019.9681082,1.6365199089,5888.43655355589,4653.717325654918,-2.908,-4.235,-6.154,-6.777
-0.25,2000000019.9681082,1.6365206242,5970.352865838366,4732.602186090037,-3.052,-4.298,-6.14,-6.741
-0.25,2000000019.9681082,1.6365213394,5970.352865838366,4809.500785490998,-3.16,-4.337,-6.11,-6.69
-0.25,2000000019.9681082,1.6365213394,5727.960309858292,4782.995805358158,-3.082,-4.28,-6.075,-6.663
-0.25,2000000019.9681082,1.6365214586,4345.102241715715,4600.446663934778,-2.527,-3.879,-5.839,-6.481
-0.25,2000000019.9681082,1.6365215778,2679.1683248190316,4284.498548137013,-1.595,-3.113,-5.378,-6.147
-0.25,2000000019.9681082,1.636521697,2697.7394324449206,4291.409912283691,-1.612,-3.126,-5.384,-6.15
-0.25,2000000019.9681082,1.6365219355,3147.748314101317,4403.520272026519,-1.927,-3.389,-5.532,-6.25
-0.25,2000000019.9681082,1.6365222931,3944.573020752785,4583.529174381888,-2.406,-3.766,-5.737,-6.385
-0.25,2000000019.9681082,1.6365226507,4797.334486366892,4766.504419105543,-2.88,-4.081,-5.886,-6.48
-0.25,2000000019.9681082,1.6365231276,5420.008904016238,4912.471004503345,-3.178,-4.281,-5.97,-6.522
-0.25,2000000019.9681082,1.6365236044,5714.786366718672,5011.872336272725,-3.337,-4.385,-5.998,-6.522
-0.25,2000000019.9681082,1.6365242004,5807.644175213118,5080.424479948444,-3.418,-4.429,-5.993,-6.499
-0.25,2000000019.9681082,1.6365249157,5807.644175213118,5135.704178483554,-3.468,-4.45,-5.975,-6.466
-0.25,2000000019.9681082,1.6365249157,5584.701947368307,5089.791592468075,-3.385,-4.39,-5.947,-6.45
-0.25,2000000019.9681082,1.6365250349,4246.19563946313,4771.995220268839,-2.762,-3.952,-5.75,-6.345
-0.25,2000000019.9681082,1.6365251541,2612.1613543992053,4247.173474714387,-1.505,-3.049,-5.36,-6.145
-0.25,2000000019.9681082,1.6365252733,2630.2679918953813,4249.129820811196,-1.516,-3.059,-5.367,-6.151
-0.25,2000000019.9681082,1.6365255117,3069.021988391158,4412.655266224519,-1.911,-3.369,-5.504,-6.217
-0.25,2000000019.9681082,1.6365258694,3845.9178204535356,4675.197908845073,-2.518,-3.794,-5.679,-6.3
-0.25,2000000019.9681082,1.636526227,4666.593803142887,4929.467413122061,-3.043,-4.129,-5.803,-6.352
-0.25,2000000019.9681082,1.6365267038,5272.298614228227,5113.285003019643,-3.347,-4.338,-5.877,-6.376
-0.25,2000000019.9681082,1.6365271807,5571.857489319298,5216.749703076012,-3.499,-4.435,-5.903,-6.374
-0.25,2000000019.9681082,1.6365277767,5649.369748123023,5266.2321489389715,-3.559,-4.47,-5.903,-6.362
-0.25,2000000019.9681082,1.6365283728,5649.369748123023,5291.758304203465,-3.581,-4.477,-5.893,-6.347
-0.25,2000000019.9681082,1.6365283728,5457.57861091271,5231.184047796891,-3.489,-4.417,-5.875,-6.343
-0.25,2000000019.9681082,1.636528492,4149.5404263436285,4787.4031366341615,-2.756,-3.934,-5.72,-6.31
-0.25,2000000019.9681082,1.6365286112,2552.701302661247,4082.2537814298526,-1.195,-2.842,-5.367,-6.229
-0.25,2000000019.9681082,1.6365287304,2570.3957827688646,4083.1938633269233,-1.202,-2.85,-5.375,-6.237
-0.25,2000000019.9681082,1.6365289688,3006.076302628232,4289.434099967818,-1.697,-3.235,-5.508,-6.272
-0.25,2000000019.9681082,1.6365292072,3758.374042884443,4620.617301970837,-2.406,-3.735,-5.672,-6.309
-0.25,2000000019.9681082,1.6365295649,4560.369159512959,4937.419182496813,-3.024,-4.107,-5.775,-6.321
-0.25,2000000019.9681082,1.6365300417,5152.286445817567,5154.659707832393,-3.358,-4.327,-5.837,-6.325
-0.25,2000000019.9681082,1.6365305185,5432.503314924331,5263.807517745308,-3.513,-4.426,-5.861,-6.321
-0.25,2000000019.9681082,1.6365309954,5520.774392807573,5299.074190947546,-3.561,-4.454,-5.866,-6.317
-0.25,2000000019.9681082,1.6365315914,5520.774392807573,5301.515066784589,-3.563,-4.455,-5.865,-6.316
-0.25,2000000019.9681082,1.6365315914,5333.348954876208,5229.979661821558,-3.463,-4.394,-5.853,-6.321
-0.25,2000000019.9681082,1.6365317106,4064.4332916521275,4684.8964916001305,-2.579,-3.856,-5.736,-6.353
-0.25,2000000019.9681082,1.6365317106,2506.109253032114,3847.689338937884,-0.698,-2.476,-5.386,-6.37
-0.25,2000000019.9681082,1.636531949,2523.4807724805755,3846.8034777189105,-0.703,-2.482,-5.394,-6.378
-0.25,2000000019.9681082,1.6365320683,2944.4216337987605,4085.0746766312514,-1.324,-2.991,-5.525,-6.383
-0.25,2000000019.9681082,1.6365323067,3681.289736425313,4468.89344919767,-2.151,-3.604,-5.695,-6.382
-0.25,2000000019.9681082,1.6365326643,4466.835921509631,4837.266336532547,-2.89,-4.036,-5.783,-6.358
-0.25,2000000019.9681082,1.6365330219,5035.006087879047,5086.276903064366,-3.269,-4.277,-5.836,-6.34
-0.25,2000000019.9681082,1.6365334988,5321.082592667942,5204.751511705225,-3.435,-4.381,-5.857,-6.331
-0.25,2000000019.9681082,1.6365339756,5395.1062251512785,5234.798870090691,-3.479,-4.409,-5.864,-6.33
-0.25,2000000019.9681082,1.6365344524,5407.5432294558095,5226.368167369365,-3.471,-4.406,-5.867,-6.335
