FeH,Age,Mini,L,Te,Bmag,Vmag,Jmag,Kmag
0.0,2399993138.057888,0.0900000036,0.00037844258471709315,2307.809729698403,19.987,18.145,11.235,10.332
0.0,2399993138.057888,0.1000000015,0.0005767664633922509,2450.7555792438225,19.502,17.67,10.778,9.873
0.0,2399993138.057888,0.11123164,0.0008241381150130021,2569.212344284061,19.092,17.267,10.391,9.483
0.0,2399993138.057888,0.1200000048,0.0010641430182243164,2657.6635495543114,18.523,16.729,10.132,9.22
0.0,2399993138.057888,0.1400000006,0.0016218100973589297,2782.274657675122,17.327,15.619,9.722,8.807
0.0,2399993138.057888,0.1599999964,0.002243881923782766,2870.119636464438,16.51,14.849,9.403,8.488
0.0,2399993138.057888,0.200000003,0.003681289736425313,2996.4014599344437,15.398,13.795,8.909,8.001
0.0,2399993138.057888,0.25,0.00588843655355589,3111.716337106017,14.45,12.881,8.442,7.542
0.0,2399993138.057888,0.3101609945,0.0091411324147025,3203.3176008528117,13.683,12.153,7.993,7.1
0.0,2399993138.057888,0.3423877358,0.011587773561551261,3244.1430790488475,13.307,11.796,7.748,6.857
0.0,2399993138.057888,0.3500000238,0.012161860006463679,3254.61783498046,13.227,11.719,7.698,6.809
0.0,2399993138.057888,0.3624105155,0.013273944577297395,3275.668919368471,13.076,11.576,7.61,6.721
0.0,2399993138.057888,0.3760294616,0.014554590805819662,3299.1343378886454,12.918,11.426,7.519,6.63
0.0,2399993138.057888,0.4000000358,0.01690440931643264,3338.8737672512307,12.661,11.181,7.368,6.48
0.0,2399993138.057888,0.4500000179,0.02387811282913177,3433.2070842609537,12.085,10.634,7.024,6.138
0.0,2399993138.057888,0.5,0.034119291162192845,3552.2211848231955,11.48,10.056,6.673,5.787
0.0,2399993138.057888,0.5500000119,0.04977370849789361,3709.3686741322836,10.825,9.42,6.316,5.434
0.0,2399993138.057888,0.6000000238,0.07244359600749903,3912.911271268528,10.141,8.767,5.968,5.099
0.0,2399993138.057888,0.6499999762,0.10568175092136585,4168.693834703355,9.416,8.117,5.621,4.791
0.0,2399993138.057888,0.7000000477,0.15205475297324958,4452.459727917414,8.65,7.473,5.301,4.544
0.0,2399993138.057888,0.7204011083,0.1753880501841761,4575.093773298477,8.332,7.216,5.18,4.465
0.0,2399993138.057888,0.75,0.21478304741305337,4752.257885621896,7.906,6.872,5.011,4.359
0.0,2399993138.057888,0.8000000119,0.2937649651961531,4988.844874600121,7.339,6.4,4.739,4.163
0.0,2399993138.057888,0.8500000238,0.39627803425543945,5219.152658354482,6.836,5.977,4.484,3.972
0.0,2399993138.057888,0.8678589463,0.4395416154378245,5297.854174488645,6.672,5.838,4.394,3.903
0.0,2399993138.057888,0.8999999762,0.5284452517751804,5437.50914029847,6.387,5.598,4.239,3.781
0.0,2399993138.057888,0.9379854202,0.6531305526474723,5591.135275705602,6.068,5.328,4.061,3.639
0.0,2399993138.057888,0.9499999881,0.6982324040771714,5638.972803349493,5.971,5.247,4.006,3.594
0.0,2399993138.057888,0.9731375575,0.7925013304804718,5726.641550089671,5.791,5.093,3.899,3.504
0.0,2399993138.057888,1.0,0.9162204901219998,5825.054593417401,5.586,4.92,3.777,3.402
0.0,2399993138.057888,1.0302454233,1.076465213629835,5927.88814195578,5.363,4.731,3.639,3.284
0.0,2399993138.057888,1.0499999523,1.1967405313072434,5993.768983266384,5.221,4.61,3.55,3.208
0.0,2399993138.057888,1.0570787191,1.241652307592411,6015.8915705346435,5.17,4.567,3.518,3.18
0.0,2399993138.057888,1.0857498646,1.4421153515248688,6103.795855585308,4.973,4.396,3.387,3.065
0.0,2399993138.057888,1.1000000238,1.5523870099580823,6146.105347195242,4.877,4.313,3.323,3.007
0.0,2399993138.057888,1.1069151163,1.6069412530128773,6165.9500186148225,4.831,4.273,3.291,2.98
0.0,2399993138.057888,1.1309946775,1.8155156627731355,6231.60618945834,4.673,4.136,3.183,2.882
0.0,2399993138.057888,1.1499999762,1.9998618696327441,6282.029912455561,4.551,4.028,3.097,2.805
0.0,2399993138.057888,1.1590915918,2.0892961308540396,6305.2164509004215,4.493,3.978,3.057,2.768
0.0,2399993138.057888,1.1894741058,2.4266100950824154,6379.696226625793,4.306,3.812,2.922,2.645
0.0,2399993138.057888,1.2000000477,2.5527013026612466,6401.769013178951,4.243,3.756,2.875,2.603
0.0,2399993138.057888,1.2248361111,2.8510182675039095,6446.143956044051,4.106,3.632,2.77,2.504
0.0,2399993138.057888,1.25,3.1841975217261247,6486.344335482381,3.972,3.509,2.665,2.405
0.0,2399993138.057888,1.2505581379,3.198895109691398,6487.838043422757,3.97,3.507,2.662,2.403
0.0,2399993138.057888,1.2999999523,3.9174187710778305,6532.809588303903,3.733,3.282,2.457,2.205
0.0,2399993138.057888,1.3003195524,3.9174187710778305,6532.809588303903,3.731,3.281,2.456,2.204
0.0,2399993138.057888,1.3368521929,4.528975799036208,6544.854558704405,3.568,3.122,2.303,2.053
0.0,2399993138.057888,1.3499999046,4.775292736576909,6544.854558704405,3.511,3.066,2.247,1.997
0.0,2399993138.057888,1.3603321314,4.96592321450336,6546.361740672747,3.466,3.021,2.202,1.953
0.0,2399993138.057888,1.397433877,5.7543993733715695,6532.809588303903,3.307,2.86,2.038,1.787
0.0,2399993138.057888,1.3999999762,5.821032177708714,6531.305526474723,3.296,2.849,2.026,1.775
0.0,2399993138.057888,1.419726491,6.295061828571976,6516.283940608428,3.213,2.764,1.936,1.683
0.0,2399993138.057888,1.4488515854,7.06317554262962,6484.850971441381,3.095,2.639,1.8,1.542
0.0,2399993138.057888,1.4500000477,7.095777679633888,6483.357951220567,3.091,2.634,1.794,1.537
0.0,2399993138.057888,1.4605181217,7.379042301291009,6461.003852547145,3.055,2.593,1.744,1.484
0.0,2399993138.057888,1.4800422192,7.906786279998252,6409.143566447764,2.995,2.52,1.65,1.382
0.0,2399993138.057888,1.4974067211,8.394599865193975,6350.384185040406,2.949,2.458,1.565,1.287
0.0,2399993138.057888,1.5,8.452788451602899,6341.616862711066,2.943,2.449,1.552,1.273
0.0,2399993138.057888,1.5153338909,8.892011178579484,6279.137596800936,2.912,2.4,1.476,1.187
0.0,2399993138.057888,1.5298866034,9.311078754678302,6214.411391668482,2.884,2.354,1.403,1.103
0.0,2399993138.057888,1.5456846952,9.885530946569387,6148.936385126267,2.842,2.293,1.314,1.003
0.0,2399993138.057888,1.5499999523,10.092528860766844,6136.206975096898,2.825,2.272,1.287,0.974
0.0,2399993138.057888,1.5505890846,10.115794542598982,6134.794223881292,2.823,2.269,1.283,0.97
0.0,2399993138.057888,1.5568307638,11.271974561755105,6217.2738929396055,2.671,2.144,1.196,0.897
0.0,2399993138.057888,1.5584504604,12.078138351067803,6290.714855478365,2.567,2.062,1.146,0.86
0.0,2399993138.057888,1.5590156317,12.941958414499863,6367.955209079156,2.463,1.981,1.099,0.825
0.0,2399993138.057888,1.5592677593,13.963683610559377,6449.113198681055,2.352,1.893,1.045,0.785
0.0,2399993138.057888,1.5594240427,14.825180851459537,6514.783683512198,2.265,1.823,1.004,0.753
0.0,2399993138.057888,1.5594568253,14.421153515248688,6496.80751738794,2.302,1.856,1.029,0.776
0.0,2399993138.057888,1.5595337152,13.365955165464419,6419.482215080359,2.411,1.944,1.084,0.819
0.0,2399993138.057888,1.5596493483,13.09181922999407,6303.764788294872,2.475,1.974,1.065,0.781
0.0,2399993138.057888,1.559850812,13.182567385564074,6167.36994454326,2.517,1.976,1.006,0.699
0.0,2399993138.057888,1.5602024794,13.182567385564074,6028.371389224644,2.575,1.99,0.958,0.627
0.0,2399993138.057888,1.5607501268,12.793813041575246,5888.43655355589,2.672,2.042,0.941,0.582
0.0,2399993138.057888,1.5613226891,12.189895989248667,5774.3087271398535,2.777,2.111,0.953,0.571
0.0,2399993138.057888,1.5618931055,11.481536214968829,5668.915715231895,2.893,2.194,0.983,0.578
0.0,2399993138.057888,1.5624613762,10.715193052376065,5566.72798150948,3.02,2.29,1.023,0.595
0.0,2399993138.057888,1.5630273819,9.977000638225533,5462.607542126947,3.153,2.39,1.066,0.614
0.0,2399993138.057888,1.5635912418,9.48418463300897,5362.9037180085825,3.266,2.472,1.091,0.615
0.0,2399993138.057888,1.5643770695,9.397233105646377,5240.829125640289,3.349,2.517,1.063,0.556
0.0,2399993138.057888,1.5651586056,9.954054173515269,5139.253022834874,3.354,2.488,0.97,0.436
0.0,2399993138.057888,1.5655181408,10.568175092136585,5106.225616299567,3.312,2.434,0.894,0.351
0.0,2399993138.057888,1.5659965277,11.561122421920986,5067.572841772825,3.243,2.351,0.784,0.231
0.0,2399993138.057888,1.5664445162,12.676518658578456,5036.16557436085,3.167,2.262,0.674,0.112
0.0,2399993138.057888,1.5668598413,13.899526312133533,5009.564815133986,3.089,2.173,0.567,-0.003
0.0,2399993138.057888,1.5672591925,15.205475297324954,4984.252094042598,3.011,2.085,0.461,-0.115
0.0,2399993138.057888,1.5676467419,16.634126503701697,4961.351535855698,2.934,1.998,0.357,-0.226
0.0,2399993138.057888,1.5680296421,18.15515662773135,4937.419182496813,2.856,1.911,0.254,-0.337
0.0,2399993138.057888,1.5684094429,19.860949173573715,4914.733801992678,2.779,1.824,0.15,-0.446
0.0,2399993138.057888,1.5688824654,22.181964198002195,4886.523593428336,2.684,1.717,0.023,-0.582
0.0,2399993138.057888,1.5693547726,24.660393372343385,4859.594143462719,2.591,1.612,-0.103,-0.716
0.0,2399993138.057888,1.5698212385,27.478941531023974,4831.700432460599,2.499,1.51,-0.226,-0.848
0.0,2399993138.057888,1.5702266693,30.13006024186122,4807.286438439701,2.42,1.42,-0.334,-0.964
0.0,2399993138.057888,1.57064116,33.18944575526103,4781.894606659083,2.339,1.328,-0.446,-1.084
0.0,2399993138.057888,1.5710628033,36.643757464783334,4754.4468852521,2.257,1.235,-0.561,-1.208
0.0,2399993138.057888,1.5715675354,41.30475019901615,4720.630412635905,2.158,1.122,-0.701,-1.36
0.0,2399993138.057888,1.5719252825,45.18559443749224,4695.696293383585,2.086,1.039,-0.805,-1.471
0.0,2399993138.057888,1.5723122358,49.88844874600122,4666.593803142887,2.007,0.947,-0.92,-1.597
0.0,2399993138.057888,1.5726803541,54.954087385762456,4638.7396675603095,1.932,0.86,-1.032,-1.718
0.0,2399993138.057888,1.5730595589,60.53408747539136,4609.990177075899,1.859,0.771,-1.146,-1.842
0.0,2399993138.057888,1.5733926296,65.91738952443212,4585.640453674645,1.798,0.695,-1.245,-1.949
0.0,2399993138.057888,1.5737692118,71.28530301265195,4562.469770768501,1.742,0.624,-1.337,-2.049
0.0,2399993138.057888,1.5743501186,77.26805850957021,4538.371047630816,1.685,0.552,-1.432,-2.153
0.0,2399993138.057888,1.5745457411,75.68328950209744,4545.6919358492405,1.698,0.57,-1.407,-2.125
0.0,2399993138.057888,1.5748558044,69.98419960022734,4569.82953285961,1.75,0.637,-1.317,-2.026
0.0,2399993138.057888,1.5750193596,64.86344335482384,4594.095300365836,1.803,0.705,-1.227,-1.928
0.0,2399993138.057888,1.5751545429,59.70352865838369,4620.617301970837,1.863,0.78,-1.128,-1.82
0.0,2399993138.057888,1.5752782822,54.82769649208539,4646.222461325775,1.924,0.856,-1.029,-1.713
0.0,2399993138.057888,1.5754114389,50.11872336272722,4674.121528671508,1.995,0.938,-0.922,-1.596
0.0,2399993138.057888,1.5755828619,44.87453899331321,4707.604832565835,2.081,1.039,-0.794,-1.457
0.0,2399993138.057888,1.5757421255,41.30475019901615,4733.692033483014,2.147,1.116,-0.696,-1.35
0.0,2399993138.057888,1.5758277178,39.902490236214206,4744.604320607653,2.173,1.147,-0.657,-1.307
0.0,2399993138.057888,1.5759743452,41.39996748197304,4733.692033483014,2.144,1.113,-0.699,-1.353
0.0,2399993138.057888,1.576415658,46.13175745603793,4702.188120918429,2.056,1.011,-0.827,-1.492
0.0,2399993138.057888,1.5769232512,51.16818355403078,4671.969511718804,1.974,0.916,-0.947,-1.622
0.0,2399993138.057888,1.5774358511,56.623928903825316,4641.945102393461,1.895,0.824,-1.063,-1.749
0.0,2399993138.057888,1.5779628754,62.66138646723353,4612.113644917027,1.82,0.731,-1.184,-1.88
0.0,2399993138.057888,1.5784529448,69.18309709189366,4583.529174381888,1.749,0.643,-1.299,-2.003
0.0,2399993138.057888,1.5789550543,76.55966069112561,4551.9763814842045,1.678,0.553,-1.418,-2.133
0.0,2399993138.057888,1.5794152021,84.33347577642752,4523.764623324995,1.611,0.468,-1.531,-2.256
0.0,2399993138.057888,1.5798685551,93.11078754678306,4493.657830540859,1.544,0.381,-1.647,-2.382
0.0,2399993138.057888,1.5802918673,102.5651926251408,4463.75140604447,1.478,0.297,-1.76,-2.506
0.0,2399993138.057888,1.5806952715,112.97959146727976,4434.04401633441,1.415,0.215,-1.874,-2.631
0.0,2399993138.057888,1.5810792446,124.73835142429432,4403.520272026519,1.352,0.132,-1.989,-2.757
0.0,2399993138.057888,1.58142519,136.77288255958496,4375.221051582521,1.293,0.054,-2.098,-2.877
0.0,2399993138.057888,1.5817626715,150.66070661867417,4345.102241715715,1.234,-0.027,-2.209,-2.998
0.0,2399993138.057888,1.5820740461,165.95869074375614,4316.1844920735875,1.177,-0.108,-2.318,-3.116
0.0,2399993138.057888,1.5823639631,181.97008586099827,4286.472087023835,1.119,-0.187,-2.425,-3.233
0.0,2399993138.057888,1.5826356411,199.9861869632745,4257.944535825967,1.062,-0.266,-2.532,-3.349
0.0,2399993138.057888,1.5828877687,219.28049353504497,4228.63305181499,1.005,-0.343,-2.638,-3.465
0.0,2399993138.057888,1.5831252337,240.43628000069322,4199.52334664066,0.948,-0.419,-2.743,-3.581
0.0,2399993138.057888,1.583343029,263.02679918953817,4171.574461206266,0.892,-0.494,-2.846,-3.694
0.0,2399993138.057888,1.5835500956,288.40315031266056,4141.903726221008,0.836,-0.567,-2.951,-3.809
0.0,2399993138.057888,1.5837380886,315.50046233746275,4114.338313870812,0.782,-0.637,-3.051,-3.921
0.0,2399993138.057888,1.583917737,345.1437393358561,4086.015408138228,0.728,-0.708,-3.153,-4.035
0.0,2399993138.057888,1.5840866566,377.572190925416,4056.9532203604513,0.683,-0.77,-3.258,-4.153
0.0,2399993138.057888,1.5842375755,411.14972110452214,4029.953175019774,0.642,-0.828,-3.357,-4.264
0.0,2399993138.057888,1.5843836069,448.7453899331323,4002.2111724970323,0.601,-0.886,-3.459,-4.379
0.0,2399993138.057888,1.5845181942,488.6523593428336,3973.745050614633,0.563,-0.942,-3.559,-4.492
0.0,2399993138.057888,1.5846425295,532.1082592667942,3946.3899820986467,0.528,-0.99,-3.657,-4.603
0.0,2399993138.057888,1.5847619772,579.428696426881,3918.3208939411097,0.493,-1.039,-3.757,-4.716
0.0,2399993138.057888,1.5848718882,629.5061828571975,3891.3473626359746,0.46,-1.087,-3.854,-4.826
0.0,2399993138.057888,1.5849736929,682.3386941416697,3864.55951581426,0.433,-1.126,-3.95,-4.934
0.0,2399993138.057888,1.5850698948,739.6052750582381,3837.0724549227884,0.407,-1.164,-4.045,-5.042
0.0,2399993138.057888,1.5851610899,801.678063387679,3809.7808984641915,0.382,-1.2,-4.14,-5.151
0.0,2399993138.057888,1.5852617025,881.0488730080137,3775.72190925416,0.368,-1.224,-4.253,-5.279
0.0,2399993138.057888,1.5853571892,970.5099672454899,3741.9674033666447,0.355,-1.244,-4.367,-5.408
0.0,2399993138.057888,1.5854463577,1066.596121230258,3708.514658756861,0.347,-1.259,-4.48,-5.536
0.0,2399993138.057888,1.585529089,1169.4993910198712,3675.360977714797,0.349,-1.256,-4.593,-5.663
0.0,2399993138.057888,1.5856058598,1282.3305826560218,3642.503686647633,0.354,-1.251,-4.704,-5.788
0.0,2399993138.057888,1.5856775045,1402.8137045619576,3609.940135864167,0.372,-1.229,-4.813,-5.911
0.0,2399993138.057888,1.5857429504,1527.5660582380733,3577.6676993611068,0.398,-1.195,-4.919,-6.031
0.0,2399993138.057888,1.5858060122,1667.2472125510626,3544.8674447379985,0.43,-1.154,-5.025,-6.153
0.0,2399993138.057888,1.5858644247,1815.515662773135,3512.3679046568063,0.479,-1.088,-5.129,-6.27
0.0,2399993138.057888,1.5859202147,1972.4227361148535,3480.96775232401,0.536,-1.015,-5.232,-6.386
0.0,2399993138.057888,1.5859670639,2108.6281499332886,3454.617749058203,0.592,-0.944,-5.316,-6.48
0.0,2399993138.057888,1.5859670639,53.826978251628844,4798.439240638985,1.799,0.791,-0.966,-1.597
0.0,2399993138.057888,1.5866476297,55.71857489319299,4784.097257646801,1.772,0.758,-1.01,-1.646
0.0,2399993138.057888,1.5873985291,56.623928903825316,4779.692969796099,1.76,0.745,-1.027,-1.664
0.0,2399993138.057888,1.5881615877,56.623928903825316,4781.894606659083,1.757,0.743,-1.026,-1.662
0.0,2399993138.057888,1.5889195204,56.49369748123026,4785.198963583403,1.756,0.743,-1.023,-1.658
0.0,2399993138.057888,1.5896158218,56.36376558259543,4788.50560386518,1.755,0.743,-1.02,-1.654
0.0,2399993138.057888,1.590364337,56.36376558259543,4791.814529082236,1.753,0.743,-1.018,-1.651
0.0,2399993138.057888,1.5911434889,56.23413251903491,4795.1257408135025,1.752,0.743,-1.016,-1.648
0.0,2399993138.057888,1.5918967724,56.23413251903491,4798.439240638985,1.75,0.742,-1.014,-1.645
0.0,2399993138.057888,1.5926414728,56.23413251903491,4801.755030139799,1.748,0.741,-1.013,-1.643
0.0,2399993138.057888,1.5934312344,56.23413251903491,4803.966829296808,1.745,0.74,-1.013,-1.642
0.0,2399993138.057888,1.5941846371,56.23413251903491,4806.1796472595415,1.742,0.738,-1.012,-1.641
0.0,2399993138.057888,1.5949078798,56.23413251903491,4808.393484497285,1.74,0.736,-1.013,-1.64
0.0,2399993138.057888,1.5956348181,56.36376558259543,4810.608341479539,1.736,0.734,-1.013,-1.64
0.0,2399993138.057888,1.5964300632,56.49369748123026,4812.824218676023,1.733,0.731,-1.014,-1.64
0.0,2399993138.057888,1.5965983868,56.49369748123026,4812.824218676023,1.732,0.73,-1.014,-1.641
0.0,2399993138.057888,1.5966923237,56.49369748123026,4813.932540001449,1.732,0.73,-1.015,-1.641
0.0,2399993138.057888,1.5974410772,56.623928903825316,4815.041116556669,1.728,0.727,-1.016,-1.642
0.0,2399993138.057888,1.5981730223,56.623928903825316,4816.14994840047,1.725,0.724,-1.018,-1.643
0.0,2399993138.057888,1.5989332199,56.88529308438413,4817.25903559163,1.721,0.721,-1.02,-1.645
0.0,2399993138.057888,1.5996940136,57.016427228074754,4818.368378188961,1.717,0.717,-1.023,-1.648
0.0,2399993138.057888,1.600440979,57.14786366718669,4819.477976251272,1.713,0.714,-1.027,-1.651
0.0,2399993138.057888,1.6011871099,57.41164622073274,4819.477976251272,1.709,0.709,-1.031,-1.655
0.0,2399993138.057888,1.6019473076,57.67664633922506,4819.477976251272,1.704,0.704,-1.036,-1.66
0.0,2399993138.057888,1.6021344662,57.67664633922506,4819.477976251272,1.703,0.703,-1.037,-1.661
0.0,2399993138.057888,1.6022816896,57.80960474057181,4819.477976251272,1.702,0.702,-1.038,-1.662
0.0,2399993138.057888,1.6030452251,58.07644175213121,4818.368378188961,1.696,0.696,-1.044,-1.669
0.0,2399993138.057888,1.6037738323,58.47900841444806,4817.25903559163,1.691,0.69,-1.051,-1.676
0.0,2399993138.057888,1.6045011282,58.8843655355589,4815.041116556669,1.685,0.684,-1.059,-1.685
0.0,2399993138.057888,1.6046416759,59.02010801718442,4815.041116556669,1.684,0.682,-1.061,-1.687
0.0,2399993138.057888,1.6053757668,59.42921586155727,4811.716152521639,1.677,0.675,-1.071,-1.697
0.0,2399993138.057888,1.6061497927,60.11737374832779,4808.393484497285,1.669,0.665,-1.083,-1.711
0.0,2399993138.057888,1.6069008112,60.673632958850526,4803.966829296808,1.661,0.655,-1.096,-1.725
0.0,2399993138.057888,1.6076478958,61.517687270986805,4799.544249319445,1.651,0.643,-1.112,-1.742
0.0,2399993138.057888,1.6084190607,62.23002851691595,4795.1257408135025,1.642,0.633,-1.126,-1.757
0.0,2399993138.057888,1.6091741323,63.53309318517436,4786.300923226385,1.627,0.614,-1.151,-1.786
0.0,2399993138.057888,1.6099625826,66.68067692136222,4765.407017251339,1.597,0.574,-1.208,-1.849
0.0,2399993138.057888,1.6107167006,72.77798045368242,4727.156711736158,1.543,0.499,-1.315,-1.968
0.0,2399993138.057888,1.6110671759,79.25013304804718,4691.37338834597,1.489,0.426,-1.419,-2.084
0.0,2399993138.057888,1.6112548113,86.69618757582165,4654.789007046166,1.433,0.349,-1.528,-2.204
0.0,2399993138.057888,1.611344099,94.84184633008974,4618.489918952487,1.378,0.274,-1.635,-2.323
0.0,2399993138.057888,1.6113871336,103.2761405761397,4585.640453674645,1.325,0.202,-1.737,-2.437
0.0,2399993138.057888,1.6114121675,112.71974561755106,4551.9763814842045,1.271,0.128,-1.842,-2.554
0.0,2399993138.057888,1.611427784,122.74392311584072,4519.600000304826,1.221,0.059,-1.943,-2.665
0.0,2399993138.057888,1.6114310026,125.02590302177201,4513.360253409558,1.21,0.044,-1.965,-2.69
0.0,2399993138.057888,1.6114311218,125.31411749414156,4512.321133443373,1.209,0.042,-1.967,-2.692
0.0,2399993138.057888,1.6114325523,126.4736347471151,4508.167045414601,1.203,0.034,-1.979,-2.706
0.0,2399993138.057888,1.6114441156,138.3566378971781,4476.102262460901,1.149,-0.04,-2.086,-2.824
0.0,2399993138.057888,1.6114560366,152.05475297324955,4442.2193547105535,1.095,-0.115,-2.195,-2.946
0.0,2399993138.057888,1.6114730835,162.55487557504833,4417.738448896479,1.056,-0.172,-2.274,-3.032
0.0,2399993138.057888,1.6115033627,157.76112696993485,4428.942071986359,1.073,-0.147,-2.239,-2.994
0.0,2399993138.057888,1.611559391,142.23287871228197,4466.835921509631,1.131,-0.063,-2.117,-2.858
0.0,2399993138.057888,1.6121325493,140.28137045619576,4471.981517887507,1.14,-0.052,-2.1,-2.84
0.0,2399993138.057888,1.6125118732,152.40527537972906,4441.1966136558885,1.092,-0.118,-2.199,-2.95
0.0,2399993138.057888,1.6128072739,167.1090614310707,4407.5779324153655,1.041,-0.195,-2.307,-3.068
0.0,2399993138.057888,1.6130456924,183.23144223712112,4375.221051582521,0.989,-0.272,-2.414,-3.185
0.0,2399993138.057888,1.6132471561,200.90928126087277,4342.1017878602825,0.937,-0.347,-2.521,-3.303
0.0,2399993138.057888,1.613421917,220.80047330188992,4308.24110479373,0.885,-0.423,-2.628,-3.422
0.0,2399993138.057888,1.6135737896,242.10290467361776,4275.62886151586,0.832,-0.499,-2.736,-3.54
0.0,2399993138.057888,1.613706708,265.4605561975539,4244.240644295681,0.778,-0.573,-2.842,-3.658
0.0,2399993138.057888,1.6138254404,291.0717118066605,4212.112867540665,0.725,-0.647,-2.947,-3.775
0.0,2399993138.057888,1.6139335632,319.15378551007615,4180.228289540325,0.671,-0.72,-3.052,-3.892
0.0,2399993138.057888,1.6140334606,349.94516702835733,4148.585069344544,0.618,-0.791,-3.157,-4.009
0.0,2399993138.057888,1.614104867,374.97300224548337,4117.1813799387055,0.593,-0.834,-3.239,-4.105
0.0,2399993138.057888,1.6141927242,411.14972110452214,4060.691533656346,0.588,-0.869,-3.352,-4.245
0.0,2399993138.057888,1.614272356,450.81670454146007,4029.025350832952,0.55,-0.926,-3.458,-4.365
0.0,2399993138.057888,1.614351511,493.1738039549359,3998.5266968073333,0.511,-0.984,-3.563,-4.485
0.0,2399993138.057888,1.6144307852,540.754322945581,3966.431879468582,0.473,-1.039,-3.671,-4.607
0.0,2399993138.057888,1.6145082712,594.2921586155727,3933.688806732022,0.438,-1.092,-3.784,-4.735
0.0,2399993138.057888,1.6145762205,660.6934480075957,3896.7271730789967,0.4,-1.149,-3.907,-4.876
0.0,2399993138.057888,1.6146224737,736.2070974947361,3858.335599053513,0.367,-1.198,-4.036,-5.022
0.0,2399993138.057888,1.6146532297,812.8305161640995,3823.8425365811263,0.34,-1.239,-4.15,-5.154
0.0,2399993138.057888,1.6146796942,893.3054837332954,3788.785337484371,0.323,-1.27,-4.264,-5.284
0.0,2399993138.057888,1.6147036552,981.7479430199844,3753.185242379138,0.316,-1.284,-4.378,-5.413
0.0,2399993138.057888,1.6147261858,1076.465213629835,3717.9196520448604,0.311,-1.297,-4.488,-5.539
0.0,2399993138.057888,1.6147482395,1183.0415557251647,3682.1374823089295,0.32,-1.288,-4.602,-5.669
0.0,2399993138.057888,1.6147681475,1282.3305826560218,3650.059970708618,0.332,-1.275,-4.703,-5.784
0.0,2399993138.057888,1.6147933006,1409.2887984218748,3612.434655644614,0.357,-1.245,-4.818,-5.916
0.0,2399993138.057888,1.6148192883,1538.154640303034,3576.844005764754,0.395,-1.198,-4.926,-6.039
0.0,2399993138.057888,1.6148467064,1686.5530253887407,3539.1583956694994,0.442,-1.138,-5.04,-6.169
0.0,2399993138.057888,1.6148525476,1713.9573075084252,3531.83169791957,0.455,-1.121,-5.06,-6.192
0.0,2399993138.057888,1.6148526669,1713.9573075084252,3531.83169791957,0.455,-1.121,-5.059,-6.192
0.0,2399993138.057888,1.6148527861,1713.9573075084252,3531.83169791957,0.455,-1.121,-5.059,-6.191
0.0,2399993138.057888,1.6148529053,1713.9573075084252,3531.83169791957,0.455,-1.121,-5.059,-6.192
0.0,2399993138.057888,1.6148530245,1713.9573075084252,3531.83169791957,0.455,-1.121,-5.06,-6.192
0.0,2399993138.057888,1.6148536205,1717.9083871575876,3531.018557237582,0.456,-1.12,-5.061,-6.194
0.0,2399993138.057888,1.614854455,1648.1623915255086,3547.316998366914,0.428,-1.156,-5.012,-6.138
0.0,2399993138.057888,1.6148552895,1559.552502826954,3571.083458083457,0.403,-1.188,-4.942,-6.057
0.0,2399993138.057888,1.6148562431,1520.5475297324954,3580.1399184306892,0.393,-1.201,-4.913,-6.024
0.0,2399993138.057888,1.6148576736,1513.5612484362086,3581.789013481115,0.393,-1.2,-4.906,-6.017
0.0,2399993138.057888,1.6148593426,1629.296032639723,3552.2211848231955,0.423,-1.163,-4.997,-6.121
0.0,2399993138.057888,1.6148613691,1786.4875748520499,3514.7950006430638,0.484,-1.083,-5.111,-6.251
0.0,2399993138.057888,1.6148639917,2018.3663636815618,3464.1764103524893,0.586,-0.953,-5.264,-6.425
0.0,2399993138.057888,1.6148674488,2264.6443075930597,3415.0730666882723,0.72,-0.783,-5.412,-6.592
0.0,2399993138.057888,1.6148735285,2511.88643150958,3371.3201787284347,0.859,-0.607,-5.544,-6.741
0.0,2399993138.057888,1.6148737669,2511.88643150958,3371.3201787284347,0.859,-0.607,-5.544,-6.741
0.0,2399993138.057888,1.6148741245,1358.3134465871542,3619.928562242391,0.369,-1.233,-4.774,-5.869
0.0,2399993138.057888,1.6148743629,1137.627285823431,3694.0264435828335,0.325,-1.283,-4.556,-5.618
0.0,2399993138.057888,1.6148750782,696.6265141107687,3906.609483459363,0.329,-1.222,-3.963,-4.926
0.0,2399993138.057888,1.6148761511,712.8530301265198,3895.8300217812994,0.327,-1.229,-3.99,-4.958
0.0,2399993138.057888,1.6148777008,909.9132726322517,3786.169041033592,0.311,-1.284,-4.285,-5.305
0.0,2399993138.057888,1.6148796082,1321.2956341865752,3626.6028624488754,0.373,-1.23,-4.743,-5.834
0.0,2399993138.057888,1.6148818731,1845.0154191794736,3488.9922117346073,0.562,-0.987,-5.156,-6.306
0.0,2399993138.057888,1.6148844957,2301.441817408509,3399.3822312328007,0.784,-0.704,-5.436,-6.622
0.0,2399993138.057888,1.6148875952,2588.2129151530903,3351.1973196770778,0.948,-0.498,-5.584,-6.79
0.0,2399993138.057888,1.6148911715,2728.9777828080405,3328.894257585374,1.038,-0.386,-5.651,-6.866
0.0,2399993138.057888,1.6148951054,2805.433637951713,3315.125698118432,1.096,-0.315,-5.687,-6.907
0.0,2399993138.057888,1.6148952246,1798.8709151287874,3487.385841352184,0.591,-0.956,-5.129,-6.281
0.0,2399993138.057888,1.6148957014,1285.2866599436154,3624.0985589974434,0.407,-1.192,-4.714,-5.806
0.0,2399993138.057888,1.6148965359,787.0457896950985,3833.540007590441,0.351,-1.225,-4.114,-5.113
0.0,2399993138.057888,1.6148976088,805.3784411990669,3823.8425365811263,0.35,-1.23,-4.14,-5.143
0.0,2399993138.057888,1.6148992777,1023.2929922807537,3719.632211619559,0.358,-1.246,-4.433,-5.484
0.0,2399993138.057888,1.614901185,1475.7065332758946,3565.3321878292813,0.475,-1.107,-4.885,-6.004
0.0,2399993138.057888,1.6149035692,2046.444636724674,3433.2070842609537,0.724,-0.786,-5.293,-6.466
0.0,2399993138.057888,1.6149064302,2540.972705549304,3348.1121738605384,0.987,-0.453,-5.566,-6.773
0.0,2399993138.057888,1.6149097681,2844.4611074479167,3303.6954103681487,1.16,-0.234,-5.707,-6.932
0.0,2399993138.057888,1.6149134636,2978.5164294291912,3283.976192504799,1.256,-0.109,-5.767,-7.0
0.0,2399993138.057888,1.6149176359,3047.8949896279833,3274.1607653757505,1.308,-0.04,-5.796,-7.034
0.0,2399993138.057888,1.6149177551,1990.6733389871863,3439.5371138063997,0.722,-0.792,-5.258,-6.429
0.0,2399993138.057888,1.614918232,1422.32878712282,3574.3740626448075,0.48,-1.104,-4.842,-5.956
0.0,2399993138.057888,1.6149190664,872.9713683881113,3781.8125611095074,0.364,-1.227,-4.24,-5.263
0.0,2399993138.057888,1.6149203777,891.2509381337459,3772.2459418486137,0.366,-1.227,-4.265,-5.292
0.0,2399993138.057888,1.6149221659,1129.7959146727976,3670.2867848109704,0.399,-1.202,-4.556,-5.628
0.0,2399993138.057888,1.6149243116,1618.0800376430661,3520.4647488942164,0.56,-1.001,-5.002,-6.139
0.0,2399993138.057888,1.614926815,2228.435149270303,3391.5638690582196,0.854,-0.624,-5.404,-6.594
0.0,2399993138.057888,1.6149299145,2754.2287033381663,3308.2627885569786,1.157,-0.242,-5.671,-6.894
0.0,2399993138.057888,1.6149334908,3069.021988391158,3265.8783217233567,1.36,0.025,-5.807,-7.048
0.0,2399993138.057888,1.6149375439,3213.660538640318,3247.8801876353714,1.45,0.143,-5.864,-7.113
0.0,2399993138.057888,1.6149420738,3280.9529311311903,3238.918349968776,1.497,0.203,-5.89,-7.143
0.0,2399993138.057888,1.614942193,2177.709772353159,3397.0348320337944,0.848,-0.634,-5.377,-6.564
0.0,2399993138.057888,1.6149427891,1563.1476426409538,3531.018557237582,0.55,-1.017,-4.96,-6.093
0.0,2399993138.057888,1.6149436235,959.4006315159336,3738.522510697288,0.377,-1.223,-4.357,-5.399
0.0,2399993138.057888,1.6149450541,979.4899854086991,3729.065399621527,0.378,-1.223,-4.382,-5.429
0.0,2399993138.057888,1.6149468422,1235.9474334445108,3629.108896409478,0.432,-1.166,-4.669,-5.76
0.0,2399993138.057888,1.6149491072,1761.976046411629,3480.96775232401,0.64,-0.899,-5.108,-6.262
0.0,2399993138.057888,1.614951849,2409.9054286865953,3355.057749988978,0.995,-0.448,-5.504,-6.709
0.0,2399993138.057888,1.6149551868,2964.8313895243423,3273.406948788383,1.339,-0.007,-5.765,-7.002
0.0,2399993138.057888,1.6149590015,3296.097121774576,3232.2132033960884,1.537,0.253,-5.897,-7.152
0.0,2399993138.057888,1.6149632931,3435.5794789987463,3215.140824832692,1.605,0.343,-5.952,-7.213
0.0,2399993138.057888,1.6149680614,3507.5187395256794,3207.007680303629,1.64,0.388,-5.976,-7.241
0.0,2399993138.057888,1.6149681807,2382.319469358689,3356.603166999334,0.994,-0.45,-5.492,-6.695
0.0,2399993138.057888,1.6149687767,1717.9083871575876,3489.7956743787454,0.628,-0.916,-5.077,-6.227
0.0,2399993138.057888,1.6149697304,1054.3868963912591,3698.281797802663,0.39,-1.214,-4.472,-5.533
0.0,2399993138.057888,1.6149711609,1076.465213629835,3688.926481189961,0.395,-1.208,-4.498,-5.562
0.0,2399993138.057888,1.6149730682,1352.0725631942764,3590.0458899019936,0.478,-1.11,-4.781,-5.888
0.0,2399993138.057888,1.6149755716,1909.8532585662388,3445.08546286579,0.734,-0.782,-5.213,-6.382
0.0,2399993138.057888,1.6149785519,2600.159563165272,3320.4733579750687,1.134,-0.275,-5.601,-6.82
0.0,2399993138.057888,1.6149820089,3176.8740706497692,3240.4102704918173,1.513,0.218,-5.855,-7.107
0.0,2399993138.057888,1.614986062,3523.7087104248726,3199.6317673183503,1.679,0.437,-5.985,-7.252
0.0,2399993138.057888,1.614990592,3681.289736425313,3182.7314821707823,1.756,0.536,-6.039,-7.313
0.0,2399993138.057888,1.614995718,3749.730022454834,3174.6803215678747,1.794,0.586,-6.063,-7.341
0.0,2399993138.057888,1.6149958372,2618.1830082189863,3315.8891219088578,1.156,-0.25,-5.612,-6.832
0.0,2399993138.057888,1.6149964333,1892.343618644976,3449.0540481442044,0.724,-0.795,-5.2,-6.367
0.0,2399993138.057888,1.6149975061,1164.126029410491,3657.631930094523,0.409,-1.193,-4.594,-5.672
0.0,2399993138.057888,1.6149989367,1188.502227437019,3648.379442958715,0.415,-1.187,-4.62,-5.702
0.0,2399993138.057888,1.6150009632,1489.3610777109154,3549.7682446720896,0.523,-1.054,-4.899,-6.024
0.0,2399993138.057888,1.6150034666,2084.4908830972886,3407.218616593573,0.838,-0.65,-5.324,-6.507
0.0,2399993138.057888,1.615006566,2811.9008303989394,3284.7324430306794,1.305,-0.057,-5.703,-6.936
0.0,2399993138.057888,1.6150101423,3427.6778654645045,3206.2693245054643,1.664,0.414,-5.952,-7.216
0.0,2399993138.057888,1.6150143147,3793.1498497368207,3165.920463432239,1.849,0.653,-6.079,-7.361
0.0,2399993138.057888,1.615019083,3953.666200681279,3148.4731933873795,1.921,0.743,-6.133,-7.421
0.0,2399993138.057888,1.6150244474,4036.4539296760486,3139.7856482728203,1.957,0.786,-6.159,-7.451
0.0,2399993138.057888,1.6150245667,2897.3435877013244,3271.1465401826636,1.379,0.039,-5.742,-6.981
0.0,2399993138.057888,1.6150251627,2103.778439766475,3402.5146202702363,0.854,-0.632,-5.336,-6.521
0.0,2399993138.057888,1.6150262356,1297.1792709839558,3611.602957582318,0.444,-1.153,-4.729,-5.827
0.0,2399993138.057888,1.6150276661,1327.3944577297402,3601.6375039472773,0.456,-1.137,-4.756,-5.858
0.0,2399993138.057888,1.6150296926,1651.961798229015,3505.09666806693,0.605,-0.95,-5.03,-6.174
0.0,2399993138.057888,1.6150323153,2296.148648112363,3364.340936432299,0.984,-0.468,-5.447,-6.647
0.0,2399993138.057888,1.6150352955,3069.021988391158,3244.1430790488475,1.519,0.221,-5.816,-7.066
0.0,2399993138.057888,1.615038991,3723.917062545687,3165.920463432239,1.863,0.669,-6.059,-7.34
0.0,2399993138.057888,1.6150431633,4111.497211045221,3125.35964361334,2.029,0.871,-6.184,-7.482
0.0,2399993138.057888,1.6150479317,4295.364267648873,3107.420310388586,2.107,0.964,-6.239,-7.544
0.0,2399993138.057888,1.6150532961,4385.306977749856,3096.7061741707726,2.152,1.019,-6.267,-7.576
0.0,2399993138.057888,1.6150534153,3243.3961734934933,3217.3625326955976,1.645,0.383,-5.887,-7.148
0.0,2399993138.057888,1.6150540113,2360.478233180578,3348.1121738605384,1.057,-0.378,-5.486,-6.693
0.0,2399993138.057888,1.6150550842,1458.814260275349,3557.132151345879,0.517,-1.064,-4.876,-5.997
0.0,2399993138.057888,1.6150565147,1489.3610777109154,3548.133892335753,0.531,-1.048,-4.901,-6.027
0.0,2399993138.057888,1.6150585413,1845.0154191794736,3453.027205056406,0.729,-0.794,-5.17,-6.336
0.0,2399993138.057888,1.6150610447,2529.2979964461447,3316.6527215043507,1.185,-0.22,-5.574,-6.794
0.0,2399993138.057888,1.6150640249,3349.654391578276,3199.6317673183503,1.728,0.489,-5.929,-7.196
0.0,2399993138.057888,1.6150676012,4017.9081084894,3124.640085806112,2.056,0.9,-6.16,-7.458
0.0,2399993138.057888,1.6150717735,4415.704473533126,3086.0289794360633,2.208,1.079,-6.278,-7.591
0.0,2399993138.057888,1.6150765419,4581.418867145335,3069.021988391158,2.248,1.108,-6.327,-7.646
0.0,2399993138.057888,1.6150817871,4666.593803142887,3060.5536720536616,2.271,1.124,-6.35,-7.671
0.0,2399993138.057888,1.6150819063,3556.3131856898544,3169.56746304349,1.878,0.68,-6.007,-7.287
0.0,2399993138.057888,1.6150825024,2600.159563165272,3300.6539952850767,1.271,-0.112,-5.612,-6.838
0.0,2399993138.057888,1.615083456,1610.64563517827,3511.5592451629086,0.606,-0.953,-5.0,-6.142
0.0,2399993138.057888,1.6150847673,1644.3717232149324,3501.8698409688745,0.625,-0.928,-5.025,-6.17
0.0,2399993138.057888,1.6150866747,2018.3663636815618,3409.5730529319967,0.864,-0.626,-5.288,-6.471
0.0,2399993138.057888,1.6150890589,2735.268726306711,3275.668919368471,1.399,0.053,-5.678,-6.914
0.0,2399993138.057888,1.6150919199,3580.9643710263585,3162.2776601683795,1.927,0.74,-6.018,-7.301
0.0,2399993138.057888,1.6150952578,4265.795188015925,3088.8726265127525,2.224,1.098,-6.24,-7.552
0.0,2399993138.057888,1.6150991917,4655.860935229591,3052.1087222420074,2.309,1.158,-6.352,-7.676
0.0,2399993138.057888,1.6151036024,4819.477976251272,3036.686788465786,2.349,1.185,-6.396,-7.726
0.0,2399993138.057888,1.6151086092,4897.7881936844615,3029.0050681662174,2.37,1.2,-6.415,-7.748
0.0,2399993138.057888,1.6151087284,3837.0724549227884,3128.959918963571,2.072,0.914,-6.108,-7.404
0.0,2399993138.057888,1.6151092052,2824.8799749157074,3259.1173631348456,1.494,0.174,-5.718,-6.962
0.0,2399993138.057888,1.6151101589,1753.880501841762,3472.1621617221945,0.691,-0.847,-5.108,-6.265
0.0,2399993138.057888,1.6151114702,1786.4875748520499,3462.5814654379196,0.716,-0.816,-5.133,-6.295
0.0,2399993138.057888,1.6151133776,2187.761623949552,3370.5439929348295,1.002,-0.455,-5.392,-6.59
0.0,2399993138.057888,1.6151156425,2937.6496519615307,3238.918349968776,1.604,0.316,-5.769,-7.022
0.0,2399993138.057888,1.6151183844,3801.8939632056126,3126.799256376112,2.092,0.936,-6.099,-7.396
0.0,2399993138.057888,1.615121603,4508.167045414601,3054.9211132155124,2.328,1.179,-6.314,-7.638
0.0,2399993138.057888,1.6151252985,4909.078761526029,3017.866332008685,2.418,1.241,-6.423,-7.759
0.0,2399993138.057888,1.61512959,5081.594425605605,3001.9261222416912,2.448,1.26,-6.467,-7.807
0.0,2399993138.057888,1.6151343584,5152.286445817567,2993.642942739855,2.467,1.272,-6.487,-7.83
0.0,2399993138.057888,1.6151344776,4159.106104940223,3082.4781017155096,2.277,1.148,-6.216,-7.53
0.0,2399993138.057888,1.6151349545,3069.021988391158,3212.9206511412604,1.73,0.475,-5.83,-7.092
0.0,2399993138.057888,1.6151357889,1914.255925021086,3426.888704327863,0.831,-0.676,-5.222,-6.398
0.0,2399993138.057888,1.6151371002,1949.8445997580454,3417.4329305629954,0.861,-0.638,-5.248,-6.427
0.0,2399993138.057888,1.6151387691,2371.373705661655,3325.8296441911734,1.197,-0.218,-5.501,-6.717
0.0,2399993138.057888,1.6151409149,3155.0046233746275,3196.686154267323,1.81,0.577,-5.866,-7.135
0.0,2399993138.057888,1.6151435375,4055.085354483839,3086.0289794360633,2.285,1.159,-6.185,-7.498
0.0,2399993138.057888,1.615146637,4764.309868054156,3015.0880540378826,2.455,1.278,-6.393,-7.729
0.0,2399993138.057888,1.615150094,5176.068319505676,2978.5164294291912,2.522,1.317,-6.497,-7.843
0.0,2399993138.057888,1.6151541471,5345.643593969719,2962.1019360527644,2.558,1.34,-6.54,-7.891
0.0,2399993138.057888,1.6151586771,5432.503314924331,2952.5686217289685,2.582,1.356,-6.56,-7.915
0.0,2399993138.057888,1.6151587963,4497.798548932879,3031.098153584047,2.439,1.275,-6.323,-7.654
0.0,2399993138.057888,1.6151592731,3334.2641276323507,3160.8217127583484,2.006,0.821,-5.942,-7.225
0.0,2399993138.057888,1.6151601076,2084.4908830972886,3376.758486420327,1.016,-0.45,-5.337,-6.533
0.0,2399993138.057888,1.6151612997,2123.2444620002193,3366.665743686229,1.057,-0.398,-5.362,-6.562
0.0,2399993138.057888,1.6151628494,2570.3957827688646,3275.668919368471,1.468,0.121,-5.609,-6.846
0.0,2399993138.057888,1.615164876,3380.6483620598156,3149.1982396022863,2.067,0.894,-5.962,-7.25
0.0,2399993138.057888,1.6151672602,4305.266104917106,3040.88502567628,2.437,1.281,-6.27,-7.598
0.0,2399993138.057888,1.6151701212,5023.4258952238715,2970.9818591187295,2.579,1.37,-6.469,-7.818
0.0,2399993138.057888,1.6151734591,5432.503314924331,2934.269503955967,2.642,1.407,-6.569,-7.927
0.0,2399993138.057888,1.6151772738,5610.479760324706,2917.427014001166,2.675,1.427,-6.61,-7.973
0.0,2399993138.057888,1.6151814461,5688.529308438413,2907.3679594442274,2.701,1.445,-6.629,-7.995
0.0,2399993138.057888,1.6151815653,4830.5880203977285,2976.459653637275,2.595,1.392,-6.424,-7.77
0.0,2399993138.057888,1.6151820421,3597.4933515574235,3105.989619905655,2.284,1.149,-6.048,-7.353
0.0,2399993138.057888,1.6151827574,2254.2392121524304,3323.533035774775,1.27,-0.143,-5.446,-6.663
0.0,2399993138.057888,1.6151838303,2296.148648112363,3312.8364811728147,1.318,-0.085,-5.471,-6.692
0.0,2399993138.057888,1.61518538,2766.9416454115126,3221.810555177115,1.779,0.514,-5.712,-6.971
0.0,2399993138.057888,1.6151872873,3605.7864302164235,3096.7061741707726,2.341,1.215,-6.055,-7.363
0.0,2399993138.057888,1.6151895523,4549.880601500485,2989.5099278145867,2.601,1.409,-6.352,-7.695
0.0,2399993138.057888,1.6151922941,5284.452517751803,2920.1153013941557,2.72,1.477,-6.543,-7.905
0.0,2399993138.057888,1.6151953936,5688.529308438413,2883.367506780263,2.791,1.52,-6.639,-8.012
0.0,2399993138.057888,1.6151989698,5861.3816451402845,2864.8375471900267,2.823,1.55,-6.679,-8.054
0.0,2399993138.057888,1.6152029037,5929.2532458,2853.6453620049656,2.849,1.575,-6.698,-8.075
0.0,2399993138.057888,1.615203023,5164.163692720711,2913.399222570164,2.767,1.52,-6.522,-7.886
0.0,2399993138.057888,1.6152033806,3863.669770540693,3042.2857274809608,2.537,1.385,-6.153,-7.48
0.0,2399993138.057888,1.6152040958,2426.6100950824143,3261.3694594087888,1.641,0.318,-5.553,-6.795
0.0,2399993138.057888,1.6152051687,2471.724145016129,3249.376236187617,1.709,0.404,-5.578,-6.826
0.0,2399993138.057888,1.6152065992,2964.8313895243423,3157.9118286322528,2.146,0.966,-5.814,-7.098
0.0,2399993138.057888,1.6152083874,3828.2474331682283,3032.494347329631,2.59,1.431,-6.147,-7.478
0.0,2399993138.057888,1.6152105331,4786.300923226385,2925.499309897072,2.793,1.559,-6.435,-7.794
0.0,2399993138.057888,1.6152130365,5533.501092157366,2854.9598169004084,2.91,1.641,-6.62,-7.996
0.0,2399993138.057888,1.6152160168,5929.2532458,2815.788299710311,2.974,1.703,-6.712,-8.095
0.0,2399993138.057888,1.6152193546,6109.420249055721,2794.473528597117,3.008,1.745,-6.751,-8.137
0.0,2399993138.057888,1.6152230501,6180.164001384158,2779.7132677592886,3.041,1.784,-6.77,-8.157
0.0,2399993138.057888,1.6152231693,5508.076964054036,2830.740118752184,2.996,1.727,-6.624,-8.004
0.0,2399993138.057888,1.615223527,4130.475019901614,2960.0564950758185,2.815,1.605,-6.26,-7.611
0.0,2399993138.057888,1.6152242422,2600.159563165272,3182.7314821707823,2.112,0.9,-5.662,-6.936
0.0,2399993138.057888,1.6152251959,2648.500138606701,3169.56746304349,2.184,0.99,-5.687,-6.966
0.0,2399993138.057888,1.6152265072,3162.2776601683795,3076.805193759751,2.581,1.454,-5.92,-7.235
0.0,2399993138.057888,1.6152281761,4055.085354483839,2949.8504574842414,2.873,1.657,-6.244,-7.597
0.0,2399993138.057888,1.6152302027,5023.4258952238715,2841.8424680635885,3.048,1.782,-6.521,-7.899
0.0,2399993138.057888,1.6152325869,5767.664633922509,2769.491266809683,3.142,1.891,-6.699,-8.087
0.0,2399993138.057888,1.6152353287,6180.164001384158,2728.3494847901197,3.197,1.97,-6.788,-8.181
0.0,2399993138.057888,1.6152384281,6338.69711256927,2705.8268376488263,3.24,2.029,-6.826,-8.222
0.0,2399993138.057888,1.6152420044,6412.095765851615,2689.056950029252,3.283,2.084,-6.844,-8.242
