FeH,Age,Mini,L,Te,Bmag,Vmag,Jmag,Kmag
-0.5,4600022966.650686,0.0900000036,0.00047206304126359047,2544.4856151466365,19.679,17.691,10.95,10.252
-0.5,4600022966.650686,0.09348391,0.0005610479760324706,2607.9544390266037,19.453,17.472,10.764,10.062
-0.5,4600022966.650686,0.1000000015,0.0007638357835776907,2725.2101638491986,18.48,16.57,10.482,9.738
-0.5,4600022966.650686,0.1199999973,0.001412537544622754,2934.945222269793,16.742,14.958,9.905,9.109
-0.5,4600022966.650686,0.1400000006,0.002167704104819694,3069.021988391158,15.705,13.982,9.498,8.686
-0.5,4600022966.650686,0.1599999964,0.0030060763026282323,3163.0058853452065,15.005,13.326,9.181,8.363
-0.5,4600022966.650686,0.1999999881,0.004954501908047901,3296.097121774576,14.055,12.436,8.69,7.869
-0.5,4600022966.650686,0.25,0.007906786279998253,3405.6498956736095,13.271,11.709,8.221,7.399
-0.5,4600022966.650686,0.3000000119,0.01148153621496883,3482.571166386543,12.699,11.177,7.843,7.02
-0.5,4600022966.650686,0.3499999642,0.016255487557504843,3547.316998366914,12.192,10.701,7.487,6.662
-0.5,4600022966.650686,0.3999999762,0.02301441817408509,3641.665065732136,11.648,10.195,7.144,6.316
-0.5,4600022966.650686,0.4499999881,0.03365115693754907,3762.7035226776516,11.045,9.637,6.773,5.942
-0.5,4600022966.650686,0.4999999404,0.05046612975635284,3930.972449074674,10.373,9.03,6.386,5.559
-0.5,4600022966.650686,0.5500000119,0.07798301105232586,4170.614031267226,9.6,8.369,5.977,5.169
-0.5,4600022966.650686,0.5934075713,0.11220184543019636,4422.827487168868,8.881,7.784,5.646,4.887
-0.5,4600022966.650686,0.5999999642,0.11830415557251646,4461.696245809645,8.772,7.697,5.598,4.85
-0.5,4600022966.650686,0.6499999166,0.17741894808901656,4788.50560386518,7.96,7.041,5.254,4.606
-0.5,4600022966.650686,0.6823599935,0.2269864851883822,4991.142851656184,7.518,6.672,5.047,4.465
-0.5,4600022966.650686,0.6999999881,0.2594179362118814,5101.5247738556045,7.296,6.486,4.939,4.388
-0.5,4600022966.650686,0.7100023627,0.278612116862977,5162.974736975886,7.175,6.384,4.879,4.345
-0.5,4600022966.650686,0.7414848208,0.34994516702835726,5356.732999763011,6.814,6.08,4.695,4.21
-0.5,4600022966.650686,0.7487857342,0.36897759857015033,5401.3211476463475,6.734,6.013,4.653,4.179
-0.5,4600022966.650686,0.7577992678,0.3926449353995998,5450.043893417617,6.64,5.933,4.601,4.138
-0.5,4600022966.650686,0.783868134,0.4709773263969529,5589.848017438496,6.377,5.709,4.451,4.019
-0.5,4600022966.650686,0.7975714207,0.5176068319505677,5663.696854647211,6.243,5.594,4.374,3.957
-0.5,4600022966.650686,0.8108273149,0.5675446054085471,5727.960309858292,6.118,5.486,4.297,3.893
-0.5,4600022966.650686,0.8357726932,0.6729766562843178,5846.554467527501,5.886,5.287,4.154,3.772
-0.5,4600022966.650686,0.8463571072,0.7227698036021702,5895.219770654917,5.79,5.204,4.094,3.721
-0.5,4600022966.650686,0.8615715504,0.7998342550070284,5959.365192559373,5.655,5.088,4.006,3.645
-0.5,4600022966.650686,0.879724443,0.9036494737223014,6033.926282193056,5.494,4.949,3.9,3.553
-0.5,4600022966.650686,0.8951427937,1.0046157902783952,6093.9656234012,5.36,4.831,3.81,3.474
-0.5,4600022966.650686,0.9098842144,1.109174815262401,6147.520703193109,5.233,4.719,3.721,3.394
-0.5,4600022966.650686,0.9356687069,1.3243415351946646,6237.348354824191,5.012,4.522,3.561,3.249
-0.5,4600022966.650686,0.9439284801,1.4028137045619582,6266.138646723356,4.941,4.459,3.509,3.202
-0.5,4600022966.650686,0.9668777585,1.6443717232149315,6341.616862711066,4.743,4.28,3.36,3.065
-0.5,4600022966.650686,0.9876896143,1.9098532585662382,6406.192726268982,4.562,4.116,3.222,2.937
-0.5,4600022966.650686,0.9927142262,1.981527025805098,6420.9605256759405,4.518,4.075,3.187,2.905
-0.5,4600022966.650686,1.005885601,2.1727011788637447,6459.516322696259,4.404,3.971,3.098,2.822
-0.5,4600022966.650686,1.0222023726,2.443430552693972,6499.80009683025,4.266,3.843,2.986,2.716
-0.5,4600022966.650686,1.0375714302,2.7227013080779123,6529.801810928715,4.138,3.721,2.878,2.612
-0.5,4600022966.650686,1.0414998531,2.7989813196343625,6535.818751130748,4.105,3.69,2.849,2.585
-0.5,4600022966.650686,1.0432260036,2.837919028441556,6540.335094488948,4.091,3.677,2.837,2.573
-0.5,4600022966.650686,1.0565100908,3.1477483141013156,6564.475019516997,3.971,3.563,2.733,2.474
-0.5,4600022966.650686,1.0679372549,3.451437393358563,6581.122882388993,3.864,3.461,2.639,2.382
-0.5,4600022966.650686,1.0704424381,3.523708710424872,6584.154299433819,3.84,3.438,2.617,2.361
-0.5,4600022966.650686,1.0719194412,3.5645113342624426,6585.67053154378,3.826,3.424,2.604,2.347
-0.5,4600022966.650686,1.0808845758,3.854783576657718,6588.704043340734,3.739,3.338,2.52,2.265
-0.5,4600022966.650686,1.0882136822,4.120975190973302,6585.67053154378,3.667,3.266,2.448,2.192
-0.5,4600022966.650686,1.0902856588,4.1975898399100755,6582.638416409018,3.646,3.245,2.426,2.17
-0.5,4600022966.650686,1.0935980082,4.335108783875289,6576.578373554205,3.61,3.209,2.388,2.131
-0.5,4600022966.650686,1.0946694613,4.395416154378245,6575.064234749979,3.598,3.196,2.374,2.117
-0.5,4600022966.650686,1.0969791412,4.49779854893288,6567.49876817207,3.573,3.17,2.346,2.087
-0.5,4600022966.650686,1.1022669077,4.742419852602447,6547.869269722528,3.519,3.112,2.281,2.02
-0.5,4600022966.650686,1.1068296432,4.96592321450336,6523.790409982088,3.474,3.064,2.224,1.959
-0.5,4600022966.650686,1.1137645245,5.321082592667942,6481.865274740793,3.408,2.989,2.133,1.863
-0.5,4600022966.650686,1.1193362474,5.649369748123025,6423.918168243863,3.358,2.927,2.05,1.771
-0.5,4600022966.650686,1.1258411407,6.039486293763798,6319.751475952436,3.313,2.859,1.94,1.646
-0.5,4600022966.650686,1.1307604313,6.309573444801933,6184.434582271281,3.307,2.82,1.847,1.531
-0.5,4600022966.650686,1.134132266,6.397348354826482,6043.659664361793,3.34,2.817,1.783,1.441
-0.5,4600022966.650686,1.1365851164,6.324118513762195,5902.010801718442,3.407,2.844,1.746,1.376
-0.5,4600022966.650686,1.1382567883,6.151768727098682,5776.968506969277,3.487,2.89,1.734,1.339
-0.5,4600022966.650686,1.1390712261,6.025595860743578,5709.52527715281,3.537,2.92,1.732,1.324
-0.5,4600022966.650686,1.1401488781,5.847900841444807,5615.649583575098,3.609,2.967,1.733,1.304
-0.5,4600022966.650686,1.1414177418,5.741164622073276,5513.152427395885,3.675,3.006,1.719,1.268
-0.5,4600022966.650686,1.1432877779,5.847900841444807,5392.622258915705,3.715,3.011,1.66,1.181
-0.5,4600022966.650686,1.1449290514,6.223002851691596,5319.857509170661,3.685,2.961,1.57,1.073
-0.5,4600022966.650686,1.1456159353,6.4416926551517735,5296.634438916581,3.66,2.929,1.525,1.022
-0.5,4600022966.650686,1.1465469599,6.807693586937414,5271.08476236396,3.612,2.875,1.457,0.947
-0.5,4600022966.650686,1.1479483843,7.464487584100665,5238.416190277907,3.531,2.784,1.347,0.83
-0.5,4600022966.650686,1.1492830515,8.222426499470712,5211.947111050806,3.442,2.687,1.234,0.71
-0.5,4600022966.650686,1.1506669521,9.162204901219997,5188.000389289609,3.338,2.575,1.108,0.578
-0.5,4600022966.650686,1.1520220041,10.280162981264736,5165.352922264228,3.226,2.456,0.975,0.438
-0.5,4600022966.650686,1.1531581879,11.428783347897719,5145.173213816577,3.125,2.347,0.855,0.313
-0.5,4600022966.650686,1.154268384,12.76438808811344,5125.0723423117615,3.017,2.233,0.728,0.18
-0.5,4600022966.650686,1.155282259,14.25607593602188,5103.874653873108,2.911,2.12,0.602,0.048
-0.5,4600022966.650686,1.1562075615,15.88546748597779,5081.594425605605,2.805,2.008,0.476,-0.083
-0.5,4600022966.650686,1.157004118,17.619760464116293,5060.5765651324455,2.706,1.903,0.359,-0.206
-0.5,4600022966.650686,1.1577700377,19.5884467350599,5037.3253278550155,2.604,1.793,0.236,-0.336
-0.5,4600022966.650686,1.158457756,21.77709772353159,5015.335611066592,2.505,1.686,0.114,-0.464
-0.5,4600022966.650686,1.1591117382,24.266100950824157,4989.993730845963,2.406,1.577,-0.012,-0.598
-0.5,4600022966.650686,1.1596745253,26.915348039269155,4965.923214503363,2.313,1.475,-0.131,-0.724
-0.5,4600022966.650686,1.1602017879,29.853826189179603,4941.96880847838,2.219,1.371,-0.253,-0.853
-0.5,4600022966.650686,1.1606835127,33.11311214825911,4915.86559156862,2.127,1.269,-0.373,-0.982
-0.5,4600022966.650686,1.161110878,36.55947916131249,4891.026321245936,2.039,1.171,-0.488,-1.104
-0.5,4600022966.650686,1.1615291834,40.55085354483839,4864.072056914614,1.947,1.069,-0.609,-1.235
-0.5,4600022966.650686,1.1619007587,44.87453899331321,4838.380286511588,1.86,0.973,-0.725,-1.359
-0.5,4600022966.650686,1.1622445583,49.43106869868354,4811.716152521639,1.775,0.877,-0.84,-1.483
-0.5,4600022966.650686,1.1625720263,54.57578610912711,4785.198963583403,1.693,0.781,-0.956,-1.607
-0.5,4600022966.650686,1.1628957987,60.25595860743578,4757.732275412047,1.613,0.688,-1.07,-1.73
-0.5,4600022966.650686,1.1633461714,66.3743070401909,4731.512589614803,1.532,0.595,-1.185,-1.852
-0.5,4600022966.650686,1.1633849144,66.68067692136222,4731.512589614803,1.529,0.59,-1.19,-1.858
-0.5,4600022966.650686,1.1636339426,62.51726927756859,4753.352259428054,1.578,0.65,-1.113,-1.773
-0.5,4600022966.650686,1.1638047695,57.67664633922506,4778.592531515467,1.639,0.724,-1.018,-1.671
-0.5,4600022966.650686,1.163834095,56.88529308438413,4782.995805358158,1.649,0.736,-1.002,-1.654
-0.5,4600022966.650686,1.164057374,61.94410750767815,4758.827909888171,1.581,0.656,-1.102,-1.761
-0.5,4600022966.650686,1.1643234491,68.7068440014232,4730.423243999551,1.499,0.559,-1.222,-1.89
-0.5,4600022966.650686,1.1645718813,75.85775750291836,4701.105526734309,1.419,0.465,-1.339,-2.016
-0.5,4600022966.650686,1.1648037434,83.75292821268826,4673.045396315099,1.341,0.372,-1.454,-2.141
-0.5,4600022966.650686,1.1650153399,92.04495717531712,4644.083289410481,1.268,0.284,-1.567,-2.262
-0.5,4600022966.650686,1.1652154922,101.62486928706959,4615.300680791288,1.194,0.194,-1.681,-2.386
-0.5,4600022966.650686,1.1654000282,111.94378834671514,4586.696457982016,1.121,0.105,-1.794,-2.508
-0.5,4600022966.650686,1.1655709743,123.02687708123811,4557.220055886471,1.05,0.018,-1.907,-2.631
-0.5,4600022966.650686,1.1657311916,135.8313446587154,4527.933083871694,0.986,-0.072,-2.021,-2.754
-0.5,4600022966.650686,1.1658737659,148.93610777109154,4498.834324565384,0.927,-0.157,-2.131,-2.871
-0.5,4600022966.650686,1.1660090685,164.05897731995387,4469.922568418684,0.866,-0.245,-2.243,-2.992
-0.5,4600022966.650686,1.1661310196,179.88709151287873,4441.1966136558885,0.809,-0.327,-2.351,-3.108
-0.5,4600022966.650686,1.1662458181,197.24227361148533,4411.6393317691345,0.753,-0.41,-2.46,-3.226
-0.5,4600022966.650686,1.1663509607,216.7704104819694,4382.278761036721,0.697,-0.491,-2.567,-3.343
-0.5,4600022966.650686,1.1664493084,237.6840286624876,4353.113592296378,0.643,-0.573,-2.675,-3.46
-0.5,4600022966.650686,1.1665397882,260.6153549998895,4324.142525098645,0.59,-0.652,-2.782,-3.577
-0.5,4600022966.650686,1.1666226387,285.10182675039096,4294.375337334884,0.539,-0.729,-2.887,-3.692
-0.5,4600022966.650686,1.1667009592,312.6079367123956,4265.795188015925,0.487,-0.805,-2.993,-3.809
-0.5,4600022966.650686,1.1667712927,341.1929116219285,4237.405246788001,0.44,-0.874,-3.095,-3.924
-0.5,4600022966.650686,1.1668386459,373.2501577957206,4208.23515424823,0.392,-0.943,-3.2,-4.042
-0.5,4600022966.650686,1.1669009924,408.3193863326923,4180.228289540325,0.344,-1.012,-3.304,-4.158
-0.5,4600022966.650686,1.166957736,445.6562483975033,4152.407817569997,0.3,-1.077,-3.404,-4.271
-0.5,4600022966.650686,1.1670123339,486.4072056914614,4123.822843217308,0.257,-1.143,-3.507,-4.387
-0.5,4600022966.650686,1.1670616865,529.6634438916581,4095.434646443952,0.216,-1.205,-3.606,-4.499
-0.5,4600022966.650686,1.1671085358,578.0960474057181,4068.178497521943,0.176,-1.267,-3.705,-4.612
-0.5,4600022966.650686,1.1671528816,629.5061828571975,4040.1733537300024,0.137,-1.327,-3.804,-4.725
-0.5,4600022966.650686,1.1672022343,698.2324040771712,4006.8215418221093,0.095,-1.396,-3.922,-4.86
-0.5,4600022966.650686,1.1672401428,760.3262769401815,3979.2387763422494,0.062,-1.453,-4.02,-4.971
-0.5,4600022966.650686,1.1672760248,826.0379495771783,3951.8458892843655,0.033,-1.505,-4.118,-5.083
-0.5,4600022966.650686,1.1673159599,914.1132414702499,3919.2232245497667,0.002,-1.565,-4.233,-5.215
-0.5,4600022966.650686,1.1673532724,1009.2528860766844,3885.974979543936,-0.028,-1.623,-4.349,-5.348
-0.5,4600022966.650686,1.16738832,1114.2945335917304,3853.0087919083076,-0.055,-1.677,-4.464,-5.48
-0.5,4600022966.650686,1.1674201488,1227.4392311584072,3820.322268844109,-0.078,-1.727,-4.576,-5.609
-0.5,4600022966.650686,1.1674501896,1352.0725631942764,3787.913037851565,-0.098,-1.772,-4.688,-5.738
-0.5,4600022966.650686,1.1674773693,1485.9356422870076,3755.7787465577244,-0.111,-1.806,-4.796,-5.863
-0.5,4600022966.650686,1.1675027609,1629.296032639723,3723.059697665676,-0.122,-1.84,-4.904,-5.988
-0.5,4600022966.650686,1.1675269604,1786.4875748520499,3690.6256858412085,-0.122,-1.859,-5.012,-6.113
-0.5,4600022966.650686,1.1675490141,1949.8445997580454,3658.474227939712,-0.115,-1.87,-5.118,-6.233
-0.5,4600022966.650686,1.1675696373,2123.2444620002193,3627.4380147645793,-0.105,-1.876,-5.219,-6.35
-0.5,4600022966.650686,1.1675893068,2301.441817408509,3597.4933515574235,-0.086,-1.865,-5.316,-6.461
-0.5,4600022966.650686,1.1675940752,2344.228815319923,3590.872623694513,-0.081,-1.862,-5.338,-6.485
-0.5,4600022966.650686,1.1675940752,60.53408747539136,4995.741981759636,1.417,0.582,-1.004,-1.588
-0.5,4600022966.650686,1.1677942276,61.94410750767815,4985.3998926398735,1.399,0.559,-1.035,-1.621
-0.5,4600022966.650686,1.168005228,62.8058358813318,4980.810283567242,1.388,0.547,-1.05,-1.637
-0.5,4600022966.650686,1.1682192087,63.09573444801933,4981.957289567119,1.383,0.541,-1.055,-1.642
-0.5,4600022966.650686,1.1684350967,63.24118513762193,4984.252094042598,1.379,0.539,-1.055,-1.642
-0.5,4600022966.650686,1.1686561108,63.09573444801933,4988.844874600121,1.376,0.537,-1.054,-1.639
-0.5,4600022966.650686,1.1688742638,63.09573444801933,4993.441887213498,1.374,0.537,-1.052,-1.635
-0.5,4600022966.650686,1.1690948009,63.09573444801933,4998.043135782391,1.371,0.536,-1.049,-1.632
-0.5,4600022966.650686,1.169308424,62.95061828571975,5002.648624210056,1.369,0.535,-1.047,-1.628
-0.5,4600022966.650686,1.1695100069,62.95061828571975,5006.10552528821,1.366,0.533,-1.046,-1.626
-0.5,4600022966.650686,1.1697140932,63.09573444801933,5009.564815133986,1.363,0.532,-1.046,-1.625
-0.5,4600022966.650686,1.1699304581,63.09573444801933,5013.026495398051,1.36,0.53,-1.045,-1.623
-0.5,4600022966.650686,1.170132637,63.09573444801933,5015.335611066592,1.357,0.528,-1.045,-1.623
-0.5,4600022966.650686,1.1703313589,63.24118513762193,5017.645790367086,1.354,0.526,-1.046,-1.622
-0.5,4600022966.650686,1.1705369949,63.24118513762193,5021.113054699537,1.35,0.523,-1.047,-1.622
-0.5,4600022966.650686,1.1706535816,63.3869711256927,5022.2693418239,1.349,0.522,-1.047,-1.622
-0.5,4600022966.650686,1.170746088,63.3869711256927,5023.4258952238715,1.347,0.521,-1.047,-1.622
-0.5,4600022966.650686,1.1709549427,63.53309318517436,5024.582714960762,1.344,0.518,-1.049,-1.623
-0.5,4600022966.650686,1.17116642,63.67955209079159,5026.897153690667,1.34,0.516,-1.05,-1.624
-0.5,4600022966.650686,1.1713843346,63.82634861905486,5028.054772806391,1.337,0.512,-1.052,-1.626
-0.5,4600022966.650686,1.1716020107,63.973483548264824,5029.2126585044525,1.333,0.509,-1.055,-1.629
-0.5,4600022966.650686,1.1718207598,64.26877173170197,5030.370810846251,1.329,0.505,-1.059,-1.632
-0.5,4600022966.650686,1.1720252037,64.41692655151772,5030.370810846251,1.325,0.501,-1.063,-1.636
-0.5,4600022966.650686,1.1721841097,64.71426157485831,5029.2126585044525,1.322,0.498,-1.066,-1.639
-0.5,4600022966.650686,1.1722400188,64.71426157485831,5029.2126585044525,1.321,0.496,-1.068,-1.641
-0.5,4600022966.650686,1.1724594831,65.01296903430907,5028.054772806391,1.316,0.491,-1.074,-1.648
-0.5,4600022966.650686,1.1726770401,65.46361740672751,5025.739801095915,1.31,0.484,-1.082,-1.656
-0.5,4600022966.650686,1.1729006767,66.06934480075961,5023.4258952238715,1.304,0.477,-1.091,-1.666
-0.5,4600022966.650686,1.1731197834,66.52731562017412,5018.801279032415,1.297,0.469,-1.102,-1.678
-0.5,4600022966.650686,1.173338294,67.29766562843179,5014.180920308942,1.29,0.459,-1.115,-1.692
-0.5,4600022966.650686,1.1735539436,67.92036326171846,5010.718442871759,1.284,0.451,-1.125,-1.704
-0.5,4600022966.650686,1.1737695932,68.86522963442762,5001.496854402788,1.273,0.438,-1.145,-1.725
-0.5,4600022966.650686,1.1739895344,70.30723198838334,4991.142851656184,1.261,0.42,-1.169,-1.753
-0.5,4600022966.650686,1.1742216349,71.6143410212902,4980.810283567242,1.247,0.402,-1.194,-1.78
-0.5,4600022966.650686,1.1744372845,75.33555637337174,4954.5019080479005,1.215,0.359,-1.256,-1.85
-0.5,4600022966.650686,1.1746217012,82.03515443298181,4907.948534495558,1.158,0.282,-1.364,-1.972
-0.5,4600022966.650686,1.1747100353,89.94975815300351,4861.832584649837,1.097,0.201,-1.48,-2.101
-0.5,4600022966.650686,1.1747496128,98.8553094656939,4817.25903559163,1.035,0.119,-1.595,-2.23
-0.5,4600022966.650686,1.1747666597,107.89467222298286,4777.4923465909405,0.976,0.042,-1.702,-2.35
-0.5,4600022966.650686,1.1747752428,117.48975549395291,4740.236390350336,0.921,-0.032,-1.805,-2.466
-0.5,4600022966.650686,1.1747803688,127.93813041575252,4703.2709644077795,0.864,-0.106,-1.908,-2.581
-0.5,4600022966.650686,1.1747814417,130.61708881318418,4693.534343171951,0.849,-0.126,-1.935,-2.611
-0.5,4600022966.650686,1.1747815609,130.9181922999407,4693.534343171951,0.849,-0.127,-1.937,-2.613
-0.5,4600022966.650686,1.1747823954,133.3521432163324,4684.8964916001305,0.836,-0.144,-1.96,-2.638
-0.5,4600022966.650686,1.1747860909,146.89262776438662,4646.222461325775,0.779,-0.231,-2.077,-2.765
-0.5,4600022966.650686,1.1747896671,159.220872705117,4613.175745603796,0.733,-0.302,-2.174,-2.871
-0.5,4600022966.650686,1.1747975349,169.82436524617444,4587.752705471357,0.696,-0.359,-2.251,-2.955
-0.5,4600022966.650686,1.174805522,164.43717232149325,4601.506077890588,0.714,-0.331,-2.212,-2.912
-0.5,4600022966.650686,1.1748422384,155.59656316050751,4623.810213992603,0.746,-0.281,-2.145,-2.839
-0.5,4600022966.650686,1.1749862432,161.064563517827,4608.928809808955,0.727,-0.311,-2.187,-2.884
-0.5,4600022966.650686,1.1750565767,174.5822152920504,4576.147348863334,0.682,-0.383,-2.284,-2.991
-0.5,4600022966.650686,1.1751211882,190.54607179632464,4540.461526048465,0.633,-0.46,-2.391,-3.107
-0.5,4600022966.650686,1.1751823425,209.41124558508935,4504.016781680873,0.581,-0.541,-2.504,-3.232
-0.5,4600022966.650686,1.1752356291,230.14418174085088,4467.864566912838,0.53,-0.622,-2.615,-3.354
-0.5,4600022966.650686,1.1752831936,252.92979964461446,4432.002533708497,0.481,-0.701,-2.726,-3.477
-0.5,4600022966.650686,1.1753253937,277.97132677592884,4395.416154378243,0.432,-0.781,-2.838,-3.601
-0.5,4600022966.650686,1.1753630638,305.49211132155125,4360.1356400039895,0.383,-0.86,-2.949,-3.724
-0.5,4600022966.650686,1.1753968,335.7376142429545,4324.142525098645,0.337,-0.933,-3.061,-3.85
-0.5,4600022966.650686,1.1754270792,368.97759857015046,4283.512119459382,0.298,-0.999,-3.173,-3.979
-0.5,4600022966.650686,1.1754550934,405.5085354483839,4230.5808577652315,0.279,-1.053,-3.287,-4.117
-0.5,4600022966.650686,1.1754806042,445.6562483975033,4184.080195674278,0.253,-1.11,-3.399,-4.25
-0.5,4600022966.650686,1.1755051613,489.77881936844614,4150.496003347124,0.211,-1.177,-3.509,-4.376
-0.5,4600022966.650686,1.1755285263,538.2697825162882,4116.2334730276525,0.171,-1.243,-3.62,-4.503
-0.5,4600022966.650686,1.1755501032,591.5616341754737,4082.2537814298526,0.132,-1.308,-3.729,-4.628
-0.5,4600022966.650686,1.1755714417,650.1296903430909,4048.5545937074157,0.096,-1.37,-3.839,-4.755
-0.5,4600022966.650686,1.1755927801,716.143410212902,4013.284982627411,0.064,-1.43,-3.95,-4.883
-0.5,4600022966.650686,1.1756126881,788.860117618554,3977.4066910502825,0.036,-1.488,-4.063,-5.014
-0.5,4600022966.650686,1.1756279469,864.967918775693,3942.7568959559076,0.014,-1.54,-4.171,-5.139
-0.5,4600022966.650686,1.1756379604,939.7233105646376,3912.01039387351,-0.006,-1.585,-4.268,-5.253
-0.5,4600022966.650686,1.1756463051,1025.651926251408,3879.7165729369067,-0.022,-1.629,-4.369,-5.371
-0.5,4600022966.650686,1.1756540537,1122.018454301963,3845.9178204535356,-0.036,-1.669,-4.472,-5.492
-0.5,4600022966.650686,1.1756608486,1221.7996601648722,3813.2914527677754,-0.047,-1.706,-4.572,-5.608
-0.5,4600022966.650686,1.1756670475,1330.4544179780914,3779.2010796187897,-0.052,-1.735,-4.672,-5.727
-0.5,4600022966.650686,1.175673604,1445.439770745928,3744.553155859532,-0.05,-1.755,-4.77,-5.843
-0.5,4600022966.650686,1.1756772995,1531.0874616820304,3720.488787200874,-0.047,-1.768,-4.838,-5.924
-0.5,4600022966.650686,1.1756789684,1592.20872705117,3704.2475302995863,-0.04,-1.769,-4.884,-5.978
-0.5,4600022966.650686,1.1756794453,1588.546748597779,3704.2475302995863,-0.04,-1.769,-4.883,-5.976
-0.5,4600022966.650686,1.1756795645,1527.5660582380733,3720.488787200874,-0.043,-1.764,-4.835,-5.921
-0.5,4600022966.650686,1.1756796837,1603.2453906900419,3700.8373629231564,-0.038,-1.769,-4.893,-5.988
-0.5,4600022966.650686,1.1756798029,1588.546748597779,3704.2475302995863,-0.04,-1.769,-4.883,-5.976
-0.5,4600022966.650686,1.1756799221,1573.9828644662198,3708.514658756861,-0.041,-1.769,-4.871,-5.963
-0.5,4600022966.650686,1.1756801605,1577.6112696993484,3707.660840003112,-0.04,-1.769,-4.874,-5.966
-0.5,4600022966.650686,1.1756807566,1614.3585568264868,3697.4303349809716,-0.036,-1.769,-4.902,-5.998
-0.5,4600022966.650686,1.1756812334,1644.3717232149324,3690.6256858412085,-0.032,-1.768,-4.923,-6.024
-0.5,4600022966.650686,1.1756818295,1671.090614310707,3683.8335597906507,-0.028,-1.767,-4.942,-6.046
-0.5,4600022966.650686,1.1756827831,1702.15850839495,3674.5147919993988,-0.022,-1.766,-4.966,-6.074
-0.5,4600022966.650686,1.1756842136,1636.8165214278085,3689.775985701505,-0.027,-1.763,-4.919,-6.019
-0.5,4600022966.650686,1.1756843328,1686.5530253887407,3676.2073582940866,-0.016,-1.759,-4.955,-6.062
-0.5,4600022966.650686,1.1756844521,1588.546748597779,3702.5420540013483,-0.033,-1.763,-4.882,-5.976
-0.5,4600022966.650686,1.1756845713,1570.3628043335532,3706.80721782576,-0.035,-1.763,-4.87,-5.962
-0.5,4600022966.650686,1.1756846905,1527.5660582380733,3717.9196520448604,-0.036,-1.759,-4.836,-5.923
-0.5,4600022966.650686,1.1756849289,1566.7510701081485,3707.660840003112,-0.035,-1.763,-4.866,-5.958
-0.5,4600022966.650686,1.1756854057,1636.8165214278085,3690.6256858412085,-0.027,-1.764,-4.917,-6.017
-0.5,4600022966.650686,1.1756858826,1749.8466886246565,3662.6886275878364,-0.012,-1.762,-4.998,-6.112
-0.5,4600022966.650686,1.1756862402,1849.2686189780777,3639.1503612720708,0.002,-1.761,-5.065,-6.191
-0.5,4600022966.650686,1.175686717,1958.844673505989,3614.9308991735757,0.021,-1.749,-5.134,-6.271
-0.5,4600022966.650686,1.1756874323,2089.296130854039,3586.740857699508,0.048,-1.728,-5.214,-6.363
-0.5,4600022966.650686,1.1756881475,2223.309890651403,3558.7706484879304,0.077,-1.704,-5.292,-6.454
-0.5,4600022966.650686,1.1756891012,2393.3157564053877,3526.1436430685917,0.125,-1.655,-5.383,-6.561
-0.5,4600022966.650686,1.1756902933,2552.701302661247,3497.0351694345923,0.175,-1.601,-5.462,-6.653
-0.5,4600022966.650686,1.1756913662,2648.500138606701,3479.3650764909435,0.207,-1.567,-5.506,-6.706
-0.5,4600022966.650686,1.1756914854,2648.500138606701,3479.3650764909435,0.207,-1.567,-5.506,-6.706
-0.5,4600022966.650686,1.1756916046,1584.893192461114,3685.5304185247937,0.017,-1.719,-4.884,-5.987
-0.5,4600022966.650686,1.1756917238,1221.7996601648722,3794.8970620763503,-0.002,-1.674,-4.576,-5.622
-0.5,4600022966.650686,1.1756919622,785.2356346100718,3987.4936090417286,0.031,-1.494,-4.057,-5.002
-0.5,4600022966.650686,1.1756924391,803.5261221856169,3974.660144576364,0.032,-1.504,-4.086,-5.038
-0.5,4600022966.650686,1.1756929159,1032.7614057613969,3862.780230114958,0.015,-1.607,-4.38,-5.391
-0.5,4600022966.650686,1.1756936312,1472.3125024327194,3708.514658756861,0.024,-1.699,-4.799,-5.89
-0.5,4600022966.650686,1.1756944656,1995.2623149688789,3581.789013481115,0.11,-1.662,-5.164,-6.317
-0.5,4600022966.650686,1.1756953001,2421.0290467361774,3501.063598465195,0.211,-1.563,-5.403,-6.593
-0.5,4600022966.650686,1.175696373,2679.1683248190316,3457.8010353230598,0.283,-1.482,-5.526,-6.735
-0.5,4600022966.650686,1.1756975651,2792.543841237339,3437.953513094916,0.33,-1.425,-5.58,-6.798
-0.5,4600022966.650686,1.1756988764,2851.0182675039096,3425.3109270831965,0.365,-1.385,-5.607,-6.829
-0.5,4600022966.650686,1.1756989956,1963.3602768360474,3571.9058251119704,0.158,-1.614,-5.151,-6.308
-0.5,4600022966.650686,1.1756991148,1336.5955165464418,3729.065399621527,0.07,-1.639,-4.687,-5.768
-0.5,4600022966.650686,1.1756994724,859.013521505396,3918.3208939411097,0.082,-1.495,-4.168,-5.149
-0.5,4600022966.650686,1.1757000685,881.0488730080137,3904.8108374925373,0.084,-1.503,-4.198,-5.187
-0.5,4600022966.650686,1.1757006645,1129.7959146727976,3794.8970620763503,0.079,-1.59,-4.491,-5.538
-0.5,4600022966.650686,1.175701499,1606.9412530128773,3643.342500684969,0.127,-1.624,-4.91,-6.034
-0.5,4600022966.650686,1.1757025719,2167.704104819694,3518.8438882095843,0.253,-1.519,-5.275,-6.457
-0.5,4600022966.650686,1.1757036448,2630.2679918953813,3437.953513094916,0.388,-1.364,-5.515,-6.732
-0.5,4600022966.650686,1.1757049561,2904.022654464451,3394.6890538007865,0.486,-1.246,-5.639,-6.875
-0.5,4600022966.650686,1.1757063866,3033.891184194272,3372.873086588689,0.555,-1.159,-5.696,-6.94
-0.5,4600022966.650686,1.1757080555,3097.419299216581,3358.9226273449517,0.609,-1.094,-5.725,-6.975
-0.5,4600022966.650686,1.1757081747,2177.709772353159,3497.840484251412,0.329,-1.438,-5.287,-6.479
-0.5,4600022966.650686,1.1757084131,1485.9356422870076,3654.264677506526,0.176,-1.568,-4.822,-5.941
-0.5,4600022966.650686,1.1757087708,957.1940712948442,3842.3772299890893,0.141,-1.491,-4.299,-5.321
-0.5,4600022966.650686,1.1757093668,981.7479430199844,3828.2474331682283,0.146,-1.497,-4.331,-5.36
-0.5,4600022966.650686,1.1757102013,1256.0299636948755,3718.7758332493545,0.164,-1.55,-4.621,-5.708
-0.5,4600022966.650686,1.1757110357,1774.1894808901661,3569.4392919884644,0.272,-1.495,-5.04,-6.199
-0.5,4600022966.650686,1.1757122278,2376.840286624876,3444.292293943154,0.462,-1.29,-5.402,-6.617
-0.5,4600022966.650686,1.1757135391,2877.3984147356696,3364.340936432299,0.659,-1.045,-5.641,-6.889
-0.5,4600022966.650686,1.1757149696,3169.56746304349,3320.4733579750687,0.808,-0.857,-5.767,-7.031
-0.5,4600022966.650686,1.1757166386,3311.311214825911,3297.6153801591913,0.9,-0.738,-5.825,-7.096
-0.5,4600022966.650686,1.1757185459,3380.6483620598156,3283.976192504799,0.968,-0.65,-5.856,-7.131
-0.5,4600022966.650686,1.1757186651,2437.8108183687523,3415.8595068605546,0.571,-1.169,-5.441,-6.667
-0.5,4600022966.650686,1.1757189035,1671.090614310707,3573.5511273490297,0.324,-1.445,-4.974,-6.13
-0.5,4600022966.650686,1.1757192612,1076.465213629835,3767.0379898390893,0.208,-1.48,-4.443,-5.504
-0.5,4600022966.650686,1.1757199764,1104.0786199020736,3754.0495447208405,0.215,-1.482,-4.475,-5.543
-0.5,4600022966.650686,1.1757206917,1406.0475241299143,3645.0207083030436,0.273,-1.48,-4.764,-5.887
-0.5,4600022966.650686,1.1757217646,1967.886289706845,3496.2300400270183,0.451,-1.318,-5.177,-6.369
-0.5,4600022966.650686,1.1757229567,2618.1830082189863,3373.6498087376713,0.714,-1.001,-5.535,-6.779
-0.5,4600022966.650686,1.175724268,3147.748314101317,3294.579562412821,0.985,-0.651,-5.772,-7.044
-0.5,4600022966.650686,1.1757258177,3459.3937782612206,3253.1193731384888,1.167,-0.406,-5.895,-7.181
-0.5,4600022966.650686,1.1757276058,3605.7864302164235,3233.7020353739117,1.263,-0.28,-5.951,-7.243
-0.5,4600022966.650686,1.1757295132,3681.289736425313,3224.0368719181865,1.314,-0.215,-5.98,-7.275
