FeH,Age,Mini,L,Te,Bmag,Vmag,Jmag,Kmag
-0.25,1700004222.1563632,0.0900000036,0.000424619563946313,2425.4928571094206,19.827,17.919,11.087,10.275
-0.25,1700004222.1563632,0.0947235376,0.0005272298614228228,2503.8021037537396,19.578,17.675,10.853,10.038
-0.25,1700004222.1563632,0.0971739069,0.0005888436553555889,2543.899793129798,19.452,17.551,10.734,9.918
-0.25,1700004222.1563632,0.1000000015,0.0006668067692136219,2590.5978454758697,19.309,17.411,10.6,9.782
-0.25,1700004222.1563632,0.1065863892,0.0008241381150130021,2660.1124757419375,18.779,16.91,10.39,9.56
-0.25,1700004222.1563632,0.1200000048,0.001224616199265049,2793.830151362531,17.58,15.804,10.017,9.165
-0.25,1700004222.1563632,0.1400000006,0.0018663796908346695,2921.4603738773317,16.482,14.772,9.611,8.748
-0.25,1700004222.1563632,0.1599999964,0.0025882129151530904,3013.699874341145,15.718,14.05,9.291,8.427
-0.25,1700004222.1563632,0.200000003,0.0042559841313374305,3142.678829879227,14.685,13.066,8.803,7.941
-0.25,1700004222.1563632,0.25,0.006729766562843175,3252.370400952974,13.848,12.274,8.344,7.486
-0.25,1700004222.1563632,0.3175267875,0.011040786199020729,3357.3761424295453,13.039,11.507,7.841,6.986
-0.25,1700004222.1563632,0.3360021412,0.012705741052085419,3382.20556669654,12.83,11.31,7.697,6.842
-0.25,1700004222.1563632,0.3500000536,0.013931568029453029,3401.731252517908,12.687,11.175,7.604,6.75
-0.25,1700004222.1563632,0.4000000358,0.0195884467350599,3488.9922117346073,12.14,10.661,7.262,6.407
-0.25,1700004222.1563632,0.4068356454,0.02065380155810529,3504.2896826443844,12.055,10.58,7.21,6.355
-0.25,1700004222.1563632,0.4390760958,0.026121613543992065,3575.197187450261,11.673,10.22,6.978,6.123
-0.25,1700004222.1563632,0.4500000179,0.028183829312644536,3598.321800388802,11.552,10.105,6.904,6.048
-0.25,1700004222.1563632,0.5,0.04120975190973302,3742.8291224080526,10.914,9.501,6.538,5.683
-0.25,1700004222.1563632,0.5500000119,0.06137620051647943,3929.1625861305615,10.233,8.872,6.165,5.318
-0.25,1700004222.1563632,0.6000000238,0.09078205301781857,4168.693834703355,9.516,8.244,5.801,4.979
-0.25,1700004222.1563632,0.6499999762,0.1330454417978091,4456.562483975033,8.722,7.594,5.457,4.702
-0.25,1700004222.1563632,0.6791151166,0.1648162391525508,4630.202658603084,8.27,7.23,5.274,4.576
-0.25,1700004222.1563632,0.7000001073,0.1909853258566238,4755.541763152083,7.97,6.987,5.149,4.494
-0.25,1700004222.1563632,0.75,0.26730064086633115,5039.645636126428,7.352,6.477,4.87,4.304
-0.25,1700004222.1563632,0.7626389265,0.28973435877013226,5103.874653873108,7.216,6.363,4.802,4.254
-0.25,1700004222.1563632,0.7983130813,0.3622429984166986,5283.235867669997,6.855,6.059,4.618,4.117
-0.25,1700004222.1563632,0.8466261625,0.48305880203977264,5511.883123276055,6.412,5.685,4.379,3.933
-0.25,1700004222.1563632,0.8949391842,0.6353309318517437,5722.6870922284315,6.013,5.347,4.153,3.752
-0.25,1700004222.1563632,0.8975268602,0.6456542290346555,5733.238386538407,5.992,5.33,4.141,3.742
-0.25,1700004222.1563632,0.9432522058,0.8298507675144224,5914.25437756224,5.644,5.035,3.933,3.569
-0.25,1700004222.1563632,0.9456754327,0.8394599865193975,5922.430868761306,5.626,5.02,3.922,3.56
-0.25,1700004222.1563632,0.990914464,1.069054879222658,6084.151222917084,5.3,4.743,3.721,3.39
-0.25,1700004222.1563632,0.9915652275,1.0715193052376064,6086.953723349015,5.296,4.74,3.719,3.387
-0.25,1700004222.1563632,1.0121103525,1.1939881044642733,6154.602373713163,5.154,4.618,3.627,3.307
-0.25,1700004222.1563632,1.0398783684,1.3772094688939465,6244.533502805022,4.968,4.457,3.503,3.199
-0.25,1700004222.1563632,1.0403456688,1.383566378971781,6245.971525332753,4.965,4.454,3.501,3.197
-0.25,1700004222.1563632,1.0680624247,1.588546748597779,6331.403617108157,4.784,4.297,3.38,3.089
-0.25,1700004222.1563632,1.0881915092,1.7579236139586927,6392.930749102151,4.657,4.185,3.292,3.011
-0.25,1700004222.1563632,1.0985667706,1.8492686189780783,6423.918168243863,4.591,4.128,3.248,2.971
-0.25,1700004222.1563632,1.1273875237,2.128139045982712,6510.284984348614,4.413,3.972,3.125,2.862
-0.25,1700004222.1563632,1.1365044117,2.2284351492703034,6535.818751130748,4.358,3.922,3.086,2.827
-0.25,1700004222.1563632,1.1584570408,2.4717241450161302,6600.852070021596,4.227,3.806,2.995,2.745
-0.25,1700004222.1563632,1.1848175526,2.7989813196343625,6675.749009643063,4.072,3.667,2.885,2.647
-0.25,1700004222.1563632,1.2313338518,3.443499307633385,6806.126238014957,3.811,3.434,2.702,2.482
-0.25,1700004222.1563632,1.233130455,3.4753616144320585,6810.829367676388,3.801,3.425,2.695,2.475
-0.25,1700004222.1563632,1.2512842417,3.758374042884441,6862.778784114733,3.704,3.338,2.628,2.415
-0.25,1700004222.1563632,1.2814434767,4.265795188015927,6943.844712409821,3.547,3.196,2.517,2.315
-0.25,1700004222.1563632,1.3182590008,4.954501908047901,7042.064523312069,3.362,3.029,2.387,2.199
-0.25,1700004222.1563632,1.3297567368,5.188000389289611,7069.6839644940255,3.306,2.978,2.346,2.162
-0.25,1700004222.1563632,1.3323976994,5.236004365857502,7077.8279260900235,3.293,2.966,2.337,2.154
-0.25,1700004222.1563632,1.3724302053,6.123503917247735,7174.638108861394,3.102,2.792,2.199,2.028
-0.25,1700004222.1563632,1.3780696392,6.251726927756859,7186.211583804578,3.075,2.768,2.179,2.01
-0.25,1700004222.1563632,1.384589076,6.412095765851617,7202.777512383406,3.044,2.739,2.157,1.99
-0.25,1700004222.1563632,1.4263827801,7.550922276654339,7286.181745132274,2.849,2.559,2.008,1.852
-0.25,1700004222.1563632,1.4346373081,7.7983011052325875,7299.615757292979,2.811,2.524,1.978,1.823
-0.25,1700004222.1563632,1.460349679,8.609937521846007,7324.8713266503955,2.696,2.413,1.878,1.727
-0.25,1700004222.1563632,1.4746959209,9.099132726322514,7329.932916517789,2.633,2.352,1.82,1.669
-0.25,1700004222.1563632,1.4873577356,9.549925860214358,7328.245331389045,2.58,2.299,1.767,1.616
-0.25,1700004222.1563632,1.5092507601,10.375284158180126,7308.024590091092,2.49,2.208,1.67,1.517
-0.25,1700004222.1563632,1.5230088234,10.914403364487566,7279.474013242674,2.437,2.151,1.605,1.449
-0.25,1700004222.1563632,1.5318819284,11.297959146727976,7259.38784607024,2.403,2.115,1.562,1.404
-0.25,1700004222.1563632,1.5491528511,12.050359403717973,7204.436204152846,2.342,2.046,1.474,1.31
-0.25,1700004222.1563632,1.5686099529,12.91219273613534,7120.327999992026,2.278,1.97,1.37,1.196
-0.25,1700004222.1563632,1.5713219643,13.031667784522993,7105.587633694735,2.27,1.96,1.355,1.179
-0.25,1700004222.1563632,1.5815634727,13.520725631942772,7053.424142580965,2.24,1.921,1.298,1.115
-0.25,1700004222.1563632,1.5974117517,14.321878992735432,6950.243175887969,2.199,1.863,1.202,1.007
-0.25,1700004222.1563632,1.6133500338,15.100801541641486,6829.67440807964,2.164,1.807,1.103,0.892
-0.25,1700004222.1563632,1.6196348667,15.452544395384141,6781.097674934346,2.152,1.786,1.063,0.845
-0.25,1700004222.1563632,1.6203674078,15.488166189124811,6774.85492849846,2.15,1.783,1.058,0.84
-0.25,1700004222.1563632,1.634393096,16.255487557504843,6669.603248243567,2.123,1.736,0.971,0.738
-0.25,1700004222.1563632,1.6499153376,17.298163592151013,6565.9867197835665,2.082,1.673,0.868,0.62
-0.25,1700004222.1563632,1.6557536125,17.78279410038923,6540.335094488948,2.058,1.643,0.828,0.576
-0.25,1700004222.1563632,1.6607835293,18.879913490962934,6625.215359025829,1.968,1.573,0.792,0.553
-0.25,1700004222.1563632,1.6631240845,20.090928126087277,6785.783509504071,1.857,1.496,0.779,0.563
-0.25,1700004222.1563632,1.6638447046,21.134890398366466,6950.243175887969,1.764,1.434,0.779,0.586
-0.25,1700004222.1563632,1.6642142534,22.335722228305315,7130.171895014071,1.665,1.366,0.779,0.609
-0.25,1700004222.1563632,1.6644076109,23.550492838960103,7289.53792855699,1.573,1.302,0.773,0.622
-0.25,1700004222.1563632,1.6645255089,24.603676041476273,7411.395679600756,1.504,1.252,0.766,0.63
-0.25,1700004222.1563632,1.6645743847,25.003453616964308,7457.615702069878,1.478,1.234,0.765,0.633
-0.25,1700004222.1563632,1.6646504402,23.280912576650078,7324.8713266503955,1.58,1.313,0.797,0.65
-0.25,1700004222.1563632,1.6647000313,22.181964198002195,7197.803728026996,1.658,1.37,0.807,0.646
-0.25,1700004222.1563632,1.6647646427,21.77709772353159,7016.168330679753,1.716,1.397,0.768,0.583
-0.25,1700004222.1563632,1.6648446321,22.130947096056374,6840.691418893661,1.736,1.386,0.691,0.484
-0.25,1700004222.1563632,1.6649519205,22.646443075930595,6671.139157966478,1.752,1.369,0.609,0.377
-0.25,1700004222.1563632,1.6651009321,22.961486481123618,6514.783683512198,1.78,1.363,0.541,0.286
-0.25,1700004222.1563632,1.6653358936,23.01441817408509,6362.092805735179,1.827,1.372,0.487,0.209
-0.25,1700004222.1563632,1.6657030582,22.698648518838223,6202.974559788141,1.899,1.401,0.448,0.144
-0.25,1700004222.1563632,1.6662204266,21.827299118430012,6039.4862937638,2.004,1.458,0.432,0.097
-0.25,1700004222.1563632,1.6668177843,20.417379446695296,5878.953159960759,2.145,1.549,0.445,0.078
-0.25,1700004222.1563632,1.6672692299,19.054607179632473,5763.681848104129,2.272,1.641,0.482,0.091
-0.25,1700004222.1563632,1.6676424742,17.78279410038923,5666.305684096034,2.392,1.732,0.524,0.113
-0.25,1700004222.1563632,1.6679481268,16.788040181225607,5587.2743899402,2.493,1.81,0.561,0.131
-0.25,1700004222.1563632,1.6682993174,15.812480392703835,5497.940050635924,2.603,1.894,0.596,0.146
-0.25,1700004222.1563632,1.6687476635,15.310874616820303,5393.864099044902,2.693,1.952,0.597,0.123
-0.25,1700004222.1563632,1.6689714193,15.205475297324954,5344.412855743935,2.729,1.973,0.59,0.104
-0.25,1700004222.1563632,1.6693960428,16.069412530128773,5275.9418472699535,2.709,1.931,0.509,0.005
-0.25,1700004222.1563632,1.6699260473,17.660378206861647,5204.751511705225,2.65,1.849,0.383,-0.139
-0.25,1700004222.1563632,1.6703406572,19.408858775927783,5161.7860549667275,2.576,1.759,0.267,-0.266
-0.25,1700004222.1563632,1.6707253456,21.330449131465762,5127.433068882606,2.496,1.668,0.154,-0.389
-0.25,1700004222.1563632,1.6710890532,23.38837238659355,5096.828259054277,2.416,1.577,0.045,-0.506
-0.25,1700004222.1563632,1.6714431047,25.644840365177174,5068.739827890221,2.335,1.487,-0.063,-0.622
-0.25,1700004222.1563632,1.6717884541,28.05433637951713,5041.967013185367,2.255,1.397,-0.17,-0.736
-0.25,1700004222.1563632,1.6721298695,30.69021988391158,5015.335611066592,2.175,1.308,-0.276,-0.85
-0.25,1700004222.1563632,1.6724689007,33.57376142429547,4988.844874600121,2.098,1.221,-0.382,-0.963
-0.25,1700004222.1563632,1.6728922129,37.497300224548354,4957.92553906303,2.005,1.115,-0.511,-1.101
-0.25,1700004222.1563632,1.673314929,41.78303666466218,4926.063433495771,1.912,1.009,-0.638,-1.237
-0.25,1700004222.1563632,1.6737370491,46.55860935229589,4895.533198139543,1.82,0.904,-0.764,-1.373
-0.25,1700004222.1563632,1.674156785,51.88000389289612,4864.072056914614,1.729,0.801,-0.891,-1.509
-0.25,1700004222.1563632,1.6745307446,57.14786366718669,4835.039205916214,1.647,0.707,-1.006,-1.634
-0.25,1700004222.1563632,1.6748583317,62.373483548241914,4808.393484497285,1.574,0.624,-1.108,-1.744
-0.25,1700004222.1563632,1.6752477884,69.3425806016569,4776.392414964196,1.488,0.525,-1.232,-1.878
-0.25,1700004222.1563632,1.6756248474,76.91304402866095,4743.511960856962,1.409,0.428,-1.355,-2.011
-0.25,1700004222.1563632,1.6759575605,84.527884516029,4714.113123725611,1.338,0.342,-1.465,-2.131
-0.25,1700004222.1563632,1.6762706041,92.46981739382225,4685.975353086258,1.27,0.259,-1.572,-2.247
-0.25,1700004222.1563632,1.6766091585,101.85913880541169,4654.789007046166,1.198,0.169,-1.688,-2.373
-0.25,1700004222.1563632,1.6769082546,111.17317272815909,4628.0708623811315,1.136,0.092,-1.789,-2.483
-0.25,1700004222.1563632,1.6772789955,122.74392311584072,4596.2114466600115,1.064,0.002,-1.906,-2.611
-0.25,1700004222.1563632,1.6776560545,133.6595516546442,4568.777411858178,1.004,-0.074,-2.006,-2.72
-0.25,1700004222.1563632,1.6780731678,142.23287871228197,4549.880601500485,0.961,-0.128,-2.078,-2.799
-0.25,1700004222.1563632,1.6783736944,134.58603540559483,4567.725533088667,0.996,-0.082,-2.015,-2.729
-0.25,1700004222.1563632,1.6785875559,123.31048332289096,4597.269885308723,1.058,-0.004,-1.911,-2.615
-0.25,1700004222.1563632,1.6787172556,112.71974561755106,4627.00533236181,1.121,0.076,-1.806,-2.5
-0.25,1700004222.1563632,1.6788195372,103.75284158180126,4654.789007046166,1.18,0.151,-1.707,-2.392
-0.25,1700004222.1563632,1.6789284945,94.40608762859236,4685.975353086258,1.249,0.236,-1.594,-2.269
-0.25,1700004222.1563632,1.6790289879,86.49679187756934,4714.113123725611,1.313,0.316,-1.491,-2.157
-0.25,1700004222.1563632,1.6791400909,79.06786279998249,4744.604320607653,1.379,0.398,-1.385,-2.041
-0.25,1700004222.1563632,1.6792578697,72.94575102545687,4770.896554256487,1.439,0.472,-1.289,-1.937
-0.25,1700004222.1563632,1.6794278622,66.83439175686145,4799.544249319445,1.505,0.552,-1.186,-1.825
-0.25,1700004222.1563632,1.6796822548,72.11074791828997,4775.2927365769065,1.447,0.482,-1.275,-1.921
-0.25,1700004222.1563632,1.6800541878,78.88601176185544,4746.789794829222,1.378,0.398,-1.382,-2.038
-0.25,1700004222.1563632,1.6804645061,86.49679187756934,4718.456982481569,1.31,0.315,-1.489,-2.153
-0.25,1700004222.1563632,1.6808925867,94.6237161365793,4689.213428447355,1.242,0.231,-1.596,-2.269
-0.25,1700004222.1563632,1.6813241243,103.2761405761397,4661.22428001887,1.177,0.15,-1.701,-2.383
-0.25,1700004222.1563632,1.6818358898,115.08003889444356,4628.0708623811315,1.1,0.055,-1.826,-2.52
-0.25,1700004222.1563632,1.6822570562,125.60299636948754,4599.38749388997,1.037,-0.025,-1.93,-2.633
-0.25,1700004222.1563632,1.6827609539,139.95873225726177,4565.622502022357,0.959,-0.121,-2.057,-2.772
-0.25,1700004222.1563632,1.6832536459,155.95525028269537,4530.018754322402,0.885,-0.216,-2.185,-2.913
-0.25,1700004222.1563632,1.6837179661,173.78008287493762,4494.692652627942,0.814,-0.309,-2.311,-3.05
-0.25,1700004222.1563632,1.6841653585,193.19683170169242,4460.669020551353,0.748,-0.405,-2.437,-3.186
-0.25,1700004222.1563632,1.6845877171,215.27817347243737,4425.883723626264,0.683,-0.498,-2.561,-3.321
-0.25,1700004222.1563632,1.6849905252,239.88329190194898,4389.34785534717,0.619,-0.591,-2.687,-3.457
-0.25,1700004222.1563632,1.6853634119,266.68586645214805,4355.118736855684,0.555,-0.683,-2.81,-3.591
-0.25,1700004222.1563632,1.6857135296,296.4831389524342,4321.1565447029925,0.493,-0.773,-2.932,-3.724
-0.25,1700004222.1563632,1.6860433817,329.6097121774576,4285.485203974396,0.432,-0.861,-3.054,-3.859
-0.25,1700004222.1563632,1.6863508224,365.59479161312504,4252.06602972015,0.37,-0.949,-3.175,-3.992
-0.25,1700004222.1563632,1.6866388321,406.44332916521273,4217.936138166562,0.308,-1.036,-3.295,-4.125
-0.25,1700004222.1563632,1.6869024038,449.77985489328796,4184.080195674278,0.254,-1.115,-3.415,-4.259
-0.25,1700004222.1563632,1.6871498823,498.88448746001217,4149.5404263436285,0.201,-1.191,-3.535,-4.394
-0.25,1700004222.1563632,1.6873812675,553.3501092157366,4117.1813799387055,0.15,-1.266,-3.654,-4.529
-0.25,1700004222.1563632,1.6875990629,613.7620051647939,4083.1938633269233,0.099,-1.341,-3.774,-4.664
-0.25,1700004222.1563632,1.6877982616,677.641507610675,4050.419451364931,0.054,-1.409,-3.89,-4.796
-0.25,1700004222.1563632,1.6879835129,749.8942093324558,4016.983057462358,0.01,-1.476,-4.006,-4.927
-0.25,1700004222.1563632,1.688158989,829.8507675144226,3984.7400971777515,-0.035,-1.545,-4.123,-5.06
-0.25,1700004222.1563632,1.6883215904,916.2204901220001,3951.8458892843655,-0.074,-1.606,-4.238,-5.192
-0.25,1700004222.1563632,1.6884715557,1009.2528860766844,3918.3208939411097,-0.11,-1.663,-4.351,-5.322
-0.25,1700004222.1563632,1.6886129379,1111.7317272815908,3885.974979543936,-0.14,-1.718,-4.465,-5.451
-0.25,1700004222.1563632,1.6887440681,1224.6161992650489,3853.8960821181918,-0.166,-1.764,-4.576,-5.578
-0.25,1700004222.1563632,1.6888684034,1345.8603540559484,3821.202031837345,-0.191,-1.81,-4.688,-5.705
-0.25,1700004222.1563632,1.6889611483,1445.439770745928,3795.7709700253163,-0.206,-1.839,-4.772,-5.802
-0.25,1700004222.1563632,1.6889611483,53.456435939697165,5002.648624210056,1.585,0.71,-0.882,-1.458
-0.25,1700004222.1563632,1.6902567148,55.71857489319299,4983.104559705293,1.555,0.671,-0.934,-1.516
-0.25,1700004222.1563632,1.6914687157,56.49369748123026,4979.663541644856,1.543,0.659,-0.949,-1.531
-0.25,1700004222.1563632,1.6926929951,56.49369748123026,4981.957289567119,1.539,0.656,-0.95,-1.532
-0.25,1700004222.1563632,1.6939277649,56.623928903825316,4985.3998926398735,1.536,0.653,-0.95,-1.531
-0.25,1700004222.1563632,1.695191741,56.754460540854716,4988.844874600121,1.531,0.65,-0.951,-1.531
-0.25,1700004222.1563632,1.696418643,56.754460540854716,4991.142851656184,1.527,0.647,-0.952,-1.532
-0.25,1700004222.1563632,1.6976262331,56.88529308438413,4993.441887213498,1.523,0.644,-0.954,-1.532
-0.25,1700004222.1563632,1.6988832951,57.016427228074754,4996.8924263059425,1.518,0.64,-0.955,-1.533
-0.25,1700004222.1563632,1.7001795769,57.279603098582925,4999.1941102499995,1.513,0.636,-0.958,-1.535
-0.25,1700004222.1563632,1.7015051842,57.41164622073274,5001.496854402788,1.508,0.631,-0.961,-1.537
-0.25,1700004222.1563632,1.702868104,57.67664633922506,5003.800659252664,1.502,0.626,-0.965,-1.54
-0.25,1700004222.1563632,1.7042627335,57.94286964268809,5006.10552528821,1.495,0.621,-0.968,-1.543
-0.25,1700004222.1563632,1.7055934668,58.21032177708713,5008.411452998231,1.489,0.615,-0.972,-1.547
-0.25,1700004222.1563632,1.7069427967,58.34451042737448,5009.564815133986,1.483,0.61,-0.977,-1.55
-0.25,1700004222.1563632,1.7083406448,58.74893525297766,5011.872336272725,1.476,0.604,-0.982,-1.555
-0.25,1700004222.1563632,1.7091331482,58.8843655355589,5011.872336272725,1.473,0.6,-0.984,-1.557
-0.25,1700004222.1563632,1.7097508907,59.02010801718442,5013.026495398051,1.47,0.598,-0.987,-1.559
-0.25,1700004222.1563632,1.7110933065,59.29253245799997,5014.180920308942,1.464,0.592,-0.992,-1.564
-0.25,1700004222.1563632,1.7125202417,59.566214352901035,5015.335611066592,1.457,0.585,-0.997,-1.569
-0.25,1700004222.1563632,1.7138391733,59.979107625550945,5016.490567732232,1.45,0.579,-1.003,-1.575
-0.25,1700004222.1563632,1.7151559591,60.25595860743578,5016.490567732232,1.444,0.573,-1.009,-1.58
-0.25,1700004222.1563632,1.716560483,60.673632958850526,5017.645790367086,1.437,0.566,-1.015,-1.586
-0.25,1700004222.1563632,1.7169343233,60.673632958850526,5017.645790367086,1.435,0.564,-1.017,-1.588
-0.25,1700004222.1563632,1.7179200649,60.953689724016904,5017.645790367086,1.431,0.56,-1.021,-1.592
-0.25,1700004222.1563632,1.7195215225,61.37620051647942,5017.645790367086,1.424,0.553,-1.028,-1.599
-0.25,1700004222.1563632,1.7196359634,61.37620051647942,5017.645790367086,1.424,0.553,-1.028,-1.599
-0.25,1700004222.1563632,1.7210776806,61.80164001384158,5016.490567732232,1.418,0.546,-1.035,-1.606
-0.25,1700004222.1563632,1.722599268,62.23002851691595,5016.490567732232,1.411,0.539,-1.043,-1.614
-0.25,1700004222.1563632,1.7241734266,62.66138646723353,5014.180920308942,1.403,0.531,-1.052,-1.624
-0.25,1700004222.1563632,1.7257816792,63.24118513762193,5011.872336272725,1.396,0.522,-1.062,-1.635
-0.25,1700004222.1563632,1.7273585796,63.82634861905486,5008.411452998231,1.388,0.514,-1.073,-1.647
-0.25,1700004222.1563632,1.7289489508,64.56542290346556,5003.800659252664,1.379,0.502,-1.088,-1.663
-0.25,1700004222.1563632,1.7305396795,65.61452663029053,4996.8924263059425,1.368,0.489,-1.106,-1.683
-0.25,1700004222.1563632,1.7321367264,66.52731562017412,4989.993730845963,1.357,0.475,-1.124,-1.703
-0.25,1700004222.1563632,1.7337656021,68.39116472814293,4976.224899734694,1.339,0.452,-1.158,-1.741
-0.25,1700004222.1563632,1.7354519367,71.94489780036994,4948.801109202861,1.304,0.406,-1.222,-1.813
-0.25,1700004222.1563632,1.7366400957,77.98301105232585,4909.078761526029,1.248,0.335,-1.321,-1.924
-0.25,1700004222.1563632,1.7371917963,84.91804750363139,4869.675251658631,1.191,0.259,-1.426,-2.041
-0.25,1700004222.1563632,1.7374505997,92.46981739382225,4832.813100695309,1.133,0.183,-1.53,-2.156
-0.25,1700004222.1563632,1.7375729084,100.69316688518045,4797.334486366892,1.074,0.107,-1.633,-2.27
-0.25,1700004222.1563632,1.7376329899,109.1440336448756,4764.309868054156,1.019,0.035,-1.731,-2.378
-0.25,1700004222.1563632,1.7376679182,117.76059735208078,4733.692033483014,0.967,-0.032,-1.823,-2.48
-0.25,1700004222.1563632,1.7376804352,122.17996601648723,4719.543572446043,0.942,-0.065,-1.867,-2.529
-0.25,1700004222.1563632,1.7376810312,122.4616199265049,4718.456982481569,0.941,-0.066,-1.87,-2.531
-0.25,1700004222.1563632,1.7376867533,125.02590302177201,4710.8578542037,0.927,-0.084,-1.894,-2.557
-0.25,1700004222.1563632,1.7377140522,138.03842646028852,4673.045396315099,0.859,-0.173,-2.013,-2.689
-0.25,1700004222.1563632,1.7377381325,151.00801541641476,4639.807899821257,0.799,-0.25,-2.12,-2.807
-0.25,1700004222.1563632,1.7377635241,163.68165214278085,4609.990177075899,0.746,-0.32,-2.215,-2.912
-0.25,1700004222.1563632,1.7378189564,169.43378004473288,4597.269885308723,0.721,-0.352,-2.259,-2.96
-0.25,1700004222.1563632,1.7378672361,158.48931924611142,4622.74566491089,0.767,-0.292,-2.177,-2.87
-0.25,1700004222.1563632,1.7379844189,147.23125024327194,4650.503761666063,0.815,-0.228,-2.089,-2.773
-0.25,1700004222.1563632,1.738986969,138.67558288718882,4671.969511718804,0.855,-0.178,-2.02,-2.696
-0.25,1700004222.1563632,1.739979744,148.59356422870076,4647.292416762036,0.809,-0.237,-2.1,-2.785
-0.25,1700004222.1563632,1.7407443523,164.05897731995387,4609.990177075899,0.743,-0.323,-2.219,-2.916
-0.25,1700004222.1563632,1.7412980795,180.3017740859568,4575.093773298477,0.68,-0.405,-2.331,-3.04
-0.25,1700004222.1563632,1.7417417765,197.696964011186,4540.461526048465,0.625,-0.485,-2.441,-3.161
-0.25,1700004222.1563632,1.7421146631,217.27011788637455,4506.091435730975,0.571,-0.566,-2.552,-3.281
-0.25,1700004222.1563632,1.7424385548,239.33157564053874,4470.951924630434,0.515,-0.649,-2.666,-3.405
-0.25,1700004222.1563632,1.7427208424,263.02679918953817,4437.1080035723835,0.461,-0.73,-2.777,-3.527
-0.25,1700004222.1563632,1.7429639101,287.73984147356697,4404.534336784062,0.41,-0.807,-2.884,-3.644
-0.25,1700004222.1563632,1.743190527,316.22776601683796,4370.186790706132,0.357,-0.885,-2.992,-3.763
-0.25,1700004222.1563632,1.7434068918,346.73685045253166,4336.107094491863,0.306,-0.962,-3.101,-3.884
-0.25,1700004222.1563632,1.7436130047,381.06582339377303,4293.386634704304,0.268,-1.031,-3.212,-4.01
-0.25,1700004222.1563632,1.7438099384,419.75898399100777,4248.15153514646,0.231,-1.099,-3.324,-4.14
-0.25,1700004222.1563632,1.7439930439,461.31757456037957,4209.2042477683635,0.189,-1.167,-3.437,-4.27
-0.25,1700004222.1563632,1.7441474199,509.3308710571952,4175.418393198107,0.139,-1.241,-3.553,-4.4
-0.25,1700004222.1563632,1.7442599535,562.341325190349,4141.903726221008,0.092,-1.311,-3.666,-4.529
-0.25,1700004222.1563632,1.7443398237,615.1768727098683,4111.497211045221,0.049,-1.375,-3.771,-4.648
-0.25,1700004222.1563632,1.7444086075,672.9766562843175,4080.3742668966966,0.007,-1.439,-3.877,-4.768
-0.25,1700004222.1563632,1.7444717884,737.9042301291007,4048.5545937074157,-0.033,-1.5,-3.984,-4.89
-0.25,1700004222.1563632,1.7445312738,810.9610578538404,4016.983057462358,-0.071,-1.561,-4.091,-5.012
-0.25,1700004222.1563632,1.7445888519,887.1560120379609,3985.6577231340093,-0.108,-1.62,-4.198,-5.134
-0.25,1700004222.1563632,1.7446472645,977.2372209558112,3952.7559401972776,-0.143,-1.677,-4.309,-5.262
-0.25,1700004222.1563632,1.7447069883,1076.465213629835,3919.2232245497667,-0.175,-1.732,-4.421,-5.391
-0.25,1700004222.1563632,1.7447679043,1180.3206356517298,3885.974979543936,-0.2,-1.781,-4.529,-5.515
-0.25,1700004222.1563632,1.7448328733,1294.1958414499863,3852.1217059810283,-0.22,-1.822,-4.637,-5.64
-0.25,1700004222.1563632,1.7448762655,1321.2956341865752,3844.147117595778,-0.225,-1.831,-4.663,-5.669
-0.25,1700004222.1563632,1.7448865175,1297.1792709839558,3852.1217059810283,-0.22,-1.822,-4.639,-5.642
-0.25,1700004222.1563632,1.7448871136,1288.2495516931335,3853.8960821181918,-0.219,-1.819,-4.631,-5.633
-0.25,1700004222.1563632,1.744887352,1273.5030810166616,3857.447286724761,-0.216,-1.814,-4.62,-5.619
-0.25,1700004222.1563632,1.7448874712,1270.5741052085418,3859.2241159472915,-0.215,-1.812,-4.615,-5.614
-0.25,1700004222.1563632,1.7448875904,1276.4388088113435,3857.447286724761,-0.217,-1.815,-4.621,-5.621
-0.25,1700004222.1563632,1.7448878288,1288.2495516931335,3853.8960821181918,-0.219,-1.819,-4.631,-5.632
-0.25,1700004222.1563632,1.744887948,1291.2192736135348,3853.0087919083076,-0.219,-1.82,-4.634,-5.636
-0.25,1700004222.1563632,1.7448880672,1294.1958414499863,3852.1217059810283,-0.22,-1.821,-4.637,-5.64
-0.25,1700004222.1563632,1.7448884249,1288.2495516931335,3853.8960821181918,-0.219,-1.819,-4.632,-5.634
-0.25,1700004222.1563632,1.7448886633,1282.3305826560218,3855.671275573944,-0.218,-1.817,-4.627,-5.628
-0.25,1700004222.1563632,1.7448889017,1279.3813041575252,3856.559178913931,-0.217,-1.816,-4.624,-5.624
-0.25,1700004222.1563632,1.7448892593,1273.5030810166616,3858.335599053513,-0.216,-1.814,-4.618,-5.618
-0.25,1700004222.1563632,1.7448898554,1267.6518658578461,3859.2241159472915,-0.215,-1.811,-4.613,-5.612
-0.25,1700004222.1563632,1.7448962927,1294.1958414499863,3851.2348242893136,-0.218,-1.819,-4.637,-5.64
-0.25,1700004222.1563632,1.7448992729,1386.755828871888,3825.6038866803838,-0.232,-1.85,-4.72,-5.735
-0.25,1700004222.1563632,1.7449023724,1475.7065332758946,3802.769482436101,-0.243,-1.875,-4.793,-5.82
-0.25,1700004222.1563632,1.7449060678,1577.6112696993484,3778.3309865888623,-0.25,-1.893,-4.87,-5.909
-0.25,1700004222.1563632,1.7449109554,1694.3378004473288,3751.4572346200985,-0.256,-1.912,-4.956,-6.008
-0.25,1700004222.1563632,1.7449169159,1823.8957023196383,3723.917062545687,-0.261,-1.929,-5.042,-6.108
-0.25,1700004222.1563632,1.7449265718,1981.527025805099,3691.4755816541306,-0.257,-1.934,-5.142,-6.223
-0.25,1700004222.1563632,1.7449318171,2046.444636724674,3678.7476696641274,-0.255,-1.934,-5.182,-6.269
-0.25,1700004222.1563632,1.7449321747,2046.444636724674,3678.7476696641274,-0.255,-1.934,-5.182,-6.269
-0.25,1700004222.1563632,1.7449328899,1004.6157902783947,3918.3208939411097,-0.107,-1.658,-4.346,-5.317
-0.25,1700004222.1563632,1.7449332476,857.0378452303693,3977.4066910502825,-0.057,-1.571,-4.16,-5.101
-0.25,1700004222.1563632,1.7449349165,500.0345349769783,4184.080195674278,0.145,-1.229,-3.531,-4.374
-0.25,1700004222.1563632,1.7449371815,504.6612975635282,4179.265867213064,0.142,-1.235,-3.542,-4.387
-0.25,1700004222.1563632,1.7449404001,636.7955209079155,4087.897521111197,0.051,-1.387,-3.815,-4.703
-0.25,1700004222.1563632,1.7449444532,961.6122783836648,3930.972449074674,-0.087,-1.629,-4.296,-5.26
-0.25,1700004222.1563632,1.7449493408,1406.0475241299143,3791.4034418330666,-0.169,-1.798,-4.741,-5.774
-0.25,1700004222.1563632,1.7449550629,1815.515662773135,3699.1334567034833,-0.193,-1.86,-5.043,-6.122
-0.25,1700004222.1563632,1.7449618578,2074.9135174549106,3650.059970708618,-0.19,-1.869,-5.204,-6.305
-0.25,1700004222.1563632,1.7449694872,2197.8598727848253,3628.273359403348,-0.183,-1.866,-5.274,-6.385
-0.25,1700004222.1563632,1.7449781895,2259.435770220978,3616.5960197524582,-0.171,-1.853,-5.307,-6.424
-0.25,1700004222.1563632,1.7449784279,1333.521432163324,3799.2686147637874,-0.138,-1.761,-4.683,-5.712
-0.25,1700004222.1563632,1.7449793816,959.4006315159336,3919.2232245497667,-0.062,-1.609,-4.294,-5.264
-0.25,1700004222.1563632,1.7449810505,559.7576014951104,4122.873407228869,0.127,-1.285,-3.665,-4.537
-0.25,1700004222.1563632,1.7449836731,563.6376558259543,4119.077848677374,0.124,-1.29,-3.675,-4.548
-0.25,1700004222.1563632,1.744987011,709.5777679633887,4029.953175019774,0.04,-1.434,-3.944,-4.86
-0.25,1700004222.1563632,1.7449914217,1064.1430182243164,3877.9303087618246,-0.084,-1.658,-4.418,-5.409
-0.25,1700004222.1563632,1.7449966669,1545.254439538414,3741.9674033666447,-0.147,-1.794,-4.858,-5.915
-0.25,1700004222.1563632,1.7450028658,1990.6733389871863,3653.423348834556,-0.156,-1.83,-5.157,-6.256
-0.25,1700004222.1563632,1.7450101376,2264.6443075930597,3606.6167888195973,-0.143,-1.822,-5.313,-6.435
-0.25,1700004222.1563632,1.7450184822,2393.3157564053877,3585.9150751717484,-0.126,-1.806,-5.38,-6.51
-0.25,1700004222.1563632,1.7450277805,2449.0632418447444,3576.0205018090237,-0.115,-1.794,-5.409,-6.544
-0.25,1700004222.1563632,1.745028019,1468.9262776438661,3752.321139027498,-0.12,-1.761,-4.8,-5.853
-0.25,1700004222.1563632,1.7450290918,1056.8175092136585,3870.793472432571,-0.062,-1.638,-4.411,-5.406
-0.25,1700004222.1563632,1.74503088,616.5950018614822,4072.8648582724245,0.108,-1.336,-3.782,-4.677
-0.25,1700004222.1563632,1.7450336218,622.3002851691596,4070.0523944023344,0.106,-1.34,-3.791,-4.688
-0.25,1700004222.1563632,1.7450373173,779.8301105232586,3982.9054790171745,0.029,-1.476,-4.055,-4.995
-0.25,1700004222.1563632,1.7450419664,1161.4486138403427,3834.4228144309195,-0.078,-1.676,-4.523,-5.536
-0.25,1700004222.1563632,1.7450475693,1678.8040181225606,3701.689610332348,-0.125,-1.785,-4.957,-6.035
-0.25,1700004222.1563632,1.7450543642,2147.8304741305333,3614.9308991735757,-0.119,-1.795,-5.252,-6.369
-0.25,1700004222.1563632,1.7450621128,2437.8108183687523,3570.2612803901543,-0.093,-1.77,-5.406,-6.543
-0.25,1700004222.1563632,1.7450710535,2570.3957827688646,3551.4033498288213,-0.078,-1.755,-5.469,-6.614
-0.25,1700004222.1563632,1.7450810671,2624.218543384442,3543.2353487838454,-0.066,-1.742,-5.495,-6.644
-0.25,1700004222.1563632,1.7450813055,1603.2453906900419,3711.931900441403,-0.108,-1.765,-4.904,-5.976
-0.25,1700004222.1563632,1.7450823784,1153.4532578210917,3830.010812264487,-0.063,-1.662,-4.516,-5.531
-0.25,1700004222.1563632,1.7450842857,672.9766562843175,4032.7379297611305,0.089,-1.381,-3.886,-4.801
-0.25,1700004222.1563632,1.7450870275,679.2036326171843,4029.953175019774,0.086,-1.385,-3.895,-4.811
-0.25,1700004222.1563632,1.7450908422,847.2274141405964,3945.481396833012,0.013,-1.513,-4.155,-5.112
-0.25,1700004222.1563632,1.7450956106,1256.0299636948755,3800.143529415859,-0.08,-1.697,-4.614,-5.644
-0.25,1700004222.1563632,1.7451014519,1798.8709151287874,3671.131996879641,-0.11,-1.775,-5.042,-6.133
-0.25,1700004222.1563632,1.745108366,2290.8676527677726,3587.566830392618,-0.091,-1.766,-5.331,-6.461
-0.25,1700004222.1563632,1.7451164722,2588.2129151530903,3545.683774611333,-0.064,-1.74,-5.481,-6.629
-0.25,1700004222.1563632,1.7451255322,2722.701308077913,3529.3928374635293,-0.045,-1.717,-5.54,-6.695
-0.25,1700004222.1563632,1.7451359034,2773.320104651841,3522.897439914557,-0.038,-1.709,-5.563,-6.72
-0.25,1700004222.1563632,1.745136261,1729.8163592151016,3686.3791409739756,-0.111,-1.773,-4.994,-6.079
-0.25,1700004222.1563632,1.7451373339,1247.3835142429432,3803.6452032855573,-0.083,-1.698,-4.608,-5.636
-0.25,1700004222.1563632,1.7451394796,729.4575102545687,4006.8215418221093,0.055,-1.433,-3.978,-4.905
-0.25,1700004222.1563632,1.7451425791,734.5138681571151,4004.0546833054636,0.052,-1.438,-3.987,-4.916
-0.25,1700004222.1563632,1.7451467514,916.2204901220001,3920.125762951651,-0.016,-1.559,-4.243,-5.214
-0.25,1700004222.1563632,1.7451521158,1345.8603540559484,3776.591401452663,-0.092,-1.72,-4.697,-5.737
-0.25,1700004222.1563632,1.7451585531,1918.668740670289,3649.2196100947112,-0.11,-1.781,-5.118,-6.22
-0.25,1700004222.1563632,1.7451663017,2432.204009073816,3566.1532304264047,-0.075,-1.751,-5.403,-6.543
-0.25,1700004222.1563632,1.7451752424,2741.5741719278835,3524.5201677586315,-0.036,-1.707,-5.551,-6.708
-0.25,1700004222.1563632,1.7451853752,2877.3984147356696,3508.326468551656,-0.016,-1.682,-5.61,-6.774
-0.25,1700004222.1563632,1.7451968193,2937.6496519615307,3501.8698409688745,-0.009,-1.674,-5.633,-6.8
-0.25,1700004222.1563632,1.7451971769,1879.3168168032685,3658.474227939712,-0.114,-1.783,-5.093,-6.19
-0.25,1700004222.1563632,1.745198369,1361.4446824659497,3775.72190925416,-0.1,-1.73,-4.709,-5.75
-0.25,1700004222.1563632,1.7452005148,796.1593504173184,3979.2387763422494,0.015,-1.494,-4.078,-5.019
-0.25,1700004222.1563632,1.7452038527,801.678063387679,3976.4909647456543,0.012,-1.498,-4.088,-5.03
-0.25,1700004222.1563632,1.7452082634,995.4054173515275,3893.1398070156406,-0.048,-1.611,-4.341,-5.324
-0.25,1700004222.1563632,1.745213747,1452.111617587742,3751.4572346200985,-0.107,-1.747,-4.786,-5.839
-0.25,1700004222.1563632,1.7452206612,2055.8905959841427,3625.7679024119648,-0.109,-1.784,-5.2,-6.313
-0.25,1700004222.1563632,1.7452286482,2594.179362118815,3543.2353487838454,-0.055,-1.731,-5.482,-6.632
-0.25,1700004222.1563632,1.7452380657,2924.1523778433366,3501.063598465195,-0.001,-1.666,-5.629,-6.796
-0.25,1700004222.1563632,1.7452486753,3069.021988391158,3484.9776724044846,0.021,-1.638,-5.687,-6.862
-0.25,1700004222.1563632,1.7452607155,3126.0793671239558,3477.763138547455,0.031,-1.627,-5.712,-6.889
-0.25,1700004222.1563632,1.7452610731,2060.6299132700005,3624.933134609571,-0.11,-1.786,-5.204,-6.317
-0.25,1700004222.1563632,1.745262146,1496.235656094433,3742.8291224080526,-0.114,-1.76,-4.822,-5.88
-0.25,1700004222.1563632,1.7452642918,877.0008211436349,3948.207780378827,-0.024,-1.553,-4.191,-5.147
-0.25,1700004222.1563632,1.7452675104,885.1156098308356,3944.573020752785,-0.027,-1.558,-4.201,-5.159
-0.25,1700004222.1563632,1.7452716827,1093.956366272094,3861.8908944898994,-0.074,-1.658,-4.45,-5.449
-0.25,1700004222.1563632,1.7452770472,1577.6112696993484,3722.202530178502,-0.117,-1.772,-4.885,-5.953
-0.25,1700004222.1563632,1.7452836037,2218.1964198002192,3597.4933515574235,-0.091,-1.766,-5.292,-6.417
-0.25,1700004222.1563632,1.7452914715,2779.7132677592886,3515.6044052829798,-0.012,-1.68,-5.569,-6.73
-0.25,1700004222.1563632,1.7453004122,3126.0793671239558,3473.761519726527,0.047,-1.608,-5.712,-6.892
-0.25,1700004222.1563632,1.7453107834,3280.9529311311903,3456.209025701263,0.078,-1.57,-5.771,-6.958
-0.25,1700004222.1563632,1.7453223467,3349.654391578276,3448.2599655262325,0.094,-1.549,-5.797,-6.986
-0.25,1700004222.1563632,1.7453227043,2269.8648518838213,3587.566830392618,-0.078,-1.754,-5.321,-6.451
-0.25,1700004222.1563632,1.7453238964,1655.7699634695275,3704.2475302995863,-0.116,-1.776,-4.941,-6.017
-0.25,1700004222.1563632,1.7453261614,970.5099672454899,3911.1097238892944,-0.057,-1.61,-4.309,-5.284
-0.25,1700004222.1563632,1.74532938,979.4899854086991,3907.5091171056138,-0.059,-1.615,-4.32,-5.296
-0.25,1700004222.1563632,1.74533391,1205.0359403717973,3826.484865951097,-0.094,-1.699,-4.564,-5.581
-0.25,1700004222.1563632,1.7453395128,1721.8685749860078,3688.926481189961,-0.113,-1.777,-4.99,-6.074
-0.25,1700004222.1563632,1.745346427,2398.83291901949,3566.1532304264047,-0.059,-1.735,-5.389,-6.528
-0.25,1700004222.1563632,1.7453545332,2992.264636608189,3485.7802105603496,0.043,-1.615,-5.659,-6.834
-0.25,1700004222.1563632,1.7453640699,3349.654391578276,3444.292293943154,0.114,-1.526,-5.8,-6.991
-0.25,1700004222.1563632,1.7453747988,3515.6044052829798,3426.888704327863,0.149,-1.481,-5.858,-7.056
-0.25,1700004222.1563632,1.7453869581,3580.9643710263585,3419.0070790206964,0.167,-1.46,-5.883,-7.084
-0.25,1700004222.1563632,1.7453873158,2506.109253032114,3548.133892335753,-0.041,-1.717,-5.443,-6.59
-0.25,1700004222.1563632,1.7453885078,1832.314422371211,3665.219597323419,-0.109,-1.778,-5.065,-6.159
-0.25,1700004222.1563632,1.7453906536,1078.9467222298285,3873.468245564424,-0.084,-1.663,-4.433,-5.425
-0.25,1700004222.1563632,1.7453938723,1088.9300933334332,3870.793472432571,-0.086,-1.667,-4.443,-5.438
-0.25,1700004222.1563632,1.745398283,1333.521432163324,3789.6578379947123,-0.11,-1.737,-4.683,-5.717
-0.25,1700004222.1563632,1.7454037666,1883.6490894898002,3654.264677506526,-0.105,-1.776,-5.098,-6.197
-0.25,1700004222.1563632,1.7454105616,2594.179362118815,3533.4585410890204,-0.016,-1.688,-5.487,-6.64
-0.25,1700004222.1563632,1.7454185486,3213.660538640318,3454.617749058203,0.107,-1.538,-5.75,-6.938
-0.25,1700004222.1563632,1.7454278469,3589.2193464500533,3413.5007294931106,0.19,-1.432,-5.888,-7.091
-0.25,1700004222.1563632,1.7454384565,3758.374042884443,3396.2527259040853,0.228,-1.385,-5.944,-7.155
-0.25,1700004222.1563632,1.7454503775,3837.0724549227884,3388.441561392024,0.247,-1.361,-5.97,-7.183
-0.25,1700004222.1563632,1.7454507351,2766.9416454115126,3508.326468551656,0.026,-1.638,-5.566,-6.73
-0.25,1700004222.1563632,1.745451808,2032.3570109362208,3624.933134609571,-0.093,-1.77,-5.189,-6.302
-0.25,1700004222.1563632,1.7454537153,1196.7405313072431,3835.3058245685934,-0.105,-1.708,-4.556,-5.567
-0.25,1700004222.1563632,1.7454566956,1207.8138351067798,3831.7750036138436,-0.106,-1.711,-4.566,-5.579
-0.25,1700004222.1563632,1.7454606295,1468.9262776438661,3752.321139027498,-0.117,-1.761,-4.8,-5.852
-0.25,1700004222.1563632,1.7454657555,2055.8905959841427,3619.928562242391,-0.088,-1.765,-5.203,-6.319
-0.25,1700004222.1563632,1.7454718351,2798.981319634363,3501.8698409688745,0.041,-1.621,-5.582,-6.749
-0.25,1700004222.1563632,1.7454791069,3443.4993076333844,3423.733876264524,0.182,-1.445,-5.838,-7.037
-0.25,1700004222.1563632,1.7454875708,3828.2474331682283,3384.542718663093,0.271,-1.332,-5.969,-7.184
-0.25,1700004222.1563632,1.7454972267,3999.4474976109736,3368.2165076063116,0.324,-1.265,-6.023,-7.244
-0.25,1700004222.1563632,1.7455080748,4064.4332916521275,3360.4698246069956,0.35,-1.232,-6.046,-7.27
-0.25,1700004222.1563632,1.7455084324,3019.9517204020162,3470.5635400798756,0.095,-1.557,-5.676,-6.857
-0.25,1700004222.1563632,1.7455095053,2228.435149270303,3587.566830392618,-0.059,-1.735,-5.302,-6.432
-0.25,1700004222.1563632,1.7455114126,1315.224832192239,3799.2686147637874,-0.12,-1.746,-4.667,-5.697
-0.25,1700004222.1563632,1.7455143929,1327.3944577297402,3795.7709700253163,-0.12,-1.747,-4.678,-5.709
-0.25,1700004222.1563632,1.7455183268,1606.9412530128773,3717.0636679606755,-0.119,-1.78,-4.907,-5.977
-0.25,1700004222.1563632,1.7455234528,2228.435149270303,3586.740857699508,-0.056,-1.732,-5.301,-6.432
-0.25,1700004222.1563632,1.7455295324,3006.076302628232,3470.5635400798756,0.101,-1.551,-5.669,-6.85
-0.25,1700004222.1563632,1.7455368042,3664.3757464783334,3394.6890538007865,0.261,-1.348,-5.918,-7.129
-0.25,1700004222.1563632,1.7455452681,4055.085354483839,3355.8303695328004,0.379,-1.198,-6.046,-7.272
-0.25,1700004222.1563632,1.745554924,4226.686142656029,3339.6426598662515,0.435,-1.127,-6.097,-7.33
-0.25,1700004222.1563632,1.7455657721,4305.266104917106,3331.9616948930816,0.464,-1.091,-6.12,-7.356
-0.25,1700004222.1563632,1.7455660105,3296.097121774576,3432.416650121203,0.187,-1.444,-5.785,-6.981
-0.25,1700004222.1563632,1.7455669641,2437.8108183687523,3548.9509744230404,-0.015,-1.691,-5.413,-6.56
-0.25,1700004222.1563632,1.7455687523,1442.1153515248682,3762.7035226776516,-0.123,-1.765,-4.778,-5.825
-0.25,1700004222.1563632,1.7455714941,1455.4590805819653,3760.10523668496,-0.123,-1.766,-4.787,-5.836
-0.25,1700004222.1563632,1.7455749512,1753.880501841762,3682.1374823089295,-0.108,-1.777,-5.012,-6.098
-0.25,1700004222.1563632,1.7455794811,2404.362800006932,3554.6758199906994,-0.019,-1.695,-5.396,-6.54
-0.25,1700004222.1563632,1.745585084,3206.2693245054643,3441.1214439609093,0.173,-1.463,-5.753,-6.945
-0.25,1700004222.1563632,1.7455915213,3881.5036599064824,3366.665743686229,0.357,-1.229,-5.993,-7.215
-0.25,1700004222.1563632,1.7455991507,4285.485203974396,3329.660852068807,0.482,-1.07,-6.115,-7.352
-0.25,1700004222.1563632,1.7456077337,4456.562483975033,3314.36245009259,0.536,-1.002,-6.164,-7.407
-0.25,1700004222.1563632,1.7456175089,4518.559443749222,3307.5011205925434,0.564,-0.966,-6.184,-7.43
-0.25,1700004222.1563632,1.7456177473,3556.3131856898544,3399.3822312328007,0.27,-1.341,-5.883,-7.092
-0.25,1700004222.1563632,1.745618701,2642.4087573219476,3515.6044052829798,0.04,-1.626,-5.514,-6.675
-0.25,1700004222.1563632,1.7456204891,1570.3628043335532,3731.642236647028,-0.128,-1.785,-4.877,-5.94
-0.25,1700004222.1563632,1.7456231117,1581.2480392703826,3728.2068494295654,-0.128,-1.787,-4.887,-5.951
-0.25,1700004222.1563632,1.745626688,1901.0782799232995,3650.900524844982,-0.099,-1.775,-5.109,-6.21
-0.25,1700004222.1563632,1.7456310987,2582.260190634596,3525.3318119588625,0.028,-1.642,-5.484,-6.641
-0.25,1700004222.1563632,1.7456365824,3411.9291162192844,3413.5007294931106,0.244,-1.375,-5.832,-7.035
-0.25,1700004222.1563632,1.7456430197,4111.497211045221,3340.4117295457277,0.459,-1.102,-6.065,-7.298
-0.25,1700004222.1563632,1.7456505299,4518.559443749222,3302.934793960337,0.594,-0.929,-6.184,-7.431
-0.25,1700004222.1563632,1.7456589937,4688.13382145265,3287.7591870669708,0.662,-0.839,-6.232,-7.485
-0.25,1700004222.1563632,1.7456686497,4764.309868054156,3280.1975507699003,0.696,-0.795,-6.253,-7.509
-0.25,1700004222.1563632,1.7456688881,3845.9178204535356,3362.791956867804,0.39,-1.192,-5.985,-7.208
-0.25,1700004222.1563632,1.7456697226,2870.780582024692,3479.3650764909435,0.11,-1.545,-5.618,-6.795
-0.25,1700004222.1563632,1.7456712723,1710.015315090288,3697.4303349809716,-0.121,-1.79,-4.98,-6.059
-0.25,1700004222.1563632,1.7456736565,1721.8685749860078,3694.0264435828335,-0.119,-1.789,-4.989,-6.07
-0.25,1700004222.1563632,1.7456767559,2060.6299132700005,3616.5960197524582,-0.076,-1.756,-5.207,-6.324
-0.25,1700004222.1563632,1.7456806898,2766.9416454115126,3493.011375635544,0.089,-1.57,-5.573,-6.744
-0.25,1700004222.1563632,1.7456854582,3630.780547701014,3383.763488617649,0.329,-1.271,-5.911,-7.126
-0.25,1700004222.1563632,1.7456911802,4335.108783875289,3312.0737601979727,0.573,-0.963,-6.136,-7.38
-0.25,1700004222.1563632,1.7456977367,4753.352259428054,3275.668919368471,0.728,-0.755,-6.251,-7.509
-0.25,1700004222.1563632,1.7457053661,4920.395356814511,3260.6185877894,0.798,-0.662,-6.298,-7.56
-0.25,1700004222.1563632,1.74571383,5000.345349769783,3253.8685178010755,0.833,-0.616,-6.318,-7.583
-0.25,1700004222.1563632,1.7457140684,4130.475019901614,3328.1278395965264,0.526,-1.023,-6.077,-7.315
-0.25,1700004222.1563632,1.7457149029,3097.419299216581,3444.292293943154,0.194,-1.443,-5.713,-6.905
-0.25,1700004222.1563632,1.7457164526,1845.0154191794736,3663.532089914713,-0.103,-1.779,-5.074,-6.169
-0.25,1700004222.1563632,1.7457187176,1862.0871366628676,3660.1594055804926,-0.101,-1.777,-5.083,-6.18
-0.25,1700004222.1563632,1.7457216978,2218.1964198002192,3583.43886814277,-0.035,-1.715,-5.298,-6.43
-0.25,1700004222.1563632,1.7457256317,2958.0124665515464,3461.784268375584,0.159,-1.489,-5.656,-6.84
-0.25,1700004222.1563632,1.7457302809,3837.0724549227884,3354.2853083268956,0.442,-1.131,-5.986,-7.212
-0.25,1700004222.1563632,1.7457358837,4560.369159512959,3284.7324430306794,0.709,-0.786,-6.204,-7.458
-0.25,1700004222.1563632,1.7457424402,4977.37084978936,3248.6281257920155,0.869,-0.573,-6.316,-7.583
-0.25,1700004222.1563632,1.7457498312,5152.286445817567,3233.7020353739117,0.939,-0.479,-6.361,-7.633
-0.25,1700004222.1563632,1.7457581758,5236.0043658575005,3227.007687515532,0.973,-0.435,-6.38,-7.654
-0.25,1700004222.1563632,1.7457584143,4425.883723626264,3293.062701752084,0.681,-0.826,-6.166,-7.418
-0.25,1700004222.1563632,1.7457591295,3326.5955329400435,3409.5730529319967,0.289,-1.327,-5.806,-7.011
-0.25,1700004222.1563632,1.7457604408,1990.6733389871863,3629.9446258272606,-0.08,-1.763,-5.164,-6.275
-0.25,1700004222.1563632,1.7457624674,2004.4720273651615,3626.6028624488754,-0.076,-1.758,-5.173,-6.286
-0.25,1700004222.1563632,1.74576509,2376.840286624876,3550.5857031262385,0.01,-1.669,-5.386,-6.532
-0.25,1700004222.1563632,1.7457685471,3140.5086938762165,3431.6263979646833,0.242,-1.387,-5.735,-6.932
-0.25,1700004222.1563632,1.7457726002,4045.7589169744288,3325.8296441911734,0.561,-0.986,-6.055,-7.294
-0.25,1700004222.1563632,1.7457774878,4786.300923226385,3257.616829660631,0.85,-0.603,-6.268,-7.532
-0.25,1700004222.1563632,1.7457832098,5199.959965335162,3222.5524898879053,1.007,-0.394,-6.376,-7.651
-0.25,1700004222.1563632,1.7457897663,5370.317963702527,3208.484902035953,1.076,-0.302,-6.418,-7.699
-0.25,1700004222.1563632,1.7457970381,5445.026528424214,3201.10559153497,1.111,-0.256,-6.436,-7.719
-0.25,1700004222.1563632,1.7457972765,4698.941086052156,3260.6185877894,0.846,-0.612,-6.247,-7.509
-0.25,1700004222.1563632,1.7457979918,3539.9734108343464,3376.758486420327,0.396,-1.197,-5.888,-7.106
-0.25,1700004222.1563632,1.7457991838,2123.2444620002193,3598.321800388802,-0.038,-1.72,-5.245,-6.37
-0.25,1700004222.1563632,1.7458010912,2137.9620895022326,3595.0091493002346,-0.033,-1.715,-5.254,-6.381
-0.25,1700004222.1563632,1.7458037138,2529.2979964461447,3519.654225247658,0.075,-1.595,-5.465,-6.624
-0.25,1700004222.1563632,1.7458070517,3318.944575526103,3401.731252517908,0.33,-1.281,-5.807,-7.015
-0.25,1700004222.1563632,1.7458109856,4246.19563946313,3297.6153801591913,0.692,-0.821,-6.119,-7.368
-0.25,1700004222.1563632,1.7458157539,4988.844874600121,3230.7250568928803,0.994,-0.417,-6.327,-7.6
-0.25,1700004222.1563632,1.7458212376,5407.5432294558095,3196.686154267323,1.152,-0.207,-6.43,-7.715
-0.25,1700004222.1563632,1.7458275557,5584.701947368307,3181.9987155303106,1.222,-0.115,-6.471,-7.761
-0.25,1700004222.1563632,1.745834589,5649.369748123023,3175.411402891837,1.258,-0.067,-6.488,-7.78
-0.25,1700004222.1563632,1.7458348274,4965.923214503363,3227.750819048055,1.02,-0.387,-6.323,-7.597
-0.25,1700004222.1563632,1.7458354235,3758.374042884443,3343.489779723791,0.533,-1.029,-5.966,-7.197
-0.25,1700004222.1563632,1.7458366156,2254.2392121524304,3566.1532304264047,0.014,-1.667,-5.323,-6.462
-0.25,1700004222.1563632,1.7458384037,2269.8648518838213,3562.8701940455303,0.02,-1.662,-5.332,-6.472
-0.25,1700004222.1563632,1.7458406687,2679.1683248190316,3488.188934073285,0.151,-1.508,-5.539,-6.712
-0.25,1700004222.1563632,1.7458437681,3491.4031547858626,3372.096543265998,0.44,-1.149,-5.875,-7.095
-0.25,1700004222.1563632,1.7458473444,4436.086439314323,3269.640468343053,0.839,-0.632,-6.179,-7.439
-0.25,1700004222.1563632,1.7458517551,5188.000389289609,3204.0552769132337,1.14,-0.231,-6.381,-7.663
-0.25,1700004222.1563632,1.7458567619,5597.576014951104,3171.027438947892,1.297,-0.02,-6.481,-7.775
-0.25,1700004222.1563632,1.745862484,5767.664633922509,3157.1847762703,1.362,0.064,-6.521,-7.819
-0.25,1700004222.1563632,1.7458689213,5834.451042737448,3149.923452784473,1.392,0.102,-6.537,-7.837
-0.25,1700004222.1563632,1.7458690405,5223.9618899911975,3195.9501748147595,1.191,-0.167,-6.393,-7.678
-0.25,1700004222.1563632,1.7458696365,3962.7803425543934,3311.311214825911,0.673,-0.859,-6.038,-7.282
-0.25,1700004222.1563632,1.7458707094,2393.3157564053877,3533.4585410890204,0.081,-1.595,-5.399,-6.552
-0.25,1700004222.1563632,1.7458723783,2398.83291901949,3531.018557237582,0.087,-1.589,-5.403,-6.557
-0.25,1700004222.1563632,1.7458745241,2824.8799749157074,3457.0049388687194,0.236,-1.409,-5.608,-6.795
-0.25,1700004222.1563632,1.7458772659,3655.9479161312506,3341.950400261143,0.569,-0.992,-5.938,-7.17
-0.25,1700004222.1563632,1.7458806038,4613.175745603796,3241.902878227874,0.995,-0.432,-6.236,-7.505
-0.25,1700004222.1563632,1.7458845377,5370.317963702527,3176.8740706497692,1.295,-0.032,-6.432,-7.724
-0.25,1700004222.1563632,1.7458890676,5794.286964268809,3144.126420258796,1.438,0.156,-6.53,-7.832
-0.25,1700004222.1563632,1.7458943129,5956.621435290103,3130.401190096238,1.499,0.232,-6.568,-7.875
-0.25,1700004222.1563632,1.7459001541,6025.595860743575,3123.2014671492143,1.533,0.274,-6.584,-7.893
-0.25,1700004222.1563632,1.7459002733,5470.159628939716,3162.2776601683795,1.38,0.076,-6.459,-7.756
-0.25,1700004222.1563632,1.7459008694,4159.106104940223,3277.177768051718,0.855,-0.626,-6.107,-7.364
-0.25,1700004222.1563632,1.745901823,2523.4807724805755,3497.840484251412,0.176,-1.487,-5.471,-6.639
-0.25,1700004222.1563632,1.7459033728,2523.4807724805755,3496.2300400270183,0.18,-1.483,-5.471,-6.641
-0.25,1700004222.1563632,1.7459053993,2964.8313895243423,3422.9456231604145,0.349,-1.276,-5.676,-6.875
-0.25,1700004222.1563632,1.7459080219,3819.442708400464,3309.786650728407,0.72,-0.81,-5.999,-7.244
-0.25,1700004222.1563632,1.7459111214,4786.300923226385,3212.1809339879856,1.165,-0.216,-6.291,-7.57
-0.25,1700004222.1563632,1.7459149361,5546.25712957911,3148.4731933873795,1.455,0.168,-6.482,-7.783
-0.25,1700004222.1563632,1.7459192276,5970.352865838366,3116.0183031054607,1.587,0.337,-6.577,-7.888
-0.25,1700004222.1563632,1.7459241152,6137.620051647939,3101.7014994776896,1.649,0.415,-6.615,-7.93
-0.25,1700004222.1563632,1.745929718,6208.690342300638,3094.567783987401,1.685,0.459,-6.63,-7.948
-0.25,1700004222.1563632,1.7459298372,5714.786366718672,3128.2395322577386,1.552,0.288,-6.524,-7.831
-0.25,1700004222.1563632,1.7459303141,4355.118736855684,3241.902878227874,1.055,-0.372,-6.175,-7.444
-0.25,1700004222.1563632,1.7459312677,2654.605561975539,3460.190424829487,0.288,-1.361,-5.54,-6.726
-0.25,1700004222.1563632,1.7459326982,2648.500138606701,3460.190424829487,0.289,-1.36,-5.537,-6.722
-0.25,1700004222.1563632,1.7459344864,3104.5595881283557,3387.661433708217,0.476,-1.127,-5.74,-6.954
-0.25,1700004222.1563632,1.7459368706,3971.915494694405,3277.177768051718,0.905,-0.576,-6.058,-7.315
-0.25,1700004222.1563632,1.7459397316,4954.5019080479005,3180.5336883295204,1.351,0.019,-6.344,-7.634
-0.25,1700004222.1563632,1.7459431887,5727.960309858292,3118.8895840939385,1.613,0.361,-6.53,-7.841
-0.25,1700004222.1563632,1.7459471226,6137.620051647939,3086.73964568386,1.741,0.52,-6.623,-7.943
-0.25,1700004222.1563632,1.7459515333,6309.57344480193,3073.264929204293,1.782,0.559,-6.659,-7.983
-0.25,1700004222.1563632,1.7459566593,6367.955209079156,3066.1966160107386,1.807,0.585,-6.674,-7.999
-0.25,1700004222.1563632,1.7459567785,5942.921586155727,3093.855315451652,1.735,0.511,-6.585,-7.903
-0.25,1700004222.1563632,1.7459572554,4549.880601500485,3205.531138700436,1.265,-0.107,-6.238,-7.519
-0.25,1700004222.1563632,1.7459580898,2786.1211686297693,3420.581952567498,0.427,-1.197,-5.608,-6.808
-0.25,1700004222.1563632,1.7459594011,2766.9416454115126,3421.369661353676,0.43,-1.194,-5.601,-6.802
-0.25,1700004222.1563632,1.7459610701,3235.936569296281,3348.1121738605384,0.665,-0.901,-5.803,-7.032
-0.25,1700004222.1563632,1.745963335,4130.475019901614,3237.42711634235,1.145,-0.274,-6.117,-7.388
-0.25,1700004222.1563632,1.7459659576,5116.818355403078,3140.5086938762165,1.587,0.311,-6.398,-7.701
-0.25,1700004222.1563632,1.7459690571,5888.43655355589,3076.805193759751,1.833,0.613,-6.582,-7.905
-0.25,1700004222.1563632,1.7459727526,6309.57344480193,3042.2857274809608,1.932,0.708,-6.674,-8.005
-0.25,1700004222.1563632,1.7459769249,6471.426157485831,3024.8232323912453,1.991,0.765,-6.711,-8.047
-0.25,1700004222.1563632,1.7459815741,6531.305526474723,3014.3938842794687,2.029,0.802,-6.726,-8.065
-0.25,1700004222.1563632,1.7459816933,6180.164001384158,3037.3860919461044,1.976,0.752,-6.653,-7.986
-0.25,1700004222.1563632,1.7459821701,4731.512589614803,3150.648832972395,1.602,0.314,-6.307,-7.607
-0.25,1700004222.1563632,1.7459828854,2910.717118066605,3369.7679858440365,0.652,-0.934,-5.677,-6.898
-0.25,1700004222.1563632,1.7459840775,2884.031503126606,3372.096543265998,0.647,-0.942,-5.667,-6.886
-0.25,1700004222.1563632,1.7459857464,3365.115693754908,3298.3747715856816,0.936,-0.576,-5.867,-7.116
-0.25,1700004222.1563632,1.7459877729,4275.62886151586,3187.8655756958997,1.456,0.114,-6.178,-7.466
-0.25,1700004222.1563632,1.7459902763,5272.298614228227,3091.7188938917006,1.872,0.652,-6.455,-7.774
-0.25,1700004222.1563632,1.7459932566,6053.408747539136,3029.0050681662174,2.044,0.819,-6.635,-7.97
-0.25,1700004222.1563632,1.7459965944,6471.426157485831,2995.711592427998,2.118,0.889,-6.724,-8.066
-0.25,1700004222.1563632,1.7460005283,6622.165037017622,2979.8884028194198,2.159,0.927,-6.759,-8.104
-0.25,1700004222.1563632,1.7460049391,6683.439175686149,2970.9818591187295,2.19,0.955,-6.773,-8.12
-0.25,1700004222.1563632,1.7460051775,6397.348354826482,2989.5099278145867,2.157,0.926,-6.715,-8.058
-0.25,1700004222.1563632,1.7460057735,4909.078761526029,3105.274521697761,1.865,0.629,-6.37,-7.685
-0.25,1700004222.1563632,1.7460070848,3033.891184194272,3331.9616948930816,0.843,-0.713,-5.74,-6.975
-0.25,1700004222.1563632,1.7460089922,3006.076302628232,3338.1050516598925,0.818,-0.743,-5.727,-6.96
-0.25,1700004222.1563632,1.7460114956,3507.5187395256794,3260.6185877894,1.161,-0.298,-5.93,-7.192
-0.25,1700004222.1563632,1.7460147142,4446.312674691088,3141.9552846410716,1.727,0.449,-6.243,-7.545
-0.25,1700004222.1563632,1.7460186481,5470.159628939716,3035.2886644741984,2.103,0.884,-6.523,-7.855
-0.25,1700004222.1563632,1.7460232973,6266.138646723356,2961.419965394361,2.273,1.045,-6.706,-8.054
-0.25,1700004222.1563632,1.7460286617,6698.846094165266,2920.787760207149,2.359,1.13,-6.799,-8.153
-0.25,1700004222.1563632,1.7460348606,6886.522963442762,2900.681198693153,2.404,1.175,-6.839,-8.196
-0.25,1700004222.1563632,1.7460417747,6982.324040771711,2891.3455626423843,2.428,1.199,-6.858,-8.216
-0.25,1700004222.1563632,1.7460420132,6776.41507610675,2905.3603143031482,2.401,1.173,-6.819,-8.175
-0.25,1700004222.1563632,1.7460426092,5223.9618899911975,3047.8949896279833,2.084,0.867,-6.466,-7.795
-0.25,1700004222.1563632,1.7460439205,3243.3961734934933,3329.660852068807,0.801,-0.761,-5.814,-7.052
-0.25,1700004222.1563632,1.7460457087,3198.895109691397,3311.311214825911,0.918,-0.619,-5.807,-7.052
-0.25,1700004222.1563632,1.7460482121,3723.917062545687,3174.6803215678747,1.669,0.357,-6.035,-7.327
-0.25,1700004222.1563632,1.7460513115,4688.13382145265,2984.0081159302204,2.387,1.192,-6.375,-7.712
-0.25,1700004222.1563632,1.7460551262,5727.960309858292,2807.3722323436496,2.802,1.652,-6.675,-8.027
-0.25,1700004222.1563632,1.7460597754,6516.283940608428,2668.087081154363,3.071,2.08,-6.873,-8.215
-0.25,1700004222.1563632,1.7460650206,6950.243175887969,2560.353906004206,3.197,2.282,-6.962,-8.304
-0.25,1700004222.1563632,1.746070981,7112.1351365332885,2467.1752518516005,3.243,2.313,-6.99,-8.343
-0.25,1700004222.1563632,1.746077776,7177.942912713615,2376.2930619276253,3.297,2.354,-7.002,-8.365
-0.25,1700004222.1563632,1.7460778952,7095.777679633888,2381.2226232768385,3.303,2.361,-6.989,-8.35
-0.25,1700004222.1563632,1.7460786104,5482.769649208536,2518.8366278417375,3.381,2.481,-6.705,-8.036
-0.25,1700004222.1563632,1.7460796833,3427.6778654645045,2793.830151362531,3.073,2.026,-6.121,-7.436
-0.25,1700004222.1563632,1.7460814714,3365.115693754908,2777.7937729057107,1.412,-1.026,-5.727,-7.301
-0.25,1700004222.1563632,1.7460837364,3908.4089579240213,2644.843626854362,1.666,-0.901,-5.917,-7.499
-0.25,1700004222.1563632,1.7460867167,4886.523593428336,2463.7690767217696,1.635,-1.014,-6.173,-7.754
-0.25,1700004222.1563632,1.7460902929,5929.2532458,2299.323087021224,1.473,-1.205,-6.396,-7.961
-0.25,1700004222.1563632,1.7460944653,6714.288529259523,2171.2008483154227,1.23,-1.409,-6.537,-8.077
-0.25,1700004222.1563632,1.7460993528,7128.530301265198,2072.048897759003,1.107,-1.511,-6.604,-8.133
-0.25,1700004222.1563632,1.7461049557,7294.575102545687,1986.552285266774,1.082,-1.536,-6.629,-8.158
-0.25,1700004222.1563632,1.7461112738,7362.070974947361,1901.9539604423078,1.072,-1.545,-6.638,-8.168
-0.25,1700004222.1563632,1.746111393,7396.052750582382,1898.890842101364,1.068,-1.549,-6.642,-8.172
-0.25,1700004222.1563632,1.746111989,5727.960309858292,2023.0191786782718,1.344,-1.273,-6.366,-7.896
-0.25,1700004222.1563632,1.7461130619,3597.4933515574235,2273.0029532909757,1.73,-0.835,-5.851,-7.379
-0.25,1700004222.1563632,1.7461147308,3523.7087104248726,2268.8197811445098,1.75,-0.813,-5.827,-7.355
-0.25,1700004222.1563632,1.7461168766,4083.1938633269233,2159.7326806893943,1.668,-0.93,-5.994,-7.523
-0.25,1700004222.1563632,1.7461196184,5069.907082747044,2011.4071982009084,1.477,-1.141,-6.234,-7.763
-0.25,1700004222.1563632,1.7461229563,6123.503917247734,1880.1824734902648,1.272,-1.345,-6.438,-7.968
-0.25,1700004222.1563632,1.7461268902,6902.398038402419,1782.7892225796693,1.142,-1.475,-6.568,-8.098
-0.25,1700004222.1563632,1.7461315393,7311.390834834172,1712.3794212449282,1.079,-1.539,-6.632,-8.161
-0.25,1700004222.1563632,1.7461367846,7481.6950051115455,1654.6265930505526,1.054,-1.563,-6.656,-8.186
-0.25,1700004222.1563632,1.7461426258,7550.922276654342,1599.1897591676761,1.045,-1.573,-6.665,-8.195
-0.25,1700004222.1563632,1.746142745,7691.304402866098,1590.3766838224653,1.025,-1.593,-6.686,-8.216
-0.25,1700004222.1563632,1.7461433411,5984.115950603199,1706.0823890031243,1.297,-1.32,-6.413,-7.943
-0.25,1700004222.1563632,1.7461442947,3784.425847170932,1940.8858775927772,1.796,-0.822,-5.915,-7.444
-0.25,1700004222.1563632,1.7461457253,3689.775985701505,1949.3956831325586,1.821,-0.795,-5.887,-7.416
-0.25,1700004222.1563632,1.7461476326,4265.795188015925,1862.0871366628676,1.666,-0.952,-6.045,-7.575
-0.25,1700004222.1563632,1.7461500168,5260.172663907063,1741.8068733916145,1.436,-1.181,-6.274,-7.804
-0.25,1700004222.1563632,1.746152997,6324.118513762197,1639.8344276265361,1.238,-1.379,-6.472,-8.002
-0.25,1700004222.1563632,1.7461565733,7095.777679633888,1571.0861496739592,1.112,-1.505,-6.598,-8.128
-0.25,1700004222.1563632,1.7461606264,7498.942093324558,1529.677927230141,1.051,-1.566,-6.659,-8.189
-0.25,1700004222.1563632,1.7461652756,7673.614893618185,1502.795894706114,1.028,-1.59,-6.682,-8.212
-0.25,1700004222.1563632,1.7461705208,7726.805850957021,1480.471324897625,1.019,-1.599,-6.692,-8.221
-0.25,1700004222.1563632,1.74617064,7979.946872679769,1466.5605552782738,0.984,-1.634,-6.727,-8.256
-0.25,1700004222.1563632,1.746171236,6237.348354824191,1585.623230833549,1.253,-1.364,-6.457,-7.987
-0.25,1700004222.1563632,1.7461721897,3962.7803425543934,1830.2061063110568,1.746,-0.872,-5.965,-7.494
-0.25,1700004222.1563632,1.7461736202,3845.9178204535356,1855.2395755492857,1.777,-0.841,-5.933,-7.463
-0.25,1700004222.1563632,1.7461755276,4446.312674691088,1784.0211551914902,1.621,-0.996,-6.089,-7.619
-0.25,1700004222.1563632,1.746178031,5457.57861091271,1683.8368126872297,1.397,-1.221,-6.313,-7.843
-0.25,1700004222.1563632,1.7461810112,6516.283940608428,1605.461886800972,1.205,-1.413,-6.506,-8.036
-0.25,1700004222.1563632,1.7461845875,7294.575102545687,1565.3087033811519,1.083,-1.535,-6.628,-8.157
-0.25,1700004222.1563632,1.7461886406,7691.304402866098,1559.1934439322474,1.024,-1.594,-6.686,-8.216
-0.25,1700004222.1563632,1.746193409,7852.356346100718,1575.070508926162,1.001,-1.616,-6.709,-8.239
-0.25,1700004222.1563632,1.7461986542,7925.013304804718,1603.9838825084184,0.992,-1.625,-6.718,-8.248
-0.25,1700004222.1563632,1.7461987734,8298.507675144225,1579.4286077385568,0.941,-1.676,-6.769,-8.299
-0.25,1700004222.1563632,1.7461992502,6501.296903430909,1724.2490683416427,1.207,-1.41,-6.503,-8.033
-0.25,1700004222.1563632,1.7462002039,4159.106104940223,2025.816014501357,1.694,-0.924,-6.017,-7.547
-0.25,1700004222.1563632,1.7462015152,4017.9081084894,2066.807362761036,1.729,-0.888,-5.981,-7.511
-0.25,1700004222.1563632,1.7462031841,4634.46919736288,1989.298705396859,1.575,-1.042,-6.135,-7.665
-0.25,1700004222.1563632,1.7462054491,5662.3928903825345,1880.6154513503277,1.357,-1.26,-6.353,-7.883
-0.25,1700004222.1563632,1.7462081909,6714.288529259523,1803.4329488375702,1.171,-1.446,-6.539,-8.069
-0.25,1700004222.1563632,1.7462114096,7481.6950051115455,1777.8699932105117,1.054,-1.563,-6.656,-8.186
-0.25,1700004222.1563632,1.7462152243,7888.601176185541,1800.9431344419215,0.998,-1.62,-6.712,-8.242
-0.25,1700004222.1563632,1.7462195158,8035.261221856169,1862.0871366628676,0.976,-1.641,-6.734,-8.264
-0.25,1700004222.1563632,1.7462242842,8109.610578538404,1953.8895042902107,0.968,-1.65,-6.743,-8.272
-0.25,1700004222.1563632,1.7462244034,8609.937521846008,1907.655723990068,0.901,-1.716,-6.809,-8.339
-0.25,1700004222.1563632,1.7462248802,6760.829753919818,2100.873969240991,1.164,-1.454,-6.547,-8.076
-0.25,1700004222.1563632,1.7462257147,4345.102241715715,2506.109253032114,1.559,-1.021,-6.059,-7.588
-0.25,1700004222.1563632,1.7462269068,4187.935651179182,2552.701302661247,1.576,-0.993,-6.017,-7.545
-0.25,1700004222.1563632,1.7462285757,4819.477976251272,2432.204009073816,1.501,-1.103,-6.175,-7.704
-0.25,1700004222.1563632,1.7462306023,5861.3816451402845,2277.193838226865,1.32,-1.297,-6.39,-7.92
-0.25,1700004222.1563632,1.7462332249,6918.309709189362,2170.70096839771,1.141,-1.477,-6.569,-8.099
-0.25,1700004222.1563632,1.7462362051,7673.614893618185,2137.9620895022326,1.028,-1.589,-6.682,-8.212
-0.25,1700004222.1563632,1.7462397814,8053.784411990669,2174.2025461617322,0.975,-1.643,-6.735,-8.265
-0.25,1700004222.1563632,1.7462437153,8203.515443298185,2268.297426224476,0.955,-1.663,-6.756,-8.285
-0.25,1700004222.1563632,1.7462482452,8260.379495771784,2417.1299521044175,0.947,-1.67,-6.763,-8.293
-0.25,1700004222.1563632,1.7462483644,8912.509381337459,2348.0103124551815,0.865,-1.752,-6.845,-8.375
-0.25,1700004222.1563632,1.7462487221,7014.552984199714,2577.5078699705373,1.121,-1.495,-6.585,-8.115
-0.25,1700004222.1563632,1.7462495565,4528.975799036209,3052.8115771626694,0.302,-1.933,-6.049,-7.496
-0.25,1700004222.1563632,1.7462506294,4355.118736855684,3106.704882789958,0.188,-2.002,-6.002,-7.421
-0.25,1700004222.1563632,1.7462521791,4988.844874600121,2962.1019360527644,0.47,-1.842,-6.155,-7.642
-0.25,1700004222.1563632,1.7462540865,6039.4862937638,2784.8384078050026,0.801,-1.671,-6.386,-7.918
-0.25,1700004222.1563632,1.7462564707,7079.457843841381,2669.9307671295883,0.97,-1.607,-6.584,-8.121
-0.25,1700004222.1563632,1.7462592125,7816.278045883293,2644.843626854362,0.919,-1.673,-6.696,-8.229
-0.25,1700004222.1563632,1.7462624311,8203.515443298185,2705.8268376488263,0.727,-1.827,-6.737,-8.275
-0.25,1700004222.1563632,1.7462661266,8336.81184619634,2841.8424680635885,0.336,-2.113,-6.737,-8.259
-0.25,1700004222.1563632,1.746270299,8394.599865193974,3057.032106987659,-0.32,-2.585,-6.728,-8.166
