FeH,Age,Mini,L,Te,Bmag,Vmag,Jmag,Kmag
-0.25,3299970062.852284,0.0900000036,0.00042169650342858224,2423.817964554634,19.836,17.928,11.095,10.282
-0.25,3299970062.852284,0.0999123156,0.000663743070401909,2589.405105739233,19.314,17.415,10.604,9.786
-0.25,3299970062.852284,0.1000000015,0.0006668067692136219,2591.194421354662,19.309,17.41,10.599,9.782
-0.25,3299970062.852284,0.1031136811,0.0007396052750582382,2624.218543384442,19.113,17.224,10.494,9.673
-0.25,3299970062.852284,0.1200000048,0.0012274392311584072,2794.473528597117,17.576,15.8,10.016,9.164
-0.25,3299970062.852284,0.1400000006,0.0018706821403657997,2922.13314244037,16.478,14.768,9.61,8.747
-0.25,3299970062.852284,0.1599999964,0.002594179362118815,3014.3938842794687,15.712,14.046,9.29,8.425
-0.25,3299970062.852284,0.1638953388,0.0027352687263067113,3028.307694265778,15.597,13.935,9.237,8.373
-0.25,3299970062.852284,0.200000003,0.004265795188015926,3144.126420258796,14.679,13.06,8.8,7.938
-0.25,3299970062.852284,0.25,0.00677641507610675,3253.1193731384888,13.837,12.263,8.336,7.478
-0.25,3299970062.852284,0.3000000119,0.009794899854086991,3333.496473327569,13.227,11.685,7.964,7.109
-0.25,3299970062.852284,0.3500000536,0.01412537544622754,3399.3822312328007,12.675,11.164,7.588,6.733
-0.25,3299970062.852284,0.4000000358,0.01976969640111861,3488.188934073285,12.131,10.651,7.251,6.396
-0.25,3299970062.852284,0.4484080076,0.028183829312644536,3593.3539675538973,11.56,10.112,6.901,6.045
-0.25,3299970062.852284,0.4500000179,0.028510182675039096,3596.665093461474,11.542,10.096,6.89,6.034
-0.25,3299970062.852284,0.5,0.041783036664662175,3741.105882720533,10.901,9.489,6.523,5.667
-0.25,3299970062.852284,0.5500000119,0.06266138646723353,3932.7831456834174,10.205,8.845,6.143,5.295
-0.25,3299970062.852284,0.5562106371,0.06591738952443213,3963.6929115081043,10.112,8.762,6.096,5.25
-0.25,3299970062.852284,0.6000000238,0.0933254300796991,4179.265867213064,9.472,8.206,5.773,4.953
-0.25,3299970062.852284,0.6499999762,0.1380384264602885,4477.133041763624,8.655,7.538,5.423,4.674
-0.25,3299970062.852284,0.6710036993,0.16180800376430657,4604.685783785738,8.319,7.268,5.287,4.58
-0.25,3299970062.852284,0.7000001073,0.19998618696327444,4781.894606659083,7.892,6.922,5.108,4.462
-0.25,3299970062.852284,0.721601963,0.23280912576650079,4907.948534495558,7.611,6.689,4.98,4.374
-0.25,3299970062.852284,0.75,0.28248799749157066,5073.410460372977,7.265,6.402,4.82,4.262
-0.25,3299970062.852284,0.7747495174,0.33265955329400454,5201.157438224064,6.997,6.176,4.682,4.16
-0.25,3299970062.852284,0.7983130813,0.38725764492161724,5323.533606082614,6.756,5.972,4.556,4.065
-0.25,3299970062.852284,0.8298363686,0.47315125896148047,5476.461009618943,6.452,5.715,4.389,3.935
-0.25,3299970062.852284,0.8466261625,0.5260172663907061,5557.762703204188,6.297,5.584,4.303,3.867
-0.25,3299970062.852284,0.8589180112,0.5662392890382533,5613.064076752015,6.187,5.49,4.24,3.816
-0.25,3299970062.852284,0.8949391842,0.7046930689671469,5770.321353329298,5.879,5.228,4.058,3.666
-0.25,3299970062.852284,0.9189329147,0.8147042840208396,5866.782664019773,5.681,5.059,3.936,3.563
-0.25,3299970062.852284,0.9429707527,0.9397233105646379,5960.737545096847,5.487,4.894,3.816,3.461
-0.25,3299970062.852284,0.9432522058,0.9418895965228413,5962.110213666547,5.485,4.892,3.814,3.46
-0.25,3299970062.852284,0.9649048448,1.069054879222658,6039.4862937638,5.314,4.745,3.703,3.363
-0.25,3299970062.852284,0.9851183891,1.2050359403717974,6109.420249055721,5.159,4.61,3.6,3.273
-0.25,3299970062.852284,0.9915652275,1.2531411749414159,6130.557921498208,5.11,4.568,3.567,3.243
-0.25,3299970062.852284,1.0111079216,1.406047524129914,6192.984599180425,4.962,4.438,3.464,3.152
-0.25,3299970062.852284,1.0311653614,1.5812480392703832,6254.606617424877,4.813,4.306,3.358,3.055
-0.25,3299970062.852284,1.0398783684,1.6634126503701694,6280.58358813318,4.749,4.249,3.312,3.013
-0.25,3299970062.852284,1.0433665514,1.6982436524617444,6290.714855478365,4.724,4.227,3.293,2.997
-0.25,3299970062.852284,1.058386445,1.8535316234148114,6334.320007697662,4.614,4.129,3.214,2.924
-0.25,3299970062.852284,1.0730936527,2.0183663636815607,6375.290810349068,4.508,4.034,3.135,2.852
-0.25,3299970062.852284,1.0867687464,2.1877616239495525,6412.095765851615,4.41,3.946,3.062,2.784
-0.25,3299970062.852284,1.0881915092,2.202926463053456,6415.049325106628,4.4,3.937,3.054,2.777
-0.25,3299970062.852284,1.0889201164,2.2130947096056377,6418.0042448391805,4.395,3.932,3.051,2.774
-0.25,3299970062.852284,1.1031996012,2.4043628000069335,6453.569627274052,4.294,3.841,2.974,2.703
-0.25,3299970062.852284,1.1171474457,2.594179362118814,6483.357951220567,4.2,3.755,2.9,2.634
-0.25,3299970062.852284,1.1299369335,2.78612116862977,6507.287577548787,4.118,3.678,2.833,2.57
-0.25,3299970062.852284,1.1365044117,2.884031503126606,6517.7845431913875,4.076,3.639,2.798,2.537
-0.25,3299970062.852284,1.1423259974,2.971666031738026,6523.790409982088,4.041,3.606,2.768,2.508
-0.25,3299970062.852284,1.1644009352,3.326595532940045,6538.8293000474205,3.913,3.482,2.651,2.393
-0.25,3299970062.852284,1.1823737621,3.6224299841669865,6532.809588303903,3.82,3.389,2.556,2.298
-0.25,3299970062.852284,1.1848175526,3.664375746478332,6531.305526474723,3.809,3.377,2.544,2.285
-0.25,3299970062.852284,1.1949663162,3.8282474331682264,6519.285491340651,3.763,3.329,2.491,2.231
-0.25,3299970062.852284,1.2187741995,4.2559841313374305,6487.838043422757,3.653,3.214,2.364,2.1
-0.25,3299970062.852284,1.2248884439,4.456562483975033,6502.7940547237,3.599,3.164,2.321,2.058
-0.25,3299970062.852284,1.2296534777,4.645152752227495,6522.288424656394,3.547,3.116,2.282,2.023
-0.25,3299970062.852284,1.233130455,4.808393484497286,6544.854558704405,3.503,3.077,2.251,1.995
-0.25,3299970062.852284,1.237814784,5.000345349769784,6558.43169806728,3.456,3.034,2.214,1.96
-0.25,3299970062.852284,1.2418403625,5.420008904016238,6625.215359025829,3.351,2.944,2.15,1.906
-0.25,3299970062.852284,1.2434052229,5.714786366718671,6671.139157966478,3.28,2.882,2.106,1.869
-0.25,3299970062.852284,1.2436153889,5.767664633922507,6677.286334642772,3.269,2.873,2.099,1.863
-0.25,3299970062.852284,1.2567033768,6.33869711256927,6567.49876817207,3.19,2.772,1.958,1.707
-0.25,3299970062.852284,1.2732255459,7.06317554262962,6438.726829014615,3.108,2.662,1.798,1.528
-0.25,3299970062.852284,1.2814434767,7.413102413009175,6338.69711256927,3.084,2.614,1.71,1.425
-0.25,3299970062.852284,1.2835104465,7.481695005111543,6308.120779076959,3.083,2.604,1.688,1.398
-0.25,3299970062.852284,1.2908459902,7.603262769401819,6151.7687270986835,3.12,2.6,1.618,1.302
-0.25,3299970062.852284,1.2955331802,7.464487584100665,6008.9695048348585,3.193,2.631,1.585,1.242
-0.25,3299970062.852284,1.2987087965,7.211074791828996,5887.080847020434,3.283,2.684,1.58,1.212
-0.25,3299970062.852284,1.3015719652,6.839116472814292,5750.425747706384,3.399,2.76,1.591,1.197
-0.25,3299970062.852284,1.3035844564,6.546361740672749,5648.069082416761,3.494,2.825,1.604,1.187
-0.25,3299970062.852284,1.3061167002,6.251726927756859,5518.232567565654,3.606,2.899,1.611,1.165
-0.25,3299970062.852284,1.309625864,6.08135001278718,5357.966575133417,3.721,2.967,1.589,1.106
-0.25,3299970062.852284,1.3138569593,6.456542290346556,5226.368167369365,3.729,2.936,1.481,0.964
-0.25,3299970062.852284,1.3142240047,6.531305526474723,5217.95104239002,3.724,2.928,1.469,0.949
-0.25,3299970062.852284,1.316380024,7.06317554262962,5184.41788307823,3.658,2.852,1.372,0.843
-0.25,3299970062.852284,1.319029808,7.870457896950986,5148.7286014054735,3.563,2.746,1.244,0.706
-0.25,3299970062.852284,1.3216618299,8.871560120379607,5119.175279997109,3.452,2.624,1.104,0.558
-0.25,3299970062.852284,1.3241388798,10.046157902783952,5093.308710571952,3.335,2.498,0.961,0.408
-0.25,3299970062.852284,1.3262174129,11.246049739669262,5072.242398926514,3.227,2.383,0.832,0.273
-0.25,3299970062.852284,1.3283314705,12.76438808811344,5047.775135009473,3.107,2.254,0.688,0.123
-0.25,3299970062.852284,1.3297567368,13.995873225726179,5029.2126585044525,3.02,2.16,0.583,0.012
-0.25,3299970062.852284,1.3300700188,14.25607593602188,5025.739801095915,3.001,2.14,0.56,-0.011
-0.25,3299970062.852284,1.3319224119,16.14358556826486,5000.345349769783,2.885,2.015,0.418,-0.161
-0.25,3299970062.852284,1.3336077929,18.238957023196374,4973.933791067749,2.772,1.892,0.276,-0.31
-0.25,3299970062.852284,1.3350194693,20.417379446695296,4948.801109202861,2.67,1.779,0.146,-0.448
-0.25,3299970062.852284,1.3363291025,22.908676527677734,4922.661804443356,2.566,1.664,0.012,-0.589
-0.25,3299970062.852284,1.3375259638,25.763211570025756,4895.533198139543,2.461,1.547,-0.124,-0.733
-0.25,3299970062.852284,1.3385854959,28.90679882365476,4867.433199621377,2.36,1.436,-0.256,-0.874
-0.25,3299970062.852284,1.3395518064,32.359365692962825,4839.4944930166275,2.26,1.325,-0.387,-1.015
-0.25,3299970062.852284,1.3404310942,36.224299841669854,4810.608341479539,2.162,1.215,-0.518,-1.154
-0.25,3299970062.852284,1.3412368298,40.45758916974427,4782.995805358158,2.067,1.109,-0.645,-1.29
-0.25,3299970062.852284,1.3420073986,44.977985489328795,4754.4468852521,1.977,1.007,-0.769,-1.423
-0.25,3299970062.852284,1.3429820538,50.11872336272722,4726.06836898339,1.886,0.905,-0.893,-1.557
-0.25,3299970062.852284,1.343195796,51.05049999754062,4721.717503108786,1.87,0.887,-0.914,-1.58
-0.25,3299970062.852284,1.3437304497,47.75292736576909,4743.511960856962,1.922,0.948,-0.836,-1.494
-0.25,3299970062.852284,1.3440531492,45.28975799036207,4761.019935823142,1.964,0.997,-0.774,-1.426
-0.25,3299970062.852284,1.3441461325,44.46312674691086,4766.504419105543,1.979,1.014,-0.752,-1.403
-0.25,3299970062.852284,1.3445339203,47.75292736576909,4747.882909415973,1.92,0.947,-0.834,-1.491
-0.25,3299970062.852284,1.345072031,52.48074602497726,4720.630412635905,1.84,0.856,-0.946,-1.612
-0.25,3299970062.852284,1.3455945253,57.94286964268809,4693.534343171951,1.763,0.764,-1.061,-1.736
-0.25,3299970062.852284,1.3460835218,63.82634861905486,4665.519403909797,1.688,0.673,-1.176,-1.859
-0.25,3299970062.852284,1.3465329409,70.30723198838334,4637.671681240619,1.615,0.585,-1.288,-1.981
-0.25,3299970062.852284,1.3469530344,77.44617978025188,4609.990177075899,1.543,0.496,-1.401,-2.103
-0.25,3299970062.852284,1.347350359,85.31001140175896,4581.418867145335,1.47,0.407,-1.515,-2.226
-0.25,3299970062.852284,1.3477185965,93.9723310564638,4551.9763814842045,1.4,0.321,-1.628,-2.349
-0.25,3299970062.852284,1.3480556011,103.5142166679344,4523.764623324995,1.332,0.236,-1.74,-2.471
-0.25,3299970062.852284,1.348367095,113.7627285823431,4494.692652627942,1.265,0.151,-1.852,-2.593
-0.25,3299970062.852284,1.3486553431,125.31411749414156,4465.8075129335175,1.199,0.067,-1.963,-2.715
-0.25,3299970062.852284,1.3489254713,138.03842646028852,4437.1080035723835,1.137,-0.017,-2.075,-2.837
-0.25,3299970062.852284,1.3491694927,151.35612484362088,4407.5779324153655,1.079,-0.099,-2.184,-2.954
-0.25,3299970062.852284,1.349399209,166.72472125510626,4378.244391318432,1.021,-0.183,-2.294,-3.073
-0.25,3299970062.852284,1.3496135473,183.23144223712112,4349.106072324534,0.963,-0.266,-2.404,-3.192
-0.25,3299970062.852284,1.3498088121,201.37242498623874,4320.161676181425,0.907,-0.346,-2.512,-3.309
-0.25,3299970062.852284,1.349992156,221.30947096056389,4290.421892388853,0.85,-0.427,-2.621,-3.428
-0.25,3299970062.852284,1.350159049,242.66100950824142,4261.868054241604,0.794,-0.506,-2.727,-3.544
-0.25,3299970062.852284,1.3503160477,266.68586645214805,4231.555097166164,0.739,-0.584,-2.835,-3.663
-0.25,3299970062.852284,1.3504585028,291.7427014001166,4202.4252767731205,0.685,-0.659,-2.94,-3.779
-0.25,3299970062.852284,1.3505905867,319.88951096913974,4173.495984653169,0.631,-0.734,-3.044,-3.894
-0.25,3299970062.852284,1.3507176638,351.560440528298,4143.811582642788,0.582,-0.805,-3.153,-4.017
-0.25,3299970062.852284,1.350830555,384.5917820453535,4116.2334730276525,0.536,-0.871,-3.257,-4.133
-0.25,3299970062.852284,1.3509383202,420.7266283844442,4086.9563562815833,0.49,-0.937,-3.363,-4.253
-0.25,3299970062.852284,1.3510382175,461.31757456037957,4057.8874759172845,0.446,-1.002,-3.468,-4.371
-0.25,3299970062.852284,1.3511300087,503.50060878790475,4029.953175019774,0.406,-1.062,-3.571,-4.487
-0.25,3299970062.852284,1.3512172699,550.8076964054036,4001.2897354069864,0.365,-1.124,-3.674,-4.605
-0.25,3299970062.852284,1.351298213,602.5595860743575,3972.830167336813,0.327,-1.182,-3.777,-4.721
-0.25,3299970062.852284,1.3513737917,657.6578373554206,3943.6648538097975,0.291,-1.236,-3.879,-4.837
-0.25,3299970062.852284,1.3514447212,717.7942912713615,3915.6151483961166,0.256,-1.289,-3.981,-4.954
-0.25,3299970062.852284,1.3515101671,783.429642766212,3886.8698613730226,0.226,-1.339,-4.081,-5.068
-0.25,3299970062.852284,1.3515710831,851.1380382023768,3858.335599053513,0.202,-1.381,-4.18,-5.181
-0.25,3299970062.852284,1.3516299725,928.9663867799363,3830.010812264487,0.177,-1.424,-4.28,-5.295
-0.25,3299970062.852284,1.3516970873,1030.386120441616,3793.1498497368207,0.155,-1.468,-4.403,-5.436
-0.25,3299970062.852284,1.351757884,1140.2497875611684,3757.508744904872,0.14,-1.499,-4.523,-5.573
-0.25,3299970062.852284,1.3518151045,1261.8275345906707,3722.202530178502,0.126,-1.53,-4.643,-5.71
-0.25,3299970062.852284,1.3518679142,1396.3683610559376,3687.228058871221,0.122,-1.543,-4.762,-5.846
-0.25,3299970062.852284,1.3519169092,1541.70045294956,3651.741272548377,0.125,-1.549,-4.88,-5.98
-0.25,3299970062.852284,1.351962924,1698.2436524617442,3615.76336361097,0.137,-1.542,-4.997,-6.114
-0.25,3299970062.852284,1.3520059586,1870.6821403657998,3579.3156556503877,0.164,-1.515,-5.114,-6.248
-0.25,3299970062.852284,1.3520461321,2055.8905959841427,3544.051302809929,0.197,-1.48,-5.23,-6.379
-0.25,3299970062.852284,1.3520833254,2249.0546058357804,3509.1343835855246,0.25,-1.417,-5.342,-6.505
-0.25,3299970062.852284,1.3521158695,2426.6100950824143,3479.3650764909435,0.297,-1.361,-5.435,-6.612
-0.25,3299970062.852284,1.3521158695,58.74893525297766,4876.407606118823,1.581,0.656,-1.024,-1.638
-0.25,3299970062.852284,1.3525071144,60.53408747539136,4865.192179849536,1.562,0.63,-1.058,-1.675
-0.25,3299970062.852284,1.3528934717,61.235039172477336,4860.713235201249,1.551,0.618,-1.073,-1.692
-0.25,3299970062.852284,1.3532830477,61.37620051647942,4861.832584649837,1.547,0.614,-1.077,-1.694
-0.25,3299970062.852284,1.3536788225,61.37620051647942,4865.192179849536,1.545,0.613,-1.075,-1.692
-0.25,3299970062.852284,1.3540776968,61.37620051647942,4868.554096577112,1.543,0.613,-1.073,-1.688
-0.25,3299970062.852284,1.3544642925,61.235039172477336,4873.040266252349,1.541,0.613,-1.07,-1.685
-0.25,3299970062.852284,1.3548567295,61.235039172477336,4876.407606118823,1.539,0.612,-1.068,-1.681
-0.25,3299970062.852284,1.3552566767,61.09420249055721,4879.77727286486,1.537,0.612,-1.066,-1.678
-0.25,3299970062.852284,1.3556388617,61.09420249055721,4883.149268098355,1.535,0.611,-1.065,-1.676
-0.25,3299970062.852284,1.3560268879,61.09420249055721,4885.398559319364,1.532,0.609,-1.064,-1.675
-0.25,3299970062.852284,1.3564029932,61.235039172477336,4887.648886615807,1.529,0.607,-1.064,-1.674
-0.25,3299970062.852284,1.3567811251,61.235039172477336,4889.900250464924,1.526,0.605,-1.064,-1.673
-0.25,3299970062.852284,1.3571946621,61.235039172477336,4893.279240819371,1.523,0.603,-1.065,-1.673
-0.25,3299970062.852284,1.3574664593,61.37620051647942,4894.4060897312465,1.521,0.601,-1.066,-1.673
-0.25,3299970062.852284,1.3575783968,61.37620051647942,4894.4060897312465,1.52,0.601,-1.066,-1.673
-0.25,3299970062.852284,1.3576680422,61.37620051647942,4895.533198139543,1.519,0.6,-1.066,-1.673
-0.25,3299970062.852284,1.3577237129,61.37620051647942,4895.533198139543,1.519,0.6,-1.066,-1.673
-0.25,3299970062.852284,1.3581420183,61.517687270986805,4897.7881936844615,1.516,0.597,-1.067,-1.674
-0.25,3299970062.852284,1.3585454226,61.65950018614822,4898.916080940641,1.512,0.595,-1.069,-1.675
-0.25,3299970062.852284,1.3589795828,61.80164001384158,4900.044227932357,1.509,0.591,-1.071,-1.677
-0.25,3299970062.852284,1.3594219685,61.94410750767815,4901.172634719431,1.505,0.588,-1.074,-1.679
-0.25,3299970062.852284,1.3598507643,62.08690342300634,4901.172634719431,1.501,0.584,-1.077,-1.683
-0.25,3299970062.852284,1.3602710962,62.373483548241914,4901.172634719431,1.497,0.58,-1.081,-1.687
-0.25,3299970062.852284,1.3606967926,62.66138646723353,4901.172634719431,1.493,0.576,-1.086,-1.692
-0.25,3299970062.852284,1.3608778715,62.8058358813318,4901.172634719431,1.491,0.573,-1.088,-1.694
-0.25,3299970062.852284,1.3612765074,63.09573444801933,4900.044227932357,1.486,0.568,-1.095,-1.701
-0.25,3299970062.852284,1.3616778851,63.53309318517436,4897.7881936844615,1.482,0.562,-1.102,-1.708
-0.25,3299970062.852284,1.3620892763,63.973483548264824,4895.533198139543,1.476,0.555,-1.111,-1.718
-0.25,3299970062.852284,1.3624830246,64.56542290346556,4892.152651344176,1.47,0.548,-1.121,-1.729
-0.25,3299970062.852284,1.3628791571,65.16283940608427,4887.648886615807,1.463,0.539,-1.133,-1.742
-0.25,3299970062.852284,1.3632779121,65.91738952443212,4883.149268098355,1.455,0.529,-1.146,-1.757
-0.25,3299970062.852284,1.3636745214,66.68067692136222,4877.530569745951,1.447,0.518,-1.162,-1.775
-0.25,3299970062.852284,1.3640751839,67.7641507610675,4869.675251658631,1.436,0.503,-1.182,-1.797
-0.25,3299970062.852284,1.3644744158,68.23386941416697,4867.433199621377,1.431,0.497,-1.189,-1.805
-0.25,3299970062.852284,1.3648971319,70.30723198838334,4854.002548344871,1.413,0.472,-1.225,-1.845
-0.25,3299970062.852284,1.3653068542,74.47319739059893,4825.029800597099,1.375,0.421,-1.298,-1.926
-0.25,3299970062.852284,1.3656027317,81.09610578538408,4786.300923226385,1.321,0.348,-1.401,-2.041
-0.25,3299970062.852284,1.3657546043,88.92011178579486,4743.511960856962,1.261,0.267,-1.516,-2.169
-0.25,3299970062.852284,1.3658217192,97.2747223776965,4705.437399531806,1.204,0.191,-1.624,-2.289
-0.25,3299970062.852284,1.3658546209,106.6596121230258,4666.593803142887,1.146,0.111,-1.735,-2.414
-0.25,3299970062.852284,1.3658707142,116.41260294104909,4630.202658603084,1.091,0.037,-1.841,-2.531
-0.25,3299970062.852284,1.3658802509,126.76518658578462,4596.2114466600115,1.037,-0.035,-1.943,-2.645
-0.25,3299970062.852284,1.3658826351,130.31667784523,4585.640453674645,1.019,-0.059,-1.976,-2.682
-0.25,3299970062.852284,1.3658827543,130.61708881318418,4584.584692493264,1.018,-0.06,-1.978,-2.684
-0.25,3299970062.852284,1.3658871651,138.3566378971781,4562.469770768501,0.982,-0.11,-2.048,-2.762
-0.25,3299970062.852284,1.3658951521,154.5254439538414,4520.640796485013,0.92,-0.202,-2.177,-2.904
-0.25,3299970062.852284,1.3659049273,171.79083871575875,4480.226804128664,0.86,-0.293,-2.303,-3.042
-0.25,3299970062.852284,1.3659230471,168.65530253887405,4487.453899331323,0.869,-0.278,-2.282,-3.018
-0.25,3299970062.852284,1.3659629822,152.75660582380732,4524.806378555487,0.925,-0.193,-2.164,-2.889
-0.25,3299970062.852284,1.3662639856,154.88166189124811,4518.559443749222,0.918,-0.205,-2.182,-2.909
-0.25,3299970062.852284,1.3664187193,170.215850839495,4483.322704327333,0.866,-0.285,-2.292,-3.03
-0.25,3299970062.852284,1.3665388823,184.92686189780778,4451.434629201126,0.82,-0.355,-2.39,-3.137
-0.25,3299970062.852284,1.36665833,202.76827195212817,4417.738448896479,0.77,-0.431,-2.498,-3.256
-0.25,3299970062.852284,1.3667622805,221.81964198002194,4383.2879341924645,0.719,-0.508,-2.606,-3.374
-0.25,3299970062.852284,1.3668549061,243.78108183687525,4349.106072324534,0.668,-0.585,-2.714,-3.494
-0.25,3299970062.852284,1.3669371605,267.91683248190316,4315.19076827765,0.618,-0.662,-2.823,-3.615
-0.25,3299970062.852284,1.3670104742,293.76496519615307,4280.55419586204,0.567,-0.739,-2.933,-3.737
-0.25,3299970062.852284,1.3670760393,322.84941217126345,4247.173474714387,0.516,-0.815,-3.041,-3.858
-0.25,3299970062.852284,1.3671348095,354.8133892335753,4213.082854040085,0.469,-0.885,-3.15,-3.981
-0.25,3299970062.852284,1.3671889305,389.9419866765436,4161.980106186026,0.451,-0.934,-3.263,-4.117
-0.25,3299970062.852284,1.3672380447,427.562886151586,4117.1813799387055,0.428,-0.986,-3.373,-4.248
-0.25,3299970062.852284,1.367284894,468.81338214526505,4085.0746766312514,0.385,-1.052,-3.481,-4.371
-0.25,3299970062.852284,1.3673297167,515.2286445817567,4053.218348593218,0.344,-1.115,-3.591,-4.495
-0.25,3299970062.852284,1.3673706055,564.9369748123022,4021.6104433421337,0.306,-1.175,-3.698,-4.617
-0.25,3299970062.852284,1.3674112558,619.4410750767812,3989.3303406008604,0.269,-1.235,-3.806,-4.742
-0.25,3299970062.852284,1.367452383,680.7693586937418,3955.4873505556216,0.235,-1.29,-3.915,-4.868
-0.25,3299970062.852284,1.3674924374,749.8942093324558,3921.0285091946057,0.203,-1.344,-4.027,-4.996
-0.25,3299970062.852284,1.367525816,826.0379495771783,3885.974979543936,0.176,-1.396,-4.141,-5.128
-0.25,3299970062.852284,1.3675475121,905.7326008981998,3853.0087919083076,0.156,-1.437,-4.248,-5.25
-0.25,3299970062.852284,1.3675632477,988.553094656939,3821.202031837345,0.137,-1.475,-4.351,-5.369
-0.25,3299970062.852284,1.3675781488,1086.4256236170656,3787.040939050054,0.123,-1.508,-4.462,-5.497
-0.25,3299970062.852284,1.3675913811,1188.502227437019,3752.321139027498,0.117,-1.53,-4.57,-5.622
-0.25,3299970062.852284,1.367603898,1306.1708881318418,3714.496897976222,0.115,-1.549,-4.683,-5.754
-0.25,3299970062.852284,1.3676162958,1438.798578255845,3676.2073582940866,0.127,-1.544,-4.799,-5.888
-0.25,3299970062.852284,1.3676284552,1581.2480392703826,3637.4748564263245,0.141,-1.537,-4.912,-6.019
-0.25,3299970062.852284,1.3676313162,1570.3628043335532,3639.9884030888024,0.141,-1.537,-4.905,-6.011
-0.25,3299970062.852284,1.3676332235,1595.879147236732,3633.2894685013125,0.144,-1.536,-4.924,-6.034
-0.25,3299970062.852284,1.3676342964,1651.961798229015,3619.928562242391,0.154,-1.526,-4.965,-6.08
-0.25,3299970062.852284,1.3676354885,1702.15850839495,3606.6167888195973,0.166,-1.512,-5.002,-6.124
-0.25,3299970062.852284,1.3676377535,1770.108958317422,3590.0458899019936,0.185,-1.493,-5.051,-6.18
-0.25,3299970062.852284,1.3676402569,1774.1894808901661,3588.3929932948636,0.187,-1.491,-5.055,-6.185
-0.25,3299970062.852284,1.3676403761,1614.3585568264868,3628.273359403348,0.15,-1.53,-4.937,-6.049
-0.25,3299970062.852284,1.3676404953,1923.0917289101576,3553.0392081527184,0.231,-1.445,-5.154,-6.299
-0.25,3299970062.852284,1.3676406145,1819.7008586099826,3577.6676993611068,0.199,-1.478,-5.086,-6.22
-0.25,3299970062.852284,1.3676407337,1682.6740610704674,3610.7714510035285,0.163,-1.516,-4.99,-6.109
-0.25,3299970062.852284,1.3676408529,1640.5897731995387,3621.5959848601933,0.155,-1.524,-4.958,-6.073
-0.25,3299970062.852284,1.3676409721,1479.1083881682073,3661.0022854654303,0.141,-1.532,-4.834,-5.93
-0.25,3299970062.852284,1.3676410913,1733.8039977541375,3597.4933515574235,0.178,-1.5,-5.027,-6.152
-0.25,3299970062.852284,1.3676412106,1710.015315090288,3604.1262864914356,0.171,-1.507,-5.007,-6.13
-0.25,3299970062.852284,1.3676413298,1610.64563517827,3628.273359403348,0.15,-1.53,-4.935,-6.047
-0.25,3299970062.852284,1.367641449,1555.965631605075,3641.665065732136,0.145,-1.532,-4.895,-6.0
-0.25,3299970062.852284,1.3676415682,1499.684835502374,3656.789826173249,0.141,-1.534,-4.849,-5.947
-0.25,3299970062.852284,1.3676422834,1455.4590805819653,3668.5969444134184,0.138,-1.535,-4.813,-5.906
-0.25,3299970062.852284,1.3676433563,1531.0874616820304,3648.379442958715,0.143,-1.534,-4.874,-5.976
-0.25,3299970062.852284,1.3676441908,1577.6112696993484,3637.4748564263245,0.146,-1.533,-4.909,-6.017
-0.25,3299970062.852284,1.3676452637,1694.3378004473288,3606.6167888195973,0.17,-1.508,-4.998,-6.119
-0.25,3299970062.852284,1.3676462173,1853.5316234148106,3570.2612803901543,0.208,-1.47,-5.109,-6.246
-0.25,3299970062.852284,1.3676475286,2027.6827195212818,3532.645025855673,0.259,-1.413,-5.219,-6.372
-0.25,3299970062.852284,1.3676491976,2192.80493535045,3498.6459845201675,0.318,-1.343,-5.317,-6.486
-0.25,3299970062.852284,1.3676518202,2365.9196974857587,3464.974158289286,0.384,-1.265,-5.412,-6.596
-0.25,3299970062.852284,1.3676519394,2365.9196974857587,3464.974158289286,0.384,-1.265,-5.412,-6.596
-0.25,3299970062.852284,1.3676521778,1377.2094688939458,3684.6818914786804,0.147,-1.521,-4.749,-5.834
-0.25,3299970062.852284,1.367652297,1106.6237839776663,3777.461093882191,0.129,-1.508,-4.484,-5.524
-0.25,3299970062.852284,1.3676528931,698.2324040771712,3979.2387763422494,0.168,-1.351,-3.939,-4.878
-0.25,3299970062.852284,1.3676536083,717.7942912713615,3965.518679916798,0.166,-1.362,-3.972,-4.918
-0.25,3299970062.852284,1.367654562,922.5714271547629,3853.0087919083076,0.141,-1.455,-4.269,-5.272
-0.25,3299970062.852284,1.3676558733,1324.3415351946644,3694.877122539323,0.156,-1.509,-4.704,-5.784
-0.25,3299970062.852284,1.3676573038,1819.7008586099826,3562.049907308445,0.251,-1.422,-5.089,-6.231
-0.25,3299970062.852284,1.3676590919,2243.881923782766,3475.3616144320576,0.39,-1.26,-5.35,-6.529
-0.25,3299970062.852284,1.3676611185,2511.88643150958,3428.467208333132,0.494,-1.13,-5.493,-6.691
-0.25,3299970062.852284,1.3676633835,2654.605561975539,3403.2981684204196,0.556,-1.053,-5.564,-6.772
-0.25,3299970062.852284,1.3676658869,2747.8941531023975,3386.881485634765,0.602,-0.995,-5.608,-6.822
-0.25,3299970062.852284,1.3676660061,1866.3796908346694,3539.9734108343464,0.308,-1.36,-5.125,-6.276
-0.25,3299970062.852284,1.3676663637,1300.16957803329,3688.0771722615455,0.195,-1.468,-4.685,-5.769
-0.25,3299970062.852284,1.3676669598,820.3515443298185,3885.974979543936,0.187,-1.388,-4.134,-5.12
-0.25,3299970062.852284,1.3676677942,841.3951416451947,3873.468245564424,0.187,-1.394,-4.164,-5.157
-0.25,3299970062.852284,1.3676688671,1073.989412341245,3766.1706971416666,0.183,-1.453,-4.456,-5.502
-0.25,3299970062.852284,1.3676702976,1531.0874616820304,3615.76336361097,0.24,-1.432,-4.884,-6.001
-0.25,3299970062.852284,1.3676719666,2079.696687103696,3489.7956743787454,0.403,-1.247,-5.263,-6.436
-0.25,3299970062.852284,1.3676738739,2546.8302525850418,3408.7880601025868,0.573,-1.035,-5.515,-6.72
-0.25,3299970062.852284,1.3676761389,2824.8799749157074,3365.8906294925205,0.695,-0.881,-5.648,-6.87
-0.25,3299970062.852284,1.3676786423,2964.8313895243423,3345.0298682601374,0.767,-0.79,-5.708,-6.938
-0.25,3299970062.852284,1.3676815033,3033.891184194272,3333.496473327569,0.813,-0.733,-5.74,-6.975
-0.25,3299970062.852284,1.3676816225,2094.1124558508936,3478.5640153042373,0.442,-1.203,-5.274,-6.451
-0.25,3299970062.852284,1.3676819801,1462.1771744567184,3625.7679024119648,0.255,-1.416,-4.832,-5.945
-0.25,3299970062.852284,1.3676826954,924.698173938223,3822.9621656591935,0.204,-1.405,-4.277,-5.295
-0.25,3299970062.852284,1.3676836491,948.4184633008969,3811.5357714484903,0.204,-1.412,-4.307,-5.331
-0.25,3299970062.852284,1.3676849604,1205.0359403717973,3705.953792179554,0.221,-1.437,-4.596,-5.671
-0.25,3299970062.852284,1.3676866293,1702.15850839495,3559.59018006083,0.324,-1.343,-5.019,-6.162
-0.25,3299970062.852284,1.3676885366,2296.148648112363,3436.370641490611,0.542,-1.081,-5.393,-6.587
-0.25,3299970062.852284,1.3676909208,2792.543841237339,3357.3761424295453,0.752,-0.814,-5.639,-6.864
-0.25,3299970062.852284,1.3676935434,3090.295432513592,3316.6527215043507,0.894,-0.635,-5.766,-7.008
-0.25,3299970062.852284,1.3676964045,3228.4941217126348,3297.6153801591913,0.972,-0.532,-5.822,-7.071
-0.25,3299970062.852284,1.3676997423,3303.6954103681487,3287.7591870669708,1.019,-0.471,-5.85,-7.103
-0.25,3299970062.852284,1.3676998615,2328.091257665008,3426.099724881373,0.58,-1.036,-5.41,-6.609
-0.25,3299970062.852284,1.3677003384,1633.0519478943347,3571.9058251119704,0.325,-1.342,-4.968,-6.105
-0.25,3299970062.852284,1.3677010536,1030.386120441616,3770.5091583339295,0.218,-1.417,-4.41,-5.454
-0.25,3299970062.852284,1.3677021265,1056.8175092136585,3758.374042884443,0.221,-1.418,-4.44,-5.49
-0.25,3299970062.852284,1.3677034378,1339.6766874259345,3654.264677506526,0.261,-1.406,-4.726,-5.825
-0.25,3299970062.852284,1.3677052259,1879.3168168032685,3509.1343835855246,0.424,-1.229,-5.144,-6.308
-0.25,3299970062.852284,1.3677072525,2517.676927758854,3387.661433708217,0.683,-0.909,-5.511,-6.725
-0.25,3299970062.852284,1.3677097559,3040.88502567628,3309.786650728407,0.95,-0.571,-5.752,-6.996
-0.25,3299970062.852284,1.3677124977,3357.3761424295453,3269.640468343053,1.126,-0.336,-5.876,-7.136
-0.25,3299970062.852284,1.3677157164,3499.451670283573,3250.872973854344,1.213,-0.22,-5.931,-7.197
-0.25,3299970062.852284,1.3677191734,3572.7283815192886,3240.4102704918173,1.266,-0.152,-5.959,-7.229
-0.25,3299970062.852284,1.3677192926,2588.2129151530903,3368.992157414906,0.763,-0.811,-5.55,-6.771
-0.25,3299970062.852284,1.3677197695,1823.8957023196383,3514.7950006430638,0.434,-1.221,-5.109,-6.271
-0.25,3299970062.852284,1.3677204847,1153.4532578210917,3714.496897976222,0.244,-1.414,-4.546,-5.618
-0.25,3299970062.852284,1.3677215576,1183.0415557251647,3702.5420540013483,0.252,-1.408,-4.577,-5.654
-0.25,3299970062.852284,1.3677229881,1489.3610777109154,3599.979270433565,0.325,-1.344,-4.86,-5.984
-0.25,3299970062.852284,1.3677246571,2070.1413487910413,3457.0049388687194,0.552,-1.08,-5.27,-6.457
-0.25,3299970062.852284,1.3677268028,2754.2287033381663,3337.3365130514867,0.886,-0.659,-5.631,-6.864
-0.25,3299970062.852284,1.3677293062,3311.311214825911,3260.6185877894,1.2,-0.247,-5.866,-7.129
-0.25,3299970062.852284,1.367732048,3639.1503612720708,3220.3271981675407,1.381,-0.006,-5.989,-7.265
-0.25,3299970062.852284,1.3677352667,3793.1498497368207,3201.10559153497,1.469,0.111,-6.043,-7.326
-0.25,3299970062.852284,1.367738843,3872.576449216173,3190.0684359752117,1.525,0.183,-6.071,-7.357
-0.25,3299970062.852284,1.3677389622,2890.6798823654744,3309.0246319221333,1.008,-0.51,-5.696,-6.941
-0.25,3299970062.852284,1.367739439,2041.7379446695295,3454.617749058203,0.578,-1.054,-5.257,-6.445
-0.25,3299970062.852284,1.3677401543,1297.1792709839558,3655.9479161312506,0.293,-1.376,-4.691,-5.789
-0.25,3299970062.852284,1.3677412271,1330.4544179780914,3644.181507888609,0.303,-1.368,-4.722,-5.826
-0.25,3299970062.852284,1.3677426577,1667.2472125510626,3541.6040042646177,0.42,-1.245,-5.001,-6.152
-0.25,3299970062.852284,1.3677444458,2290.8676527677726,3400.1650580407095,0.719,-0.879,-5.404,-6.613
-0.25,3299970062.852284,1.3677464724,3019.9517204020162,3281.708485445259,1.147,-0.33,-5.755,-7.01
-0.25,3299970062.852284,1.3677489758,3605.7864302164235,3205.531138700436,1.488,0.125,-5.986,-7.267
-0.25,3299970062.852284,1.3677518368,3953.666200681279,3165.191567226265,1.683,0.383,-6.105,-7.401
-0.25,3299970062.852284,1.3677550554,4120.975190973304,3144.850465476959,1.767,0.491,-6.159,-7.46
-0.25,3299970062.852284,1.3677586317,4207.266283844442,3132.5643416709277,1.822,0.561,-6.187,-7.492
-0.25,3299970062.852284,1.3677587509,3235.936569296281,3240.4102704918173,1.362,-0.053,-5.85,-7.12
-0.25,3299970062.852284,1.3677591085,2301.441817408509,3386.101717130323,0.79,-0.799,-5.414,-6.629
-0.25,3299970062.852284,1.3677598238,1462.1771744567184,3589.2193464500533,0.385,-1.286,-4.842,-5.971
-0.25,3299970062.852284,1.3677608967,1496.235656094433,3576.844005764754,0.404,-1.266,-4.873,-6.008
-0.25,3299970062.852284,1.367762208,1862.0871366628676,3474.561474970439,0.584,-1.058,-5.148,-6.328
-0.25,3299970062.852284,1.3677638769,2535.128630497907,3335.7999666204814,0.981,-0.561,-5.542,-6.776
-0.25,3299970062.852284,1.3677659035,3303.6954103681487,3218.844524111849,1.484,0.102,-5.883,-7.159
-0.25,3299970062.852284,1.3677681684,3917.4187710778306,3143.4025417390094,1.824,0.551,-6.105,-7.407
-0.25,3299970062.852284,1.3677709103,4275.62886151586,3103.1302147534125,1.992,0.767,-6.22,-7.535
-0.25,3299970062.852284,1.3677738905,4446.312674691088,3082.4781017155096,2.073,0.862,-6.272,-7.592
-0.25,3299970062.852284,1.3677772284,4528.975799036209,3069.728738183665,2.117,0.906,-6.299,-7.623
-0.25,3299970062.852284,1.3677773476,3589.2193464500533,3165.920463432239,1.771,0.471,-5.999,-7.294
-0.25,3299970062.852284,1.3677777052,2564.484036517716,3311.311214825911,1.118,-0.401,-5.566,-6.809
-0.25,3299970062.852284,1.3677784204,1633.0519478943347,3517.223773787032,0.547,-1.112,-4.989,-6.15
-0.25,3299970062.852284,1.3677792549,1671.090614310707,3503.482883015712,0.578,-1.076,-5.021,-6.187
-0.25,3299970062.852284,1.3677805662,2070.1413487910413,3402.5146202702363,0.821,-0.779,-5.292,-6.5
-0.25,3299970062.852284,1.3677821159,2779.7132677592886,3265.126412019571,1.349,-0.101,-5.674,-6.935
-0.25,3299970062.852284,1.3677839041,3589.2193464500533,3149.923452784473,1.876,0.598,-6.006,-7.305
-0.25,3299970062.852284,1.3677860498,4226.686142656029,3074.680545939635,2.16,0.95,-6.221,-7.543
-0.25,3299970062.852284,1.3677885532,4591.980128368686,3033.891184194272,2.275,1.062,-6.331,-7.664
-0.25,3299970062.852284,1.3677914143,4753.352259428054,3013.006024186122,2.339,1.123,-6.381,-7.718
-0.25,3299970062.852284,1.3677945137,4841.7236758409945,2999.16251898765,2.381,1.163,-6.407,-7.746
-0.25,3299970062.852284,1.3677946329,3953.666200681279,3085.3184768063825,2.18,0.971,-6.142,-7.462
-0.25,3299970062.852284,1.3677949905,2837.9190284415554,3230.7250568928803,1.569,0.17,-5.712,-6.984
-0.25,3299970062.852284,1.3677955866,1807.1741260109275,3439.5371138063997,0.788,-0.838,-5.13,-6.324
-0.25,3299970062.852284,1.3677964211,1853.5316234148106,3426.099724881373,0.828,-0.789,-5.162,-6.361
-0.25,3299970062.852284,1.3677976131,2275.0974307720717,3325.0639317743994,1.167,-0.366,-5.43,-6.668
-0.25,3299970062.852284,1.3677990437,3026.913428101305,3189.333980133178,1.789,0.454,-5.803,-7.09
-0.25,3299970062.852284,1.3678007126,3863.669770540693,3075.3885988131847,2.256,1.046,-6.124,-7.446
-0.25,3299970062.852284,1.3678027391,4518.559443749222,3001.234982781183,2.447,1.229,-6.331,-7.67
-0.25,3299970062.852284,1.3678051233,4886.523593428336,2960.738151747431,2.537,1.312,-6.437,-7.784
-0.25,3299970062.852284,1.3678077459,5058.246620031143,2940.356573672507,2.59,1.361,-6.483,-7.834
-0.25,3299970062.852284,1.367810607,5140.436515824259,2927.520871369441,2.627,1.396,-6.507,-7.86
