FeH,Age,Mini,L,Te,Bmag,Vmag,Jmag,Kmag
-1.0,4300015291.51271,0.0900000036,0.0005727960309858292,2774.5975598804152,18.575,16.564,10.795,10.254
-1.0,4300015291.51271,0.0960573852,0.0008035261221856169,2910.717118066605,17.543,15.587,10.493,9.876
-1.0,4300015291.51271,0.1000000015,0.0009908319448927675,2998.4720157970514,16.933,15.013,10.306,9.649
-1.0,4300015291.51271,0.1042262316,0.0011481536214968829,3051.4060291410433,16.557,14.659,10.171,9.491
-1.0,4300015291.51271,0.1200000048,0.001892343618644976,3237.42711634235,15.349,13.554,9.71,8.972
-1.0,4300015291.51271,0.1400000006,0.0028906798823654747,3372.873086588689,14.494,12.795,9.306,8.542
-1.0,4300015291.51271,0.1599999964,0.003971915494694405,3460.9872548535277,13.925,12.292,8.995,8.219
-1.0,4300015291.51271,0.2000000179,0.0064416926551517754,3580.9643710263585,13.13,11.586,8.513,7.726
-1.0,4300015291.51271,0.25,0.010209394837076797,3679.594830147843,12.436,10.96,8.051,7.256
-1.0,4300015291.51271,0.3000000417,0.014723125024327186,3754.9140460984254,11.9,10.474,7.678,6.879
-1.0,4300015291.51271,0.349999994,0.020511621788255656,3815.926491189337,11.439,10.052,7.338,6.537
-1.0,4300015291.51271,0.400000006,0.028773984147356695,3912.911271268528,10.925,9.595,7.002,6.203
-1.0,4300015291.51271,0.4356049299,0.03819442708400466,4015.1335942882924,10.472,9.203,6.724,5.931
-1.0,4300015291.51271,0.4499999881,0.04255984131337431,4054.1517440650287,10.3,9.055,6.618,5.828
-1.0,4300015291.51271,0.4764991701,0.05370317963702527,4174.457078262909,9.888,8.711,6.395,5.618
-1.0,4300015291.51271,0.5,0.0654636174067275,4279.568675300529,9.544,8.423,6.208,5.444
-1.0,4300015291.51271,0.5500000715,0.10327614057613975,4589.865930219982,8.683,7.725,5.797,5.103
-1.0,4300015291.51271,0.6000000238,0.15703628043335524,4889.900250464924,7.948,7.111,5.436,4.829
-1.0,4300015291.51271,0.649518013,0.23388372386593548,5208.348068742078,7.306,6.567,5.106,4.587
-1.0,4300015291.51271,0.6499999762,0.23496328208483072,5211.947111050806,7.3,6.562,5.103,4.585
-1.0,4300015291.51271,0.6745427251,0.28444611074479154,5369.081544647211,7.01,6.317,4.948,4.467
-1.0,4300015291.51271,0.6999999881,0.34514373933585624,5530.953407403111,6.728,6.078,4.791,4.344
-1.0,4300015291.51271,0.7071495652,0.3639150361272071,5575.7077217879405,6.651,6.014,4.748,4.311
-1.0,4300015291.51271,0.7362546921,0.4518559443749224,5755.7245253511,6.346,5.758,4.579,4.175
-1.0,4300015291.51271,0.75,0.49888448746001224,5839.827246189302,6.208,5.642,4.5,4.111
-1.0,4300015291.51271,0.7582135797,0.5296634438916578,5880.306994811631,6.13,5.575,4.45,4.068
-1.0,4300015291.51271,0.7859030962,0.6456542290346555,6015.8915705346435,5.87,5.351,4.284,3.925
-1.0,4300015291.51271,0.8000000119,0.7144963260755134,6082.750456601517,5.741,5.239,4.199,3.85
-1.0,4300015291.51271,0.8207945228,0.8279421637123342,6174.474480506815,5.553,5.074,4.071,3.737
-1.0,4300015291.51271,0.8481868505,1.0069316688518042,6292.163512879859,5.309,4.858,3.901,3.586
-1.0,4300015291.51271,0.8500000238,1.0185913880541169,6299.411805485587,5.293,4.844,3.89,3.576
-1.0,4300015291.51271,0.8508739471,1.0256519262514077,6303.764788294872,5.286,4.837,3.884,3.572
-1.0,4300015291.51271,0.8769896626,1.233104833228909,6413.572375458588,5.055,4.632,3.722,3.427
-1.0,4300015291.51271,0.8990997672,1.4454397707459274,6505.789391703234,4.86,4.456,3.582,3.301
-1.0,4300015291.51271,0.8999999762,1.455459080581966,6510.284984348614,4.852,4.448,3.576,3.296
-1.0,4300015291.51271,0.9192679524,1.6710906143107076,6593.25693118515,4.68,4.292,3.453,3.185
-1.0,4300015291.51271,0.9375834465,1.9142559250210855,6672.675421386398,4.513,4.141,3.332,3.076
-1.0,4300015291.51271,0.9499999881,2.1037784397664754,6726.668104310991,4.398,4.036,3.248,3.0
-1.0,4300015291.51271,0.9520303011,2.1330449131465765,6735.967762229426,4.38,4.019,3.234,2.988
-1.0,4300015291.51271,0.9694633484,2.443430552693972,6818.675140286001,4.214,3.868,3.115,2.881
-1.0,4300015291.51271,0.9850794077,2.760577856220346,6891.281648380538,4.064,3.73,3.004,2.781
-1.0,4300015291.51271,0.9998255968,3.1045595881283554,6955.045892395349,3.921,3.598,2.897,2.683
-1.0,4300015291.51271,1.0,3.1117163371060177,6955.045892395349,3.919,3.596,2.896,2.682
-1.0,4300015291.51271,1.006578207,3.273406948788382,6988.7579613471,3.856,3.538,2.85,2.64
-1.0,4300015291.51271,1.0201169252,3.664375746478332,7048.553492252092,3.721,3.413,2.748,2.547
-1.0,4300015291.51271,1.031475544,4.045758916974426,7097.411730944613,3.6,3.3,2.655,2.461
-1.0,4300015291.51271,1.0410836935,4.425883723626265,7135.0989448156515,3.493,3.2,2.569,2.381
-1.0,4300015291.51271,1.0466705561,4.666593803142887,7154.841214168983,3.43,3.14,2.517,2.331
-1.0,4300015291.51271,1.0499999523,4.830588020397728,7161.43410212902,3.391,3.102,2.483,2.298
-1.0,4300015291.51271,1.0513031483,4.886523593428335,7163.083273130367,3.376,3.088,2.469,2.285
-1.0,4300015291.51271,1.0580947399,5.248074602497725,7166.382754558647,3.295,3.008,2.392,2.209
-1.0,4300015291.51271,1.0645465851,5.649369748123025,7159.7853108196205,3.215,2.928,2.311,2.127
-1.0,4300015291.51271,1.0687532425,5.942921586155727,7144.963260755135,3.159,2.871,2.25,2.064
-1.0,4300015291.51271,1.0722746849,6.223002851691596,7117.049722679209,3.114,2.823,2.193,2.004
-1.0,4300015291.51271,1.07835567,6.714288529259523,7056.673112483567,3.04,2.741,2.09,1.894
-1.0,4300015291.51271,1.0850688219,7.362070974947361,6932.6615720512,2.959,2.644,1.95,1.738
-1.0,4300015291.51271,1.0896240473,7.870457896950986,6788.909197955847,2.912,2.576,1.829,1.597
-1.0,4300015291.51271,1.0929000378,8.260379495771788,6629.793476706679,2.893,2.531,1.724,1.469
-1.0,4300015291.51271,1.0948295593,8.472274141405965,6501.296903430909,2.895,2.51,1.655,1.38
-1.0,4300015291.51271,1.096331954,8.609937521846007,6379.696226625793,2.912,2.502,1.598,1.304
-1.0,4300015291.51271,1.0974773169,8.669618757582166,6270.468637308513,2.935,2.503,1.554,1.242
-1.0,4300015291.51271,1.0987130404,8.649679187756934,6139.0334536093505,2.977,2.514,1.511,1.177
-1.0,4300015291.51271,1.0997823477,8.629785477669705,6017.27694025024,3.019,2.528,1.473,1.117
-1.0,4300015291.51271,1.1000000238,8.609937521846007,5991.0093861135365,3.029,2.531,1.465,1.104
-1.0,4300015291.51271,1.1007189751,8.609937521846007,5906.089174803649,3.06,2.541,1.437,1.06
-1.0,4300015291.51271,1.1015707254,8.629785477669705,5804.9702719686975,3.095,2.549,1.401,1.004
-1.0,4300015291.51271,1.1023668051,8.629785477669705,5716.102396416138,3.13,2.56,1.371,0.957
-1.0,4300015291.51271,1.1031490564,8.629785477669705,5638.972803349493,3.16,2.569,1.344,0.915
-1.0,4300015291.51271,1.1041254997,8.81048873008014,5560.322736938655,3.17,2.558,1.295,0.849
-1.0,4300015291.51271,1.105263114,9.311078754678302,5489.085556070448,3.14,2.51,1.212,0.752
-1.0,4300015291.51271,1.1054017544,9.397233105646377,5482.769649208536,3.134,2.502,1.201,0.739
-1.0,4300015291.51271,1.1055871248,9.52796164023652,5475.200153037678,3.122,2.488,1.183,0.719
-1.0,4300015291.51271,1.1068799496,10.592537251772887,5428.7519703968255,3.029,2.382,1.053,0.578
-1.0,4300015291.51271,1.1079543829,11.668096170609624,5397.591335559007,2.937,2.281,0.936,0.453
-1.0,4300015291.51271,1.1089577675,12.91219273613534,5371.554667486636,2.84,2.177,0.818,0.329
-1.0,4300015291.51271,1.1099683046,14.387985782558452,5346.874615616075,2.734,2.065,0.693,0.197
-1.0,4300015291.51271,1.1108951569,15.995580286146687,5323.533606082614,2.629,1.953,0.569,0.068
-1.0,4300015291.51271,1.1116882563,17.660378206861647,5303.957066945361,2.532,1.85,0.456,-0.05
-1.0,4300015291.51271,1.1125224829,19.724227361148536,5280.803407777241,2.422,1.734,0.328,-0.183
-1.0,4300015291.51271,1.1132428646,21.87761623949553,5260.172663907063,2.321,1.627,0.21,-0.306
-1.0,4300015291.51271,1.1139221191,24.266100950824157,5238.416190277907,2.218,1.518,0.088,-0.433
-1.0,4300015291.51271,1.11452806,26.853444456585077,5216.749703076012,2.121,1.413,-0.029,-0.556
-1.0,4300015291.51271,1.115116477,29.92264636608189,5193.976735070076,2.018,1.303,-0.153,-0.687
-1.0,4300015291.51271,1.1156260967,33.036954103681474,5171.303179169629,1.923,1.2,-0.269,-0.809
-1.0,4300015291.51271,1.1161305904,36.812897364253146,5146.35807013727,1.821,1.09,-0.394,-0.941
-1.0,4300015291.51271,1.1165616512,40.64433291652128,5123.892386646796,1.727,0.989,-0.51,-1.062
-1.0,4300015291.51271,1.1169782877,44.977985489328795,5098.001982256051,1.631,0.884,-0.63,-1.19
-1.0,4300015291.51271,1.117364049,49.88844874600122,5073.410460372977,1.535,0.779,-0.75,-1.318
-1.0,4300015291.51271,1.1177105904,55.207743928075736,5047.775135009473,1.442,0.678,-0.868,-1.442
-1.0,4300015291.51271,1.1180409193,61.235039172477336,5021.113054699537,1.348,0.573,-0.989,-1.57
-1.0,4300015291.51271,1.1183378696,67.60829753919819,4995.741981759636,1.259,0.473,-1.105,-1.693
-1.0,4300015291.51271,1.1186270714,74.98942093324558,4968.210633313916,1.166,0.369,-1.226,-1.822
-1.0,4300015291.51271,1.1188855171,82.60379495771788,4941.96880847838,1.08,0.271,-1.342,-1.944
-1.0,4300015291.51271,1.1191413403,91.20108393559097,4914.733801992678,0.992,0.172,-1.459,-2.069
-1.0,4300015291.51271,1.1193971634,100.0,4889.900250464924,0.914,0.083,-1.565,-2.182
-1.0,4300015291.51271,1.1196507215,106.90548792226576,4871.918336436785,0.855,0.017,-1.644,-2.267
-1.0,4300015291.51271,1.1197319031,105.43868963912593,4877.530569745951,0.866,0.03,-1.627,-2.248
-1.0,4300015291.51271,1.1198923588,96.60508789898135,4905.6888610179985,0.937,0.113,-1.524,-2.137
-1.0,4300015291.51271,1.1199605465,92.25714271547633,4920.395356814511,0.976,0.158,-1.469,-2.078
-1.0,4300015291.51271,1.1200541258,96.8277856261249,4907.948534495558,0.935,0.111,-1.525,-2.137
-1.0,4300015291.51271,1.1202483177,106.6596121230258,4879.77727286486,0.851,0.015,-1.64,-2.261
-1.0,4300015291.51271,1.1204338074,117.48975549395291,4852.88500162121,0.77,-0.078,-1.753,-2.382
-1.0,4300015291.51271,1.1206130981,129.41958414499862,4823.918924327151,0.687,-0.173,-1.869,-2.507
-1.0,4300015291.51271,1.1207731962,142.23287871228197,4797.334486366892,0.609,-0.264,-1.979,-2.626
-1.0,4300015291.51271,1.1209250689,156.3147642640954,4768.699981017778,0.536,-0.358,-2.093,-2.747
-1.0,4300015291.51271,1.1210653782,171.79083871575875,4740.236390350336,0.467,-0.45,-2.205,-2.866
-1.0,4300015291.51271,1.121194005,188.79913490962926,4711.94269420276,0.4,-0.541,-2.316,-2.983
-1.0,4300015291.51271,1.1213126183,207.01413487910415,4683.817878502438,0.335,-0.63,-2.426,-3.1
-1.0,4300015291.51271,1.1214236021,226.98648518838212,4655.860935229591,0.273,-0.718,-2.536,-3.217
-1.0,4300015291.51271,1.1215240955,247.74220576332863,4628.0708623811315,0.214,-0.803,-2.643,-3.33
-1.0,4300015291.51271,1.1216193438,271.64392688390836,4599.38749388997,0.156,-0.888,-2.751,-3.446
-1.0,4300015291.51271,1.1217068434,297.1666031738025,4570.881896148751,0.1,-0.971,-2.858,-3.56
-1.0,4300015291.51271,1.1217885017,324.33961734934934,4542.552967388711,0.047,-1.052,-2.963,-3.674
-1.0,4300015291.51271,1.1218651533,354.8133892335753,4514.399612669502,-0.005,-1.133,-3.069,-3.788
-1.0,4300015291.51271,1.1219344139,386.36697705406937,4486.420743836898,-0.057,-1.207,-3.171,-3.9
-1.0,4300015291.51271,1.1220015287,422.66861426560286,4457.58876355946,-0.108,-1.282,-3.275,-4.015
-1.0,4300015291.51271,1.1220623255,460.25657358135584,4429.961991003635,-0.157,-1.354,-3.376,-4.127
-1.0,4300015291.51271,1.122120142,501.18723362727246,4401.492842868152,-0.206,-1.425,-3.478,-4.24
-1.0,4300015291.51271,1.1221741438,547.0159628939716,4373.2066516964505,-0.254,-1.496,-3.58,-4.353
-1.0,4300015291.51271,1.1222356558,608.1350012787176,4338.104405465892,-0.31,-1.581,-3.703,-4.491
-1.0,4300015291.51271,1.1222820282,660.6934480075957,4310.225580049957,-0.354,-1.647,-3.801,-4.601
-1.0,4300015291.51271,1.1223359108,734.5138681571151,4274.644474923936,-0.408,-1.73,-3.925,-4.739
-1.0,4300015291.51271,1.1223847866,812.8305161640995,4240.333353850188,-0.456,-1.807,-4.043,-4.874
-1.0,4300015291.51271,1.1224304438,901.571137605957,4207.266283844442,-0.501,-1.883,-4.163,-5.008
-1.0,4300015291.51271,1.1224656105,979.4899854086991,4179.265867213064,-0.533,-1.943,-4.261,-5.118
-1.0,4300015291.51271,1.1225045919,1081.4339512979375,4146.675015156991,-0.568,-2.012,-4.376,-5.249
-1.0,4300015291.51271,1.1225414276,1196.7405313072431,4112.4440272660895,-0.602,-2.079,-4.492,-5.381
-1.0,4300015291.51271,1.1225761175,1321.2956341865752,4079.4348341609566,-0.637,-2.147,-4.608,-5.514
-1.0,4300015291.51271,1.1226086617,1458.814260275349,4046.6905946508737,-0.667,-2.212,-4.723,-5.645
-1.0,4300015291.51271,1.1226385832,1610.64563517827,4015.1335942882924,-0.695,-2.274,-4.836,-5.775
-1.0,4300015291.51271,1.1226668358,1774.1894808901661,3981.988486715585,-0.721,-2.334,-4.949,-5.904
-1.0,4300015291.51271,1.1226934195,1949.8445997580454,3950.936047894297,-0.742,-2.389,-5.057,-6.029
-1.0,4300015291.51271,1.1227177382,2123.2444620002193,3923.737995448608,-0.756,-2.436,-5.154,-6.141
-1.0,4300015291.51271,1.1227177382,68.07693586937414,5280.803407777241,1.073,0.389,-1.019,-1.533
-1.0,4300015291.51271,1.1229212284,69.98419960022734,5267.444883319061,1.051,0.362,-1.054,-1.571
-1.0,4300015291.51271,1.1231282949,70.6317554262962,5262.595620803182,1.041,0.35,-1.068,-1.586
-1.0,4300015291.51271,1.1233372688,71.28530301265195,5261.38400287851,1.033,0.342,-1.077,-1.594
-1.0,4300015291.51271,1.1235495806,71.6143410212902,5265.019693769153,1.027,0.336,-1.081,-1.598
-1.0,4300015291.51271,1.1237633228,71.77942912713618,5268.657896973707,1.021,0.332,-1.083,-1.599
-1.0,4300015291.51271,1.1239717007,71.94489780036994,5273.512745624402,1.015,0.328,-1.084,-1.599
-1.0,4300015291.51271,1.1241672039,72.11074791828997,5278.37206781577,1.01,0.324,-1.085,-1.599
-1.0,4300015291.51271,1.124382019,72.44359600749902,5283.235867669997,1.004,0.32,-1.086,-1.599
-1.0,4300015291.51271,1.124574542,72.61059574351547,5288.104149313063,0.999,0.316,-1.088,-1.599
-1.0,4300015291.51271,1.124771595,72.77798045368242,5291.758304203465,0.993,0.312,-1.09,-1.6
-1.0,4300015291.51271,1.1249870062,72.94575102545687,5296.634438916581,0.987,0.308,-1.092,-1.602
-1.0,4300015291.51271,1.1251795292,73.2824533138904,5300.294488357958,0.982,0.303,-1.094,-1.603
-1.0,4300015291.51271,1.1253783703,73.45138681571152,5302.735926292144,0.976,0.299,-1.097,-1.605
-1.0,4300015291.51271,1.1255888939,73.79042301291011,5306.40019194775,0.97,0.294,-1.1,-1.607
-1.0,4300015291.51271,1.1257002354,73.96052750582378,5308.8444423098845,0.967,0.292,-1.101,-1.608
-1.0,4300015291.51271,1.1257821321,73.96052750582378,5310.066989662834,0.965,0.29,-1.102,-1.609
-1.0,4300015291.51271,1.1259721518,74.30191378967014,5312.5129290366,0.96,0.286,-1.105,-1.611
-1.0,4300015291.51271,1.1261615753,74.47319739059893,5314.959995066477,0.955,0.281,-1.108,-1.613
-1.0,4300015291.51271,1.1263513565,74.81695005111546,5316.183950739626,0.949,0.277,-1.112,-1.616
-1.0,4300015291.51271,1.1265560389,75.16228940182053,5317.408188271428,0.944,0.272,-1.116,-1.62
-1.0,4300015291.51271,1.1267539263,75.50922276654337,5318.632707726801,0.939,0.267,-1.12,-1.624
-1.0,4300015291.51271,1.1269526482,75.85775750291836,5318.632707726801,0.934,0.262,-1.125,-1.629
-1.0,4300015291.51271,1.1271486282,76.20790100254119,5318.632707726801,0.928,0.257,-1.131,-1.634
-1.0,4300015291.51271,1.1271992922,76.20790100254119,5318.632707726801,0.927,0.255,-1.132,-1.636
-1.0,4300015291.51271,1.127218008,76.38357835776907,5318.632707726801,0.927,0.255,-1.132,-1.636
-1.0,4300015291.51271,1.1274080276,76.73614893618189,5317.408188271428,0.922,0.249,-1.139,-1.643
-1.0,4300015291.51271,1.1275984049,77.090346906443,5316.183950739626,0.916,0.244,-1.145,-1.65
-1.0,4300015291.51271,1.1277937889,77.62471166286916,5312.5129290366,0.911,0.237,-1.153,-1.658
-1.0,4300015291.51271,1.1279907227,78.16278045883297,5308.8444423098845,0.905,0.23,-1.163,-1.669
-1.0,4300015291.51271,1.1281839609,78.88601176185544,5303.957066945361,0.899,0.222,-1.173,-1.681
-1.0,4300015291.51271,1.1283760071,79.61593504173187,5297.854174488645,0.892,0.213,-1.185,-1.694
-1.0,4300015291.51271,1.1285699606,80.35261221856173,5290.539972095819,0.885,0.203,-1.199,-1.709
-1.0,4300015291.51271,1.128765583,81.2830516164099,5282.019497699969,0.877,0.192,-1.215,-1.727
-1.0,4300015291.51271,1.1289764643,82.60379495771788,5273.512745624402,0.865,0.177,-1.235,-1.749
-1.0,4300015291.51271,1.1291803122,84.13951416451951,5260.172663907063,0.853,0.16,-1.259,-1.776
-1.0,4300015291.51271,1.1293674707,83.75292821268826,5265.019693769153,0.855,0.164,-1.252,-1.768
-1.0,4300015291.51271,1.1295704842,87.09635899560806,5234.798870090691,0.831,0.129,-1.304,-1.828
-1.0,4300015291.51271,1.1297684908,94.18895965228413,5180.837850719928,0.779,0.057,-1.408,-1.946
-1.0,4300015291.51271,1.1298559904,101.85913880541169,5133.339643802892,0.725,-0.015,-1.508,-2.057
-1.0,4300015291.51271,1.129894495,109.90058394325209,5089.791592468075,0.671,-0.086,-1.606,-2.166
-1.0,4300015291.51271,1.1299118996,119.6740531307243,5045.4510838273745,0.609,-0.166,-1.712,-2.284
-1.0,4300015291.51271,1.1299198866,130.016957803329,5004.95295959168,0.547,-0.245,-1.817,-2.4
-1.0,4300015291.51271,1.1299235821,138.67558288718882,4975.0792135144075,0.499,-0.304,-1.896,-2.486
-1.0,4300015291.51271,1.1299263239,147.91083881682073,4947.661736816762,0.45,-0.365,-1.974,-2.572
-1.0,4300015291.51271,1.1299307346,163.68165214278085,4905.6888610179985,0.372,-0.463,-2.1,-2.71
-1.0,4300015291.51271,1.1299364567,178.23787674480891,4871.918336436785,0.308,-0.542,-2.205,-2.825
-1.0,4300015291.51271,1.1299476624,169.43378004473288,4893.279240819371,0.345,-0.496,-2.143,-2.756
-1.0,4300015291.51271,1.1300396919,165.19617982290148,4902.30130136168,0.365,-0.471,-2.111,-2.722
-1.0,4300015291.51271,1.1301208735,179.47336268325265,4868.554096577112,0.305,-0.547,-2.212,-2.834
-1.0,4300015291.51271,1.1301714182,194.98445997580455,4835.039205916214,0.247,-0.624,-2.313,-2.944
-1.0,4300015291.51271,1.1302089691,209.89398836235245,4806.1796472595415,0.198,-0.695,-2.404,-3.042
-1.0,4300015291.51271,1.1302534342,232.27367963571075,4764.309868054156,0.132,-0.793,-2.531,-3.18
-1.0,4300015291.51271,1.1302980185,257.03957827688646,4724.980276801948,0.07,-0.887,-2.654,-3.312
-1.0,4300015291.51271,1.1303384304,282.48799749157075,4689.213428447355,0.013,-0.975,-2.769,-3.435
-1.0,4300015291.51271,1.1303757429,310.45595881283555,4653.717325654918,-0.042,-1.061,-2.883,-3.558
-1.0,4300015291.51271,1.1304097176,340.4081897010009,4618.489918952487,-0.094,-1.146,-2.996,-3.681
-1.0,4300015291.51271,1.130440712,374.1105882720533,4583.529174381888,-0.143,-1.23,-3.109,-3.803
-1.0,4300015291.51271,1.1304613352,399.94474976109734,4528.975799036209,-0.139,-1.271,-3.199,-3.911
-1.0,4300015291.51271,1.1304866076,438.5306977749856,4479.195312542835,-0.17,-1.337,-3.312,-4.042
-1.0,4300015291.51271,1.1305099726,479.73344863668916,4445.28899122317,-0.216,-1.41,-3.42,-4.164
-1.0,4300015291.51271,1.1305319071,526.0172663907063,4411.6393317691345,-0.262,-1.482,-3.527,-4.284
-1.0,4300015291.51271,1.1305527687,575.4399373371566,4379.25263541926,-0.309,-1.555,-3.634,-4.404
-1.0,4300015291.51271,1.1305720806,629.5061828571975,4347.103696062099,-0.353,-1.625,-3.741,-4.524
-1.0,4300015291.51271,1.130589962,687.0684400142325,4314.197273268735,-0.394,-1.691,-3.844,-4.64
-1.0,4300015291.51271,1.1306080818,751.6228940182053,4281.539943374177,-0.433,-1.758,-3.949,-4.76
-1.0,4300015291.51271,1.1306262016,820.3515443298185,4247.173474714387,-0.469,-1.822,-4.053,-4.88
-1.0,4300015291.51271,1.1306443214,897.4287945007482,4211.143104363183,-0.493,-1.881,-4.159,-5.002
-1.0,4300015291.51271,1.1306610107,984.0111057611335,4173.495984653169,-0.516,-1.939,-4.269,-5.129
-1.0,4300015291.51271,1.1306740046,1078.9467222298285,4138.090648167254,-0.539,-1.997,-4.376,-5.252
-1.0,4300015291.51271,1.1306830645,1180.3206356517298,4103.930524610162,-0.56,-2.052,-4.48,-5.374
-1.0,4300015291.51271,1.1306921244,1297.1792709839558,4065.3692697573383,-0.578,-2.107,-4.591,-5.503
-1.0,4300015291.51271,1.1306989193,1409.2887984218748,4032.7379297611305,-0.59,-2.153,-4.688,-5.617
-1.0,4300015291.51271,1.1307061911,1548.816618912481,3994.845613082856,-0.6,-2.202,-4.797,-5.746
-1.0,4300015291.51271,1.1307113171,1671.090614310707,3963.6929115081043,-0.604,-2.239,-4.886,-5.851
-1.0,4300015291.51271,1.1307127476,1725.837891990204,3950.936047894297,-0.606,-2.254,-4.922,-5.895
-1.0,4300015291.51271,1.130713582,1545.254439538414,3988.4118690905275,-0.584,-2.192,-4.797,-5.749
-1.0,4300015291.51271,1.1307137012,1592.20872705117,3977.4066910502825,-0.589,-2.209,-4.832,-5.789
-1.0,4300015291.51271,1.1307142973,1621.8100973589299,3970.0867811218423,-0.591,-2.218,-4.853,-5.815
-1.0,4300015291.51271,1.1307147741,1671.090614310707,3960.0438961152527,-0.595,-2.234,-4.887,-5.855
-1.0,4300015291.51271,1.1307151318,1717.9083871575876,3949.1169934897503,-0.599,-2.249,-4.92,-5.893
-1.0,4300015291.51271,1.1307157278,1774.1894808901661,3938.2202413383675,-0.602,-2.264,-4.954,-5.934
-1.0,4300015291.51271,1.1307162046,1823.8957023196383,3927.3535564672516,-0.603,-2.278,-4.989,-5.974
-1.0,4300015291.51271,1.1307171583,1931.9683170169242,3905.710056937564,-0.602,-2.303,-5.054,-6.051
-1.0,4300015291.51271,1.1307183504,2089.296130854039,3874.3602472800194,-0.596,-2.333,-5.144,-6.158
-1.0,4300015291.51271,1.1307204962,2338.837238659356,3828.2474331682283,-0.58,-2.372,-5.277,-6.316
-1.0,4300015291.51271,1.1307212114,2398.83291901949,3816.8052419008277,-0.574,-2.38,-5.307,-6.353
-1.0,4300015291.51271,1.1307213306,1577.6112696993484,3963.6929115081043,-0.544,-2.178,-4.824,-5.789
-1.0,4300015291.51271,1.1307214499,1213.3888504649774,4065.3692697573383,-0.501,-2.032,-4.519,-5.431
-1.0,4300015291.51271,1.1307219267,755.0922276654342,4254.02462944068,-0.382,-1.736,-3.962,-4.784
-1.0,4300015291.51271,1.1307224035,765.5966069112561,4247.173474714387,-0.382,-1.743,-3.978,-4.803
-1.0,4300015291.51271,1.1307231188,954.992586021436,4154.320512418612,-0.436,-1.883,-4.242,-5.11
-1.0,4300015291.51271,1.1307239532,1358.3134465871542,4013.284982627411,-0.504,-2.087,-4.652,-5.591
-1.0,4300015291.51271,1.1307250261,1849.2686189780777,3893.1398070156406,-0.525,-2.237,-5.009,-6.013
-1.0,4300015291.51271,1.130726099,2264.6443075930597,3814.169596669385,-0.508,-2.314,-5.245,-6.293
-1.0,4300015291.51271,1.1307275295,2529.2979964461447,3769.641066462436,-0.488,-2.345,-5.373,-6.445
-1.0,4300015291.51271,1.13072896,2666.8586645214805,3746.277983440598,-0.47,-2.353,-5.435,-6.521
-1.0,4300015291.51271,1.130730629,2754.2287033381663,3730.783093184723,-0.452,-2.354,-5.472,-6.567
-1.0,4300015291.51271,1.1307307482,2070.1413487910413,3835.3058245685934,-0.473,-2.254,-5.143,-6.179
-1.0,4300015291.51271,1.1307309866,1412.537544622754,3978.3226282329574,-0.461,-2.08,-4.701,-5.658
-1.0,4300015291.51271,1.1307314634,879.0225168308842,4163.897210251638,-0.364,-1.803,-4.148,-5.012
-1.0,4300015291.51271,1.1307321787,889.2011178579481,4157.19120675218,-0.362,-1.808,-4.163,-5.03
-1.0,4300015291.51271,1.1307330132,1106.6237839776663,4068.178497521943,-0.407,-1.938,-4.421,-5.331
-1.0,4300015291.51271,1.130734086,1563.1476426409538,3931.877693146969,-0.446,-2.117,-4.819,-5.802
-1.0,4300015291.51271,1.1307353973,2108.6281499332886,3815.047942794385,-0.428,-2.236,-5.167,-6.214
-1.0,4300015291.51271,1.1307368279,2570.3957827688646,3738.522510697288,-0.395,-2.292,-5.395,-6.485
-1.0,4300015291.51271,1.130738616,2851.0182675039096,3696.5790681932745,-0.367,-2.311,-5.516,-6.63
-1.0,4300015291.51271,1.1307404041,2992.264636608189,3675.360977714797,-0.344,-2.311,-5.573,-6.698
-1.0,4300015291.51271,1.1307425499,3069.021988391158,3662.6886275878364,-0.323,-2.306,-5.605,-6.737
