FeH,Age,Mini,L,Te,Bmag,Vmag,Jmag,Kmag
-0.25,2599979956.7092457,0.0900000036,0.00042169650342858224,2423.817964554634,19.836,17.927,11.094,10.282
-0.25,2599979956.7092457,0.0946834311,0.0005260172663907063,2502.64932573108,19.583,17.679,10.856,10.041
-0.25,2599979956.7092457,0.1000000015,0.0006668067692136219,2590.5978454758697,19.309,17.411,10.6,9.782
-0.25,2599979956.7092457,0.1200000048,0.001224616199265049,2794.473528597117,17.578,15.802,10.016,9.164
-0.25,2599979956.7092457,0.1400000006,0.0018663796908346695,2921.4603738773317,16.48,14.77,9.611,8.748
-0.25,2599979956.7092457,0.1599999964,0.002594179362118815,3013.699874341145,15.715,14.048,9.291,8.426
-0.25,2599979956.7092457,0.200000003,0.0042559841313374305,3143.4025417390094,14.682,13.063,8.801,7.939
-0.25,2599979956.7092457,0.25,0.006745280276979223,3253.1193731384888,13.842,12.268,8.339,7.482
-0.25,2599979956.7092457,0.338542819,0.01297179270983956,3385.3221281535407,12.798,11.28,7.675,6.82
-0.25,2599979956.7092457,0.3496611118,0.014028137045619582,3399.3822312328007,12.682,11.17,7.593,6.739
-0.25,2599979956.7092457,0.3500000536,0.014060475241299136,3399.3822312328007,12.679,11.167,7.591,6.737
-0.25,2599979956.7092457,0.3513492346,0.014223287871228198,3401.731252517908,12.663,11.152,7.581,6.727
-0.25,2599979956.7092457,0.4000000358,0.01967886289706845,3488.188934073285,12.135,10.656,7.256,6.401
-0.25,2599979956.7092457,0.4385057092,0.02618183008218985,3572.7283815192886,11.674,10.221,6.975,6.119
-0.25,2599979956.7092457,0.4500000179,0.028379190284415566,3596.665093461474,11.547,10.1,6.896,6.04
-0.25,2599979956.7092457,0.5,0.04159106104940221,3741.105882720533,10.907,9.494,6.53,5.674
-0.25,2599979956.7092457,0.5314257145,0.05370317963702527,3861.8908944898994,10.462,9.08,6.289,5.437
-0.25,2599979956.7092457,0.5500000119,0.062086903423006344,3930.972449074674,10.218,8.857,6.153,5.305
-0.25,2599979956.7092457,0.6000000238,0.09225714271547633,4174.457078262909,9.492,8.223,5.785,4.964
-0.25,2599979956.7092457,0.6499999762,0.1358313446587154,4467.864566912838,8.685,7.563,5.437,4.685
-0.25,2599979956.7092457,0.664983809,0.15205475297324958,4558.269515401941,8.444,7.369,5.341,4.619
-0.25,2599979956.7092457,0.7000001073,0.195884467350599,4769.798141192216,7.927,6.95,5.126,4.476
-0.25,2599979956.7092457,0.7278031707,0.23768402866248767,4930.6025956279445,7.569,6.655,4.964,4.365
-0.25,2599979956.7092457,0.75,0.27605778562203453,5058.246620031143,7.304,6.435,4.842,4.28
-0.25,2599979956.7092457,0.7635201216,0.3013006024186121,5127.433068882606,7.156,6.311,4.767,4.226
-0.25,2599979956.7092457,0.7983130813,0.3758374042884442,5305.178488808972,6.8,6.011,4.583,4.088
-0.25,2599979956.7092457,0.8364734054,0.4753352259428053,5489.085556070448,6.439,5.706,4.387,3.936
-0.25,2599979956.7092457,0.8466261625,0.505824662003114,5537.3248198121255,6.348,5.629,4.337,3.897
-0.25,2599979956.7092457,0.8699523211,0.5821032177708715,5640.271374318945,6.146,5.457,4.222,3.804
-0.25,2599979956.7092457,0.8949391842,0.6729766562843178,5749.101815675034,5.938,5.281,4.1,3.705
-0.25,2599979956.7092457,0.9195373058,0.7762471166286917,5847.900841444806,5.742,5.114,3.981,3.605
-0.25,2599979956.7092457,0.9432522058,0.8892011178579484,5941.553335422145,5.556,4.956,3.869,3.51
-0.25,2599979956.7092457,0.9504535794,0.9246981739382225,5967.604049723488,5.501,4.909,3.834,3.48
-0.25,2599979956.7092457,0.9772926569,1.076465213629835,6063.17355705252,5.299,4.736,3.705,3.369
-0.25,2599979956.7092457,0.9915652275,1.1668096170609625,6112.234388984113,5.194,4.646,3.637,3.31
-0.25,2599979956.7092457,1.0015175343,1.233104833228909,6144.690317057614,5.121,4.583,3.588,3.267
-0.25,2599979956.7092457,1.02949512,1.4421153515248688,6234.476611050059,4.922,4.409,3.452,3.145
-0.25,2599979956.7092457,1.0398783684,1.5275660582380726,6266.138646723356,4.849,4.344,3.401,3.1
-0.25,2599979956.7092457,1.0453393459,1.5739828644662195,6283.476569844776,4.811,4.311,3.374,3.076
-0.25,2599979956.7092457,1.0643224716,1.7458221529205038,6341.616862711066,4.68,4.195,3.282,2.993
-0.25,2599979956.7092457,1.0824792385,1.9230917289101583,6394.402945292843,4.556,4.086,3.194,2.914
-0.25,2599979956.7092457,1.0881915092,1.9860949173573714,6410.619496207435,4.518,4.052,3.167,2.889
-0.25,2599979956.7092457,1.0953428745,2.06062991327,6431.3182363545175,4.469,4.009,3.132,2.857
-0.25,2599979956.7092457,1.1145578623,2.28559880337543,6484.850971441381,4.341,3.895,3.039,2.773
-0.25,2599979956.7092457,1.1324269772,2.51188643150958,6532.809588303903,4.224,3.789,2.953,2.693
-0.25,2599979956.7092457,1.1365044117,2.5703957827688635,6543.347723737576,4.198,3.765,2.933,2.675
-0.25,2599979956.7092457,1.1510316133,2.7669416454115114,6579.607697293407,4.107,3.682,2.864,2.612
-0.25,2599979956.7092457,1.1683646441,3.019951720402016,6616.068605559997,4.002,3.586,2.783,2.536
-0.25,2599979956.7092457,1.1848175526,3.265878321723358,6642.0172626764,3.909,3.499,2.706,2.463
-0.25,2599979956.7092457,1.1896607876,3.3342641276323497,6646.606990710733,3.883,3.475,2.684,2.442
-0.25,2599979956.7092457,1.2237571478,3.8815036599064823,6672.675421386398,3.71,3.308,2.529,2.29
-0.25,2599979956.7092457,1.233130455,4.03645392967605,6674.212038584765,3.665,3.264,2.486,2.248
-0.25,2599979956.7092457,1.2676728964,4.688133821452653,6677.286334642772,3.5,3.101,2.324,2.087
-0.25,2599979956.7092457,1.2814434767,4.96592321450336,6671.139157966478,3.436,3.037,2.259,2.022
-0.25,2599979956.7092457,1.3072574139,5.546257129579107,6648.137604740006,3.319,2.916,2.131,1.89
-0.25,2599979956.7092457,1.3297567368,6.109420249055721,6611.499965410452,3.223,2.814,2.015,1.77
-0.25,2599979956.7092457,1.3459115028,6.546361740672749,6576.578373554205,3.155,2.739,1.928,1.678
-0.25,2599979956.7092457,1.3719248772,7.3113908348341745,6507.287577548787,3.051,2.62,1.784,1.524
-0.25,2599979956.7092457,1.3780696392,7.498942093324558,6489.3320953416915,3.027,2.593,1.749,1.486
-0.25,2599979956.7092457,1.3870747089,7.7983011052325875,6458.029135322341,2.992,2.551,1.696,1.429
-0.25,2599979956.7092457,1.4142538309,8.871560120379607,6367.955209079156,2.879,2.417,1.526,1.245
-0.25,2599979956.7092457,1.4233922958,9.268298233793493,6337.237741643961,2.839,2.369,1.466,1.181
-0.25,2599979956.7092457,1.4263827801,9.594006315159332,6359.163628244043,2.794,2.33,1.436,1.155
-0.25,2599979956.7092457,1.4312084913,10.303861204416158,6418.0042448391805,2.697,2.249,1.38,1.108
-0.25,2599979956.7092457,1.4330146313,11.117317272815914,6522.288424656394,2.582,2.16,1.333,1.077
-0.25,2599979956.7092457,1.433577776,11.93988104464273,6629.793476706679,2.474,2.075,1.292,1.053
-0.25,2599979956.7092457,1.4338163137,12.735030810166617,6729.766562843175,2.377,2.0,1.256,1.031
-0.25,2599979956.7092457,1.4339364767,13.182567385564074,6788.909197955847,2.323,1.958,1.238,1.021
-0.25,2599979956.7092457,1.434025526,12.589254117941675,6720.475466282961,2.392,2.013,1.266,1.039
-0.25,2599979956.7092457,1.4341224432,12.078138351067803,6619.116119411212,2.463,2.063,1.276,1.035
-0.25,2599979956.7092457,1.4343004227,12.105981335504822,6475.898004649498,2.499,2.067,1.223,0.961
-0.25,2599979956.7092457,1.4345856905,12.44514611771385,6354.77239048616,2.508,2.046,1.153,0.872
-0.25,2599979956.7092457,1.4351804256,12.531411749414161,6227.303034831227,2.544,2.048,1.102,0.8
-0.25,2599979956.7092457,1.436139226,12.359474334445107,6093.9656234012,2.608,2.074,1.069,0.744
-0.25,2599979956.7092457,1.4373664856,11.91242008027375,5959.365192559373,2.701,2.127,1.06,0.708
-0.25,2599979956.7092457,1.4383419752,11.37627285823431,5847.900841444806,2.8,2.192,1.071,0.697
-0.25,2599979956.7092457,1.4393028021,10.616955571987248,5725.323093941757,2.929,2.285,1.104,0.705
-0.25,2599979956.7092457,1.4402493238,9.772372209558107,5591.135275705602,3.083,2.399,1.151,0.722
-0.25,2599979956.7092457,1.4411817789,9.162204901219997,5460.092497542736,3.219,2.497,1.178,0.718
-0.25,2599979956.7092457,1.4423283339,9.141132414702502,5325.985748490616,3.293,2.531,1.138,0.646
-0.25,2599979956.7092457,1.4432305098,9.616122783836646,5244.4506128195335,3.285,2.498,1.057,0.544
-0.25,2599979956.7092457,1.4434671402,9.862794856312105,5229.979661821558,3.266,2.475,1.024,0.508
-0.25,2599979956.7092457,1.4443281889,10.889300933334333,5182.030920072273,3.189,2.382,0.901,0.372
-0.25,2599979956.7092457,1.4450739622,11.994993031493788,5147.54319931262,3.106,2.286,0.784,0.246
-0.25,2599979956.7092457,1.4457648993,13.212956341865752,5119.175279997109,3.021,2.191,0.672,0.126
-0.25,2599979956.7092457,1.4465949535,14.859356422870068,5088.619759560772,2.913,2.073,0.534,-0.02
-0.25,2599979956.7092457,1.4472395182,16.330519478943348,5066.406124332974,2.827,1.98,0.426,-0.134
-0.25,2599979956.7092457,1.447876811,17.906058540352937,5043.128102663999,2.742,1.887,0.319,-0.247
-0.25,2599979956.7092457,1.4485074282,19.5884467350599,5021.113054699537,2.658,1.795,0.213,-0.359
-0.25,2599979956.7092457,1.4491238594,21.428906011200585,4999.1941102499995,2.577,1.706,0.11,-0.469
-0.25,2599979956.7092457,1.4498343468,23.71373705661655,4972.788632333997,2.488,1.606,-0.009,-0.595
-0.25,2599979956.7092457,1.4505466223,26.24218543384442,4947.661736816762,2.4,1.508,-0.126,-0.719
-0.25,2599979956.7092457,1.4511679411,28.64177969906581,4924.929296050273,2.323,1.421,-0.228,-0.828
-0.25,2599979956.7092457,1.4518761635,31.768740706497706,4897.7881936844615,2.232,1.318,-0.351,-0.959
-0.25,2599979956.7092457,1.4524908066,34.914031547858606,4873.040266252349,2.15,1.227,-0.46,-1.077
-0.25,2599979956.7092457,1.4530886412,38.459178204535355,4847.301126243664,2.068,1.135,-0.571,-1.196
-0.25,2599979956.7092457,1.4536582232,42.36429660495411,4820.587829837399,1.985,1.041,-0.684,-1.317
-0.25,2599979956.7092457,1.4541940689,46.451527522274944,4795.1257408135025,1.907,0.953,-0.792,-1.433
-0.25,2599979956.7092457,1.4548504353,51.88000389289612,4764.309868054156,1.815,0.848,-0.92,-1.571
-0.25,2599979956.7092457,1.455566287,57.80960474057181,4732.602186090037,1.725,0.746,-1.046,-1.708
-0.25,2599979956.7092457,1.4565087557,64.12095765851615,4704.35405725976,1.643,0.647,-1.169,-1.84
-0.25,2599979956.7092457,1.4567826986,65.91738952443212,4696.777641902296,1.622,0.622,-1.2,-1.873
-0.25,2599979956.7092457,1.4570962191,63.53309318517436,4708.688923442734,1.648,0.654,-1.158,-1.827
-0.25,2599979956.7092457,1.4573649168,60.81350012787179,4722.804843922316,1.681,0.695,-1.105,-1.769
-0.25,2599979956.7092457,1.4575436115,58.47900841444806,4735.872481253356,1.71,0.731,-1.059,-1.719
-0.25,2599979956.7092457,1.4577387571,54.954087385762456,4755.541763152083,1.76,0.79,-0.985,-1.639
-0.25,2599979956.7092457,1.4579312801,51.28613839913648,4777.4923465909405,1.815,0.854,-0.903,-1.55
-0.25,2599979956.7092457,1.4581972361,46.451527522274944,4807.286438439701,1.895,0.945,-0.789,-1.426
-0.25,2599979956.7092457,1.4584666491,43.05266104917106,4831.700432460599,1.959,1.019,-0.698,-1.327
-0.25,2599979956.7092457,1.4586313963,44.46312674691086,4821.697939006178,1.931,0.988,-0.736,-1.368
-0.25,2599979956.7092457,1.4591572285,48.97788193684461,4794.021749415102,1.848,0.894,-0.851,-1.492
-0.25,2599979956.7092457,1.4597011805,53.826978251628844,4766.504419105543,1.77,0.805,-0.96,-1.61
-0.25,2599979956.7092457,1.4602651596,59.29253245799997,4739.145036236972,1.692,0.714,-1.074,-1.733
-0.25,2599979956.7092457,1.4608274698,65.61452663029053,4709.77326396953,1.615,0.621,-1.191,-1.859
-0.25,2599979956.7092457,1.4613456726,72.11074791828997,4681.661397243642,1.542,0.532,-1.302,-1.98
-0.25,2599979956.7092457,1.4618543386,79.43282347242814,4652.645890999017,1.469,0.443,-1.416,-2.103
-0.25,2599979956.7092457,1.4623342752,87.29713683881117,4623.810213992603,1.398,0.356,-1.528,-2.225
-0.25,2599979956.7092457,1.4627962112,96.16122783836649,4594.095300365836,1.327,0.268,-1.642,-2.348
-0.25,2599979956.7092457,1.4632304907,105.92537251772886,4564.571349614057,1.257,0.181,-1.755,-2.471
-0.25,2599979956.7092457,1.4636355639,116.6809617060963,4535.237134514455,1.19,0.097,-1.867,-2.594
-0.25,2599979956.7092457,1.4640207291,128.52866599436155,4505.053989279239,1.122,0.012,-1.981,-2.718
-0.25,2599979956.7092457,1.464373827,141.2537544622754,4476.102262460901,1.057,-0.071,-2.092,-2.841
-0.25,2599979956.7092457,1.4646993876,155.23870099580816,4446.312674691088,0.998,-0.154,-2.201,-2.958
-0.25,2599979956.7092457,1.4650087357,170.60823890031244,4416.721344129766,0.94,-0.237,-2.312,-3.077
-0.25,2599979956.7092457,1.4652926922,187.49945080674192,4387.326951325295,0.883,-0.319,-2.42,-3.194
-0.25,2599979956.7092457,1.4655609131,206.06299132700005,4358.128185607303,0.826,-0.401,-2.529,-3.312
-0.25,2599979956.7092457,1.4658044577,225.42392121524304,4329.123745028265,0.772,-0.479,-2.634,-3.427
-0.25,2599979956.7092457,1.4660367966,247.74220576332863,4299.3222667877035,0.716,-0.558,-2.742,-3.545
-0.25,2599979956.7092457,1.4662485123,271.01916318908417,4269.725940480334,0.662,-0.635,-2.846,-3.659
-0.25,2599979956.7092457,1.4664462805,297.1666031738025,4241.309839104882,0.609,-0.71,-2.95,-3.774
-0.25,2599979956.7092457,1.4666333199,325.0872973854344,4212.112867540665,0.555,-0.786,-3.055,-3.889
-0.25,2599979956.7092457,1.466806531,355.6313185689855,4183.116886514957,0.504,-0.859,-3.158,-4.004
-0.25,2599979956.7092457,1.466968298,389.04514499428046,4154.320512418612,0.456,-0.927,-3.263,-4.121
-0.25,2599979956.7092457,1.4671182632,425.59841313374307,4125.7223711671995,0.411,-0.992,-3.366,-4.237
-0.25,2599979956.7092457,1.4672578573,464.5152752227492,4098.264649809825,0.367,-1.056,-3.468,-4.352
-0.25,2599979956.7092457,1.4673906565,508.1594425605605,4070.0523944023344,0.322,-1.121,-3.571,-4.468
-0.25,2599979956.7092457,1.4675107002,553.3501092157366,4041.103745134904,0.285,-1.178,-3.67,-4.58
-0.25,2599979956.7092457,1.4676270485,603.94862937638,4013.284982627411,0.245,-1.238,-3.771,-4.695
-0.25,2599979956.7092457,1.467733264,657.6578373554206,3986.5755604057836,0.207,-1.295,-3.869,-4.807
-0.25,2599979956.7092457,1.4678333998,716.143410212902,3958.2206483572263,0.173,-1.347,-3.968,-4.919
-0.25,2599979956.7092457,1.4679270983,778.0365510398041,3930.972449074674,0.139,-1.399,-4.065,-5.029
-0.25,2599979956.7092457,1.4680141211,845.27884516029,3903.9118250765996,0.108,-1.449,-4.161,-5.139
-0.25,2599979956.7092457,1.468096137,918.332596483581,3876.144867002412,0.083,-1.493,-4.257,-5.249
-0.25,2599979956.7092457,1.4681740999,997.7000638225536,3848.57540415743,0.06,-1.533,-4.354,-5.359
-0.25,2599979956.7092457,1.4682637453,1101.5393095414145,3814.169596669385,0.035,-1.581,-4.471,-5.493
-0.25,2599979956.7092457,1.4683446884,1213.3888504649774,3780.0713730181124,0.018,-1.615,-4.584,-5.623
-0.25,2599979956.7092457,1.4684212208,1336.5955165464418,3747.1406951440317,0.004,-1.645,-4.698,-5.753
-0.25,2599979956.7092457,1.4684926271,1468.9262776438661,3713.6417019195583,-0.009,-1.673,-4.81,-5.881
-0.25,2599979956.7092457,1.4685581923,1610.64563517827,3680.4421857199322,-0.009,-1.68,-4.92,-6.007
-0.25,2599979956.7092457,1.4686200619,1766.037820686164,3646.699688942269,-0.005,-1.685,-5.031,-6.133
-0.25,2599979956.7092457,1.468678236,1936.4219639466069,3613.2665452345186,0.008,-1.675,-5.14,-6.258
-0.25,2599979956.7092457,1.4687328339,2108.6281499332886,3581.789013481115,0.033,-1.65,-5.245,-6.377
-0.25,2599979956.7092457,1.4687725306,2238.72113856834,3558.7706484879304,0.051,-1.632,-5.319,-6.461
-0.25,2599979956.7092457,1.4687725306,60.53408747539136,4904.559414451102,1.526,0.612,-1.048,-1.653
-0.25,2599979956.7092457,1.4693455696,62.373483548241914,4892.152651344176,1.505,0.585,-1.083,-1.692
-0.25,2599979956.7092457,1.4699155092,63.24118513762193,4887.648886615807,1.493,0.572,-1.1,-1.71
-0.25,2599979956.7092457,1.4704928398,63.3869711256927,4888.774438941448,1.488,0.568,-1.103,-1.713
-0.25,2599979956.7092457,1.4710752964,63.3869711256927,4892.152651344176,1.486,0.566,-1.102,-1.711
-0.25,2599979956.7092457,1.4716615677,63.3869711256927,4895.533198139543,1.483,0.565,-1.101,-1.708
-0.25,2599979956.7092457,1.4722472429,63.3869711256927,4898.916080940641,1.481,0.564,-1.099,-1.706
-0.25,2599979956.7092457,1.4728366137,63.3869711256927,4902.30130136168,1.479,0.563,-1.098,-1.703
-0.25,2599979956.7092457,1.4734339714,63.3869711256927,4905.6888610179985,1.476,0.562,-1.097,-1.701
-0.25,2599979956.7092457,1.4740194082,63.3869711256927,4909.078761526029,1.473,0.56,-1.096,-1.7
-0.25,2599979956.7092457,1.4745742083,63.3869711256927,4911.339996469978,1.47,0.558,-1.097,-1.699
-0.25,2599979956.7092457,1.4751724005,63.53309318517436,4913.6022729909155,1.467,0.556,-1.097,-1.7
-0.25,2599979956.7092457,1.4757256508,63.67955209079159,4915.86559156862,1.463,0.553,-1.099,-1.7
-0.25,2599979956.7092457,1.4763228893,63.82634861905486,4918.129952683078,1.46,0.55,-1.1,-1.701
-0.25,2599979956.7092457,1.4768859148,63.82634861905486,4919.262524341649,1.456,0.547,-1.102,-1.702
-0.25,2599979956.7092457,1.47694242,63.973483548264824,4919.262524341649,1.456,0.547,-1.102,-1.702
-0.25,2599979956.7092457,1.4770774841,63.973483548264824,4920.395356814511,1.455,0.546,-1.103,-1.703
-0.25,2599979956.7092457,1.477662921,64.12095765851615,4921.528450161719,1.451,0.543,-1.105,-1.704
-0.25,2599979956.7092457,1.4782197475,64.26877173170197,4922.661804443356,1.447,0.539,-1.107,-1.707
-0.25,2599979956.7092457,1.4788011312,64.41692655151772,4923.795419719503,1.443,0.536,-1.11,-1.709
-0.25,2599979956.7092457,1.4793668985,64.71426157485831,4924.929296050273,1.439,0.532,-1.114,-1.712
-0.25,2599979956.7092457,1.4799159765,64.86344335482384,4924.929296050273,1.435,0.528,-1.117,-1.716
-0.25,2599979956.7092457,1.4804735184,65.16283940608427,4924.929296050273,1.43,0.523,-1.121,-1.72
-0.25,2599979956.7092457,1.4810634851,65.46361740672751,4924.929296050273,1.425,0.518,-1.127,-1.725
-0.25,2599979956.7092457,1.4811120033,65.46361740672751,4924.929296050273,1.425,0.518,-1.127,-1.726
-0.25,2599979956.7092457,1.4816185236,65.76578373554206,4923.795419719503,1.421,0.513,-1.133,-1.732
-0.25,2599979956.7092457,1.4821685553,66.22165037017619,4922.661804443356,1.415,0.507,-1.139,-1.739
-0.25,2599979956.7092457,1.4827212095,66.68067692136222,4920.395356814511,1.41,0.501,-1.147,-1.747
-0.25,2599979956.7092457,1.48326087,67.14288529259522,4918.129952683078,1.404,0.494,-1.156,-1.757
-0.25,2599979956.7092457,1.4837979078,67.7641507610675,4914.733801992678,1.398,0.486,-1.166,-1.768
-0.25,2599979956.7092457,1.484326005,68.39116472814293,4910.20924883086,1.391,0.477,-1.178,-1.781
-0.25,2599979956.7092457,1.484854579,69.18309709189366,4905.6888610179985,1.382,0.466,-1.192,-1.797
-0.25,2599979956.7092457,1.485383153,70.14552984199715,4897.7881936844615,1.372,0.453,-1.211,-1.817
-0.25,2599979956.7092457,1.4859372377,71.6143410212902,4888.774438941448,1.36,0.436,-1.235,-1.844
-0.25,2599979956.7092457,1.4864763021,72.11074791828997,4885.398559319364,1.353,0.428,-1.245,-1.855
-0.25,2599979956.7092457,1.4870191813,74.98942093324558,4866.312560731986,1.329,0.394,-1.294,-1.91
-0.25,2599979956.7092457,1.4875501394,81.47042840208397,4827.252320650396,1.277,0.324,-1.394,-2.022
-0.25,2599979956.7092457,1.4878207445,88.71560120379608,4787.4031366341615,1.221,0.249,-1.498,-2.138
-0.25,2599979956.7092457,1.4879221916,94.84184633008974,4757.732275412047,1.177,0.19,-1.581,-2.23
-0.25,2599979956.7092457,1.4879654646,98.17479430199843,4743.511960856962,1.156,0.161,-1.622,-2.276
-0.25,2599979956.7092457,1.4880185127,107.3989412341245,4705.437399531806,1.098,0.084,-1.73,-2.396
-0.25,2599979956.7092457,1.4880434275,116.94993910198711,4669.818485578366,1.042,0.009,-1.835,-2.512
-0.25,2599979956.7092457,1.4880571365,127.05741052085419,4636.603940805552,0.989,-0.061,-1.933,-2.622
-0.25,2599979956.7092457,1.488062501,132.43415351946643,4619.553487999654,0.963,-0.097,-1.984,-2.678
-0.25,2599979956.7092457,1.4880626202,132.73944577297402,4619.553487999654,0.962,-0.098,-1.985,-2.68
-0.25,2599979956.7092457,1.4880661964,137.4041975012515,4605.746173947351,0.939,-0.128,-2.027,-2.726
-0.25,2599979956.7092457,1.4880768061,153.10874616820303,4564.571349614057,0.869,-0.221,-2.158,-2.871
-0.25,2599979956.7092457,1.4880863428,167.88040181225605,4530.018754322402,0.818,-0.298,-2.265,-2.989
-0.25,2599979956.7092457,1.4881126881,181.5515662773135,4500.906591456169,0.772,-0.366,-2.359,-3.09
-0.25,2599979956.7092457,1.4881587029,158.48931924611142,4551.9763814842045,0.848,-0.251,-2.198,-2.915
-0.25,2599979956.7092457,1.4885154963,155.59656316050751,4558.269515401941,0.859,-0.234,-2.176,-2.891
-0.25,2599979956.7092457,1.4887429476,171.79083871575875,4520.640796485013,0.804,-0.318,-2.293,-3.019
-0.25,2599979956.7092457,1.4889012575,186.63796908346694,4489.520924135662,0.758,-0.389,-2.391,-3.126
-0.25,2599979956.7092457,1.4890611172,204.6444636724674,4454.510633598985,0.706,-0.468,-2.5,-3.246
-0.25,2599979956.7092457,1.4891998768,224.3881923782766,4420.79116875633,0.656,-0.545,-2.608,-3.364
-0.25,2599979956.7092457,1.4893229008,246.03676041476274,4386.316848258552,0.604,-0.623,-2.717,-3.484
-0.25,2599979956.7092457,1.4894320965,270.3958364108843,4353.113592296378,0.551,-0.701,-2.826,-3.604
-0.25,2599979956.7092457,1.4895294905,297.1666031738025,4318.172626237272,0.501,-0.778,-2.935,-3.726
-0.25,2599979956.7092457,1.489616394,325.8367010020087,4284.498548137013,0.449,-0.855,-3.044,-3.846
-0.25,2599979956.7092457,1.4896941185,358.0964371026359,4251.087068046156,0.399,-0.93,-3.152,-3.966
-0.25,2599979956.7092457,1.4897652864,392.6449353995997,4198.556481973773,0.381,-0.98,-3.263,-4.101
-0.25,2599979956.7092457,1.4898298979,430.5266104917105,4158.148545615802,0.35,-1.038,-3.372,-4.227
-0.25,2599979956.7092457,1.4898910522,470.97732639695295,4126.6724632293635,0.306,-1.103,-3.479,-4.349
-0.25,2599979956.7092457,1.489948988,517.6068319505677,4095.434646443952,0.262,-1.169,-3.586,-4.47
-0.25,2599979956.7092457,1.49000144,566.2392890382534,4064.4332916521275,0.222,-1.231,-3.691,-4.59
-0.25,2599979956.7092457,1.4900536537,620.8690342300638,4032.7379297611305,0.184,-1.291,-3.797,-4.711
-0.25,2599979956.7092457,1.4901064634,679.2036326171843,4000.3685104612505,0.147,-1.35,-3.904,-4.834
-0.25,2599979956.7092457,1.4901591539,746.448758410067,3967.345289316547,0.113,-1.407,-4.012,-4.958
-0.25,2599979956.7092457,1.4902083874,824.1381150130021,3932.7831456834174,0.078,-1.464,-4.127,-5.09
-0.25,2599979956.7092457,1.4902451038,912.0108393559096,3896.7271730789967,0.048,-1.52,-4.247,-5.228
-0.25,2599979956.7092457,1.4902677536,1000.0,3864.55951581426,0.025,-1.563,-4.352,-5.349
-0.25,2599979956.7092457,1.4902875423,1096.4781961431852,3830.8928063841463,0.005,-1.604,-4.462,-5.475
-0.25,2599979956.7092457,1.4903055429,1202.2644346174131,3796.6450792221963,-0.011,-1.641,-4.57,-5.601
-0.25,2599979956.7092457,1.4903225899,1327.3944577297402,3758.374042884443,-0.017,-1.664,-4.688,-5.737
-0.25,2599979956.7092457,1.490337491,1448.7718535447616,3724.774624863983,-0.021,-1.683,-4.793,-5.858
-0.25,2599979956.7092457,1.4903539419,1584.893192461114,3688.926481189961,-0.015,-1.687,-4.901,-5.984
-0.25,2599979956.7092457,1.4903674126,1694.3378004473288,3663.532089914713,-0.008,-1.685,-4.98,-6.075
-0.25,2599979956.7092457,1.4903718233,1690.440931643265,3663.532089914713,-0.007,-1.684,-4.978,-6.072
-0.25,2599979956.7092457,1.4903723001,1651.961798229015,3672.8230049808462,-0.009,-1.684,-4.949,-6.039
-0.25,2599979956.7092457,1.4903724194,1570.3628043335532,3691.4755816541306,-0.012,-1.683,-4.889,-5.97
-0.25,2599979956.7092457,1.4903725386,1432.187899273544,3724.774624863983,-0.01,-1.671,-4.78,-5.846
-0.25,2599979956.7092457,1.4903726578,1682.6740610704674,3666.0636424947174,-0.007,-1.683,-4.971,-6.064
-0.25,2599979956.7092457,1.490372777,1663.4126503701698,3669.4417673371618,-0.009,-1.684,-4.959,-6.051
-0.25,2599979956.7092457,1.4903728962,1618.0800376430661,3680.4421857199322,-0.011,-1.684,-4.925,-6.011
-0.25,2599979956.7092457,1.4903730154,1584.893192461114,3688.0771722615455,-0.012,-1.684,-4.901,-5.984
-0.25,2599979956.7092457,1.4903736115,1566.7510701081485,3693.175960479867,-0.012,-1.683,-4.885,-5.966
-0.25,2599979956.7092457,1.4903749228,1570.3628043335532,3691.4755816541306,-0.013,-1.683,-4.889,-5.971
-0.25,2599979956.7092457,1.4903759956,1659.5869074375614,3670.2867848109704,-0.008,-1.683,-4.955,-6.047
-0.25,2599979956.7092457,1.4903774261,1823.8957023196383,3634.1261606422304,0.003,-1.68,-5.068,-6.177
-0.25,2599979956.7092457,1.4903788567,1990.6733389871863,3596.665093461474,0.036,-1.646,-5.177,-6.302
-0.25,2599979956.7092457,1.4903806448,2162.71852372702,3562.049907308445,0.074,-1.607,-5.279,-6.42
-0.25,2599979956.7092457,1.490383625,2371.373705661655,3523.7087104248726,0.131,-1.542,-5.393,-6.55
-0.25,2599979956.7092457,1.490385294,2454.708915685031,3509.1343835855246,0.156,-1.511,-5.436,-6.599
-0.25,2599979956.7092457,1.4903854132,2454.708915685031,3509.1343835855246,0.156,-1.511,-5.436,-6.599
-0.25,2599979956.7092457,1.4903857708,1448.7718535447616,3715.352290971724,0.003,-1.661,-4.793,-5.864
-0.25,2599979956.7092457,1.4903860092,1191.242008027375,3795.7709700253163,0.001,-1.629,-4.56,-5.591
-0.25,2599979956.7092457,1.4903867245,734.5138681571151,4002.2111724970323,0.068,-1.436,-3.99,-4.918
-0.25,2599979956.7092457,1.4903877974,751.6228940182053,3991.167918200923,0.064,-1.447,-4.016,-4.95
-0.25,2599979956.7092457,1.4903892279,952.7961640236521,3886.8698613730226,0.027,-1.551,-4.296,-5.282
-0.25,2599979956.7092457,1.4903908968,1367.7288255958495,3734.220854303426,0.015,-1.64,-4.726,-5.787
-0.25,2599979956.7092457,1.4903930426,1883.6490894898002,3601.6375039472773,0.072,-1.605,-5.114,-6.237
-0.25,2599979956.7092457,1.490395546,2338.837238659356,3514.7950006430638,0.179,-1.487,-5.381,-6.543
-0.25,2599979956.7092457,1.4903985262,2636.3313858253787,3465.7720899354867,0.263,-1.386,-5.528,-6.711
-0.25,2599979956.7092457,1.4904017448,2798.981319634363,3440.329187682278,0.324,-1.31,-5.604,-6.797
-0.25,2599979956.7092457,1.4904054403,2904.022654464451,3422.1575515373916,0.369,-1.254,-5.653,-6.853
-0.25,2599979956.7092457,1.4904055595,2013.7242498623875,3563.6906696823603,0.136,-1.537,-5.199,-6.34
-0.25,2599979956.7092457,1.4904060364,1428.8939585111023,3700.8373629231564,0.056,-1.606,-4.783,-5.861
-0.25,2599979956.7092457,1.4904068708,881.0488730080137,3903.013019642094,0.072,-1.492,-4.207,-5.185
-0.25,2599979956.7092457,1.4904081821,899.4975815300355,3894.0363387971706,0.07,-1.5,-4.23,-5.213
-0.25,2599979956.7092457,1.4904098511,1132.4003632355566,3795.7709700253163,0.052,-1.573,-4.504,-5.535
-0.25,2599979956.7092457,1.4904118776,1603.2453906900419,3650.900524844982,0.078,-1.593,-4.924,-6.025
-0.25,2599979956.7092457,1.490414381,2187.761623949552,3526.9556611308685,0.192,-1.474,-5.304,-6.46
-0.25,2599979956.7092457,1.4904173613,2685.344445658506,3446.6723487178924,0.333,-1.302,-5.558,-6.749
-0.25,2599979956.7092457,1.4904206991,2992.264636608189,3404.081897010009,0.426,-1.184,-5.694,-6.901
-0.25,2599979956.7092457,1.4904245138,3140.5086938762165,3384.542718663093,0.477,-1.12,-5.755,-6.97
-0.25,2599979956.7092457,1.4904288054,3228.4941217126348,3372.873086588689,0.516,-1.071,-5.789,-7.008
-0.25,2599979956.7092457,1.4904289246,2280.3420720004187,3506.711196464777,0.236,-1.423,-5.356,-6.521
-0.25,2599979956.7092457,1.4904295206,1621.8100973589299,3641.665065732136,0.094,-1.578,-4.939,-6.044
-0.25,2599979956.7092457,1.4904304743,1000.0,3843.2620719095157,0.07,-1.528,-4.359,-5.367
-0.25,2599979956.7092457,1.4904319048,1020.9394837076798,3834.4228144309195,0.07,-1.534,-4.382,-5.394
-0.25,2599979956.7092457,1.4904338121,1279.3813041575252,3738.522510697288,0.07,-1.579,-4.652,-5.712
-0.25,2599979956.7092457,1.4904361963,1798.8709151287874,3596.665093461474,0.133,-1.539,-5.066,-6.192
-0.25,2599979956.7092457,1.4904390574,2437.8108183687523,3475.3616144320576,0.299,-1.349,-5.439,-6.618
-0.25,2599979956.7092457,1.4904423952,2971.666031738025,3397.0348320337944,0.467,-1.137,-5.689,-6.899
-0.25,2599979956.7092457,1.4904462099,3296.097121774576,3355.8303695328004,0.593,-0.977,-5.819,-7.045
-0.25,2599979956.7092457,1.4904506207,3451.437393358561,3336.56815138526,0.66,-0.893,-5.877,-7.11
-0.25,2599979956.7092457,1.4904555082,3531.83169791957,3326.5955329400435,0.7,-0.844,-5.906,-7.144
-0.25,2599979956.7092457,1.4904556274,2558.585886905645,3451.437393358561,0.361,-1.274,-5.502,-6.691
-0.25,2599979956.7092457,1.4904562235,1828.1002161427427,3585.9150751717484,0.157,-1.514,-5.086,-6.217
-0.25,2599979956.7092457,1.4904572964,1129.7959146727976,3787.913037851565,0.075,-1.554,-4.503,-5.539
-0.25,2599979956.7092457,1.4904588461,1150.8003889444356,3779.2010796187897,0.077,-1.555,-4.527,-5.566
-0.25,2599979956.7092457,1.4904608727,1435.489433353656,3684.6818914786804,0.098,-1.565,-4.793,-5.878
-0.25,2599979956.7092457,1.490463376,1999.8618696327449,3545.683774611333,0.207,-1.461,-5.199,-6.348
-0.25,2599979956.7092457,1.4904664755,2679.1683248190316,3426.099724881373,0.428,-1.191,-5.564,-6.763
-0.25,2599979956.7092457,1.4904700518,3250.872973854344,3349.654391578276,0.643,-0.919,-5.807,-7.035
-0.25,2599979956.7092457,1.4904742241,3589.2193464500533,3309.0246319221333,0.786,-0.739,-5.932,-7.177
-0.25,2599979956.7092457,1.4904788733,3749.730022454834,3290.788720121735,0.866,-0.632,-5.987,-7.239
-0.25,2599979956.7092457,1.4904841185,3828.2474331682283,3280.9529311311903,0.911,-0.572,-6.015,-7.27
-0.25,2599979956.7092457,1.4904843569,2857.5905433749467,3395.4707998402328,0.513,-1.088,-5.647,-6.858
-0.25,2599979956.7092457,1.4904849529,2051.1621788255648,3530.2056037666052,0.245,-1.419,-5.233,-6.388
-0.25,2599979956.7092457,1.4904860258,1270.5741052085418,3734.220854303426,0.088,-1.563,-4.647,-5.708
-0.25,2599979956.7092457,1.4904875755,1297.1792709839558,3725.632384666039,0.091,-1.565,-4.67,-5.736
-0.25,2599979956.7092457,1.4904897213,1606.9412530128773,3631.616662075049,0.135,-1.539,-4.933,-6.043
-0.25,2599979956.7092457,1.4904922247,2218.1964198002192,3494.6203372688556,0.311,-1.341,-5.331,-6.502
-0.25,2599979956.7092457,1.4904954433,2944.4216337987605,3378.313899290581,0.575,-1.012,-5.687,-6.905
-0.25,2599979956.7092457,1.4904991388,3548.133892335753,3302.934793960337,0.841,-0.673,-5.923,-7.17
-0.25,2599979956.7092457,1.4905034304,3908.4089579240213,3262.871721430849,1.013,-0.444,-6.045,-7.307
-0.25,2599979956.7092457,1.4905083179,4073.802778041126,3244.8901566053664,1.098,-0.331,-6.1,-7.368
-0.25,2599979956.7092457,1.4905136824,4168.693834703355,3235.1915531420955,1.147,-0.267,-6.128,-7.4
-0.25,2599979956.7092457,1.4905138016,3213.660538640318,3338.1050516598925,0.722,-0.828,-5.8,-7.033
-0.25,2599979956.7092457,1.4905143976,2322.7367963571073,3472.1621617221945,0.363,-1.282,-5.388,-6.569
-0.25,2599979956.7092457,1.4905154705,1442.1153515248682,3678.7476696641274,0.113,-1.554,-4.8,-5.888
-0.25,2599979956.7092457,1.490516901,1472.3125024327194,3669.4417673371618,0.12,-1.55,-4.824,-5.916
-0.25,2599979956.7092457,1.4905188084,1815.515662773135,3576.0205018090237,0.201,-1.471,-5.082,-6.217
-0.25,2599979956.7092457,1.4905213118,2477.4220576332864,3441.9138826842905,0.439,-1.189,-5.471,-6.663
-0.25,2599979956.7092457,1.490524292,3250.872973854344,3326.5955329400435,0.778,-0.762,-5.817,-7.055
-0.25,2599979956.7092457,1.4905277491,3890.4514499428046,3252.370400952974,1.094,-0.345,-6.046,-7.311
-0.25,2599979956.7092457,1.490531683,4265.795188015925,3212.1809339879856,1.273,-0.106,-6.166,-7.445
-0.25,2599979956.7092457,1.4905362129,4446.312674691088,3193.007951074664,1.366,0.017,-6.22,-7.506
-0.25,2599979956.7092457,1.4905412197,4549.880601500485,3181.9987155303106,1.426,0.095,-6.25,-7.539
-0.25,2599979956.7092457,1.4905413389,3630.780547701014,3272.6533057537135,1.019,-0.45,-5.961,-7.219
-0.25,2599979956.7092457,1.490541935,2636.3313858253787,3407.218616593573,0.542,-1.066,-5.553,-6.759
-0.25,2599979956.7092457,1.4905428886,1640.5897731995387,3615.76336361097,0.171,-1.505,-4.959,-6.076
-0.25,2599979956.7092457,1.4905441999,1671.090614310707,3606.6167888195973,0.183,-1.492,-4.982,-6.104
-0.25,2599979956.7092457,1.4905459881,2046.444636724674,3513.985782353995,0.318,-1.343,-5.236,-6.398
-0.25,2599979956.7092457,1.4905482531,2754.2287033381663,3382.9844379759015,0.62,-0.971,-5.613,-6.828
-0.25,2599979956.7092457,1.4905509949,3572.7283815192886,3270.3934175663962,1.052,-0.413,-5.945,-7.204
-0.25,2599979956.7092457,1.4905542135,4236.429660495409,3197.422303204927,1.383,0.029,-6.164,-7.449
-0.25,2599979956.7092457,1.490557909,4623.810213992603,3158.6390484234703,1.566,0.272,-6.277,-7.575
-0.25,2599979956.7092457,1.4905622005,4797.334486366892,3140.5086938762165,1.645,0.372,-6.327,-7.63
-0.25,2599979956.7092457,1.4905668497,4886.523593428336,3128.959918963571,1.698,0.438,-6.353,-7.66
-0.25,2599979956.7092457,1.4905669689,4027.170343254591,3208.484902035953,1.357,-0.013,-6.104,-7.384
-0.25,2599979956.7092457,1.4905674458,2937.6496519615307,3342.7200013786605,0.79,-0.763,-5.7,-6.931
-0.25,2599979956.7092457,1.4905683994,1832.314422371211,3553.0392081527184,0.277,-1.397,-5.101,-6.247
-0.25,2599979956.7092457,1.4905697107,1866.3796908346694,3543.2353487838454,0.295,-1.376,-5.125,-6.275
-0.25,2599979956.7092457,1.4905713797,2275.0974307720717,3451.437393358561,0.485,-1.15,-5.374,-6.563
-0.25,2599979956.7092457,1.4905735254,3026.913428101305,3322.0028446165034,0.882,-0.652,-5.74,-6.98
-0.25,2599979956.7092457,1.490576148,3881.5036599064824,3211.441387141269,1.372,-0.003,-6.062,-7.341
-0.25,2599979956.7092457,1.4905792475,4560.369159512959,3139.7856482728203,1.695,0.424,-6.272,-7.575
-0.25,2599979956.7092457,1.4905827045,4954.5019080479005,3100.9873885323427,1.858,0.632,-6.381,-7.696
-0.25,2599979956.7092457,1.4905867577,5128.613839913648,3081.768416611512,1.934,0.72,-6.428,-7.749
-0.25,2599979956.7092457,1.4905911684,5223.9618899911975,3069.021988391158,1.977,0.762,-6.453,-7.777
-0.25,2599979956.7092457,1.4905912876,4436.086439314323,3137.6175101187496,1.74,0.472,-6.242,-7.546
-0.25,2599979956.7092457,1.4905917645,3250.872973854344,3270.3934175663962,1.15,-0.313,-5.841,-7.1
-0.25,2599979956.7092457,1.4905925989,2032.3570109362208,3483.3731503601166,0.462,-1.189,-5.24,-6.415
-0.25,2599979956.7092457,1.4905936718,2070.1413487910413,3472.9617486579155,0.489,-1.158,-5.263,-6.444
-0.25,2599979956.7092457,1.4905953407,2506.109253032114,3380.6483620598156,0.734,-0.854,-5.51,-6.726
-0.25,2599979956.7092457,1.4905972481,3296.097121774576,3253.1193731384888,1.258,-0.178,-5.864,-7.129
-0.25,2599979956.7092457,1.4905995131,4178.303666466218,3144.126420258796,1.758,0.484,-6.175,-7.477
-0.25,2599979956.7092457,1.4906023741,4875.284901033865,3072.557365267445,2.029,0.816,-6.377,-7.7
-0.25,2599979956.7092457,1.4906054735,5260.172663907063,3033.1926853535583,2.143,0.926,-6.481,-7.814
-0.25,2599979956.7092457,1.4906090498,5445.026528424214,3012.312333777606,2.208,0.989,-6.527,-7.865
-0.25,2599979956.7092457,1.4906131029,5520.774392807573,2997.7816715823815,2.254,1.033,-6.551,-7.892
-0.25,2599979956.7092457,1.4906132221,4819.477976251272,3054.9211132155124,2.125,0.911,-6.375,-7.702
-0.25,2599979956.7092457,1.490613699,3556.3131856898544,3187.8655756958997,1.633,0.298,-5.978,-7.266
-0.25,2599979956.7092457,1.4906144142,2228.435149270303,3402.5146202702363,0.749,-0.856,-5.374,-6.581
-0.25,2599979956.7092457,1.4906154871,2269.8648518838213,3390.783022519265,0.788,-0.81,-5.398,-6.61
-0.25,2599979956.7092457,1.4906169176,2728.9777828080405,3298.3747715856816,1.148,-0.355,-5.64,-6.888
-0.25,2599979956.7092457,1.490618825,3556.3131856898544,3171.027438947892,1.751,0.443,-5.986,-7.279
-0.25,2599979956.7092457,1.4906209707,4466.835921509631,3062.6685580037692,2.167,0.955,-6.287,-7.612
-0.25,2599979956.7092457,1.4906234741,5164.163692720711,2990.8869650638235,2.351,1.13,-6.482,-7.823
-0.25,2599979956.7092457,1.4906264544,5559.042572704037,2950.5297638582715,2.446,1.217,-6.582,-7.931
-0.25,2599979956.7092457,1.4906297922,5727.960309858292,2928.195035574271,2.504,1.273,-6.626,-7.979
-0.25,2599979956.7092457,1.4906336069,5821.032177708716,2912.7284648349846,2.552,1.32,-6.649,-8.005
