FeH,Age,Mini,L,Te,Bmag,Vmag,Jmag,Kmag
-0.25,4300015291.51271,0.0900000036,0.00042169650342858224,2424.3761335250756,19.836,17.927,11.094,10.282
-0.25,4300015291.51271,0.0982244983,0.0006180164001384158,2562.1231468290102,19.398,17.498,10.683,9.866
-0.25,4300015291.51271,0.1000000015,0.0006668067692136219,2591.194421354662,19.309,17.41,10.599,9.781
-0.25,4300015291.51271,0.1153682545,0.001076465213629835,2749.7929868950655,17.959,16.153,10.14,9.293
-0.25,4300015291.51271,0.1200000048,0.0012274392311584072,2795.1170539918453,17.573,15.798,10.015,9.163
-0.25,4300015291.51271,0.1400000006,0.0018706821403657997,2922.13314244037,16.475,14.765,9.609,8.747
-0.25,4300015291.51271,0.1599999964,0.002594179362118815,3015.0880540378826,15.709,14.043,9.289,8.425
-0.25,4300015291.51271,0.1741005331,0.003133285724315586,3063.37384469643,15.305,13.655,9.104,8.24
-0.25,4300015291.51271,0.200000003,0.00427562886151586,3144.126420258796,14.674,13.056,8.798,7.936
-0.25,4300015291.51271,0.25,0.006807693586937417,3253.8685178010755,13.829,12.256,8.33,7.472
-0.25,4300015291.51271,0.3000000119,0.00988553094656939,3333.496473327569,13.215,11.674,7.953,7.098
-0.25,4300015291.51271,0.3178792894,0.011297959146727977,3358.1492958644226,13.012,11.481,7.817,6.962
-0.25,4300015291.51271,0.3500000536,0.014157937799570816,3400.1650580407095,12.671,11.159,7.584,6.729
-0.25,4300015291.51271,0.4000000358,0.019906733389871863,3488.188934073285,12.124,10.645,7.245,6.39
-0.25,4300015291.51271,0.428684622,0.024660393372343388,3551.4033498288213,11.775,10.316,7.032,6.176
-0.25,4300015291.51271,0.4500000179,0.02864177969906581,3596.665093461474,11.535,10.089,6.884,6.028
-0.25,4300015291.51271,0.5,0.042169650342858224,3741.9674033666447,10.891,9.479,6.515,5.659
-0.25,4300015291.51271,0.5500000119,0.06353309318517436,3937.313537008506,10.186,8.827,6.13,5.282
-0.25,4300015291.51271,0.6000000238,0.09484184633008974,4186.971454370622,9.444,8.181,5.756,4.937
-0.25,4300015291.51271,0.6499999762,0.14125375446227545,4490.554793555168,8.612,7.502,5.402,4.657
-0.25,4300015291.51271,0.7000001073,0.20558905959841414,4799.544249319445,7.844,6.881,5.083,4.442
-0.25,4300015291.51271,0.7039393187,0.21183611352485016,4822.808303816475,7.791,6.837,5.059,4.426
-0.25,4300015291.51271,0.7432926297,0.2798981319634362,5055.917747662187,7.29,6.421,4.826,4.264
-0.25,4300015291.51271,0.75,0.29308932452503206,5094.481623274436,7.21,6.354,4.787,4.236
-0.25,4300015291.51271,0.7651282549,0.3250872973854344,5174.876622934801,7.042,6.212,4.701,4.172
-0.25,4300015291.51271,0.7983130813,0.40550853544838383,5349.337509431612,6.691,5.916,4.515,4.031
-0.25,4300015291.51271,0.8088234067,0.43451022417157154,5401.3211476463475,6.586,5.826,4.457,3.985
-0.25,4300015291.51271,0.8401313424,0.5333348954876209,5555.203848137405,6.282,5.568,4.287,3.85
-0.25,4300015291.51271,0.8466261625,0.5559042572704036,5587.2743899402,6.22,5.516,4.252,3.823
-0.25,4300015291.51271,0.8705359101,0.6486344335482384,5693.771051094232,6.004,5.331,4.123,3.716
-0.25,4300015291.51271,0.8949391842,0.7568328950209744,5800.961725227041,5.789,5.147,3.992,3.606
-0.25,4300015291.51271,0.902030766,0.7925013304804718,5829.079788672337,5.728,5.095,3.953,3.573
-0.25,4300015291.51271,0.9207203984,0.8912509381337456,5903.369946398826,5.568,4.957,3.851,3.485
-0.25,4300015291.51271,0.9382607341,0.995405417351527,5971.72774867241,5.419,4.829,3.756,3.403
-0.25,4300015291.51271,0.9432522058,1.0280162981264735,5989.630064029512,5.377,4.793,3.729,3.38
-0.25,4300015291.51271,0.9554613233,1.1117317272815912,6032.537079266128,5.275,4.705,3.66,3.319
-0.25,4300015291.51271,0.9710808992,1.2274392311584073,6085.552311808156,5.147,4.592,3.572,3.241
-0.25,4300015291.51271,0.985875845,1.3489628825916535,6134.794223881292,5.027,4.486,3.488,3.165
-0.25,4300015291.51271,0.9915652275,1.399587322572618,6151.7687270986835,4.98,4.446,3.455,3.135
-0.25,4300015291.51271,0.9966605306,1.4454397707459274,6167.36994454326,4.939,4.409,3.425,3.108
-0.25,4300015291.51271,1.0120905638,1.5958791472367326,6212.980635293497,4.816,4.298,3.333,3.024
-0.25,4300015291.51271,1.0255237818,1.741806873391614,6251.726927756856,4.708,4.201,3.252,2.949
-0.25,4300015291.51271,1.0383884907,1.8923436186449756,6284.923560377511,4.606,4.108,3.174,2.877
-0.25,4300015291.51271,1.0398783684,1.9098532585662382,6289.266531604159,4.594,4.098,3.165,2.868
-0.25,4300015291.51271,1.0565489531,2.128139045982712,6329.9459253789155,4.464,3.979,3.063,2.773
-0.25,4300015291.51271,1.0764582157,2.4043628000069335,6367.955209079156,4.317,3.843,2.943,2.659
-0.25,4300015291.51271,1.0881915092,2.5882129151530915,6385.574850788397,4.231,3.762,2.869,2.588
-0.25,4300015291.51271,1.0924226046,2.654605561975539,6391.458891858142,4.2,3.733,2.843,2.563
-0.25,4300015291.51271,1.1076130867,2.944421633798761,6416.526614874055,4.079,3.619,2.739,2.463
-0.25,4300015291.51271,1.1207293272,3.2359365692962827,6434.280649922961,3.971,3.517,2.644,2.371
-0.25,4300015291.51271,1.1224634647,3.273406948788382,6435.762368376424,3.957,3.503,2.632,2.359
-0.25,4300015291.51271,1.132743597,3.53183169791957,6443.17608047901,3.871,3.42,2.552,2.281
-0.25,4300015291.51271,1.1365044117,3.630780547701014,6444.659847416884,3.839,3.389,2.521,2.25
-0.25,4300015291.51271,1.1418144703,3.767037989839088,6440.209571356517,3.8,3.348,2.48,2.208
-0.25,4300015291.51271,1.1488689184,3.9810717055349722,6435.762368376424,3.741,3.289,2.419,2.146
-0.25,4300015291.51271,1.1551134586,4.216965034285822,6429.8375410824665,3.68,3.227,2.355,2.082
-0.25,4300015291.51271,1.158452034,4.395416154378245,6429.8375410824665,3.634,3.181,2.31,2.037
-0.25,4300015291.51271,1.1594991684,4.436086439314326,6426.877173170194,3.624,3.17,2.298,2.024
-0.25,4300015291.51271,1.1651318073,4.645152752227495,6403.24324468947,3.582,3.123,2.241,1.964
-0.25,4300015291.51271,1.1713551283,4.864072056914616,6375.290810349068,3.537,3.072,2.18,1.898
-0.25,4300015291.51271,1.1771326065,5.093308710571954,6343.077242082354,3.496,3.023,2.118,1.833
-0.25,4300015291.51271,1.1832079887,5.357966575133416,6302.313459908516,3.453,2.97,2.048,1.756
-0.25,4300015291.51271,1.1848175526,5.432503314924332,6282.029912455561,3.445,2.957,2.028,1.732
-0.25,4300015291.51271,1.1926727295,5.767664633922507,6183.010727517132,3.413,2.899,1.929,1.617
-0.25,4300015291.51271,1.2002601624,5.88843655355589,5988.251059509566,3.462,2.892,1.836,1.488
-0.25,4300015291.51271,1.2046086788,5.688529308438414,5795.621301763043,3.579,2.952,1.805,1.419
-0.25,4300015291.51271,1.2067756653,5.495408738576246,5671.526948608318,3.674,3.011,1.802,1.39
-0.25,4300015291.51271,1.2085716724,5.296634438916578,5556.483128371262,3.769,3.073,1.803,1.366
-0.25,4300015291.51271,1.209898591,5.1641636927207095,5468.900223137939,3.84,3.118,1.802,1.345
-0.25,4300015291.51271,1.211533308,5.069907082747043,5369.081544647211,3.91,3.159,1.788,1.307
-0.25,4300015291.51271,1.2134729624,5.176068319505676,5278.37206781577,3.941,3.163,1.739,1.235
-0.25,4300015291.51271,1.2158100605,5.520774392807573,5198.762768142835,3.919,3.117,1.645,1.12
-0.25,4300015291.51271,1.2160578966,5.559042572704036,5191.585371063544,3.914,3.11,1.633,1.107
-0.25,4300015291.51271,1.2163918018,5.649369748123025,5184.41788307823,3.902,3.096,1.615,1.087
-0.25,4300015291.51271,1.2184015512,6.208690342300636,5148.7286014054735,3.822,3.004,1.501,0.963
-0.25,4300015291.51271,1.2204774618,6.918309709189364,5117.996682024606,3.722,2.895,1.373,0.826
-0.25,4300015291.51271,1.2223604918,7.726805850957024,5094.481623274436,3.619,2.784,1.246,0.693
-0.25,4300015291.51271,1.2240563631,8.609937521846007,5073.410460372977,3.517,2.674,1.123,0.565
-0.25,4300015291.51271,1.2257237434,9.660508789898133,5052.4264494015615,3.406,2.556,0.992,0.428
-0.25,4300015291.51271,1.2271127701,10.715193052376065,5035.006087879047,3.306,2.449,0.874,0.304
-0.25,4300015291.51271,1.2284697294,11.967405313072437,5014.180920308942,3.199,2.335,0.747,0.173
-0.25,4300015291.51271,1.2297536135,13.427649611378635,4992.292237091719,3.091,2.219,0.616,0.035
-0.25,4300015291.51271,1.2308011055,14.893610777109155,4972.788632333997,2.996,2.115,0.498,-0.089
-0.25,4300015291.51271,1.2318435907,16.634126503701697,4949.940743969349,2.893,2.003,0.369,-0.225
-0.25,4300015291.51271,1.2327369452,18.492686189780777,4927.19783211614,2.797,1.897,0.248,-0.353
-0.25,4300015291.51271,1.233130455,19.408858775927783,4915.86559156862,2.753,1.848,0.191,-0.413
-0.25,4300015291.51271,1.2337889671,21.134890398366466,4897.7881936844615,2.677,1.764,0.094,-0.516
-0.25,4300015291.51271,1.234567523,23.550492838960103,4873.040266252349,2.579,1.657,-0.032,-0.649
-0.25,4300015291.51271,1.2352625132,26.18183008218985,4847.301126243664,2.485,1.553,-0.154,-0.779
-0.25,4300015291.51271,1.2358733416,28.973435877013227,4822.808303816475,2.396,1.455,-0.27,-0.903
-0.25,4300015291.51271,1.2364538908,32.13660538640317,4797.334486366892,2.305,1.353,-0.39,-1.031
-0.25,4300015291.51271,1.236988306,35.56313185689853,4770.896554256487,2.217,1.254,-0.509,-1.158
-0.25,4300015291.51271,1.2374802828,39.35500754557774,4745.696931912426,2.131,1.158,-0.626,-1.284
-0.25,4300015291.51271,1.237932086,43.45102241715714,4719.543572446043,2.048,1.065,-0.739,-1.406
-0.25,4300015291.51271,1.2383919954,47.86300923226383,4693.534343171951,1.968,0.972,-0.852,-1.528
-0.25,4300015291.51271,1.2390079498,52.239618899911974,4670.893874825567,1.896,0.888,-0.956,-1.639
-0.25,4300015291.51271,1.2392349243,49.88844874600122,4685.975353086258,1.931,0.931,-0.9,-1.577
-0.25,4300015291.51271,1.2395881414,45.81418867145335,4713.027784024217,1.994,1.008,-0.801,-1.469
-0.25,4300015291.51271,1.2396426201,45.08167045414601,4719.543572446043,2.008,1.024,-0.78,-1.447
-0.25,4300015291.51271,1.239974618,49.43106869868354,4693.534343171951,1.934,0.937,-0.887,-1.562
-0.25,4300015291.51271,1.2403465509,54.70159628939716,4665.519403909797,1.854,0.842,-1.006,-1.69
-0.25,4300015291.51271,1.2407051325,60.673632958850526,4636.603940805552,1.775,0.747,-1.127,-1.821
-0.25,4300015291.51271,1.2410298586,66.98846094165265,4607.867686902717,1.7,0.655,-1.244,-1.947
-0.25,4300015291.51271,1.2413333654,74.13102413009177,4579.3095315174405,1.624,0.562,-1.362,-2.075
-0.25,4300015291.51271,1.2416144609,82.03515443298181,4549.880601500485,1.551,0.472,-1.479,-2.202
-0.25,4300015291.51271,1.241874218,90.57326008982002,4520.640796485013,1.48,0.384,-1.595,-2.328
-0.25,4300015291.51271,1.2421119213,99.77000638225536,4491.588901059318,1.41,0.296,-1.71,-2.453
-0.25,4300015291.51271,1.2423295975,110.15393095414144,4462.723707622523,1.342,0.211,-1.823,-2.578
-0.25,4300015291.51271,1.2425355911,121.6186000646368,4433.02315750427,1.276,0.124,-1.939,-2.704
-0.25,4300015291.51271,1.2427159548,133.6595516546442,4404.534336784062,1.217,0.041,-2.049,-2.821
-0.25,4300015291.51271,1.2428895235,147.23125024327194,4374.2137356813055,1.156,-0.046,-2.162,-2.944
-0.25,4300015291.51271,1.2430467606,162.18100973589299,4345.102241715715,1.098,-0.128,-2.272,-3.063
-0.25,4300015291.51271,1.2431917191,178.23787674480891,4316.1844920735875,1.041,-0.21,-2.381,-3.181
-0.25,4300015291.51271,1.2433265448,195.8844673505989,4286.472087023835,0.983,-0.292,-2.491,-3.3
-0.25,4300015291.51271,1.243449688,215.27817347243737,4257.944535825967,0.927,-0.371,-2.598,-3.417
-0.25,4300015291.51271,1.2435671091,236.59196974857588,4228.63305181499,0.87,-0.451,-2.707,-3.538
-0.25,4300015291.51271,1.2436721325,260.0159563165272,4199.52334664066,0.815,-0.528,-2.813,-3.654
-0.25,4300015291.51271,1.2437708378,285.10182675039096,4170.614031267226,0.76,-0.606,-2.92,-3.772
-0.25,4300015291.51271,1.2438623905,313.32857243155854,4140.950127434679,0.711,-0.676,-3.028,-3.893
-0.25,4300015291.51271,1.2439446449,342.76778654645045,4112.4440272660895,0.664,-0.742,-3.132,-4.01
-0.25,4300015291.51271,1.2440237999,375.8374042884443,4083.1938633269233,0.617,-0.81,-3.239,-4.131
-0.25,4300015291.51271,1.2440952063,411.14972110452214,4055.085354483839,0.574,-0.873,-3.343,-4.248
-0.25,4300015291.51271,1.2441623211,449.77985489328796,4027.170343254591,0.532,-0.935,-3.447,-4.365
-0.25,4300015291.51271,1.244225502,492.0395356814511,3997.606108001501,0.491,-0.996,-3.551,-4.484
-0.25,4300015291.51271,1.2442830801,537.0317963702527,3970.0867811218423,0.453,-1.054,-3.653,-4.599
-0.25,4300015291.51271,1.2443372011,586.1381645140285,3941.849147142968,0.417,-1.107,-3.754,-4.714
-0.25,4300015291.51271,1.2443886995,639.7348354826482,3912.911271268528,0.383,-1.161,-3.856,-4.831
-0.25,4300015291.51271,1.2444462776,711.2135136533288,3877.9303087618246,0.345,-1.222,-3.979,-4.971
-0.25,4300015291.51271,1.2444990873,790.6786279998254,3843.2620719095157,0.316,-1.273,-4.101,-5.11
-0.25,4300015291.51271,1.2445391417,859.013521505396,3815.047942794385,0.293,-1.314,-4.199,-5.222
-0.25,4300015291.51271,1.244576931,935.4056741475521,3786.169041033592,0.277,-1.346,-4.298,-5.335
-0.25,4300015291.51271,1.2446191311,1032.7614057613969,3751.4572346200985,0.263,-1.376,-4.416,-5.469
-0.25,4300015291.51271,1.2446587086,1140.2497875611684,3716.2078809514237,0.251,-1.405,-4.532,-5.603
-0.25,4300015291.51271,1.2446953058,1256.0299636948755,3682.1374823089295,0.248,-1.415,-4.649,-5.735
-0.25,4300015291.51271,1.2447295189,1383.566378971781,3647.5394692560767,0.25,-1.421,-4.764,-5.867
-0.25,4300015291.51271,1.2447609901,1520.5475297324954,3612.434655644614,0.263,-1.412,-4.878,-5.997
-0.25,4300015291.51271,1.2447904348,1671.090614310707,3577.6676993611068,0.289,-1.386,-4.991,-6.126
-0.25,4300015291.51271,1.2448180914,1832.314422371211,3542.4195826164946,0.323,-1.351,-5.105,-6.254
-0.25,4300015291.51271,1.2448437214,2004.4720273651615,3508.326468551656,0.375,-1.288,-5.215,-6.379
-0.25,4300015291.51271,1.244867444,2182.7299118430014,3474.561474970439,0.43,-1.222,-5.322,-6.501
-0.25,4300015291.51271,1.2448903322,2371.373705661655,3441.9138826842905,0.498,-1.138,-5.426,-6.618
-0.25,4300015291.51271,1.2448989153,2443.430552693971,3430.0464394337664,0.522,-1.108,-5.462,-6.658
-0.25,4300015291.51271,1.2448989153,57.14786366718669,4851.7677121925735,1.634,0.697,-1.002,-1.623
-0.25,4300015291.51271,1.2451677322,58.74893525297766,4840.60895610673,1.615,0.672,-1.035,-1.659
-0.25,4300015291.51271,1.2454319,59.42921586155727,4837.266336532547,1.606,0.661,-1.049,-1.674
-0.25,4300015291.51271,1.245695591,59.566214352901035,4838.380286511588,1.602,0.657,-1.051,-1.676
-0.25,4300015291.51271,1.2459595203,59.566214352901035,4841.7236758409945,1.6,0.657,-1.049,-1.673
-0.25,4300015291.51271,1.2462033033,59.42921586155727,4846.185122401829,1.598,0.657,-1.046,-1.669
-0.25,4300015291.51271,1.246470809,59.29253245799997,4849.5339049834165,1.597,0.657,-1.043,-1.664
-0.25,4300015291.51271,1.2467153072,59.29253245799997,4854.002548344871,1.596,0.658,-1.04,-1.66
-0.25,4300015291.51271,1.2469713688,59.1561634175474,4857.356732878539,1.594,0.658,-1.037,-1.656
-0.25,4300015291.51271,1.247246623,59.02010801718442,4860.713235201249,1.592,0.657,-1.034,-1.652
-0.25,4300015291.51271,1.2475035191,59.02010801718442,4864.072056914614,1.59,0.657,-1.033,-1.65
-0.25,4300015291.51271,1.2477612495,59.02010801718442,4866.312560731986,1.588,0.656,-1.032,-1.648
-0.25,4300015291.51271,1.2480202913,59.02010801718442,4869.675251658631,1.586,0.655,-1.031,-1.646
-0.25,4300015291.51271,1.248295784,59.02010801718442,4871.918336436785,1.583,0.653,-1.03,-1.644
-0.25,4300015291.51271,1.2485507727,59.02010801718442,4874.162454431541,1.581,0.652,-1.03,-1.644
-0.25,4300015291.51271,1.2486730814,59.02010801718442,4875.284901033865,1.58,0.651,-1.03,-1.643
-0.25,4300015291.51271,1.2487053871,59.02010801718442,4875.284901033865,1.58,0.651,-1.03,-1.643
-0.25,4300015291.51271,1.248980999,59.1561634175474,4877.530569745951,1.577,0.649,-1.03,-1.643
-0.25,4300015291.51271,1.2492570877,59.1561634175474,4879.77727286486,1.574,0.646,-1.031,-1.643
-0.25,4300015291.51271,1.2495276928,59.29253245799997,4880.901012475759,1.571,0.644,-1.033,-1.644
-0.25,4300015291.51271,1.2497837543,59.42921586155727,4882.0250108670625,1.568,0.641,-1.035,-1.646
-0.25,4300015291.51271,1.2500363588,59.566214352901035,4882.0250108670625,1.565,0.638,-1.037,-1.648
-0.25,4300015291.51271,1.2503094673,59.70352865838369,4883.149268098355,1.561,0.634,-1.041,-1.652
-0.25,4300015291.51271,1.2505640984,59.979107625550945,4882.0250108670625,1.557,0.631,-1.045,-1.656
-0.25,4300015291.51271,1.2505851984,59.979107625550945,4882.0250108670625,1.557,0.63,-1.045,-1.656
-0.25,4300015291.51271,1.2506129742,59.979107625550945,4882.0250108670625,1.557,0.63,-1.046,-1.657
-0.25,4300015291.51271,1.2508718967,60.25595860743578,4880.901012475759,1.553,0.625,-1.051,-1.663
-0.25,4300015291.51271,1.2511246204,60.673632958850526,4879.77727286486,1.548,0.62,-1.058,-1.669
-0.25,4300015291.51271,1.2513817549,61.09420249055721,4877.530569745951,1.543,0.614,-1.066,-1.678
-0.25,4300015291.51271,1.2516396046,61.517687270986805,4874.162454431541,1.537,0.606,-1.075,-1.688
-0.25,4300015291.51271,1.2518945932,62.08690342300634,4870.796664925371,1.531,0.598,-1.086,-1.701
-0.25,4300015291.51271,1.2521474361,62.66138646723353,4866.312560731986,1.524,0.589,-1.099,-1.714
-0.25,4300015291.51271,1.2524007559,63.53309318517436,4860.713235201249,1.515,0.578,-1.114,-1.731
-0.25,4300015291.51271,1.2526528835,64.41692655151772,4854.002548344871,1.506,0.566,-1.131,-1.75
-0.25,4300015291.51271,1.252904892,64.56542290346556,4854.002548344871,1.503,0.562,-1.135,-1.754
-0.25,4300015291.51271,1.2531601191,66.06934480075961,4842.83865227851,1.488,0.542,-1.163,-1.785
-0.25,4300015291.51271,1.2534198761,69.3425806016569,4819.477976251272,1.458,0.501,-1.222,-1.852
-0.25,4300015291.51271,1.2536677122,75.68328950209744,4777.4923465909405,1.402,0.425,-1.33,-1.973
-0.25,4300015291.51271,1.2537840605,82.60379495771788,4738.053933388255,1.348,0.35,-1.438,-2.093
-0.25,4300015291.51271,1.253841877,90.36494737223013,4698.941086052156,1.292,0.274,-1.545,-2.213
-0.25,4300015291.51271,1.2538700104,98.8553094656939,4661.22428001887,1.236,0.198,-1.653,-2.334
-0.25,4300015291.51271,1.2538841963,108.14339512979376,4622.74566491089,1.18,0.122,-1.762,-2.455
-0.25,4300015291.51271,1.2538918257,118.03206356517298,4587.752705471357,1.126,0.049,-1.867,-2.572
-0.25,4300015291.51271,1.253896594,127.64388088113435,4555.121861657392,1.077,-0.017,-1.962,-2.678
-0.25,4300015291.51271,1.2538967133,127.93813041575252,4555.121861657392,1.077,-0.018,-1.963,-2.68
-0.25,4300015291.51271,1.2538979053,131.2199899019203,4544.645372095089,1.063,-0.04,-1.993,-2.713
-0.25,4300015291.51271,1.2539019585,143.21878992735438,4510.243611171937,1.014,-0.116,-2.099,-2.829
-0.25,4300015291.51271,1.2539058924,154.5254439538414,4481.258533251555,0.971,-0.181,-2.19,-2.928
-0.25,4300015291.51271,1.2539098263,162.55487557504833,4462.723707622523,0.943,-0.223,-2.249,-2.993
-0.25,4300015291.51271,1.2539200783,165.19617982290148,4456.562483975033,0.934,-0.237,-2.268,-3.013
-0.25,4300015291.51271,1.2539281845,155.23870099580816,4480.226804128664,0.968,-0.185,-2.195,-2.933
-0.25,4300015291.51271,1.2539491653,146.21771744567184,4502.9798128808925,1.001,-0.134,-2.124,-2.855
-0.25,4300015291.51271,1.2541300058,150.31419660900224,4491.588901059318,0.987,-0.157,-2.157,-2.892
-0.25,4300015291.51271,1.2542340755,164.81623915255085,4456.562483975033,0.936,-0.235,-2.266,-3.012
-0.25,4300015291.51271,1.2543302774,182.81002161427426,4416.721344129766,0.882,-0.32,-2.387,-3.145
-0.25,4300015291.51271,1.2544100285,201.37242498623874,4380.261111703606,0.829,-0.401,-2.502,-3.271
-0.25,4300015291.51271,1.2544779778,221.81964198002194,4345.102241715715,0.777,-0.479,-2.613,-3.394
-0.25,4300015291.51271,1.2545372248,243.78108183687525,4309.233228186264,0.727,-0.556,-2.722,-3.516
-0.25,4300015291.51271,1.2545890808,267.30064086633115,4275.62886151586,0.677,-0.632,-2.831,-3.637
-0.25,4300015291.51271,1.254634738,293.76496519615307,4242.286549229506,0.627,-0.706,-2.938,-3.757
-0.25,4300015291.51271,1.2546756268,322.10687912834345,4209.2042477683635,0.581,-0.775,-3.046,-3.879
-0.25,4300015291.51271,1.2547127008,353.18316979195697,4174.457078262909,0.538,-0.841,-3.154,-4.002
-0.25,4300015291.51271,1.2547466755,387.25764492161727,4134.281080471346,0.508,-0.898,-3.263,-4.129
-0.25,4300015291.51271,1.254770875,414.95404263436285,4086.9563562815833,0.513,-0.921,-3.348,-4.237
-0.25,4300015291.51271,1.2548007965,454.9880601500485,4054.1517440650287,0.476,-0.981,-3.455,-4.359
-0.25,4300015291.51271,1.2548295259,497.7370849789361,4022.5365599868255,0.439,-1.04,-3.561,-4.48
-0.25,4300015291.51271,1.2548562288,545.757861091271,3990.2490236214207,0.402,-1.099,-3.667,-4.602
-0.25,4300015291.51271,1.2548817396,597.0352865838366,3959.1321672816603,0.369,-1.152,-3.772,-4.723
-0.25,4300015291.51271,1.2549074888,653.1305526474723,3926.449353995997,0.339,-1.204,-3.877,-4.844
-0.25,4300015291.51271,1.2549313307,714.4963260755135,3894.0363387971706,0.314,-1.251,-3.981,-4.964
-0.25,4300015291.51271,1.2549493313,776.247116628692,3862.780230114958,0.296,-1.288,-4.078,-5.077
-0.25,4300015291.51271,1.254961133,831.7637711026708,3837.9560752329744,0.283,-1.317,-4.159,-5.17
-0.25,4300015291.51271,1.254970789,893.3054837332954,3810.65823393773,0.27,-1.347,-4.243,-5.267
-0.25,4300015291.51271,1.2549794912,963.8290236239706,3782.683455893896,0.261,-1.37,-4.334,-5.372
-0.25,4300015291.51271,1.2549875975,1044.7202192208003,3752.321139027498,0.256,-1.388,-4.428,-5.481
-0.25,4300015291.51271,1.2549957037,1137.627285823431,3717.9196520448604,0.254,-1.406,-4.53,-5.599
-0.25,4300015291.51271,1.255002737,1233.1048332289097,3686.3791409739756,0.262,-1.404,-4.627,-5.711
-0.25,4300015291.51271,1.2550107241,1348.9628825916532,3648.379442958715,0.278,-1.396,-4.737,-5.839
-0.25,4300015291.51271,1.255019784,1506.6070661867418,3601.6375039472773,0.315,-1.361,-4.871,-5.996
-0.25,4300015291.51271,1.2550251484,1629.296032639723,3566.9744620973356,0.354,-1.32,-4.969,-6.108
-0.25,4300015291.51271,1.2550263405,1678.8040181225606,3553.857419860757,0.37,-1.304,-5.005,-6.15
-0.25,4300015291.51271,1.2550274134,1733.8039977541375,3539.1583956694994,0.395,-1.275,-5.046,-6.197
-0.25,4300015291.51271,1.2550292015,1794.7336268325266,3522.897439914557,0.425,-1.24,-5.091,-6.249
-0.25,4300015291.51271,1.2550293207,1853.5316234148106,3508.326468551656,0.453,-1.207,-5.13,-6.294
-0.25,4300015291.51271,1.2550294399,1803.017740859568,3521.2754591922267,0.429,-1.236,-5.097,-6.255
-0.25,4300015291.51271,1.2550295591,1745.8221529205039,3535.90021100387,0.402,-1.267,-5.055,-6.207
-0.25,4300015291.51271,1.2550296783,1749.8466886246565,3534.2722436627364,0.405,-1.264,-5.06,-6.213
-0.25,4300015291.51271,1.2550297976,1798.8709151287874,3522.086356184678,0.426,-1.24,-5.093,-6.251
-0.25,4300015291.51271,1.2550299168,1737.8008287493763,3536.7144758575937,0.401,-1.269,-5.051,-6.203
-0.25,4300015291.51271,1.255030036,1698.2436524617442,3547.316998366914,0.384,-1.289,-5.021,-6.168
-0.25,4300015291.51271,1.2550303936,1636.8165214278085,3561.2298094276216,0.369,-1.305,-4.976,-6.118
-0.25,4300015291.51271,1.2550309896,1640.5897731995387,3559.59018006083,0.372,-1.302,-4.98,-6.122
-0.25,4300015291.51271,1.2550314665,1465.5478409559114,3604.956262788377,0.331,-1.343,-4.839,-5.962
-0.25,4300015291.51271,1.2550319433,1566.7510701081485,3577.6676993611068,0.356,-1.317,-4.923,-6.057
-0.25,4300015291.51271,1.2550324202,1686.5530253887407,3547.316998366914,0.39,-1.283,-5.014,-6.162
-0.25,4300015291.51271,1.2550331354,1807.1741260109275,3518.0337377370256,0.438,-1.226,-5.099,-6.259
-0.25,4300015291.51271,1.2550339699,1945.3600816226633,3485.7802105603496,0.498,-1.154,-5.191,-6.365
-0.25,4300015291.51271,1.2550350428,2094.1124558508936,3453.027205056406,0.569,-1.068,-5.285,-6.473
-0.25,4300015291.51271,1.2550363541,2259.435770220978,3419.0070790206964,0.65,-0.966,-5.382,-6.583
-0.25,4300015291.51271,1.2550374269,2360.478233180578,3399.3822312328007,0.701,-0.903,-5.437,-6.646
-0.25,4300015291.51271,1.2550375462,2360.478233180578,3399.3822312328007,0.701,-0.903,-5.437,-6.646
-0.25,4300015291.51271,1.2550376654,1355.1894123510365,3623.2641755313257,0.346,-1.327,-4.75,-5.864
-0.25,4300015291.51271,1.2550377846,1061.6955571987241,3729.9241475247336,0.296,-1.358,-4.452,-5.516
-0.25,4300015291.51271,1.2550381422,687.0684400142325,3926.449353995997,0.295,-1.256,-3.932,-4.898
-0.25,4300015291.51271,1.2550387383,712.8530301265198,3907.5091171056138,0.295,-1.268,-3.975,-4.95
-0.25,4300015291.51271,1.2550393343,928.9663867799363,3785.297343755959,0.295,-1.335,-4.292,-5.329
-0.25,4300015291.51271,1.2550401688,1339.6766874259345,3621.5959848601933,0.365,-1.307,-4.738,-5.853
-0.25,4300015291.51271,1.2550412416,1836.5383433483455,3485.7802105603496,0.551,-1.095,-5.129,-6.303
-0.25,4300015291.51271,1.2550423145,2264.6443075930597,3397.8171182708334,0.748,-0.851,-5.392,-6.602
-0.25,4300015291.51271,1.255043745,2535.128630497907,3348.883193942221,0.905,-0.652,-5.537,-6.765
-0.25,4300015291.51271,1.2550451756,2685.344445658506,3322.7678521107573,1.003,-0.529,-5.61,-6.849
-0.25,4300015291.51271,1.2550468445,2786.1211686297693,3304.4562019345226,1.082,-0.428,-5.658,-6.904
-0.25,4300015291.51271,1.2550469637,1849.2686189780777,3467.368504525317,0.619,-1.017,-5.143,-6.326
-0.25,4300015291.51271,1.2550472021,1267.6518658578461,3626.6028624488754,0.404,-1.264,-4.675,-5.788
-0.25,4300015291.51271,1.2550475597,818.4647881347895,3818.563350459785,0.344,-1.267,-4.146,-5.166
-0.25,4300015291.51271,1.2550481558,845.27884516029,3803.6452032855573,0.344,-1.274,-4.184,-5.212
-0.25,4300015291.51271,1.2550489902,1091.440336448756,3688.926481189961,0.376,-1.282,-4.494,-5.578
-0.25,4300015291.51271,1.2550499439,1559.552502826954,3535.0861336199705,0.513,-1.145,-4.931,-6.085
-0.25,4300015291.51271,1.255051136,2108.6281499332886,3408.0032480036516,0.767,-0.834,-5.311,-6.517
-0.25,4300015291.51271,1.2550524473,2564.484036517716,3328.1278395965264,1.017,-0.518,-5.559,-6.796
-0.25,4300015291.51271,1.255053997,2837.9190284415554,3286.2454665820464,1.184,-0.299,-5.687,-6.94
-0.25,4300015291.51271,1.2550557852,2964.8313895243423,3267.3826606314346,1.269,-0.186,-5.743,-7.003
-0.25,4300015291.51271,1.2550576925,3026.913428101305,3256.8668220166983,1.318,-0.122,-5.771,-7.035
-0.25,4300015291.51271,1.2550578117,2051.1621788255648,3413.5007294931106,0.771,-0.833,-5.278,-6.482
-0.25,4300015291.51271,1.2550580502,1409.2887984218748,3571.083458083457,0.482,-1.182,-4.808,-5.946
-0.25,4300015291.51271,1.255058527,909.9132726322517,3764.436710736454,0.366,-1.269,-4.276,-5.322
-0.25,4300015291.51271,1.2550592422,939.7233105646376,3749.730022454834,0.371,-1.27,-4.314,-5.368
-0.25,4300015291.51271,1.2550600767,1210.598133550483,3635.8001230014343,0.425,-1.243,-4.621,-5.73
-0.25,4300015291.51271,1.2550611496,1713.9573075084252,3483.3731503601166,0.63,-1.011,-5.054,-6.23
-0.25,4300015291.51271,1.2550624609,2306.747188720069,3358.9226273449517,0.943,-0.618,-5.429,-6.654
-0.25,4300015291.51271,1.2550640106,2792.543841237339,3279.4423443213464,1.247,-0.225,-5.672,-6.927
-0.25,4300015291.51271,1.2550656796,3076.096814740708,3238.1726473132535,1.431,0.021,-5.797,-7.067
-0.25,4300015291.51271,1.2550677061,3206.2693245054643,3219.585775790117,1.515,0.132,-5.851,-7.128
-0.25,4300015291.51271,1.2550698519,3273.406948788383,3209.223768048436,1.565,0.196,-5.879,-7.159
-0.25,4300015291.51271,1.2550699711,2269.8648518838213,3358.1492958644226,0.965,-0.596,-5.413,-6.638
-0.25,4300015291.51271,1.2550702095,1566.7510701081485,3515.6044052829798,0.591,-1.062,-4.945,-6.106
-0.25,4300015291.51271,1.2550706863,1013.9113857366789,3710.2228861746507,0.397,-1.261,-4.407,-5.48
-0.25,4300015291.51271,1.2550714016,1047.1285480508996,3694.877122539323,0.409,-1.251,-4.446,-5.527
-0.25,4300015291.51271,1.2550723553,1339.6766874259345,3580.9643710263585,0.503,-1.162,-4.751,-5.884
-0.25,4300015291.51271,1.2550735474,1883.6490894898002,3430.0464394337664,0.781,-0.832,-5.179,-6.377
-0.25,4300015291.51271,1.2550748587,2517.676927758854,3305.217168699801,1.176,-0.333,-5.548,-6.794
-0.25,4300015291.51271,1.2550764084,3033.891184194272,3225.52193768908,1.528,0.137,-5.788,-7.062
-0.25,4300015291.51271,1.2550783157,3341.950400261143,3184.1975217261256,1.722,0.394,-5.912,-7.201
-0.25,4300015291.51271,1.2550803423,3483.3731503601166,3163.73427822138,1.824,0.528,-5.967,-7.263
-0.25,4300015291.51271,1.2550826073,3556.3131856898544,3151.374380204506,1.877,0.596,-5.996,-7.295
-0.25,4300015291.51271,1.2550827265,2535.128630497907,3290.788720121735,1.27,-0.217,-5.563,-6.814
-0.25,4300015291.51271,1.2550829649,1757.923613958693,3448.2599655262325,0.77,-0.855,-5.096,-6.286
-0.25,4300015291.51271,1.2550835609,1137.627285823431,3644.181507888609,0.469,-1.201,-4.553,-5.657
-0.25,4300015291.51271,1.2550842762,1174.897554939529,3627.4380147645793,0.485,-1.186,-4.593,-5.705
-0.25,4300015291.51271,1.2550852299,1496.235656094433,3513.985782353995,0.647,-1.006,-4.896,-6.058
-0.25,4300015291.51271,1.255086422,2084.4908830972886,3364.340936432299,1.017,-0.548,-5.318,-6.54
-0.25,4300015291.51271,1.2550878525,2760.577856220345,3240.4102704918173,1.527,0.116,-5.678,-6.948
-0.25,4300015291.51271,1.2550895214,3311.311214825911,3160.0939904479483,1.895,0.605,-5.914,-7.21
-0.25,4300015291.51271,1.2550913095,3630.780547701014,3117.453613031264,2.069,0.829,-6.036,-7.345
-0.25,4300015291.51271,1.2550934553,3784.425847170932,3095.2804165939788,2.169,0.954,-6.091,-7.408
-0.25,4300015291.51271,1.2550958395,3863.669770540693,3081.768416611512,2.223,1.014,-6.121,-7.441
-0.25,4300015291.51271,1.2550959587,2844.4611074479167,3209.223768048436,1.707,0.342,-5.725,-7.005
-0.25,4300015291.51271,1.2550961971,1981.527025805099,3366.665743686229,1.058,-0.51,-5.261,-6.483
-0.25,4300015291.51271,1.255096674,1285.2866599436154,3566.1532304264047,0.609,-1.059,-4.711,-5.851
-0.25,4300015291.51271,1.2550973892,1327.3944577297402,3548.9509744230404,0.637,-1.03,-4.751,-5.899
-0.25,4300015291.51271,1.2550983429,1678.8040181225606,3435.5794789987463,0.882,-0.736,-5.051,-6.246
-0.25,4300015291.51271,1.255099535,2312.064790175594,3287.0022396877516,1.395,-0.085,-5.463,-6.716
-0.25,4300015291.51271,1.2551008463,3026.913428101305,3163.73427822138,1.965,0.671,-5.815,-7.111
-0.25,4300015291.51271,1.255102396,3605.7864302164235,3083.8979622506845,2.281,1.073,-6.044,-7.364
-0.25,4300015291.51271,1.2551043034,3944.573020752785,3040.88502567628,2.401,1.189,-6.162,-7.492
-0.25,4300015291.51271,1.2551063299,4102.041029866068,3019.256430871959,2.472,1.258,-6.216,-7.552
-0.25,4300015291.51271,1.2551085949,4178.303666466218,3005.3842076633828,2.512,1.295,-6.244,-7.582
-0.25,4300015291.51271,1.2551087141,3176.8740706497692,3123.2014671492143,2.176,0.929,-5.887,-7.195
-0.25,4300015291.51271,1.2551089525,2223.309890651403,3283.2201160919944,1.466,-0.012,-5.423,-6.677
-0.25,4300015291.51271,1.2551094294,1445.439770745928,3489.7956743787454,0.806,-0.847,-4.867,-6.04
-0.25,4300015291.51271,1.2551100254,1489.3610777109154,3472.9617486579155,0.843,-0.805,-4.907,-6.087
-0.25,4300015291.51271,1.2551109791,1874.9945080674192,3361.243690470534,1.166,-0.404,-5.203,-6.427
-0.25,4300015291.51271,1.255112052,2552.701302661247,3214.400596524381,1.807,0.43,-5.605,-6.883
-0.25,4300015291.51271,1.2551132441,3311.311214825911,3093.1430109489634,2.342,1.127,-5.947,-7.265
-0.25,4300015291.51271,1.2551147938,3917.4187710778306,3016.4768731622175,2.552,1.332,-6.168,-7.505
-0.25,4300015291.51271,1.2551164627,4265.795188015925,2977.8306796291185,2.631,1.403,-6.28,-7.625
-0.25,4300015291.51271,1.2551183701,4425.883723626264,2962.1019360527644,2.67,1.435,-6.329,-7.678
-0.25,4300015291.51271,1.2551205158,4508.167045414601,2956.650565082943,2.685,1.446,-6.354,-7.704
