FeH,Age,Mini,L,Te,Bmag,Vmag,Jmag,Kmag
0.0,3799968530.3685455,0.0900000036,0.00037844258471709315,2307.809729698403,19.988,18.146,11.236,10.333
0.0,3799968530.3685455,0.1000000015,0.0005767664633922509,2450.7555792438225,19.502,17.669,10.777,9.872
0.0,3799968530.3685455,0.1200000048,0.0010641430182243164,2657.6635495543114,18.518,16.724,10.131,9.219
0.0,3799968530.3685455,0.130362004,0.0013365955165464418,2723.9554471208658,17.86,16.113,9.911,8.996
0.0,3799968530.3685455,0.1400000006,0.0016218100973589297,2782.274657675122,17.323,15.616,9.721,8.806
0.0,3799968530.3685455,0.1599999964,0.002243881923782766,2870.780582024692,16.506,14.845,9.402,8.488
0.0,3799968530.3685455,0.200000003,0.0036897759857015045,2997.091486307045,15.392,13.79,8.907,7.999
0.0,3799968530.3685455,0.25,0.005915616341754737,3112.4329187675094,14.441,12.872,8.435,7.536
0.0,3799968530.3685455,0.3000000119,0.008550667128846832,3190.0684359752117,13.797,12.261,8.062,7.168
0.0,3799968530.3685455,0.3411892354,0.011561122421920988,3242.649439899697,13.313,11.802,7.751,6.86
0.0,3799968530.3685455,0.3500000238,0.012274392311584071,3253.1193731384888,13.219,11.712,7.688,6.798
0.0,3799968530.3685455,0.4000000358,0.017060823890031235,3338.1050516598925,12.653,11.174,7.359,6.471
0.0,3799968530.3685455,0.4500000179,0.024043628000069334,3431.6263979646833,12.078,10.627,7.015,6.128
0.0,3799968530.3685455,0.4734627903,0.02864177969906581,3488.9922117346073,11.782,10.345,6.845,5.959
0.0,3799968530.3685455,0.5,0.03443499307633384,3552.2211848231955,11.47,10.046,6.663,5.777
0.0,3799968530.3685455,0.5439704061,0.04830588020397726,3693.175960479867,10.881,9.475,6.342,5.459
0.0,3799968530.3685455,0.5500000119,0.05046612975635284,3711.931900441403,10.804,9.4,6.3,5.417
0.0,3799968530.3685455,0.6000000238,0.07396052750582378,3919.2232245497667,10.111,8.739,5.948,5.079
0.0,3799968530.3685455,0.6184226274,0.08550667128846832,4016.058219411669,9.834,8.487,5.816,4.959
0.0,3799968530.3685455,0.6499999762,0.10864256236170655,4182.153799140227,9.371,8.076,5.596,4.768
0.0,3799968530.3685455,0.7000000477,0.15703628043335524,4470.951924630434,8.589,7.421,5.271,4.519
0.0,3799968530.3685455,0.7374970317,0.20511621788255657,4698.941086052156,8.015,6.957,5.045,4.374
0.0,3799968530.3685455,0.75,0.22335722228305316,4775.2927365769065,7.836,6.812,4.973,4.33
0.0,3799968530.3685455,0.8000000119,0.30902954325135906,5017.645790367086,7.258,6.331,4.693,4.125
0.0,3799968530.3685455,0.8168470263,0.3435579478998746,5096.828259054277,7.08,6.181,4.601,4.057
0.0,3799968530.3685455,0.8500000238,0.4216965034285822,5254.120151100796,6.743,5.897,4.426,3.924
0.0,3799968530.3685455,0.879324615,0.5046612975635284,5383.937379843645,6.47,5.663,4.273,3.802
0.0,3799968530.3685455,0.8999999762,0.571478636671867,5475.200153037678,6.28,5.503,4.168,3.719
0.0,3799968530.3685455,0.9192380309,0.6412095765851616,5555.203848137405,6.109,5.358,4.071,3.64
0.0,3799968530.3685455,0.9425032139,0.734513868157115,5650.670713353118,5.909,5.189,3.955,3.545
0.0,3799968530.3685455,0.9499999881,0.7691304402866096,5680.675741067723,5.847,5.136,3.917,3.513
0.0,3799968530.3685455,0.9639241099,0.8336811846196344,5733.238386538407,5.732,5.037,3.846,3.453
0.0,3799968530.3685455,0.9837265015,0.9375620069258802,5806.307069668667,5.571,4.899,3.746,3.367
0.0,3799968530.3685455,1.0,1.030386120441616,5864.081532764765,5.44,4.787,3.664,3.297
0.0,3799968530.3685455,1.0118750334,1.1040786199020731,5903.369946398826,5.346,4.707,3.603,3.244
0.0,3799968530.3685455,1.0312097073,1.2359474334445104,5966.230116296915,5.195,4.576,3.504,3.157
0.0,3799968530.3685455,1.0490919352,1.3708817661648536,6022.82161014634,5.058,4.457,3.412,3.075
0.0,3799968530.3685455,1.0499999523,1.3803842646028848,6025.595860743575,5.051,4.451,3.407,3.071
0.0,3799968530.3685455,1.0583540201,1.4487718535447616,6049.228644838512,4.988,4.396,3.363,3.032
0.0,3799968530.3685455,1.0757709742,1.599558028614669,6098.176639987856,4.859,4.282,3.271,2.948
0.0,3799968530.3685455,1.0922571421,1.7619760464116292,6141.861234063022,4.739,4.175,3.184,2.868
0.0,3799968530.3685455,1.1000000238,1.840772001468956,6160.273583272377,4.683,4.126,3.142,2.83
0.0,3799968530.3685455,1.1150699854,2.004472027365161,6194.410750767812,4.578,4.031,3.063,2.756
0.0,3799968530.3685455,1.1299610138,2.1727011788637447,6221.57011728757,4.48,3.941,2.985,2.683
0.0,3799968530.3685455,1.1438590288,2.338837238659355,6243.09581135609,4.392,3.86,2.914,2.615
0.0,3799968530.3685455,1.1499999762,2.409905428686595,6251.726927756856,4.354,3.825,2.882,2.585
0.0,3799968530.3685455,1.1507689953,2.4210290467361784,6251.726927756856,4.35,3.821,2.878,2.581
0.0,3799968530.3685455,1.1649637222,2.594179362118814,6257.487633544409,4.272,3.745,2.805,2.51
0.0,3799968530.3685455,1.1897215843,2.8773984147356693,6243.09581135609,4.163,3.633,2.687,2.389
0.0,3799968530.3685455,1.2000000477,2.992264636608189,6231.60618945834,4.124,3.59,2.64,2.34
0.0,3799968530.3685455,1.2194387913,3.2583670100200877,6212.980635293497,4.039,3.501,2.543,2.24
0.0,3799968530.3685455,1.2433512211,3.8282474331682264,6251.726927756856,3.846,3.321,2.38,2.085
0.0,3799968530.3685455,1.25,4.045758916974426,6273.356959840379,3.777,3.258,2.328,2.036
0.0,3799968530.3685455,1.2532176971,4.345102241715716,6322.6624992968755,3.682,3.178,2.269,1.985
0.0,3799968530.3685455,1.2549982071,4.698941086052154,6370.888436175271,3.579,3.089,2.201,1.925
0.0,3799968530.3685455,1.2551243305,4.731512589614805,6375.290810349068,3.571,3.082,2.195,1.92
0.0,3799968530.3685455,1.258654952,4.897788193684462,6341.616862711066,3.544,3.047,2.146,1.866
0.0,3799968530.3685455,1.2783712149,5.457578610912709,6217.2738929396055,3.468,2.936,1.983,1.683
0.0,3799968530.3685455,1.29266119,5.861381645140288,6067.363295885053,3.447,2.87,1.852,1.526
0.0,3799968530.3685455,1.2999999523,5.88843655355589,5918.341211131826,3.506,2.882,1.794,1.44
0.0,3799968530.3685455,1.3031870127,5.780960474057181,5831.764797316426,3.564,2.913,1.783,1.411
0.0,3799968530.3685455,1.3060662746,5.584701947368308,5730.598740537326,3.65,2.967,1.785,1.393
0.0,3799968530.3685455,1.3087084293,5.345643593969716,5626.003525795433,3.75,3.034,1.796,1.381
0.0,3799968530.3685455,1.3112009764,5.105049999754062,5516.9620938349835,3.856,3.107,1.812,1.372
0.0,3799968530.3685455,1.3141278028,4.875284901033862,5387.657756854133,3.978,3.19,1.821,1.351
0.0,3799968530.3685455,1.3179112673,4.742419852602447,5232.388711124278,4.102,3.265,1.803,1.294
0.0,3799968530.3685455,1.3227690458,5.081594425605605,5100.350239594463,4.113,3.234,1.686,1.141
0.0,3799968530.3685455,1.3232196569,5.14043651582426,5092.136067911513,4.107,3.225,1.671,1.123
0.0,3799968530.3685455,1.3261851072,5.727960309858292,5050.100256703167,4.019,3.124,1.543,0.983
0.0,3799968530.3685455,1.3290278912,6.4416926551517735,5018.801279032415,3.912,3.006,1.404,0.835
0.0,3799968530.3685455,1.3319239616,7.362070974947361,4992.292237091719,3.789,2.872,1.251,0.675
0.0,3799968530.3685455,1.334361434,8.336811846196344,4970.499105762351,3.673,2.746,1.11,0.528
0.0,3799968530.3685455,1.3365958929,9.440608762859233,4948.801109202861,3.556,2.62,0.969,0.38
0.0,3799968530.3685455,1.338560462,10.641430182243159,4928.332491971514,3.444,2.499,0.833,0.238
0.0,3799968530.3685455,1.3403996229,12.02264434617413,4905.6888610179985,3.329,2.375,0.692,0.091
0.0,3799968530.3685455,1.3419289589,13.458603540559483,4884.273784229252,3.227,2.263,0.565,-0.042
0.0,3799968530.3685455,1.3433411121,15.031419660900225,4861.832584649837,3.127,2.153,0.437,-0.176
0.0,3799968530.3685455,1.3445744514,16.710906143107078,4839.4944930166275,3.033,2.049,0.316,-0.304
0.0,3799968530.3685455,1.3456653357,18.492686189780777,4817.25903559163,2.942,1.948,0.199,-0.428
0.0,3799968530.3685455,1.3466302156,20.417379446695296,4796.22998644458,2.855,1.852,0.087,-0.547
0.0,3799968530.3685455,1.3474853039,22.3872113856834,4774.193311370779,2.773,1.761,-0.022,-0.663
0.0,3799968530.3685455,1.3482714891,24.660393372343385,4752.257885621896,2.691,1.669,-0.131,-0.78
0.0,3799968530.3685455,1.3489934206,27.039583641088434,4729.334149186516,2.611,1.58,-0.239,-0.895
0.0,3799968530.3685455,1.3496309519,29.512092266663856,4708.688923442734,2.537,1.497,-0.339,-1.002
0.0,3799968530.3685455,1.3499999046,31.117163371060183,4695.696293383585,2.493,1.447,-0.399,-1.067
0.0,3799968530.3685455,1.3504261971,32.96097121774578,4681.661397243642,2.444,1.393,-0.465,-1.138
0.0,3799968530.3685455,1.3516198397,37.84425847170934,4646.222461325775,2.329,1.261,-0.626,-1.311
0.0,3799968530.3685455,1.3519779444,38.72576449216173,4640.876378080087,2.31,1.241,-0.651,-1.337
0.0,3799968530.3685455,1.3527547121,35.3183169791957,4669.818485578366,2.379,1.322,-0.545,-1.222
0.0,3799968530.3685455,1.3529510498,34.119291162192845,4680.583528968204,2.406,1.353,-0.504,-1.176
0.0,3799968530.3685455,1.3530391455,34.59393778261219,4677.351412871981,2.394,1.34,-0.52,-1.194
0.0,3799968530.3685455,1.3536328077,38.37072454922788,4649.433066875436,2.311,1.245,-0.64,-1.323
0.0,3799968530.3685455,1.3542406559,42.65795188015925,4620.617301970837,2.224,1.145,-0.764,-1.457
0.0,3799968530.3685455,1.3547925949,47.424198526024455,4593.037592608176,2.141,1.049,-0.884,-1.587
0.0,3799968530.3685455,1.3553028107,52.48074602497726,4564.571349614057,2.064,0.955,-1.004,-1.717
0.0,3799968530.3685455,1.3557761908,58.21032177708713,4536.281531692419,1.989,0.862,-1.125,-1.847
0.0,3799968530.3685455,1.3562051058,64.41692655151772,4507.129121091093,1.917,0.772,-1.243,-1.975
0.0,3799968530.3685455,1.3566017151,71.44963260755135,4478.164058439384,1.846,0.682,-1.361,-2.104
0.0,3799968530.3685455,1.3569754362,79.06786279998249,4449.385139745807,1.775,0.592,-1.481,-2.234
0.0,3799968530.3685455,1.3573099375,87.4983775227436,4420.79116875633,1.708,0.506,-1.597,-2.361
0.0,3799968530.3685455,1.3576163054,96.60508789898135,4391.369690244064,1.642,0.421,-1.713,-2.487
0.0,3799968530.3685455,1.3578971624,106.6596121230258,4362.144019080488,1.578,0.337,-1.828,-2.613
0.0,3799968530.3685455,1.3581598997,117.76059735208078,4333.112852118383,1.515,0.255,-1.944,-2.741
0.0,3799968530.3685455,1.358394742,129.7179270983956,4304.274894883304,1.456,0.172,-2.055,-2.861
0.0,3799968530.3685455,1.3586183786,143.5489433353656,4273.660314969303,1.394,0.087,-2.169,-2.984
0.0,3799968530.3685455,1.358818531,157.76112696993485,4245.2180293408355,1.334,0.006,-2.279,-3.104
0.0,3799968530.3685455,1.3590054512,173.78008287493762,4215.994153984273,1.274,-0.075,-2.39,-3.224
0.0,3799968530.3685455,1.3591777086,191.4255925021086,4186.007479551019,1.213,-0.156,-2.5,-3.344
0.0,3799968530.3685455,1.3593370914,210.86281499332887,4157.19120675218,1.153,-0.235,-2.609,-3.465
0.0,3799968530.3685455,1.3594843149,232.27367963571075,4127.622774083493,1.094,-0.312,-2.718,-3.585
0.0,3799968530.3685455,1.3596196175,255.2701302661247,4098.264649809825,1.035,-0.388,-2.825,-3.704
0.0,3799968530.3685455,1.3597443104,280.54336379517133,4069.115338091966,0.978,-0.462,-2.932,-3.822
0.0,3799968530.3685455,1.3598616123,308.31879502493535,4039.243176530981,0.928,-0.529,-3.042,-3.946
0.0,3799968530.3685455,1.3599667549,338.0648362059815,4010.513660865759,0.884,-0.591,-3.149,-4.066
0.0,3799968530.3685455,1.3600640297,370.680721782576,3981.0717055349733,0.842,-0.651,-3.255,-4.185
0.0,3799968530.3685455,1.3601570129,406.44332916521273,3951.8458892843655,0.801,-0.708,-3.364,-4.308
0.0,3799968530.3685455,1.3602399826,444.6312674691088,3922.8346253952054,0.764,-0.759,-3.468,-4.426
0.0,3799968530.3685455,1.3603186607,486.4072056914614,3893.1398070156406,0.728,-0.811,-3.574,-4.546
0.0,3799968530.3685455,1.3603932858,533.3348954876208,3863.669770540693,0.696,-0.856,-3.681,-4.666
0.0,3799968530.3685455,1.3604598045,580.7644175213118,3834.4228144309195,0.668,-0.895,-3.783,-4.781
0.0,3799968530.3685455,1.3605231047,633.869711256927,3804.5211258004038,0.641,-0.935,-3.885,-4.898
0.0,3799968530.3685455,1.3605829477,691.8309709189363,3774.8526172405905,0.623,-0.96,-3.989,-5.016
0.0,3799968530.3685455,1.3606512547,770.90346906443,3737.6617831757117,0.607,-0.985,-4.118,-5.161
0.0,3799968530.3685455,1.3607131243,855.0667128846832,3700.8373629231564,0.602,-0.996,-4.243,-5.302
0.0,3799968530.3685455,1.3607703447,948.4184633008969,3663.532089914713,0.606,-0.991,-4.368,-5.443
0.0,3799968530.3685455,1.3608233929,1047.1285480508996,3626.6028624488754,0.615,-0.98,-4.491,-5.582
0.0,3799968530.3685455,1.3608726263,1158.7773561551262,3590.0458899019936,0.644,-0.942,-4.613,-5.72
0.0,3799968530.3685455,1.3609181643,1279.3813041575252,3553.0392081527184,0.675,-0.902,-4.733,-5.857
0.0,3799968530.3685455,1.3609610796,1412.537544622754,3515.6044052829798,0.728,-0.832,-4.855,-5.995
0.0,3799968530.3685455,1.3610005379,1555.965631605075,3478.5640153042373,0.789,-0.752,-4.975,-6.13
0.0,3799968530.3685455,1.3610377312,1710.015315090288,3441.9138826842905,0.875,-0.642,-5.095,-6.265
0.0,3799968530.3685455,1.3610724211,1879.3168168032685,3404.865806080549,0.971,-0.519,-5.213,-6.398
0.0,3799968530.3685455,1.3611049652,2065.3801558105292,3367.4410363771217,1.087,-0.372,-5.331,-6.53
0.0,3799968530.3685455,1.3611347675,2254.2392121524304,3331.194570682003,1.224,-0.201,-5.444,-6.657
0.0,3799968530.3685455,1.3611638546,2454.708915685031,3296.856163568906,1.373,-0.011,-5.551,-6.779
0.0,3799968530.3685455,1.3611721992,2511.88643150958,3287.0022396877516,1.419,0.049,-5.58,-6.812
0.0,3799968530.3685455,1.3611721992,54.20008904016238,4724.980276801948,1.86,0.82,-0.996,-1.651
0.0,3799968530.3685455,1.3615096807,55.84701947368309,4714.113123725611,1.841,0.795,-1.031,-1.689
0.0,3799968530.3685455,1.3618596792,56.49369748123026,4710.8578542037,1.831,0.783,-1.045,-1.704
0.0,3799968530.3685455,1.3622118235,56.49369748123026,4713.027784024217,1.829,0.782,-1.044,-1.703
0.0,3799968530.3685455,1.3625651598,56.36376558259543,4716.284552998378,1.828,0.783,-1.04,-1.697
0.0,3799968530.3685455,1.3629267216,56.104797603247064,4720.630412635905,1.828,0.785,-1.035,-1.691
0.0,3799968530.3685455,1.3632769585,55.97576014951102,4723.892435134152,1.828,0.786,-1.03,-1.685
0.0,3799968530.3685455,1.3636320829,55.84701947368309,4728.2453051179655,1.827,0.788,-1.026,-1.68
0.0,3799968530.3685455,1.3639855385,55.59042572704037,4731.512589614803,1.827,0.789,-1.022,-1.674
0.0,3799968530.3685455,1.3643215895,55.46257129579107,4734.782131851524,1.826,0.79,-1.018,-1.67
0.0,3799968530.3685455,1.3646515608,55.335010921573684,4738.053933388255,1.825,0.79,-1.015,-1.666
0.0,3799968530.3685455,1.3650028706,55.335010921573684,4740.236390350336,1.824,0.79,-1.013,-1.663
0.0,3799968530.3685455,1.3653372526,55.335010921573684,4742.419852602448,1.822,0.789,-1.012,-1.661
0.0,3799968530.3685455,1.3656723499,55.207743928075736,4744.604320607653,1.821,0.789,-1.01,-1.659
0.0,3799968530.3685455,1.3660407066,55.207743928075736,4746.789794829222,1.819,0.788,-1.009,-1.657
0.0,3799968530.3685455,1.3660815954,55.207743928075736,4747.882909415973,1.818,0.788,-1.009,-1.657
0.0,3799968530.3685455,1.3661205769,55.207743928075736,4747.882909415973,1.818,0.788,-1.009,-1.657
0.0,3799968530.3685455,1.3664757013,55.207743928075736,4750.069893831193,1.816,0.787,-1.008,-1.655
0.0,3799968530.3685455,1.3668320179,55.207743928075736,4751.163763775616,1.814,0.785,-1.009,-1.655
0.0,3799968530.3685455,1.3671841621,55.335010921573684,4753.352259428054,1.811,0.783,-1.009,-1.655
0.0,3799968530.3685455,1.3675521612,55.335010921573684,4754.4468852521,1.809,0.781,-1.011,-1.656
0.0,3799968530.3685455,1.3679175377,55.46257129579107,4754.4468852521,1.806,0.778,-1.013,-1.658
0.0,3799968530.3685455,1.3682888746,55.71857489319299,4755.541763152083,1.802,0.775,-1.016,-1.661
0.0,3799968530.3685455,1.3686107397,55.84701947368309,4754.4468852521,1.799,0.771,-1.019,-1.664
0.0,3799968530.3685455,1.368652463,55.84701947368309,4754.4468852521,1.799,0.771,-1.02,-1.665
0.0,3799968530.3685455,1.3689870834,56.104797603247064,4754.4468852521,1.795,0.767,-1.025,-1.67
0.0,3799968530.3685455,1.3693283796,56.36376558259543,4752.257885621896,1.791,0.762,-1.031,-1.677
0.0,3799968530.3685455,1.3696764708,56.754460540854716,4751.163763775616,1.786,0.756,-1.039,-1.685
0.0,3799968530.3685455,1.370013237,57.279603098582925,4747.882909415973,1.781,0.749,-1.048,-1.695
0.0,3799968530.3685455,1.3703583479,57.80960474057181,4744.604320607653,1.774,0.74,-1.06,-1.708
0.0,3799968530.3685455,1.3706959486,58.47900841444806,4740.236390350336,1.766,0.73,-1.073,-1.723
0.0,3799968530.3685455,1.3710284233,59.1561634175474,4734.782131851524,1.758,0.719,-1.088,-1.739
0.0,3799968530.3685455,1.3713674545,60.11737374832779,4729.334149186516,1.748,0.705,-1.108,-1.761
0.0,3799968530.3685455,1.371711731,61.517687270986805,4719.543572446043,1.734,0.686,-1.134,-1.79
0.0,3799968530.3685455,1.3720633984,62.66138646723353,4711.94269420276,1.72,0.669,-1.159,-1.817
0.0,3799968530.3685455,1.3724044561,65.46361740672751,4693.534343171951,1.695,0.633,-1.21,-1.874
0.0,3799968530.3685455,1.3726593256,71.28530301265195,4655.860935229591,1.643,0.56,-1.315,-1.991
0.0,3799968530.3685455,1.3727874756,78.34296427662116,4617.4265947729555,1.586,0.482,-1.428,-2.118
0.0,3799968530.3685455,1.3728539944,86.69618757582165,4576.147348863334,1.526,0.398,-1.549,-2.252
0.0,3799968530.3685455,1.3728842735,95.06047936562814,4540.461526048465,1.472,0.323,-1.659,-2.374
0.0,3799968530.3685455,1.3729012012,104.23174293933036,4504.016781680873,1.419,0.249,-1.768,-2.497
0.0,3799968530.3685455,1.3729110956,113.7627285823431,4470.951924630434,1.367,0.176,-1.874,-2.614
0.0,3799968530.3685455,1.3729176521,123.59474334445108,4440.174108068949,1.32,0.11,-1.972,-2.724
0.0,3799968530.3685455,1.3729183674,125.02590302177201,4436.086439314323,1.314,0.101,-1.985,-2.739
0.0,3799968530.3685455,1.3729184866,125.31411749414156,4435.065110253052,1.313,0.1,-1.987,-2.741
0.0,3799968530.3685455,1.3729245663,138.03842646028852,4399.466347160466,1.26,0.021,-2.1,-2.865
0.0,3799968530.3685455,1.3729298115,149.2794409578996,4371.193179262241,1.216,-0.044,-2.191,-2.964
0.0,3799968530.3685455,1.3729349375,154.170045294956,4359.131797247284,1.197,-0.071,-2.229,-3.007
0.0,3799968530.3685455,1.3729404211,158.12480392703827,4351.1093709276765,1.184,-0.091,-2.258,-3.038
0.0,3799968530.3685455,1.3729547262,158.12480392703827,4351.1093709276765,1.183,-0.092,-2.259,-3.039
0.0,3799968530.3685455,1.3729630709,153.81546403030342,4361.139713930648,1.197,-0.07,-2.228,-3.005
0.0,3799968530.3685455,1.3729814291,146.55478409559115,4379.25263541926,1.225,-0.03,-2.17,-2.941
0.0,3799968530.3685455,1.3730159998,143.21878992735438,4387.326951325295,1.238,-0.01,-2.143,-2.911
0.0,3799968530.3685455,1.3732047081,139.63683610559377,4396.428352878889,1.252,0.01,-2.114,-2.88
0.0,3799968530.3685455,1.3733814955,146.21771744567184,4378.244391318432,1.227,-0.028,-2.168,-2.94
0.0,3799968530.3685455,1.3735291958,159.95580286146696,4346.102853675936,1.177,-0.101,-2.273,-3.055
0.0,3799968530.3685455,1.3736555576,176.6037820686164,4310.225580049957,1.124,-0.18,-2.386,-3.179
0.0,3799968530.3685455,1.3737608194,194.53600816226634,4276.613474797276,1.069,-0.258,-2.497,-3.302
0.0,3799968530.3685455,1.3738491535,213.79620895022325,4242.286549229506,1.016,-0.333,-2.606,-3.423
0.0,3799968530.3685455,1.3739253283,234.42288153199226,4209.2042477683635,0.963,-0.408,-2.713,-3.543
0.0,3799968530.3685455,1.3739914894,257.63211570025754,4176.379929509739,0.909,-0.482,-2.82,-3.662
0.0,3799968530.3685455,1.3740503788,282.48799749157075,4143.811582642788,0.856,-0.553,-2.927,-3.782
0.0,3799968530.3685455,1.3741042614,310.45595881283555,4111.497211045221,0.805,-0.623,-3.036,-3.905
0.0,3799968530.3685455,1.3741537333,341.1929116219285,4077.556617502122,0.762,-0.688,-3.147,-4.031
0.0,3799968530.3685455,1.374199748,375.8374042884443,4039.243176530981,0.73,-0.742,-3.258,-4.16
0.0,3799968530.3685455,1.374232769,403.64539296760483,3992.087024388079,0.738,-0.758,-3.347,-4.272
0.0,3799968530.3685455,1.374273777,444.6312674691088,3952.7559401972776,0.711,-0.804,-3.461,-4.404
0.0,3799968530.3685455,1.3743120432,488.6523593428336,3919.2232245497667,0.676,-0.856,-3.572,-4.53
0.0,3799968530.3685455,1.3743481636,537.0317963702527,3885.974979543936,0.643,-0.906,-3.684,-4.659
0.0,3799968530.3685455,1.3743847609,591.5616341754737,3852.1217059810283,0.615,-0.948,-3.798,-4.788
0.0,3799968530.3685455,1.3744188547,648.6344335482381,3817.684194975441,0.593,-0.984,-3.908,-4.914
0.0,3799968530.3685455,1.3744450808,704.6930689671467,3786.169041033592,0.579,-1.008,-4.007,-5.028
0.0,3799968530.3685455,1.3744616508,755.0922276654342,3760.971132597691,0.573,-1.019,-4.089,-5.121
0.0,3799968530.3685455,1.3744748831,805.3784411990669,3736.801253821156,0.569,-1.029,-4.166,-5.21
0.0,3799968530.3685455,1.3744865656,868.960429286302,3707.660840003112,0.568,-1.035,-4.259,-5.315
0.0,3799968530.3685455,1.3744974136,944.0608762859235,3675.360977714797,0.578,-1.024,-4.359,-5.429
0.0,3799968530.3685455,1.3745070696,1023.2929922807537,3643.342500684969,0.591,-1.01,-4.459,-5.542
0.0,3799968530.3685455,1.3745164871,1111.7317272815908,3609.940135864167,0.616,-0.979,-4.561,-5.66
0.0,3799968530.3685455,1.3745262623,1216.1860006463678,3573.5511273490297,0.655,-0.931,-4.672,-5.787
0.0,3799968530.3685455,1.3745373487,1352.0725631942764,3529.3928374635293,0.716,-0.852,-4.804,-5.937
0.0,3799968530.3685455,1.3745496273,1499.684835502374,3485.7802105603496,0.797,-0.747,-4.933,-6.085
0.0,3799968530.3685455,1.3745613098,1636.8165214278085,3449.0540481442044,0.886,-0.635,-5.042,-6.209
0.0,3799968530.3685455,1.3745658398,1492.794409578996,3486.582933528731,0.799,-0.746,-4.928,-6.079
0.0,3799968530.3685455,1.3745675087,1655.7699634695275,3442.7065038944434,0.903,-0.615,-5.059,-6.228
0.0,3799968530.3685455,1.3745678663,1694.3378004473288,3433.2070842609537,0.929,-0.582,-5.086,-6.26
0.0,3799968530.3685455,1.3745679855,1706.0823890031243,3430.0464394337664,0.939,-0.569,-5.097,-6.271
0.0,3799968530.3685455,1.374568224,1725.837891990204,3425.3109270831965,0.953,-0.551,-5.111,-6.288
0.0,3799968530.3685455,1.3745684624,1745.8221529205039,3419.794425137087,0.967,-0.533,-5.127,-6.305
0.0,3799968530.3685455,1.3745685816,1761.976046411629,3415.8595068605546,0.979,-0.518,-5.138,-6.319
0.0,3799968530.3685455,1.3745689392,1790.6058540352947,3409.5730529319967,0.997,-0.495,-5.157,-6.34
0.0,3799968530.3685455,1.3745691776,1819.7008586099826,3402.5146202702363,1.017,-0.47,-5.178,-6.363
0.0,3799968530.3685455,1.3745696545,1866.3796908346694,3390.783022519265,1.049,-0.429,-5.21,-6.401
0.0,3799968530.3685455,1.3745703697,1936.4219639466069,3374.4267097541338,1.108,-0.354,-5.259,-6.456
0.0,3799968530.3685455,1.3745713234,2032.3570109362208,3353.5130445056075,1.188,-0.254,-5.321,-6.526
0.0,3799968530.3685455,1.3745725155,1753.880501841762,3415.8595068605546,0.984,-0.513,-5.134,-6.314
0.0,3799968530.3685455,1.3745740652,1581.2480392703826,3455.413295778485,0.883,-0.642,-5.002,-6.167
0.0,3799968530.3685455,1.3745763302,2009.0928126087279,3355.057749988978,1.191,-0.253,-5.306,-6.51
0.0,3799968530.3685455,1.3745791912,2338.837238659356,3288.51630875983,1.479,0.112,-5.501,-6.733
0.0,3799968530.3685455,1.3745793104,2338.837238659356,3288.51630875983,1.478,0.112,-5.501,-6.733
0.0,3799968530.3685455,1.3745795488,1303.1667784523,3539.9734108343464,0.71,-0.865,-4.76,-5.889
0.0,3799968530.3685455,1.374579668,1044.7202192208003,3638.3125123993877,0.587,-1.016,-4.485,-5.571
0.0,3799968530.3685455,1.3745801449,674.5280276979222,3840.6081572581174,0.509,-1.069,-3.945,-4.94
0.0,3799968530.3685455,1.3745807409,703.0723198838334,3819.442708400464,0.511,-1.075,-3.995,-4.999
0.0,3799968530.3685455,1.3745815754,918.332596483581,3693.175960479867,0.557,-1.049,-4.324,-5.386
0.0,3799968530.3685455,1.3745826483,1330.4544179780914,3526.1436430685917,0.75,-0.815,-4.786,-5.921
0.0,3799968530.3685455,1.3745839596,1828.1002161427427,3386.881485634765,1.093,-0.379,-5.191,-6.383
0.0,3799968530.3685455,1.3745853901,2264.6443075930597,3295.3382547359615,1.458,0.083,-5.464,-6.692
0.0,3799968530.3685455,1.3745871782,2546.8302525850418,3244.1430790488475,1.716,0.419,-5.614,-6.864
0.0,3799968530.3685455,1.3745890856,2710.1916318908416,3216.6217928790406,1.84,0.581,-5.693,-6.953
0.0,3799968530.3685455,1.3745912313,2824.8799749157074,3196.686154267323,1.931,0.698,-5.746,-7.014
0.0,3799968530.3685455,1.3745913506,1840.7720014689564,3370.5439929348295,1.181,-0.272,-5.205,-6.403
0.0,3799968530.3685455,1.374591589,1279.3813041575252,3525.3318119588625,0.789,-0.773,-4.745,-5.881
0.0,3799968530.3685455,1.3745920658,824.1381150130021,3723.059697665676,0.582,-1.021,-4.196,-5.245
0.0,3799968530.3685455,1.3745927811,855.0667128846832,3705.953792179554,0.592,-1.011,-4.241,-5.298
0.0,3799968530.3685455,1.3745937347,1106.6237839776663,3588.3929932948636,0.7,-0.886,-4.564,-5.672
0.0,3799968530.3685455,1.3745949268,1584.893192461114,3430.8363277495027,1.005,-0.497,-5.014,-6.189
0.0,3799968530.3685455,1.3745963573,2152.781734724374,3301.4140864591145,1.463,0.082,-5.405,-6.631
0.0,3799968530.3685455,1.3745980263,2630.2679918953813,3218.103443093442,1.856,0.596,-5.659,-6.919
0.0,3799968530.3685455,1.3745999336,2917.427014001166,3174.6803215678747,2.046,0.843,-5.791,-7.068
0.0,3799968530.3685455,1.3746020794,3061.963433690679,3154.278240344361,2.142,0.964,-5.852,-7.138
0.0,3799968530.3685455,1.3746044636,3140.5086938762165,3141.9552846410716,2.194,1.028,-5.885,-7.176
0.0,3799968530.3685455,1.3746045828,2089.296130854039,3306.739627988452,1.451,0.063,-5.37,-6.594
0.0,3799968530.3685455,1.3746048212,1455.4590805819653,3459.3937782612206,0.943,-0.579,-4.911,-6.074
0.0,3799968530.3685455,1.3746054173,937.5620069258802,3655.9479161312506,0.644,-0.955,-4.359,-5.438
0.0,3799968530.3685455,1.3746062517,972.747223776965,3639.1503612720708,0.658,-0.94,-4.404,-5.49
0.0,3799968530.3685455,1.3746073246,1253.1411749414156,3523.7087104248726,0.818,-0.741,-4.722,-5.859
0.0,3799968530.3685455,1.3746086359,1778.2794100389228,3370.5439929348295,1.216,-0.235,-5.167,-6.366
0.0,3799968530.3685455,1.3746101856,2398.83291901949,3243.3961734934933,1.778,0.488,-5.548,-6.799
0.0,3799968530.3685455,1.3746119738,2917.427014001166,3162.2776601683795,2.131,0.948,-5.796,-7.078
0.0,3799968530.3685455,1.3746141195,3228.4941217126348,3120.326216598013,2.304,1.158,-5.923,-7.223
0.0,3799968530.3685455,1.3746165037,3372.873086588689,3099.559659837377,2.39,1.261,-5.981,-7.288
0.0,3799968530.3685455,1.3746191263,3459.3937782612206,3088.1614691845125,2.44,1.318,-6.012,-7.324
0.0,3799968530.3685455,1.3746192455,2349.6328208483073,3244.1430790488475,1.795,0.506,-5.526,-6.777
0.0,3799968530.3685455,1.3746196032,1648.1623915255086,3395.4707998402328,1.149,-0.323,-5.072,-6.261
0.0,3799968530.3685455,1.3746201992,1061.6955571987241,3591.6995478714375,0.731,-0.854,-4.516,-5.622
0.0,3799968530.3685455,1.3746210337,1099.0058394325208,3575.197187450261,0.755,-0.825,-4.56,-5.674
0.0,3799968530.3685455,1.3746221066,1409.2887984218748,3461.784268375584,0.967,-0.556,-4.873,-6.036
0.0,3799968530.3685455,1.3746235371,1976.96964011186,3312.0737601979727,1.47,0.078,-5.309,-6.531
0.0,3799968530.3685455,1.374625206,2648.500138606701,3187.8655756958997,2.044,0.828,-5.679,-6.95
0.0,3799968530.3685455,1.3746272326,3198.895109691397,3108.8516598805636,2.381,1.246,-5.917,-7.22
0.0,3799968530.3685455,1.3746294975,3515.6044052829798,3067.608976917938,2.511,1.377,-6.039,-7.358
0.0,3799968530.3685455,1.3746320009,3664.3757464783334,3049.2989203838,2.558,1.411,-6.093,-7.417
0.0,3799968530.3685455,1.3746348619,3741.105882720533,3038.785182061179,2.587,1.432,-6.12,-7.448
0.0,3799968530.3685455,1.3746349812,2624.218543384442,3184.1975217261256,2.077,0.867,-5.671,-6.944
0.0,3799968530.3685455,1.3746353388,1845.0154191794736,3335.031958716416,1.394,-0.021,-5.223,-6.435
0.0,3799968530.3685455,1.3746359348,1191.242008027375,3533.4585410890204,0.832,-0.733,-4.663,-5.795
0.0,3799968530.3685455,1.3746367693,1233.1048332289097,3516.4139963166635,0.868,-0.687,-4.708,-5.847
0.0,3799968530.3685455,1.3746379614,1570.3628043335532,3404.081897010009,1.152,-0.327,-5.017,-6.203
0.0,3799968530.3685455,1.3746393919,2187.761623949552,3256.8668220166983,1.775,0.467,-5.441,-6.686
0.0,3799968530.3685455,1.37464118,2897.3435877013244,3134.007273083861,2.31,1.155,-5.8,-7.094
0.0,3799968530.3685455,1.3746432066,3483.3731503601166,3056.3282803659663,2.573,1.433,-6.033,-7.355
0.0,3799968530.3685455,1.3746454716,3819.442708400464,3015.0880540378826,2.671,1.501,-6.152,-7.488
0.0,3799968530.3685455,1.3746480942,3981.0717055349733,2996.4014599344437,2.708,1.523,-6.204,-7.545
0.0,3799968530.3685455,1.3746510744,4064.4332916521275,2984.695288301337,2.732,1.539,-6.232,-7.576
0.0,3799968530.3685455,1.3746511936,2944.4216337987605,3118.8895840939385,2.392,1.251,-5.823,-7.123
0.0,3799968530.3685455,1.3746515512,2079.696687103696,3269.640468343053,1.726,0.398,-5.382,-6.621
0.0,3799968530.3685455,1.3746521473,1345.8603540559484,3469.764505288517,0.978,-0.552,-4.82,-5.979
0.0,3799968530.3685455,1.374653101,1393.1568029453035,3452.2322076905675,1.03,-0.486,-4.866,-6.032
0.0,3799968530.3685455,1.3746541739,1761.976046411629,3341.1809763304277,1.407,-0.013,-5.17,-6.38
0.0,3799968530.3685455,1.3746557236,2426.6100950824143,3195.2143648082215,2.081,0.859,-5.581,-6.849
0.0,3799968530.3685455,1.3746575117,3184.1975217261256,3074.680545939635,2.574,1.448,-5.928,-7.243
0.0,3799968530.3685455,1.3746595383,3793.1498497368207,2996.4014599344437,2.748,1.567,-6.152,-7.492
0.0,3799968530.3685455,1.3746619225,4149.5404263436285,2955.2892906487523,2.826,1.614,-6.267,-7.619
0.0,3799968530.3685455,1.3746645451,4315.19076827765,2934.945222269793,2.86,1.635,-6.318,-7.675
0.0,3799968530.3685455,1.3746675253,4405.548635065535,2922.8060659319312,2.884,1.651,-6.346,-7.705
0.0,3799968530.3685455,1.3746676445,3303.6954103681487,3045.089066974223,2.674,1.529,-5.981,-7.306
0.0,3799968530.3685455,1.3746680021,2349.6328208483073,3195.9501748147595,2.113,0.89,-5.545,-6.813
0.0,3799968530.3685455,1.3746685982,1520.5475297324954,3397.8171182708334,1.222,-0.254,-4.985,-6.173
0.0,3799968530.3685455,1.3746694326,1573.9828644662198,3379.8700286198914,1.29,-0.17,-5.031,-6.225
0.0,3799968530.3685455,1.3746706247,1976.96964011186,3268.8876924727197,1.788,0.462,-5.326,-6.566
0.0,3799968530.3685455,1.3746720552,2685.344445658506,3124.640085806112,2.446,1.303,-5.721,-7.018
0.0,3799968530.3685455,1.3746737242,3483.3731503601166,3004.692272040942,2.796,1.624,-6.056,-7.394
0.0,3799968530.3685455,1.3746757507,4120.975190973304,2927.520871369441,2.928,1.701,-6.271,-7.628
0.0,3799968530.3685455,1.3746780157,4487.453899331323,2886.0244097569725,3.003,1.745,-6.381,-7.75
0.0,3799968530.3685455,1.3746806383,4666.593803142887,2864.8375471900267,3.044,1.781,-6.43,-7.804
0.0,3799968530.3685455,1.3746834993,4753.352259428054,2851.0182675039096,3.072,1.808,-6.456,-7.832
0.0,3799968530.3685455,1.3746836185,3689.775985701505,2960.0564950758185,2.922,1.717,-6.135,-7.485
0.0,3799968530.3685455,1.3746839762,2636.3313858253787,3110.999920424558,2.558,1.427,-5.706,-7.008
0.0,3799968530.3685455,1.374684453,1710.015315090288,3315.8891219088578,1.604,0.207,-5.15,-6.37
0.0,3799968530.3685455,1.3746854067,1770.108958317422,3295.3382547359615,1.712,0.344,-5.195,-6.424
0.0,3799968530.3685455,1.3746864796,2202.9264630534562,3182.7314821707823,2.266,1.06,-5.483,-6.755
0.0,3799968530.3685455,1.3746877909,2958.0124665515464,3037.3860919461044,2.816,1.67,-5.864,-7.192
0.0,3799968530.3685455,1.3746894598,3801.8939632056126,2916.0837985212315,3.046,1.817,-6.186,-7.545
0.0,3799968530.3685455,1.3746913671,4456.562483975033,2836.6124193125147,3.179,1.918,-6.392,-7.77
0.0,3799968530.3685455,1.3746936321,4841.7236758409945,2791.2581233434744,3.245,1.993,-6.498,-7.881
0.0,3799968530.3685455,1.3746961355,5011.872336272725,2766.9416454115126,3.288,2.045,-6.546,-7.933
0.0,3799968530.3685455,1.3746988773,5105.049999754065,2749.1598965510393,3.327,2.091,-6.572,-7.961
0.0,3799968530.3685455,1.3746989965,4092.6065973001096,2847.7378001737457,3.232,1.972,-6.295,-7.67
0.0,3799968530.3685455,1.374699235,2944.4216337987605,3000.5440024430936,2.993,1.819,-5.874,-7.213
0.0,3799968530.3685455,1.374699831,1914.255925021086,3213.660538640318,2.223,0.972,-5.317,-6.578
0.0,3799968530.3685455,1.3747006655,1981.527025805099,3193.7432529771722,2.324,1.1,-5.361,-6.63
0.0,3799968530.3685455,1.3747016191,2449.0632418447444,3079.6403415023933,2.836,1.713,-5.64,-6.954
0.0,3799968530.3685455,1.3747029305,3243.3961734934933,2933.593941214125,3.168,1.945,-6.008,-7.364
0.0,3799968530.3685455,1.3747044802,4111.497211045221,2812.5483690402266,3.367,2.102,-6.315,-7.697
0.0,3799968530.3685455,1.3747063875,4786.300923226385,2736.5286541924665,3.455,2.22,-6.509,-7.902
0.0,3799968530.3685455,1.3747084141,5164.163692720711,2701.4690729572467,3.499,2.281,-6.606,-8.006
0.0,3799968530.3685455,1.3747107983,5345.643593969719,2692.774586958958,3.511,2.288,-6.646,-8.05
0.0,3799968530.3685455,1.3747134209,5432.503314924331,2700.225286888239,3.493,2.251,-6.663,-8.07
