FeH,Age,Mini,L,Te,Bmag,Vmag,Jmag,Kmag
-0.5,3099987909.411186,0.0900000036,0.00047097732639695295,2543.899793129798,19.68,17.692,10.951,10.253
-0.5,3099987909.411186,0.1000000015,0.0007620790100254123,2724.58273325773,18.484,16.574,10.483,9.739
-0.5,3099987909.411186,0.1199999973,0.001412537544622754,2934.269503955967,16.747,14.963,9.906,9.11
-0.5,3099987909.411186,0.1400000006,0.00216271852372702,3068.315401315068,15.71,13.986,9.5,8.687
-0.5,3099987909.411186,0.1470290422,0.0024378108183687524,3102.4157748720872,15.447,13.738,9.384,8.568
-0.5,3099987909.411186,0.1599999964,0.0029991625189876503,3162.2776601683795,15.01,13.331,9.182,8.364
-0.5,3099987909.411186,0.1999999881,0.004931738039549359,3295.3382547359615,14.063,12.444,8.694,7.873
-0.5,3099987909.411186,0.25,0.007816278045883293,3404.865806080549,13.286,11.723,8.232,7.411
-0.5,3099987909.411186,0.3000000119,0.011271974561755105,3482.571166386543,12.719,11.196,7.862,7.04
-0.5,3099987909.411186,0.3090923429,0.012078138351067804,3494.6203372688556,12.62,11.103,7.792,6.97
-0.5,3099987909.411186,0.3499999642,0.01614358556826486,3547.316998366914,12.2,10.709,7.494,6.669
-0.5,3099987909.411186,0.3999999762,0.022803420720004186,3641.665065732136,11.659,10.206,7.154,6.326
-0.5,3099987909.411186,0.4499999881,0.03326595532940045,3761.8372279132846,11.058,9.65,6.784,5.954
-0.5,3099987909.411186,0.4999999404,0.04977370849789361,3926.449353995997,10.394,9.049,6.4,5.573
-0.5,3099987909.411186,0.5500000119,0.07603262769401818,4159.106104940223,9.639,8.403,6.0,5.192
-0.5,3099987909.411186,0.5907933116,0.10665961212302578,4392.380956904633,8.978,7.863,5.692,4.926
-0.5,3099987909.411186,0.5999999642,0.1148153621496883,4444.265543439951,8.828,7.743,5.627,4.874
-0.5,3099987909.411186,0.6499999166,0.17021585083949506,4762.116327398207,8.031,7.101,5.289,4.633
-0.5,3099987909.411186,0.667893827,0.19498445997580455,4871.918336436785,7.782,6.894,5.177,4.558
-0.5,3099987909.411186,0.6999999881,0.24660393372343392,5067.572841772825,7.375,6.554,4.984,4.424
-0.5,3099987909.411186,0.7476899028,0.3435579478998746,5354.266700982399,6.837,6.102,4.716,4.231
-0.5,3099987909.411186,0.7487857342,0.34593937782612194,5360.43457816143,6.825,6.093,4.71,4.226
-0.5,3099987909.411186,0.7706606984,0.39994474976109745,5476.461009618943,6.607,5.908,4.59,4.133
-0.5,3099987909.411186,0.7975714207,0.4775292736576909,5618.236281342279,6.352,5.69,4.447,4.021
-0.5,3099987909.411186,0.7987407446,0.48083934844972853,5623.413251903491,6.341,5.681,4.441,4.016
-0.5,3099987909.411186,0.8374404907,0.6151768727098681,5807.644175213118,5.998,5.388,4.237,3.848
-0.5,3099987909.411186,0.8463571072,0.6501296903430906,5849.247525411862,5.921,5.322,4.19,3.809
-0.5,3099987909.411186,0.8672732711,0.7413102413009175,5937.450473021954,5.747,5.173,4.081,3.716
-0.5,3099987909.411186,0.8951427937,0.8790225168308843,6052.01505912521,5.52,4.978,3.937,3.594
-0.5,3099987909.411186,0.8953222632,0.881048873008014,6052.01505912521,5.518,4.977,3.937,3.593
-0.5,3099987909.411186,0.9153319597,0.995405417351527,6126.324544438646,5.36,4.84,3.831,3.501
-0.5,3099987909.411186,0.934397459,1.1168632477805611,6195.837230776552,5.212,4.71,3.731,3.412
-0.5,3099987909.411186,0.9439284801,1.1830415557251648,6228.7370894402875,5.139,4.646,3.68,3.367
-0.5,3099987909.411186,0.9590536356,1.297179270983956,6282.029912455561,5.023,4.544,3.599,3.294
-0.5,3099987909.411186,0.9780951142,1.455459080581966,6345.999009812872,4.879,4.416,3.497,3.202
-0.5,3099987909.411186,0.9927142262,1.588546748597779,6394.402945292843,4.77,4.318,3.418,3.131
-0.5,3099987909.411186,0.9959395528,1.6180800376430657,6404.717815693422,4.745,4.296,3.401,3.115
-0.5,3099987909.411186,1.012652874,1.7906058540352943,6461.003852547145,4.62,4.185,3.311,3.034
-0.5,3099987909.411186,1.027586937,1.9588446735059897,6508.786108404092,4.51,4.085,3.231,2.961
-0.5,3099987909.411186,1.0414998531,2.128139045982712,6553.9028583347745,4.407,3.992,3.155,2.892
-0.5,3099987909.411186,1.055196166,2.306747188720069,6597.8129651395675,4.306,3.901,3.081,2.825
-0.5,3099987909.411186,1.0701200962,2.523480772480575,6645.076729077792,4.197,3.802,3.0,2.751
-0.5,3099987909.411186,1.083739996,2.735268726306712,6686.517721976395,4.098,3.712,2.926,2.683
-0.5,3099987909.411186,1.0902856588,2.844461107447916,6705.0188016284155,4.051,3.669,2.89,2.65
-0.5,3099987909.411186,1.091676712,2.864177969906581,6709.652064618787,4.041,3.66,2.883,2.643
-0.5,3099987909.411186,1.1017789841,3.040885025676279,6737.518954705829,3.97,3.595,2.829,2.593
-0.5,3099987909.411186,1.1194200516,3.3573761424295467,6776.41507610675,3.853,3.485,2.734,2.504
-0.5,3099987909.411186,1.1338509321,3.6224299841669865,6796.72971950456,3.762,3.399,2.657,2.43
-0.5,3099987909.411186,1.1390712261,3.7239170625456848,6801.426356038562,3.731,3.369,2.629,2.403
-0.5,3099987909.411186,1.1584113836,4.092606597300109,6796.72971950456,3.628,3.266,2.525,2.299
-0.5,3099987909.411186,1.187857151,4.709773263969529,6763.943948096019,3.478,3.112,2.361,2.131
-0.5,3099987909.411186,1.20213449,5.05824662003114,6739.070504398616,3.404,3.034,2.274,2.041
-0.5,3099987909.411186,1.2158589363,5.432503314924332,6712.74268517048,3.332,2.958,2.189,1.952
-0.5,3099987909.411186,1.2366427183,6.397348354826482,6790.472582051879,3.134,2.775,2.038,1.812
-0.5,3099987909.411186,1.2397632599,6.714288529259523,6854.882264526614,3.066,2.719,2.007,1.791
-0.5,3099987909.411186,1.241376996,7.11213513653329,6959.851927647889,2.98,2.652,1.978,1.776
-0.5,3099987909.411186,1.242123127,7.481695005111543,7046.930689671467,2.905,2.591,1.95,1.76
-0.5,3099987909.411186,1.2424336672,7.67361489361819,7079.457843841381,2.872,2.563,1.935,1.749
-0.5,3099987909.411186,1.2429760695,7.726805850957024,7008.095316467937,2.879,2.559,1.905,1.71
-0.5,3099987909.411186,1.2451878786,7.943282347242816,6902.398038402419,2.868,2.532,1.839,1.63
-0.5,3099987909.411186,1.2543218136,8.550667128846834,6715.83472933331,2.825,2.457,1.696,1.462
-0.5,3099987909.411186,1.2624812126,9.057326008982,6538.8293000474205,2.805,2.403,1.575,1.315
-0.5,3099987909.411186,1.2681460381,9.311078754678302,6366.489102003723,2.821,2.381,1.485,1.199
-0.5,3099987909.411186,1.2715144157,9.33254300796991,6227.303034831227,2.863,2.389,1.436,1.127
-0.5,3099987909.411186,1.2742859125,9.162204901219997,6084.151222917084,2.931,2.421,1.406,1.072
-0.5,3099987909.411186,1.2766370773,8.830799004185627,5938.817778927777,3.027,2.477,1.397,1.034
-0.5,3099987909.411186,1.2786676884,8.336811846196344,5796.955946535209,3.145,2.554,1.408,1.018
-0.5,3099987909.411186,1.2804909945,7.888601176185544,5666.305684096034,3.262,2.636,1.427,1.009
-0.5,3099987909.411186,1.282205224,7.5857757502918375,5552.646171195634,3.354,2.697,1.431,0.989
-0.5,3099987909.411186,1.2842186689,7.550922276654339,5447.534633275434,3.409,2.723,1.402,0.936
-0.5,3099987909.411186,1.2854282856,7.709034690644301,5400.077590665929,3.411,2.711,1.365,0.888
-0.5,3099987909.411186,1.2877514362,8.109610578538408,5332.1210472698,3.389,2.67,1.286,0.792
-0.5,3099987909.411186,1.2898546457,8.81048873008014,5292.97691687475,3.321,2.59,1.185,0.681
-0.5,3099987909.411186,1.2926194668,10.0,5250.491986747626,3.207,2.463,1.034,0.52
-0.5,3099987909.411186,1.2950514555,11.297959146727976,5220.354551033096,3.091,2.338,0.89,0.368
-0.5,3099987909.411186,1.2973357439,12.823305826560219,5192.78091540883,2.971,2.209,0.746,0.216
-0.5,3099987909.411186,1.2992471457,14.35489433353656,5170.112579686548,2.863,2.093,0.616,0.08
-0.5,3099987909.411186,1.3010661602,16.106456351782708,5146.35807013727,2.752,1.974,0.482,-0.06
-0.5,3099987909.411186,1.3025957346,17.906058540352937,5123.892386646796,2.65,1.865,0.36,-0.188
-0.5,3099987909.411186,1.3040239811,19.952623149688797,5100.350239594463,2.546,1.754,0.234,-0.32
-0.5,3099987909.411186,1.3053070307,22.284351492703042,5075.747390289013,2.442,1.642,0.108,-0.453
-0.5,3099987909.411186,1.3064410686,24.774220576332848,5051.263219145947,2.342,1.534,-0.015,-0.583
-0.5,3099987909.411186,1.307444334,27.352687263067125,5028.054772806391,2.249,1.434,-0.131,-0.705
-0.5,3099987909.411186,1.3083496094,30.13006024186122,5004.95295959168,2.161,1.337,-0.243,-0.824
-0.5,3099987909.411186,1.3091522455,33.036954103681474,4981.957289567119,2.079,1.246,-0.349,-0.938
-0.5,3099987909.411186,1.3098949194,36.14098626396133,4959.067275049038,1.999,1.157,-0.455,-1.05
-0.5,3099987909.411186,1.3105819225,39.53666200681279,4936.28243059449,1.919,1.068,-0.559,-1.161
-0.5,3099987909.411186,1.3111723661,42.95364267648873,4914.733801992678,1.846,0.987,-0.655,-1.264
-0.5,3099987909.411186,1.3117353916,46.665938031428865,4893.279240819371,1.772,0.905,-0.752,-1.368
-0.5,3099987909.411186,1.3122558594,50.5824662003114,4871.918336436785,1.702,0.827,-0.846,-1.469
-0.5,3099987909.411186,1.3127163649,54.32503314924333,4851.7677121925735,1.639,0.757,-0.931,-1.56
-0.5,3099987909.411186,1.3131616116,58.21032177708713,4832.813100695309,1.583,0.692,-1.01,-1.645
-0.5,3099987909.411186,1.3136286736,61.80164001384158,4817.25903559163,1.532,0.633,-1.08,-1.721
-0.5,3099987909.411186,1.3140770197,64.41692655151772,4806.1796472595415,1.496,0.592,-1.13,-1.773
-0.5,3099987909.411186,1.3146908283,59.02010801718442,4836.152643020435,1.566,0.676,-1.024,-1.658
-0.5,3099987909.411186,1.3149403334,55.71857489319299,4854.002548344871,1.612,0.73,-0.956,-1.584
-0.5,3099987909.411186,1.3150589466,57.016427228074754,4847.301126243664,1.592,0.707,-0.983,-1.614
-0.5,3099987909.411186,1.3155529499,62.95061828571975,4819.477976251272,1.51,0.612,-1.099,-1.739
-0.5,3099987909.411186,1.3160339594,69.3425806016569,4791.814529082236,1.429,0.517,-1.215,-1.863
-0.5,3099987909.411186,1.3164852858,76.38357835776907,4763.212971455834,1.351,0.425,-1.329,-1.986
-0.5,3099987909.411186,1.3168992996,84.13951416451951,4735.872481253356,1.276,0.336,-1.44,-2.105
-0.5,3099987909.411186,1.3172945976,92.46981739382225,4707.604832565835,1.2,0.246,-1.553,-2.227
-0.5,3099987909.411186,1.3176642656,101.85913880541169,4679.505908852532,1.124,0.155,-1.666,-2.35
-0.5,3099987909.411186,1.3180100918,112.2018454301963,4650.503761666063,1.051,0.066,-1.779,-2.472
-0.5,3099987909.411186,1.3183200359,123.02687708123811,4621.681360922446,0.981,-0.019,-1.889,-2.591
-0.5,3099987909.411186,1.3186129332,135.51894123510365,4591.980128368686,0.909,-0.106,-2.0,-2.712
-0.5,3099987909.411186,1.318882823,148.59356422870076,4563.520439214676,0.844,-0.192,-2.111,-2.831
-0.5,3099987909.411186,1.319134593,163.30519478943347,4534.192977790139,0.784,-0.278,-2.222,-2.95
-0.5,3099987909.411186,1.3193687201,179.47336268325265,4504.016781680873,0.724,-0.364,-2.332,-3.069
-0.5,3099987909.411186,1.319580555,196.7886289706845,4475.071720476557,0.666,-0.448,-2.44,-3.185
-0.5,3099987909.411186,1.3197830915,216.271852372702,4445.28899122317,0.608,-0.532,-2.55,-3.304
-0.5,3099987909.411186,1.3199671507,237.13737056616552,4415.704473533126,0.553,-0.613,-2.658,-3.421
-0.5,3099987909.411186,1.3201357126,260.0159563165272,4386.316848258552,0.499,-0.694,-2.765,-3.537
-0.5,3099987909.411186,1.320294261,285.10182675039096,4357.124805030842,0.445,-0.774,-2.872,-3.654
-0.5,3099987909.411186,1.3204369545,311.17163371060167,4328.127042202217,0.396,-0.85,-2.975,-3.767
-0.5,3099987909.411186,1.3205755949,341.1929116219285,4298.3324252156535,0.343,-0.929,-3.082,-3.884
-0.5,3099987909.411186,1.3206995726,373.2501577957206,4269.725940480334,0.294,-1.0,-3.185,-3.999
-0.5,3099987909.411186,1.3208173513,407.3802778041126,4240.333353850188,0.245,-1.07,-3.289,-4.115
-0.5,3099987909.411186,1.3209279776,445.6562483975033,4211.143104363183,0.198,-1.139,-3.393,-4.233
-0.5,3099987909.411186,1.3210291862,487.5284901033865,4183.116886514957,0.153,-1.205,-3.495,-4.348
-0.5,3099987909.411186,1.3211244345,532.1082592667942,4154.320512418612,0.108,-1.272,-3.597,-4.462
-0.5,3099987909.411186,1.321213603,580.7644175213118,4125.7223711671995,0.067,-1.335,-3.698,-4.577
-0.5,3099987909.411186,1.3212966919,632.4118513762197,4097.321098135413,0.026,-1.398,-3.798,-4.69
-0.5,3099987909.411186,1.3213756084,690.239803840242,4070.0523944023344,-0.016,-1.461,-3.899,-4.804
-0.5,3099987909.411186,1.3214474916,751.6228940182053,4041.103745134904,-0.051,-1.519,-3.996,-4.915
-0.5,3099987909.411186,1.3215162754,818.4647881347895,4014.209182043213,-0.088,-1.577,-4.094,-5.028
-0.5,3099987909.411186,1.3215805292,891.2509381337459,3986.5755604057836,-0.121,-1.634,-4.193,-5.14
-0.5,3099987909.411186,1.3216538429,986.279485631211,3951.8458892843655,-0.154,-1.697,-4.311,-5.276
-0.5,3099987909.411186,1.3217097521,1071.519305237606,3924.641573534599,-0.18,-1.747,-4.407,-5.386
-0.5,3099987909.411186,1.321762681,1166.8096170609629,3897.6245309771994,-0.206,-1.796,-4.503,-5.496
-0.5,3099987909.411186,1.3218226433,1288.2495516931335,3864.55951581426,-0.233,-1.85,-4.618,-5.628
-0.5,3099987909.411186,1.3218780756,1419.0575216890927,3830.8928063841463,-0.256,-1.9,-4.731,-5.759
-0.5,3099987909.411186,1.3219305277,1566.7510701081485,3797.519389713327,-0.276,-1.948,-4.845,-5.891
-0.5,3099987909.411186,1.3219799995,1729.8163592151016,3763.5700169367306,-0.291,-1.986,-4.96,-6.022
-0.5,3099987909.411186,1.3220256567,1901.0782799232995,3729.9241475247336,-0.304,-2.022,-5.071,-6.151
-0.5,3099987909.411186,1.3220678568,2084.4908830972886,3698.281797802663,-0.306,-2.044,-5.179,-6.275
-0.5,3099987909.411186,1.3221080303,2275.0974307720717,3666.9078820369723,-0.301,-2.056,-5.283,-6.394
-0.5,3099987909.411186,1.3221193552,2328.091257665008,3658.474227939712,-0.299,-2.059,-5.31,-6.426
-0.5,3099987909.411186,1.3221193552,63.53309318517436,5026.897153690667,1.339,0.517,-1.049,-1.623
-0.5,3099987909.411186,1.3225432634,65.31305526474723,5015.335611066592,1.318,0.491,-1.082,-1.66
-0.5,3099987909.411186,1.3229572773,66.22165037017619,5010.718442871759,1.307,0.479,-1.098,-1.677
-0.5,3099987909.411186,1.3233798742,66.52731562017412,5010.718442871759,1.301,0.472,-1.104,-1.683
-0.5,3099987909.411186,1.3238073587,66.68067692136222,5014.180920308942,1.297,0.469,-1.105,-1.683
-0.5,3099987909.411186,1.3242241144,66.83439175686145,5017.645790367086,1.293,0.467,-1.105,-1.682
-0.5,3099987909.411186,1.3246599436,66.83439175686145,5021.113054699537,1.289,0.465,-1.105,-1.681
-0.5,3099987909.411186,1.3250807524,66.98846094165265,5024.582714960762,1.286,0.462,-1.105,-1.68
-0.5,3099987909.411186,1.3255093098,66.98846094165265,5028.054772806391,1.282,0.46,-1.105,-1.679
-0.5,3099987909.411186,1.325930953,67.14288529259522,5031.529229893185,1.278,0.457,-1.106,-1.679
-0.5,3099987909.411186,1.3263376951,67.29766562843179,5033.846868348144,1.274,0.454,-1.107,-1.68
-0.5,3099987909.411186,1.3267455101,67.45280276979219,5036.16557436085,1.27,0.451,-1.109,-1.681
-0.5,3099987909.411186,1.3271929026,67.60829753919819,5039.645636126428,1.265,0.447,-1.111,-1.682
-0.5,3099987909.411186,1.3276292086,67.7641507610675,5041.967013185367,1.261,0.443,-1.113,-1.684
-0.5,3099987909.411186,1.3280531168,67.92036326171846,5044.28945952414,1.256,0.439,-1.116,-1.685
-0.5,3099987909.411186,1.3281009197,67.92036326171846,5044.28945952414,1.256,0.439,-1.116,-1.686
-0.5,3099987909.411186,1.328230381,68.07693586937414,5044.28945952414,1.254,0.438,-1.117,-1.686
-0.5,3099987909.411186,1.3286471367,68.23386941416697,5046.612975635282,1.25,0.434,-1.12,-1.689
-0.5,3099987909.411186,1.3290660381,68.54882264526617,5047.775135009473,1.245,0.43,-1.123,-1.691
-0.5,3099987909.411186,1.3294693232,68.7068440014232,5048.937562011554,1.241,0.425,-1.126,-1.694
-0.5,3099987909.411186,1.329865694,69.02398038402418,5050.100256703167,1.236,0.421,-1.13,-1.698
-0.5,3099987909.411186,1.3302973509,69.3425806016569,5050.100256703167,1.231,0.416,-1.134,-1.702
-0.5,3099987909.411186,1.3307064772,69.66265141107687,5050.100256703167,1.226,0.411,-1.14,-1.707
-0.5,3099987909.411186,1.3311021328,69.98419960022734,5050.100256703167,1.222,0.406,-1.145,-1.713
-0.5,3099987909.411186,1.331142664,69.98419960022734,5050.100256703167,1.221,0.406,-1.145,-1.713
-0.5,3099987909.411186,1.3311743736,69.98419960022734,5050.100256703167,1.221,0.405,-1.146,-1.714
-0.5,3099987909.411186,1.3315986395,70.46930689671471,5047.775135009473,1.215,0.399,-1.153,-1.721
-0.5,3099987909.411186,1.3319978714,70.79457843841381,5046.612975635282,1.21,0.393,-1.16,-1.728
-0.5,3099987909.411186,1.3324068785,71.28530301265195,5044.28945952414,1.204,0.386,-1.169,-1.738
-0.5,3099987909.411186,1.3328176737,71.94489780036994,5040.806191026696,1.198,0.378,-1.179,-1.749
-0.5,3099987909.411186,1.3332506418,72.61059574351547,5036.16557436085,1.19,0.369,-1.192,-1.763
-0.5,3099987909.411186,1.3336547613,73.45138681571152,5030.370810846251,1.182,0.358,-1.205,-1.778
-0.5,3099987909.411186,1.3340752125,74.47319739059893,5023.4258952238715,1.172,0.346,-1.223,-1.798
-0.5,3099987909.411186,1.3345097303,75.85775750291836,5014.180920308942,1.16,0.33,-1.244,-1.822
-0.5,3099987909.411186,1.3349341154,77.44617978025188,5002.648624210056,1.145,0.31,-1.272,-1.853
-0.5,3099987909.411186,1.3353697062,80.72350302488383,4979.663541644856,1.119,0.274,-1.324,-1.911
-0.5,3099987909.411186,1.335749507,87.90225168308842,4934.00971187958,1.063,0.199,-1.43,-2.03
-0.5,3099987909.411186,1.3359260559,96.16122783836649,4888.774438941448,1.001,0.118,-1.543,-2.156
-0.5,3099987909.411186,1.3360009193,104.9542428652322,4847.301126243664,0.943,0.041,-1.65,-2.277
-0.5,3099987909.411186,1.3360352516,114.81536214968828,4807.286438439701,0.881,-0.039,-1.76,-2.399
-0.5,3099987909.411186,1.336050868,124.45146117713857,4770.896554256487,0.825,-0.112,-1.86,-2.511
-0.5,3099987909.411186,1.3360604048,135.20725631942764,4736.963081746328,0.77,-0.184,-1.959,-2.621
-0.5,3099987909.411186,1.3360607624,135.8313446587154,4734.782131851524,0.767,-0.187,-1.964,-2.626
-0.5,3099987909.411186,1.3360608816,135.8313446587154,4734.782131851524,0.766,-0.188,-1.966,-2.628
-0.5,3099987909.411186,1.336067915,148.59356422870076,4697.859239439367,0.705,-0.268,-2.074,-2.748
-0.5,3099987909.411186,1.3360744715,161.80800376430662,4664.445252037798,0.651,-0.343,-2.175,-2.859
-0.5,3099987909.411186,1.3360807896,173.78008287493762,4636.603940805552,0.609,-0.407,-2.261,-2.952
-0.5,3099987909.411186,1.3360873461,184.07720014689562,4614.238090876438,0.575,-0.459,-2.331,-3.027
-0.5,3099987909.411186,1.3361042738,185.35316234148104,4612.113644917027,0.571,-0.465,-2.338,-3.035
-0.5,3099987909.411186,1.3361158371,176.1976046411629,4632.335436779563,0.599,-0.421,-2.279,-2.971
-0.5,3099987909.411186,1.3361423016,164.81623915255085,4658.005532200294,0.639,-0.361,-2.199,-2.884
-0.5,3099987909.411186,1.3362357616,158.48931924611142,4673.045396315099,0.663,-0.325,-2.151,-2.832
-0.5,3099987909.411186,1.3364620209,168.26740610704672,4649.433066875436,0.628,-0.379,-2.223,-2.911
-0.5,3099987909.411186,1.3366190195,184.50154191794738,4612.113644917027,0.574,-0.461,-2.334,-3.031
-0.5,3099987909.411186,1.3367563486,203.7042077705719,4574.040440300427,0.517,-0.55,-2.453,-3.16
-0.5,3099987909.411186,1.3368748426,225.94357702209783,4534.192977790139,0.459,-0.64,-2.577,-3.296
-0.5,3099987909.411186,1.3369774818,250.03453616964322,4494.692652627942,0.402,-0.729,-2.698,-3.429
-0.5,3099987909.411186,1.3370659351,276.0577856220345,4457.58876355946,0.348,-0.813,-2.815,-3.557
-0.5,3099987909.411186,1.3371429443,304.088502567628,4421.809210742687,0.296,-0.895,-2.928,-3.682
-0.5,3099987909.411186,1.3372117281,334.9654391578276,4384.297339745673,0.248,-0.975,-3.042,-3.809
-0.5,3099987909.411186,1.3372737169,368.1289736425313,4346.102853675936,0.203,-1.052,-3.156,-3.936
-0.5,3099987909.411186,1.337330699,405.5085354483839,4298.3324252156535,0.17,-1.115,-3.272,-4.072
-0.5,3099987909.411186,1.337370038,436.5158322401661,4260.886835827885,0.149,-1.161,-3.359,-4.176
-0.5,3099987909.411186,1.3374191523,479.73344863668916,4222.795013060563,0.108,-1.229,-3.472,-4.305
-0.5,3099987909.411186,1.3374657631,528.4452517751803,4187.935651179182,0.062,-1.3,-3.585,-4.434
-0.5,3099987909.411186,1.3375098705,583.4451042737447,4153.364054890737,0.018,-1.37,-3.699,-4.564
-0.5,3099987909.411186,1.3375499249,641.2095765851615,4120.026410605537,-0.022,-1.435,-3.808,-4.689
-0.5,3099987909.411186,1.3375903368,704.6930689671467,4086.015408138228,-0.062,-1.501,-3.918,-4.814
-0.5,3099987909.411186,1.3376307487,774.4617978025184,4052.2851680189106,-0.099,-1.564,-4.028,-4.941
-0.5,3099987909.411186,1.3376694918,855.0667128846832,4017.9081084894,-0.135,-1.628,-4.142,-5.072
-0.5,3099987909.411186,1.3377013206,948.4184633008969,3981.0717055349733,-0.167,-1.693,-4.263,-5.212
-0.5,3099987909.411186,1.3377219439,1044.7202192208003,3946.3899820986467,-0.193,-1.747,-4.375,-5.342
-0.5,3099987909.411186,1.3377380371,1142.8783347897713,3913.812356122119,-0.215,-1.797,-4.479,-5.463
-0.5,3099987909.411186,1.3377532959,1258.9254117941675,3878.8233380237325,-0.236,-1.847,-4.59,-5.592
-0.5,3099987909.411186,1.3377662897,1377.2094688939458,3845.032367094809,-0.252,-1.889,-4.695,-5.715
-0.5,3099987909.411186,1.3377782106,1496.235656094433,3812.4135110429906,-0.263,-1.926,-4.794,-5.831
-0.5,3099987909.411186,1.33779037,1625.5487557504835,3780.0713730181124,-0.268,-1.953,-4.889,-5.943
-0.5,3099987909.411186,1.3378038406,1690.440931643265,3762.7035226776516,-0.264,-1.96,-4.936,-5.999
-0.5,3099987909.411186,1.3378061056,1823.8957023196383,3732.5015779572063,-0.266,-1.982,-5.025,-6.104
-0.5,3099987909.411186,1.337808013,1936.4219639466069,3709.3686741322836,-0.264,-1.995,-5.095,-6.186
-0.5,3099987909.411186,1.3378082514,1832.314422371211,3730.783093184723,-0.266,-1.983,-5.032,-6.111
-0.5,3099987909.411186,1.3378083706,1905.4607179632462,3716.2078809514237,-0.265,-1.993,-5.076,-6.163
-0.5,3099987909.411186,1.3378084898,2032.3570109362208,3689.775985701505,-0.255,-1.996,-5.154,-6.254
-0.5,3099987909.411186,1.337808609,1949.8445997580454,3706.80721782576,-0.263,-1.995,-5.105,-6.198
-0.5,3099987909.411186,1.3378087282,1918.668740670289,3713.6417019195583,-0.265,-1.994,-5.084,-6.173
-0.5,3099987909.411186,1.3378088474,1879.3168168032685,3721.3455600387106,-0.266,-1.99,-5.06,-6.144
-0.5,3099987909.411186,1.3378101587,1945.3600816226633,3706.80721782576,-0.26,-1.993,-5.103,-6.195
-0.5,3099987909.411186,1.3378109932,2041.7379446695295,3688.0771722615455,-0.253,-1.995,-5.159,-6.26
-0.5,3099987909.411186,1.3378119469,2152.781734724374,3666.0636424947174,-0.243,-1.996,-5.224,-6.336
-0.5,3099987909.411186,1.3378129005,2269.8648518838213,3644.181507888609,-0.232,-1.996,-5.288,-6.411
-0.5,3099987909.411186,1.3378140926,2398.83291901949,3622.4299841669877,-0.217,-1.99,-5.352,-6.486
-0.5,3099987909.411186,1.3378157616,2535.128630497907,3598.321800388802,-0.195,-1.973,-5.42,-6.564
-0.5,3099987909.411186,1.337818265,2722.701308077913,3566.9744620973356,-0.164,-1.949,-5.51,-6.668
-0.5,3099987909.411186,1.3378190994,2766.9416454115126,3561.2298094276216,-0.158,-1.944,-5.528,-6.689
-0.5,3099987909.411186,1.3378193378,2766.9416454115126,3561.2298094276216,-0.157,-1.944,-5.528,-6.689
-0.5,3099987909.411186,1.3378195763,1713.9573075084252,3739.3834364315157,-0.221,-1.929,-4.955,-6.031
-0.5,3099987909.411186,1.3378198147,1370.8817661648536,3828.2474331682283,-0.21,-1.857,-4.694,-5.723
-0.5,3099987909.411186,1.3378204107,853.1001140175895,4023.4628899023123,-0.138,-1.632,-4.14,-5.068
-0.5,3099987909.411186,1.3378213644,868.960429286302,4014.209182043213,-0.139,-1.64,-4.162,-5.095
-0.5,3099987909.411186,1.3378225565,1096.4781961431852,3914.713648482051,-0.174,-1.754,-4.433,-5.416
-0.5,3099987909.411186,1.337823987,1555.965631605075,3771.3774501139746,-0.202,-1.888,-4.842,-5.901
-0.5,3099987909.411186,1.3378257751,2113.489039836648,3648.379442958715,-0.176,-1.931,-5.206,-6.328
-0.5,3099987909.411186,1.3378278017,2588.2129151530903,3567.795882885623,-0.119,-1.898,-5.453,-6.611
-0.5,3099987909.411186,1.3378301859,2884.031503126606,3524.5201677586315,-0.068,-1.848,-5.584,-6.763
-0.5,3099987909.411186,1.3378328085,3033.891184194272,3501.8698409688745,-0.03,-1.808,-5.647,-6.836
-0.5,3099987909.411186,1.3378357887,3118.8895840939385,3486.582933528731,-0.001,-1.776,-5.683,-6.879
-0.5,3099987909.411186,1.3378359079,2249.0546058357804,3609.1090121201505,-0.117,-1.883,-5.285,-6.425
-0.5,3099987909.411186,1.3378363848,1570.3628043335532,3748.003605517044,-0.156,-1.853,-4.858,-5.93
-0.5,3099987909.411186,1.3378371,977.2372209558112,3940.0342764474544,-0.111,-1.667,-4.303,-5.274
-0.5,3099987909.411186,1.3378382921,995.4054173515275,3931.877693146969,-0.112,-1.674,-4.324,-5.299
-0.5,3099987909.411186,1.3378397226,1247.3835142429432,3837.0724549227884,-0.137,-1.772,-4.589,-5.614
-0.5,3099987909.411186,1.3378415108,1753.880501841762,3699.1334567034833,-0.143,-1.867,-4.991,-6.087
-0.5,3099987909.411186,1.3378436565,2365.9196974857587,3581.789013481115,-0.078,-1.849,-5.35,-6.503
-0.5,3099987909.411186,1.3378462791,2877.3984147356696,3505.9038393261267,0.004,-1.77,-5.588,-6.776
-0.5,3099987909.411186,1.3378491402,3184.1975217261256,3465.7720899354867,0.063,-1.706,-5.712,-6.918
-0.5,3099987909.411186,1.3378523588,3326.5955329400435,3445.8788144433506,0.103,-1.659,-5.768,-6.982
-0.5,3099987909.411186,1.3378560543,3404.081897010009,3435.5794789987463,0.129,-1.627,-5.797,-7.015
-0.5,3099987909.411186,1.3378561735,2500.345361696432,3550.5857031262385,-0.03,-1.807,-5.421,-6.588
-0.5,3099987909.411186,1.3378567696,1753.880501841762,3688.926481189961,-0.112,-1.84,-4.993,-6.095
-0.5,3099987909.411186,1.337857604,1093.956366272094,3881.5036599064824,-0.1,-1.703,-4.437,-5.438
-0.5,3099987909.411186,1.3378589153,1114.2945335917304,3873.468245564424,-0.1,-1.708,-4.458,-5.464
-0.5,3099987909.411186,1.3378607035,1389.9526312133526,3779.2010796187897,-0.11,-1.786,-4.72,-5.775
-0.5,3099987909.411186,1.3378628492,1940.8858775927772,3642.503686647633,-0.077,-1.828,-5.116,-6.241
-0.5,3099987909.411186,1.3378653526,2600.159563165272,3526.9556611308685,0.025,-1.749,-5.47,-6.648
-0.5,3099987909.411186,1.3378683329,3140.5086938762165,3451.437393358561,0.138,-1.622,-5.703,-6.915
-0.5,3099987909.411186,1.3378717899,3467.368504525317,3411.1435809487116,0.22,-1.522,-5.826,-7.054
-0.5,3099987909.411186,1.3378757238,3622.4299841669877,3391.5638690582196,0.267,-1.466,-5.879,-7.117
-0.5,3099987909.411186,1.3378800154,3698.281797802663,3380.6483620598156,0.304,-1.421,-5.907,-7.149
-0.5,3099987909.411186,1.3378801346,2792.543841237339,3488.188934073285,0.105,-1.664,-5.562,-6.758
-0.5,3099987909.411186,1.3378807306,1967.886289706845,3626.6028624488754,-0.038,-1.797,-5.136,-6.268
-0.5,3099987909.411186,1.3378816843,1230.268770812381,3822.0819974268243,-0.081,-1.73,-4.576,-5.609
-0.5,3099987909.411186,1.3378831148,1253.1411749414156,3812.4135110429906,-0.079,-1.734,-4.598,-5.636
-0.5,3099987909.411186,1.337884903,1559.552502826954,3717.9196520448604,-0.068,-1.784,-4.856,-5.944
-0.5,3099987909.411186,1.3378871679,2157.744409152667,3581.789013481115,0.019,-1.749,-5.249,-6.401
-0.5,3099987909.411186,1.3378899097,2857.5905433749467,3465.7720899354867,0.171,-1.593,-5.594,-6.801
-0.5,3099987909.411186,1.3378930092,3435.5794789987463,3390.002355756172,0.328,-1.401,-5.825,-7.063
-0.5,3099987909.411186,1.3378967047,3784.425847170932,3348.883193942221,0.458,-1.236,-5.947,-7.2
-0.5,3099987909.411186,1.3379007578,3944.573020752785,3328.1278395965264,0.533,-1.142,-6.002,-7.263
-0.5,3099987909.411186,1.3379052877,4036.4539296760486,3315.125698118432,0.586,-1.077,-6.032,-7.298
-0.5,3099987909.411186,1.337905407,3147.748314101317,3411.9291162192844,0.316,-1.424,-5.721,-6.949
-0.5,3099987909.411186,1.337906003,2228.435149270303,3550.5857031262385,0.092,-1.683,-5.296,-6.463
-0.5,3099987909.411186,1.3379069567,1393.1568029453035,3749.730022454834,-0.029,-1.727,-4.729,-5.799
-0.5,3099987909.411186,1.337908268,1422.32878712282,3739.3834364315157,-0.022,-1.726,-4.752,-5.827
-0.5,3099987909.411186,1.3379100561,1757.923613958693,3643.342500684969,0.03,-1.722,-5.008,-6.132
-0.5,3099987909.411186,1.3379123211,2404.362800006932,3507.5187395256794,0.185,-1.585,-5.392,-6.579
-0.5,3099987909.411186,1.3379149437,3155.0046233746275,3390.783022519265,0.411,-1.317,-5.731,-6.968
-0.5,3099987909.411186,1.3379180431,3767.0379898390893,3314.36245009259,0.658,-1.002,-5.958,-7.224
-0.5,3099987909.411186,1.3379215002,4130.475019901614,3271.1465401826636,0.839,-0.759,-6.079,-7.359
-0.5,3099987909.411186,1.3379255533,4305.266104917106,3247.8801876353714,0.955,-0.608,-6.134,-7.422
-0.5,3099987909.411186,1.3379299641,4395.416154378243,3232.2132033960884,1.041,-0.496,-6.166,-7.458
-0.5,3099987909.411186,1.3379300833,3539.9734108343464,3318.944575526103,0.695,-0.969,-5.888,-7.153
-0.5,3099987909.411186,1.3379306793,2523.4807724805755,3459.3937782612206,0.334,-1.427,-5.46,-6.669
-0.5,3099987909.411186,1.3379315138,1581.2480392703826,3663.532089914713,0.09,-1.656,-4.887,-6.001
-0.5,3099987909.411186,1.3379327059,1610.64563517827,3652.5822138633744,0.103,-1.648,-4.91,-6.029
-0.5,3099987909.411186,1.3379343748,1976.96964011186,3557.132151345879,0.203,-1.573,-5.164,-6.328
-0.5,3099987909.411186,1.3379365206,2673.0064086633115,3422.9456231604145,0.442,-1.304,-5.539,-6.762
-0.5,3099987909.411186,1.3379389048,3467.368504525317,3308.2627885569786,0.785,-0.869,-5.871,-7.139
-0.5,3099987909.411186,1.3379417658,4111.497211045221,3233.7020353739117,1.111,-0.428,-6.092,-7.384
-0.5,3099987909.411186,1.3379451036,4477.133041763624,3193.007951074664,1.296,-0.176,-6.207,-7.511
-0.5,3099987909.411186,1.3379487991,4655.860935229591,3171.757679067707,1.403,-0.035,-6.26,-7.57
-0.5,3099987909.411186,1.3379529715,4742.419852602448,3159.3664356825157,1.474,0.057,-6.288,-7.602
