FeH,Age,Mini,L,Te,Bmag,Vmag,Jmag,Kmag
-1.0,700003159.1308975,0.0900000036,0.0006516283940608428,2816.4367335775464,18.214,16.226,10.674,10.107
-1.0,700003159.1308975,0.092116788,0.0007112135136533288,2852.331512299011,17.944,15.968,10.597,10.009
-1.0,700003159.1308975,0.1000000015,0.001018591388054117,3004.692272040942,16.874,14.957,10.28,9.619
-1.0,700003159.1308975,0.1079329327,0.001309181922999407,3095.993213309174,16.237,14.36,10.051,9.353
-1.0,700003159.1308975,0.1200000048,0.001892343618644976,3235.1915531420955,15.357,13.561,9.712,8.973
-1.0,700003159.1308975,0.1400000006,0.0028840315031266055,3369.7679858440365,14.504,12.803,9.309,8.545
-1.0,700003159.1308975,0.150725916,0.003427677865464505,3418.219914176575,14.189,12.525,9.138,8.368
-1.0,700003159.1308975,0.1599999964,0.003953666200681279,3458.597315106485,13.937,12.303,8.999,8.224
-1.0,700003159.1308975,0.2000000179,0.006367955209079156,3577.6676993611068,13.152,11.605,8.526,7.74
-1.0,700003159.1308975,0.25,0.00986279485631211,3677.053933782149,12.478,11.0,8.086,7.293
-1.0,700003159.1308975,0.3195876479,0.01618080037643066,3779.2010796187897,11.759,10.348,7.585,6.786
-1.0,700003159.1308975,0.3258369863,0.01694337800447329,3787.040939050054,11.697,10.29,7.538,6.739
-1.0,700003159.1308975,0.3372423351,0.018197008586099836,3802.769482436101,11.591,10.195,7.463,6.664
-1.0,700003159.1308975,0.349999994,0.0195884467350599,3822.0819974268243,11.482,10.097,7.391,6.591
-1.0,700003159.1308975,0.400000006,0.02773320104651841,3918.3208939411097,10.958,9.631,7.044,6.246
-1.0,700003159.1308975,0.4367636442,0.03715352290971726,4014.209182043213,10.503,9.233,6.754,5.962
-1.0,700003159.1308975,0.4499999881,0.040926065973001094,4050.419451364931,10.348,9.1,6.659,5.869
-1.0,700003159.1308975,0.5,0.062230028516915954,4264.813065450337,9.617,8.488,6.26,5.495
-1.0,700003159.1308975,0.5500000715,0.09571940712948447,4559.319216592223,8.8,7.827,5.872,5.171
-1.0,700003159.1308975,0.6000000238,0.14256075936021884,4850.650679999713,8.086,7.234,5.527,4.908
-1.0,700003159.1308975,0.6499999762,0.20749135174549097,5138.069802323445,7.477,6.716,5.211,4.674
-1.0,700003159.1308975,0.6971172094,0.29040226544644504,5421.2570508795725,6.965,6.285,4.943,4.473
-1.0,700003159.1308975,0.6999999881,0.29580124665515456,5438.76131720408,6.935,6.261,4.927,4.461
-1.0,700003159.1308975,0.7310553193,0.3639150361272071,5623.413251903491,6.632,6.006,4.764,4.336
-1.0,700003159.1308975,0.75,0.41114972110452225,5735.87924842134,6.455,5.86,4.671,4.264
-1.0,700003159.1308975,0.8000000119,0.5584701947368308,5974.478464258169,6.042,5.51,4.425,4.059
-1.0,700003159.1308975,0.8500000238,0.7464487584100665,6185.858764917845,5.663,5.185,4.186,3.854
-1.0,700003159.1308975,0.8999999762,0.9840111057611337,6384.104687107577,5.312,4.879,3.957,3.657
-1.0,700003159.1308975,0.9231359363,1.1117317272815912,6474.407045688151,5.157,4.744,3.856,3.569
-1.0,700003159.1308975,0.9499999881,1.2764388088113439,6578.092861041911,4.983,4.589,3.74,3.469
-1.0,700003159.1308975,0.9822033644,1.4996848355023735,6705.0188016284155,4.781,4.41,3.609,3.356
-1.0,700003159.1308975,1.0,1.6368165214278085,6774.85492849846,4.671,4.313,3.537,3.295
-1.0,700003159.1308975,1.0499999523,2.0701413487910423,6987.148925611264,4.373,4.047,3.35,3.137
-1.0,700003159.1308975,1.0770032406,2.338837238659355,7113.772954721317,4.217,3.91,3.258,3.063
-1.0,700003159.1308975,1.1000000238,2.5882129151530915,7222.707043121718,4.086,3.795,3.182,3.001
-1.0,700003159.1308975,1.1395192146,3.061963433690677,7442.177089248529,3.867,3.604,3.069,2.915
-1.0,700003159.1308975,1.1499999762,3.198895109691398,7500.6689873606865,3.81,3.554,3.04,2.892
-1.0,700003159.1308975,1.2000000477,3.90840895792402,7818.078017635865,3.546,3.328,2.92,2.808
-1.0,700003159.1308975,1.2031376362,3.953666200681279,7839.710037491971,3.53,3.315,2.913,2.803
-1.0,700003159.1308975,1.25,4.731512589614805,8148.91898213851,3.297,3.118,2.814,2.733
-1.0,700003159.1308975,1.2868232727,5.432503314924332,8390.73489910136,3.127,2.977,2.741,2.679
-1.0,700003159.1308975,1.2999999523,5.701642722807475,8478.128602875053,3.068,2.929,2.716,2.66
-1.0,700003159.1308975,1.3239349127,6.223002851691596,8633.760555974379,2.969,2.849,2.673,2.626
-1.0,700003159.1308975,1.3500000238,6.839116472814292,8802.37770591344,2.867,2.766,2.626,2.589
-1.0,700003159.1308975,1.3684836626,7.294575102545687,8918.6680515947,2.799,2.709,2.593,2.562
-1.0,700003159.1308975,1.3999999762,8.165823713585924,9115.909395361672,2.688,2.617,2.536,2.514
-1.0,700003159.1308975,1.4311234951,9.078205301781857,9302.506882321279,2.587,2.531,2.479,2.465
-1.0,700003159.1308975,1.4500000477,9.68277856261249,9410.224835267507,2.527,2.48,2.444,2.434
-1.0,700003159.1308975,1.4682562351,10.280162981264736,9510.426641573926,2.471,2.431,2.409,2.404
-1.0,700003159.1308975,1.5,11.428783347897719,9682.778562612497,2.376,2.348,2.348,2.349
-1.0,700003159.1308975,1.5319904089,12.676518658578456,9846.91071376939,2.283,2.266,2.286,2.292
-1.0,700003159.1308975,1.5499999523,13.427649611378635,9938.023056811182,2.232,2.221,2.25,2.259
-1.0,700003159.1308975,1.5544388294,13.645831365889245,9960.932565980786,2.219,2.21,2.241,2.251
-1.0,700003159.1308975,1.6000000238,15.776112696993485,10178.880130154219,2.092,2.096,2.149,2.164
-1.0,700003159.1308975,1.6134843826,16.443717232149314,10240.001022367001,2.055,2.062,2.121,2.138
-1.0,700003159.1308975,1.6499998569,18.492686189780777,10399.2016582906,1.954,1.97,2.042,2.063
-1.0,700003159.1308975,1.6612896919,19.14255925021086,10444.796911933634,1.922,1.941,2.017,2.039
-1.0,700003159.1308975,1.7000000477,21.6271852372702,10590.098510716805,1.813,1.839,1.926,1.952
-1.0,700003159.1308975,1.7212753296,23.12064790175595,10661.050486467797,1.752,1.782,1.874,1.902
-1.0,700003159.1308975,1.75,25.29297996446145,10747.315542417324,1.668,1.702,1.801,1.83
-1.0,700003159.1308975,1.7573540211,25.88212915153092,10767.131074439721,1.646,1.681,1.782,1.811
-1.0,700003159.1308975,1.7885495424,28.575905433749465,10836.773593579373,1.551,1.589,1.695,1.726
-1.0,700003159.1308975,1.7999999523,29.648313895243422,10856.754065290243,1.514,1.554,1.661,1.692
-1.0,700003159.1308975,1.8201185465,31.622776601683793,10889.300933334333,1.45,1.492,1.601,1.633
-1.0,700003159.1308975,1.8500001431,34.753616144320574,10914.40336448757,1.349,1.393,1.503,1.536
-1.0,700003159.1308975,1.8541235924,35.23708710424871,10916.916788093646,1.335,1.379,1.49,1.523
-1.0,700003159.1308975,1.8827748299,38.63669770540692,10914.40336448757,1.233,1.278,1.389,1.422
-1.0,700003159.1308975,1.8999999762,40.926065973001094,10894.316796591338,1.167,1.213,1.322,1.355
-1.0,700003159.1308975,1.9192018509,43.55118736855686,10864.256236170644,1.093,1.139,1.246,1.278
-1.0,700003159.1308975,1.9500000477,48.19477976251274,10772.090663440917,0.964,1.009,1.109,1.139
-1.0,700003159.1308975,1.9537835121,48.86523593428336,10759.695972076854,0.948,0.993,1.092,1.122
-1.0,700003159.1308975,1.981200695,53.57966575133417,10629.1858327569,0.823,0.866,0.955,0.982
-1.0,700003159.1308975,2.0,57.14786366718669,10500.258721108852,0.727,0.767,0.846,0.87
-1.0,700003159.1308975,2.0051877499,58.21032177708713,10461.645510220069,0.7,0.74,0.816,0.839
-1.0,700003159.1308975,2.0243675709,62.373483548241914,10303.861204416158,0.598,0.633,0.696,0.715
-1.0,700003159.1308975,2.0415685177,66.52731562017412,10143.784167147647,0.5,0.53,0.579,0.595
-1.0,700003159.1308975,2.0499999523,68.86522963442762,10076.274729014502,0.451,0.479,0.522,0.536
-1.0,700003159.1308975,2.0627884865,72.61059574351547,9986.194028465248,0.376,0.401,0.436,0.447
-1.0,700003159.1308975,2.0666844845,74.64487584100665,10085.559596191062,0.363,0.393,0.437,0.45
-1.0,700003159.1308975,2.0721998215,77.98301105232585,10292.005271944287,0.349,0.388,0.449,0.468
-1.0,700003159.1308975,2.0738208294,80.35261221856173,10522.04124885243,0.357,0.403,0.483,0.508
-1.0,700003159.1308975,2.0745801926,82.98507675144225,10757.21874573398,0.367,0.42,0.517,0.547
-1.0,700003159.1308975,2.0749897957,85.90135215053957,10995.120668793497,0.372,0.432,0.546,0.581
-1.0,700003159.1308975,2.0752282143,89.12509381337455,11215.018646668652,0.373,0.438,0.567,0.606
-1.0,700003159.1308975,2.0754079819,91.83325964835811,11402.497875611696,0.373,0.442,0.583,0.626
-1.0,700003159.1308975,2.075492382,87.90225168308842,11248.63953646776,0.394,0.459,0.59,0.63
-1.0,700003159.1308975,2.0755841732,84.72274141405963,10984.998450583755,0.385,0.445,0.558,0.593
-1.0,700003159.1308975,2.0756883621,85.31001140175896,10705.328538333628,0.326,0.378,0.472,0.501
-1.0,700003159.1308975,2.0758292675,88.92011178579486,10415.976706452617,0.228,0.273,0.344,0.366
-1.0,700003159.1308975,2.0760059357,92.46981739382225,10129.779687601025,0.134,0.169,0.217,0.232
-1.0,700003159.1308975,2.0762150288,95.06047936562814,9849.178309808165,0.056,0.082,0.103,0.111
-1.0,700003159.1308975,2.0764558315,96.8277856261249,9576.349769692684,-0.007,0.008,0.001,0.0
-1.0,700003159.1308975,2.0767230988,98.17479430199843,9306.791831626531,-0.057,-0.057,-0.096,-0.106
-1.0,700003159.1308975,2.07700634,98.8553094656939,9042.739083117836,-0.097,-0.112,-0.187,-0.208
-1.0,700003159.1308975,2.077293396,99.3116048420934,8784.155192614566,-0.126,-0.159,-0.275,-0.307
-1.0,700003159.1308975,2.0775740147,99.5405417351527,8531.001140175895,-0.143,-0.196,-0.359,-0.404
-1.0,700003159.1308975,2.0778408051,99.5405417351527,8287.05077906983,-0.144,-0.221,-0.438,-0.499
-1.0,700003159.1308975,2.0780894756,99.3116048420934,8048.222975885021,-0.131,-0.236,-0.514,-0.592
-1.0,700003159.1308975,2.0783178806,98.8553094656939,7818.078017635865,-0.104,-0.243,-0.586,-0.683
-1.0,700003159.1308975,2.0785262585,98.4011105761134,7596.263129545535,-0.065,-0.239,-0.654,-0.772
-1.0,700003159.1308975,2.0787153244,97.72372209558107,7380.7415842010305,-0.02,-0.229,-0.717,-0.859
-1.0,700003159.1308975,2.0788865089,96.8277856261249,7172.986277567094,0.03,-0.213,-0.776,-0.943
-1.0,700003159.1308975,2.079041481,95.94006315159331,6974.289968817341,0.083,-0.192,-0.831,-1.024
-1.0,700003159.1308975,2.0791819096,94.84184633008974,6785.783509504071,0.139,-0.169,-0.881,-1.102
-1.0,700003159.1308975,2.0793097019,93.75620069258802,6613.022494817666,0.197,-0.143,-0.925,-1.172
-1.0,700003159.1308975,2.079426527,92.68298233793494,6459.516322696259,0.254,-0.116,-0.962,-1.233
-1.0,700003159.1308975,2.079533577,91.41132414702504,6324.118513762197,0.311,-0.088,-0.992,-1.285
-1.0,700003159.1308975,2.0796327591,89.94975815300351,6208.690342300638,0.367,-0.059,-1.013,-1.327
-1.0,700003159.1308975,2.0797271729,88.51156098308356,6103.795855585308,0.421,-0.03,-1.03,-1.362
-1.0,700003159.1308975,2.0798280239,86.69618757582165,6007.586047756748,0.479,0.004,-1.039,-1.389
-1.0,700003159.1308975,2.0799498558,84.33347577642752,5908.809655747817,0.549,0.048,-1.042,-1.413
-1.0,700003159.1308975,2.0801200867,80.16780633876789,5799.626158196422,0.648,0.117,-1.024,-1.418
-1.0,700003159.1308975,2.0802793503,76.03262769401819,5712.1552162304315,0.744,0.188,-0.995,-1.407
-1.0,700003159.1308975,2.0804569721,71.94489780036994,5624.708239741314,0.844,0.264,-0.962,-1.393
-1.0,700003159.1308975,2.0806903839,68.7068440014232,5518.232567565654,0.944,0.333,-0.948,-1.405
-1.0,700003159.1308975,2.0809261799,72.11074791828997,5431.252578811117,0.934,0.297,-1.03,-1.507
-1.0,700003159.1308975,2.0811612606,78.34296427662116,5366.609560460733,0.877,0.219,-1.142,-1.635
-1.0,700003159.1308975,2.0813894272,84.91804750363139,5324.7595361299545,0.81,0.14,-1.245,-1.747
-1.0,700003159.1308975,2.0816745758,93.11078754678306,5284.452517751803,0.732,0.048,-1.358,-1.87
-1.0,700003159.1308975,2.0819592476,101.39113857366789,5250.491986747626,0.657,-0.038,-1.462,-1.983
-1.0,700003159.1308975,2.082243681,110.40786199020735,5220.354551033096,0.582,-0.122,-1.564,-2.093
-1.0,700003159.1308975,2.0823574066,114.28783347897712,5208.348068742078,0.553,-0.156,-1.605,-2.137
-1.0,700003159.1308975,2.0825350285,120.22644346174131,5190.390101970821,0.506,-0.209,-1.668,-2.205
-1.0,700003159.1308975,2.0826535225,124.73835142429432,5179.645056050334,0.475,-0.244,-1.711,-2.25
-1.0,700003159.1308975,2.0828278065,131.2199899019203,5161.7860549667275,0.429,-0.297,-1.773,-2.316
-1.0,700003159.1308975,2.0831763744,145.54590805819655,5128.613839913648,0.338,-0.401,-1.897,-2.448
-1.0,700003159.1308975,2.0834665298,158.48931924611142,5101.5247738556045,0.263,-0.486,-1.999,-2.557
-1.0,700003159.1308975,2.0837564468,172.5837891990204,5075.747390289013,0.19,-0.57,-2.098,-2.663
-1.0,700003159.1308975,2.084045887,187.49945080674192,5050.100256703167,0.117,-0.654,-2.198,-2.769
-1.0,700003159.1308975,2.0843348503,203.7042077705719,5024.582714960762,0.045,-0.736,-2.296,-2.874
-1.0,700003159.1308975,2.0846238136,220.80047330188992,4999.1941102499995,-0.025,-0.818,-2.394,-2.978
-1.0,700003159.1308975,2.0849092007,239.88329190194898,4972.788632333997,-0.095,-0.898,-2.491,-3.083
-1.0,700003159.1308975,2.0852189064,262.4218543384442,4944.245193336823,-0.17,-0.986,-2.598,-3.197
-1.0,700003159.1308975,2.0855629444,289.0679882365475,4913.6022729909155,-0.252,-1.081,-2.713,-3.321
-1.0,700003159.1308975,2.0858707428,311.17163371060167,4888.774438941448,-0.313,-1.154,-2.803,-3.418
-1.0,700003159.1308975,2.0859224796,304.7894989627983,4896.660566104027,-0.295,-1.133,-2.776,-3.389
-1.0,700003159.1308975,2.0860331059,284.44611074479167,4920.395356814511,-0.24,-1.067,-2.694,-3.3
-1.0,700003159.1308975,2.0861656666,263.02679918953817,4946.522626750653,-0.175,-0.99,-2.6,-3.199
-1.0,700003159.1308975,2.086370945,241.54608344449403,4975.0792135144075,-0.105,-0.908,-2.499,-3.091
-1.0,700003159.1308975,2.0867087841,225.42392121524304,4998.043135782391,-0.047,-0.839,-2.416,-3.0
-1.0,700003159.1308975,2.0876014233,205.11621788255647,5030.370810846251,0.033,-0.746,-2.302,-2.878
-1.0,700003159.1308975,2.0885260105,187.93168168032685,5060.5765651324455,0.106,-0.661,-2.199,-2.767
-1.0,700003159.1308975,2.089332819,173.78008287493762,5086.276903064366,0.174,-0.582,-2.104,-2.665
-1.0,700003159.1308975,2.0901088715,161.064563517827,5113.285003019643,0.239,-0.507,-2.012,-2.567
-1.0,700003159.1308975,2.0910027027,147.57065332758947,5142.804319487918,0.314,-0.42,-1.908,-2.455
-1.0,700003159.1308975,2.0917797089,137.08817661648536,5167.732202999587,0.378,-0.346,-1.818,-2.36
-1.0,700003159.1308975,2.0928294659,125.02590302177201,5199.959965335162,0.459,-0.253,-1.707,-2.24
-1.0,700003159.1308975,2.0939874649,114.28783347897712,5234.798870090691,0.537,-0.163,-1.597,-2.123
-1.0,700003159.1308975,2.0954575539,104.23174293933036,5272.298614228227,0.615,-0.072,-1.485,-2.0
-1.0,700003159.1308975,2.0978384018,94.84184633008974,5327.212243229622,0.687,0.018,-1.365,-1.868
-1.0,700003159.1308975,2.0999999046,90.36494737223013,5371.554667486636,0.717,0.061,-1.297,-1.789
-1.0,700003159.1308975,2.1015138626,87.90225168308842,5403.809120790774,0.73,0.085,-1.257,-1.741
-1.0,700003159.1308975,2.1042222977,91.62204901219997,5462.607542126947,0.655,0.029,-1.282,-1.752
-1.0,700003159.1308975,2.1082513332,98.17479430199843,5530.953407403111,0.546,-0.059,-1.334,-1.788
-1.0,700003159.1308975,2.110481739,102.5651926251408,5569.292144857989,0.479,-0.115,-1.37,-1.814
-1.0,700003159.1308975,2.1125998497,106.6596121230258,5610.479760324706,0.419,-0.163,-1.396,-1.831
-1.0,700003159.1308975,2.1147294044,109.64781961431851,5638.972803349493,0.375,-0.199,-1.417,-1.845
-1.0,700003159.1308975,2.1171076298,112.46049739669269,5667.6105494184985,0.334,-0.232,-1.437,-1.859
-1.0,700003159.1308975,2.1299006939,126.18275345906706,5705.582638711286,0.19,-0.364,-1.549,-1.963
-1.0,700003159.1308975,2.1478385925,147.91083881682073,5758.375744868389,-0.007,-0.545,-1.705,-2.107
-1.0,700003159.1308975,2.1500000954,150.66070661867417,5765.00913769855,-0.031,-0.567,-1.723,-2.124
-1.0,700003159.1308975,2.1514296532,152.40527537972906,5770.321353329298,-0.047,-0.582,-1.735,-2.134
-1.0,700003159.1308975,2.168153286,176.1976046411629,5829.079788672337,-0.23,-0.747,-1.872,-2.258
-1.0,700003159.1308975,2.1838028431,199.9861869632745,5862.731433534501,-0.384,-0.891,-2.0,-2.379
-1.0,700003159.1308975,2.1841835976,200.44720273651615,5860.032167510559,-0.386,-0.894,-2.003,-2.383
-1.0,700003159.1308975,2.1960613728,216.271852372702,5784.955199650903,-0.437,-0.966,-2.111,-2.506
-1.0,700003159.1308975,2.2000000477,221.30947096056389,5742.48672628783,-0.443,-0.984,-2.15,-2.554
-1.0,700003159.1308975,2.2021124363,223.872113856834,5710.840095300156,-0.441,-0.991,-2.172,-2.583
-1.0,700003159.1308975,2.2044436932,225.42392121524304,5661.089226332155,-0.427,-0.991,-2.198,-2.619
-1.0,700003159.1308975,2.2055892944,226.46443075930597,5636.376558259543,-0.419,-0.991,-2.21,-2.637
-1.0,700003159.1308975,2.2076399326,227.50974307720716,5587.2743899402,-0.403,-0.989,-2.232,-2.671
-1.0,700003159.1308975,2.2092890739,228.559880337543,5539.875439385942,-0.384,-0.985,-2.253,-2.702
-1.0,700003159.1308975,2.2111897469,228.559880337543,5468.900223137939,-0.349,-0.971,-2.276,-2.743
-1.0,700003159.1308975,2.2124226093,226.98648518838212,5402.564990999317,-0.306,-0.951,-2.292,-2.774
-1.0,700003159.1308975,2.2133185863,225.42392121524304,5317.408188271428,-0.251,-0.925,-2.312,-2.814
-1.0,700003159.1308975,2.2139220238,225.42392121524304,5238.416190277907,-0.204,-0.906,-2.337,-2.859
-1.0,700003159.1308975,2.2143433094,237.6840286624876,5139.253022834874,-0.199,-0.939,-2.428,-2.975
-1.0,700003159.1308975,2.2143805027,242.66100950824142,5121.53329024499,-0.209,-0.955,-2.456,-3.007
-1.0,700003159.1308975,2.2144012451,251.18864315095797,5101.5247738556045,-0.235,-0.988,-2.5,-3.057
-1.0,700003159.1308975,2.2144415379,273.5268726306711,5060.5765651324455,-0.299,-1.069,-2.607,-3.174
-1.0,700003159.1308975,2.2144925594,299.916251898765,5021.113054699537,-0.37,-1.157,-2.719,-3.296
-1.0,700003159.1308975,2.2145938873,299.916251898765,5023.4258952238715,-0.373,-1.159,-2.72,-3.297
-1.0,700003159.1308975,2.2147884369,289.0679882365475,5039.645636126428,-0.344,-1.124,-2.674,-3.247
-1.0,700003159.1308975,2.2156295776,306.90219883911584,5009.564815133986,-0.389,-1.181,-2.749,-3.329
-1.0,700003159.1308975,2.2159597874,337.2873086588689,4971.643737252428,-0.46,-1.268,-2.863,-3.454
-1.0,700003159.1308975,2.2163681984,377.572190925416,4924.929296050273,-0.547,-1.377,-3.002,-3.606
-1.0,700003159.1308975,2.2167379856,416.8693834703355,4883.149268098355,-0.62,-1.469,-3.124,-3.74
-1.0,700003159.1308975,2.216999054,448.7453899331323,4831.700432460599,-0.651,-1.529,-3.221,-3.853
-1.0,700003159.1308975,2.2173252106,494.3106869868354,4790.711300030745,-0.713,-1.622,-3.342,-3.984
-1.0,700003159.1308975,2.2176253796,544.5026528424214,4754.4468852521,-0.777,-1.714,-3.46,-4.11
-1.0,700003159.1308975,2.2178988457,599.7910762555094,4720.630412635905,-0.84,-1.806,-3.578,-4.236
-1.0,700003159.1308975,2.2181475163,662.2165037017622,4687.05446301803,-0.904,-1.898,-3.695,-4.361
-1.0,700003159.1308975,2.218370676,729.4575102545687,4653.717325654918,-0.963,-1.989,-3.812,-4.487
-1.0,700003159.1308975,2.2185707092,803.5261221856169,4619.553487999654,-1.019,-2.077,-3.929,-4.612
-1.0,700003159.1308975,2.2187519073,885.1156098308356,4585.640453674645,-1.072,-2.165,-4.045,-4.737
-1.0,700003159.1308975,2.2189176083,972.747223776965,4550.928370849554,-1.118,-2.249,-4.161,-4.863
-1.0,700003159.1308975,2.2190709114,1071.519305237606,4515.439211278319,-1.17,-2.329,-4.276,-4.991
-1.0,700003159.1308975,2.2192127705,1180.3206356517298,4482.290499966203,-1.224,-2.41,-4.39,-5.117
-1.0,700003159.1308975,2.2193439007,1300.16957803329,4446.312674691088,-1.275,-2.488,-4.505,-5.246
-1.0,700003159.1308975,2.2194657326,1432.187899273544,4410.623631214367,-1.323,-2.565,-4.62,-5.375
-1.0,700003159.1308975,2.2195792198,1577.6112696993484,4375.221051582521,-1.373,-2.643,-4.735,-5.504
-1.0,700003159.1308975,2.2196857929,1737.8008287493763,4340.10263644744,-1.42,-2.718,-4.85,-5.633
-1.0,700003159.1308975,2.2197868824,1918.668740670289,4304.274894883304,-1.464,-2.792,-4.965,-5.764
-1.0,700003159.1308975,2.2198834419,2118.3611352485023,4268.742912929737,-1.502,-2.864,-5.082,-5.895
-1.0,700003159.1308975,2.2199771404,2338.837238659356,4233.504249077914,-1.537,-2.934,-5.199,-6.028
-1.0,700003159.1308975,2.2200701237,2588.2129151530903,4195.657223387252,-1.569,-3.002,-5.318,-6.164
-1.0,700003159.1308975,2.2201657295,2870.780582024692,4156.2340882986055,-1.6,-3.071,-5.439,-6.304
-1.0,700003159.1308975,2.2202677727,3184.1975217261256,4118.129505138526,-1.63,-3.138,-5.561,-6.445
-1.0,700003159.1308975,2.2203812599,3515.6044052829798,4081.3139159697193,-1.655,-3.199,-5.676,-6.578
-1.0,700003159.1308975,2.2204282284,3723.917062545687,4058.8219466191827,-1.668,-3.234,-5.744,-6.657
-1.0,700003159.1308975,2.2204730511,3971.915494694405,4036.4539296760486,-1.681,-3.27,-5.817,-6.741
-1.0,700003159.1308975,2.2205262184,4325.138310350088,4004.9767571215903,-1.698,-3.32,-5.915,-6.856
-1.0,700003159.1308975,2.2206099033,4602.565735813559,3981.988486715585,-1.702,-3.351,-5.988,-6.941
-1.0,700003159.1308975,2.2206215858,4731.512589614803,3971.001032638907,-1.702,-3.365,-6.022,-6.981
-1.0,700003159.1308975,2.2206339836,4920.395356814511,3956.398240042518,-1.704,-3.383,-6.066,-7.032
-1.0,700003159.1308975,2.2206459045,5188.000389289609,3936.4070414309936,-1.706,-3.408,-6.128,-7.105
-1.0,700003159.1308975,2.2206561565,6081.350012787177,3876.144867002412,-1.704,-3.477,-6.312,-7.322
-1.0,700003159.1308975,2.220656395,6165.9500186148225,3869.9022919026884,-1.702,-3.482,-6.329,-7.342
-1.0,700003159.1308975,2.2206566334,5597.576014951104,3908.4089579240213,-1.708,-3.443,-6.216,-7.208
-1.0,700003159.1308975,2.2206573486,5546.25712957911,3912.01039387351,-1.707,-3.439,-6.205,-7.195
-1.0,700003159.1308975,2.2206575871,5357.966575133417,3925.545359701092,-1.707,-3.423,-6.164,-7.147
-1.0,700003159.1308975,2.2206583023,5164.163692720711,3939.1271544686583,-1.706,-3.406,-6.122,-7.098
-1.0,700003159.1308975,2.2206590176,4977.37084978936,3952.7559401972776,-1.704,-3.388,-6.078,-7.047
-1.0,700003159.1308975,2.2206599712,4764.309868054156,3968.2589095091143,-1.701,-3.366,-6.028,-6.988
-1.0,700003159.1308975,2.2206611633,4560.369159512959,3983.8226824883504,-1.698,-3.346,-5.979,-6.93
-1.0,700003159.1308975,2.2206628323,4375.221051582521,3998.5266968073333,-1.693,-3.322,-5.929,-6.872
-1.0,700003159.1308975,2.2206673622,4265.795188015925,4007.7442528043107,-1.689,-3.309,-5.9,-6.84
-1.0,700003159.1308975,2.2206699848,4365.158322401661,3999.4474976109736,-1.693,-3.321,-5.927,-6.87
-1.0,700003159.1308975,2.2206718922,4446.312674691088,3993.006342231626,-1.695,-3.331,-5.947,-6.894
-1.0,700003159.1308975,2.2206745148,4395.416154378243,3996.6857311446765,-1.693,-3.325,-5.935,-6.88
-1.0,700003159.1308975,2.2206776142,4518.559443749222,3986.5755604057836,-1.696,-3.34,-5.968,-6.918
-1.0,700003159.1308975,2.2206814289,4753.352259428054,3967.345289316547,-1.698,-3.364,-6.027,-6.988
-1.0,700003159.1308975,2.2206873894,5407.5432294558095,3921.0285091946057,-1.705,-3.426,-6.175,-7.16
-1.0,700003159.1308975,2.2206981182,6151.7687270986835,3873.468245564424,-1.707,-3.484,-6.324,-7.335
-1.0,700003159.1308975,2.2207241058,6792.036326171843,3837.0724549227884,-1.703,-3.523,-6.438,-7.47
-1.0,700003159.1308975,2.22072649,6823.3869414166975,3835.3058245685934,-1.702,-3.525,-6.444,-7.476
-1.0,700003159.1308975,2.2207274437,6823.3869414166975,3835.3058245685934,-1.702,-3.525,-6.444,-7.476
-1.0,700003159.1308975,2.2207283974,6950.243175887969,3825.6038866803838,-1.696,-3.529,-6.467,-7.505
-1.0,700003159.1308975,2.2207286358,6561.452663029057,3845.9178204535356,-1.696,-3.505,-6.4,-7.426
-1.0,700003159.1308975,2.2207303047,4466.835921509631,3984.7400971777515,-1.681,-3.325,-5.955,-6.906
-1.0,700003159.1308975,2.2207331657,3589.2193464500533,4066.305463404283,-1.643,-3.202,-5.701,-6.61
-1.0,700003159.1308975,2.2207369804,3881.5036599064824,4036.4539296760486,-1.658,-3.246,-5.792,-6.716
-1.0,700003159.1308975,2.2207419872,4709.77326396953,3964.605690612772,-1.682,-3.35,-6.017,-6.979
-1.0,700003159.1308975,2.2207481861,5675.446054085472,3896.7271730789967,-1.69,-3.438,-6.232,-7.23
-1.0,700003159.1308975,2.2207558155,6426.877173170194,3851.2348242893136,-1.69,-3.491,-6.375,-7.399
-1.0,700003159.1308975,2.220764637,6839.116472814293,3828.2474331682283,-1.687,-3.517,-6.449,-7.485
-1.0,700003159.1308975,2.2207746506,7030.723198838334,3817.684194975441,-1.685,-3.526,-6.479,-7.522
-1.0,700003159.1308975,2.2207863331,7112.1351365332885,3812.4135110429906,-1.682,-3.53,-6.494,-7.539
-1.0,700003159.1308975,2.2207865715,8912.509381337459,3734.220854303426,-1.669,-3.61,-6.752,-7.842
-1.0,700003159.1308975,2.220788002,6918.309709189362,3822.0819974268243,-1.681,-3.517,-6.461,-7.501
-1.0,700003159.1308975,2.2207903862,4720.630412635905,3959.1321672816603,-1.671,-3.344,-6.021,-6.986
-1.0,700003159.1308975,2.2207939625,3793.1498497368207,4039.243176530981,-1.642,-3.227,-5.767,-6.69
-1.0,700003159.1308975,2.2207992077,4111.497211045221,4008.6671762730302,-1.657,-3.272,-5.86,-6.799
-1.0,700003159.1308975,2.2208058834,5000.345349769783,3937.313537008506,-1.671,-3.369,-6.086,-7.062
-1.0,700003159.1308975,2.2208142281,6011.737374832779,3869.9022919026884,-1.676,-3.454,-6.3,-7.313
-1.0,700003159.1308975,2.2208242416,6823.3869414166975,3824.7231102392916,-1.673,-3.506,-6.445,-7.484
-1.0,700003159.1308975,2.2208359241,7277.798045368242,3800.143529415859,-1.669,-3.532,-6.521,-7.574
-1.0,700003159.1308975,2.2208497524,7516.228940182053,3787.913037851565,-1.664,-3.54,-6.557,-7.616
-1.0,700003159.1308975,2.2208652496,7655.966069112562,3780.0713730181124,-1.659,-3.544,-6.579,-7.642
-1.0,700003159.1308975,2.2208657265,9705.099672454899,3698.281797802663,-1.642,-3.622,-6.851,-7.962
-1.0,700003159.1308975,2.220867157,7533.55563733717,3785.297343755959,-1.659,-3.538,-6.56,-7.621
-1.0,700003159.1308975,2.220870018,5164.163692720711,3920.125762951651,-1.659,-3.377,-6.126,-7.112
-1.0,700003159.1308975,2.220874548,4139.996748197304,4000.3685104612505,-1.645,-3.268,-5.869,-6.812
-1.0,700003159.1308975,2.2208809853,4487.453899331323,3970.0867811218423,-1.65,-3.308,-5.962,-6.921
-1.0,700003159.1308975,2.2208890915,5420.008904016238,3900.317844750656,-1.657,-3.398,-6.183,-7.18
-1.0,700003159.1308975,2.2208993435,6486.344335482381,3834.4228144309195,-1.654,-3.473,-6.39,-7.423
-1.0,700003159.1308975,2.2209117413,7328.245331389045,3790.5305394288553,-1.646,-3.518,-6.528,-7.586
-1.0,700003159.1308975,2.2209262848,7798.3011052325855,3767.0379898390893,-1.637,-3.536,-6.6,-7.672
-1.0,700003159.1308975,2.2209429741,8016.78063387679,3754.9140460984254,-1.63,-3.542,-6.633,-7.712
-1.0,700003159.1308975,2.2209620476,8147.042840208396,3748.003605517044,-1.623,-3.544,-6.653,-7.735
-1.0,700003159.1308975,2.2209625244,10495.42428652322,3659.3167197534817,-1.59,-3.608,-6.945,-8.077
-1.0,700003159.1308975,2.2209639549,8165.823713585923,3747.1406951440317,-1.621,-3.543,-6.653,-7.736
-1.0,700003159.1308975,2.2209668159,5623.413251903491,3879.7165729369067,-1.638,-3.402,-6.226,-7.233
-1.0,700003159.1308975,2.2209713459,4497.798548932879,3962.7803425543934,-1.63,-3.297,-5.965,-6.929
-1.0,700003159.1308975,2.2209775448,4864.072056914614,3931.877693146969,-1.63,-3.333,-6.058,-7.038
-1.0,700003159.1308975,2.220985651,5861.3816451402845,3861.8908944898994,-1.628,-3.413,-6.273,-7.291
-1.0,700003159.1308975,2.220995903,6966.265141107687,3797.519389713327,-1.616,-3.478,-6.472,-7.527
-1.0,700003159.1308975,2.2210080624,7816.278045883293,3753.185242379138,-1.6,-3.512,-6.605,-7.684
-1.0,700003159.1308975,2.2210223675,8298.507675144225,3729.9241475247336,-1.587,-3.526,-6.674,-7.767
-1.0,700003159.1308975,2.2210390568,8511.380382023768,3717.9196520448604,-1.578,-3.53,-6.705,-7.805
-1.0,700003159.1308975,2.2210578918,8649.67918775693,3710.2228861746507,-1.57,-3.53,-6.724,-7.828
-1.0,700003159.1308975,2.2210581303,11297.959146727977,3614.0986263961313,-2.13,-3.977,-7.028,-8.132
-1.0,700003159.1308975,2.2210593224,8790.225168308842,3703.39469397536,-2.038,-3.834,-6.754,-7.803
-1.0,700003159.1308975,2.2210617065,6081.350012787177,3837.9560752329744,-1.966,-3.638,-6.337,-7.313
-1.0,700003159.1308975,2.2210650444,4841.7236758409945,3924.641573534599,-1.91,-3.506,-6.073,-7.008
-1.0,700003159.1308975,2.2210700512,5236.0043658575005,3891.3473626359746,-1.927,-3.55,-6.165,-7.116
-1.0,700003159.1308975,2.2210762501,6266.138646723356,3816.8052419008277,-1.958,-3.644,-6.372,-7.36
-1.0,700003159.1308975,2.2210841179,7396.052750582382,3746.277983440598,-1.974,-3.72,-6.561,-7.587
-1.0,700003159.1308975,2.2210936546,8260.379495771784,3695.72799739443,-1.971,-3.761,-6.685,-7.739
-1.0,700003159.1308975,2.2211046219,8729.713683881113,3663.532089914713,-1.952,-3.77,-6.747,-7.82
-1.0,700003159.1308975,2.2211174965,8933.054837332953,3642.503686647633,-1.928,-3.762,-6.774,-7.86
-1.0,700003159.1308975,2.2211322784,9036.494737223014,3624.933134609571,-1.89,-3.743,-6.788,-7.885
-1.0,700003159.1308975,2.2211325169,11912.420080273738,3509.1343835855246,-1.985,-3.879,-7.082,-8.256
-1.0,700003159.1308975,2.221133709,9289.663867799363,3612.434655644614,-1.922,-3.765,-6.814,-7.919
-1.0,700003159.1308975,2.2211358547,6456.542290346556,3768.773174453475,-1.89,-3.609,-6.408,-7.422
-1.0,700003159.1308975,2.2211391926,5128.613839913648,3869.9022919026884,-1.865,-3.5,-6.143,-7.105
-1.0,700003159.1308975,2.221143961,5546.25712957911,3830.010812264487,-1.867,-3.533,-6.234,-7.216
-1.0,700003159.1308975,2.2211499214,6606.934480075957,3745.4154703610106,-1.866,-3.602,-6.437,-7.463
-1.0,700003159.1308975,2.2211575508,7762.4711662869195,3666.0636424947174,-1.851,-3.655,-6.619,-7.691
-1.0,700003159.1308975,2.2211666107,8629.785477669702,3609.940135864167,-1.838,-3.682,-6.736,-7.843
-1.0,700003159.1308975,2.221177578,9120.108393559096,3574.3740626448075,-1.826,-3.687,-6.792,-7.922
-1.0,700003159.1308975,2.2211899757,9311.078754678301,3550.5857031262385,-1.803,-3.676,-6.816,-7.962
-1.0,700003159.1308975,2.2212040424,9440.608762859236,3529.3928374635293,-1.772,-3.656,-6.828,-7.989
-1.0,700003159.1308975,2.2212042809,12560.299636948754,3400.1650580407095,-1.775,-3.744,-7.142,-8.386
-1.0,700003159.1308975,2.2212054729,9772.372209558112,3511.5592451629086,-1.774,-3.666,-6.866,-8.039
-1.0,700003159.1308975,2.2212076187,6823.3869414166975,3677.9007042238622,-1.754,-3.537,-6.474,-7.54
-1.0,700003159.1308975,2.2212109566,5407.5432294558095,3788.785337484371,-1.761,-3.452,-6.211,-7.215
-1.0,700003159.1308975,2.2212154865,5847.900841444806,3745.4154703610106,-1.749,-3.474,-6.301,-7.329
-1.0,700003159.1308975,2.221221447,6950.243175887969,3655.1061999238823,-1.721,-3.522,-6.497,-7.576
-1.0,700003159.1308975,2.221228838,8128.305161640995,3571.083458083457,-1.696,-3.559,-6.669,-7.801
-1.0,700003159.1308975,2.2212376595,9015.711376059571,3511.5592451629086,-1.687,-3.579,-6.777,-7.95
-1.0,700003159.1308975,2.2212481499,9484.184633008968,3474.561474970439,-1.666,-3.576,-6.832,-8.03
-1.0,700003159.1308975,2.2212603092,9705.099672454899,3448.2599655262325,-1.635,-3.558,-6.855,-8.071
-1.0,700003159.1308975,2.2212741375,9794.89985408699,3423.733876264524,-1.593,-3.529,-6.868,-8.099
-1.0,700003159.1308975,2.2212743759,13152.248321922376,3284.7324430306794,-1.523,-3.581,-7.192,-8.513
-1.0,700003159.1308975,2.2212753296,10256.519262514079,3400.1650580407095,-1.58,-3.535,-6.92,-8.166
-1.0,700003159.1308975,2.2212772369,7177.942912713615,3573.5511273490297,-1.565,-3.427,-6.534,-7.665
-1.0,700003159.1308975,2.2212803364,5688.529308438413,3689.775985701505,-1.603,-3.364,-6.274,-7.334
-1.0,700003159.1308975,2.2212846279,6151.7687270986835,3644.181507888609,-1.577,-3.377,-6.362,-7.449
-1.0,700003159.1308975,2.2212898731,7277.798045368242,3548.9509744230404,-1.533,-3.407,-6.548,-7.696
-1.0,700003159.1308975,2.2212967873,8491.804750363135,3462.5814654379196,-1.521,-3.437,-6.711,-7.918
-1.0,700003159.1308975,2.2213048935,9375.620069258803,3400.9480651219096,-1.493,-3.442,-6.821,-8.067
-1.0,700003159.1308975,2.2213144302,9862.79485631211,3361.243690470534,-1.44,-3.422,-6.875,-8.148
-1.0,700003159.1308975,2.2213253975,10069.316688518044,3333.496473327569,-1.389,-3.393,-6.898,-8.189
-1.0,700003159.1308975,2.2213380337,10185.91388054117,3308.2627885569786,-1.332,-3.357,-6.909,-8.217
-1.0,700003159.1308975,2.2213382721,13803.842646028837,3158.6390484234703,-1.241,-3.398,-7.25,-8.646
-1.0,700003159.1308975,2.2213392258,10764.65213629835,3277.932453002282,-1.307,-3.359,-6.97,-8.297
-1.0,700003159.1308975,2.2213413715,7550.922276654342,3457.0049388687194,-1.382,-3.301,-6.584,-7.794
-1.0,700003159.1308975,2.2213442326,5970.352865838366,3579.3156556503877,-1.397,-3.243,-6.331,-7.459
-1.0,700003159.1308975,2.2213485241,6456.542290346556,3529.3928374635293,-1.362,-3.245,-6.416,-7.577
-1.0,700003159.1308975,2.2213540077,7638.357835776907,3430.8363277495027,-1.338,-3.27,-6.593,-7.821
-1.0,700003159.1308975,2.2213609219,8871.560120379609,3341.1809763304277,-1.286,-3.275,-6.756,-8.043
-1.0,700003159.1308975,2.2213692665,9772.372209558112,3278.687311745482,-1.215,-3.259,-6.862,-8.189
-1.0,700003159.1308975,2.2213788033,10232.929922807536,3239.664224348446,-1.159,-3.237,-6.915,-8.267
-1.0,700003159.1308975,2.2213900089,10447.202192208004,3214.400596524381,-1.113,-3.211,-6.939,-8.305
-1.0,700003159.1308975,2.2214028835,10568.175092136586,3193.7432529771722,-1.069,-3.184,-6.952,-8.33
-1.0,700003159.1308975,2.2214031219,14454.39770745928,3031.796170085468,-0.952,-3.211,-7.308,-8.757
-1.0,700003159.1308975,2.2214040756,11297.959146727977,3157.9118286322528,-1.038,-3.187,-7.029,-8.426
-1.0,700003159.1308975,2.2214057446,7961.593504173184,3346.5706661967974,-1.193,-3.171,-6.637,-7.921
-1.0,700003159.1308975,2.2214083672,6266.138646723356,3480.96775232401,-1.228,-3.136,-6.38,-7.575
-1.0,700003159.1308975,2.2214119434,6776.41507610675,3434.788498657803,-1.216,-3.146,-6.464,-7.69
-1.0,700003159.1308975,2.2214167118,7979.946872679769,3340.4117295457277,-1.179,-3.163,-6.64,-7.929
-1.0,700003159.1308975,2.2214226723,9225.71427154763,3257.616829660631,-1.102,-3.16,-6.8,-8.141
-1.0,700003159.1308975,2.2214298248,10115.794542598982,3203.3176008528117,-1.05,-3.156,-6.904,-8.277
-1.0,700003159.1308975,2.2214384079,10592.537251772897,3173.9494085622255,-1.017,-3.149,-6.957,-8.346
-1.0,700003159.1308975,2.2214479446,10789.467222298297,3157.9118286322528,-0.991,-3.139,-6.98,-8.377
-1.0,700003159.1308975,2.2214591503,10889.300933334333,3146.2990561619904,-0.968,-3.127,-6.991,-8.395
-1.0,700003159.1308975,2.2214593887,15031.419660900208,2974.404298125139,-0.829,-3.139,-7.358,-8.821
-1.0,700003159.1308975,2.2214603424,11748.975549395303,3103.1302147534125,-0.937,-3.131,-7.079,-8.504
-1.0,700003159.1308975,2.2214620113,8317.63771102671,3295.3382547359615,-1.099,-3.122,-6.686,-8.003
-1.0,700003159.1308975,2.2214643955,6546.361740672747,3435.5794789987463,-1.181,-3.11,-6.426,-7.65
-1.0,700003159.1308975,2.2214682102,7079.457843841381,3386.881485634765,-1.163,-3.115,-6.51,-7.767
-1.0,700003159.1308975,2.2214727402,8298.507675144225,3288.51630875983,-1.078,-3.107,-6.684,-8.006
-1.0,700003159.1308975,2.2214784622,9571.94071294844,3201.842758202777,-0.986,-3.092,-6.842,-8.216
-1.0,700003159.1308975,2.2214856148,10447.202192208004,3142.678829879227,-0.917,-3.077,-6.947,-8.352
-1.0,700003159.1308975,2.221493721,10939.563662720931,3107.420310388586,-0.87,-3.059,-6.999,-8.422
-1.0,700003159.1308975,2.2215032578,11142.945335917293,3083.8979622506845,-0.827,-3.035,-7.021,-8.454
-1.0,700003159.1308975,2.221514225,11220.18454301963,3062.6685580037692,-0.777,-3.003,-7.031,-8.472
-1.0,700003159.1308975,2.2215144634,15631.47642640954,2874.7494529363703,-0.59,-2.987,-7.417,-8.899
-1.0,700003159.1308975,2.2215151787,12246.16199265049,3009.539168873201,-0.716,-2.991,-7.13,-8.586
-1.0,700003159.1308975,2.2215168476,8689.60429286302,3209.96280421069,-0.91,-3.007,-6.738,-8.107
-1.0,700003159.1308975,2.2215192318,6823.3869414166975,3358.1492958644226,-1.059,-3.027,-6.47,-7.747
-1.0,700003159.1308975,2.2215225697,7379.042301291008,3300.6539952850767,-0.987,-3.003,-6.555,-7.869
-1.0,700003159.1308975,2.2215268612,8629.785477669702,3192.272818462188,-0.854,-2.966,-6.731,-8.111
-1.0,700003159.1308975,2.2215321064,9908.319448927676,3095.2804165939788,-0.734,-2.931,-6.892,-8.321
-1.0,700003159.1308975,2.2215385437,10789.467222298297,3027.610480923131,-0.631,-2.889,-6.99,-8.442
-1.0,700003159.1308975,2.2215461731,11246.049739669268,2985.3826189179604,-0.559,-2.853,-7.041,-8.502
-1.0,700003159.1308975,2.2215549946,11455.129414455361,2957.331437419893,-0.491,-2.813,-7.063,-8.532
-1.0,700003159.1308975,2.2215650082,11561.122421920982,2932.9185340084423,-0.433,-2.775,-7.076,-8.549
-1.0,700003159.1308975,2.2215652466,16218.100973589299,2722.074455105331,-0.266,-2.778,-7.497,-8.965
-1.0,700003159.1308975,2.2215659618,12735.030810166629,2864.8375471900267,-0.345,-2.749,-7.196,-8.678
-1.0,700003159.1308975,2.2215673923,9078.205301781862,3076.096814740708,-0.589,-2.801,-6.798,-8.235
-1.0,700003159.1308975,2.2215695381,7095.777679633888,3233.7020353739117,-0.758,-2.833,-6.516,-7.872
-1.0,700003159.1308975,2.2215726376,7673.614893618185,3162.2776601683795,-0.648,-2.784,-6.607,-8.003
-1.0,700003159.1308975,2.2215766907,8953.647655495937,3037.3860919461044,-0.466,-2.71,-6.786,-8.235
-1.0,700003159.1308975,2.2215816975,10232.929922807536,2928.8693550290154,-0.294,-2.637,-6.944,-8.418
-1.0,700003159.1308975,2.2215878963,11117.317272815919,2856.932634583698,-0.182,-2.59,-7.05,-8.532
-1.0,700003159.1308975,2.2215948105,11561.122421920982,2817.7340493202273,-0.124,-2.565,-7.105,-8.587
-1.0,700003159.1308975,2.2216031551,11776.059735208066,2802.8509276466875,-0.103,-2.557,-7.128,-8.608
-1.0,700003159.1308975,2.2216124535,11857.687481671597,2806.725885414676,-0.114,-2.568,-7.136,-8.617
-1.0,700003159.1308975,2.2216126919,16826.740610704674,2560.943517156767,-0.073,-2.655,-7.567,-8.997
-1.0,700003159.1308975,2.2216134071,13212.956341865765,2687.818878638133,0.03,-2.504,-7.282,-8.744
-1.0,700003159.1308975,2.2216145992,9440.608762859236,2860.2236939542804,-0.022,-2.423,-6.872,-8.354
-1.0,700003159.1308975,2.221616745,7379.042301291008,2951.8888459446066,-0.029,-2.339,-6.581,-8.053
-1.0,700003159.1308975,2.221619606,7961.593504173184,2779.7132677592886,0.326,-2.122,-6.702,-8.18
-1.0,700003159.1308975,2.2216231823,9225.71427154763,2555.0535105132612,0.571,-2.009,-6.915,-8.345
-1.0,700003159.1308975,2.2216279507,10471.285480508985,2361.5655239177186,0.442,-2.141,-7.053,-8.483
-1.0,700003159.1308975,2.2216334343,11297.959146727977,2228.435149270303,0.358,-2.224,-7.136,-8.566
-1.0,700003159.1308975,2.2216398716,11721.953655481304,2164.7113787030034,0.32,-2.263,-7.174,-8.605
-1.0,700003159.1308975,2.221647501,11857.687481671597,2177.709772353159,0.307,-2.275,-7.187,-8.617
-1.0,700003159.1308975,2.2216560841,11885.022274370189,2286.1251425434634,0.304,-2.279,-7.19,-8.621
