FeH,Age,Mini,L,Te,Bmag,Vmag,Jmag,Kmag
0.4,1799989617.2455904,0.1000000015,0.0005321082592667942,2332.9208255601066,19.406,17.705,10.854,9.923
0.4,1799989617.2455904,0.1109984219,0.0007177942912713615,2413.79286937296,19.061,17.369,10.53,9.598
0.4,1799989617.2455904,0.1144140661,0.0007816278045883292,2438.3722096838287,18.96,17.271,10.436,9.504
0.4,1799989617.2455904,0.1199999973,0.0008974287945007481,2476.851675793545,18.802,17.117,10.287,9.355
0.4,1799989617.2455904,0.1400000006,0.0013273944577297401,2578.101431424051,18.35,16.678,9.863,8.93
0.4,1799989617.2455904,0.1599999964,0.0018197008586099826,2657.6635495543114,17.716,16.081,9.534,8.606
0.4,1799989617.2455904,0.200000003,0.0030338911841942717,2793.1869222539713,16.39,14.851,9.023,8.113
0.4,1799989617.2455904,0.2463807911,0.00468813382145265,2896.6765264870983,15.436,13.943,8.585,7.686
0.4,1799989617.2455904,0.25,0.004830588020397728,2904.022654464451,15.373,13.883,8.554,7.656
0.4,1799989617.2455904,0.3090464175,0.00753355563733717,3004.692272040942,14.497,13.05,8.102,7.214
0.4,1799989617.2455904,0.3226284683,0.008375292821268827,3025.519803872306,14.308,12.87,7.995,7.109
0.4,1799989617.2455904,0.3327774107,0.00901571137605957,3040.88502567628,14.176,12.741,7.92,7.035
0.4,1799989617.2455904,0.349999994,0.010139113857366794,3066.9027151623077,13.961,12.531,7.801,6.918
0.4,1799989617.2455904,0.400000006,0.014060475241299136,3152.825975955186,13.358,11.957,7.472,6.592
0.4,1799989617.2455904,0.4290252924,0.017139573075084253,3209.223768048436,13.0,11.617,7.276,6.395
0.4,1799989617.2455904,0.4443239272,0.01892343618644975,3237.42711634235,12.825,11.45,7.178,6.296
0.4,1799989617.2455904,0.4500000179,0.0195884467350599,3247.1324216780226,12.763,11.39,7.143,6.261
0.4,1799989617.2455904,0.5000000596,0.02741574171927882,3352.740958484161,12.177,10.828,6.815,5.925
0.4,1799989617.2455904,0.5141684413,0.030269134281013063,3389.221868727554,11.998,10.66,6.717,5.825
0.4,1799989617.2455904,0.5500000715,0.03863669770540691,3478.5640153042373,11.576,10.258,6.48,5.584
0.4,1799989617.2455904,0.6000000238,0.05482769649208539,3642.503686647633,10.923,9.612,6.153,5.253
0.4,1799989617.2455904,0.6160280108,0.06180164001384158,3714.496897976222,10.68,9.359,6.049,5.151
0.4,1799989617.2455904,0.6499999762,0.07870457896950984,3864.55951581426,10.195,8.87,5.833,4.949
0.4,1799989617.2455904,0.7000000477,0.11168632477805612,4111.497211045221,9.477,8.173,5.523,4.686
0.4,1799989617.2455904,0.7309710383,0.1406047524129914,4331.1178393104055,8.947,7.693,5.334,4.55
0.4,1799989617.2455904,0.75,0.16143585568264862,4466.835921509631,8.627,7.417,5.224,4.482
0.4,1799989617.2455904,0.7995219231,0.21527817347243727,4651.574703021666,8.084,6.953,4.963,4.287
0.4,1799989617.2455904,0.8490439653,0.28641779699065806,4849.5339049834165,7.559,6.514,4.711,4.102
0.4,1799989617.2455904,0.8560225964,0.29785164294291894,4876.407606118823,7.488,6.454,4.676,4.076
0.4,1799989617.2455904,0.8985658288,0.3767037989839089,5046.612975635282,7.078,6.111,4.471,3.921
0.4,1799989617.2455904,0.9336937666,0.45498806015004856,5180.837850719928,6.766,5.847,4.305,3.793
0.4,1799989617.2455904,0.9480878115,0.49090787615260306,5236.0043658575005,6.644,5.743,4.239,3.742
0.4,1799989617.2455904,0.9686868787,0.5470159628939716,5310.066989662834,6.475,5.6,4.145,3.666
0.4,1799989617.2455904,0.9976097345,0.6353309318517437,5415.019189534895,6.246,5.404,4.016,3.562
0.4,1799989617.2455904,1.0193066597,0.7095777679633888,5489.085556070448,6.08,5.262,3.919,3.482
0.4,1799989617.2455904,1.0471316576,0.8147042840208396,5582.130689177262,5.875,5.087,3.799,3.383
0.4,1799989617.2455904,1.0559073687,0.8511380382023764,5609.188048338182,5.812,5.032,3.761,3.351
0.4,1799989617.2455904,1.0966536999,1.0399201658290593,5737.200135493514,5.525,4.787,3.588,3.206
0.4,1799989617.2455904,1.1143375635,1.132400363235557,5787.619883491208,5.406,4.684,3.513,3.141
0.4,1799989617.2455904,1.1461756229,1.3152248321922384,5877.5996368060005,5.198,4.505,3.381,3.027
0.4,1799989617.2455904,1.195697546,1.651961798229015,6006.202909194723,4.889,4.237,3.18,2.851
0.4,1799989617.2455904,1.2452194691,2.0511621788255656,6119.275411239092,4.604,3.989,2.987,2.679
0.4,1799989617.2455904,1.2481099367,2.07491351745491,6124.914068474841,4.588,3.975,2.976,2.669
0.4,1799989617.2455904,1.2947413921,2.51188643150958,6217.2738929396055,4.342,3.758,2.802,2.512
0.4,1799989617.2455904,1.3129376173,2.69773943244492,6250.287580151303,4.25,3.677,2.736,2.452
0.4,1799989617.2455904,1.3442634344,3.047894989627983,6303.764788294872,4.096,3.54,2.624,2.349
0.4,1799989617.2455904,1.3584991693,3.213660538640317,6325.574863525833,4.029,3.479,2.573,2.302
0.4,1799989617.2455904,1.3937852383,3.664375746478332,6376.758944326096,3.865,3.332,2.449,2.187
0.4,1799989617.2455904,1.4433073997,4.385306977749857,6435.762368376424,3.646,3.131,2.275,2.023
0.4,1799989617.2455904,1.451921463,4.518559443749224,6443.17608047901,3.61,3.098,2.245,1.994
0.4,1799989617.2455904,1.487057209,5.105049999754062,6463.9799399953445,3.469,2.964,2.122,1.874
0.4,1799989617.2455904,1.4928293228,5.199959965335159,6465.468497750434,3.447,2.943,2.101,1.854
0.4,1799989617.2455904,1.5042537451,5.407543229455809,6469.9362280868145,3.404,2.9,2.061,1.814
0.4,1799989617.2455904,1.5314204693,5.91561634175474,6471.426157485831,3.303,2.802,1.963,1.717
0.4,1799989617.2455904,1.5423511267,6.137620051647943,6469.9362280868145,3.265,2.762,1.924,1.677
0.4,1799989617.2455904,1.556609869,6.4268771731701975,6466.957398298083,3.214,2.712,1.872,1.626
0.4,1799989617.2455904,1.5788761377,6.918309709189364,6459.516322696259,3.137,2.633,1.791,1.543
0.4,1799989617.2455904,1.5918731689,7.211074791828996,6452.083809019726,3.094,2.588,1.742,1.494
0.4,1799989617.2455904,1.6047602892,7.516228940182055,6443.17608047901,3.052,2.543,1.695,1.445
0.4,1799989617.2455904,1.6292260885,8.109610578538408,6418.0042448391805,2.976,2.461,1.601,1.348
0.4,1799989617.2455904,1.641395092,8.433347577642754,6401.769013178951,2.941,2.421,1.554,1.298
0.4,1799989617.2455904,1.6574724913,8.851156098308353,6376.758944326096,2.896,2.368,1.492,1.231
0.4,1799989617.2455904,1.6661560535,9.099132726322514,6360.628048372604,2.873,2.341,1.458,1.195
0.4,1799989617.2455904,1.677063942,9.397233105646377,6341.616862711066,2.845,2.307,1.415,1.149
0.4,1799989617.2455904,1.6909170151,9.772372209558107,6312.479779910386,2.812,2.266,1.361,1.091
0.4,1799989617.2455904,1.7102402449,10.327614057613975,6267.581644592105,2.769,2.209,1.284,1.005
0.4,1799989617.2455904,1.7156780958,10.495424286523221,6251.726927756856,2.759,2.193,1.262,0.981
0.4,1799989617.2455904,1.7317835093,10.964781961431852,6204.403011913813,2.732,2.151,1.197,0.908
0.4,1799989617.2455904,1.7404389381,11.220184543019636,6175.896369491144,2.719,2.13,1.163,0.869
0.4,1799989617.2455904,1.7462973595,11.37627285823431,6157.437325570652,2.71,2.115,1.139,0.842
0.4,1799989617.2455904,1.7643442154,11.93988104464273,6096.772644572435,2.685,2.07,1.066,0.757
0.4,1799989617.2455904,1.7651998997,11.967405313072437,6093.9656234012,2.684,2.068,1.062,0.753
0.4,1799989617.2455904,1.7786732912,12.387965865303691,6045.051428653462,2.667,2.036,1.006,0.688
0.4,1799989617.2455904,1.7899608612,12.852866599436155,6013.121787899338,2.642,2.0,0.954,0.63
0.4,1799989617.2455904,1.7969169617,13.182567385564074,5992.389025834782,2.625,1.977,0.921,0.593
0.4,1799989617.2455904,1.8021850586,13.489628825916533,5984.115950603199,2.604,1.952,0.892,0.562
0.4,1799989617.2455904,1.8044919968,13.867558288718882,6002.055403871976,2.565,1.92,0.869,0.543
0.4,1799989617.2455904,1.8106304407,15.240527537972914,6079.949891399825,2.424,1.805,0.794,0.482
0.4,1799989617.2455904,1.8122565746,16.595869074375607,6177.3185859152,2.288,1.701,0.737,0.445
0.4,1799989617.2455904,1.8128340244,17.988709151287875,6276.246612800244,2.156,1.601,0.684,0.409
0.4,1799989617.2455904,1.8130897284,19.453600816226626,6366.489102003723,2.033,1.508,0.633,0.374
0.4,1799989617.2455904,1.8132617474,20.79696687103696,6452.083809019726,1.925,1.427,0.591,0.346
0.4,1799989617.2455904,1.8132853508,20.417379446695296,6437.244428047446,1.953,1.45,0.608,0.36
0.4,1799989617.2455904,1.8133661747,18.620871366628677,6354.77239048616,2.086,1.557,0.677,0.415
0.4,1799989617.2455904,1.8134679794,17.78279410038923,6228.7370894402875,2.189,1.62,0.681,0.397
0.4,1799989617.2455904,1.8136339188,18.03017740859569,6082.750456601517,2.239,1.622,0.613,0.303
0.4,1799989617.2455904,1.8139567375,18.071741260109267,5908.809655747817,2.321,1.646,0.547,0.203
0.4,1799989617.2455904,1.8144346476,17.418068733916144,5743.809134963175,2.445,1.716,0.53,0.152
0.4,1799989617.2455904,1.8147218227,16.82674061070467,5670.221181605434,2.523,1.77,0.543,0.148
0.4,1799989617.2455904,1.8149892092,16.330519478943348,5605.314696465377,2.592,1.819,0.555,0.146
0.4,1799989617.2455904,1.8154451847,15.310874616820303,5508.076964054036,2.718,1.914,0.593,0.16
0.4,1799989617.2455904,1.8159000874,14.223287871228198,5416.266187341721,2.852,2.019,0.645,0.191
0.4,1799989617.2455904,1.8163539171,13.182567385564074,5327.212243229622,2.988,2.127,0.7,0.224
0.4,1799989617.2455904,1.8168067932,12.33104833228909,5242.036010084628,3.114,2.225,0.745,0.248
0.4,1799989617.2455904,1.8174841404,11.776059735208072,5126.252569702836,3.245,2.318,0.762,0.233
0.4,1799989617.2455904,1.817596674,11.721953655481304,5107.401503571955,3.263,2.329,0.76,0.226
0.4,1799989617.2455904,1.8177198172,11.857687481671602,5090.9636952309365,3.264,2.324,0.743,0.205
0.4,1799989617.2455904,1.8184578419,12.852866599436155,4992.292237091719,3.254,2.276,0.625,0.059
0.4,1799989617.2455904,1.8189446926,14.190575216890918,4937.419182496813,3.194,2.194,0.502,-0.08
0.4,1799989617.2455904,1.819349885,15.703628043335524,4896.660566104027,3.119,2.102,0.38,-0.213
0.4,1799989617.2455904,1.8196979761,17.25837891990204,4864.072056914614,3.046,2.014,0.267,-0.336
0.4,1799989617.2455904,1.8200210333,18.967059212111465,4833.926025160843,2.972,1.928,0.157,-0.456
0.4,1799989617.2455904,1.8203252554,20.79696687103696,4806.1796472595415,2.899,1.842,0.05,-0.572
0.4,1799989617.2455904,1.82062006,22.750974307720703,4779.692969796099,2.826,1.758,-0.056,-0.686
0.4,1799989617.2455904,1.8209074736,24.831331052955704,4754.4468852521,2.756,1.677,-0.158,-0.796
0.4,1799989617.2455904,1.8211945295,27.10191631890843,4729.334149186516,2.686,1.596,-0.26,-0.906
0.4,1799989617.2455904,1.8214813471,29.580124665515466,4705.437399531806,2.616,1.515,-0.362,-1.016
0.4,1799989617.2455904,1.8217679262,32.359365692962825,4680.583528968204,2.545,1.432,-0.466,-1.128
0.4,1799989617.2455904,1.8220477104,35.3183169791957,4655.860935229591,2.477,1.353,-0.567,-1.238
0.4,1799989617.2455904,1.8223257065,38.54783576657719,4630.202658603084,2.408,1.272,-0.67,-1.35
0.4,1799989617.2455904,1.8226006031,42.169650342858226,4604.685783785738,2.34,1.192,-0.773,-1.462
0.4,1799989617.2455904,1.8228708506,46.13175745603793,4578.255227916937,2.272,1.112,-0.877,-1.575
0.4,1799989617.2455904,1.8231879473,51.28613839913648,4547.785786436917,2.193,1.019,-1.0,-1.709
0.4,1799989617.2455904,1.8235126734,57.279603098582925,4514.399612669502,2.111,0.921,-1.129,-1.851
0.4,1799989617.2455904,1.8237848282,62.95061828571975,4484.35514638966,2.047,0.839,-1.241,-1.973
0.4,1799989617.2455904,1.8240596056,69.5024317588797,4454.510633598985,1.984,0.756,-1.356,-2.098
0.4,1799989617.2455904,1.8242995739,75.85775750291836,4427.922387787075,1.93,0.684,-1.458,-2.21
0.4,1799989617.2455904,1.824565649,83.56030182312479,4397.440784473689,1.871,0.604,-1.57,-2.332
0.4,1799989617.2455904,1.8248677254,92.68298233793494,4366.163552976836,1.806,0.518,-1.692,-2.465
0.4,1799989617.2455904,1.8251721859,102.09394837076798,4335.108783875289,1.749,0.441,-1.806,-2.59
0.4,1799989617.2455904,1.8255072832,111.42945335917304,4308.24110479373,1.697,0.371,-1.909,-2.703
0.4,1799989617.2455904,1.8258297443,118.03206356517298,4290.421892388853,1.663,0.325,-1.975,-2.776
0.4,1799989617.2455904,1.8260929585,111.42945335917304,4309.233228186264,1.696,0.37,-1.907,-2.701
0.4,1799989617.2455904,1.8262703419,102.5651926251408,4336.107094491863,1.743,0.435,-1.811,-2.595
0.4,1799989617.2455904,1.8263952732,93.5405674147552,4365.158322401661,1.796,0.507,-1.704,-2.477
0.4,1799989617.2455904,1.826513052,84.33347577642752,4398.453449216315,1.859,0.592,-1.581,-2.343
0.4,1799989617.2455904,1.8266026974,77.62471166286916,4425.883723626264,1.909,0.661,-1.483,-2.236
0.4,1799989617.2455904,1.8266985416,71.12135136533291,4453.485062698576,1.963,0.733,-1.381,-2.123
0.4,1799989617.2455904,1.8268018961,65.16283940608427,4481.258533251555,2.018,0.806,-1.277,-2.01
0.4,1799989617.2455904,1.8269585371,58.21032177708713,4517.519126763041,2.089,0.901,-1.146,-1.867
0.4,1799989617.2455904,1.8270565271,55.08076964054035,4534.192977790139,2.129,0.949,-1.082,-1.796
0.4,1799989617.2455904,1.827100873,55.59042572704037,4531.0619497855805,2.122,0.94,-1.093,-1.809
0.4,1799989617.2455904,1.8272932768,60.673632958850526,4505.053989279239,2.062,0.865,-1.194,-1.919
0.4,1799989617.2455904,1.8276041746,66.98846094165265,4474.041415755961,1.998,0.781,-1.31,-2.045
0.4,1799989617.2455904,1.8279286623,73.2824533138904,4446.312674691088,1.942,0.706,-1.414,-2.159
0.4,1799989617.2455904,1.8283349276,81.47042840208397,4413.671434634397,1.874,0.617,-1.541,-2.297
0.4,1799989617.2455904,1.8287519217,90.78205301781857,4379.25263541926,1.808,0.528,-1.667,-2.435
0.4,1799989617.2455904,1.8291672468,100.92528860766845,4347.103696062099,1.745,0.442,-1.791,-2.571
0.4,1799989617.2455904,1.8295822144,112.2018454301963,4313.204006994161,1.682,0.358,-1.915,-2.707
0.4,1799989617.2455904,1.8299802542,124.45146117713857,4280.55419586204,1.622,0.276,-2.035,-2.84
0.4,1799989617.2455904,1.8303742409,138.03842646028852,4248.15153514646,1.563,0.196,-2.157,-2.973
0.4,1799989617.2455904,1.8307605982,153.4616982799294,4215.023497210444,1.503,0.114,-2.279,-3.106
0.4,1799989617.2455904,1.8311241865,169.82436524617444,4183.116886514957,1.444,0.033,-2.397,-3.233
0.4,1799989617.2455904,1.8314698935,187.93168168032685,4150.496003347124,1.385,-0.044,-2.514,-3.359
0.4,1799989617.2455904,1.8317984343,207.9696687103696,4119.077848677374,1.327,-0.12,-2.63,-3.486
0.4,1799989617.2455904,1.8321106434,229.61486481123632,4086.9563562815833,1.269,-0.194,-2.746,-3.612
0.4,1799989617.2455904,1.8324016333,253.51286304979072,4055.085354483839,1.212,-0.264,-2.859,-3.736
0.4,1799989617.2455904,1.8326780796,279.2543841237339,4023.4628899023123,1.156,-0.331,-2.973,-3.861
0.4,1799989617.2455904,1.8329406977,308.31879502493535,3991.167918200923,1.1,-0.399,-3.086,-3.986
0.4,1799989617.2455904,1.8331792355,338.84415613920237,3960.0438961152527,1.049,-0.457,-3.195,-4.107
0.4,1799989617.2455904,1.8334065676,372.39170625456865,3929.1625861305615,1.007,-0.507,-3.307,-4.232
0.4,1799989617.2455904,1.8336176872,408.3193863326923,3897.6245309771994,0.972,-0.552,-3.419,-4.357
0.4,1799989617.2455904,1.8338181973,448.7453899331323,3866.339621093609,0.942,-0.588,-3.531,-4.482
0.4,1799989617.2455904,1.8340005875,490.9078761526029,3835.3058245685934,0.917,-0.618,-3.639,-4.603
0.4,1799989617.2455904,1.8341732025,537.0317963702527,3804.5211258004038,0.892,-0.648,-3.747,-4.723
0.4,1799989617.2455904,1.8343342543,587.4893525297769,3773.9835253658575,0.881,-0.658,-3.854,-4.843
0.4,1799989617.2455904,1.8344871998,641.2095765851615,3742.8291224080526,0.871,-0.665,-3.962,-4.963
0.4,1799989617.2455904,1.8346290588,699.8419960022738,3711.931900441403,0.865,-0.668,-4.067,-5.081
0.4,1799989617.2455904,1.8347591162,760.3262769401815,3682.1374823089295,0.875,-0.65,-4.17,-5.196
0.4,1799989617.2455904,1.8348814249,826.0379495771783,3651.741272548377,0.888,-0.628,-4.271,-5.31
0.4,1799989617.2455904,1.8349975348,897.4287945007482,3621.5959848601933,0.906,-0.6,-4.373,-5.423
0.4,1799989617.2455904,1.8351134062,974.9896377173867,3590.872623694513,0.944,-0.547,-4.476,-5.538
0.4,1799989617.2455904,1.8351134062,40.179081084894,4697.859239439367,2.291,1.184,-0.698,-1.354
0.4,1799989617.2455904,1.8369239569,42.95364267648873,4676.274536892873,2.243,1.126,-0.774,-1.438
0.4,1799989617.2455904,1.8387832642,42.85485203974394,4679.505908852532,2.242,1.126,-0.771,-1.434
0.4,1799989617.2455904,1.8393294811,42.85485203974394,4680.583528968204,2.241,1.126,-0.771,-1.433
0.4,1799989617.2455904,1.8405939341,42.756288615158624,4682.739513736003,2.24,1.126,-0.769,-1.43
0.4,1799989617.2455904,1.8423917294,42.65795188015925,4684.8964916001305,2.239,1.126,-0.767,-1.427
0.4,1799989617.2455904,1.844178319,42.65795188015925,4688.13382145265,2.237,1.125,-0.764,-1.423
0.4,1799989617.2455904,1.8461141586,42.55984131337431,4691.37338834597,2.236,1.125,-0.762,-1.42
0.4,1799989617.2455904,1.8481398821,42.55984131337431,4694.615193825913,2.234,1.124,-0.76,-1.417
0.4,1799989617.2455904,1.8500721455,42.55984131337431,4696.777641902296,2.232,1.123,-0.759,-1.415
0.4,1799989617.2455904,1.8519693613,42.46195639463128,4700.023181798009,2.229,1.122,-0.758,-1.413
0.4,1799989617.2455904,1.8540582657,42.55984131337431,4702.188120918429,2.226,1.12,-0.757,-1.412
0.4,1799989617.2455904,1.8560891151,42.55984131337431,4705.437399531806,2.223,1.118,-0.757,-1.411
0.4,1799989617.2455904,1.8581832647,42.55984131337431,4707.604832565835,2.219,1.116,-0.757,-1.41
0.4,1799989617.2455904,1.8602341413,42.65795188015925,4709.77326396953,2.216,1.113,-0.758,-1.41
0.4,1799989617.2455904,1.8624271154,42.65795188015925,4711.94269420276,2.212,1.109,-0.759,-1.41
0.4,1799989617.2455904,1.8641414642,42.756288615158624,4714.113123725611,2.208,1.107,-0.76,-1.411
0.4,1799989617.2455904,1.8653284311,42.756288615158624,4716.284552998378,2.207,1.107,-0.759,-1.409
0.4,1799989617.2455904,1.866429925,42.85485203974394,4716.284552998378,2.204,1.103,-0.762,-1.412
0.4,1799989617.2455904,1.8687515259,42.95364267648873,4718.456982481569,2.2,1.101,-0.763,-1.412
0.4,1799989617.2455904,1.8715062141,42.95364267648873,4720.630412635905,2.196,1.098,-0.764,-1.413
0.4,1799989617.2455904,1.8747297525,43.151907682776525,4722.804843922316,2.191,1.093,-0.767,-1.415
0.4,1799989617.2455904,1.8788528442,43.35108783875289,4724.980276801948,2.183,1.086,-0.773,-1.419
0.4,1799989617.2455904,1.8843233585,43.752210515825205,4726.06836898339,2.171,1.075,-0.782,-1.428
0.4,1799989617.2455904,1.8889535666,44.46312674691086,4723.892435134152,2.157,1.06,-0.799,-1.446
0.4,1799989617.2455904,1.9137656689,44.157044735331255,4731.512589614803,2.157,1.062,-0.791,-1.435
0.4,1799989617.2455904,1.9183574915,44.977985489328795,4729.334149186516,2.139,1.044,-0.811,-1.456
0.4,1799989617.2455904,1.9254957438,46.77351412871981,4720.630412635905,2.106,1.007,-0.855,-1.503
0.4,1799989617.2455904,1.9308239222,49.43106869868354,4702.188120918429,2.064,0.957,-0.92,-1.574
0.4,1799989617.2455904,1.9327090979,50.23425895223871,4696.777641902296,2.05,0.941,-0.941,-1.596
0.4,1799989617.2455904,1.9362119436,56.36376558259543,4652.645890999017,1.971,0.842,-1.078,-1.749
0.4,1799989617.2455904,1.9375587702,62.23002851691595,4616.363515404673,1.905,0.759,-1.193,-1.877
0.4,1799989617.2455904,1.9382052422,68.86522963442762,4578.255227916937,1.838,0.673,-1.313,-2.01
0.4,1799989617.2455904,1.938326478,71.12135136533291,4566.673896495316,1.817,0.645,-1.353,-2.054
0.4,1799989617.2455904,1.9385005236,74.98942093324558,4547.785786436917,1.788,0.604,-1.414,-2.121
0.4,1799989617.2455904,1.9386737347,82.03515443298181,4514.399612669502,1.735,0.53,-1.521,-2.239
0.4,1799989617.2455904,1.9387788773,89.53647655495938,4483.322704327333,1.682,0.457,-1.627,-2.356
0.4,1799989617.2455904,1.9388452768,98.4011105761134,4450.409766495372,1.628,0.381,-1.737,-2.478
0.4,1799989617.2455904,1.9388830662,106.16955571987242,4423.845998088853,1.585,0.322,-1.826,-2.576
0.4,1799989617.2455904,1.9388979673,109.64781961431851,4411.6393317691345,1.566,0.295,-1.865,-2.62
0.4,1799989617.2455904,1.9389330149,120.50359403717974,4380.261111703606,1.513,0.22,-1.975,-2.741
0.4,1799989617.2455904,1.9389653206,130.9181922999407,4350.10760630697,1.466,0.154,-2.075,-2.851
0.4,1799989617.2455904,1.9389975071,141.2537544622754,4324.142525098645,1.425,0.097,-2.163,-2.949
0.4,1799989617.2455904,1.9390656948,149.9684835502374,4305.266104917106,1.393,0.051,-2.232,-3.025
0.4,1799989617.2455904,1.939125061,137.08817661648536,4335.108783875289,1.44,0.118,-2.129,-2.91
0.4,1799989617.2455904,1.9392371178,124.73835142429432,4368.174708649131,1.492,0.191,-2.017,-2.787
0.4,1799989617.2455904,1.9395473003,116.94993910198711,4390.358656409448,1.528,0.242,-1.941,-2.703
0.4,1799989617.2455904,1.9420310259,117.21953655481303,4392.380956904633,1.524,0.239,-1.943,-2.704
0.4,1799989617.2455904,1.9438103437,130.61708881318418,4356.121655464697,1.461,0.152,-2.069,-2.843
0.4,1799989617.2455904,1.9450216293,145.2111617587742,4320.161676181425,1.403,0.071,-2.194,-2.981
0.4,1799989617.2455904,1.9458022118,159.220872705117,4288.446534968204,1.352,-0.001,-2.303,-3.102
0.4,1799989617.2455904,1.946385622,174.18068733916147,4257.944535825967,1.303,-0.073,-2.407,-3.215
0.4,1799989617.2455904,1.9468523264,190.54607179632464,4228.63305181499,1.255,-0.14,-2.509,-3.326
0.4,1799989617.2455904,1.9472447634,207.49135174549107,4198.556481973773,1.207,-0.208,-2.611,-3.436
0.4,1799989617.2455904,1.947584033,226.46443075930597,4168.693834703355,1.157,-0.276,-2.712,-3.547
0.4,1799989617.2455904,1.9478815794,247.1724145016129,4139.043588458339,1.108,-0.339,-2.814,-3.658
0.4,1799989617.2455904,1.9481408596,270.3958364108843,4108.6580701062485,1.059,-0.403,-2.917,-3.771
0.4,1799989617.2455904,1.9483606815,295.1209226666387,4077.556617502122,1.01,-0.467,-3.019,-3.885
0.4,1799989617.2455904,1.9485399723,321.3660538640318,4048.5545937074157,0.961,-0.525,-3.119,-3.995
0.4,1799989617.2455904,1.9486833811,349.1403154785863,4020.6845399191266,0.916,-0.58,-3.214,-4.101
0.4,1799989617.2455904,1.9487874508,374.97300224548337,3994.845613082856,0.878,-0.626,-3.297,-4.193
0.4,1799989617.2455904,1.948877573,401.79081084894,3971.001032638907,0.848,-0.664,-3.379,-4.285
0.4,1799989617.2455904,1.9489561319,430.5266104917105,3947.298776597855,0.823,-0.697,-3.46,-4.376
0.4,1799989617.2455904,1.9490340948,462.38102139926036,3921.931463326502,0.796,-0.731,-3.547,-4.474
0.4,1799989617.2455904,1.9491026402,495.45019080479005,3897.6245309771994,0.772,-0.762,-3.63,-4.567
0.4,1799989617.2455904,1.9491739273,534.5643593969719,3869.9022919026884,0.751,-0.788,-3.721,-4.669
0.4,1799989617.2455904,1.9492570162,586.1381645140285,3837.0724549227884,0.729,-0.815,-3.832,-4.794
0.4,1799989617.2455904,1.9493265152,635.3309318517436,3808.026833442713,0.712,-0.838,-3.928,-4.902
0.4,1799989617.2455904,1.9493983984,690.239803840242,3778.3309865888623,0.702,-0.847,-4.029,-5.015
0.4,1799989617.2455904,1.9494851828,762.0790100254122,3741.9674033666447,0.693,-0.853,-4.15,-5.151
0.4,1799989617.2455904,1.949557662,827.9421637123345,3711.07729492926,0.693,-0.85,-4.25,-5.264
0.4,1799989617.2455904,1.9496325254,899.4975815300355,3679.594830147843,0.708,-0.825,-4.353,-5.379
0.4,1799989617.2455904,1.9497272968,995.4054173515275,3640.8266378940075,0.73,-0.792,-4.479,-5.521
0.4,1799989617.2455904,1.9498245716,1104.0786199020736,3601.6375039472773,0.773,-0.732,-4.606,-5.664
0.4,1799989617.2455904,1.9499210119,1216.1860006463678,3563.6906696823603,0.821,-0.666,-4.729,-5.801
0.4,1799989617.2455904,1.9500179291,1342.7649611378642,3526.1436430685917,0.887,-0.579,-4.85,-5.938
0.4,1799989617.2455904,1.9501093626,1472.3125024327194,3489.7956743787454,0.965,-0.477,-4.966,-6.068
0.4,1799989617.2455904,1.9501389265,1520.5475297324954,3476.161938153812,0.997,-0.437,-5.008,-6.116
0.4,1799989617.2455904,1.9501512051,1520.5475297324954,3476.9624461781286,0.993,-0.441,-5.007,-6.115
0.4,1799989617.2455904,1.9501523972,1492.794409578996,3484.175319018589,0.974,-0.465,-4.985,-6.089
0.4,1799989617.2455904,1.95015347,1465.5478409559114,3493.011375635544,0.955,-0.49,-4.961,-6.062
0.4,1799989617.2455904,1.9501564503,1492.794409578996,3484.9776724044846,0.972,-0.468,-4.982,-6.086
0.4,1799989617.2455904,1.9501584768,1524.0527537972907,3476.161938153812,0.995,-0.438,-5.009,-6.117
0.4,1799989617.2455904,1.9501610994,1559.552502826954,3465.7720899354867,1.02,-0.407,-5.038,-6.151
0.4,1799989617.2455904,1.9501652718,1599.5580286146694,3454.617749058203,1.055,-0.363,-5.071,-6.188
0.4,1799989617.2455904,1.9501715899,1644.3717232149324,3442.7065038944434,1.093,-0.316,-5.107,-6.229
0.4,1799989617.2455904,1.9501800537,1644.3717232149324,3442.7065038944434,1.091,-0.318,-5.106,-6.228
0.4,1799989617.2455904,1.950357914,2113.489039836648,3338.8737672512307,1.457,0.132,-5.423,-6.59
0.4,1799989617.2455904,1.9503583908,2113.489039836648,3295.3382547359615,1.751,0.488,-5.439,-6.628
0.4,1799989617.2455904,1.9503588676,1009.2528860766844,3596.665093461474,0.882,-0.61,-4.511,-5.571
0.4,1799989617.2455904,1.9503591061,891.2509381337459,3646.699688942269,0.821,-0.694,-4.356,-5.396
0.4,1799989617.2455904,1.9503601789,530.8844442309885,3867.2299811937696,0.764,-0.774,-3.714,-4.663
0.4,1799989617.2455904,1.9503618479,543.250331492433,3855.671275573944,0.767,-0.773,-3.742,-4.697
0.4,1799989617.2455904,1.9503641129,696.6265141107687,3744.553155859532,0.777,-0.761,-4.051,-5.051
0.4,1799989617.2455904,1.9503669739,1039.920165829059,3574.3740626448075,0.936,-0.543,-4.552,-5.62
0.4,1799989617.2455904,1.9503705502,1499.684835502374,3424.5223108915197,1.283,-0.098,-5.014,-6.144
0.4,1799989617.2455904,1.9503748417,1927.5249131909366,3322.7678521107573,1.649,0.354,-5.328,-6.503
0.4,1799989617.2455904,1.9503797293,2208.004733018899,3266.6304045806874,1.921,0.706,-5.496,-6.698
0.4,1799989617.2455904,1.9503854513,2349.6328208483073,3237.42711634235,2.086,0.919,-5.574,-6.791
0.4,1799989617.2455904,1.9503918886,2432.204009073816,3218.103443093442,2.18,1.033,-5.618,-6.845
0.4,1799989617.2455904,1.9503920078,1406.0475241299143,3422.9456231604145,1.351,-0.022,-4.944,-6.075
0.4,1799989617.2455904,1.9503926039,1037.5284158180127,3544.8674447379985,1.058,-0.397,-4.561,-5.642
0.4,1799989617.2455904,1.950393796,616.5950018614822,3760.971132597691,0.859,-0.674,-3.912,-4.906
0.4,1799989617.2455904,1.9503954649,629.5061828571975,3753.185242379138,0.86,-0.672,-3.937,-4.934
0.4,1799989617.2455904,1.9503978491,803.5261221856169,3650.059970708618,0.916,-0.59,-4.241,-5.28
0.4,1799989617.2455904,1.9504008293,1188.502227437019,3490.599322048292,1.175,-0.246,-4.733,-5.836
0.4,1799989617.2455904,1.9504045248,1702.15850839495,3349.654391578276,1.598,0.286,-5.181,-6.345
0.4,1799989617.2455904,1.9504089355,2172.7011788637456,3257.616829660631,2.003,0.806,-5.481,-6.689
0.4,1799989617.2455904,1.9504140615,2466.0393372343387,3210.7020105619063,2.215,1.074,-5.636,-6.867
0.4,1799989617.2455904,1.9504199028,2606.153549998895,3191.5378551007616,2.289,1.164,-5.702,-6.942
0.4,1799989617.2455904,1.9504265785,2673.0064086633115,3183.464417556432,2.317,1.198,-5.733,-6.977
0.4,1799989617.2455904,1.9504266977,1566.7510701081485,3385.3221281535407,1.453,0.107,-5.077,-6.224
0.4,1799989617.2455904,1.950427413,1156.1122421920993,3507.5187395256794,1.123,-0.311,-4.695,-5.791
0.4,1799989617.2455904,1.9504286051,687.0684400142325,3725.632384666039,0.842,-0.69,-4.043,-5.052
0.4,1799989617.2455904,1.9504303932,701.4552984199714,3717.0636679606755,0.845,-0.686,-4.068,-5.08
0.4,1799989617.2455904,1.9504327774,891.2509381337459,3614.0986263961313,0.937,-0.556,-4.37,-5.423
0.4,1799989617.2455904,1.9504358768,1312.1998990192028,3453.822385498232,1.255,-0.142,-4.857,-5.975
0.4,1799989617.2455904,1.9504398108,1870.6821403657998,3312.8364811728147,1.74,0.46,-5.299,-6.48
0.4,1799989617.2455904,1.9504443407,2376.840286624876,3221.0687912834346,2.182,1.034,-5.593,-6.819
0.4,1799989617.2455904,1.9504497051,2691.5348039269165,3173.218663836144,2.376,1.267,-5.744,-6.994
0.4,1799989617.2455904,1.950455904,2837.9190284415554,3152.1000945192795,2.457,1.358,-5.807,-7.067
0.4,1799989617.2455904,1.9504628181,2904.022654464451,3141.9552846410716,2.497,1.398,-5.835,-7.101
0.4,1799989617.2455904,1.9504629374,1729.8163592151016,3338.1050516598925,1.654,0.352,-5.203,-6.372
0.4,1799989617.2455904,1.9504636526,1279.3813041575252,3459.3937782612206,1.253,-0.147,-4.824,-5.94
0.4,1799989617.2455904,1.9504648447,760.3262769401815,3677.053933782149,0.885,-0.631,-4.172,-5.2
0.4,1799989617.2455904,1.9504667521,776.247116628692,3668.5969444134184,0.892,-0.622,-4.197,-5.229
0.4,1799989617.2455904,1.9504692554,986.279485631211,3566.9744620973356,1.02,-0.448,-4.497,-5.569
0.4,1799989617.2455904,1.9504724741,1445.439770745928,3409.5730529319967,1.401,0.038,-4.978,-6.115
0.4,1799989617.2455904,1.950476408,2051.1621788255648,3270.3934175663962,1.958,0.742,-5.414,-6.615
0.4,1799989617.2455904,1.9504810572,2600.159563165272,3179.8014276915274,2.363,1.251,-5.703,-6.95
0.4,1799989617.2455904,1.95048666,2944.4216337987605,3133.2857243155854,2.543,1.445,-5.852,-7.123
0.4,1799989617.2455904,1.9504929781,3104.5595881283557,3113.149665447022,2.625,1.527,-5.914,-7.197
0.4,1799989617.2455904,1.9505001307,3184.1975217261256,3103.844819159537,2.663,1.566,-5.944,-7.233
0.4,1799989617.2455904,1.9505003691,1927.5249131909366,3293.062701752084,1.851,0.601,-5.339,-6.529
0.4,1799989617.2455904,1.9505009651,1428.8939585111023,3413.5007294931106,1.388,0.023,-4.964,-6.099
0.4,1799989617.2455904,1.9505022764,849.1804750363135,3631.616662075049,0.917,-0.586,-4.31,-5.356
0.4,1799989617.2455904,1.9505040646,866.9618757582169,3624.0985589974434,0.928,-0.57,-4.334,-5.384
0.4,1799989617.2455904,1.9505066872,1093.956366272094,3524.5201677586315,1.099,-0.345,-4.629,-5.719
0.4,1799989617.2455904,1.950510025,1592.20872705117,3369.7679858440365,1.535,0.205,-5.101,-6.255
0.4,1799989617.2455904,1.9505140781,2243.881923782766,3234.446708514467,2.149,0.99,-5.526,-6.745
0.4,1799989617.2455904,1.9505189657,2831.391995799379,3145.5746774318936,2.499,1.401,-5.806,-7.07
0.4,1799989617.2455904,1.9505246878,3191.5378551007616,3100.9873885323427,2.678,1.581,-5.948,-7.238
0.4,1799989617.2455904,1.9505311251,3349.654391578276,3083.8979622506845,2.735,1.629,-6.006,-7.306
0.4,1799989617.2455904,1.950538516,3427.6778654645045,3076.805193759751,2.746,1.629,-6.03,-7.335
0.4,1799989617.2455904,1.9505386353,2118.3611352485023,3259.8678890446836,2.011,0.812,-5.453,-6.659
0.4,1799989617.2455904,1.9505393505,1570.3628043335532,3379.8700286198914,1.487,0.146,-5.081,-6.231
0.4,1799989617.2455904,1.9505405426,935.4056741475521,3598.321800388802,0.948,-0.539,-4.428,-5.487
0.4,1799989617.2455904,1.95054245,952.7961640236521,3590.872623694513,0.961,-0.522,-4.451,-5.514
0.4,1799989617.2455904,1.9505449533,1199.4993031493793,3492.2071726340682,1.158,-0.266,-4.741,-5.843
0.4,1799989617.2455904,1.950548172,1729.8163592151016,3339.6426598662515,1.646,0.342,-5.202,-6.37
0.4,1799989617.2455904,1.9505522251,2421.0290467361774,3205.531138700436,2.263,1.128,-5.616,-6.85
0.4,1799989617.2455904,1.9505569935,3033.891184194272,3118.1715159014625,2.612,1.515,-5.888,-7.168
0.4,1799989617.2455904,1.9505625963,3404.081897010009,3073.972656082513,2.761,1.642,-6.025,-7.33
0.4,1799989617.2455904,1.9505689144,3564.5113342624427,3056.3282803659663,2.798,1.652,-6.078,-7.394
0.4,1799989617.2455904,1.9505761862,3630.780547701014,3049.2989203838,2.814,1.657,-6.1,-7.42
0.4,1799989617.2455904,1.9505764246,2290.8676527677726,3224.779319316378,2.19,1.039,-5.551,-6.775
0.4,1799989617.2455904,1.9505771399,1706.0823890031243,3344.2597353373435,1.63,0.321,-5.185,-6.35
0.4,1799989617.2455904,1.9505784512,1018.5913880541169,3563.6906696823603,1.002,-0.467,-4.534,-5.608
0.4,1799989617.2455904,1.9505804777,1037.5284158180127,3554.6758199906994,1.015,-0.45,-4.559,-5.636
0.4,1799989617.2455904,1.9505832195,1303.1667784523,3457.0049388687194,1.246,-0.155,-4.847,-5.963
0.4,1799989617.2455904,1.9505867958,1870.6821403657998,3306.739627988452,1.787,0.516,-5.301,-6.485
0.4,1799989617.2455904,1.9505910873,2612.1613543992053,3173.218663836144,2.401,1.294,-5.71,-6.959
0.4,1799989617.2455904,1.9505963326,3265.8783217233567,3086.73964568386,2.744,1.643,-5.978,-7.277
0.4,1799989617.2455904,1.9506024122,3672.8230049808462,3042.2857274809608,2.836,1.667,-6.115,-7.44
0.4,1799989617.2455904,1.9506093264,3863.669770540693,3023.430570511337,2.876,1.678,-6.173,-7.509
0.4,1799989617.2455904,1.9506171942,3953.666200681279,3015.0880540378826,2.89,1.679,-6.201,-7.542
0.4,1799989617.2455904,1.9506174326,2558.585886905645,3181.9987155303106,2.366,1.251,-5.685,-6.93
0.4,1799989617.2455904,1.9506181479,1905.4607179632462,3300.6539952850767,1.81,0.547,-5.324,-6.51
0.4,1799989617.2455904,1.9506194592,1140.2497875611684,3519.654225247658,1.081,-0.363,-4.675,-5.766
0.4,1799989617.2455904,1.9506214857,1161.4486138403427,3511.5592451629086,1.099,-0.34,-4.698,-5.792
0.4,1799989617.2455904,1.9506243467,1445.439770745928,3416.6461281382244,1.362,-0.009,-4.977,-6.111
0.4,1799989617.2455904,1.950627923,2055.8905959841427,3269.640468343053,1.967,0.752,-5.417,-6.618
0.4,1799989617.2455904,1.9506323338,2837.9190284415554,3139.7856482728203,2.534,1.436,-5.81,-7.077
0.4,1799989617.2455904,1.950637579,3523.7087104248726,3055.6246157876885,2.813,1.666,-6.066,-7.382
0.4,1799989617.2455904,1.9506437778,3935.5007545577764,3013.006024186122,2.9,1.688,-6.195,-7.536
0.4,1799989617.2455904,1.9506508112,4102.041029866068,2996.4014599344437,2.924,1.687,-6.245,-7.595
0.4,1799989617.2455904,1.9506587982,4178.303666466218,2990.198367170568,2.934,1.686,-6.266,-7.619
0.4,1799989617.2455904,1.9506590366,2773.320104651841,3148.4731933873795,2.504,1.406,-5.783,-7.045
0.4,1799989617.2455904,1.9506596327,2070.1413487910413,3266.6304045806874,1.981,0.771,-5.426,-6.629
0.4,1799989617.2455904,1.950660944,1238.796586530369,3485.7802105603496,1.154,-0.269,-4.781,-5.885
0.4,1799989617.2455904,1.9506629705,1261.8275345906707,3478.5640153042373,1.174,-0.244,-4.803,-5.911
0.4,1799989617.2455904,1.9506657124,1563.1476426409538,3384.542718663093,1.465,0.118,-5.076,-6.224
0.4,1799989617.2455904,1.9506691694,2202.9264630534562,3239.664224348446,2.129,0.963,-5.503,-6.719
0.4,1799989617.2455904,1.950673461,3013.006024186122,3112.4329187675094,2.657,1.561,-5.883,-7.166
0.4,1799989617.2455904,1.950678587,3715.352290971724,3029.0050681662174,2.883,1.696,-6.13,-7.463
0.4,1799989617.2455904,1.9506845474,4130.475019901614,2987.4455606053048,2.952,1.702,-6.254,-7.609
0.4,1799989617.2455904,1.9506913424,4305.266104917106,2970.297844017863,2.979,1.703,-6.302,-7.666
0.4,1799989617.2455904,1.950699091,4375.221051582521,2963.466348548615,2.992,1.705,-6.32,-7.689
0.4,1799989617.2455904,1.9506993294,2978.5164294291912,3113.149665447022,2.663,1.568,-5.869,-7.151
0.4,1799989617.2455904,1.9507000446,2228.435149270303,3230.7250568928803,2.179,1.024,-5.519,-6.74
0.4,1799989617.2455904,1.9507013559,1339.6766874259345,3450.6427620182526,1.256,-0.142,-4.878,-5.998
0.4,1799989617.2455904,1.9507035017,1361.4446824659497,3442.7065038944434,1.28,-0.112,-4.901,-6.024
0.4,1799989617.2455904,1.9507062435,1682.6740610704674,3350.425766809598,1.608,0.293,-5.169,-6.332
0.4,1799989617.2455904,1.950709939,2355.049283896009,3208.484902035953,2.274,1.138,-5.585,-6.817
0.4,1799989617.2455904,1.9507143497,3198.895109691397,3083.1879502493534,2.777,1.673,-5.955,-7.255
0.4,1799989617.2455904,1.9507197142,3935.5007545577764,3001.234982781183,2.942,1.715,-6.197,-7.544
0.4,1799989617.2455904,1.950725913,4365.158322401661,2960.738151747431,3.004,1.713,-6.32,-7.69
0.4,1799989617.2455904,1.9507329464,4560.369159512959,2944.4216337987605,3.027,1.71,-6.369,-7.747
0.4,1799989617.2455904,1.9507410526,4634.46919736288,2936.9733110014463,3.034,1.708,-6.39,-7.772
0.4,1799989617.2455904,1.950741291,3243.3961734934933,3077.513735907868,2.791,1.679,-5.97,-7.273
0.4,1799989617.2455904,1.9507418871,2437.8108183687523,3194.4787242086913,2.332,1.207,-5.627,-6.866
0.4,1799989617.2455904,1.9507431984,1465.5478409559114,3414.286807579689,1.362,-0.01,-4.992,-6.126
0.4,1799989617.2455904,1.9507451057,1489.3610777109154,3406.4341658307585,1.388,0.022,-5.013,-6.151
0.4,1799989617.2455904,1.9507478476,1832.314422371211,3315.125698118432,1.75,0.466,-5.274,-6.453
0.4,1799989617.2455904,1.9507511854,2535.128630497907,3176.1426525728807,2.413,1.304,-5.676,-6.924
0.4,1799989617.2455904,1.9507553577,3411.9291162192844,3053.514593940289,2.849,1.702,-6.032,-7.349
0.4,1799989617.2455904,1.9507603645,4168.693834703355,2973.0348496770193,2.997,1.728,-6.265,-7.628
0.4,1799989617.2455904,1.9507662058,4602.565735813559,2932.9185340084423,3.053,1.723,-6.383,-7.767
0.4,1799989617.2455904,1.9507728815,4797.334486366892,2916.0837985212315,3.073,1.721,-6.429,-7.821
0.4,1799989617.2455904,1.9507805109,4864.072056914614,2908.707160207584,3.084,1.721,-6.447,-7.843
0.4,1799989617.2455904,1.9507807493,3483.3731503601166,3039.484968770113,2.891,1.723,-6.058,-7.383
0.4,1799989617.2455904,1.9507813454,2630.2679918953813,3155.7311736800216,2.508,1.412,-5.722,-6.981
0.4,1799989617.2455904,1.9507826567,1584.893192461114,3375.2037896792626,1.508,0.169,-5.093,-6.245
0.4,1799989617.2455904,1.950784564,1610.64563517827,3367.4410363771217,1.541,0.209,-5.114,-6.269
0.4,1799989617.2455904,1.9507871866,1967.886289706845,3277.932453002282,1.945,0.717,-5.367,-6.564
0.4,1799989617.2455904,1.9507905245,2703.9583641088434,3141.9552846410716,2.566,1.47,-5.756,-7.022
0.4,1799989617.2455904,1.9507945776,3605.7864302164235,3022.0385498282735,2.938,1.744,-6.099,-7.436
0.4,1799989617.2455904,1.9507994652,4375.221051582521,2943.7437337117412,3.06,1.747,-6.325,-7.703
0.4,1799989617.2455904,1.9508051872,4819.477976251272,2904.022654464451,3.105,1.738,-6.438,-7.836
0.4,1799989617.2455904,1.9508118629,5011.872336272725,2888.0186935140546,3.126,1.736,-6.481,-7.888
0.4,1799989617.2455904,1.9508192539,5081.594425605605,2881.3764348397,3.134,1.737,-6.498,-7.909
0.4,1799989617.2455904,1.9508194923,3732.5015779572063,3003.308878676558,2.981,1.76,-6.138,-7.485
0.4,1799989617.2455904,1.9508200884,2818.382931264455,3118.8895840939385,2.675,1.581,-5.809,-7.088
0.4,1799989617.2455904,1.9508213997,1706.0823890031243,3338.8737672512307,1.671,0.366,-5.187,-6.356
0.4,1799989617.2455904,1.9508234262,1733.8039977541375,3331.194570682003,1.703,0.405,-5.208,-6.38
0.4,1799989617.2455904,1.9508260489,2108.6281499332886,3243.3961734934933,2.143,0.971,-5.454,-6.669
0.4,1799989617.2455904,1.9508295059,2870.780582024692,3110.283668685142,2.712,1.619,-5.829,-7.114
0.4,1799989617.2455904,1.9508336782,3801.8939632056126,2993.642942739855,3.0,1.765,-6.161,-7.512
0.4,1799989617.2455904,1.950838685,4581.418867145335,2917.427014001166,3.106,1.759,-6.379,-7.77
0.4,1799989617.2455904,1.9508445263,5035.006087879047,2879.3867378079763,3.146,1.749,-6.488,-7.899
0.4,1799989617.2455904,1.950851202,5211.947111050806,2864.8375471900267,3.148,1.743,-6.53,-7.947
0.4,1799989617.2455904,1.9508588314,5284.452517751803,2859.565178927503,3.149,1.741,-6.546,-7.965
0.4,1799989617.2455904,1.9508589506,3981.0717055349733,2973.0348496770193,3.037,1.77,-6.216,-7.578
0.4,1799989617.2455904,1.9508596659,3019.9517204020162,3088.1614691845125,2.807,1.712,-5.891,-7.189
0.4,1799989617.2455904,1.950860858,1832.314422371211,3309.786650728407,1.792,0.513,-5.276,-6.458
0.4,1799989617.2455904,1.9508626461,1857.8044550916989,3302.1743526707673,1.829,0.562,-5.296,-6.481
0.4,1799989617.2455904,1.9508650303,2249.0546058357804,3215.140824832692,2.272,1.13,-5.534,-6.763
0.4,1799989617.2455904,1.9508681297,3033.891184194272,3084.6081377571413,2.819,1.719,-5.896,-7.195
0.4,1799989617.2455904,1.9508720636,3971.915494694405,2969.6139863991652,3.049,1.779,-6.215,-7.579
0.4,1799989617.2455904,1.9508765936,4753.352259428054,2895.3428647598066,3.146,1.77,-6.424,-7.827
0.4,1799989617.2455904,1.950881958,5199.959965335162,2858.2486036727378,3.167,1.759,-6.528,-7.947
0.4,1799989617.2455904,1.9508881569,5370.317963702527,2843.806221472982,3.171,1.756,-6.567,-7.991
0.4,1799989617.2455904,1.950895071,5432.503314924331,2838.5725586841204,3.175,1.756,-6.58,-8.006
0.4,1799989617.2455904,1.9508951902,4187.935651179182,2943.7437337117412,3.099,1.789,-6.277,-7.655
0.4,1799989617.2455904,1.9508959055,3191.5378551007616,3058.4402465105513,2.887,1.749,-5.958,-7.272
0.4,1799989617.2455904,1.9508970976,1940.8858775927772,3280.1975507699003,1.947,0.715,-5.35,-6.547
0.4,1799989617.2455904,1.9508988857,1972.4227361148535,3271.899836231792,1.991,0.772,-5.371,-6.571
0.4,1799989617.2455904,1.9509012699,2382.319469358689,3185.664236573113,2.413,1.297,-5.605,-6.849
0.4,1799989617.2455904,1.9509044886,3184.1975217261256,3056.3282803659663,2.898,1.758,-5.957,-7.272
0.4,1799989617.2455904,1.9509083033,4149.5404263436285,2942.388401724649,3.11,1.8,-6.268,-7.647
0.4,1799989617.2455904,1.9509129524,4954.5019080479005,2867.477375581316,3.188,1.788,-6.474,-7.889
0.4,1799989617.2455904,1.9509183168,5420.008904016238,2830.0883917879437,3.198,1.776,-6.577,-8.007
0.4,1799989617.2455904,1.9509245157,5610.479760324706,2813.8438937124856,3.203,1.774,-6.618,-8.053
0.4,1799989617.2455904,1.9509315491,5688.529308438413,2806.725885414676,3.21,1.779,-6.635,-8.073
0.4,1799989617.2455904,1.9509316683,4497.798548932879,2902.685610499054,3.169,1.807,-6.361,-7.759
0.4,1799989617.2455904,1.9509322643,3435.5794789987463,3017.1715226017723,3.002,1.804,-6.047,-7.385
0.4,1799989617.2455904,1.9509333372,2094.1124558508936,3239.664224348446,2.185,1.019,-5.448,-6.665
0.4,1799989617.2455904,1.9509350061,2128.139045982711,3231.4690444798844,2.226,1.07,-5.468,-6.689
0.4,1799989617.2455904,1.9509372711,2558.585886905645,3146.2990561619904,2.596,1.502,-5.695,-6.959
0.4,1799989617.2455904,1.9509401321,3388.441561392024,3019.256430871959,3.006,1.811,-6.032,-7.369
0.4,1799989617.2455904,1.9509435892,4385.306977749856,2907.3679594442274,3.176,1.821,-6.332,-7.728
0.4,1799989617.2455904,1.9509478807,5188.000389289609,2834.653633489668,3.224,1.807,-6.531,-7.958
0.4,1799989617.2455904,1.9509527683,5649.369748123023,2798.3369045620198,3.236,1.807,-6.629,-8.069
0.4,1799989617.2455904,1.9509583712,5847.900841444806,2782.915373852606,3.251,1.817,-6.667,-8.114
0.4,1799989617.2455904,1.9509648085,5915.616341754737,2775.8756035343426,3.261,1.824,-6.683,-8.132
0.4,1799989617.2455904,1.9509649277,4775.2927365769065,2864.1779699065796,3.231,1.831,-6.433,-7.849
0.4,1799989617.2455904,1.9509655237,3655.9479161312506,2977.8306796291185,3.092,1.838,-6.123,-7.482
0.4,1799989617.2455904,1.9509665966,2238.72113856834,3201.10559153497,2.376,1.247,-5.532,-6.768
0.4,1799989617.2455904,1.9509681463,2269.8648518838213,3193.007951074664,2.415,1.294,-5.551,-6.791
0.4,1799989617.2455904,1.9509702921,2716.4392688390835,3108.1359027394765,2.783,1.692,-5.77,-7.055
0.4,1799989617.2455904,1.9509730339,3564.5113342624427,2982.634245778771,3.097,1.851,-6.094,-7.45
0.4,1799989617.2455904,1.9509763718,4560.369159512959,2872.7643320808324,3.248,1.856,-6.383,-7.795
0.4,1799989617.2455904,1.9509804249,5370.317963702527,2800.9154553829208,3.269,1.846,-6.572,-8.01
0.4,1799989617.2455904,1.950985074,5807.644175213118,2764.3943712203372,3.305,1.87,-6.665,-8.118
0.4,1799989617.2455904,1.9509905577,5984.115950603199,2748.526951964667,3.326,1.887,-6.699,-8.158
0.4,1799989617.2455904,1.9509966373,6039.4862937638,2740.942973818077,3.339,1.9,-6.71,-8.172
0.4,1799989617.2455904,1.9509967566,4977.37084978936,2821.629583090804,3.297,1.877,-6.485,-7.916
0.4,1799989617.2455904,1.9509973526,3828.2474331682283,2934.269503955967,3.207,1.894,-6.179,-7.56
0.4,1799989617.2455904,1.9509984255,2344.228815319923,3157.1847762703,2.613,1.521,-5.597,-6.855
0.4,1799989617.2455904,1.9509999752,2376.840286624876,3147.748314101317,2.654,1.563,-5.616,-6.879
0.4,1799989617.2455904,1.951002121,2837.9190284415554,3062.6685580037692,2.974,1.848,-5.828,-7.139
0.4,1799989617.2455904,1.951004982,3698.281797802663,2937.6496519615307,3.222,1.917,-6.143,-7.522
0.4,1799989617.2455904,1.9510083199,4709.77326396953,2828.7853879701315,3.329,1.916,-6.424,-7.852
0.4,1799989617.2455904,1.951012373,5508.076964054036,2756.7666102901003,3.365,1.936,-6.608,-8.061
0.4,1799989617.2455904,1.9510171413,5956.621435290103,2719.5684860989204,3.398,1.968,-6.698,-8.166
0.4,1799989617.2455904,1.951022625,6123.503917247734,2703.3358263617747,3.411,1.984,-6.732,-8.206
0.4,1799989617.2455904,1.9510288239,6180.164001384158,2695.2558665040997,3.421,1.996,-6.744,-8.22
0.4,1799989617.2455904,1.9510289431,5199.959965335162,2767.5788306259456,3.38,1.959,-6.544,-7.991
0.4,1799989617.2455904,1.9510294199,4017.9081084894,2880.0498174428562,3.34,1.962,-6.242,-7.65
0.4,1799989617.2455904,1.9510304928,2471.724145016129,3102.4157748720872,2.904,1.817,-5.669,-6.958
0.4,1799989617.2455904,1.9510319233,2506.109253032114,3092.430870441563,2.955,1.87,-5.687,-6.982
0.4,1799989617.2455904,1.9510338306,2978.5164294291912,3006.768556972182,3.166,1.963,-5.894,-7.236
0.4,1799989617.2455904,1.9510364532,3863.669770540693,2882.703663307125,3.367,1.993,-6.2,-7.606
0.4,1799989617.2455904,1.9510395527,4886.523593428336,2773.958758729893,3.415,2.001,-6.474,-7.917
0.4,1799989617.2455904,1.9510433674,5701.642722807472,2702.091180818971,3.478,2.057,-6.654,-8.126
0.4,1799989617.2455904,1.9510476589,6151.7687270986835,2664.4035277248977,3.496,2.099,-6.744,-8.225
0.4,1799989617.2455904,1.9510526657,6338.69711256927,2647.280740017563,3.509,2.126,-6.779,-8.265
0.4,1799989617.2455904,1.9510583878,6412.095765851615,2638.760655313271,3.52,2.143,-6.793,-8.281
0.4,1799989617.2455904,1.951058507,5495.408738576249,2703.9583641088434,3.511,2.09,-6.615,-8.086
0.4,1799989617.2455904,1.9510589838,4255.984131337431,2815.788299710311,3.462,2.048,-6.317,-7.749
0.4,1799989617.2455904,1.9510599375,2636.3313858253787,3037.3860919461044,3.161,2.003,-5.754,-7.079
0.4,1799989617.2455904,1.951061368,2660.7250597988086,3028.307694265778,3.193,2.021,-5.767,-7.097
0.4,1799989617.2455904,1.9510632753,3147.748314101317,2941.710969752718,3.366,2.071,-5.967,-7.343
0.4,1799989617.2455904,1.9510656595,4055.085354483839,2817.7340493202273,3.505,2.093,-6.263,-7.694
0.4,1799989617.2455904,1.951068759,5081.594425605605,2708.3201442989516,3.573,2.155,-6.528,-7.996
0.4,1799989617.2455904,1.9510723352,5888.43655355589,2635.724417972899,3.607,2.239,-6.701,-8.188
0.4,1799989617.2455904,1.9510765076,6324.118513762197,2595.374300988093,3.612,2.251,-6.783,-8.28
0.4,1799989617.2455904,1.9510812759,6501.296903430909,2574.542111926454,3.613,2.24,-6.813,-8.314
0.4,1799989617.2455904,1.9510867596,6561.452663029057,2562.1231468290102,3.622,2.242,-6.823,-8.327
0.4,1799989617.2455904,1.9510868788,5727.960309858292,2619.992209772759,3.671,2.309,-6.674,-8.164
0.4,1799989617.2455904,1.9510873556,4446.312674691088,2730.2348129400702,3.642,2.227,-6.381,-7.839
0.4,1799989617.2455904,1.9510881901,2773.320104651841,2950.5297638582715,3.473,2.19,-5.826,-7.198
0.4,1799989617.2455904,1.9510896206,2792.543841237339,2939.002801171145,3.504,2.207,-5.836,-7.213
0.4,1799989617.2455904,1.9510914087,3296.097121774576,2847.7378001737457,3.634,2.243,-6.033,-7.452
0.4,1799989617.2455904,1.9510936737,4216.965034285822,2718.316366861065,3.724,2.315,-6.324,-7.785
0.4,1799989617.2455904,1.9510966539,5248.074602497728,2602.555501826247,3.782,2.431,-6.58,-8.072
0.4,1799989617.2455904,1.9510999918,6067.363295885053,2521.7382156449235,3.742,2.347,-6.739,-8.247
0.4,1799989617.2455904,1.9511040449,6501.296903430909,2471.724145016129,3.726,2.308,-6.819,-8.335
0.4,1799989617.2455904,1.9511085749,6683.439175686149,2439.4953801837814,3.735,2.303,-6.85,-8.371
0.4,1799989617.2455904,1.9511138201,6745.280276979222,2414.3487297141514,3.761,2.32,-6.865,-8.39
0.4,1799989617.2455904,1.9511139393,5997.910762555094,2464.336445834911,3.817,2.397,-6.732,-8.248
0.4,1799989617.2455904,1.9511144161,4677.351412871981,2574.542111926454,3.939,2.579,-6.455,-7.951
0.4,1799989617.2455904,1.9511152506,2930.8932452503213,2795.1170539918453,3.897,2.491,-5.914,-7.349
0.4,1799989617.2455904,1.9511164427,2937.6496519615307,2785.4797143757387,3.917,2.511,-5.92,-7.358
0.4,1799989617.2455904,1.9511182308,3459.3937782612206,2692.154624075288,4.006,2.602,-6.113,-7.583
0.4,1799989617.2455904,1.9511203766,4395.416154378243,2562.1231468290102,4.023,2.657,-6.387,-7.886
0.4,1799989617.2455904,1.9511231184,5432.503314924331,2445.118997825041,3.944,2.517,-6.625,-8.144
0.4,1799989617.2455904,1.9511263371,6237.348354824191,2362.1093570835715,3.899,2.446,-6.785,-8.317
0.4,1799989617.2455904,1.9511301517,6683.439175686149,2310.46822389757,3.843,2.386,-6.86,-8.394
0.4,1799989617.2455904,1.9511345625,6854.882264526614,2276.6695553309037,3.816,2.359,-6.887,-8.421
0.4,1799989617.2455904,1.9511394501,6918.309709189362,2250.608734433602,3.806,2.349,-6.897,-8.431
