FeH,Age,Mini,L,Te,Bmag,Vmag,Jmag,Kmag
-1.0,899994799.6372021,0.0900000036,0.0006194410750767811,2800.2705950106356,18.355,16.357,10.721,10.165
-1.0,899994799.6372021,0.0983065888,0.0009183325964835811,2963.466348548615,17.164,15.229,10.373,9.731
-1.0,899994799.6372021,0.0997717902,0.0009840111057611335,2993.642942739855,16.96,15.038,10.311,9.656
-1.0,899994799.6372021,0.1000000015,0.0009954054173515275,2998.4720157970514,16.926,15.006,10.301,9.643
-1.0,899994799.6372021,0.1111710444,0.0014421153515248681,3133.2857243155854,15.999,14.142,9.962,9.252
-1.0,899994799.6372021,0.1200000048,0.0018879913490962926,3235.1915531420955,15.358,13.562,9.712,8.974
-1.0,899994799.6372021,0.1400000006,0.0028773984147356696,3370.5439929348295,14.505,12.804,9.31,8.546
-1.0,899994799.6372021,0.1599999964,0.003953666200681279,3458.597315106485,13.937,12.302,8.999,8.224
-1.0,899994799.6372021,0.2000000179,0.006367955209079156,3578.49158264176,13.151,11.604,8.526,7.74
-1.0,899994799.6372021,0.25,0.00988553094656939,3677.053933782149,12.476,10.998,8.085,7.291
-1.0,899994799.6372021,0.3290736377,0.017338039977541384,3791.4034418330666,11.663,10.259,7.512,6.713
-1.0,899994799.6372021,0.3341282606,0.017988709151287873,3797.519389713327,11.613,10.214,7.475,6.675
-1.0,899994799.6372021,0.3478580117,0.0195884467350599,3815.926491189337,11.492,10.104,7.389,6.59
-1.0,899994799.6372021,0.349999994,0.01981527025805098,3819.442708400464,11.474,10.088,7.378,6.578
-1.0,899994799.6372021,0.3578627408,0.020989398836235244,3834.4228144309195,11.387,10.01,7.32,6.52
-1.0,899994799.6372021,0.400000006,0.02792543841237338,3913.812356122119,10.957,9.627,7.035,6.237
-1.0,899994799.6372021,0.4122036397,0.03083187950249355,3946.3899820986467,10.801,9.49,6.936,6.139
-1.0,899994799.6372021,0.4499999881,0.04102041029866068,4050.419451364931,10.345,9.097,6.656,5.867
-1.0,899994799.6372021,0.5,0.06251726927756858,4264.813065450337,9.613,8.484,6.256,5.491
-1.0,899994799.6372021,0.5500000715,0.09616122783836649,4558.269515401941,8.795,7.822,5.866,5.164
-1.0,899994799.6372021,0.6000000238,0.1435489433353656,4849.5339049834165,8.079,7.228,5.519,4.9
-1.0,899994799.6372021,0.6499999762,0.20941124558508925,5138.069802323445,7.467,6.707,5.202,4.665
-1.0,899994799.6372021,0.6528687477,0.2137962089502232,5155.846748750552,7.434,6.679,5.185,4.653
-1.0,899994799.6372021,0.6999999881,0.2992264636608189,5441.266536154456,6.923,6.249,4.917,4.452
-1.0,899994799.6372021,0.75,0.41591061049402206,5741.164622073275,6.442,5.848,4.662,4.256
-1.0,899994799.6372021,0.8000000119,0.5662392890382533,5979.983697142513,6.026,5.496,4.413,4.048
-1.0,899994799.6372021,0.8253981471,0.6576578373554205,6088.355457613952,5.829,5.327,4.289,3.941
-1.0,899994799.6372021,0.8500000238,0.7585775750291838,6192.984599180425,5.645,5.168,4.171,3.841
-1.0,899994799.6372021,0.8635077477,0.8184647881347898,6245.971525332753,5.547,5.083,4.108,3.786
-1.0,899994799.6372021,0.8999999762,1.0023052380778996,6391.458891858142,5.29,4.859,3.939,3.64
-1.0,899994799.6372021,0.9294900298,1.1721953655481305,6505.789391703234,5.091,4.684,3.809,3.527
-1.0,899994799.6372021,0.9499999881,1.3061708881318415,6585.67053154378,4.957,4.565,3.719,3.449
-1.0,899994799.6372021,0.9848381877,1.5559656316050745,6725.119410047602,4.735,4.368,3.574,3.325
-1.0,899994799.6372021,1.0,1.6788040181225603,6785.783509504071,4.641,4.284,3.512,3.272
-1.0,899994799.6372021,1.0491608381,2.1232444620002195,6998.419960022738,4.341,4.018,3.324,3.113
-1.0,899994799.6372021,1.0499999523,2.1330449131465765,7001.64359372975,4.336,4.013,3.321,3.111
-1.0,899994799.6372021,1.061285615,2.2490546058357808,7055.048440506529,4.269,3.954,3.282,3.079
-1.0,899994799.6372021,1.0999513865,2.679168324819032,7242.691717336948,4.044,3.755,3.15,2.971
-1.0,899994799.6372021,1.1000000238,2.679168324819032,7242.691717336948,4.043,3.755,3.15,2.971
-1.0,899994799.6372021,1.1499999762,3.326595532940045,7530.087105475891,3.761,3.509,3.005,2.861
-1.0,899994799.6372021,1.2000000477,4.092606597300109,7854.164626145399,3.49,3.277,2.881,2.773
-1.0,899994799.6372021,1.25,4.9888448746001215,8188.417919005117,3.235,3.062,2.769,2.692
-1.0,899994799.6372021,1.2535293102,5.05824662003114,8211.074640850884,3.218,3.047,2.762,2.686
-1.0,899994799.6372021,1.2999999523,6.0534087475391365,8517.261866459183,2.999,2.867,2.665,2.612
-1.0,899994799.6372021,1.3394807577,7.030723198838334,8770.008211436349,2.835,2.732,2.586,2.547
-1.0,899994799.6372021,1.3500000238,7.3113908348341745,8836.901211414566,2.793,2.697,2.565,2.53
-1.0,899994799.6372021,1.3773713112,8.090958991783824,9003.26431059723,2.688,2.609,2.508,2.481
-1.0,899994799.6372021,1.3999999762,8.81048873008014,9136.92373681454,2.605,2.538,2.46,2.44
-1.0,899994799.6372021,1.4121689796,9.204495717531712,9204.495717531712,2.562,2.501,2.434,2.417
-1.0,899994799.6372021,1.4426013231,10.256519262514074,9371.303430676046,2.457,2.409,2.368,2.357
-1.0,899994799.6372021,1.4500000477,10.519618738232229,9410.224835267507,2.432,2.387,2.352,2.343
-1.0,899994799.6372021,1.4706637859,11.324003632355572,9514.80736351759,2.363,2.326,2.305,2.3
-1.0,899994799.6372021,1.4968941212,12.44514611771385,9647.171518961675,2.276,2.249,2.245,2.244
-1.0,899994799.6372021,1.5,12.589254117941675,9660.508789898131,2.266,2.239,2.237,2.237
-1.0,899994799.6372021,1.5396391153,14.454397707459272,9840.111057611335,2.135,2.122,2.141,2.146
-1.0,899994799.6372021,1.5499999523,14.996848355023733,9885.53094656939,2.101,2.09,2.114,2.121
-1.0,899994799.6372021,1.5596684217,15.523870099580824,9926.588068710305,2.069,2.061,2.089,2.098
-1.0,899994799.6372021,1.5938916206,17.538805018417612,10055.415018560425,1.955,1.956,1.997,2.01
-1.0,899994799.6372021,1.6000000238,17.906058540352937,10073.9548481125,1.935,1.937,1.98,1.993
-1.0,899994799.6372021,1.6241542101,19.498445997580454,10148.456628180957,1.853,1.861,1.911,1.925
-1.0,899994799.6372021,1.6496940851,21.330449131465762,10209.394837076808,1.763,1.775,1.831,1.847
-1.0,899994799.6372021,1.6499998569,21.330449131465762,10209.394837076808,1.762,1.774,1.829,1.846
-1.0,899994799.6372021,1.6575391293,21.928049353504484,10223.5093850323,1.735,1.748,1.805,1.822
-1.0,899994799.6372021,1.692180872,24.831331052955704,10256.519262514079,1.604,1.621,1.68,1.698
-1.0,899994799.6372021,1.7000000477,25.527013026612472,10256.519262514079,1.573,1.59,1.65,1.668
-1.0,899994799.6372021,1.7275929451,28.183829312644534,10258.881185266031,1.464,1.484,1.543,1.561
-1.0,899994799.6372021,1.75,30.61963433690677,10228.218569340455,1.368,1.388,1.446,1.463
-1.0,899994799.6372021,1.7522752285,30.83187950249355,10225.863706103928,1.359,1.379,1.435,1.452
-1.0,899994799.6372021,1.7777626514,33.884415613920254,10143.784167147647,1.241,1.259,1.309,1.324
-1.0,899994799.6372021,1.7999999523,36.897759857015025,10036.909309200966,1.131,1.147,1.187,1.199
-1.0,899994799.6372021,1.8180408478,39.44573020752785,9917.44955231413,1.036,1.048,1.076,1.085
-1.0,899994799.6372021,1.8371127844,42.55984131337431,9756.633693709555,0.929,0.936,0.948,0.952
-1.0,899994799.6372021,1.8500001431,44.77133041763626,9629.417129715559,0.854,0.856,0.854,0.854
-1.0,899994799.6372021,1.8540239334,45.498806015004845,9591.797467879695,0.831,0.831,0.824,0.823
-1.0,899994799.6372021,1.8702692986,48.86523593428336,9440.608762859236,0.73,0.724,0.699,0.693
-1.0,899994799.6372021,1.8757306337,50.23425895223871,9410.224835267507,0.697,0.689,0.66,0.654
-1.0,899994799.6372021,1.8766658306,50.5824662003114,9431.917643879371,0.692,0.685,0.659,0.653
-1.0,899994799.6372021,1.8840186596,53.95106225151276,9691.700839472915,0.656,0.665,0.67,0.672
-1.0,899994799.6372021,1.8855674267,55.84701947368309,9926.588068710305,0.655,0.675,0.704,0.714
-1.0,899994799.6372021,1.8862524033,57.80960474057181,10169.509351159437,0.657,0.688,0.739,0.755
-1.0,899994799.6372021,1.8866066933,60.25595860743578,10413.578615284341,0.655,0.695,0.767,0.789
-1.0,899994799.6372021,1.8868157864,62.8058358813318,10638.980184469834,0.649,0.696,0.785,0.812
-1.0,899994799.6372021,1.8869179487,64.12095765851615,10749.790488200813,0.646,0.697,0.794,0.824
-1.0,899994799.6372021,1.8869751692,62.08690342300634,10634.081880996964,0.661,0.708,0.797,0.824
-1.0,899994799.6372021,1.8870515823,59.84115950603196,10430.376855048382,0.665,0.705,0.779,0.801
-1.0,899994799.6372021,1.8871415854,59.42921586155727,10171.85123683214,0.627,0.658,0.71,0.726
-1.0,899994799.6372021,1.8872647285,61.65950018614822,9896.918638691024,0.542,0.563,0.589,0.598
-1.0,899994799.6372021,1.8874256611,64.26877173170197,9627.200129733195,0.454,0.463,0.461,0.462
-1.0,899994799.6372021,1.8876219988,66.06934480075961,9360.520527214574,0.385,0.381,0.348,0.339
-1.0,899994799.6372021,1.8878554106,67.45280276979219,9099.132726322518,0.333,0.314,0.246,0.227
-1.0,899994799.6372021,1.8881210089,68.23386941416697,8840.971692004954,0.295,0.26,0.15,0.12
-1.0,899994799.6372021,1.8884084225,68.7068440014232,8588.157491027288,0.271,0.215,0.06,0.017
-1.0,899994799.6372021,1.8887031078,69.02398038402418,8338.731689085957,0.262,0.183,-0.025,-0.084
-1.0,899994799.6372021,1.8889919519,69.18309709189366,8098.414473257882,0.27,0.163,-0.106,-0.182
-1.0,899994799.6372021,1.8892655373,69.02398038402418,7863.212274584181,0.294,0.152,-0.183,-0.278
-1.0,899994799.6372021,1.8895183802,68.86522963442762,7636.599241361576,0.329,0.152,-0.255,-0.371
-1.0,899994799.6372021,1.8897490501,68.54882264526617,7416.517059021937,0.37,0.16,-0.322,-0.461
-1.0,899994799.6372021,1.8899575472,68.23386941416697,7206.0952778941455,0.416,0.173,-0.384,-0.549
-1.0,899994799.6372021,1.8901451826,67.60829753919819,7003.255967370536,0.467,0.192,-0.441,-0.633
-1.0,899994799.6372021,1.8903144598,66.98846094165265,6813.9665928283175,0.52,0.212,-0.494,-0.712
-1.0,899994799.6372021,1.8904670477,66.3743070401909,6643.546819760057,0.573,0.235,-0.539,-0.782
-1.0,899994799.6372021,1.8906053305,65.61452663029053,6493.816315762113,0.626,0.26,-0.576,-0.843
-1.0,899994799.6372021,1.8907314539,64.86344335482384,6363.55790040944,0.68,0.286,-0.605,-0.893
-1.0,899994799.6372021,1.8908479214,63.82634861905486,6250.287580151303,0.732,0.313,-0.626,-0.934
-1.0,899994799.6372021,1.8909605742,62.8058358813318,6147.520703193109,0.784,0.341,-0.642,-0.968
-1.0,899994799.6372021,1.8910857439,61.517687270986805,6046.4435134475925,0.843,0.375,-0.652,-0.995
-1.0,899994799.6372021,1.8912436962,59.566214352901035,5938.817778927777,0.92,0.425,-0.652,-1.017
-1.0,899994799.6372021,1.8914474249,56.49369748123026,5823.713479437514,1.024,0.497,-0.634,-1.023
-1.0,899994799.6372021,1.891630888,53.456435939697165,5733.238386538407,1.122,0.57,-0.604,-1.012
-1.0,899994799.6372021,1.8918178082,50.69907082747044,5649.369748123023,1.217,0.641,-0.573,-0.998
-1.0,899994799.6372021,1.8920668364,48.5288500162121,5544.980203697426,1.311,0.706,-0.56,-1.01
-1.0,899994799.6372021,1.8922631741,50.003453497697855,5481.507340176555,1.307,0.684,-0.616,-1.081
-1.0,899994799.6372021,1.8925248384,53.826978251628844,5415.019189534895,1.262,0.618,-0.718,-1.199
-1.0,899994799.6372021,1.892786026,58.47900841444806,5367.845410255124,1.195,0.537,-0.824,-1.316
-1.0,899994799.6372021,1.8931120634,64.41692655151772,5325.985748490616,1.11,0.439,-0.945,-1.447
-1.0,899994799.6372021,1.893437624,70.95777679633888,5290.539972095819,1.024,0.341,-1.061,-1.571
-1.0,899994799.6372021,1.8938275576,79.61593504173187,5252.910484500485,0.919,0.225,-1.198,-1.718
-1.0,899994799.6372021,1.8941520452,87.4983775227436,5222.759166787714,0.833,0.129,-1.311,-1.839
-1.0,899994799.6372021,1.8942168951,89.12509381337455,5216.749703076012,0.816,0.11,-1.334,-1.863
-1.0,899994799.6372021,1.8944897652,96.60508789898135,5192.78091540883,0.744,0.03,-1.429,-1.964
-1.0,899994799.6372021,1.8945579529,98.62794856312105,5186.8059455744215,0.726,0.01,-1.452,-1.989
-1.0,899994799.6372021,1.8947486877,103.9920165829059,5168.922254317574,0.677,-0.046,-1.518,-2.06
-1.0,899994799.6372021,1.8950663805,114.02497875611685,5141.620281354357,0.595,-0.138,-1.626,-2.175
-1.0,899994799.6372021,1.895383358,124.73835142429432,5114.462515963049,0.515,-0.228,-1.733,-2.288
-1.0,899994799.6372021,1.8956998587,136.14446824659495,5088.619759560772,0.436,-0.318,-1.838,-2.4
-1.0,899994799.6372021,1.896012187,148.59356422870076,5062.90758346022,0.359,-0.406,-1.942,-2.51
-1.0,899994799.6372021,1.8963967562,165.57699634695277,5030.370810846251,0.264,-0.514,-2.07,-2.647
-1.0,899994799.6372021,1.8967136145,181.13400926196024,5002.648624210056,0.187,-0.603,-2.176,-2.76
-1.0,899994799.6372021,1.8969914913,195.8844673505989,4978.517063739154,0.119,-0.68,-2.27,-2.861
-1.0,899994799.6372021,1.8972662687,212.32444620002192,4953.361223155476,0.052,-0.758,-2.364,-2.961
-1.0,899994799.6372021,1.8975871801,232.80912576650078,4923.795419719503,-0.026,-0.85,-2.475,-3.08
-1.0,899994799.6372021,1.8979290724,256.4484036517716,4892.152651344176,-0.107,-0.944,-2.591,-3.206
-1.0,899994799.6372021,1.8982591629,280.54336379517133,4864.072056914614,-0.178,-1.029,-2.696,-3.32
-1.0,899994799.6372021,1.898368597,287.0780582024692,4856.238413914264,-0.198,-1.053,-2.726,-3.352
-1.0,899994799.6372021,1.8984190226,276.0577856220345,4869.675251658631,-0.167,-1.015,-2.678,-3.3
-1.0,899994799.6372021,1.8984464407,258.22601906345955,4891.026321245936,-0.113,-0.951,-2.598,-3.213
-1.0,899994799.6372021,1.8984719515,237.13737056616552,4920.395356814511,-0.044,-0.868,-2.496,-3.102
-1.0,899994799.6372021,1.8985065222,215.27817347243737,4951.080641176657,0.037,-0.775,-2.382,-2.98
-1.0,899994799.6372021,1.8985574245,195.8844673505989,4981.957289567119,0.116,-0.682,-2.269,-2.858
-1.0,899994799.6372021,1.8986370564,178.64875748520498,5013.026495398051,0.195,-0.59,-2.157,-2.738
-1.0,899994799.6372021,1.8987586498,162.55487557504833,5041.967013185367,0.277,-0.496,-2.044,-2.618
-1.0,899994799.6372021,1.8989390135,148.59356422870076,5072.242398926514,0.353,-0.407,-1.938,-2.504
-1.0,899994799.6372021,1.8993186951,138.03842646028852,5094.481623274436,0.417,-0.334,-1.851,-2.411
-1.0,899994799.6372021,1.8999999762,129.41958414499862,5115.640300070042,0.473,-0.27,-1.774,-2.328
-1.0,899994799.6372021,1.9002255201,126.76518658578462,5122.712702645385,0.491,-0.249,-1.749,-2.302
-1.0,899994799.6372021,1.9006701708,117.21953655481303,5147.54319931262,0.56,-0.171,-1.655,-2.202
-1.0,899994799.6372021,1.9012755156,107.1519305237606,5178.452536000238,0.64,-0.079,-1.545,-2.085
-1.0,899994799.6372021,1.9020100832,97.2747223776965,5208.348068742078,0.727,0.018,-1.431,-1.962
-1.0,899994799.6372021,1.9028372765,88.10488730080142,5243.243172456372,0.814,0.116,-1.313,-1.835
-1.0,899994799.6372021,1.9038072824,79.79946872679764,5278.37206781577,0.903,0.217,-1.193,-1.706
-1.0,899994799.6372021,1.9050170183,72.27698036021702,5317.408188271428,0.989,0.316,-1.072,-1.576
-1.0,899994799.6372021,1.9067960978,65.76578373554206,5366.609560460733,1.066,0.408,-0.953,-1.446
-1.0,899994799.6372021,1.9098376036,61.94410750767815,5438.76131720408,1.095,0.46,-0.863,-1.339
-1.0,899994799.6372021,1.9122806787,63.53309318517436,5471.419324763784,1.05,0.425,-0.88,-1.348
-1.0,899994799.6372021,1.9152057171,66.22165037017619,5508.076964054036,0.986,0.373,-0.913,-1.372
-1.0,899994799.6372021,1.917298317,68.23386941416697,5529.680004928025,0.944,0.336,-0.939,-1.393
-1.0,899994799.6372021,1.9296394587,76.73614893618189,5569.292144857989,0.797,0.201,-1.053,-1.497
-1.0,899994799.6372021,1.9436239004,87.4983775227436,5588.561055539444,0.646,0.056,-1.188,-1.628
-1.0,899994799.6372021,1.9500000477,92.89663867799364,5596.287273819709,0.576,-0.011,-1.252,-1.69
-1.0,899994799.6372021,1.9567018747,99.08319448927675,5605.314696465377,0.501,-0.083,-1.319,-1.755
-1.0,899994799.6372021,1.9701606035,112.97959146727976,5623.413251903491,0.348,-0.23,-1.456,-1.888
-1.0,899994799.6372021,1.9836412668,128.52866599436155,5635.078884001395,0.201,-0.373,-1.593,-2.022
-1.0,899994799.6372021,1.9947656393,142.56075936021878,5636.376558259543,0.088,-0.485,-1.705,-2.134
-1.0,899994799.6372021,2.0,148.2518085145953,5613.064076752015,0.056,-0.524,-1.756,-2.19
-1.0,899994799.6372021,2.0028395653,151.35612484362088,5601.444019285339,0.038,-0.545,-1.783,-2.221
-1.0,899994799.6372021,2.0105237961,159.95580286146696,5553.924862434803,0.0,-0.596,-1.858,-2.306
-1.0,899994799.6372021,2.0159904957,164.43717232149325,5481.507340176555,0.005,-0.613,-1.913,-2.378
-1.0,899994799.6372021,2.0161705017,165.95869074375614,5486.558320717441,-0.008,-0.624,-1.921,-2.385
-1.0,899994799.6372021,2.0167796612,165.57699634695277,5490.349610252034,-0.006,-0.621,-1.916,-2.379
-1.0,899994799.6372021,2.0192241669,166.34126503701697,5430.002130657378,0.02,-0.615,-1.942,-2.418
-1.0,899994799.6372021,2.0207407475,166.34126503701697,5372.791656065097,0.051,-0.604,-1.961,-2.452
-1.0,899994799.6372021,2.0218701363,167.49428760264382,5294.19581017428,0.086,-0.595,-1.995,-2.504
-1.0,899994799.6372021,2.0225689411,177.0108958317422,5195.172830110672,0.085,-0.632,-2.088,-2.622
-1.0,899994799.6372021,2.0227222443,192.30917289101575,5133.339643802892,0.033,-0.707,-2.2,-2.749
-1.0,899994799.6372021,2.0227358341,198.1527025805099,5119.175279997109,0.011,-0.735,-2.236,-2.788
-1.0,899994799.6372021,2.0227892399,224.3881923782766,5064.073495238508,-0.086,-0.854,-2.389,-2.956
-1.0,899994799.6372021,2.022919178,234.42288153199226,5048.937562011554,-0.125,-0.899,-2.443,-3.014
-1.0,899994799.6372021,2.0239443779,230.6747188720069,5054.753713597985,-0.111,-0.883,-2.424,-2.993
-1.0,899994799.6372021,2.0244715214,250.6109253032114,5018.801279032415,-0.176,-0.963,-2.526,-3.104
-1.0,899994799.6372021,2.0247840881,271.01916318908417,4988.844874600121,-0.238,-1.038,-2.621,-3.207
-1.0,899994799.6372021,2.0249974728,287.73984147356697,4965.923214503363,-0.286,-1.095,-2.692,-3.285
-1.0,899994799.6372021,2.0251941681,304.088502567628,4937.419182496813,-0.324,-1.145,-2.762,-3.363
-1.0,899994799.6372021,2.0254795551,329.6097121774576,4907.948534495558,-0.387,-1.223,-2.86,-3.469
-1.0,899994799.6372021,2.0257434845,355.6313185689855,4876.407606118823,-0.444,-1.294,-2.954,-3.573
-1.0,899994799.6372021,2.026001215,386.36697705406937,4843.953885478403,-0.503,-1.37,-3.053,-3.681
-1.0,899994799.6372021,2.0262451172,418.79356511791826,4813.932540001449,-0.56,-1.45,-3.154,-3.79
-1.0,899994799.6372021,2.0264732838,456.03691595129595,4774.193311370779,-0.608,-1.528,-3.26,-3.906
-1.0,899994799.6372021,2.0266838074,497.7370849789361,4738.053933388255,-0.66,-1.609,-3.366,-4.021
-1.0,899994799.6372021,2.026876688,543.250331492433,4704.35405725976,-0.714,-1.691,-3.474,-4.136
-1.0,899994799.6372021,2.0270516872,592.9253245799999,4674.121528671508,-0.769,-1.773,-3.579,-4.249
-1.0,899994799.6372021,2.0272109509,645.6542290346556,4644.083289410481,-0.82,-1.852,-3.682,-4.36
-1.0,899994799.6372021,2.0273587704,703.0723198838334,4614.238090876438,-0.87,-1.931,-3.786,-4.471
-1.0,899994799.6372021,2.0274960995,765.5966069112561,4583.529174381888,-0.917,-2.008,-3.889,-4.582
-1.0,899994799.6372021,2.0276248455,833.681184619634,4554.07312683254,-0.96,-2.084,-3.992,-4.693
-1.0,899994799.6372021,2.0277454853,907.8205301781861,4523.764623324995,-1.007,-2.156,-4.093,-4.805
-1.0,899994799.6372021,2.0278587341,988.553094656939,4492.623246702932,-1.054,-2.226,-4.194,-4.918
-1.0,899994799.6372021,2.0279660225,1076.465213629835,4461.696245809645,-1.099,-2.296,-4.295,-5.03
-1.0,899994799.6372021,2.0280683041,1169.4993910198712,4432.002533708497,-1.142,-2.363,-4.394,-5.141
-1.0,899994799.6372021,2.0281665325,1270.5741052085418,4401.492842868152,-1.185,-2.43,-4.493,-5.252
-1.0,899994799.6372021,2.0282623768,1380.3842646028852,4371.193179262241,-1.226,-2.495,-4.59,-5.361
-1.0,899994799.6372021,2.0283584595,1499.684835502374,4341.1020970734535,-1.265,-2.558,-4.687,-5.471
-1.0,899994799.6372021,2.02845788,1625.5487557504835,4310.225580049957,-1.303,-2.621,-4.784,-5.581
-1.0,899994799.6372021,2.028604269,1815.515662773135,4270.709194407456,-1.347,-2.701,-4.914,-5.728
-1.0,899994799.6372021,2.0286750793,1936.4219639466069,4247.173474714387,-1.368,-2.745,-4.989,-5.813
-1.0,899994799.6372021,2.0287239552,2070.1413487910413,4222.795013060563,-1.392,-2.792,-5.067,-5.902
-1.0,899994799.6372021,2.028775692,2264.6443075930597,4190.829574049906,-1.423,-2.855,-5.174,-6.024
-1.0,899994799.6372021,2.028842926,2558.585886905645,4146.675015156991,-1.462,-2.937,-5.317,-6.187
-1.0,899994799.6372021,2.028898716,2786.1211686297693,4114.338313870812,-1.485,-2.99,-5.416,-6.301
-1.0,899994799.6372021,2.0289008617,2728.9777828080405,4122.873407228869,-1.479,-2.976,-5.39,-6.272
-1.0,899994799.6372021,2.0289030075,2691.5348039269165,4127.622774083493,-1.476,-2.968,-5.376,-6.256
-1.0,899994799.6372021,2.0289051533,2754.2287033381663,4119.077848677374,-1.482,-2.984,-5.403,-6.287
-1.0,899994799.6372021,2.028907299,2818.382931264455,4110.55061281175,-1.488,-2.997,-5.429,-6.316
-1.0,899994799.6372021,2.0289108753,2890.6798823654744,4101.0966087481165,-1.495,-3.013,-5.458,-6.35
-1.0,899994799.6372021,2.0289156437,2958.0124665515464,4092.6065973001096,-1.501,-3.028,-5.486,-6.382
-1.0,899994799.6372021,2.028932333,3061.963433690679,4079.4348341609566,-1.509,-3.049,-5.524,-6.427
-1.0,899994799.6372021,2.0289576054,3090.295432513592,4075.6792655948925,-1.512,-3.055,-5.536,-6.441
-1.0,899994799.6372021,2.0289578438,2964.8313895243423,4090.7223162166774,-1.501,-3.029,-5.489,-6.386
-1.0,899994799.6372021,2.0289580822,3515.6044052829798,4027.170343254591,-1.536,-3.129,-5.687,-6.617
-1.0,899994799.6372021,2.0289583206,3531.83169791957,4025.3161897421182,-1.537,-3.131,-5.692,-6.623
-1.0,899994799.6372021,2.028958559,3372.873086588689,4042.9651707596545,-1.53,-3.105,-5.637,-6.558
-1.0,899994799.6372021,2.0289590359,3326.5955329400435,4048.5545937074157,-1.527,-3.098,-5.622,-6.541
-1.0,899994799.6372021,2.0289592743,3258.367010020087,4056.0191798991405,-1.523,-3.086,-5.598,-6.513
-1.0,899994799.6372021,2.0289599895,3191.5378551007616,4063.497529039034,-1.519,-3.074,-5.574,-6.485
-1.0,899994799.6372021,2.0289607048,3133.2857243155854,4070.989666502739,-1.515,-3.063,-5.553,-6.46
-1.0,899994799.6372021,2.0289614201,3076.096814740708,4077.556617502122,-1.51,-3.052,-5.531,-6.435
-1.0,899994799.6372021,2.0289626122,3013.006024186122,4085.0746766312514,-1.505,-3.039,-5.508,-6.408
-1.0,899994799.6372021,2.0289635658,2964.8313895243423,4091.6643482904537,-1.501,-3.028,-5.487,-6.384
-1.0,899994799.6372021,2.0289649963,2917.427014001166,4098.264649809825,-1.496,-3.018,-5.468,-6.362
-1.0,899994799.6372021,2.0289671421,2851.0182675039096,4105.820889699131,-1.49,-3.004,-5.443,-6.333
-1.0,899994799.6372021,2.0289723873,2824.8799749157074,4108.6580701062485,-1.486,-2.998,-5.432,-6.321
-1.0,899994799.6372021,2.0289757252,2890.6798823654744,4100.152405066133,-1.493,-3.012,-5.458,-6.35
-1.0,899994799.6372021,2.0289781094,2958.0124665515464,4092.6065973001096,-1.5,-3.027,-5.485,-6.381
-1.0,899994799.6372021,2.0289804935,3013.006024186122,4085.0746766312514,-1.505,-3.039,-5.508,-6.408
-1.0,899994799.6372021,2.0289833546,3019.9517204020162,4085.0746766312514,-1.505,-3.04,-5.509,-6.409
-1.0,899994799.6372021,2.0289874077,3090.295432513592,4076.617833479447,-1.511,-3.054,-5.536,-6.44
-1.0,899994799.6372021,2.0289936066,3396.2527259040853,4041.103745134904,-1.532,-3.111,-5.647,-6.569
-1.0,899994799.6372021,2.0290052891,3881.5036599064824,3991.167918200923,-1.557,-3.187,-5.8,-6.749
-1.0,899994799.6372021,2.0290317535,4677.351412871981,3922.8346253952054,-1.568,-3.278,-6.017,-7.002
-1.0,899994799.6372021,2.0290391445,4786.300923226385,3915.6151483961166,-1.568,-3.288,-6.042,-7.031
-1.0,899994799.6372021,2.0290400982,4786.300923226385,3915.6151483961166,-1.568,-3.288,-6.042,-7.031
-1.0,899994799.6372021,2.0290410519,4064.4332916521275,3972.830167336813,-1.557,-3.208,-5.855,-6.813
-1.0,899994799.6372021,2.0290415287,3715.352290971724,4004.9767571215903,-1.544,-3.159,-5.75,-6.692
-1.0,899994799.6372021,2.0290439129,2349.6328208483073,4174.457078262909,-1.427,-2.875,-5.216,-6.073
-1.0,899994799.6372021,2.0290472507,2027.6827195212818,4229.60684266539,-1.381,-2.776,-5.043,-5.875
-1.0,899994799.6372021,2.0290517807,2233.5722228305326,4192.759966846054,-1.41,-2.84,-5.157,-6.006
-1.0,899994799.6372021,2.0290577412,2870.780582024692,4098.264649809825,-1.482,-3.002,-5.452,-6.345
-1.0,899994799.6372021,2.0290651321,3689.775985701505,4005.8990432775086,-1.538,-3.152,-5.742,-6.683
-1.0,899994799.6372021,2.0290739536,4385.306977749856,3942.7568959559076,-1.556,-3.242,-5.943,-6.917
-1.0,899994799.6372021,2.029084444,4808.393484497285,3910.2092612681363,-1.561,-3.285,-6.049,-7.04
-1.0,899994799.6372021,2.0290961266,5000.345349769783,3895.8300217812994,-1.561,-3.303,-6.093,-7.093
-1.0,899994799.6372021,2.0291097164,5093.308710571952,3888.6602433122985,-1.559,-3.31,-6.115,-7.118
-1.0,899994799.6372021,2.0291101933,5105.049999754065,3886.8698613730226,-1.559,-3.311,-6.118,-7.122
-1.0,899994799.6372021,2.0291116238,4008.6671762730302,3971.915494694405,-1.542,-3.193,-5.84,-6.798
-1.0,899994799.6372021,2.0291147232,2546.8302525850418,4138.090648167254,-1.439,-2.92,-5.312,-6.186
-1.0,899994799.6372021,2.0291190147,2197.8598727848253,4192.759966846054,-1.395,-2.824,-5.139,-5.988
-1.0,899994799.6372021,2.0291252136,2421.0290467361774,4155.277190204325,-1.424,-2.888,-5.254,-6.12
-1.0,899994799.6372021,2.0291333199,3111.716337106017,4062.5619818684354,-1.49,-3.045,-5.545,-6.457
-1.0,899994799.6372021,2.029143095,3981.0717055349733,3971.915494694405,-1.536,-3.186,-5.832,-6.791
-1.0,899994799.6372021,2.0291547775,4731.512589614803,3910.2092612681363,-1.546,-3.269,-6.031,-7.023
-1.0,899994799.6372021,2.0291683674,5188.000389289609,3877.9303087618246,-1.549,-3.311,-6.137,-7.146
-1.0,899994799.6372021,2.029184103,5395.1062251512785,3861.8908944898994,-1.547,-3.327,-6.184,-7.202
-1.0,899994799.6372021,2.0292019844,5520.774392807573,3853.8960821181918,-1.544,-3.335,-6.209,-7.232
-1.0,899994799.6372021,2.0292024612,5636.376558259543,3845.9178204535356,-1.544,-3.344,-6.233,-7.26
-1.0,899994799.6372021,2.0292043686,4446.312674691088,3929.1625861305615,-1.533,-3.233,-5.959,-6.94
-1.0,899994799.6372021,2.0292079449,2831.391995799379,4091.6643482904537,-1.457,-2.982,-5.439,-6.335
-1.0,899994799.6372021,2.0292131901,2437.8108183687523,4147.629932299208,-1.415,-2.886,-5.263,-6.133
-1.0,899994799.6372021,2.0292205811,2691.5348039269165,4110.55061281175,-1.441,-2.947,-5.377,-6.265
-1.0,899994799.6372021,2.0292298794,3427.6778654645045,4020.6845399191266,-1.497,-3.093,-5.66,-6.593
-1.0,899994799.6372021,2.0292415619,4355.118736855684,3932.7831456834174,-1.524,-3.219,-5.937,-6.917
-1.0,899994799.6372021,2.0292556286,5140.436515824259,3873.468245564424,-1.53,-3.295,-6.128,-7.14
-1.0,899994799.6372021,2.029271841,5610.479760324706,3841.4925917875894,-1.527,-3.331,-6.228,-7.258
-1.0,899994799.6372021,2.0292906761,5821.032177708716,3826.484865951097,-1.523,-3.345,-6.273,-7.311
-1.0,899994799.6372021,2.0293118954,5942.921586155727,3818.563350459785,-1.519,-3.351,-6.296,-7.339
-1.0,899994799.6372021,2.0293123722,6237.348354824191,3801.8939632056126,-1.518,-3.37,-6.35,-7.402
-1.0,899994799.6372021,2.0293142796,4909.078761526029,3885.08030374528,-1.517,-3.268,-6.076,-7.082
-1.0,899994799.6372021,2.0293178558,3155.0046233746275,4045.7589169744288,-1.468,-3.038,-5.565,-6.485
-1.0,899994799.6372021,2.029323101,2703.9583641088434,4102.985668470057,-1.431,-2.945,-5.386,-6.277
-1.0,899994799.6372021,2.029330492,2985.3826189179604,4066.305463404283,-1.454,-3.004,-5.499,-6.409
-1.0,899994799.6372021,2.0293400288,3775.72190925416,3977.4066910502825,-1.497,-3.138,-5.773,-6.729
-1.0,899994799.6372021,2.0293517113,4764.309868054156,3892.2434816444134,-1.506,-3.247,-6.041,-7.043
-1.0,899994799.6372021,2.0293655396,5584.701947368307,3834.4228144309195,-1.501,-3.313,-6.224,-7.258
-1.0,899994799.6372021,2.0293819904,6067.363295885053,3802.769482436101,-1.496,-3.345,-6.321,-7.373
-1.0,899994799.6372021,2.0294008255,6309.57344480193,3788.785337484371,-1.491,-3.357,-6.365,-7.425
-1.0,899994799.6372021,2.0294220448,6441.692655151775,3780.941866832965,-1.489,-3.364,-6.389,-7.453
-1.0,899994799.6372021,2.0294225216,6934.258060165695,3754.0495447208405,-1.918,-3.66,-6.489,-7.51
-1.0,899994799.6372021,2.0294244289,5445.026528424214,3840.6081572581174,-1.861,-3.525,-6.216,-7.192
-1.0,899994799.6372021,2.0294277668,3523.7087104248726,4003.132821780234,-1.733,-3.259,-5.711,-6.61
-1.0,899994799.6372021,2.029433012,3013.006024186122,4063.497529039034,-1.659,-3.148,-5.527,-6.4
-1.0,899994799.6372021,2.0294401646,3318.944575526103,4022.5365599868255,-1.698,-3.212,-5.641,-6.531
-1.0,899994799.6372021,2.0294494629,4178.303666466218,3925.545359701092,-1.767,-3.352,-5.909,-6.844
-1.0,899994799.6372021,2.029460907,5211.947111050806,3830.010812264487,-1.802,-3.467,-6.168,-7.15
-1.0,899994799.6372021,2.0294747353,6081.350012787177,3758.374042884443,-1.806,-3.53,-6.343,-7.363
-1.0,899994799.6372021,2.0294907093,6591.738952443213,3711.931900441403,-1.789,-3.55,-6.436,-7.481
-1.0,899994799.6372021,2.0295090675,6839.116472814293,3681.289736425313,-1.758,-3.542,-6.478,-7.542
-1.0,899994799.6372021,2.0295300484,6982.324040771711,3654.264677506526,-1.721,-3.524,-6.501,-7.581
-1.0,899994799.6372021,2.0295305252,7691.304402866098,3612.434655644614,-1.717,-3.559,-6.609,-7.714
-1.0,899994799.6372021,2.0295321941,6039.4862937638,3716.2078809514237,-1.717,-3.466,-6.339,-7.383
-1.0,899994799.6372021,2.0295357704,3926.449353995997,3908.4089579240213,-1.681,-3.269,-5.845,-6.789
-1.0,899994799.6372021,2.0295407772,3341.950400261143,3981.988486715585,-1.647,-3.181,-5.656,-6.565
-1.0,899994799.6372021,2.0295479298,3681.289736425313,3932.7831456834174,-1.661,-3.228,-5.769,-6.702
-1.0,899994799.6372021,2.0295569897,4602.565735813559,3821.202031837345,-1.671,-3.327,-6.03,-7.017
-1.0,899994799.6372021,2.0295679569,5701.642722807472,3713.6417019195583,-1.66,-3.403,-6.275,-7.321
-1.0,899994799.6372021,2.0295813084,6591.738952443213,3635.8001230014343,-1.629,-3.438,-6.439,-7.53
-1.0,899994799.6372021,2.029597044,7112.1351365332885,3586.740857699508,-1.588,-3.439,-6.523,-7.645
-1.0,899994799.6372021,2.0296149254,7362.070974947361,3553.0392081527184,-1.552,-3.424,-6.559,-7.704
-1.0,899994799.6372021,2.0296354294,7498.942093324558,3523.7087104248726,-1.512,-3.398,-6.578,-7.743
-1.0,899994799.6372021,2.0296359062,8452.788451602899,3468.1669875535863,-1.527,-3.44,-6.706,-7.908
-1.0,899994799.6372021,2.0296375751,6622.165037017622,3580.1399184306892,-1.509,-3.356,-6.445,-7.573
-1.0,899994799.6372021,2.0296406746,4345.102241715715,3784.425847170932,-1.547,-3.219,-5.969,-6.977
-1.0,899994799.6372021,2.029645443,3681.289736425313,3866.339621093609,-1.543,-3.15,-5.777,-6.744
-1.0,899994799.6372021,2.0296521187,4045.7589169744288,3812.4135110429906,-1.534,-3.182,-5.888,-6.882
-1.0,899994799.6372021,2.0296607018,5011.872336272725,3697.4303349809716,-1.506,-3.247,-6.136,-7.193
-1.0,899994799.6372021,2.0296711922,6165.9500186148225,3586.740857699508,-1.454,-3.291,-6.364,-7.488
-1.0,899994799.6372021,2.0296835899,7079.457843841381,3507.5187395256794,-1.415,-3.309,-6.513,-7.689
-1.0,899994799.6372021,2.0296983719,7603.262769401815,3458.597315106485,-1.391,-3.309,-6.59,-7.799
-1.0,899994799.6372021,2.0297152996,7834.29642766212,3425.3109270831965,-1.355,-3.29,-6.622,-7.854
-1.0,899994799.6372021,2.0297343731,7961.593504173184,3396.2527259040853,-1.312,-3.26,-6.64,-7.891
-1.0,899994799.6372021,2.0297348499,9162.204901220002,3328.1278395965264,-1.292,-3.289,-6.792,-8.088
-1.0,899994799.6372021,2.0297365189,7194.489780036998,3445.08546286579,-1.302,-3.227,-6.528,-7.747
-1.0,899994799.6372021,2.0297393799,4731.512589614803,3655.1061999238823,-1.36,-3.125,-6.074,-7.156
-1.0,899994799.6372021,2.0297441483,3999.4474976109736,3740.244560424048,-1.379,-3.073,-5.882,-6.916
-1.0,899994799.6372021,2.0297503471,4395.416154378243,3683.8335597906507,-1.351,-3.09,-5.99,-7.056
-1.0,899994799.6372021,2.0297586918,5420.008904016238,3566.1532304264047,-1.283,-3.124,-6.223,-7.362
-1.0,899994799.6372021,2.0297687054,6606.934480075957,3454.617749058203,-1.229,-3.15,-6.436,-7.649
-1.0,899994799.6372021,2.0297806263,7533.55563733717,3374.4267097541338,-1.204,-3.164,-6.578,-7.844
-1.0,899994799.6372021,2.0297949314,8072.350302488382,3324.298395649131,-1.155,-3.148,-6.651,-7.951
-1.0,899994799.6372021,2.0298111439,8317.63771102671,3289.2736048064767,-1.092,-3.115,-6.684,-8.007
-1.0,899994799.6372021,2.0298295021,8452.788451602899,3257.616829660631,-1.023,-3.072,-6.702,-8.044
-1.0,899994799.6372021,2.0298299789,9931.160484209335,3179.069335643364,-0.973,-3.094,-6.885,-8.272
-1.0,899994799.6372021,2.0298314095,7780.365510398041,3295.3382547359615,-1.043,-3.056,-6.61,-7.929
-1.0,899994799.6372021,2.0298342705,5164.163692720711,3501.063598465195,-1.078,-2.964,-6.168,-7.35
-1.0,899994799.6372021,2.029838562,4345.102241715715,3588.3929932948636,-1.12,-2.928,-5.98,-7.105
-1.0,899994799.6372021,2.0298445225,4775.2927365769065,3529.3928374635293,-1.07,-2.929,-6.082,-7.246
-1.0,899994799.6372021,2.0298519135,5847.900841444806,3409.5730529319967,-1.001,-2.945,-6.301,-7.545
-1.0,899994799.6372021,2.0298614502,7079.457843841381,3296.097121774576,-0.955,-2.96,-6.505,-7.824
-1.0,899994799.6372021,2.0298726559,8035.261221856169,3214.400596524381,-0.862,-2.94,-6.647,-8.016
-1.0,899994799.6372021,2.0298857689,8570.378452303692,3160.0939904479483,-0.785,-2.91,-6.723,-8.122
-1.0,899994799.6372021,2.0299007893,8830.799004185632,3122.4824062232706,-0.714,-2.871,-6.759,-8.177
-1.0,899994799.6372021,2.0299179554,8974.287945007482,3088.1614691845125,-0.639,-2.824,-6.78,-8.214
-1.0,899994799.6372021,2.0299181938,10764.65213629835,2995.021883751126,-0.557,-2.832,-6.989,-8.45
-1.0,899994799.6372021,2.0299196243,8433.347577642757,3118.8895840939385,-0.661,-2.817,-6.708,-8.128
-1.0,899994799.6372021,2.0299222469,5636.376558259543,3335.7999666204814,-0.797,-2.779,-6.254,-7.549
-1.0,899994799.6372021,2.0299260616,4720.630412635905,3432.416650121203,-0.819,-2.75,-6.065,-7.295
-1.0,899994799.6372021,2.0299313068,5176.068319505676,3373.6498087376713,-0.789,-2.753,-6.165,-7.435
-1.0,899994799.6372021,2.029938221,6309.57344480193,3256.8668220166983,-0.741,-2.768,-6.379,-7.723
-1.0,899994799.6372021,2.0299465656,7568.328950209744,3149.923452784473,-0.637,-2.762,-6.586,-7.991
-1.0,899994799.6372021,2.0299565792,8550.667128846831,3074.680545939635,-0.554,-2.747,-6.726,-8.165
-1.0,899994799.6372021,2.0299682617,9078.205301781862,3026.913428101305,-0.479,-2.717,-6.796,-8.251
-1.0,899994799.6372021,2.0299818516,9332.543007969914,2992.264636608189,-0.412,-2.68,-6.83,-8.293
-1.0,899994799.6372021,2.0299971104,9462.37161365793,2957.331437419893,-0.331,-2.629,-6.851,-8.322
-1.0,899994799.6372021,2.0299973488,11614.486138403438,2858.9068155119553,-0.262,-2.655,-7.093,-8.576
-1.0,899994799.6372021,2.0299987793,9078.205301781862,2973.0348496770193,-0.336,-2.617,-6.803,-8.27
-1.0,899994799.6372021,2.0300011635,6109.420249055721,3169.56746304349,-0.483,-2.576,-6.346,-7.742
-1.0,899994799.6372021,2.0300049782,5093.308710571952,3259.1173631348456,-0.516,-2.541,-6.142,-7.487
-1.0,899994799.6372021,2.0300102234,5584.701947368307,3201.10559153497,-0.48,-2.541,-6.246,-7.625
-1.0,899994799.6372021,2.0300168991,6760.829753919818,3088.8726265127525,-0.369,-2.534,-6.467,-7.903
-1.0,899994799.6372021,2.0300252438,8053.784411990669,2986.070107816526,-0.254,-2.516,-6.666,-8.132
-1.0,899994799.6372021,2.0300352573,9015.711376059571,2915.4124227107563,-0.17,-2.5,-6.803,-8.281
-1.0,899994799.6372021,2.0300469398,9549.92586021436,2875.4114646740045,-0.114,-2.482,-6.873,-8.357
-1.0,899994799.6372021,2.0300602913,9772.372209558112,2855.617271381299,-0.084,-2.472,-6.905,-8.388
-1.0,899994799.6372021,2.0300753117,9885.53094656939,2848.3935915323636,-0.072,-2.469,-6.921,-8.404
-1.0,899994799.6372021,2.0300755501,12416.523075924119,2723.9554471208658,0.01,-2.496,-7.204,-8.672
-1.0,899994799.6372021,2.0300767422,9705.099672454899,2849.7056273411536,-0.059,-2.453,-6.9,-8.383
-1.0,899994799.6372021,2.0300791264,6576.578373554205,3064.079293806048,-0.262,-2.452,-6.439,-7.883
-1.0,899994799.6372021,2.0300824642,5457.57861091271,3163.0058853452065,-0.344,-2.442,-6.225,-7.625
-1.0,899994799.6372021,2.0300872326,5997.910762555094,3086.0289794360633,-0.231,-2.397,-6.335,-7.772
-1.0,899994799.6372021,2.0300931931,7211.074791828998,2949.171307508275,-0.036,-2.328,-6.551,-8.025
-1.0,899994799.6372021,2.0301008224,8511.380382023768,2824.229597144114,0.134,-2.273,-6.76,-8.244
-1.0,899994799.6372021,2.0301096439,9462.37161365793,2734.6389799122753,0.247,-2.236,-6.903,-8.374
-1.0,899994799.6372021,2.0301201344,10000.0,2681.0196680906333,0.326,-2.203,-6.978,-8.437
-1.0,899994799.6372021,2.0301322937,10232.929922807536,2652.161705507881,0.364,-2.186,-7.012,-8.462
-1.0,899994799.6372021,2.0301458836,10351.42166679343,2639.9761293548113,0.375,-2.182,-7.029,-8.475
