FeH,Age,Mini,L,Te,Bmag,Vmag,Jmag,Kmag
-0.8,1450006670.0500913,0.090000011,0.0005382697825162882,2687.818878638133,19.096,17.065,10.826,10.235
-0.8,1450006670.0500913,0.0907851607,0.0005597576014951105,2702.713431942815,18.971,16.95,10.79,10.191
-0.8,1450006670.0500913,0.09408281,0.000663743070401909,2768.216162574592,18.443,16.466,10.635,10.006
-0.8,1450006670.0500913,0.0975678712,0.0007888601176185541,2835.9593403567637,17.908,15.971,10.48,9.819
-0.8,1450006670.0500913,0.0994170234,0.0008649679187756929,2872.7643320808324,17.626,15.705,10.399,9.722
-0.8,1450006670.0500913,0.1182510555,0.00159220872705117,3093.855315451652,16.0,14.183,9.836,9.087
-0.8,1450006670.0500913,0.1370850801,0.002426610095082414,3232.2132033960884,15.061,13.321,9.438,8.664
-0.8,1450006670.0500913,0.1559191346,0.0033419504002611426,3326.5955329400435,14.434,12.751,9.13,8.346
-0.8,1450006670.0500913,0.1935872138,0.005357966575133417,3449.848313627505,13.605,12.005,8.663,7.871
-0.8,1450006670.0500913,0.2406722903,0.008298507675144225,3552.2211848231955,12.901,11.367,8.224,7.426
-0.8,1450006670.0500913,0.2877573967,0.011776059735208072,3629.108896409478,12.37,10.883,7.873,7.072
-0.8,1450006670.0500913,0.314971894,0.014387985782558451,3666.0636424947174,12.083,10.618,7.668,6.864
-0.8,1450006670.0500913,0.3348424733,0.01651961798229015,3690.6256858412085,11.89,10.438,7.529,6.723
-0.8,1450006670.0500913,0.3819275498,0.02296148648112362,3770.5091583339295,11.401,9.993,7.199,6.39
-0.8,1450006670.0500913,0.4290127158,0.03235936569296283,3880.6100135487018,10.863,9.512,6.862,6.053
-0.8,1450006670.0500913,0.4760977626,0.047206304126359046,4033.6666088992683,10.241,8.975,6.496,5.696
-0.8,1450006670.0500913,0.523182869,0.07030723198838335,4250.108331760471,9.533,8.384,6.12,5.341
-0.8,1450006670.0500913,0.5702679157,0.10471285480508996,4527.933083871694,8.753,7.757,5.76,5.043
-0.8,1450006670.0500913,0.6173529625,0.1527566058238073,4815.041116556669,8.053,7.182,5.437,4.801
-0.8,1450006670.0500913,0.6644381285,0.21727011788637443,5095.65480608114,7.46,6.68,5.145,4.595
-0.8,1450006670.0500913,0.7078936696,0.29512092266663853,5359.200434577747,6.976,6.274,4.899,4.416
-0.8,1450006670.0500913,0.7127447128,0.3047894989627983,5388.89845373287,6.926,6.231,4.873,4.397
-0.8,1450006670.0500913,0.7610512972,0.41975898399100753,5667.6105494184985,6.461,5.839,4.621,4.204
-0.8,1450006670.0500913,0.8084779382,0.5636376558259545,5899.293451041436,6.056,5.495,4.383,4.007
-0.8,1450006670.0500913,0.8093579412,0.5662392890382533,5903.369946398826,6.049,5.489,4.379,4.004
-0.8,1450006670.0500913,0.8198423982,0.6025595860743578,5948.397740692212,5.965,5.417,4.326,3.959
-0.8,1450006670.0500913,0.8576644659,0.7533555637337174,6109.420249055721,5.672,5.165,4.141,3.801
-0.8,1450006670.0500913,0.8861311078,0.8871560120379609,6218.705637987511,5.462,4.983,4.003,3.68
-0.8,1450006670.0500913,0.9059710503,0.9931160484209338,6295.061828571975,5.32,4.858,3.908,3.598
-0.8,1450006670.0500913,0.9366628528,1.1748975549395295,6409.143566447764,5.106,4.671,3.765,3.472
-0.8,1450006670.0500913,0.9542776346,1.2912192736135342,6474.407045688151,4.986,4.565,3.684,3.401
-0.8,1450006670.0500913,0.9694584608,1.4028137045619582,6531.305526474723,4.884,4.475,3.616,3.342
-0.8,1450006670.0500913,1.002584219,1.667247212551063,6655.795963672291,4.666,4.28,3.468,3.213
-0.8,1450006670.0500913,1.0044471025,1.6826740610704674,6661.929002234552,4.654,4.27,3.46,3.206
-0.8,1450006670.0500913,1.035931468,1.9769696401118606,6785.783509504071,4.451,4.09,3.327,3.09
-0.8,1450006670.0500913,1.0508908033,2.128139045982712,6843.842399195384,4.357,4.005,3.264,3.036
-0.8,1450006670.0500913,1.0737828016,2.38231946935869,6942.246017141189,4.214,3.878,3.173,2.959
-0.8,1450006670.0500913,1.0980671644,2.685344445658507,7046.930689671467,4.064,3.745,3.079,2.878
-0.8,1450006670.0500913,1.0991973877,2.69773943244492,7051.800218620772,4.057,3.739,3.074,2.875
-0.8,1450006670.0500913,1.1070888042,2.7989813196343625,7090.877782620701,4.009,3.697,3.046,2.851
-0.8,1450006670.0500913,1.1381659508,3.2359365692962827,7242.691717336948,3.822,3.532,2.936,2.762
-0.8,1450006670.0500913,1.1475039721,3.3806483620598162,7287.859643647188,3.767,3.483,2.904,2.735
-0.8,1450006670.0500913,1.1860625744,4.027170343254591,7511.038706017857,3.54,3.286,2.785,2.643
-0.8,1450006670.0500913,1.1958105564,4.207266283844441,7568.328950209744,3.484,3.237,2.756,2.62
-0.8,1450006670.0500913,1.2027148008,4.335108783875289,7610.2688591344795,3.444,3.203,2.736,2.605
-0.8,1450006670.0500913,1.2441170216,5.188000389289611,7863.212274584181,3.212,3.002,2.62,2.515
-0.8,1450006670.0500913,1.2562053204,5.470159628939716,7934.142567771253,3.146,2.946,2.586,2.488
-0.8,1450006670.0500913,1.2924238443,6.382634861905488,8139.542590972682,2.953,2.78,2.483,2.404
-0.8,1450006670.0500913,1.3010643721,6.606934480075959,8184.647881347895,2.909,2.742,2.459,2.384
-0.8,1450006670.0500913,1.3407303095,7.7983011052325875,8383.010304515523,2.711,2.571,2.343,2.283
-0.8,1450006670.0500913,1.3638929129,8.590135215053959,8483.987109859956,2.598,2.473,2.272,2.219
-0.8,1450006670.0500913,1.3890368938,9.52796164023652,8584.203408875206,2.48,2.369,2.192,2.145
-0.8,1450006670.0500913,1.409914732,10.39920165829059,8653.663429563476,2.383,2.281,2.12,2.077
-0.8,1450006670.0500913,1.4324053526,11.428783347897719,8707.630662652327,2.276,2.182,2.034,1.994
-0.8,1450006670.0500913,1.4373434782,11.694993910198711,8715.654381367784,2.253,2.16,2.014,1.975
-0.8,1450006670.0500913,1.4570435286,12.705741052085418,8741.782564005287,2.161,2.073,1.933,1.895
-0.8,1450006670.0500913,1.4793506861,13.963683610559377,8751.852708843355,2.055,1.971,1.834,1.796
-0.8,1450006670.0500913,1.4856500626,14.35489433353656,8747.82325961285,2.025,1.941,1.803,1.765
-0.8,1450006670.0500913,1.4987921715,15.170503674593368,8727.703824424158,1.961,1.877,1.736,1.698
-0.8,1450006670.0500913,1.5173752308,16.405897731995395,8677.607449911466,1.87,1.783,1.634,1.593
-0.8,1450006670.0500913,1.5335906744,17.619760464116293,8609.937521846008,1.79,1.7,1.536,1.492
-0.8,1450006670.0500913,1.5339566469,17.619760464116293,8607.955238694602,1.788,1.698,1.534,1.489
-0.8,1450006670.0500913,1.5447310209,18.450154191794738,8552.636219404669,1.735,1.641,1.467,1.419
-0.8,1450006670.0500913,1.5611788034,19.81527025805098,8429.464771677229,1.657,1.551,1.35,1.295
-0.8,1450006670.0500913,1.575992465,21.134890398366466,8294.68695095263,1.589,1.468,1.235,1.172
-0.8,1450006670.0500913,1.5822632313,21.727011788637444,8226.2139388311,1.562,1.433,1.183,1.115
-0.8,1450006670.0500913,1.5890834332,22.438819237827662,8154.550000611165,1.532,1.395,1.127,1.053
-0.8,1450006670.0500913,1.6014063358,23.823194693586903,8026.015608726272,1.474,1.322,1.019,0.936
-0.8,1450006670.0500913,1.6088844538,24.831331052955704,7974.436424126813,1.432,1.274,0.957,0.87
-0.8,1450006670.0500913,1.6146150827,26.3633138582538,8141.417005707744,1.35,1.217,0.947,0.873
-0.8,1450006670.0500913,1.6165190935,27.289777828080403,8309.98041044432,1.299,1.189,0.964,0.903
-0.8,1450006670.0500913,1.617321372,28.379190284415568,8519.223264285474,1.252,1.167,0.992,0.943
-0.8,1450006670.0500913,1.6177256107,29.512092266663856,8723.6854936056,1.213,1.148,1.014,0.977
-0.8,1450006670.0500913,1.6179494858,30.83187950249355,8914.561798745935,1.177,1.128,1.029,1.001
-0.8,1450006670.0500913,1.6180790663,31.988951096913972,9059.411775490596,1.149,1.112,1.036,1.015
-0.8,1450006670.0500913,1.6181515455,32.658783217233584,9141.132414702499,1.134,1.103,1.04,1.022
-0.8,1450006670.0500913,1.6181770563,32.06269324505466,9094.943385552955,1.149,1.114,1.044,1.024
-0.8,1450006670.0500913,1.6182470322,30.61963433690677,8920.721887252694,1.186,1.137,1.039,1.012
-0.8,1450006670.0500913,1.6183190346,30.13006024186122,8711.641598245316,1.19,1.124,0.989,0.951
-0.8,1450006670.0500913,1.6184109449,30.76096814740708,8489.8496651562,1.16,1.075,0.894,0.844
-0.8,1450006670.0500913,1.6185355186,31.915378551007617,8264.184417157952,1.126,1.015,0.781,0.717
-0.8,1450006670.0500913,1.6186943054,32.734069487883815,8042.665380156771,1.111,0.972,0.68,0.599
-0.8,1450006670.0500913,1.6188927889,33.265955329400455,7825.282050666118,1.116,0.946,0.591,0.492
-0.8,1450006670.0500913,1.6191325188,33.57376142429547,7612.021390057183,1.135,0.935,0.511,0.392
-0.8,1450006670.0500913,1.6194069386,33.72873086588689,7401.163527822221,1.164,0.933,0.438,0.295
-0.8,1450006670.0500913,1.6197021008,33.80648362059815,7194.489780036998,1.199,0.938,0.369,0.201
-0.8,1450006670.0500913,1.6200013161,33.72873086588689,6998.419960022738,1.241,0.949,0.307,0.114
-0.8,1450006670.0500913,1.6202912331,33.65115693754907,6817.105263058537,1.285,0.963,0.251,0.033
-0.8,1450006670.0500913,1.6205641031,33.419504002611426,6649.668571246756,1.333,0.98,0.203,-0.04
-0.8,1450006670.0500913,1.6208226681,33.11311214825911,6498.303634842379,1.383,1.0,0.163,-0.104
-0.8,1450006670.0500913,1.6210876703,32.734069487883815,6350.384185040406,1.439,1.026,0.127,-0.163
-0.8,1450006670.0500913,1.6213878393,31.988951096913972,6211.550208324422,1.509,1.063,0.105,-0.209
-0.8,1450006670.0500913,1.6217427254,30.902954325135905,6061.777620466953,1.599,1.117,0.094,-0.247
-0.8,1450006670.0500913,1.6221436262,29.10717118066605,5911.531389808275,1.721,1.2,0.109,-0.261
-0.8,1450006670.0500913,1.6224628687,27.289777828080403,5799.626158196422,1.835,1.283,0.141,-0.251
-0.8,1450006670.0500913,1.6227455139,25.703957827688633,5705.582638711286,1.94,1.363,0.176,-0.235
-0.8,1450006670.0500913,1.6231056452,24.043628000069333,5589.848017438496,2.062,1.453,0.211,-0.225
-0.8,1450006670.0500913,1.6234718561,24.490632418447454,5501.739205107149,2.081,1.449,0.161,-0.296
-0.8,1450006670.0500913,1.6239285469,26.302679918953814,5418.761044516261,2.044,1.387,0.055,-0.422
-0.8,1450006670.0500913,1.6243841648,29.174270140011675,5361.66900594989,1.96,1.286,-0.077,-0.567
-0.8,1450006670.0500913,1.6247477531,31.84197521726124,5327.212243229622,1.881,1.197,-0.184,-0.682
-0.8,1450006670.0500913,1.625110507,34.914031547858606,5295.414984166674,1.798,1.105,-0.292,-0.797
-0.8,1450006670.0500913,1.6254678965,38.194427084004666,5268.657896973707,1.715,1.014,-0.398,-0.91
-0.8,1450006670.0500913,1.6258232594,41.68693834703355,5242.036010084628,1.633,0.923,-0.504,-1.022
-0.8,1450006670.0500913,1.6261755228,45.498806015004845,5215.548640348755,1.552,0.834,-0.608,-1.134
-0.8,1450006670.0500913,1.626527071,49.659232145033606,5191.585371063544,1.472,0.746,-0.712,-1.244
-0.8,1450006670.0500913,1.6268780231,54.20008904016238,5165.352922264228,1.392,0.657,-0.815,-1.355
-0.8,1450006670.0500913,1.6273156404,60.39486293763797,5134.521775029668,1.294,0.548,-0.943,-1.491
-0.8,1450006670.0500913,1.6277520657,67.29766562843179,5103.874653873108,1.198,0.442,-1.069,-1.626
-0.8,1450006670.0500913,1.6281677485,74.47319739059893,5074.578790806499,1.107,0.34,-1.19,-1.755
-0.8,1450006670.0500913,1.6285340786,81.47042840208397,5047.775135009473,1.027,0.251,-1.296,-1.869
-0.8,1450006670.0500913,1.6289639473,90.36494737223013,5017.645790367086,0.936,0.148,-1.419,-2.0
-0.8,1450006670.0500913,1.629336834,98.8553094656939,4989.993730845963,0.86,0.06,-1.525,-2.114
-0.8,1450006670.0500913,1.6297078133,108.14339512979376,4962.494060797449,0.782,-0.03,-1.632,-2.229
-0.8,1450006670.0500913,1.6301003695,118.85022274370189,4932.873744946497,0.701,-0.123,-1.746,-2.35
-0.8,1450006670.0500913,1.6304740906,130.31667784523,4904.559414451102,0.624,-0.213,-1.854,-2.467
-0.8,1450006670.0500913,1.6305698156,133.3521432163324,4896.660566104027,0.604,-0.235,-1.882,-2.496
-0.8,1450006670.0500913,1.6308258772,141.5793779957081,4877.530569745951,0.555,-0.293,-1.953,-2.574
-0.8,1450006670.0500913,1.6311838627,153.4616982799294,4851.7677121925735,0.49,-0.37,-2.049,-2.679
-0.8,1450006670.0500913,1.6315586567,165.95869074375614,4827.252320650396,0.427,-0.444,-2.141,-2.779
-0.8,1450006670.0500913,1.6319986582,178.64875748520498,4802.860802396913,0.367,-0.514,-2.229,-2.875
-0.8,1450006670.0500913,1.6323453188,183.65383433483456,4795.1257408135025,0.344,-0.541,-2.262,-2.911
-0.8,1450006670.0500913,1.6326780319,172.18685749860077,4817.25903559163,0.395,-0.48,-2.185,-2.826
-0.8,1450006670.0500913,1.6328179836,162.18100973589299,4837.266336532547,0.443,-0.423,-2.112,-2.747
-0.8,1450006670.0500913,1.6329282522,150.66070661867417,4861.832584649837,0.5,-0.355,-2.027,-2.653
-0.8,1450006670.0500913,1.6330205202,139.95873225726177,4887.648886615807,0.561,-0.283,-1.937,-2.555
-0.8,1450006670.0500913,1.6331069469,130.31667784523,4911.339996469978,0.619,-0.214,-1.851,-2.461
-0.8,1450006670.0500913,1.6331988573,120.78138351067798,4936.28243059449,0.681,-0.142,-1.763,-2.366
-0.8,1450006670.0500913,1.6333149672,111.42945335917304,4963.636848845585,0.749,-0.062,-1.664,-2.259
-0.8,1450006670.0500913,1.6333994865,107.64652136298349,4975.0792135144075,0.778,-0.029,-1.623,-2.216
-0.8,1450006670.0500913,1.6336200237,115.08003889444356,4953.361223155476,0.722,-0.094,-1.702,-2.301
-0.8,1450006670.0500913,1.6340168715,126.76518658578462,4922.661804443356,0.64,-0.189,-1.818,-2.425
-0.8,1450006670.0500913,1.6344379187,139.95873225726177,4891.026321245936,0.557,-0.285,-1.936,-2.552
-0.8,1450006670.0500913,1.634843111,153.81546403030342,4861.832584649837,0.479,-0.376,-2.048,-2.674
-0.8,1450006670.0500913,1.6352461576,169.43378004473288,4831.700432460599,0.402,-0.468,-2.162,-2.798
-0.8,1450006670.0500913,1.6356322765,185.7804455091699,4801.755030139799,0.326,-0.557,-2.273,-2.92
-0.8,1450006670.0500913,1.6360042095,204.17379446695296,4770.896554256487,0.252,-0.644,-2.384,-3.04
-0.8,1450006670.0500913,1.6363602877,223.872113856834,4741.3279957862,0.186,-0.733,-2.494,-3.157
-0.8,1450006670.0500913,1.6366955042,244.9063241844744,4711.94269420276,0.123,-0.821,-2.603,-3.273
-0.8,1450006670.0500913,1.6370095015,267.91683248190316,4680.583528968204,0.064,-0.906,-2.711,-3.387
-0.8,1450006670.0500913,1.6373062134,292.41523778433367,4652.645890999017,0.005,-0.99,-2.816,-3.499
-0.8,1450006670.0500913,1.6375854015,319.15378551007615,4622.74566491089,-0.049,-1.071,-2.92,-3.611
-0.8,1450006670.0500913,1.6378473043,347.53616144320574,4594.095300365836,-0.102,-1.15,-3.023,-3.72
-0.8,1450006670.0500913,1.6380950212,378.44258471709315,4566.673896495316,-0.156,-1.229,-3.124,-3.829
-0.8,1450006670.0500913,1.6383242607,411.14972110452214,4538.371047630816,-0.203,-1.303,-3.223,-3.936
-0.8,1450006670.0500913,1.6385377645,445.6562483975033,4510.243611171937,-0.249,-1.376,-3.319,-4.041
-0.8,1450006670.0500913,1.6387387514,483.05880203977284,4483.322704327333,-0.294,-1.448,-3.415,-4.144
-0.8,1450006670.0500913,1.6389261484,522.3961889991198,4455.536440673005,-0.337,-1.515,-3.507,-4.247
-0.8,1450006670.0500913,1.639103651,564.9369748123022,4428.942071986359,-0.381,-1.579,-3.599,-4.349
-0.8,1450006670.0500913,1.6392689943,609.5368972401693,4402.50644073913,-0.424,-1.642,-3.689,-4.449
-0.8,1450006670.0500913,1.6394228935,656.1452663029056,4377.236379347656,-0.464,-1.701,-3.776,-4.546
-0.8,1450006670.0500913,1.6395686865,706.3175542629623,4352.111366239774,-0.502,-1.759,-3.861,-4.641
-0.8,1450006670.0500913,1.6397075653,758.5775750291835,4327.130568849061,-0.54,-1.815,-3.945,-4.735
-0.8,1450006670.0500913,1.6397401094,770.90346906443,4321.1565447029925,-0.548,-1.828,-3.964,-4.757
-0.8,1450006670.0500913,1.6397401094,82.22426499470713,5197.5658465836195,0.921,0.197,-1.258,-1.79
-0.8,1450006670.0500913,1.6426262856,91.20108393559097,5147.54319931262,0.84,0.098,-1.387,-1.932
-0.8,1450006670.0500913,1.6444762945,92.46981739382225,5148.7286014054735,0.825,0.084,-1.401,-1.946
-0.8,1450006670.0500913,1.6454385519,91.41132414702504,5154.659707832393,0.833,0.093,-1.388,-1.931
-0.8,1450006670.0500913,1.646160841,90.36494737223013,5160.597646630203,0.841,0.104,-1.374,-1.916
-0.8,1450006670.0500913,1.6467504501,89.53647655495938,5165.352922264228,0.849,0.114,-1.361,-1.901
-0.8,1450006670.0500913,1.6469156742,89.12509381337455,5167.732202999587,0.852,0.117,-1.356,-1.896
-0.8,1450006670.0500913,1.6469397545,88.71560120379608,5170.112579686548,0.856,0.123,-1.349,-1.889
-0.8,1450006670.0500913,1.6469608545,88.10488730080142,5171.303179169629,0.861,0.128,-1.343,-1.882
-0.8,1450006670.0500913,1.6469814777,87.70008211436348,5173.685200730607,0.866,0.134,-1.336,-1.874
-0.8,1450006670.0500913,1.6470035315,87.29713683881117,5176.068319505676,0.87,0.139,-1.329,-1.867
-0.8,1450006670.0500913,1.6470273733,86.69618757582165,5178.452536000238,0.875,0.144,-1.323,-1.86
-0.8,1450006670.0500913,1.6470626593,86.09937521846008,5180.837850719928,0.881,0.151,-1.315,-1.851
-0.8,1450006670.0500913,1.6471093893,85.70378452303697,5182.030920072273,0.886,0.157,-1.307,-1.843
-0.8,1450006670.0500913,1.6471729279,85.11380382023764,5184.41788307823,0.892,0.163,-1.3,-1.835
-0.8,1450006670.0500913,1.6472612619,84.72274141405963,5186.8059455744215,0.896,0.168,-1.293,-1.828
-0.8,1450006670.0500913,1.6473903656,84.33347577642752,5189.195108067298,0.901,0.173,-1.287,-1.821
-0.8,1450006670.0500913,1.6475954056,83.94599865193973,5190.390101970821,0.904,0.177,-1.282,-1.816
-0.8,1450006670.0500913,1.6479460001,83.75292821268826,5192.78091540883,0.904,0.178,-1.28,-1.813
-0.8,1450006670.0500913,1.6486063004,80.53784411990665,5210.747154033924,0.937,0.217,-1.231,-1.759
-0.8,1450006670.0500913,1.6500792503,57.67664633922506,5334.57714525135,1.23,0.551,-0.827,-1.325
-0.8,1450006670.0500913,1.6505872011,56.88529308438413,5343.1824008734775,1.242,0.564,-0.809,-1.305
-0.8,1450006670.0500913,1.651671052,56.623928903825316,5341.952229293112,1.246,0.569,-0.804,-1.3
-0.8,1450006670.0500913,1.6565499306,55.335010921573684,5345.643593969719,1.269,0.593,-0.778,-1.274
-0.8,1450006670.0500913,1.6633863449,53.21082592667942,5360.43457816143,1.304,0.632,-0.731,-1.223
-0.8,1450006670.0500913,1.6733384132,50.69907082747044,5378.980873168731,1.347,0.681,-0.673,-1.16
-0.8,1450006670.0500913,1.6788764,49.43106869868354,5388.89845373287,1.37,0.707,-0.641,-1.126
-0.8,1450006670.0500913,1.6925035715,55.46257129579107,5395.1062251512785,1.241,0.58,-0.765,-1.248
-0.8,1450006670.0500913,1.7078354359,63.67955209079159,5397.591335559007,1.09,0.43,-0.913,-1.396
-0.8,1450006670.0500913,1.7217592001,71.94489780036994,5386.4173456235285,0.962,0.299,-1.05,-1.536
-0.8,1450006670.0500913,1.7220964432,72.11074791828997,5386.4173456235285,0.959,0.296,-1.054,-1.539
-0.8,1450006670.0500913,1.7259533405,74.64487584100665,5371.554667486636,0.93,0.263,-1.095,-1.585
-0.8,1450006670.0500913,1.7352132797,81.09610578538408,5333.348954876208,0.861,0.181,-1.197,-1.695
-0.8,1450006670.0500913,1.7398930788,87.29713683881117,5255.33009626921,0.822,0.117,-1.305,-1.822
-0.8,1450006670.0500913,1.7407932281,93.75620069258802,5198.762768142835,0.779,0.055,-1.399,-1.931
-0.8,1450006670.0500913,1.7411116362,100.92528860766845,5154.659707832393,0.727,-0.013,-1.494,-2.038
-0.8,1450006670.0500913,1.7412500381,109.90058394325209,5110.930790373907,0.662,-0.095,-1.603,-2.157
-0.8,1450006670.0500913,1.7413191795,123.02687708123811,5060.5765651324455,0.574,-0.203,-1.742,-2.31
-0.8,1450006670.0500913,1.7413223982,123.8796586530369,5058.246620031143,0.568,-0.21,-1.751,-2.32
-0.8,1450006670.0500913,1.7413499355,134.89628825916532,5024.582714960762,0.5,-0.292,-1.854,-2.431
-0.8,1450006670.0500913,1.7413777113,147.23125024327194,4989.993730845963,0.429,-0.377,-1.961,-2.548
-0.8,1450006670.0500913,1.7414735556,161.064563517827,4959.067275049038,0.356,-0.463,-2.069,-2.664
-0.8,1450006670.0500913,1.7416986227,144.5439770745928,5000.345349769783,0.442,-0.359,-1.937,-2.521
-0.8,1450006670.0500913,1.7438989878,156.3147642640954,4970.499105762351,0.378,-0.436,-2.033,-2.625
-0.8,1450006670.0500913,1.7446739674,174.18068733916147,4930.6025956279445,0.292,-0.539,-2.163,-2.766
-0.8,1450006670.0500913,1.745211482,193.19683170169242,4893.279240819371,0.211,-0.636,-2.286,-2.901
-0.8,1450006670.0500913,1.7456352711,213.30449131465772,4856.238413914264,0.134,-0.73,-2.406,-3.032
-0.8,1450006670.0500913,1.7459819317,234.96328208483072,4821.697939006178,0.059,-0.821,-2.522,-3.16
-0.8,1450006670.0500913,1.7462764978,258.22601906345955,4787.4031366341615,-0.007,-0.912,-2.638,-3.284
-0.8,1450006670.0500913,1.7465347052,283.1391995799379,4753.352259428054,-0.068,-1.001,-2.75,-3.404
-0.8,1450006670.0500913,1.7467684746,310.45595881283555,4720.630412635905,-0.128,-1.087,-2.86,-3.521
-0.8,1450006670.0500913,1.7469861507,339.62527259040854,4688.13382145265,-0.185,-1.172,-2.969,-3.638
-0.8,1450006670.0500913,1.7471921444,371.5352290971724,4651.574703021666,-0.236,-1.253,-3.079,-3.757
-0.8,1450006670.0500913,1.7473859787,406.44332916521273,4606.806808300934,-0.277,-1.329,-3.19,-3.881
-0.8,1450006670.0500913,1.7475612164,444.6312674691088,4568.777411858178,-0.322,-1.408,-3.3,-4.002
-0.8,1450006670.0500913,1.7477031946,486.4072056914614,4532.1053854810425,-0.366,-1.484,-3.407,-4.12
-0.8,1450006670.0500913,1.747805357,528.4452517751803,4502.9798128808925,-0.412,-1.558,-3.507,-4.229
-0.8,1450006670.0500913,1.7478867769,574.1164622073275,4474.041415755961,-0.46,-1.63,-3.606,-4.337
-0.8,1450006670.0500913,1.7479492426,620.8690342300638,4446.312674691088,-0.504,-1.695,-3.699,-4.44
-0.8,1450006670.0500913,1.7480076551,674.5280276979222,4418.755787887183,-0.551,-1.763,-3.797,-4.55
-0.8,1450006670.0500913,1.7480617762,732.8245331389045,4389.34785534717,-0.595,-1.83,-3.894,-4.658
-0.8,1450006670.0500913,1.7481153011,796.1593504173184,4358.128185607303,-0.637,-1.894,-3.991,-4.768
-0.8,1450006670.0500913,1.7481706142,864.967918775693,4328.127042202217,-0.678,-1.959,-4.089,-4.879
-0.8,1450006670.0500913,1.7482297421,941.8895965228418,4299.3222667877035,-0.723,-2.026,-4.19,-4.992
-0.8,1450006670.0500913,1.7482943535,1030.386120441616,4267.7601117035365,-0.767,-2.094,-4.294,-5.109
-0.8,1450006670.0500913,1.748324275,1064.1430182243164,4255.004267591057,-0.782,-2.119,-4.333,-5.154
-0.8,1450006670.0500913,1.7483344078,1081.4339512979375,4250.108331760471,-0.789,-2.131,-4.352,-5.175
-0.8,1450006670.0500913,1.7483395338,1101.5393095414145,4243.263484275837,-0.798,-2.144,-4.374,-5.2
-0.8,1450006670.0500913,1.7483456135,1132.4003632355566,4233.504249077914,-0.809,-2.164,-4.405,-5.236
-0.8,1450006670.0500913,1.7483525276,1169.4993910198712,4221.8227905113345,-0.823,-2.187,-4.442,-5.278
-0.8,1450006670.0500913,1.7483611107,1213.3888504649774,4208.23515424823,-0.838,-2.213,-4.484,-5.326
-0.8,1450006670.0500913,1.7483735085,1270.5741052085418,4191.7946593256365,-0.858,-2.246,-4.539,-5.389
-0.8,1450006670.0500913,1.748383522,1355.1894123510365,4168.693834703355,-0.884,-2.293,-4.616,-5.476
-0.8,1450006670.0500913,1.7483837605,1324.3415351946644,4176.379929509739,-0.876,-2.277,-4.588,-5.445
-0.8,1450006670.0500913,1.7483838797,1303.1667784523,4182.153799140227,-0.87,-2.266,-4.57,-5.424
-0.8,1450006670.0500913,1.7483839989,1330.4544179780914,4174.457078262909,-0.878,-2.28,-4.594,-5.451
-0.8,1450006670.0500913,1.7483841181,1455.4590805819653,4140.950127434679,-0.904,-2.338,-4.698,-5.571
-0.8,1450006670.0500913,1.7483843565,1452.111617587742,4142.857544606856,-0.904,-2.336,-4.694,-5.567
-0.8,1450006670.0500913,1.7483844757,1448.7718535447616,4142.857544606856,-0.904,-2.335,-4.693,-5.565
-0.8,1450006670.0500913,1.7483845949,1412.537544622754,4152.407817569997,-0.897,-2.32,-4.664,-5.532
-0.8,1450006670.0500913,1.7483847141,1406.0475241299143,4154.320512418612,-0.895,-2.316,-4.658,-5.524
-0.8,1450006670.0500913,1.7483848333,1380.3842646028852,4161.021885174549,-0.89,-2.305,-4.637,-5.501
-0.8,1450006670.0500913,1.7483849525,1377.2094688939458,4162.938547861454,-0.889,-2.303,-4.634,-5.497
-0.8,1450006670.0500913,1.7483850718,1342.7649611378642,4171.574461206266,-0.881,-2.287,-4.605,-5.463
-0.8,1450006670.0500913,1.748385191,1321.2956341865752,4178.303666466218,-0.875,-2.275,-4.584,-5.44
-0.8,1450006670.0500913,1.7483853102,1309.181922999407,4181.190933499036,-0.871,-2.269,-4.574,-5.429
-0.8,1450006670.0500913,1.7483854294,1348.9628825916532,4169.653822449889,-0.883,-2.29,-4.61,-5.47
-0.8,1450006670.0500913,1.7483855486,1389.9526312133526,4159.106104940223,-0.892,-2.309,-4.643,-5.507
-0.8,1450006670.0500913,1.7483856678,1402.8137045619576,4156.2340882986055,-0.895,-2.315,-4.654,-5.521
-0.8,1450006670.0500913,1.7483859062,1402.8137045619576,4156.2340882986055,-0.895,-2.315,-4.655,-5.521
-0.8,1450006670.0500913,1.7483861446,1393.1568029453035,4158.148545615802,-0.893,-2.311,-4.647,-5.512
-0.8,1450006670.0500913,1.7483862638,1377.2094688939458,4162.938547861454,-0.89,-2.304,-4.634,-5.497
-0.8,1450006670.0500913,1.7483865023,1358.3134465871542,4167.734067976717,-0.885,-2.295,-4.618,-5.479
-0.8,1450006670.0500913,1.7483867407,1336.5955165464418,4173.495984653169,-0.879,-2.282,-4.597,-5.455
-0.8,1450006670.0500913,1.7483868599,1330.4544179780914,4175.418393198107,-0.878,-2.28,-4.593,-5.451
-0.8,1450006670.0500913,1.7483869791,1318.2567385564075,4178.303666466218,-0.874,-2.274,-4.583,-5.439
-0.8,1450006670.0500913,1.7483870983,1312.1998990192028,4180.228289540325,-0.872,-2.27,-4.576,-5.431
-0.8,1450006670.0500913,1.7483872175,1303.1667784523,4182.153799140227,-0.869,-2.265,-4.569,-5.423
-0.8,1450006670.0500913,1.7483873367,1324.3415351946644,4176.379929509739,-0.876,-2.277,-4.589,-5.445
-0.8,1450006670.0500913,1.7483874559,1342.7649611378642,4171.574461206266,-0.881,-2.287,-4.604,-5.463
-0.8,1450006670.0500913,1.7483875751,1383.566378971781,4161.021885174549,-0.891,-2.307,-4.639,-5.503
-0.8,1450006670.0500913,1.748388052,1380.3842646028852,4161.980106186026,-0.891,-2.305,-4.636,-5.499
-0.8,1450006670.0500913,1.7483882904,1370.8817661648536,4164.856093407415,-0.888,-2.3,-4.628,-5.489
-0.8,1450006670.0500913,1.7483884096,1361.4446824659497,4167.734067976717,-0.885,-2.295,-4.619,-5.48
-0.8,1450006670.0500913,1.7483887672,1336.5955165464418,4173.495984653169,-0.879,-2.282,-4.597,-5.455
-0.8,1450006670.0500913,1.7483890057,1324.3415351946644,4176.379929509739,-0.875,-2.277,-4.588,-5.444
-0.8,1450006670.0500913,1.7483893633,1312.1998990192028,4179.265867213064,-0.872,-2.27,-4.578,-5.433
-0.8,1450006670.0500913,1.7483898401,1315.224832192239,4179.265867213064,-0.872,-2.271,-4.579,-5.434
-0.8,1450006670.0500913,1.7483901978,1333.521432163324,4173.495984653169,-0.878,-2.282,-4.597,-5.454
-0.8,1450006670.0500913,1.7483912706,1330.4544179780914,4175.418393198107,-0.877,-2.28,-4.593,-5.45
-0.8,1450006670.0500913,1.7483918667,1312.1998990192028,4179.265867213064,-0.872,-2.271,-4.578,-5.433
-0.8,1450006670.0500913,1.7483949661,1330.4544179780914,4174.457078262909,-0.876,-2.279,-4.592,-5.45
-0.8,1450006670.0500913,1.7484041452,1303.1667784523,4182.153799140227,-0.868,-2.264,-4.568,-5.422
-0.8,1450006670.0500913,1.7484086752,1327.3944577297402,4174.457078262909,-0.875,-2.278,-4.591,-5.449
-0.8,1450006670.0500913,1.7484126091,1342.7649611378642,4171.574461206266,-0.879,-2.285,-4.604,-5.462
-0.8,1450006670.0500913,1.7484164238,1352.0725631942764,4168.693834703355,-0.882,-2.291,-4.613,-5.473
-0.8,1450006670.0500913,1.7484217882,1541.70045294956,4122.873407228869,-0.926,-2.377,-4.764,-5.646
-0.8,1450006670.0500913,1.7484282255,1086.4256236170656,4247.173474714387,-0.79,-2.133,-4.357,-5.181
-0.8,1450006670.0500913,1.7484382391,1044.7202192208003,4259.9058433220425,-0.77,-2.103,-4.311,-5.13
-0.8,1450006670.0500913,1.7484452724,1099.0058394325208,4242.286549229506,-0.794,-2.141,-4.371,-5.197
-0.8,1450006670.0500913,1.7484455109,1078.9467222298285,4249.129820811196,-0.786,-2.127,-4.349,-5.172
-0.8,1450006670.0500913,1.7484456301,1066.596121230258,4254.02462944068,-0.78,-2.118,-4.334,-5.155
-0.8,1450006670.0500913,1.7484457493,1047.1285480508996,4259.9058433220425,-0.773,-2.105,-4.314,-5.132
-0.8,1450006670.0500913,1.7484458685,1106.6237839776663,4241.309839104882,-0.797,-2.145,-4.377,-5.204
-0.8,1450006670.0500913,1.7484459877,1148.1536214968828,4226.686142656029,-0.813,-2.173,-4.422,-5.256
-0.8,1450006670.0500913,1.7484462261,1172.1953655481304,4218.907465677975,-0.821,-2.186,-4.445,-5.282
-0.8,1450006670.0500913,1.7484464645,1153.4532578210917,4224.740129875454,-0.815,-2.176,-4.428,-5.262
-0.8,1450006670.0500913,1.748446703,1135.0108156723154,4231.555097166164,-0.808,-2.165,-4.408,-5.24
-0.8,1450006670.0500913,1.7484469414,1124.6049739669268,4234.479161692072,-0.805,-2.158,-4.398,-5.228
-0.8,1450006670.0500913,1.7484470606,1122.018454301963,4235.4542988140065,-0.804,-2.156,-4.395,-5.224
-0.8,1450006670.0500913,1.7484471798,1111.7317272815908,4239.357093413646,-0.799,-2.149,-4.382,-5.21
-0.8,1450006670.0500913,1.7484475374,1096.4781961431852,4244.240644295681,-0.793,-2.139,-4.367,-5.192
-0.8,1450006670.0500913,1.7484476566,1091.440336448756,4246.19563946313,-0.791,-2.136,-4.361,-5.186
-0.8,1450006670.0500913,1.7484477758,1078.9467222298285,4249.129820811196,-0.787,-2.128,-4.349,-5.173
-0.8,1450006670.0500913,1.7484478951,1073.989412341245,4251.087068046156,-0.784,-2.124,-4.343,-5.165
-0.8,1450006670.0500913,1.7484480143,1119.4378834671513,4236.429660495409,-0.803,-2.154,-4.391,-5.22
-0.8,1450006670.0500913,1.7484481335,1119.4378834671513,4236.429660495409,-0.803,-2.155,-4.392,-5.221
-0.8,1450006670.0500913,1.7484482527,1156.1122421920993,4225.713024244244,-0.816,-2.177,-4.428,-5.262
-0.8,1450006670.0500913,1.7484486103,1166.8096170609629,4221.8227905113345,-0.821,-2.185,-4.44,-5.275
-0.8,1450006670.0500913,1.7484488487,1156.1122421920993,4224.740129875454,-0.818,-2.179,-4.43,-5.265
-0.8,1450006670.0500913,1.7484490871,1148.1536214968828,4227.659485162412,-0.814,-2.173,-4.42,-5.253
-0.8,1450006670.0500913,1.7484493256,1140.2497875611684,4230.5808577652315,-0.811,-2.168,-4.413,-5.245
-0.8,1450006670.0500913,1.7484496832,1127.1974561755105,4234.479161692072,-0.806,-2.16,-4.4,-5.231
-0.8,1450006670.0500913,1.74845016,1122.018454301963,4235.4542988140065,-0.804,-2.157,-4.395,-5.224
-0.8,1450006670.0500913,1.7484509945,1122.018454301963,4236.429660495409,-0.804,-2.156,-4.394,-5.223
-0.8,1450006670.0500913,1.7484564781,1230.268770812381,4202.4252767731205,-0.843,-2.223,-4.502,-5.347
-0.8,1450006670.0500913,1.7484599352,1250.25903021772,4197.589839910078,-0.85,-2.234,-4.519,-5.366
-0.8,1450006670.0500913,1.7484629154,1221.7996601648722,4204.36101081749,-0.841,-2.218,-4.495,-5.339
-0.8,1450006670.0500913,1.7484657764,1279.3813041575252,4187.935651179182,-0.86,-2.251,-4.547,-5.399
-0.8,1450006670.0500913,1.7484688759,1327.3944577297402,4174.457078262909,-0.875,-2.277,-4.591,-5.448
-0.8,1450006670.0500913,1.7484728098,1409.2887984218748,4153.364054890737,-0.896,-2.318,-4.661,-5.528
-0.8,1450006670.0500913,1.748478055,1520.5475297324954,4126.6724632293635,-0.921,-2.369,-4.75,-5.63
-0.8,1450006670.0500913,1.7484838963,1648.1623915255086,4098.264649809825,-0.948,-2.421,-4.842,-5.736
-0.8,1450006670.0500913,1.748491168,1782.378767448089,4070.989666502739,-0.973,-2.473,-4.934,-5.841
-0.8,1450006670.0500913,1.7484999895,1923.0917289101576,4042.9651707596545,-0.996,-2.521,-5.023,-5.944
-0.8,1450006670.0500913,1.7485125065,2084.4908830972886,4015.1335942882924,-1.017,-2.569,-5.115,-6.05
-0.8,1450006670.0500913,1.7485332489,2254.2392121524304,3986.5755604057836,-1.036,-2.616,-5.206,-6.156
-0.8,1450006670.0500913,1.7485369444,2269.8648518838213,3983.8226824883504,-1.038,-2.62,-5.215,-6.166
-0.8,1450006670.0500913,1.748537302,2269.8648518838213,3983.8226824883504,-1.038,-2.62,-5.215,-6.166
-0.8,1450006670.0500913,1.7485383749,1129.7959146727976,4216.965034285822,-0.78,-2.145,-4.405,-5.243
-0.8,1450006670.0500913,1.7485390902,961.6122783836648,4273.660314969303,-0.708,-2.027,-4.218,-5.031
-0.8,1450006670.0500913,1.7485415936,534.5643593969719,4491.588901059318,-0.409,-1.564,-3.522,-4.247
-0.8,1450006670.0500913,1.7485454082,537.0317963702527,4489.520924135662,-0.411,-1.568,-3.528,-4.254
-0.8,1450006670.0500913,1.748550415,642.6877173170194,4421.809210742687,-0.504,-1.712,-3.742,-4.493
-0.8,1450006670.0500913,1.7485568523,979.4899854086991,4264.813065450337,-0.714,-2.039,-4.24,-5.057
-0.8,1450006670.0500913,1.7485647202,1472.3125024327194,4120.026410605537,-0.878,-2.326,-4.714,-5.597
-0.8,1450006670.0500913,1.7485738993,1940.8858775927772,4023.4628899023123,-0.966,-2.505,-5.035,-5.966
-0.8,1450006670.0500913,1.7485847473,2243.881923782766,3973.745050614633,-1.005,-2.593,-5.202,-6.159
-0.8,1450006670.0500913,1.7485970259,2376.840286624876,3951.8458892843655,-1.017,-2.625,-5.269,-6.237
-0.8,1450006670.0500913,1.7486108541,2432.204009073816,3942.7568959559076,-1.019,-2.637,-5.296,-6.269
-0.8,1450006670.0500913,1.748611331,1472.3125024327194,4114.338313870812,-0.867,-2.319,-4.714,-5.601
-0.8,1450006670.0500913,1.7486132383,1056.8175092136585,4230.5808577652315,-0.735,-2.087,-4.329,-5.161
-0.8,1450006670.0500913,1.7486166954,587.4893525297769,4446.312674691088,-0.446,-1.634,-3.637,-4.379
-0.8,1450006670.0500913,1.7486217022,591.5616341754737,4443.242331287159,-0.449,-1.639,-3.645,-4.388
-0.8,1450006670.0500913,1.7486286163,706.3175542629623,4376.228599453495,-0.54,-1.781,-3.857,-4.627
-0.8,1450006670.0500913,1.7486373186,1071.519305237606,4223.767459498086,-0.739,-2.096,-4.347,-5.183
-0.8,1450006670.0500913,1.748647809,1603.2453906900419,4081.3139159697193,-0.891,-2.373,-4.815,-5.717
-0.8,1450006670.0500913,1.7486604452,2108.6281499332886,3986.5755604057836,-0.972,-2.545,-5.132,-6.082
-0.8,1450006670.0500913,1.7486749887,2432.204009073816,3936.4070414309936,-1.007,-2.629,-5.298,-6.275
-0.8,1450006670.0500913,1.7486915588,2588.2129151530903,3915.6151483961166,-1.019,-2.662,-5.368,-6.356
-0.8,1450006670.0500913,1.7487102747,2654.605561975539,3904.8108374925373,-1.023,-2.676,-5.399,-6.392
-0.8,1450006670.0500913,1.7487108707,1659.5869074375614,4064.4332916521275,-0.894,-2.391,-4.857,-5.768
-0.8,1450006670.0500913,1.7487128973,1196.7405313072431,4179.265867213064,-0.779,-2.171,-4.476,-5.332
-0.8,1450006670.0500913,1.748716712,665.2731562017412,4393.3924564447625,-0.502,-1.729,-3.787,-4.551
-0.8,1450006670.0500913,1.7487223148,669.8846094165265,4390.358656409448,-0.505,-1.734,-3.795,-4.56
-0.8,1450006670.0500913,1.748729825,797.9946872679768,4325.138310350088,-0.593,-1.87,-4.003,-4.794
-0.8,1450006670.0500913,1.748739481,1196.7405313072431,4177.341687248775,-0.777,-2.17,-4.477,-5.334
-0.8,1450006670.0500913,1.7487511635,1770.108958317422,4040.1733537300024,-0.909,-2.428,-4.931,-5.854
-0.8,1450006670.0500913,1.7487649918,2312.064790175594,3949.1169934897503,-0.982,-2.59,-5.238,-6.208
-0.8,1450006670.0500913,1.748781085,2654.605561975539,3901.21602952676,-1.014,-2.67,-5.399,-6.395
-0.8,1450006670.0500913,1.7487994432,2818.382931264455,3881.5036599064824,-1.026,-2.702,-5.467,-6.473
-0.8,1450006670.0500913,1.7488200665,2890.6798823654744,3872.576449216173,-1.03,-2.715,-5.496,-6.508
-0.8,1450006670.0500913,1.7488206625,1879.3168168032685,4017.9081084894,-0.922,-2.463,-5.0,-5.934
-0.8,1450006670.0500913,1.7488229275,1358.3134465871542,4131.426206427586,-0.819,-2.254,-4.625,-5.503
-0.8,1450006670.0500913,1.7488268614,756.8328950209744,4344.101860128392,-0.564,-1.828,-3.94,-4.723
-0.8,1450006670.0500913,1.7488328218,762.0790100254122,4341.1020970734535,-0.567,-1.833,-3.948,-4.733
-0.8,1450006670.0500913,1.7488409281,905.7326008981998,4276.613474797276,-0.65,-1.964,-4.151,-4.963
-0.8,1450006670.0500913,1.7488511801,1339.6766874259345,4134.281080471346,-0.812,-2.243,-4.609,-5.487
-0.8,1450006670.0500913,1.7488635778,1958.844673505989,4000.3685104612505,-0.928,-2.485,-5.049,-5.992
-0.8,1450006670.0500913,1.7488783598,2535.128630497907,3911.1097238892944,-0.99,-2.636,-5.347,-6.337
-0.8,1450006670.0500913,1.7488955259,2904.022654464451,3864.55951581426,-1.017,-2.708,-5.503,-6.519
-0.8,1450006670.0500913,1.7489150763,3083.1879502493534,3844.147117595778,-1.02,-2.734,-5.571,-6.598
-0.8,1450006670.0500913,1.74893713,3162.2776601683795,3833.540007590441,-1.019,-2.744,-5.601,-6.634
-0.8,1450006670.0500913,1.748937726,2137.9620895022326,3966.431879468582,-0.943,-2.533,-5.152,-6.113
-0.8,1450006670.0500913,1.748939991,1555.965631605075,4077.556617502122,-0.853,-2.337,-4.783,-5.688
-0.8,1450006670.0500913,1.7489440441,866.9618757582169,4289.434099967818,-0.624,-1.929,-4.102,-4.908
-0.8,1450006670.0500913,1.7489501238,872.9713683881113,4286.472087023835,-0.627,-1.934,-4.109,-4.917
-0.8,1450006670.0500913,1.7489583492,1032.7614057613969,4223.767459498086,-0.7,-2.056,-4.306,-5.141
-0.8,1450006670.0500913,1.7489687204,1506.6070661867418,4086.015408138228,-0.839,-2.314,-4.747,-5.647
-0.8,1450006670.0500913,1.7489813566,2172.7011788637456,3957.3093392936153,-0.938,-2.536,-5.169,-6.135
-0.8,1450006670.0500913,1.748996377,2786.1211686297693,3870.793472432571,-0.989,-2.673,-5.456,-6.468
-0.8,1450006670.0500913,1.7490137815,3176.8740706497692,3825.6038866803838,-1.001,-2.734,-5.607,-6.645
-0.8,1450006670.0500913,1.7490336895,3357.3761424295453,3805.397250027089,-1.002,-2.757,-5.671,-6.719
-0.8,1450006670.0500913,1.7490561008,3443.4993076333844,3795.7709700253163,-1.001,-2.766,-5.7,-6.753
-0.8,1450006670.0500913,1.7490566969,2421.0290467361774,3916.5168559121084,-1.216,-2.765,-5.311,-6.255
-0.8,1450006670.0500913,1.7490590811,1770.108958317422,4027.170343254591,-1.063,-2.542,-4.948,-5.842
-0.8,1450006670.0500913,1.7490633726,995.4054173515275,4238.381057743502,-0.76,-2.106,-4.276,-5.081
-0.8,1450006670.0500913,1.7490696907,997.7000638225536,4237.405246788001,-0.761,-2.108,-4.279,-5.084
-0.8,1450006670.0500913,1.7490782738,1180.3206356517298,4174.457078262909,-0.854,-2.238,-4.474,-5.305
-0.8,1450006670.0500913,1.7490891218,1702.15850839495,4034.595501898297,-1.037,-2.509,-4.905,-5.795
-0.8,1450006670.0500913,1.749102354,2432.204009073816,3901.21602952676,-1.196,-2.753,-5.316,-6.268
-0.8,1450006670.0500913,1.7491179705,3104.5595881283557,3807.150103801774,-1.273,-2.9,-5.597,-6.596
-0.8,1450006670.0500913,1.7491362095,3539.9734108343464,3752.321139027498,-1.288,-2.962,-5.747,-6.775
-0.8,1450006670.0500913,1.7491569519,3758.374042884443,3722.202530178502,-1.282,-2.982,-5.815,-6.859
-0.8,1450006670.0500913,1.7491803169,3872.576449216173,3699.9853117285957,-1.267,-2.983,-5.85,-6.907
-0.8,1450006670.0500913,1.749180913,2837.9190284415554,3817.684194975441,-1.211,-2.82,-5.495,-6.489
-0.8,1450006670.0500913,1.7491831779,2079.696687103696,3937.313537008506,-1.095,-2.625,-5.14,-6.075
-0.8,1450006670.0500913,1.7491872311,1180.3206356517298,4167.734067976717,-0.847,-2.234,-4.477,-5.311
-0.8,1450006670.0500913,1.7491933107,1174.897554939529,4167.734067976717,-0.842,-2.229,-4.472,-5.306
-0.8,1450006670.0500913,1.7492015362,1380.3842646028852,4095.434646443952,-0.91,-2.34,-4.663,-5.528
-0.8,1450006670.0500913,1.7492119074,1963.3602768360474,3942.7568959559076,-1.047,-2.57,-5.077,-6.01
-0.8,1450006670.0500913,1.7492245436,2760.577856220345,3795.7709700253163,-1.148,-2.766,-5.469,-6.474
-0.8,1450006670.0500913,1.7492395639,3491.4031547858626,3691.4755816541306,-1.154,-2.863,-5.734,-6.798
-0.8,1450006670.0500913,1.7492569685,3944.573020752785,3627.4380147645793,-1.133,-2.897,-5.874,-6.975
-0.8,1450006670.0500913,1.7492768764,4168.693834703355,3588.3929932948636,-1.096,-2.891,-5.933,-7.06
-0.8,1450006670.0500913,1.7492992878,4285.485203974396,3557.132151345879,-1.051,-2.87,-5.963,-7.109
-0.8,1450006670.0500913,1.7492998838,3258.367010020087,3670.2867848109704,-1.05,-2.764,-5.659,-6.736
-0.8,1450006670.0500913,1.7493019104,2398.83291901949,3800.143529415859,-1.019,-2.624,-5.313,-6.318
-0.8,1450006670.0500913,1.7493056059,1374.041975012515,4050.419451364931,-0.841,-2.293,-4.665,-5.551
-0.8,1450006670.0500913,1.7493110895,1358.3134465871542,4053.218348593218,-0.834,-2.283,-4.652,-5.536
-0.8,1450006670.0500913,1.7493184805,1588.546748597779,3977.4066910502825,-0.883,-2.377,-4.837,-5.755
-0.8,1450006670.0500913,1.749327898,2228.435149270303,3818.563350459785,-0.975,-2.565,-5.229,-6.225
-0.8,1450006670.0500913,1.7493394613,3083.1879502493534,3668.5969444134184,-0.997,-2.705,-5.598,-6.676
-0.8,1450006670.0500913,1.7493530512,3845.9178204535356,3564.5113342624427,-0.97,-2.772,-5.844,-6.987
-0.8,1450006670.0500913,1.7493687868,4325.138310350088,3503.482883015712,-0.935,-2.791,-5.971,-7.154
-0.8,1450006670.0500913,1.7493869066,4549.880601500485,3468.1669875535863,-0.898,-2.784,-6.025,-7.231
-0.8,1450006670.0500913,1.7494071722,4655.860935229591,3442.7065038944434,-0.856,-2.763,-6.049,-7.273
-0.8,1450006670.0500913,1.7494077682,3664.3757464783334,3544.8674447379985,-0.883,-2.691,-5.79,-6.945
-0.8,1450006670.0500913,1.7494097948,2716.4392688390835,3677.9007042238622,-0.9,-2.587,-5.456,-6.53
-0.8,1450006670.0500913,1.7494134903,1566.7510701081485,3934.5946763407965,-0.805,-2.319,-4.828,-5.767
-0.8,1450006670.0500913,1.7494190931,1538.154640303034,3940.9416073228585,-0.797,-2.307,-4.808,-5.744
-0.8,1450006670.0500913,1.7494266033,1794.7336268325266,3862.780230114958,-0.83,-2.387,-4.987,-5.961
-0.8,1450006670.0500913,1.7494361401,2488.85731828239,3704.2475302995863,-0.874,-2.535,-5.359,-6.418
-0.8,1450006670.0500913,1.7494477034,3396.2527259040853,3553.857419860757,-0.835,-2.629,-5.707,-6.857
-0.8,1450006670.0500913,1.7494614124,4207.266283844442,3450.6427620182526,-0.784,-2.674,-5.938,-7.156
-0.8,1450006670.0500913,1.7494773865,4698.941086052156,3390.783022519265,-0.738,-2.683,-6.056,-7.317
-0.8,1450006670.0500913,1.7494956255,4931.738039549359,3357.3761424295453,-0.698,-2.672,-6.107,-7.39
-0.8,1450006670.0500913,1.7495161295,5046.612975635282,3333.496473327569,-0.67,-2.656,-6.131,-7.43
-0.8,1450006670.0500913,1.7495166063,4120.975190973304,3423.733876264524,-0.699,-2.606,-5.913,-7.151
-0.8,1450006670.0500913,1.7495185137,3069.021988391158,3558.7706484879304,-0.751,-2.53,-5.593,-6.741
-0.8,1450006670.0500913,1.74952209,1786.4875748520499,3821.202031837345,-0.755,-2.333,-4.986,-5.982
-0.8,1450006670.0500913,1.749527216,1745.8221529205039,3830.8928063841463,-0.748,-2.319,-4.959,-5.95
-0.8,1450006670.0500913,1.7495342493,2027.6827195212818,3752.321139027498,-0.764,-2.383,-5.131,-6.164
-0.8,1450006670.0500913,1.7495430708,2773.320104651841,3595.0091493002346,-0.74,-2.485,-5.483,-6.608
-0.8,1450006670.0500913,1.7495539188,3741.105882720533,3447.4660657314944,-0.668,-2.549,-5.808,-7.031
-0.8,1450006670.0500913,1.7495667934,4591.980128368686,3346.5706661967974,-0.602,-2.577,-6.026,-7.317
-0.8,1450006670.0500913,1.7495815754,5105.049999754065,3288.51630875983,-0.583,-2.593,-6.142,-7.469
-0.8,1450006670.0500913,1.7495986223,5345.643593969719,3257.616829660631,-0.562,-2.589,-6.192,-7.539
-0.8,1450006670.0500913,1.7496176958,5457.57861091271,3235.1915531420955,-0.535,-2.575,-6.216,-7.577
-0.8,1450006670.0500913,1.7496181726,4613.175745603796,3312.0737601979727,-0.524,-2.522,-6.03,-7.345
-0.8,1450006670.0500913,1.74962008,3451.437393358561,3449.848313627505,-0.6,-2.47,-5.719,-6.94
-0.8,1450006670.0500913,1.7496234179,2027.6827195212818,3716.2078809514237,-0.698,-2.337,-5.134,-6.187
-0.8,1450006670.0500913,1.7496283054,1972.4227361148535,3731.642236647028,-0.696,-2.326,-5.101,-6.146
-0.8,1450006670.0500913,1.7496349812,2280.3420720004187,3655.1061999238823,-0.691,-2.375,-5.266,-6.355
-0.8,1450006670.0500913,1.749643445,3083.1879502493534,3502.6762691381296,-0.623,-2.444,-5.599,-6.784
-0.8,1450006670.0500913,1.7496538162,4111.497211045221,3361.243690470534,-0.539,-2.492,-5.907,-7.188
-0.8,1450006670.0500913,1.7496660948,5000.345349769783,3266.6304045806874,-0.51,-2.532,-6.118,-7.46
-0.8,1450006670.0500913,1.7496802807,5533.501092157366,3215.140824832692,-0.505,-2.556,-6.231,-7.603
-0.8,1450006670.0500913,1.7496966124,5780.960474057181,3187.8655756958997,-0.492,-2.559,-6.281,-7.668
-0.8,1450006670.0500913,1.7497148514,5902.010801718442,3168.8377271814975,-0.472,-2.55,-6.306,-7.703
-0.8,1450006670.0500913,1.7497153282,5164.163692720711,3231.4690444798844,-0.465,-2.507,-6.154,-7.517
-0.8,1450006670.0500913,1.7497169971,3881.5036599064824,3365.8906294925205,-0.496,-2.441,-5.843,-7.121
-0.8,1450006670.0500913,1.7497200966,2301.441817408509,3629.108896409478,-0.64,-2.344,-5.276,-6.381
-0.8,1450006670.0500913,1.7497246265,2223.309890651403,3646.699688942269,-0.645,-2.334,-5.237,-6.331
-0.8,1450006670.0500913,1.7497308254,2564.484036517716,3568.617492834813,-0.605,-2.362,-5.396,-6.539
-0.8,1450006670.0500913,1.749738574,3427.6778654645045,3417.4329305629954,-0.511,-2.406,-5.71,-6.953
-0.8,1450006670.0500913,1.7497481108,4508.167045414601,3277.932453002282,-0.422,-2.439,-6.005,-7.34
-0.8,1450006670.0500913,1.7497594357,5420.008904016238,3182.7314821707823,-0.411,-2.481,-6.211,-7.601
-0.8,1450006670.0500913,1.7497725487,5970.352865838366,3129.6804715636677,-0.382,-2.491,-6.321,-7.738
-0.8,1450006670.0500913,1.7497874498,6223.002851691595,3102.4157748720872,-0.35,-2.484,-6.37,-7.8
-0.8,1450006670.0500913,1.7498042583,6353.309318517436,3083.8979622506845,-0.321,-2.471,-6.393,-7.832
-0.8,1450006670.0500913,1.7498047352,5727.960309858292,3134.007273083861,-0.354,-2.456,-6.275,-7.691
-0.8,1450006670.0500913,1.7498062849,4325.138310350088,3272.6533057537135,-0.367,-2.387,-5.96,-7.299
-0.8,1450006670.0500913,1.7498090267,2588.2129151530903,3544.051302809929,-0.557,-2.332,-5.407,-6.566
-0.8,1450006670.0500913,1.7498133183,2483.13310529557,3563.6906696823603,-0.563,-2.321,-5.362,-6.508
-0.8,1450006670.0500913,1.7498190403,2857.5905433749467,3480.96775232401,-0.499,-2.329,-5.514,-6.715
-0.8,1450006670.0500913,1.7498261929,3775.72190925416,3325.0639317743994,-0.367,-2.339,-5.811,-7.117
-0.8,1450006670.0500913,1.7498350143,4897.7881936844615,3181.9987155303106,-0.299,-2.37,-6.099,-7.489
-0.8,1450006670.0500913,1.7498453856,5834.451042737448,3083.8979622506845,-0.243,-2.385,-6.299,-7.738
-0.8,1450006670.0500913,1.7498575449,6382.634861905489,3027.610480923131,-0.174,-2.369,-6.401,-7.859
-0.8,1450006670.0500913,1.7498713732,6622.165037017622,2993.642942739855,-0.122,-2.347,-6.447,-7.912
-0.8,1450006670.0500913,1.7498868704,6745.280276979222,2967.563358073529,-0.071,-2.318,-6.47,-7.941
-0.8,1450006670.0500913,1.749887228,6280.58358813318,3000.5440024430936,-0.092,-2.306,-6.388,-7.851
-0.8,1450006670.0500913,1.7498887777,4764.309868054156,3135.4508691442925,-0.165,-2.263,-6.073,-7.488
-0.8,1450006670.0500913,1.7498914003,2884.031503126606,3399.3822312328007,-0.307,-2.197,-5.518,-6.776
-0.8,1450006670.0500913,1.7498953342,2747.8941531023975,3418.219914176575,-0.31,-2.181,-5.467,-6.712
-0.8,1450006670.0500913,1.7499006987,3155.0046233746275,3330.427623087463,-0.216,-2.166,-5.615,-6.918
-0.8,1450006670.0500913,1.7499074936,4120.975190973304,3171.757679067707,-0.088,-2.165,-5.91,-7.307
-0.8,1450006670.0500913,1.7499158382,5284.452517751803,3025.519803872306,0.008,-2.174,-6.195,-7.653
-0.8,1450006670.0500913,1.7499256134,6237.348354824191,2922.8060659319312,0.117,-2.161,-6.394,-7.871
-0.8,1450006670.0500913,1.7499370575,6792.036326171843,2862.2001490511943,0.193,-2.141,-6.5,-7.982
-0.8,1450006670.0500913,1.7499500513,7046.930689671467,2828.1341110474723,0.246,-2.12,-6.549,-8.03
-0.8,1450006670.0500913,1.7499647141,7177.942912713615,2805.433637951713,0.285,-2.1,-6.574,-8.054
-0.8,1450006670.0500913,1.7499650717,6902.398038402419,2822.279362118107,0.282,-2.088,-6.527,-8.009
-0.8,1450006670.0500913,1.749966383,5272.298614228227,2957.331437419893,0.194,-2.048,-6.203,-7.675
-0.8,1450006670.0500913,1.7499688864,3221.0687912834346,3237.42711634235,0.021,-2.012,-5.637,-6.999
-0.8,1450006670.0500913,1.7499724627,3054.9211132155124,3257.616829660631,0.023,-1.993,-5.579,-6.928
-0.8,1450006670.0500913,1.7499773502,3499.451670283573,3149.923452784473,0.136,-1.953,-5.734,-7.143
-0.8,1450006670.0500913,1.7499834299,4528.975799036209,2958.0124665515464,0.354,-1.885,-6.037,-7.509
-0.8,1450006670.0500913,1.7499910593,5741.164622073275,2774.5975598804152,0.59,-1.815,-6.339,-7.813
-0.8,1450006670.0500913,1.7499998808,6729.766562843175,2643.625911763445,0.743,-1.772,-6.551,-7.993
-0.8,1450006670.0500913,1.750010252,7294.575102545687,2570.987706415226,0.783,-1.779,-6.657,-8.084
-0.8,1450006670.0500913,1.7500220537,7568.328950209744,2543.3141059879385,0.776,-1.799,-6.699,-8.128
-0.8,1450006670.0500913,1.7500354052,7709.034690644301,2547.4167494427943,0.769,-1.812,-6.721,-8.15
