FeH,Age,Mini,L,Te,Bmag,Vmag,Jmag,Kmag
0.2,1000000000.0,0.093007721,0.000449779854893288,2299.323087021224,19.647,17.879,11.044,10.12
0.2,1000000000.0,0.1029621437,0.000613762005164794,2399.3853343082023,19.296,17.534,10.707,9.782
0.2,1000000000.0,0.1103675961,0.0007345138681571151,2458.1025650893434,19.097,17.337,10.513,9.588
0.2,1000000000.0,0.1157925278,0.0008413951416451947,2500.921153780118,18.943,17.185,10.365,9.44
0.2,1000000000.0,0.1213098913,0.0009682778562612496,2545.0715720695075,18.781,17.027,10.212,9.286
0.2,1000000000.0,0.122871004,0.0010069316688518044,2557.40788582677,18.737,16.984,10.171,9.245
0.2,1000000000.0,0.1427798569,0.0015066070661867417,2677.3182599684565,17.877,16.172,9.755,8.831
0.2,1000000000.0,0.1431125551,0.0015170503674593369,2679.1683248190316,17.861,16.157,9.75,8.826
0.2,1000000000.0,0.147262454,0.0016255487557504833,2697.7394324449206,17.668,15.977,9.682,8.759
0.2,1000000000.0,0.1626887172,0.002074913517454911,2765.667715050151,17.025,15.385,9.439,8.521
0.2,1000000000.0,0.202506423,0.0033806483620598153,2890.014355349471,15.871,14.298,8.954,8.045
0.2,1000000000.0,0.2522785664,0.0053333489548762075,2999.16251898765,14.927,13.404,8.494,7.595
0.2,1000000000.0,0.3097504377,0.008165823713585922,3095.993213309174,14.116,12.618,8.065,7.173
0.2,1000000000.0,0.3141874969,0.0084527884516029,3102.4157748720872,14.058,12.564,8.029,7.139
0.2,1000000000.0,0.3485426307,0.010665961212302578,3155.7311736800216,13.645,12.173,7.792,6.905
0.2,1000000000.0,0.3518228829,0.010889300933334333,3160.8217127583484,13.607,12.138,7.771,6.884
0.2,1000000000.0,0.4015950263,0.015240527537972915,3244.1430790488475,13.019,11.578,7.434,6.549
0.2,1000000000.0,0.4311251342,0.018663796908346696,3299.8940791083483,12.664,11.235,7.231,6.345
0.2,1000000000.0,0.4513671398,0.021330449131465763,3336.56815138526,12.44,11.022,7.1,6.213
0.2,1000000000.0,0.5011392832,0.029991625189876515,3443.4993076333844,11.857,10.469,6.763,5.873
0.2,1000000000.0,0.5068939924,0.03126079367123956,3459.3937782612206,11.781,10.397,6.722,5.832
0.2,1000000000.0,0.5509114265,0.04255984131337431,3576.0205018090237,11.246,9.879,6.424,5.532
0.2,1000000000.0,0.576978147,0.051522864458175645,3669.4417673371618,10.888,9.522,6.248,5.357
0.2,1000000000.0,0.6006835699,0.06095368972401691,3754.0495447208405,10.58,9.215,6.095,5.207
0.2,1000000000.0,0.6152169108,0.06792036326171846,3820.322268844109,10.37,9.01,5.998,5.114
0.2,1000000000.0,0.6504557133,0.0874983775227436,3981.0717055349733,9.884,8.542,5.77,4.904
0.2,1000000000.0,0.6621109247,0.09506047936562814,4038.313213488514,9.719,8.39,5.694,4.839
0.2,1000000000.0,0.7002279162,0.1238796586530369,4236.429660495409,9.179,7.902,5.457,4.644
0.2,1000000000.0,0.7068114281,0.13001695780332903,4279.568675300529,9.071,7.809,5.416,4.614
0.2,1000000000.0,0.75,0.17579236139586926,4567.725533088667,8.372,7.228,5.169,4.457
0.2,1000000000.0,0.8000000119,0.2360478233180577,4767.60207367496,7.816,6.764,4.904,4.264
0.2,1000000000.0,0.8500000238,0.3147748314101316,4975.0792135144075,7.303,6.336,4.653,4.078
0.2,1000000000.0,0.8999999762,0.4130475019901613,5180.837850719928,6.842,5.948,4.419,3.902
0.2,1000000000.0,0.9500000477,0.5370317963702527,5375.266487867444,6.427,5.596,4.194,3.727
0.2,1000000000.0,0.9895215631,0.6576578373554205,5520.774392807573,6.12,5.337,4.023,3.59
0.2,1000000000.0,1.0,0.6918309709189365,5559.042572704037,6.042,5.271,3.979,3.555
0.2,1000000000.0,1.0231673717,0.7762471166286917,5638.972803349493,5.873,5.128,3.883,3.476
0.2,1000000000.0,1.0499999523,0.8830799004185628,5730.598740537326,5.685,4.969,3.773,3.385
0.2,1000000000.0,1.1000000238,1.1194378834671515,5889.792572290247,5.352,4.686,3.573,3.216
0.2,1000000000.0,1.1499999762,1.406047524129914,6038.095810744278,5.036,4.418,3.379,3.05
0.2,1000000000.0,1.1695164442,1.5346169827992944,6092.562597496563,4.917,4.317,3.303,2.984
0.2,1000000000.0,1.2000000477,1.7538805018417611,6178.741129854402,4.738,4.163,3.189,2.886
0.2,1000000000.0,1.2286345959,1.981527025805098,6256.046959640024,4.575,4.025,3.085,2.795
0.2,1000000000.0,1.25,2.1627185237270203,6311.026445054064,4.458,3.925,3.009,2.729
0.2,1000000000.0,1.2999999523,2.6424087573219466,6437.244428047446,4.196,3.7,2.838,2.578
0.2,1000000000.0,1.3500000238,3.198895109691398,6558.43169806728,3.951,3.487,2.675,2.432
0.2,1000000000.0,1.3999999762,3.8282474331682264,6675.749009643063,3.72,3.285,2.519,2.294
0.2,1000000000.0,1.4500000477,4.549880601500486,6792.036326171843,3.499,3.091,2.37,2.161
0.2,1000000000.0,1.4733047485,4.920395356814509,6848.571591258556,3.399,3.003,2.305,2.103
0.2,1000000000.0,1.5,5.370317963702527,6910.349294049405,3.287,2.904,2.23,2.036
0.2,1000000000.0,1.5499999523,6.309573444801933,7027.486176561344,3.085,2.726,2.095,1.916
0.2,1000000000.0,1.5525474548,6.353309318517438,7033.961712162472,3.075,2.717,2.089,1.911
0.2,1000000000.0,1.6000000238,7.345138681571149,7138.385536016632,2.892,2.555,1.966,1.801
0.2,1000000000.0,1.6397351027,8.279421637123342,7219.381629371591,2.745,2.423,1.864,1.709
0.2,1000000000.0,1.6499999762,8.531001140175896,7236.024022802513,2.708,2.389,1.837,1.684
0.2,1000000000.0,1.6712088585,9.078205301781857,7276.122463355241,2.632,2.32,1.782,1.634
0.2,1000000000.0,1.6749999523,9.183325964835808,7282.827106931315,2.618,2.308,1.772,1.625
0.2,1000000000.0,1.6914030313,9.638290236239705,7311.390834834172,2.56,2.255,1.73,1.586
0.2,1000000000.0,1.7000000477,9.885530946569387,7324.8713266503955,2.53,2.228,1.707,1.565
0.2,1000000000.0,1.7011471987,9.908319448927676,7326.558134796395,2.526,2.224,1.704,1.562
0.2,1000000000.0,1.7250001431,10.616955571987248,7363.766349615144,2.443,2.148,1.642,1.504
0.2,1000000000.0,1.75,11.402497875611685,7397.7559507440665,2.357,2.068,1.575,1.441
0.2,1000000000.0,1.7572773695,11.641260294104914,7407.983391527401,2.332,2.045,1.556,1.423
0.2,1000000000.0,1.7750000954,12.246161992650489,7431.9024407434545,2.272,1.989,1.508,1.378
0.2,1000000000.0,1.7781658173,12.359474334445107,7435.325746482759,2.261,1.979,1.5,1.37
0.2,1000000000.0,1.7999999523,13.152248321922384,7455.898720277816,2.189,1.911,1.44,1.313
0.2,1000000000.0,1.8109719753,13.583134465871542,7466.206543779415,2.152,1.877,1.41,1.284
0.2,1000000000.0,1.8250000477,14.12537544622754,7476.5286179071745,2.106,1.833,1.369,1.244
0.2,1000000000.0,1.8394044638,14.723125024327187,7485.141246454854,2.059,1.788,1.328,1.204
0.2,1000000000.0,1.8499999046,15.170503674593368,7488.589075216439,2.025,1.754,1.296,1.173
0.2,1000000000.0,1.8693201542,16.032453906900418,7492.038492127504,1.963,1.695,1.238,1.116
0.2,1000000000.0,1.875,16.29296032639722,7490.313585107569,1.946,1.677,1.221,1.098
0.2,1000000000.0,1.9000000954,17.458221529205037,7488.589075216439,1.867,1.6,1.144,1.021
0.2,1000000000.0,1.9014610052,17.538805018417612,7488.589075216439,1.863,1.595,1.14,1.017
0.2,1000000000.0,1.9249999523,18.706821403658008,7476.5286179071745,1.791,1.523,1.065,0.941
0.2,1000000000.0,1.9325909615,19.098532585662376,7471.365798284319,1.769,1.5,1.04,0.916
0.2,1000000000.0,1.9484374523,19.952623149688797,7452.465942515137,1.723,1.452,0.986,0.86
0.2,1000000000.0,1.9660133123,20.941124558508925,7430.191378967013,1.673,1.399,0.927,0.799
0.2,1000000000.0,1.9948070049,22.646443075930595,7368.854816494472,1.596,1.313,0.821,0.687
0.2,1000000000.0,1.9953123331,22.698648518838223,7367.158270298781,1.595,1.312,0.819,0.685
0.2,1000000000.0,2.0249564648,24.547089156850298,7282.827106931315,1.522,1.226,0.705,0.562
0.2,1000000000.0,2.0421872139,25.703957827688633,7219.381629371591,1.485,1.178,0.636,0.486
0.2,1000000000.0,2.0558285713,26.6072505979881,7164.732823911086,1.457,1.141,0.58,0.423
0.2,1000000000.0,2.0784595013,28.11900830398941,7043.686205287465,1.421,1.083,0.478,0.307
0.2,1000000000.0,2.0890622139,28.84031503126606,6980.716486330289,1.407,1.057,0.429,0.25
0.2,1000000000.0,2.0993614197,29.580124665515466,6919.902892284818,1.394,1.031,0.381,0.195
0.2,1000000000.0,2.1175775528,30.902954325135905,6806.126238014957,1.375,0.989,0.295,0.094
0.2,1000000000.0,2.1341509819,32.13660538640317,6683.439175686149,1.366,0.952,0.211,-0.007
0.2,1000000000.0,2.1359374523,32.284941217126345,6671.139157966478,1.363,0.947,0.201,-0.018
0.2,1000000000.0,2.1504769325,33.65115693754907,6584.154299433819,1.344,0.907,0.126,-0.105
0.2,1000000000.0,2.160520792,34.914031547858606,6546.361740672747,1.316,0.87,0.075,-0.162
0.2,1000000000.0,2.1649403572,36.14098626396133,6596.293937452819,1.263,0.829,0.054,-0.175
0.2,1000000000.0,2.1705174446,38.815036599064825,6760.829753919818,1.134,0.741,0.033,-0.172
0.2,1000000000.0,2.1720495224,40.83193863326921,6927.874312745173,1.034,0.677,0.034,-0.149
0.2,1000000000.0,2.1727719307,42.85485203974394,7089.2452356339845,0.942,0.618,0.037,-0.126
0.2,1000000000.0,2.1731834412,45.08167045414601,7254.374970183976,0.849,0.557,0.036,-0.107
0.2,1000000000.0,2.1734313965,47.64309868054156,7416.517059021937,0.755,0.494,0.032,-0.094
0.2,1000000000.0,2.1735901833,50.11872336272722,7557.880136804521,0.673,0.439,0.025,-0.087
0.2,1000000000.0,2.1737084389,51.760683195056764,7657.729123418224,0.619,0.404,0.024,-0.078
0.2,1000000000.0,2.1737530231,49.88844874600122,7599.76214361037,0.673,0.446,0.046,-0.062
0.2,1000000000.0,2.1738111973,46.98941086052154,7498.942093324558,0.756,0.51,0.075,-0.043
0.2,1000000000.0,2.1738679409,44.56562483975033,7350.214276467939,0.843,0.569,0.082,-0.051
0.2,1000000000.0,2.1739442348,43.35108783875289,7156.488866926982,0.913,0.602,0.045,-0.11
0.2,1000000000.0,2.1740345955,43.752210515825205,6966.265141107687,0.947,0.599,-0.028,-0.207
0.2,1000000000.0,2.1741437912,44.56562483975033,6777.975582993672,0.975,0.587,-0.112,-0.315
0.2,1000000000.0,2.1742744446,45.08167045414601,6593.25693118515,1.018,0.586,-0.187,-0.416
0.2,1000000000.0,2.1744337082,45.08167045414601,6410.619496207435,1.079,0.598,-0.252,-0.508
0.2,1000000000.0,2.1746401787,44.6683592150963,6235.912317626269,1.161,0.625,-0.304,-0.589
0.2,1000000000.0,2.1749184132,43.55118736855686,6061.777620466953,1.265,0.672,-0.338,-0.655
0.2,1000000000.0,2.1752579212,41.68693834703355,5896.577351462565,1.392,0.743,-0.35,-0.7
0.2,1000000000.0,2.175549984,39.71915494694403,5774.3087271398535,1.505,0.816,-0.341,-0.715
0.2,1000000000.0,2.1758663654,37.23917062545685,5655.877570891539,1.639,0.912,-0.309,-0.71
0.2,1000000000.0,2.1761546135,34.673685045253166,5555.203848137405,1.772,1.013,-0.266,-0.69
0.2,1000000000.0,2.1764054298,32.284941217126345,5471.419324763784,1.894,1.109,-0.217,-0.661
0.2,1000000000.0,2.176721096,29.580124665515466,5372.791656065097,2.049,1.231,-0.152,-0.619
0.2,1000000000.0,2.1770358086,27.289777828080403,5278.37206781577,2.195,1.345,-0.095,-0.586
0.2,1000000000.0,2.1775102615,26.730064086633117,5157.034063026461,2.302,1.409,-0.109,-0.632
0.2,1000000000.0,2.1779842377,28.05433637951713,5051.263219145947,2.328,1.395,-0.193,-0.745
0.2,1000000000.0,2.178378582,30.83187950249355,4983.104559705293,2.278,1.319,-0.317,-0.889
0.2,1000000000.0,2.1786940098,33.80648362059815,4936.28243059449,2.217,1.24,-0.43,-1.015
0.2,1000000000.0,2.1789896488,36.982817978026624,4896.660566104027,2.151,1.158,-0.541,-1.138
0.2,1000000000.0,2.1792719364,40.55085354483839,4861.832584649837,2.084,1.076,-0.65,-1.258
0.2,1000000000.0,2.1795403957,44.36086439314325,4829.475864447709,2.015,0.995,-0.757,-1.374
0.2,1000000000.0,2.1798005104,48.41723675840994,4798.439240638985,1.947,0.913,-0.862,-1.489
0.2,1000000000.0,2.1800556183,52.84452517751805,4768.699981017778,1.879,0.833,-0.965,-1.602
0.2,1000000000.0,2.1803107262,57.67664633922506,4741.3279957862,1.811,0.754,-1.068,-1.714
0.2,1000000000.0,2.1805019379,61.65950018614822,4720.630412635905,1.76,0.694,-1.144,-1.797
0.2,1000000000.0,2.1805684566,63.09573444801933,4714.113123725611,1.742,0.673,-1.171,-1.826
0.2,1000000000.0,2.1808326244,69.18309709189366,4685.975353086258,1.67,0.588,-1.278,-1.943
0.2,1000000000.0,2.1808979511,70.6317554262962,4678.428536839501,1.652,0.567,-1.305,-1.973
0.2,1000000000.0,2.1810228825,73.96052750582378,4664.445252037798,1.618,0.527,-1.358,-2.03
0.2,1000000000.0,2.181265831,80.72350302488383,4636.603940805552,1.554,0.449,-1.46,-2.141
0.2,1000000000.0,2.1815063953,88.10488730080142,4608.928809808955,1.493,0.372,-1.564,-2.254
0.2,1000000000.0,2.1817398071,96.16122783836649,4581.418867145335,1.433,0.294,-1.667,-2.366
0.2,1000000000.0,2.1819705963,104.9542428652322,4553.024633460011,1.375,0.218,-1.771,-2.48
0.2,1000000000.0,2.182195425,114.55129414455361,4523.764623324995,1.318,0.143,-1.874,-2.593
0.2,1000000000.0,2.1824169159,125.31411749414156,4495.727713019056,1.262,0.068,-1.977,-2.706
0.2,1000000000.0,2.1826248169,136.14446824659495,4467.864566912838,1.208,-0.003,-2.076,-2.815
0.2,1000000000.0,2.1828124523,146.89262776438662,4442.2193547105535,1.161,-0.066,-2.166,-2.914
0.2,1000000000.0,2.1829161644,153.4616982799294,4428.942071986359,1.136,-0.101,-2.216,-2.969
0.2,1000000000.0,2.183150053,169.04409316432648,4396.428352878889,1.077,-0.181,-2.331,-3.095
0.2,1000000000.0,2.1833906174,187.06821403657997,4362.144019080488,1.017,-0.263,-2.45,-3.227
0.2,1000000000.0,2.1836028099,205.11621788255647,4332.115230872224,0.966,-0.338,-2.556,-3.342
0.2,1000000000.0,2.183848381,228.03420720004186,4296.3534256987,0.905,-0.425,-2.679,-3.476
0.2,1000000000.0,2.1840598583,249.45947269429536,4266.777536749634,0.854,-0.498,-2.78,-3.586
0.2,1000000000.0,2.1842887402,272.27013080779125,4237.405246788001,0.804,-0.568,-2.882,-3.698
0.2,1000000000.0,2.1845459938,295.80124665515467,4210.173564456214,0.756,-0.634,-2.977,-3.801
0.2,1000000000.0,2.1846184731,301.3006024186122,4204.36101081749,0.744,-0.65,-2.999,-3.825
0.2,1000000000.0,2.1846475601,297.8516429429191,4208.23515424823,0.751,-0.64,-2.985,-3.81
0.2,1000000000.0,2.1846935749,276.0577856220345,4233.504249077914,0.795,-0.58,-2.899,-3.715
0.2,1000000000.0,2.1847202778,255.2701302661247,4259.9058433220425,0.839,-0.519,-2.809,-3.617
0.2,1000000000.0,2.1847465038,232.27367963571075,4291.409912283691,0.892,-0.442,-2.7,-3.498
0.2,1000000000.0,2.1847875118,205.11621788255647,4334.110703101766,0.963,-0.339,-2.555,-3.341
0.2,1000000000.0,2.1848545074,176.1976046411629,4385.306977749856,1.049,-0.216,-2.378,-3.146
0.2,1000000000.0,2.1849114895,159.95580286146696,4417.738448896479,1.106,-0.138,-2.265,-3.021
0.2,1000000000.0,2.1849768162,145.8814260275349,4449.385139745807,1.162,-0.062,-2.155,-2.9
0.2,1000000000.0,2.1850509644,133.04544179780913,4480.226804128664,1.217,0.014,-2.047,-2.781
0.2,1000000000.0,2.1851344109,121.33888504649774,4511.282252715862,1.274,0.09,-1.94,-2.663
0.2,1000000000.0,2.185230732,110.9174815262401,4541.507126325547,1.331,0.166,-1.833,-2.546
0.2,1000000000.0,2.1853797436,99.08319448927675,4580.364077908267,1.403,0.262,-1.7,-2.4
0.2,1000000000.0,2.1855857372,88.71560120379608,4618.489918952487,1.477,0.359,-1.568,-2.255
0.2,1000000000.0,2.1858122349,81.2830516164099,4647.292416762036,1.534,0.434,-1.465,-2.143
0.2,1000000000.0,2.1860532761,75.16228940182053,4675.197908845073,1.59,0.503,-1.372,-2.04
0.2,1000000000.0,2.1862802505,69.82324040771715,4700.023181798009,1.645,0.569,-1.286,-1.945
0.2,1000000000.0,2.186517477,64.71426157485831,4726.06836898339,1.701,0.637,-1.196,-1.847
0.2,1000000000.0,2.1868708134,58.47900841444806,4761.019935823142,1.777,0.728,-1.076,-1.716
0.2,1000000000.0,2.187349081,52.60172663907063,4798.439240638985,1.857,0.823,-0.951,-1.578
0.2,1000000000.0,2.1880087852,47.315125896148054,4837.266336532547,1.936,0.918,-0.826,-1.441
0.2,1000000000.0,2.1889538765,42.95364267648873,4875.284901033865,2.009,1.007,-0.708,-1.311
0.2,1000000000.0,2.1899828911,40.45758916974427,4898.916080940641,2.051,1.058,-0.638,-1.234
0.2,1000000000.0,2.2047243118,42.169650342858226,4901.172634719431,2.005,1.012,-0.683,-1.278
0.2,1000000000.0,2.2296872139,45.39416166502032,4903.430227918956,1.923,0.931,-0.762,-1.357
0.2,1000000000.0,2.243044138,47.315125896148054,4904.559414451102,1.877,0.885,-0.807,-1.4
0.2,1000000000.0,2.2738828659,52.722986142282274,4903.430227918956,1.761,0.768,-0.925,-1.519
0.2,1000000000.0,2.2765622139,53.33348954876211,4902.30130136168,1.751,0.757,-0.937,-1.531
0.2,1000000000.0,2.2991342545,58.34451042737448,4894.4060897312465,1.66,0.662,-1.037,-1.634
0.2,1000000000.0,2.324164629,65.31305526474723,4870.796664925371,1.557,0.55,-1.167,-1.77
0.2,1000000000.0,2.3383858204,70.14552984199715,4852.88500162121,1.497,0.482,-1.249,-1.858
0.2,1000000000.0,2.338975668,70.46930689671471,4851.7677121925735,1.494,0.478,-1.253,-1.863
0.2,1000000000.0,2.3448793888,74.13102413009177,4831.700432460599,1.456,0.433,-1.315,-1.931
0.2,1000000000.0,2.3483119011,75.33555637337174,4827.252320650396,1.441,0.416,-1.334,-1.951
0.2,1000000000.0,2.3549261093,81.09610578538408,4794.021749415102,1.391,0.353,-1.423,-2.05
0.2,1000000000.0,2.3573639393,89.53647655495938,4746.789794829222,1.329,0.271,-1.543,-2.187
0.2,1000000000.0,2.3583397865,98.62794856312105,4703.2709644077795,1.269,0.188,-1.662,-2.319
0.2,1000000000.0,2.3587667942,107.89467222298286,4666.593803142887,1.215,0.114,-1.769,-2.438
0.2,1000000000.0,2.3590261936,119.6740531307243,4624.875008224019,1.154,0.028,-1.893,-2.576
0.2,1000000000.0,2.3591449261,131.2199899019203,4588.8091961986775,1.097,-0.05,-2.006,-2.701
0.2,1000000000.0,2.3592116833,143.8798578255845,4554.07312683254,1.042,-0.127,-2.116,-2.822
0.2,1000000000.0,2.3592133522,144.5439770745928,4553.024633460011,1.04,-0.129,-2.119,-2.826
0.2,1000000000.0,2.3592352867,149.6235656094433,4539.416166502032,1.02,-0.157,-2.16,-2.872
0.2,1000000000.0,2.3592791557,159.220872705117,4516.479049291119,0.981,-0.21,-2.235,-2.954
0.2,1000000000.0,2.3593182564,162.18100973589299,4510.243611171937,0.971,-0.225,-2.256,-2.978
0.2,1000000000.0,2.3594253063,162.55487557504833,4510.243611171937,0.969,-0.227,-2.259,-2.98
0.2,1000000000.0,2.359484911,158.8546748597779,4518.559443749222,0.982,-0.208,-2.232,-2.95
0.2,1000000000.0,2.3596231937,153.10874616820303,4532.1053854810425,1.004,-0.178,-2.187,-2.901
0.2,1000000000.0,2.3606033325,150.66070661867417,4538.371047630816,1.013,-0.164,-2.168,-2.88
0.2,1000000000.0,2.3636181355,170.60823890031244,4493.657830540859,0.939,-0.267,-2.315,-3.043
0.2,1000000000.0,2.3647630215,194.08858775927774,4446.312674691088,0.864,-0.371,-2.468,-3.212
0.2,1000000000.0,2.3656084538,217.7709772353159,4404.534336784062,0.8,-0.463,-2.603,-3.363
0.2,1000000000.0,2.3662722111,242.10290467361776,4366.163552976836,0.74,-0.552,-2.729,-3.499
0.2,1000000000.0,2.3668153286,268.5344445658506,4330.1206773800395,0.684,-0.635,-2.848,-3.629
0.2,1000000000.0,2.3672754765,297.1666031738025,4294.375337334884,0.629,-0.716,-2.965,-3.757
0.2,1000000000.0,2.367675066,328.09529311311906,4259.9058433220425,0.572,-0.797,-3.08,-3.883
0.2,1000000000.0,2.3680319786,362.24299841669875,4224.740129875454,0.517,-0.874,-3.193,-4.008
0.2,1000000000.0,2.3683578968,399.02490236214203,4189.864710967686,0.461,-0.95,-3.307,-4.134
0.2,1000000000.0,2.3686602116,440.55486350655343,4156.2340882986055,0.404,-1.025,-3.42,-4.259
0.2,1000000000.0,2.3689441681,485.28850016212095,4122.873407228869,0.35,-1.097,-3.531,-4.383
0.2,1000000000.0,2.3692140579,533.3348954876208,4088.838902676978,0.299,-1.165,-3.641,-4.507
0.2,1000000000.0,2.369468689,583.4451042737447,4057.8874759172845,0.258,-1.224,-3.748,-4.628
0.2,1000000000.0,2.3697068691,636.7955209079155,4028.0977402609537,0.22,-1.277,-3.849,-4.742
0.2,1000000000.0,2.3699035645,687.0684400142325,4001.2897354069864,0.189,-1.322,-3.938,-4.843
0.2,1000000000.0,2.3700370789,726.1059574351551,3981.0717055349733,0.166,-1.356,-4.004,-4.919
0.2,1000000000.0,2.3701312542,769.1304402866099,3960.955834906334,0.145,-1.385,-4.073,-4.996
0.2,1000000000.0,2.370203495,803.5261221856169,3944.573020752785,0.129,-1.407,-4.125,-5.055
0.2,1000000000.0,2.3702776432,864.967918775693,3919.2232245497667,0.104,-1.443,-4.211,-5.152
0.2,1000000000.0,2.3703122139,899.4975815300355,3904.8108374925373,0.089,-1.463,-4.259,-5.207
0.2,1000000000.0,2.3704071045,1013.9113857366789,3862.780230114958,0.053,-1.514,-4.4,-5.367
0.2,1000000000.0,2.3704869747,1145.5129414455362,3818.563350459785,0.023,-1.557,-4.546,-5.533
0.2,1000000000.0,2.3705472946,1258.9254117941675,3782.683455893896,0.011,-1.576,-4.66,-5.663
0.2,1000000000.0,2.3705985546,1361.4446824659497,3754.0495447208405,0.005,-1.584,-4.755,-5.77
0.2,1000000000.0,2.3706493378,1465.5478409559114,3727.348496903337,0.0,-1.592,-4.843,-5.869
0.2,1000000000.0,2.3706898689,1548.816618912481,3706.80721782576,0.001,-1.592,-4.911,-5.945
0.2,1000000000.0,2.3707454205,1659.5869074375614,3680.4421857199322,0.011,-1.578,-4.997,-6.042
0.2,1000000000.0,2.3708093166,1790.6058540352947,3652.5822138633744,0.021,-1.563,-5.088,-6.145
0.2,1000000000.0,2.3708844185,1940.8858775927772,3621.5959848601933,0.04,-1.537,-5.187,-6.257
0.2,1000000000.0,2.3709685802,2108.6281499332886,3588.3929932948636,0.078,-1.488,-5.291,-6.375
0.2,1000000000.0,2.3709974289,2243.881923782766,3563.6906696823603,0.108,-1.447,-5.368,-6.463
0.2,1000000000.0,2.3710062504,2387.8112829131783,3539.9734108343464,0.142,-1.402,-5.443,-6.548
0.2,1000000000.0,2.371008873,2426.6100950824143,3533.4585410890204,0.154,-1.386,-5.463,-6.571
0.2,1000000000.0,2.3710134029,2454.708915685031,3528.5802582852702,0.164,-1.374,-5.48,-6.59
0.2,1000000000.0,2.3710143566,2735.268726306711,3442.7065038944434,0.458,-1.014,-5.631,-6.776
0.2,1000000000.0,2.3710153103,1570.3628043335532,3677.9007042238622,0.074,-1.508,-4.936,-5.983
0.2,1000000000.0,2.3710155487,1485.9356422870076,3700.8373629231564,0.061,-1.525,-4.867,-5.905
0.2,1000000000.0,2.3710176945,914.1132414702499,3902.114421141359,0.079,-1.476,-4.277,-5.226
0.2,1000000000.0,2.3710207939,833.681184619634,3941.849147142968,0.099,-1.44,-4.165,-5.096
0.2,1000000000.0,2.3710250854,984.0111057611335,3869.011316551087,0.071,-1.494,-4.367,-5.331
0.2,1000000000.0,2.3710308075,1386.755828871888,3724.774624863983,0.061,-1.526,-4.785,-5.812
0.2,1000000000.0,2.3710379601,1963.3602768360474,3584.2640804371426,0.167,-1.387,-5.213,-6.3
0.2,1000000000.0,2.3710467815,2517.676927758854,3484.9776724044846,0.33,-1.174,-5.523,-6.651
0.2,1000000000.0,2.3710570335,2890.6798823654744,3430.0464394337664,0.47,-0.995,-5.698,-6.849
0.2,1000000000.0,2.3710689545,3097.419299216581,3401.731252517908,0.554,-0.891,-5.784,-6.945
0.2,1000000000.0,2.3710825443,3221.0687912834346,3383.763488617649,0.616,-0.813,-5.836,-7.005
0.2,1000000000.0,2.3710827827,2264.6443075930597,3515.6044052829798,0.299,-1.219,-5.397,-6.512
0.2,1000000000.0,2.3710839748,1774.1894808901661,3611.602957582318,0.165,-1.397,-5.093,-6.168
0.2,1000000000.0,2.3710861206,1093.956366272094,3808.9037649813513,0.09,-1.487,-4.497,-5.489
0.2,1000000000.0,2.3710894585,990.8319448927675,3850.3481467861507,0.102,-1.464,-4.38,-5.352
0.2,1000000000.0,2.3710939884,1164.126029410491,3782.683455893896,0.088,-1.492,-4.575,-5.578
0.2,1000000000.0,2.3711001873,1625.5487557504835,3646.699688942269,0.134,-1.438,-4.985,-6.046
0.2,1000000000.0,2.3711078167,2275.0974307720717,3513.985782353995,0.302,-1.216,-5.4,-6.516
0.2,1000000000.0,2.371117115,2884.031503126606,3423.733876264524,0.509,-0.949,-5.696,-6.849
0.2,1000000000.0,2.3711280823,3273.406948788383,3375.2037896792626,0.655,-0.766,-5.856,-7.028
0.2,1000000000.0,2.3711409569,3459.3937782612206,3355.057749988978,0.73,-0.672,-5.924,-7.105
0.2,1000000000.0,2.3711555004,3548.133892335753,3345.0298682601374,0.768,-0.626,-5.958,-7.143
0.2,1000000000.0,2.3711557388,2540.972705549304,3470.5635400798756,0.388,-1.104,-5.539,-6.673
0.2,1000000000.0,2.3711569309,1986.0949173573717,3566.1532304264047,0.22,-1.325,-5.234,-6.329
0.2,1000000000.0,2.3711593151,1230.268770812381,3761.8372279132846,0.086,-1.495,-4.64,-5.652
0.2,1000000000.0,2.3711628914,1114.2945335917304,3803.6452032855573,0.084,-1.496,-4.52,-5.514
0.2,1000000000.0,2.3711678982,1306.1708881318418,3735.9409225879995,0.092,-1.491,-4.716,-5.739
0.2,1000000000.0,2.3711743355,1815.515662773135,3600.8082917348274,0.182,-1.376,-5.122,-6.201
0.2,1000000000.0,2.3711824417,2523.4807724805755,3469.764505288517,0.395,-1.096,-5.532,-6.666
0.2,1000000000.0,2.3711924553,3184.1975217261256,3379.8700286198914,0.653,-0.77,-5.825,-6.996
0.2,1000000000.0,2.3712041378,3614.0986263961313,3331.194570682003,0.836,-0.543,-5.983,-7.174
0.2,1000000000.0,2.3712179661,3819.442708400464,3309.786650728407,0.925,-0.434,-6.051,-7.252
0.2,1000000000.0,2.3712334633,3926.449353995997,3298.3747715856816,0.984,-0.357,-6.086,-7.291
0.2,1000000000.0,2.3712337017,2870.780582024692,3415.0730666882723,0.557,-0.892,-5.695,-6.852
0.2,1000000000.0,2.3712348938,2243.881923782766,3511.5592451629086,0.329,-1.186,-5.386,-6.504
0.2,1000000000.0,2.3712375164,1393.1568029453035,3705.1005630192394,0.112,-1.47,-4.794,-5.83
0.2,1000000000.0,2.3712413311,1258.9254117941675,3748.003605517044,0.1,-1.481,-4.67,-5.688
0.2,1000000000.0,2.3712465763,1468.9262776438661,3681.289736425313,0.128,-1.449,-4.863,-5.909
0.2,1000000000.0,2.3712537289,2023.0191786782718,3550.5857031262385,0.261,-1.276,-5.26,-6.361
0.2,1000000000.0,2.3712625504,2792.543841237339,3422.9456231604145,0.543,-0.912,-5.661,-6.815
0.2,1000000000.0,2.3712730408,3499.451670283573,3335.031958716416,0.842,-0.539,-5.945,-7.134
0.2,1000000000.0,2.371285677,3935.5007545577764,3289.2736048064767,1.046,-0.28,-6.094,-7.303
0.2,1000000000.0,2.3713004589,4139.996748197304,3269.640468343053,1.148,-0.147,-6.155,-7.374
0.2,1000000000.0,2.3713171482,4236.429660495409,3260.6185877894,1.197,-0.083,-6.183,-7.407
0.2,1000000000.0,2.3713173866,3184.1975217261256,3367.4410363771217,0.727,-0.682,-5.828,-7.004
0.2,1000000000.0,2.3713188171,2477.4220576332864,3464.974158289286,0.435,-1.05,-5.514,-6.651
0.2,1000000000.0,2.3713214397,1545.254439538414,3657.631930094523,0.151,-1.422,-4.926,-5.982
0.2,1000000000.0,2.3713254929,1393.1568029453035,3700.8373629231564,0.123,-1.457,-4.797,-5.835
0.2,1000000000.0,2.3713309765,1625.5487557504835,3636.6373933084765,0.167,-1.402,-4.987,-6.052
0.2,1000000000.0,2.3713383675,2218.1964198002192,3507.5187395256794,0.355,-1.155,-5.376,-6.494
0.2,1000000000.0,2.3713476658,3026.913428101305,3383.763488617649,0.677,-0.745,-5.767,-6.937
0.2,1000000000.0,2.3713588715,3767.0379898390893,3298.3747715856816,1.02,-0.317,-6.041,-7.247
0.2,1000000000.0,2.3713722229,4216.965034285822,3253.8685178010755,1.25,-0.017,-6.182,-7.409
0.2,1000000000.0,2.3713877201,4415.704473533126,3235.1915531420955,1.349,0.111,-6.24,-7.475
0.2,1000000000.0,2.3714053631,4508.167045414601,3227.007687515532,1.384,0.155,-6.264,-7.503
0.2,1000000000.0,2.3714056015,3491.4031547858626,3323.533035774775,0.92,-0.447,-5.948,-7.143
0.2,1000000000.0,2.371407032,2716.4392688390835,3421.369661353676,0.575,-0.876,-5.631,-6.785
0.2,1000000000.0,2.3714094162,1702.15850839495,3612.434655644614,0.204,-1.355,-5.048,-6.123
0.2,1000000000.0,2.3714134693,1534.6169827992942,3655.9479161312506,0.163,-1.408,-4.918,-5.975
0.2,1000000000.0,2.3714189529,1786.4875748520499,3591.6995478714375,0.233,-1.318,-5.107,-6.191
0.2,1000000000.0,2.3714261055,2421.0290467361774,3464.974158289286,0.46,-1.023,-5.49,-6.626
0.2,1000000000.0,2.3714351654,3288.51630875983,3341.950400261143,0.855,-0.527,-5.875,-7.062
0.2,1000000000.0,2.3714461327,4083.1938633269233,3257.616829660631,1.255,-0.015,-6.144,-7.369
0.2,1000000000.0,2.3714592457,4581.418867145335,3211.441387141269,1.463,0.253,-6.287,-7.533
0.2,1000000000.0,2.3714742661,4808.393484497285,3190.8030609514212,1.554,0.367,-6.349,-7.604
0.2,1000000000.0,2.3714914322,4931.738039549359,3179.069335643364,1.612,0.438,-6.381,-7.641
0.2,1000000000.0,2.3714916706,3935.5007545577764,3265.126412019571,1.228,-0.052,-6.101,-7.322
0.2,1000000000.0,2.3714931011,3047.8949896279833,3365.115693754908,0.785,-0.617,-5.783,-6.96
0.2,1000000000.0,2.3714957237,1923.0917289101576,3553.857419860757,0.298,-1.236,-5.202,-6.302
0.2,1000000000.0,2.3715000153,1725.837891990204,3599.979270433565,0.235,-1.318,-5.067,-6.148
0.2,1000000000.0,2.3715057373,1999.8618696327449,3538.343568147222,0.324,-1.202,-5.251,-6.357
0.2,1000000000.0,2.3715133667,2685.344445658506,3416.6461281382244,0.61,-0.836,-5.622,-6.778
0.2,1000000000.0,2.3715229034,3605.7864302164235,3299.8940791083483,1.048,-0.288,-5.992,-7.197
0.2,1000000000.0,2.371534586,4425.883723626264,3221.0687912834346,1.438,0.218,-6.246,-7.488
0.2,1000000000.0,2.3715484142,4920.395356814511,3180.5336883295204,1.607,0.432,-6.377,-7.637
0.2,1000000000.0,2.3715643883,5140.436515824259,3164.462838835526,1.681,0.524,-6.43,-7.698
0.2,1000000000.0,2.3715825081,5236.0043658575005,3158.6390484234703,1.706,0.553,-6.452,-7.723
0.2,1000000000.0,2.3715827465,4305.266104917106,3232.9575336809407,1.386,0.153,-6.212,-7.449
0.2,1000000000.0,2.371584177,3334.2641276323507,3335.031958716416,0.89,-0.486,-5.892,-7.082
0.2,1000000000.0,2.3715867996,2113.489039836648,3522.897439914557,0.336,-1.184,-5.318,-6.43
0.2,1000000000.0,2.3715908527,1892.343618644976,3571.083458083457,0.253,-1.291,-5.178,-6.271
0.2,1000000000.0,2.3715965748,2182.7299118430014,3509.1343835855246,0.365,-1.146,-5.358,-6.476
0.2,1000000000.0,2.3716039658,2904.022654464451,3390.002355756172,0.679,-0.747,-5.718,-6.885
0.2,1000000000.0,2.3716132641,3845.9178204535356,3275.668919368471,1.169,-0.13,-6.073,-7.29
0.2,1000000000.0,2.3716247082,4688.13382145265,3198.1586216666074,1.533,0.338,-6.317,-7.568
0.2,1000000000.0,2.3716380596,5176.068319505676,3158.6390484234703,1.715,0.564,-6.441,-7.712
0.2,1000000000.0,2.3716535568,5382.697825162882,3143.4025417390094,1.778,0.633,-6.488,-7.767
0.2,1000000000.0,2.3716714382,5470.159628939716,3137.6175101187496,1.801,0.659,-6.507,-7.789
0.2,1000000000.0,2.3716716766,4645.152752227492,3200.368594586517,1.525,0.327,-6.307,-7.558
0.2,1000000000.0,2.3716728687,3589.2193464500533,3303.6954103681487,1.026,-0.317,-5.986,-7.19
0.2,1000000000.0,2.3716752529,2290.8676527677726,3490.599322048292,0.398,-1.103,-5.419,-6.545
0.2,1000000000.0,2.3716790676,2051.1621788255648,3539.1583956694994,0.296,-1.235,-5.278,-6.383
0.2,1000000000.0,2.3716843128,2360.478233180578,3478.5640153042373,0.426,-1.067,-5.457,-6.588
0.2,1000000000.0,2.3716909885,3118.8895840939385,3360.4698246069956,0.792,-0.608,-5.81,-6.989
0.2,1000000000.0,2.3716995716,4111.497211045221,3247.8801876353714,1.324,0.07,-6.156,-7.386
0.2,1000000000.0,2.371710062,4977.37084978936,3171.027438947892,1.666,0.503,-6.394,-7.659
0.2,1000000000.0,2.3717222214,5508.076964054036,3130.401190096238,1.839,0.7,-6.518,-7.803
0.2,1000000000.0,2.3717365265,5754.399373371566,3113.149665447022,1.911,0.781,-6.57,-7.864
0.2,1000000000.0,2.371752739,5874.893525297769,3104.5595881283557,1.949,0.823,-6.596,-7.894
0.2,1000000000.0,2.3717529774,5128.613839913648,3156.4578912990714,1.738,0.588,-6.432,-7.704
0.2,1000000000.0,2.3717541695,3953.666200681279,3260.6185877894,1.259,-0.015,-6.109,-7.333
0.2,1000000000.0,2.3717565536,2540.972705549304,3445.8788144433506,0.511,-0.959,-5.55,-6.694
0.2,1000000000.0,2.3717603683,2264.6443075930597,3496.2300400270183,0.386,-1.119,-5.403,-6.527
0.2,1000000000.0,2.3717656136,2600.159563165272,3437.1619861753497,0.538,-0.926,-5.577,-6.725
0.2,1000000000.0,2.3717725277,3396.2527259040853,3323.533035774775,0.945,-0.421,-5.918,-7.113
0.2,1000000000.0,2.3717811108,4415.704473533126,3215.8812236044914,1.473,0.259,-6.247,-7.491
0.2,1000000000.0,2.3717916012,5296.634438916581,3142.678829879227,1.796,0.653,-6.471,-7.75
0.2,1000000000.0,2.3718039989,5821.032177708716,3105.989619905655,1.949,0.822,-6.586,-7.883
0.2,1000000000.0,2.3718183041,6025.595860743575,3091.7188938917006,2.01,0.889,-6.63,-7.935
0.2,1000000000.0,2.3718347549,6123.503917247734,3086.0289794360633,2.025,0.9,-6.648,-7.955
0.2,1000000000.0,2.3718349934,5508.076964054036,3126.0793671239558,1.866,0.73,-6.52,-7.807
0.2,1000000000.0,2.3718361855,4246.19563946313,3232.2132033960884,1.409,0.178,-6.197,-7.434
0.2,1000000000.0,2.3718383312,2747.8941531023975,3415.8595068605546,0.598,-0.851,-5.647,-6.803
0.2,1000000000.0,2.3718416691,2443.430552693971,3467.368504525317,0.443,-1.045,-5.497,-6.632
0.2,1000000000.0,2.371846199,2792.543841237339,3408.0032480036516,0.624,-0.818,-5.669,-6.829
0.2,1000000000.0,2.3718523979,3622.4299841669877,3296.097121774576,1.075,-0.257,-6.0,-7.207
0.2,1000000000.0,2.3718600273,4677.351412871981,3190.0684359752117,1.591,0.406,-6.318,-7.573
0.2,1000000000.0,2.3718695641,5571.857489319298,3118.1715159014625,1.909,0.778,-6.535,-7.826
0.2,1000000000.0,2.3718805313,6109.420249055721,3080.3495365425674,2.048,0.919,-6.647,-7.956
0.2,1000000000.0,2.3718934059,6324.118513762197,3064.7849053700324,2.085,0.938,-6.692,-8.008
0.2,1000000000.0,2.3719079494,6426.877173170194,3057.032106987659,2.106,0.95,-6.711,-8.031
0.2,1000000000.0,2.3719081879,5942.921586155727,3087.450475587445,2.042,0.92,-6.617,-7.923
0.2,1000000000.0,2.37190938,4570.881896148751,3193.7432529771722,1.585,0.396,-6.293,-7.546
0.2,1000000000.0,2.3719115257,2978.5164294291912,3375.981048554255,0.745,-0.67,-5.752,-6.925
0.2,1000000000.0,2.3719148636,2636.3313858253787,3428.467208333132,0.569,-0.889,-5.597,-6.749
0.2,1000000000.0,2.3719193935,3006.076302628232,3370.5439929348295,0.765,-0.645,-5.766,-6.941
0.2,1000000000.0,2.3719255924,3872.576449216173,3262.871721430849,1.265,-0.012,-6.084,-7.307
0.2,1000000000.0,2.3719332218,4943.106869868354,3160.8217127583484,1.745,0.595,-6.389,-7.659
0.2,1000000000.0,2.3719425201,5847.900841444806,3091.7188938917006,2.033,0.915,-6.596,-7.9
0.2,1000000000.0,2.3719534874,6367.955209079156,3057.736095690077,2.113,0.958,-6.7,-8.019
0.2,1000000000.0,2.3719661236,6576.578373554205,3044.3879900225406,2.145,0.974,-6.74,-8.065
0.2,1000000000.0,2.3719806671,6652.731562017413,3038.785182061179,2.158,0.981,-6.755,-8.083
0.2,1000000000.0,2.3719809055,6324.118513762197,3058.4402465105513,2.115,0.961,-6.693,-8.012
0.2,1000000000.0,2.3719818592,4864.072056914614,3165.920463432239,1.724,0.568,-6.369,-7.636
0.2,1000000000.0,2.3719837666,3184.1975217261256,3346.5706661967974,0.865,-0.522,-5.838,-7.024
0.2,1000000000.0,2.371986866,2818.382931264455,3400.1650580407095,0.659,-0.778,-5.682,-6.845
0.2,1000000000.0,2.3719909191,3213.660538640318,3341.950400261143,0.884,-0.499,-5.849,-7.036
0.2,1000000000.0,2.3719964027,4102.041029866068,3235.1915531420955,1.422,0.188,-6.159,-7.395
0.2,1000000000.0,2.3720033169,5211.947111050806,3134.7289880140065,1.865,0.726,-6.455,-7.738
0.2,1000000000.0,2.3720116615,6137.620051647939,3066.1966160107386,2.107,0.962,-6.658,-7.974
0.2,1000000000.0,2.3720214367,6683.439175686149,3030.4002977883647,2.191,1.004,-6.763,-8.095
0.2,1000000000.0,2.3720328808,6918.309709189362,3015.0880540378826,2.227,1.021,-6.806,-8.145
0.2,1000000000.0,2.3720459938,7030.723198838334,3006.076302628232,2.245,1.029,-6.827,-8.169
0.2,1000000000.0,2.3720462322,6854.882264526614,3016.4768731622175,2.229,1.026,-6.794,-8.132
0.2,1000000000.0,2.3720471859,5260.172663907063,3124.640085806112,1.919,0.786,-6.468,-7.757
0.2,1000000000.0,2.3720490932,3467.368504525317,3302.934793960337,1.07,-0.272,-5.948,-7.152
0.2,1000000000.0,2.3720519543,3054.9211132155124,3358.1492958644226,0.83,-0.569,-5.788,-6.968
0.2,1000000000.0,2.3720560074,3467.368504525317,3301.4140864591145,1.078,-0.261,-5.951,-7.155
0.2,1000000000.0,2.3720612526,4395.416154378243,3198.1586216666074,1.594,0.402,-6.249,-7.5
0.2,1000000000.0,2.3720679283,5520.774392807573,3100.9873885323427,2.025,0.904,-6.531,-7.831
0.2,1000000000.0,2.3720757961,6456.542290346556,3035.9876459875045,2.197,1.018,-6.723,-8.053
0.2,1000000000.0,2.3720853329,6982.324040771711,3002.6174208612674,2.264,1.045,-6.819,-8.163
0.2,1000000000.0,2.3720963001,7194.489780036998,2988.821646959374,2.288,1.054,-6.857,-8.206
0.2,1000000000.0,2.3721089363,7277.798045368242,2982.634245778771,2.301,1.06,-6.872,-8.224
0.2,1000000000.0,2.3721091747,7261.0595743515505,2984.0081159302204,2.3,1.06,-6.867,-8.218
0.2,1000000000.0,2.3721101284,5571.857489319298,3093.1430109489634,2.071,0.954,-6.542,-7.846
0.2,1000000000.0,2.3721117973,3689.775985701505,3270.3934175663962,1.256,-0.033,-6.03,-7.249
0.2,1000000000.0,2.3721144199,3250.872973854344,3327.3615980616237,0.97,-0.399,-5.868,-7.061
0.2,1000000000.0,2.3721182346,3681.289736425313,3270.3934175663962,1.255,-0.034,-6.026,-7.245
0.2,1000000000.0,2.3721232414,4634.46919736288,3168.8377271814975,1.746,0.588,-6.316,-7.581
0.2,1000000000.0,2.3721296787,5780.960474057181,3073.972656082513,2.126,0.993,-6.588,-7.9
0.2,1000000000.0,2.3721373081,6698.846094165266,3010.925432053001,2.27,1.062,-6.773,-8.113
0.2,1000000000.0,2.3721461296,7227.698036021702,2978.5164294291912,2.324,1.079,-6.865,-8.219
0.2,1000000000.0,2.37215662,7447.319739059889,2964.8313895243423,2.35,1.088,-6.901,-8.26
0.2,1000000000.0,2.372168541,7516.228940182053,2958.0124665515464,2.365,1.096,-6.915,-8.278
0.2,1000000000.0,2.3721687794,7655.966069112562,2950.5297638582715,2.378,1.1,-6.937,-8.303
0.2,1000000000.0,2.3721694946,5874.893525297769,3059.849034654997,2.174,1.025,-6.613,-7.931
0.2,1000000000.0,2.3721711636,3917.4187710778306,3235.1915531420955,1.468,0.236,-6.109,-7.344
0.2,1000000000.0,2.3721737862,3443.4993076333844,3293.821044764936,1.147,-0.179,-5.944,-7.152
0.2,1000000000.0,2.3721773624,3890.4514499428046,3237.42711634235,1.458,0.223,-6.1,-7.334
0.2,1000000000.0,2.3721821308,4864.072056914614,3138.340056432409,1.903,0.766,-6.38,-7.66
0.2,1000000000.0,2.3721880913,6025.595860743575,3045.7903053734226,2.215,1.051,-6.644,-7.968
0.2,1000000000.0,2.3721952438,6950.243175887969,2984.0081159302204,2.339,1.101,-6.821,-8.172
0.2,1000000000.0,2.3722038269,7481.6950051115455,2951.8888459446066,2.394,1.118,-6.91,-8.275
0.2,1000000000.0,2.3722138405,7691.304402866098,2938.3261486728097,2.412,1.124,-6.944,-8.315
0.2,1000000000.0,2.3722250462,7780.365510398041,2931.568186062337,2.424,1.13,-6.959,-8.331
0.2,1000000000.0,2.3722252846,8072.350302488382,2915.4124227107563,2.438,1.128,-7.004,-8.382
0.2,1000000000.0,2.3722259998,6194.410750767812,3025.519803872306,2.279,1.092,-6.681,-8.014
0.2,1000000000.0,2.3722276688,4149.5404263436285,3200.368594586517,1.635,0.442,-6.184,-7.435
0.2,1000000000.0,2.3722302914,3630.780547701014,3259.8678890446836,1.35,0.079,-6.017,-7.241
0.2,1000000000.0,2.3722336292,4102.041029866068,3204.0552769132337,1.621,0.424,-6.17,-7.419
0.2,1000000000.0,2.3722383976,5105.049999754065,3105.989619905655,2.065,0.943,-6.442,-7.739
0.2,1000000000.0,2.3722441196,6266.138646723356,3015.7823836531966,2.311,1.112,-6.698,-8.036
0.2,1000000000.0,2.3722512722,7211.074791828998,2955.2892906487523,2.414,1.144,-6.869,-8.232
0.2,1000000000.0,2.3722593784,7726.805850957021,2924.1523778433366,2.451,1.151,-6.954,-8.329
0.2,1000000000.0,2.3722691536,7925.013304804718,2910.717118066605,2.468,1.155,-6.987,-8.367
0.2,1000000000.0,2.3722801208,8016.78063387679,2904.022654464451,2.48,1.16,-7.001,-8.384
0.2,1000000000.0,2.3722803593,8472.274141405964,2880.713049775041,2.503,1.161,-7.067,-8.46
0.2,1000000000.0,2.3722810745,6501.296903430909,2991.575721530859,2.369,1.143,-6.745,-8.093
0.2,1000000000.0,2.372282505,4385.306977749856,3165.191567226265,1.825,0.674,-6.257,-7.524
0.2,1000000000.0,2.3722848892,3828.2474331682283,3226.264727075673,1.548,0.327,-6.088,-7.327
0.2,1000000000.0,2.3722882271,4315.19076827765,3171.027438947892,1.802,0.644,-6.239,-7.503
0.2,1000000000.0,2.372292757,5345.643593969719,3073.972656082513,2.197,1.068,-6.503,-7.815
0.2,1000000000.0,2.3722982407,6531.305526474723,2985.3826189179604,2.389,1.157,-6.751,-8.101
0.2,1000000000.0,2.372304678,7464.487584100669,2926.846862378789,2.476,1.179,-6.917,-8.291
0.2,1000000000.0,2.3723125458,7998.342550070284,2896.6765264870983,2.509,1.182,-6.999,-8.385
0.2,1000000000.0,2.3723216057,8203.515443298185,2883.367506780263,2.527,1.187,-7.031,-8.423
0.2,1000000000.0,2.3723320961,8298.507675144225,2876.073628863028,2.538,1.195,-7.045,-8.439
0.2,1000000000.0,2.3723323345,8912.509381337459,2846.4266703742232,2.573,1.213,-7.131,-8.535
0.2,1000000000.0,2.3723330498,6839.116472814293,2957.331437419893,2.456,1.19,-6.812,-8.174
0.2,1000000000.0,2.3723344803,4634.46919736288,3128.959918963571,2.011,0.88,-6.329,-7.615
0.2,1000000000.0,2.3723368645,4045.7589169744288,3190.8030609514212,1.729,0.548,-6.16,-7.414
0.2,1000000000.0,2.3723399639,4549.880601500485,3134.7289880140065,1.989,0.856,-6.308,-7.59
0.2,1000000000.0,2.3723442554,5597.576014951104,3039.484968770113,2.311,1.143,-6.567,-7.894
0.2,1000000000.0,2.3723492622,6807.693586937417,2951.8888459446066,2.48,1.21,-6.807,-8.172
0.2,1000000000.0,2.3723556995,7744.617978025183,2893.343523391501,2.547,1.219,-6.967,-8.354
0.2,1000000000.0,2.3723633289,8279.421637123345,2862.2001490511943,2.585,1.237,-7.046,-8.444
0.2,1000000000.0,2.372371912,8491.804750363135,2847.7378001737457,2.612,1.256,-7.078,-8.481
0.2,1000000000.0,2.3723819256,8590.13521505396,2838.5725586841204,2.632,1.271,-7.093,-8.498
0.2,1000000000.0,2.372382164,9354.05674147552,2802.205621666745,2.671,1.299,-7.197,-8.614
0.2,1000000000.0,2.3723828793,7194.489780036998,2913.399222570164,2.552,1.246,-6.879,-8.258
0.2,1000000000.0,2.3723843098,4886.523593428336,3084.6081377571413,2.236,1.119,-6.404,-7.711
0.2,1000000000.0,2.3723864555,4255.984131337431,3147.748314101317,1.969,0.831,-6.231,-7.506
0.2,1000000000.0,2.3723897934,4786.300923226385,3092.430870441563,2.218,1.106,-6.376,-7.68
0.2,1000000000.0,2.3723938465,5847.900841444806,2999.16251898765,2.44,1.227,-6.628,-7.972
0.2,1000000000.0,2.3723990917,7063.175542629623,2913.399222570164,2.569,1.265,-6.86,-8.238
0.2,1000000000.0,2.3724052906,7998.342550070284,2856.932634583698,2.633,1.285,-7.011,-8.41
0.2,1000000000.0,2.3724126816,8511.380382023768,2828.1341110474723,2.679,1.314,-7.086,-8.495
0.2,1000000000.0,2.3724215031,8709.635899560806,2815.1400151333,2.703,1.332,-7.114,-8.527
0.2,1000000000.0,2.3724312782,8770.008211436349,2808.018728116636,2.717,1.346,-7.125,-8.54
0.2,1000000000.0,2.3724315166,9705.099672454899,2765.03096983568,2.741,1.373,-7.247,-8.674
0.2,1000000000.0,2.3724322319,7464.487584100669,2876.7359455385426,2.636,1.299,-6.931,-8.324
0.2,1000000000.0,2.372433424,5105.049999754065,3045.7903053734226,2.374,1.215,-6.463,-7.787
0.2,1000000000.0,2.3724358082,4436.086439314323,3110.283668685142,2.18,1.06,-6.288,-7.583
0.2,1000000000.0,2.3724386692,4977.37084978936,3054.9211132155124,2.356,1.209,-6.432,-7.752
0.2,1000000000.0,2.3724427223,6067.363295885053,2963.466348548615,2.549,1.294,-6.677,-8.037
0.2,1000000000.0,2.3724477291,7277.798045368242,2880.713049775041,2.651,1.315,-6.902,-8.294
0.2,1000000000.0,2.3724536896,8222.426499470712,2825.530502459557,2.724,1.358,-7.049,-8.458
0.2,1000000000.0,2.3724608421,8729.713683881113,2797.692637854652,2.757,1.386,-7.121,-8.539
0.2,1000000000.0,2.3724689484,8933.054837332953,2786.1211686297693,2.772,1.401,-7.149,-8.57
0.2,1000000000.0,2.3724784851,9015.711376059571,2779.7132677592886,2.781,1.411,-7.161,-8.583
0.2,1000000000.0,2.3724787235,10092.528860766834,2731.492422089182,2.805,1.447,-7.299,-8.735
0.2,1000000000.0,2.3724794388,7780.365510398041,2842.496901815529,2.725,1.367,-6.984,-8.388
0.2,1000000000.0,2.3724806309,5333.348954876208,3009.539168873201,2.501,1.299,-6.523,-7.864
0.2,1000000000.0,2.3724827766,4623.810213992603,3074.680545939635,2.351,1.222,-6.347,-7.658
0.2,1000000000.0,2.3724856377,5188.000389289609,3019.256430871959,2.493,1.301,-6.49,-7.827
0.2,1000000000.0,2.3724894524,6295.061828571975,2928.195035574271,2.647,1.355,-6.73,-8.103
0.2,1000000000.0,2.3724942207,7533.55563733717,2846.4266703742232,2.746,1.389,-6.948,-8.351
0.2,1000000000.0,2.3725001812,8472.274141405964,2792.543841237339,2.813,1.44,-7.091,-8.511
0.2,1000000000.0,2.3725068569,8974.287945007482,2764.3943712203372,2.836,1.465,-7.163,-8.59
0.2,1000000000.0,2.3725149632,9183.32596483581,2751.6931328087903,2.854,1.484,-7.191,-8.622
0.2,1000000000.0,2.3725240231,9289.663867799363,2744.732343478535,2.867,1.499,-7.204,-8.637
0.2,1000000000.0,2.3725242615,10543.86896391258,2690.295591704617,2.901,1.551,-7.359,-8.807
0.2,1000000000.0,2.3725247383,8128.305161640995,2797.692637854652,2.849,1.474,-7.044,-8.462
0.2,1000000000.0,2.3725261688,5597.576014951104,2958.6936525140045,2.672,1.407,-6.592,-7.954
0.2,1000000000.0,2.3725280762,4841.7236758409945,3019.256430871959,2.58,1.384,-6.417,-7.754
0.2,1000000000.0,2.3725309372,5420.008904016238,2955.2892906487523,2.719,1.45,-6.56,-7.924
0.2,1000000000.0,2.3725345135,6561.452663029057,2852.9883615207186,2.873,1.519,-6.797,-8.198
0.2,1000000000.0,2.3725390434,7816.278045883293,2756.7666102901003,3.004,1.637,-7.013,-8.441
0.2,1000000000.0,2.3725447655,8749.837752274363,2687.200056717113,3.089,1.751,-7.158,-8.603
0.2,1000000000.0,2.3725512028,9268.298233793494,2644.843626854362,3.143,1.849,-7.23,-8.683
0.2,1000000000.0,2.3725588322,9484.184633008968,2621.1990386352422,3.186,1.91,-7.26,-8.718
0.2,1000000000.0,2.3725676537,9571.94071294844,2607.9544390266037,3.218,1.943,-7.274,-8.737
0.2,1000000000.0,2.3725676537,11015.393095414145,2538.0489859637805,3.152,1.861,-7.433,-8.906
0.2,1000000000.0,2.3725678921,8472.274141405964,2671.160598843814,3.196,1.861,-7.129,-8.58
0.2,1000000000.0,2.3725683689,5847.900841444806,2868.798201821356,2.988,1.625,-6.67,-8.07
0.2,1000000000.0,2.3725690842,5035.006087879047,2949.8504574842414,2.877,1.584,-6.485,-7.853
0.2,1000000000.0,2.3725700378,5610.479760324706,2889.348981559081,2.965,1.613,-6.618,-8.011
0.2,1000000000.0,2.3725714684,6714.288529259523,2797.692637854652,3.09,1.699,-6.84,-8.261
0.2,1000000000.0,2.3725731373,7906.786279998253,2725.2101638491986,3.138,1.757,-7.038,-8.48
0.2,1000000000.0,2.3725750446,8749.837752274363,2689.056950029252,3.148,1.777,-7.161,-8.614
0.2,1000000000.0,2.3725774288,9162.204901220002,2684.108083545228,3.123,1.751,-7.212,-8.668
0.2,1000000000.0,2.3725800514,9246.98173938223,2697.7394324449206,3.086,1.695,-7.22,-8.674
0.2,1000000000.0,2.3725831509,9204.495717531712,2720.1947619843772,3.029,1.626,-7.209,-8.659
0.2,1000000000.0,2.3725831509,10616.955571987242,2675.469472656105,3.002,1.633,-7.377,-8.838
0.2,1000000000.0,2.3725833893,8184.647881347895,2759.3068558175087,3.039,1.621,-7.071,-8.509
0.2,1000000000.0,2.3725838661,5662.3928903825345,2880.713049775041,3.013,1.644,-6.632,-8.029
0.2,1000000000.0,2.3725845814,4875.284901033865,2930.2184598312765,2.99,1.674,-6.454,-7.83
0.2,1000000000.0,2.3725852966,5420.008904016238,2898.010802529753,3.0,1.646,-6.58,-7.97
0.2,1000000000.0,2.3725864887,6486.344335482381,2849.7056273411536,2.998,1.602,-6.791,-8.199
0.2,1000000000.0,2.3725881577,7620.790100254122,2815.788299710311,2.958,1.531,-6.977,-8.401
0.2,1000000000.0,2.3725898266,8433.347577642757,2806.725885414676,2.884,1.447,-7.093,-8.521
0.2,1000000000.0,2.3725919724,8830.799004185632,2818.382931264455,2.804,1.364,-7.139,-8.564
0.2,1000000000.0,2.372594595,8912.509381337459,2843.151486273759,2.71,1.284,-7.143,-8.559
0.2,1000000000.0,2.372597456,8892.011178579482,2875.4114646740045,2.607,1.198,-7.131,-8.535
0.2,1000000000.0,2.372597456,10303.861204416158,2858.9068155119553,2.5,1.082,-7.297,-8.707
0.2,1000000000.0,2.3725976944,7943.282347242814,2891.3455626423843,2.675,1.281,-7.005,-8.402
0.2,1000000000.0,2.3725981712,5508.076964054036,2935.621096191421,2.904,1.569,-6.588,-7.964
0.2,1000000000.0,2.3725988865,4731.512589614803,2954.6088884793385,2.98,1.673,-6.418,-7.785
0.2,1000000000.0,2.3725996017,5272.298614228227,2949.171307508275,2.906,1.585,-6.537,-7.907
0.2,1000000000.0,2.3726007938,6295.061828571975,2944.4216337987605,2.754,1.417,-6.734,-8.107
0.2,1000000000.0,2.3726022243,7379.042301291008,2950.5297638582715,2.572,1.235,-6.907,-8.278
0.2,1000000000.0,2.3726041317,8165.823713585923,2970.297844017863,2.397,1.081,-7.011,-8.373
0.2,1000000000.0,2.3726062775,8531.001140175895,3000.5440024430936,2.247,0.964,-7.05,-8.397
0.2,1000000000.0,2.3726086617,8629.785477669702,3038.785182061179,2.094,0.85,-7.05,-8.377
0.2,1000000000.0,2.3726115227,8609.937521846008,3084.6081377571413,1.912,0.715,-7.033,-8.336
0.2,1000000000.0,2.3726115227,10023.052380779005,3100.9873885323427,1.672,0.468,-7.195,-8.489
0.2,1000000000.0,2.3726117611,7726.805850957021,3077.513735907868,2.058,0.853,-6.918,-8.225
0.2,1000000000.0,2.3726119995,5345.643593969719,3043.6870744812113,2.588,1.351,-6.528,-7.853
0.2,1000000000.0,2.3726127148,4581.418867145335,3031.796170085468,2.788,1.545,-6.364,-7.695
0.2,1000000000.0,2.37261343,5081.594425605605,3052.1087222420074,2.607,1.379,-6.471,-7.791
0.2,1000000000.0,2.3726146221,6039.4862937638,3088.8726265127525,2.281,1.087,-6.648,-7.949
0.2,1000000000.0,2.3726158142,7030.723198838334,3132.5643416709277,1.883,0.644,-6.804,-8.078
0.2,1000000000.0,2.3726174831,7726.805850957021,3177.6056571612876,1.526,0.223,-6.895,-8.142
0.2,1000000000.0,2.3726191521,8016.78063387679,3221.810555177115,1.187,-0.197,-6.923,-8.145
0.2,1000000000.0,2.3726215363,8016.78063387679,3267.3826606314346,0.834,-0.639,-6.909,-8.107
0.2,1000000000.0,2.3726239204,7906.786279998253,3316.6527215043507,0.452,-1.115,-6.876,-8.051
