FeH,Age,Mini,L,Te,Bmag,Vmag,Jmag,Kmag
0.2,850002102.5917181,0.093007721,0.00046344691973628795,2304.0929760558447,19.609,17.844,11.013,10.089
0.2,850002102.5917181,0.1029621437,0.0006295061828571974,2402.7024985383323,19.263,17.503,10.681,9.756
0.2,850002102.5917181,0.1159323156,0.000859013521505396,2503.8021037537396,18.916,17.16,10.343,9.418
0.2,850002102.5917181,0.121278055,0.0009727472237769651,2545.0715720695075,18.776,17.022,10.208,9.282
0.2,850002102.5917181,0.122871004,0.0010115794542598982,2557.40788582677,18.73,16.977,10.165,9.239
0.2,850002102.5917181,0.1427798569,0.0015100801541641478,2677.3182599684565,17.874,16.169,9.753,8.829
0.2,850002102.5917181,0.1507579982,0.001725837891990204,2713.9384876415893,17.513,15.834,9.622,8.7
0.2,850002102.5917181,0.1550084203,0.0018407720014689563,2732.121443878487,17.336,15.671,9.557,8.636
0.2,850002102.5917181,0.1831110418,0.0026977394324449204,2832.044022964096,16.393,14.794,9.176,8.263
0.2,850002102.5917181,0.1968315244,0.00316956746304349,2873.4258866748714,16.016,14.435,9.016,8.105
0.2,850002102.5917181,0.202506423,0.0033806483620598153,2890.014355349471,15.871,14.298,8.953,8.044
0.2,850002102.5917181,0.2195302248,0.00399024902362142,2929.5438297694327,15.519,13.966,8.785,7.88
0.2,850002102.5917181,0.2522785664,0.005321082592667942,2998.4720157970514,14.928,13.405,8.495,7.596
0.2,850002102.5917181,0.3039570451,0.007780365510398041,3088.1614691845125,14.194,12.693,8.113,7.222
0.2,850002102.5917181,0.3076918125,0.008016780633876789,3093.1430109489634,14.143,12.645,8.082,7.191
0.2,850002102.5917181,0.3342909515,0.009682778562612496,3134.7289880140065,13.811,12.331,7.89,7.002
0.2,850002102.5917181,0.3518228829,0.010839269140212033,3162.2776601683795,13.607,12.138,7.776,6.889
0.2,850002102.5917181,0.4015950263,0.015205475297324954,3247.1324216780226,13.016,11.575,7.438,6.553
0.2,850002102.5917181,0.4513671398,0.02128139045982712,3338.8737672512307,12.437,11.019,7.102,6.215
0.2,850002102.5917181,0.5011392832,0.02992264636608189,3445.08546286579,11.854,10.467,6.764,5.875
0.2,850002102.5917181,0.528608799,0.03647539469256078,3519.654225247658,11.507,10.133,6.573,5.682
0.2,850002102.5917181,0.5509114265,0.04255984131337431,3578.49158264176,11.243,9.875,6.426,5.534
0.2,850002102.5917181,0.6006835699,0.06095368972401691,3758.374042884443,10.575,9.21,6.097,5.209
0.2,850002102.5917181,0.6403347254,0.0812830516164099,3938.2202413383675,10.018,8.669,5.837,4.966
0.2,850002102.5917181,0.6504557133,0.08729713683881117,3983.8226824883504,9.882,8.54,5.772,4.907
0.2,850002102.5917181,0.6801967025,0.1076465213629835,4132.377611997572,9.464,8.156,5.582,4.747
0.2,850002102.5917181,0.7002279162,0.12359474334445104,4235.4542988140065,9.183,7.906,5.46,4.647
0.2,850002102.5917181,0.7181580663,0.1406047524129914,4355.118736855684,8.89,7.655,5.352,4.57
0.2,850002102.5917181,0.75,0.1749846688624657,4567.725533088667,8.377,7.233,5.173,4.461
0.2,850002102.5917181,0.8000000119,0.23496328208483072,4767.60207367496,7.822,6.77,4.91,4.269
0.2,850002102.5917181,0.8500000238,0.3126079367123955,4972.788632333997,7.312,6.344,4.66,4.084
0.2,850002102.5917181,0.8667575717,0.34276778654645035,5040.806191026696,7.153,6.21,4.58,4.025
0.2,850002102.5917181,0.8999999762,0.4102041029866068,5177.260290506427,6.853,5.958,4.426,3.909
0.2,850002102.5917181,0.9199852347,0.45603691595129614,5255.33009626921,6.683,5.813,4.334,3.837
0.2,850002102.5917181,0.9500000477,0.5321082592667942,5371.554667486636,6.439,5.607,4.202,3.735
0.2,850002102.5917181,1.0,0.6854882264526616,5555.203848137405,6.055,5.282,3.989,3.563
0.2,850002102.5917181,1.0499999523,0.8729713683881116,5725.323093941757,5.7,4.982,3.784,3.395
0.2,850002102.5917181,1.0775362253,0.995405417351527,5814.334323084471,5.515,4.826,3.674,3.302
0.2,850002102.5917181,1.1000000238,1.1040786199020731,5884.370370258755,5.369,4.701,3.586,3.228
0.2,850002102.5917181,1.130179882,1.2676518658578455,5975.85429715573,5.177,4.539,3.469,3.129
0.2,850002102.5917181,1.1499999762,1.383566378971781,6033.926282193056,5.054,4.435,3.394,3.065
0.2,850002102.5917181,1.1997103691,1.721868574986007,6174.474480506815,4.76,4.184,3.208,2.904
0.2,850002102.5917181,1.2000000477,1.7258378919902035,6174.474480506815,4.758,4.183,3.207,2.903
0.2,850002102.5917181,1.2191832066,1.8706821403658007,6227.303034831227,4.649,4.09,3.137,2.843
0.2,850002102.5917181,1.25,2.1232444620002195,6309.57344480193,4.48,3.946,3.03,2.749
0.2,850002102.5917181,1.2713917494,2.3120647901755946,6365.023332473052,4.368,3.85,2.958,2.686
0.2,850002102.5917181,1.2999999523,2.5882129151530915,6438.726829014615,4.22,3.723,2.862,2.601
0.2,850002102.5917181,1.3500000238,3.118889584093937,6562.9636672922,3.976,3.513,2.702,2.46
0.2,850002102.5917181,1.3999999762,3.7325015779572053,6684.978271615899,3.746,3.312,2.55,2.325
0.2,850002102.5917181,1.4500000477,4.425883723626265,6807.693586937417,3.526,3.12,2.405,2.198
0.2,850002102.5917181,1.5,5.223961889991197,6935.85491592748,3.315,2.936,2.27,2.079
0.2,850002102.5917181,1.5211168528,5.584701947368308,6993.587292116927,3.227,2.86,2.216,2.033
0.2,850002102.5917181,1.5499999523,6.123503917247735,7069.6839644940255,3.11,2.758,2.142,1.969
0.2,850002102.5917181,1.5649021864,6.412095765851617,7110.497695423427,3.051,2.707,2.107,1.938
0.2,850002102.5917181,1.6000000238,7.11213513653329,7201.119202497902,2.916,2.589,2.022,1.864
0.2,850002102.5917181,1.6375316381,7.943282347242816,7297.935152144486,2.777,2.467,1.935,1.788
0.2,850002102.5917181,1.6499999762,8.241381150130023,7328.245331389045,2.732,2.427,1.905,1.762
0.2,850002102.5917181,1.6749999523,8.851156098308353,7387.542629936365,2.642,2.348,1.848,1.711
0.2,850002102.5917181,1.7000000477,9.506047936562814,7443.8909111545045,2.555,2.27,1.79,1.66
0.2,850002102.5917181,1.7250001431,10.18591388054117,7497.215596874701,2.468,2.193,1.732,1.607
0.2,850002102.5917181,1.7252606153,10.18591388054117,7498.942093324558,2.467,2.192,1.731,1.607
0.2,850002102.5917181,1.75,10.914403364487566,7543.970821979903,2.383,2.117,1.672,1.553
0.2,850002102.5917181,1.7686128616,11.508003889444357,7580.537491482208,2.32,2.06,1.627,1.512
0.2,850002102.5917181,1.7750000954,11.694993910198711,7592.765726465254,2.299,2.04,1.612,1.498
0.2,850002102.5917181,1.7960568666,12.416523075924113,7627.812340691608,2.229,1.977,1.561,1.451
0.2,850002102.5917181,1.7999999523,12.531411749414161,7634.841051830966,2.216,1.965,1.552,1.442
0.2,850002102.5917181,1.8250000477,13.427649611378635,7675.382012183767,2.133,1.889,1.49,1.385
0.2,850002102.5917181,1.8416421413,14.060475241299136,7700.164443568718,2.079,1.84,1.449,1.346
0.2,850002102.5917181,1.8499999046,14.387985782558452,7710.809965858578,2.052,1.815,1.428,1.327
0.2,850002102.5917181,1.875,15.381546403030349,7742.834919124594,1.972,1.74,1.365,1.266
0.2,850002102.5917181,1.8837960958,15.776112696993485,7753.5394335959745,1.944,1.714,1.343,1.246
0.2,850002102.5917181,1.9000000954,16.481623915255085,7771.413187936795,1.892,1.666,1.301,1.206
0.2,850002102.5917181,1.9182714224,17.298163592151013,7789.328145536725,1.835,1.612,1.254,1.16
0.2,850002102.5917181,1.9249999523,17.619760464116293,7792.916089802483,1.814,1.592,1.235,1.142
0.2,850002102.5917181,1.9361083508,18.15515662773135,7801.893182650611,1.779,1.56,1.206,1.113
0.2,850002102.5917181,1.9484374523,18.749945080674184,7805.486914662375,1.742,1.524,1.171,1.079
0.2,850002102.5917181,1.9757413864,20.183663636815606,7814.4784885418285,1.658,1.443,1.095,1.004
0.2,850002102.5917181,1.9953123331,21.281390459827122,7814.4784885418285,1.599,1.386,1.039,0.947
0.2,850002102.5917181,2.013586998,22.335722228305315,7810.88061671057,1.545,1.333,0.985,0.894
0.2,850002102.5917181,2.0421872139,24.099054286865943,7796.505686758154,1.462,1.249,0.898,0.806
0.2,850002102.5917181,2.0473837852,24.434305526939713,7792.916089802483,1.447,1.234,0.882,0.79
0.2,850002102.5917181,2.082354784,26.791683248190314,7746.401447537537,1.35,1.132,0.768,0.672
0.2,850002102.5917181,2.0890622139,27.227013080779127,7732.145183275423,1.333,1.113,0.744,0.647
0.2,850002102.5917181,2.1170055866,29.308932452503214,7670.081876935095,1.261,1.033,0.645,0.542
0.2,850002102.5917181,2.1359374523,30.69021988391158,7617.281404686806,1.215,0.979,0.575,0.467
0.2,850002102.5917181,2.155718565,32.284941217126345,7556.140070930927,1.169,0.924,0.501,0.387
0.2,850002102.5917181,2.1812109947,34.35579478998746,7447.319739059889,1.117,0.854,0.396,0.271
0.2,850002102.5917181,2.1828124523,34.514373933585624,7440.463661919195,1.114,0.85,0.389,0.264
0.2,850002102.5917181,2.2042758465,36.30780547701014,7321.49887534064,1.079,0.795,0.293,0.156
0.2,850002102.5917181,2.224619627,38.106582339377304,7196.146563265814,1.051,0.745,0.2,0.049
0.2,850002102.5917181,2.2296872139,38.54783576657719,7164.732823911086,1.045,0.733,0.177,0.022
0.2,850002102.5917181,2.2358462811,39.084089579240214,7125.248247522667,1.037,0.718,0.148,-0.012
0.2,850002102.5917181,2.2529172897,40.64433291652128,7000.031591308969,1.022,0.679,0.063,-0.111
0.2,850002102.5917181,2.2692673206,42.36429660495411,6875.432140408455,1.007,0.639,-0.024,-0.214
0.2,850002102.5917181,2.2765622139,43.35108783875289,6842.266727659513,0.989,0.615,-0.061,-0.255
0.2,850002102.5917181,2.2856841087,44.6683592150963,6804.559249946384,0.966,0.584,-0.106,-0.305
0.2,850002102.5917181,2.2924437523,47.097732639695295,6908.758310497996,0.88,0.52,-0.128,-0.314
0.2,850002102.5917181,2.2968645096,49.88844874600122,7066.429004252079,0.78,0.453,-0.135,-0.301
0.2,850002102.5917181,2.2984652519,52.36004365857503,7239.357102423042,0.687,0.394,-0.13,-0.274
0.2,850002102.5917181,2.2992577553,54.954087385762456,7416.517059021937,0.598,0.338,-0.122,-0.248
0.2,850002102.5917181,2.2996990681,57.80960474057181,7592.765726465254,0.508,0.282,-0.118,-0.226
0.2,850002102.5917181,2.2999651432,61.235039172477336,7766.046739608369,0.416,0.224,-0.12,-0.211
0.2,850002102.5917181,2.3001191616,63.973483548264824,7899.507213358168,0.348,0.181,-0.122,-0.203
0.2,850002102.5917181,2.300245285,66.06934480075961,8005.712689353624,0.299,0.151,-0.121,-0.194
0.2,850002102.5917181,2.3002905846,63.82634861905486,7952.4326553339615,0.344,0.187,-0.101,-0.178
0.2,850002102.5917181,2.3003492355,60.39486293763797,7850.548482379963,0.42,0.242,-0.076,-0.161
0.2,850002102.5917181,2.3004059792,57.41164622073274,7709.034690644301,0.498,0.294,-0.069,-0.166
0.2,850002102.5917181,2.3004813194,55.46257129579107,7516.228940182053,0.568,0.327,-0.099,-0.215
0.2,850002102.5917181,2.3005697727,55.59042572704037,7323.184906861619,0.602,0.326,-0.167,-0.302
0.2,850002102.5917181,2.3006746769,56.623928903825316,7131.813866797403,0.623,0.311,-0.251,-0.408
0.2,850002102.5917181,2.3007936478,57.41164622073274,6945.443775834018,0.651,0.302,-0.329,-0.509
0.2,850002102.5917181,2.3009250164,57.67664633922506,6763.943948096019,0.692,0.304,-0.398,-0.601
0.2,850002102.5917181,2.3010678291,57.67664633922506,6590.221323188566,0.746,0.316,-0.455,-0.683
0.2,850002102.5917181,2.3012239933,57.279603098582925,6425.397500373017,0.811,0.336,-0.506,-0.759
0.2,850002102.5917181,2.3014013767,56.49369748123026,6266.138646723356,0.889,0.363,-0.55,-0.829
0.2,850002102.5917181,2.3016083241,55.335010921573684,6117.866558211328,0.976,0.402,-0.58,-0.885
0.2,850002102.5917181,2.3018705845,53.57966575133417,5967.604049723488,1.082,0.458,-0.597,-0.932
0.2,850002102.5917181,2.3021736145,50.93308710571955,5822.372674224978,1.209,0.536,-0.595,-0.959
0.2,850002102.5917181,2.3024222851,48.5288500162121,5716.102396416138,1.318,0.61,-0.578,-0.965
0.2,850002102.5917181,2.3026731014,45.708818961487495,5616.942783556393,1.437,0.697,-0.546,-0.955
0.2,850002102.5917181,2.3028907776,43.05266104917106,5534.775374571609,1.547,0.781,-0.508,-0.937
0.2,850002102.5917181,2.303153038,39.810717055349734,5441.266536154456,1.686,0.89,-0.453,-0.903
0.2,850002102.5917181,2.3034117222,36.897759857015025,5355.499708401138,1.82,0.995,-0.397,-0.868
0.2,850002102.5917181,2.3037347794,34.197944251370885,5254.120151100796,1.968,1.108,-0.347,-0.843
0.2,850002102.5917181,2.3038642406,33.419504002611426,5215.548640348755,2.018,1.144,-0.335,-0.842
0.2,850002102.5917181,2.304207325,33.265955329400455,5125.0723423117615,2.088,1.181,-0.358,-0.889
0.2,850002102.5917181,2.3046181202,35.15604405282981,5029.2126585044525,2.1,1.158,-0.445,-1.003
0.2,850002102.5917181,2.304959774,38.282474331682266,4964.779900060685,2.057,1.09,-0.559,-1.135
0.2,850002102.5917181,2.3052325249,41.495404263436306,4921.528450161719,2.005,1.021,-0.66,-1.249
0.2,850002102.5917181,2.3055009842,45.18559443749224,4883.149268098355,1.947,0.948,-0.761,-1.362
0.2,850002102.5917181,2.3057601452,49.09078761526032,4848.4173870844625,1.888,0.875,-0.861,-1.472
0.2,850002102.5917181,2.3060088158,53.21082592667942,4817.25903559163,1.828,0.802,-0.958,-1.579
0.2,850002102.5917181,2.306248188,57.67664633922506,4787.4031366341615,1.767,0.728,-1.054,-1.684
0.2,850002102.5917181,2.3064823151,62.51726927756859,4758.827909888171,1.707,0.657,-1.149,-1.789
0.2,850002102.5917181,2.3067116737,67.60829753919819,4732.602186090037,1.648,0.586,-1.242,-1.891
0.2,850002102.5917181,2.3069400787,73.11390834834177,4706.520991281343,1.588,0.515,-1.334,-1.991
0.2,850002102.5917181,2.3071379662,78.34296427662116,4684.8964916001305,1.536,0.453,-1.414,-2.079
0.2,850002102.5917181,2.3073356152,83.75292821268826,4663.37134746993,1.484,0.392,-1.494,-2.166
0.2,850002102.5917181,2.3074021339,85.70378452303697,4655.860935229591,1.467,0.371,-1.521,-2.196
0.2,850002102.5917181,2.3076677322,94.18895965228413,4625.940047661603,1.403,0.288,-1.632,-2.317
0.2,850002102.5917181,2.3079266548,103.5142166679344,4596.2114466600115,1.338,0.205,-1.743,-2.437
0.2,850002102.5917181,2.3081789017,113.50108156723155,4565.622502022357,1.275,0.123,-1.853,-2.557
0.2,850002102.5917181,2.3084242344,124.73835142429432,4535.237134514455,1.215,0.044,-1.962,-2.677
0.2,850002102.5917181,2.3086652756,136.77288255958496,4504.016781680873,1.155,-0.035,-2.072,-2.797
0.2,850002102.5917181,2.3089010715,150.31419660900224,4474.041415755961,1.096,-0.114,-2.182,-2.918
0.2,850002102.5917181,2.3091304302,164.81623915255085,4443.242331287159,1.039,-0.191,-2.29,-3.037
0.2,850002102.5917181,2.3093554974,180.71741260109275,4412.655266224519,0.984,-0.266,-2.399,-3.157
0.2,850002102.5917181,2.3095741272,197.696964011186,4382.278761036721,0.931,-0.34,-2.505,-3.274
0.2,850002102.5917181,2.3098249435,220.2926463053456,4346.102853675936,0.869,-0.427,-2.629,-3.409
0.2,850002102.5917181,2.3100347519,240.99054286865956,4315.19076827765,0.819,-0.501,-2.734,-3.523
0.2,850002102.5917181,2.3102881908,268.5344445658506,4278.583381637386,0.756,-0.592,-2.86,-3.661
0.2,850002102.5917181,2.3105347157,298.538261891796,4243.263484275837,0.695,-0.677,-2.982,-3.793
0.2,850002102.5917181,2.3107500076,325.0872973854344,4215.023497210444,0.647,-0.743,-3.079,-3.901
0.2,850002102.5917181,2.310849905,335.7376142429545,4204.36101081749,0.627,-0.769,-3.116,-3.941
0.2,850002102.5917181,2.3109071255,325.0872973854344,4215.023497210444,0.645,-0.745,-3.08,-3.901
0.2,850002102.5917181,2.3109722137,297.8516429429191,4245.2180293408355,0.697,-0.674,-2.977,-3.789
0.2,850002102.5917181,2.3110280037,273.5268726306711,4273.660314969303,0.744,-0.607,-2.88,-3.682
0.2,850002102.5917181,2.3111186028,244.9063241844744,4312.210969401274,0.807,-0.517,-2.752,-3.543
0.2,850002102.5917181,2.3112387657,218.77616239495518,4350.10760630697,0.87,-0.425,-2.622,-3.401
0.2,850002102.5917181,2.3113524914,199.9861869632745,4381.26982022493,0.92,-0.351,-2.517,-3.286
0.2,850002102.5917181,2.3114800453,182.38957023196383,4412.655266224519,0.974,-0.277,-2.41,-3.168
0.2,850002102.5917181,2.3116219044,166.72472125510626,4443.242331287159,1.026,-0.204,-2.304,-3.05
0.2,850002102.5917181,2.3117847443,152.40527537972906,4475.071720476557,1.081,-0.13,-2.196,-2.932
0.2,850002102.5917181,2.3119764328,138.99526312133526,4506.091435730975,1.137,-0.053,-2.088,-2.813
0.2,850002102.5917181,2.3121955395,126.76518658578462,4538.371047630816,1.194,0.024,-1.98,-2.693
0.2,850002102.5917181,2.3124294281,115.61122421920993,4569.82953285961,1.251,0.101,-1.871,-2.573
0.2,850002102.5917181,2.3126590252,105.92537251772886,4600.446663934778,1.309,0.177,-1.766,-2.458
0.2,850002102.5917181,2.312892437,97.05099672454898,4631.268924918746,1.367,0.253,-1.662,-2.345
0.2,850002102.5917181,2.3131427765,88.92011178579486,4662.297690149265,1.423,0.328,-1.559,-2.231
0.2,850002102.5917181,2.3134224415,81.47042840208397,4692.453741364405,1.485,0.405,-1.455,-2.117
0.2,850002102.5917181,2.3138442039,72.94575102545687,4731.512589614803,1.566,0.503,-1.325,-1.974
0.2,850002102.5917181,2.3143758774,65.46361740672751,4770.896554256487,1.646,0.6,-1.196,-1.832
0.2,850002102.5917181,2.3150682449,58.74893525297766,4810.608341479539,1.727,0.697,-1.068,-1.691
0.2,850002102.5917181,2.3160278797,52.84452517751805,4851.7677121925735,1.804,0.791,-0.942,-1.552
0.2,850002102.5917181,2.3175535202,47.86300923226383,4895.533198139543,1.874,0.879,-0.82,-1.417
0.2,850002102.5917181,2.3184585571,46.55860935229589,4907.948534495558,1.892,0.902,-0.788,-1.381
0.2,850002102.5917181,2.3195426464,46.77351412871981,4907.948534495558,1.888,0.898,-0.793,-1.385
0.2,850002102.5917181,2.3465766907,50.69907082747044,4906.818567679515,1.801,0.81,-0.881,-1.474
0.2,850002102.5917181,2.3703122139,54.57578610912711,4906.818567679515,1.723,0.731,-0.96,-1.553
0.2,850002102.5917181,2.3833909035,56.88529308438413,4906.818567679515,1.677,0.685,-1.006,-1.599
0.2,850002102.5917181,2.4091732502,62.373483548241914,4901.172634719431,1.582,0.586,-1.108,-1.702
0.2,850002102.5917181,2.431122303,67.92036326171846,4891.026321245936,1.498,0.498,-1.203,-1.8
0.2,850002102.5917181,2.4539089203,74.81695005111546,4871.918336436785,1.411,0.403,-1.313,-1.916
0.2,850002102.5917181,2.4684076309,79.79946872679764,4855.120352422797,1.355,0.34,-1.388,-1.996
0.2,850002102.5917181,2.4686262608,79.79946872679764,4855.120352422797,1.354,0.339,-1.39,-1.998
0.2,850002102.5917181,2.4760577679,83.94599865193973,4836.152643020435,1.317,0.295,-1.449,-2.063
0.2,850002102.5917181,2.4803378582,85.70378452303697,4829.475864447709,1.3,0.275,-1.474,-2.09
0.2,850002102.5917181,2.4885017872,92.46981739382225,4792.918012190856,1.25,0.21,-1.566,-2.194
0.2,850002102.5917181,2.4914844036,100.23052380778994,4752.257885621896,1.201,0.144,-1.666,-2.307
0.2,850002102.5917181,2.4926741123,109.39563662720941,4710.8578542037,1.152,0.072,-1.773,-2.427
0.2,850002102.5917181,2.4931936264,119.3988104464273,4671.969511718804,1.101,-0.001,-1.879,-2.546
0.2,850002102.5917181,2.4935092926,131.82567385564073,4630.202658603084,1.044,-0.082,-1.998,-2.679
0.2,850002102.5917181,2.4936537743,144.5439770745928,4593.037592608176,0.989,-0.158,-2.11,-2.802
0.2,850002102.5917181,2.4937348366,159.5879147236732,4555.121861657392,0.93,-0.24,-2.227,-2.932
0.2,850002102.5917181,2.4937367439,159.95580286146696,4554.07312683254,0.929,-0.242,-2.23,-2.936
0.2,850002102.5917181,2.4937551022,164.81623915255085,4543.599049293402,0.911,-0.266,-2.265,-2.975
0.2,850002102.5917181,2.4938104153,177.82794100389228,4514.399612669502,0.866,-0.329,-2.356,-3.076
0.2,850002102.5917181,2.493915081,184.07720014689562,4501.94308282431,0.845,-0.358,-2.398,-3.121
0.2,850002102.5917181,2.4941012859,179.06058540352947,4513.360253409558,0.861,-0.335,-2.364,-3.084
0.2,850002102.5917181,2.4944639206,171.39573075084252,4528.975799036209,0.886,-0.3,-2.313,-3.027
0.2,850002102.5917181,2.4967365265,173.38039977541374,4525.848373686597,0.88,-0.308,-2.325,-3.04
0.2,850002102.5917181,2.4981498718,188.79913490962926,4494.692652627942,0.83,-0.378,-2.425,-3.152
0.2,850002102.5917181,2.4991025925,208.92961308540387,4456.562483975033,0.771,-0.46,-2.546,-3.285
0.2,850002102.5917181,2.4998669624,230.14418174085088,4421.809210742687,0.718,-0.536,-2.66,-3.412
0.2,850002102.5917181,2.5005092621,252.92979964461446,4387.326951325295,0.666,-0.614,-2.77,-3.533
0.2,850002102.5917181,2.5010619164,277.3320104651841,4354.116049150633,0.614,-0.691,-2.878,-3.65
0.2,850002102.5917181,2.5015423298,304.088502567628,4321.1565447029925,0.564,-0.765,-2.985,-3.767
0.2,850002102.5917181,2.5019621849,332.65955329400435,4288.446534968204,0.514,-0.837,-3.089,-3.882
0.2,850002102.5917181,2.5023393631,364.75394692560764,4255.984131337431,0.462,-0.911,-3.196,-3.999
0.2,850002102.5917181,2.5026693344,399.02490236214203,4224.740129875454,0.412,-0.981,-3.299,-4.112
0.2,850002102.5917181,2.5029711723,435.51187368556833,4193.72549666233,0.362,-1.05,-3.401,-4.226
0.2,850002102.5917181,2.5032494068,476.4309868054156,4162.938547861454,0.31,-1.118,-3.503,-4.339
0.2,850002102.5917181,2.503508091,519.9959965335162,4132.377611997572,0.261,-1.183,-3.603,-4.452
0.2,850002102.5917181,2.5037479401,566.2392890382534,4102.041029866068,0.215,-1.244,-3.702,-4.563
0.2,850002102.5917181,2.5039710999,615.1768727098683,4071.927154442865,0.176,-1.301,-3.801,-4.675
0.2,850002102.5917181,2.5041816235,668.3439175686149,4043.8962050781943,0.14,-1.351,-3.898,-4.784
0.2,850002102.5917181,2.5043811798,724.4359600749899,4015.1335942882924,0.107,-1.399,-3.993,-4.891
0.2,850002102.5917181,2.5045740604,783.429642766212,3987.4936090417286,0.074,-1.447,-4.085,-4.996
0.2,850002102.5917181,2.5047647953,847.2274141405964,3960.0438961152527,0.045,-1.488,-4.178,-5.101
0.2,850002102.5917181,2.5049600601,920.4495717531712,3930.0674134185306,0.016,-1.529,-4.276,-5.212
0.2,850002102.5917181,2.5051653385,1016.2486928706959,3894.933077036545,-0.018,-1.578,-4.394,-5.346
0.2,850002102.5917181,2.5053565502,1188.502227437019,3838.8398990276855,-0.061,-1.638,-4.58,-5.558
0.2,850002102.5917181,2.5054457188,1291.2192736135348,3808.9037649813513,-0.081,-1.668,-4.679,-5.67
0.2,850002102.5917181,2.5055129528,1425.607593602188,3772.2459418486137,-0.091,-1.682,-4.799,-5.805
0.2,850002102.5917181,2.5055701733,1555.965631605075,3740.244560424048,-0.096,-1.691,-4.905,-5.925
0.2,850002102.5917181,2.5056269169,1698.2436524617442,3706.80721782576,-0.097,-1.693,-5.012,-6.046
0.2,850002102.5917181,2.505671978,1819.7008586099826,3681.289736425313,-0.087,-1.679,-5.096,-6.141
0.2,850002102.5917181,2.5057337284,1986.0949173573717,3647.5394692560767,-0.072,-1.659,-5.204,-6.263
0.2,850002102.5917181,2.5058050156,2172.7011788637456,3613.2665452345186,-0.045,-1.623,-5.312,-6.386
0.2,850002102.5917181,2.5058887005,2376.840286624876,3577.6676993611068,-0.004,-1.569,-5.424,-6.513
0.2,850002102.5917181,2.505982399,2618.1830082189863,3539.1583956694994,0.049,-1.499,-5.545,-6.65
0.2,850002102.5917181,2.5060148239,2851.0182675039096,3505.09666806693,0.114,-1.413,-5.65,-6.769
0.2,850002102.5917181,2.5060245991,3047.8949896279833,3477.763138547455,0.173,-1.339,-5.734,-6.864
0.2,850002102.5917181,2.5060276985,3097.419299216581,3471.362758876978,0.187,-1.321,-5.754,-6.887
0.2,850002102.5917181,2.5060327053,3162.2776601683795,3462.5814654379196,0.209,-1.293,-5.781,-6.917
0.2,850002102.5917181,2.506033659,3548.133892335753,3370.5439929348295,0.597,-0.821,-5.946,-7.121
0.2,850002102.5917181,2.5060348511,2290.8676527677726,3595.837026057048,-0.032,-1.605,-5.377,-6.458
0.2,850002102.5917181,2.5060348511,2202.9264630534562,3610.7714510035285,-0.051,-1.629,-5.33,-6.405
0.2,850002102.5917181,2.5060369968,1409.2887984218748,3799.2686147637874,-0.147,-1.742,-4.779,-5.773
0.2,850002102.5917181,2.5060400963,1230.268770812381,3858.335599053513,-0.136,-1.715,-4.612,-5.58
0.2,850002102.5917181,2.5060446262,1412.537544622754,3796.6450792221963,-0.142,-1.737,-4.78,-5.776
0.2,850002102.5917181,2.5060505867,1909.8532585662388,3666.9078820369723,-0.091,-1.683,-5.153,-6.204
0.2,850002102.5917181,2.5060582161,2606.153549998895,3537.5289282243193,0.061,-1.486,-5.539,-6.645
0.2,850002102.5917181,2.506067276,3258.367010020087,3445.8788144433506,0.266,-1.222,-5.821,-6.964
0.2,850002102.5917181,2.5060782433,3689.775985701505,3395.4707998402328,0.417,-1.033,-5.977,-7.141
0.2,850002102.5917181,2.5060908794,3908.4089579240213,3370.5439929348295,0.511,-0.917,-6.051,-7.225
0.2,850002102.5917181,2.506105423,4036.4539296760486,3354.2853083268956,0.579,-0.835,-6.094,-7.274
0.2,850002102.5917181,2.5061056614,3318.944575526103,3429.2567329756016,0.335,-1.139,-5.849,-6.999
0.2,850002102.5917181,2.5061068535,2540.972705549304,3536.7144758575937,0.09,-1.453,-5.512,-6.618
0.2,850002102.5917181,2.5061089993,1625.5487557504835,3721.3455600387106,-0.093,-1.689,-4.959,-5.988
0.2,850002102.5917181,2.5061123371,1415.793779957081,3780.941866832965,-0.105,-1.698,-4.787,-5.79
0.2,850002102.5917181,2.5061173439,1618.0800376430661,3723.059697665676,-0.093,-1.689,-4.953,-5.98
0.2,850002102.5917181,2.5061235428,2172.7011788637456,3599.979270433565,0.003,-1.567,-5.318,-6.397
0.2,850002102.5917181,2.506131649,2937.6496519615307,3476.9624461781286,0.21,-1.298,-5.694,-6.824
0.2,850002102.5917181,2.5061416626,3639.1503612720708,3392.3448954144324,0.446,-0.999,-5.965,-7.13
0.2,850002102.5917181,2.5061531067,4083.1938633269233,3346.5706661967974,0.616,-0.789,-6.11,-7.294
0.2,850002102.5917181,2.506166935,4295.364267648873,3327.3615980616237,0.695,-0.694,-6.172,-7.365
0.2,850002102.5917181,2.5061824322,4395.416154378243,3317.416496945389,0.735,-0.645,-6.203,-7.4
0.2,850002102.5917181,2.5061826706,3681.289736425313,3386.101717130323,0.47,-0.97,-5.979,-7.147
0.2,850002102.5917181,2.5061838627,2811.9008303989394,3493.8157638329217,0.18,-1.337,-5.639,-6.763
0.2,850002102.5917181,2.5061862469,1807.1741260109275,3677.053933782149,-0.065,-1.656,-5.089,-6.136
0.2,850002102.5917181,2.5061898232,1570.3628043335532,3737.6617831757117,-0.098,-1.693,-4.914,-5.936
0.2,850002102.5917181,2.5061950684,1790.6058540352947,3681.289736425313,-0.071,-1.662,-5.079,-6.124
0.2,850002102.5917181,2.5062017441,2393.3157564053877,3561.2298094276216,0.052,-1.503,-5.438,-6.534
0.2,850002102.5917181,2.5062105656,3213.660538640318,3441.9138826842905,0.302,-1.181,-5.808,-6.953
0.2,850002102.5917181,2.5062208176,3962.7803425543934,3359.69613691214,0.564,-0.854,-6.073,-7.251
0.2,850002102.5917181,2.5062334538,4436.086439314323,3317.416496945389,0.729,-0.652,-6.213,-7.41
0.2,850002102.5917181,2.5062477589,4655.860935229591,3300.6539952850767,0.804,-0.555,-6.272,-7.476
0.2,850002102.5917181,2.5062644482,4764.309868054156,3293.821044764936,0.835,-0.514,-6.299,-7.507
0.2,850002102.5917181,2.5062646866,4064.4332916521275,3355.057749988978,0.572,-0.842,-6.101,-7.281
0.2,850002102.5917181,2.5062658787,3097.419299216581,3462.5814654379196,0.229,-1.271,-5.759,-6.896
0.2,850002102.5917181,2.5062685013,1999.8618696327449,3644.181507888609,-0.068,-1.655,-5.212,-6.273
0.2,850002102.5917181,2.506272316,1733.8039977541375,3704.2475302995863,-0.109,-1.707,-5.036,-6.071
0.2,850002102.5917181,2.506278038,1976.96964011186,3646.699688942269,-0.065,-1.652,-5.199,-6.259
0.2,850002102.5917181,2.5062851906,2624.218543384442,3526.1436430685917,0.104,-1.433,-5.553,-6.664
0.2,850002102.5917181,2.5062944889,3507.5187395256794,3406.4341658307585,0.408,-1.048,-5.918,-7.077
0.2,850002102.5917181,2.5063056946,4305.266104917106,3322.0028446165034,0.725,-0.658,-6.178,-7.372
0.2,850002102.5917181,2.506319046,4797.334486366892,3277.177768051718,0.952,-0.367,-6.314,-7.53
0.2,850002102.5917181,2.5063345432,5023.4258952238715,3256.1169870485296,1.069,-0.216,-6.373,-7.598
0.2,850002102.5917181,2.5063524246,5140.436515824259,3244.1430790488475,1.139,-0.125,-6.401,-7.632
0.2,850002102.5917181,2.506352663,4487.453899331323,3296.097121774576,0.868,-0.479,-6.232,-7.438
0.2,850002102.5917181,2.5063540936,3419.794425137087,3404.081897010009,0.443,-1.009,-5.89,-7.051
0.2,850002102.5917181,2.5063567162,2213.094709605639,3583.43886814277,0.044,-1.518,-5.345,-6.432
0.2,850002102.5917181,2.5063607693,1918.668740670289,3645.0207083030436,-0.029,-1.613,-5.165,-6.226
0.2,850002102.5917181,2.5063667297,2177.709772353159,3590.0458899019936,0.038,-1.527,-5.325,-6.409
0.2,850002102.5917181,2.5063743591,2870.780582024692,3472.9617486579155,0.25,-1.253,-5.671,-6.804
0.2,850002102.5917181,2.5063841343,3801.8939632056126,3358.9226273449517,0.612,-0.8,-6.026,-7.205
0.2,850002102.5917181,2.5063958168,4634.46919736288,3279.4423443213464,0.968,-0.351,-6.274,-7.488
0.2,850002102.5917181,2.5064098835,5128.613839913648,3237.42711634235,1.188,-0.065,-6.402,-7.637
0.2,850002102.5917181,2.5064263344,5357.966575133417,3220.3271981675407,1.263,0.03,-6.455,-7.697
0.2,850002102.5917181,2.5064451694,5457.57861091271,3212.1809339879856,1.3,0.077,-6.478,-7.723
0.2,850002102.5917181,2.5064454079,4875.284901033865,3255.3673247163633,1.1,-0.18,-6.339,-7.565
0.2,850002102.5917181,2.5064468384,3715.352290971724,3363.566357483622,0.6,-0.816,-5.998,-7.175
0.2,850002102.5917181,2.5064492226,2421.0290467361774,3541.6040042646177,0.115,-1.429,-5.458,-6.562
0.2,850002102.5917181,2.5064532757,2094.1124558508936,3604.1262864914356,0.024,-1.546,-5.276,-6.354
0.2,850002102.5917181,2.5064589977,2376.840286624876,3549.7682446720896,0.101,-1.447,-5.435,-6.536
0.2,850002102.5917181,2.5064666271,3111.716337106017,3435.5794789987463,0.367,-1.108,-5.776,-6.923
0.2,850002102.5917181,2.5064761639,4092.6065973001096,3323.533035774775,0.765,-0.614,-6.122,-7.316
0.2,850002102.5917181,2.5064878464,4965.923214503363,3245.6374062026525,1.157,-0.108,-6.363,-7.593
0.2,850002102.5917181,2.5065014362,5495.408738576249,3204.7931228494,1.34,0.125,-6.49,-7.738
0.2,850002102.5917181,2.5065176487,5741.164622073275,3187.1316270228012,1.423,0.229,-6.543,-7.8
0.2,850002102.5917181,2.5065360069,5861.3816451402845,3178.3374121462216,1.47,0.286,-6.569,-7.831
0.2,850002102.5917181,2.5065362453,5370.317963702527,3212.9206511412604,1.311,0.088,-6.46,-7.705
0.2,850002102.5917181,2.5065376759,4083.1938633269233,3322.0028446165034,0.778,-0.599,-6.12,-7.315
0.2,850002102.5917181,2.5065402985,2673.0064086633115,3497.840484251412,0.21,-1.306,-5.583,-6.706
0.2,850002102.5917181,2.50654459,2306.747188720069,3561.2298094276216,0.087,-1.465,-5.397,-6.493
0.2,850002102.5917181,2.5065507889,2606.153549998895,3507.5187395256794,0.194,-1.328,-5.553,-6.671
0.2,850002102.5917181,2.5065586567,3388.441561392024,3395.4707998402328,0.497,-0.946,-5.884,-7.048
0.2,850002102.5917181,2.5065686703,4405.548635065535,3287.0022396877516,0.958,-0.37,-6.215,-7.426
0.2,850002102.5917181,2.506581068,5284.452517751803,3211.441387141269,1.33,0.11,-6.444,-7.69
0.2,850002102.5917181,2.5065956116,5807.644175213118,3172.488087350881,1.517,0.343,-6.561,-7.826
0.2,850002102.5917181,2.5066125393,6025.595860743575,3155.7311736800216,1.6,0.441,-6.607,-7.88
0.2,850002102.5917181,2.5066318512,6123.503917247734,3148.4731933873795,1.635,0.48,-6.626,-7.903
0.2,850002102.5917181,2.5066320896,5741.164622073275,3172.488087350881,1.526,0.352,-6.548,-7.813
0.2,850002102.5917181,2.5066335201,4365.158322401661,3282.4642137521723,0.999,-0.321,-6.209,-7.422
0.2,850002102.5917181,2.5066361427,2877.3984147356696,3457.0049388687194,0.331,-1.157,-5.681,-6.82
0.2,850002102.5917181,2.5066401958,2477.4220576332864,3521.2754591922267,0.183,-1.346,-5.491,-6.604
0.2,850002102.5917181,2.5066461563,2798.981319634363,3467.368504525317,0.302,-1.194,-5.644,-6.78
0.2,850002102.5917181,2.5066540241,3605.7864302164235,3358.1492958644226,0.663,-0.744,-5.967,-7.147
0.2,850002102.5917181,2.5066637993,4645.152752227492,3252.370400952974,1.17,-0.1,-6.287,-7.514
0.2,850002102.5917181,2.5066757202,5533.501092157366,3179.069335643364,1.51,0.33,-6.507,-7.768
0.2,850002102.5917181,2.5066897869,6067.363295885053,3141.2319059861875,1.687,0.537,-6.619,-7.899
0.2,850002102.5917181,2.5067064762,6280.58358813318,3124.640085806112,1.758,0.617,-6.663,-7.951
0.2,850002102.5917181,2.5067253113,6367.955209079156,3116.7358754452835,1.797,0.659,-6.681,-7.973
0.2,850002102.5917181,2.5067255497,6137.620051647939,3131.1220745994874,1.736,0.593,-6.634,-7.919
0.2,850002102.5917181,2.5067267418,4666.593803142887,3241.1564884384366,1.247,-0.004,-6.296,-7.528
0.2,850002102.5917181,2.506729126,3090.295432513592,3414.286807579689,0.485,-0.969,-5.777,-6.934
0.2,850002102.5917181,2.5067331791,2660.7250597988086,3480.166322150038,0.294,-1.208,-5.584,-6.714
0.2,850002102.5917181,2.5067384243,2999.16251898765,3427.6778654645045,0.444,-1.02,-5.737,-6.889
0.2,850002102.5917181,2.5067455769,3837.0724549227884,3321.2380132514595,0.837,-0.534,-6.053,-7.248
0.2,850002102.5917181,2.5067546368,4920.395356814511,3218.844524111849,1.35,0.127,-6.362,-7.605
0.2,850002102.5917181,2.506765604,5847.900841444806,3147.748314101317,1.673,0.522,-6.575,-7.852
0.2,850002102.5917181,2.5067784786,6397.348354826482,3111.716337106017,1.826,0.692,-6.687,-7.981
0.2,850002102.5917181,2.5067937374,6637.43070401909,3095.993213309174,1.893,0.766,-6.733,-8.035
0.2,850002102.5917181,2.506811142,6745.280276979222,3088.1614691845125,1.923,0.797,-6.755,-8.06
0.2,850002102.5917181,2.5068113804,6652.731562017413,3093.855315451652,1.903,0.777,-6.736,-8.039
0.2,850002102.5917181,2.5068125725,5058.246620031143,3204.7931228494,1.415,0.207,-6.398,-7.646
0.2,850002102.5917181,2.5068149567,3372.873086588689,3375.981048554255,0.617,-0.805,-5.887,-7.059
0.2,850002102.5917181,2.5068190098,2890.6798823654744,3443.4993076333844,0.398,-1.078,-5.691,-6.836
0.2,850002102.5917181,2.506824255,3250.872973854344,3391.5638690582196,0.561,-0.875,-5.841,-7.007
0.2,850002102.5917181,2.5068314075,4130.475019901614,3287.7591870669708,1.009,-0.315,-6.145,-7.356
0.2,850002102.5917181,2.5068404675,5236.0043658575005,3187.8655756958997,1.498,0.31,-6.442,-7.698
0.2,850002102.5917181,2.5068514347,6165.9500186148225,3119.60781764676,1.803,0.666,-6.645,-7.935
0.2,850002102.5917181,2.5068645477,6714.288529259523,3084.6081377571413,1.943,0.813,-6.749,-8.056
0.2,850002102.5917181,2.5068798065,6934.258060165695,3070.4356507300654,1.977,0.831,-6.79,-8.103
0.2,850002102.5917181,2.5068972111,7030.723198838334,3063.37384469643,1.995,0.842,-6.807,-8.123
0.2,850002102.5917181,2.5068974495,7079.457843841381,3060.5536720536616,2.003,0.846,-6.816,-8.134
0.2,850002102.5917181,2.5068986416,5382.697825162882,3171.757679067707,1.588,0.42,-6.479,-7.744
0.2,850002102.5917181,2.5069007874,3614.0986263961313,3341.950400261143,0.769,-0.621,-5.978,-7.164
0.2,850002102.5917181,2.5069041252,3090.295432513592,3409.5730529319967,0.511,-0.939,-5.779,-6.938
0.2,850002102.5917181,2.506909132,3467.368504525317,3358.1492958644226,0.7,-0.705,-5.927,-7.106
0.2,850002102.5917181,2.5069153309,4375.221051582521,3256.8668220166983,1.188,-0.087,-6.221,-7.446
0.2,850002102.5917181,2.5069234371,5508.076964054036,3160.0939904479483,1.651,0.496,-6.507,-7.778
0.2,850002102.5917181,2.5069334507,6456.542290346556,3093.855315451652,1.931,0.807,-6.703,-8.006
0.2,850002102.5917181,2.5069448948,6998.419960022738,3059.849034654997,2.016,0.859,-6.803,-8.121
0.2,850002102.5917181,2.5069587231,7227.698036021702,3045.089066974223,2.052,0.878,-6.842,-8.167
0.2,850002102.5917181,2.5069742203,7311.390834834172,3038.0855564655426,2.072,0.89,-6.859,-8.188
0.2,850002102.5917181,2.5069744587,7516.228940182053,3026.913428101305,2.1,0.903,-6.893,-8.227
0.2,850002102.5917181,2.5069756508,5727.960309858292,3138.340056432409,1.754,0.61,-6.556,-7.838
0.2,850002102.5917181,2.5069777966,3854.783576657717,3305.9783107043236,0.938,-0.414,-6.064,-7.266
0.2,850002102.5917181,2.5069811344,3296.097121774576,3375.2037896792626,0.645,-0.775,-5.863,-7.035
0.2,850002102.5917181,2.5069859028,3689.775985701505,3324.298395649131,0.857,-0.515,-6.008,-7.202
0.2,850002102.5917181,2.5069923401,4623.810213992603,3225.52193768908,1.365,0.137,-6.293,-7.532
0.2,850002102.5917181,2.5070004463,5767.664633922509,3131.1220745994874,1.792,0.652,-6.567,-7.852
0.2,850002102.5917181,2.5070102215,6714.288529259523,3066.9027151623077,2.02,0.873,-6.756,-8.071
0.2,850002102.5917181,2.507021904,7244.359600749898,3033.891184194272,2.1,0.913,-6.85,-8.181
0.2,850002102.5917181,2.5070354939,7464.487584100669,3019.9517204020162,2.137,0.933,-6.886,-8.224
0.2,850002102.5917181,2.5070509911,7550.922276654342,3013.006024186122,2.152,0.941,-6.901,-8.241
0.2,850002102.5917181,2.5070512295,7906.786279998253,2994.3323338672667,2.181,0.948,-6.958,-8.305
0.2,850002102.5917181,2.5070521832,6025.595860743575,3105.274521697761,1.915,0.788,-6.623,-7.92
0.2,850002102.5917181,2.5070540905,4073.802778041126,3271.899836231792,1.142,-0.155,-6.138,-7.356
0.2,850002102.5917181,2.5070571899,3475.3616144320576,3342.7200013786605,0.8,-0.588,-5.936,-7.123
0.2,850002102.5917181,2.5070614815,3890.4514499428046,3292.3045333340656,1.034,-0.295,-6.079,-7.287
0.2,850002102.5917181,2.5070672035,4852.88500162121,3195.2143648082215,1.517,0.324,-6.357,-7.609
0.2,850002102.5917181,2.5070743561,6011.737374832779,3103.1302147534125,1.931,0.805,-6.623,-7.922
0.2,850002102.5917181,2.5070831776,6982.324040771711,3040.88502567628,2.101,0.925,-6.806,-8.133
0.2,850002102.5917181,2.507093668,7516.228940182053,3008.846276645727,2.171,0.956,-6.898,-8.24
0.2,850002102.5917181,2.5071058273,7744.617978025183,2995.021883751126,2.195,0.964,-6.935,-8.282
0.2,850002102.5917181,2.5071196556,7852.356346100718,2988.133524568443,2.21,0.971,-6.951,-8.301
0.2,850002102.5917181,2.507119894,8356.030182312483,2962.7840637587915,2.251,0.982,-7.028,-8.389
0.2,850002102.5917181,2.5071208477,6367.955209079156,3073.972656082513,2.035,0.898,-6.695,-8.007
0.2,850002102.5917181,2.5071227551,4325.138310350088,3239.664224348446,1.336,0.093,-6.216,-7.449
0.2,850002102.5917181,2.5071256161,3681.289736425313,3311.311214825911,0.948,-0.41,-6.013,-7.213
0.2,850002102.5917181,2.5071299076,4111.497211045221,3261.3694594087888,1.22,-0.058,-6.152,-7.375
0.2,850002102.5917181,2.5071353912,5105.049999754065,3165.920463432239,1.679,0.522,-6.422,-7.689
0.2,850002102.5917181,2.5071423054,6280.58358813318,3075.3885988131847,2.04,0.905,-6.68,-7.991
0.2,850002102.5917181,2.50715065,7244.359600749898,3015.0880540378826,2.182,0.975,-6.855,-8.194
0.2,850002102.5917181,2.507160902,7780.365510398041,2984.0081159302204,2.234,0.992,-6.942,-8.294
0.2,850002102.5917181,2.5071725845,7979.946872679769,2970.9818591187295,2.259,1.002,-6.976,-8.333
0.2,850002102.5917181,2.507185936,8072.350302488382,2964.1487904584055,2.274,1.009,-6.989,-8.349
0.2,850002102.5917181,2.5071861744,8729.713683881113,2932.2432823031154,2.312,1.013,-7.084,-8.458
0.2,850002102.5917181,2.5071871281,6652.731562017413,3044.3879900225406,2.129,0.959,-6.753,-8.078
0.2,850002102.5917181,2.507188797,4539.416166502032,3208.484902035953,1.492,0.285,-6.28,-7.527
0.2,850002102.5917181,2.507191658,3863.669770540693,3281.708485445259,1.125,-0.185,-6.075,-7.289
0.2,850002102.5917181,2.5071954727,4305.266104917106,3231.4690444798844,1.397,0.166,-6.213,-7.45
0.2,850002102.5917181,2.5072007179,5308.8444423098845,3137.6175101187496,1.824,0.684,-6.475,-7.757
0.2,850002102.5917181,2.5072073936,6501.296903430909,3049.2989203838,2.126,0.962,-6.727,-8.05
0.2,850002102.5917181,2.5072152615,7464.487584100669,2989.5099278145867,2.248,1.014,-6.896,-8.245
0.2,850002102.5917181,2.5072247982,7998.342550070284,2959.3749953433894,2.302,1.032,-6.981,-8.343
0.2,850002102.5917181,2.5072360039,8203.515443298185,2945.7779023394583,2.324,1.04,-7.013,-8.381
0.2,850002102.5917181,2.5072486401,8279.421637123345,2939.002801171145,2.337,1.047,-7.026,-8.396
0.2,850002102.5917181,2.5072488785,9099.132726322518,2900.681198693153,2.371,1.042,-7.139,-8.524
0.2,850002102.5917181,2.5072495937,6934.258060165695,3013.006024186122,2.226,1.02,-6.809,-8.149
0.2,850002102.5917181,2.5072512627,4764.309868054156,3176.1426525728807,1.666,0.498,-6.343,-7.605
0.2,850002102.5917181,2.5072541237,4036.4539296760486,3250.124518861833,1.323,0.065,-6.136,-7.365
0.2,850002102.5917181,2.5072577,4497.798548932879,3200.368594586517,1.556,0.36,-6.272,-7.523
0.2,850002102.5917181,2.5072627068,5533.501092157366,3107.420310388586,1.979,0.855,-6.529,-7.825
0.2,850002102.5917181,2.5072689056,6729.766562843175,3020.64717004684,2.223,1.027,-6.774,-8.11
0.2,850002102.5917181,2.507276535,7691.304402866098,2962.1019360527644,2.324,1.059,-6.938,-8.299
0.2,850002102.5917181,2.5072855949,8222.426499470712,2931.568186062337,2.366,1.07,-7.02,-8.392
0.2,850002102.5917181,2.5072960854,8433.347577642757,2918.770848197142,2.383,1.075,-7.051,-8.429
0.2,850002102.5917181,2.5073082447,8511.380382023768,2911.3874126187557,2.397,1.081,-7.064,-8.445
0.2,850002102.5917181,2.5073084831,9462.37161365793,2867.477375581316,2.442,1.088,-7.191,-8.589
0.2,850002102.5917181,2.5073091984,7227.698036021702,2979.8884028194198,2.314,1.071,-6.864,-8.217
0.2,850002102.5917181,2.5073108673,4977.37084978936,3141.9552846410716,1.854,0.715,-6.404,-7.682
0.2,850002102.5917181,2.5073134899,4216.965034285822,3216.6217928790406,1.512,0.299,-6.196,-7.439
0.2,850002102.5917181,2.5073170662,4688.13382145265,3167.3787594444734,1.746,0.591,-6.33,-7.596
0.2,850002102.5917181,2.507322073,5741.164622073275,3075.3885988131847,2.121,0.991,-6.581,-7.892
0.2,850002102.5917181,2.5073280334,6950.243175887969,2990.198367170568,2.309,1.079,-6.818,-8.167
0.2,850002102.5917181,2.5073354244,7906.786279998253,2932.9185340084423,2.397,1.105,-6.977,-8.349
0.2,850002102.5917181,2.5073442459,8433.347577642757,2903.3540555153136,2.43,1.109,-7.055,-8.439
0.2,850002102.5917181,2.5073544979,8629.785477669702,2890.6798823654744,2.45,1.115,-7.085,-8.474
0.2,850002102.5917181,2.5073661804,8709.635899560806,2883.367506780263,2.465,1.123,-7.096,-8.488
0.2,850002102.5917181,2.5073664188,9794.89985408699,2834.0010055090956,2.521,1.152,-7.238,-8.646
0.2,850002102.5917181,2.5073671341,7481.6950051115455,2946.4562708650446,2.404,1.125,-6.913,-8.28
0.2,850002102.5917181,2.5073685646,5176.068319505676,3107.420310388586,2.037,0.916,-6.458,-7.754
0.2,850002102.5917181,2.5073711872,4385.306977749856,3183.464417556432,1.697,0.523,-6.25,-7.508
0.2,850002102.5917181,2.5073745251,4875.284901033865,3134.007273083861,1.926,0.792,-6.382,-7.665
0.2,850002102.5917181,2.507379055,5942.921586155727,3043.6870744812113,2.231,1.067,-6.63,-7.955
0.2,850002102.5917181,2.5073847771,7177.942912713615,2960.0564950758185,2.394,1.132,-6.862,-8.223
0.2,850002102.5917181,2.5073916912,8147.042840208396,2904.022654464451,2.46,1.142,-7.017,-8.4
0.2,850002102.5917181,2.5074000359,8669.61875758217,2875.4114646740045,2.493,1.149,-7.094,-8.488
0.2,850002102.5917181,2.507409811,8892.011178579482,2862.859270872121,2.514,1.163,-7.124,-8.523
0.2,850002102.5917181,2.5074207783,8994.975815300355,2855.617271381299,2.528,1.173,-7.138,-8.538
0.2,850002102.5917181,2.5074210167,10209.394837076808,2802.205621666745,2.588,1.211,-7.292,-8.71
0.2,850002102.5917181,2.5074217319,7816.278045883293,2914.070134770806,2.468,1.16,-6.97,-8.349
0.2,850002102.5917181,2.5074231625,5420.008904016238,3073.972656082513,2.182,1.052,-6.52,-7.832
0.2,850002102.5917181,2.5074255466,4581.418867145335,3149.923452784473,1.883,0.742,-6.311,-7.585
0.2,850002102.5917181,2.5074288845,5093.308710571952,3100.2734419981916,2.104,0.986,-6.441,-7.741
0.2,850002102.5917181,2.507433176,6180.164001384158,3010.925432053001,2.338,1.136,-6.684,-8.024
0.2,850002102.5917181,2.5074386597,7430.191378967013,2928.195035574271,2.471,1.178,-6.911,-8.284
0.2,850002102.5917181,2.5074453354,8413.951416451948,2872.1029297978343,2.532,1.188,-7.061,-8.455
0.2,850002102.5917181,2.5074534416,8933.054837332953,2843.151486273759,2.575,1.216,-7.135,-8.54
0.2,850002102.5917181,2.5074625015,9141.132414702499,2829.43681487211,2.602,1.235,-7.165,-8.574
0.2,850002102.5917181,2.5074732304,9246.98173938223,2820.97995366343,2.624,1.252,-7.177,-8.589
0.2,850002102.5917181,2.5074734688,10616.955571987242,2762.4854546315764,2.659,1.289,-7.345,-8.772
0.2,850002102.5917181,2.507474184,8128.305161640995,2874.7494529363703,2.556,1.216,-7.023,-8.417
0.2,850002102.5917181,2.5074756145,5662.3928903825345,3033.891184194272,2.325,1.151,-6.58,-7.91
0.2,850002102.5917181,2.5074779987,4775.2927365769065,3110.283668685142,2.101,0.98,-6.368,-7.663
0.2,850002102.5917181,2.5074810982,5296.634438916581,3060.5536720536616,2.265,1.123,-6.498,-7.816
0.2,850002102.5917181,2.5074856281,6412.095765851615,2971.666031738025,2.457,1.211,-6.735,-8.091
0.2,850002102.5917181,2.5074908733,7673.614893618185,2889.348981559081,2.565,1.236,-6.956,-8.344
0.2,850002102.5917181,2.5074975491,8629.785477669702,2834.653633489668,2.636,1.275,-7.1,-8.507
0.2,850002102.5917181,2.5075054169,9162.204901220002,2804.78773734921,2.678,1.308,-7.172,-8.587
0.2,850002102.5917181,2.5075147152,9354.05674147552,2790.6154863980737,2.699,1.33,-7.2,-8.619
0.2,850002102.5917181,2.5075252056,9440.608762859236,2781.6340890110087,2.717,1.35,-7.211,-8.632
0.2,850002102.5917181,2.507525444,10939.563662720931,2719.5684860989204,2.745,1.394,-7.391,-8.828
0.2,850002102.5917181,2.5075261593,8394.599865193974,2831.391995799379,2.674,1.313,-7.07,-8.478
0.2,850002102.5917181,2.5075273514,5861.3816451402845,2990.198367170568,2.471,1.249,-6.633,-7.981
0.2,850002102.5917181,2.5075297356,4943.106869868354,3067.608976917938,2.3,1.167,-6.421,-7.735
0.2,850002102.5917181,2.507532835,5482.769649208536,3019.256430871959,2.425,1.236,-6.549,-7.886
0.2,850002102.5917181,2.5075368881,6606.934480075957,2932.2432823031154,2.571,1.286,-6.781,-8.152
0.2,850002102.5917181,2.5075421333,7870.457896950985,2854.3025137865798,2.659,1.31,-6.994,-8.394
0.2,850002102.5917181,2.5075485706,8851.156098308356,2802.8509276466875,2.724,1.354,-7.135,-8.551
0.2,850002102.5917181,2.5075559616,9375.620069258803,2777.154235884665,2.745,1.375,-7.204,-8.627
0.2,850002102.5917181,2.5075647831,9571.94071294844,2766.9416454115126,2.755,1.385,-7.231,-8.657
0.2,850002102.5917181,2.5075747967,9638.290236239705,2763.121613652023,2.762,1.391,-7.241,-8.668
0.2,850002102.5917181,2.5075750351,11297.959146727977,2697.7394324449206,2.794,1.443,-7.433,-8.877
0.2,850002102.5917181,2.5075757504,8669.61875758217,2806.725885414676,2.741,1.367,-7.113,-8.529
0.2,850002102.5917181,2.5075769424,6081.350012787177,2960.0564950758185,2.569,1.308,-6.682,-8.044
0.2,850002102.5917181,2.5075790882,5116.818355403078,3035.2886644741984,2.43,1.257,-6.47,-7.8
0.2,850002102.5917181,2.5075821877,5662.3928903825345,2986.070107816526,2.534,1.304,-6.597,-7.947
0.2,850002102.5917181,2.5075862408,6823.3869414166975,2902.017319380225,2.656,1.336,-6.825,-8.209
0.2,850002102.5917181,2.5075912476,8090.958991783821,2825.530502459557,2.753,1.383,-7.033,-8.443
0.2,850002102.5917181,2.5075974464,9078.205301781862,2775.2365081372714,2.796,1.422,-7.17,-8.595
0.2,850002102.5917181,2.507604599,9594.006315159337,2749.7929868950655,2.819,1.448,-7.238,-8.67
0.2,850002102.5917181,2.5076131821,9794.89985408699,2739.6810135310225,2.832,1.462,-7.265,-8.699
0.2,850002102.5917181,2.5076229572,9885.53094656939,2734.6389799122753,2.841,1.47,-7.276,-8.712
0.2,850002102.5917181,2.5076231956,11694.9939101987,2668.701501643408,2.86,1.525,-7.478,-8.931
0.2,850002102.5917181,2.5076236725,8974.287945007482,2769.491266809683,2.837,1.459,-7.162,-8.589
0.2,850002102.5917181,2.507625103,6309.57344480193,2909.3769918965468,2.724,1.409,-6.74,-8.121
0.2,850002102.5917181,2.5076270103,5308.8444423098845,2976.459653637275,2.656,1.412,-6.529,-7.883
0.2,850002102.5917181,2.5076301098,5874.893525297769,2925.499309897072,2.746,1.447,-6.656,-8.031
0.2,850002102.5917181,2.5076339245,7046.930689671467,2839.880070698581,2.86,1.494,-6.878,-8.284
0.2,850002102.5917181,2.5076386929,8336.81184619634,2761.213575949454,2.945,1.567,-7.083,-8.512
0.2,850002102.5917181,2.5076446533,9311.078754678301,2708.3201442989516,2.994,1.63,-7.219,-8.664
0.2,850002102.5917181,2.5076515675,9817.479430199845,2681.0196680906333,3.026,1.673,-7.287,-8.739
0.2,850002102.5917181,2.5076596737,10023.052380779005,2672.3909970469035,3.039,1.688,-7.312,-8.768
0.2,850002102.5917181,2.507668972,10115.794542598982,2676.0855931993333,3.039,1.674,-7.322,-8.78
0.2,850002102.5917181,2.507668972,12078.138351067797,2601.956310263152,3.048,1.756,-7.532,-9.005
0.2,850002102.5917181,2.5076692104,9289.663867799363,2710.1916318908416,3.029,1.642,-7.219,-8.668
0.2,850002102.5917181,2.5076699257,6531.305526474723,2859.565178927503,2.932,1.553,-6.794,-8.198
0.2,850002102.5917181,2.5076706409,5470.159628939716,2933.593941214125,2.855,1.541,-6.579,-7.954
0.2,850002102.5917181,2.5076720715,6025.595860743575,2882.0399726720025,2.928,1.563,-6.699,-8.096
0.2,850002102.5917181,2.507673502,7177.942912713615,2797.692637854652,3.035,1.637,-6.912,-8.335
0.2,850002102.5917181,2.5076756477,8394.599865193974,2722.701308077913,3.093,1.706,-7.107,-8.551
0.2,850002102.5917181,2.5076780319,9289.663867799363,2673.0064086633115,3.126,1.771,-7.231,-8.687
0.2,850002102.5917181,2.5076811314,9727.47223776965,2646.671251273346,3.149,1.828,-7.286,-8.747
0.2,850002102.5917181,2.5076844692,9817.479430199845,2634.5109014660343,3.178,1.874,-7.301,-8.765
0.2,850002102.5917181,2.5076885223,9794.89985408699,2628.451694533876,3.202,1.904,-7.299,-8.766
0.2,850002102.5917181,2.5076885223,11748.975549395303,2565.665297034867,3.106,1.81,-7.504,-8.981
0.2,850002102.5917181,2.5076887608,9036.494737223014,2657.6635495543114,3.196,1.861,-7.203,-8.662
0.2,850002102.5917181,2.507689476,6367.955209079156,2784.1972488835645,3.184,1.796,-6.786,-8.211
0.2,850002102.5917181,2.5076901913,5333.348954876208,2850.3618718608886,3.145,1.776,-6.573,-7.978
0.2,850002102.5917181,2.5076913834,5874.893525297769,2814.4918798121453,3.184,1.793,-6.689,-8.106
0.2,850002102.5917181,2.5076928139,6982.324040771711,2752.9606261551385,3.193,1.8,-6.896,-8.332
0.2,850002102.5917181,2.5076949596,8165.823713585923,2701.4690729572467,3.191,1.809,-7.084,-8.535
0.2,850002102.5917181,2.5076973438,9036.494737223014,2673.6219619997937,3.169,1.805,-7.201,-8.66
0.2,850002102.5917181,2.5076999664,9462.37161365793,2668.701501643408,3.14,1.782,-7.252,-8.712
0.2,850002102.5917181,2.5077033043,9571.94071294844,2677.934806259706,3.107,1.734,-7.262,-8.722
0.2,850002102.5917181,2.507707119,9549.92586021436,2695.876543557444,3.063,1.667,-7.256,-8.712
0.2,850002102.5917181,2.507707119,11481.536214968817,2643.0172644776535,3.047,1.718,-7.472,-8.943
0.2,850002102.5917181,2.5077073574,8830.799004185632,2720.821182091787,3.08,1.67,-7.165,-8.616
0.2,850002102.5917181,2.5077078342,6237.348354824191,2828.7853879701315,3.117,1.709,-6.754,-8.17
0.2,850002102.5917181,2.5077087879,5211.947111050806,2888.0186935140546,3.086,1.718,-6.542,-7.937
0.2,850002102.5917181,2.5077097416,5741.164622073275,2865.4972763642395,3.074,1.686,-6.655,-8.058
0.2,850002102.5917181,2.5077114105,6823.3869414166975,2824.8799749157074,3.047,1.625,-6.855,-8.275
0.2,850002102.5917181,2.5077130795,7979.946872679769,2795.1170539918453,2.976,1.543,-7.035,-8.466
0.2,850002102.5917181,2.5077154636,8810.488730080138,2788.04641783178,2.893,1.458,-7.146,-8.579
0.2,850002102.5917181,2.5077180862,9225.71427154763,2802.8509276466875,2.803,1.365,-7.19,-8.62
0.2,850002102.5917181,2.5077211857,9332.543007969914,2833.3485277843724,2.694,1.262,-7.195,-8.614
0.2,850002102.5917181,2.507724762,9311.078754678301,2876.073628863028,2.554,1.146,-7.182,-8.585
0.2,850002102.5917181,2.507724762,11246.049739669268,2832.044022964096,2.51,1.073,-7.398,-8.82
0.2,850002102.5917181,2.5077250004,8649.67918775693,2898.6781710077653,2.562,1.173,-7.096,-8.49
0.2,850002102.5917181,2.5077254772,6123.503917247734,2991.575721530859,2.636,1.344,-6.691,-8.042
0.2,850002102.5917181,2.5077261925,5116.818355403078,3047.8949896279833,2.614,1.384,-6.479,-7.801
0.2,850002102.5917181,2.5077271461,5636.376558259543,3040.1849166294414,2.551,1.309,-6.586,-7.913
0.2,850002102.5917181,2.5077285767,6668.067692136218,3020.64717004684,2.447,1.185,-6.776,-8.113
0.2,850002102.5917181,2.5077302456,7780.365510398041,3014.3938842794687,2.303,1.034,-6.945,-8.285
0.2,850002102.5917181,2.5077321529,8570.378452303692,3030.4002977883647,2.135,0.883,-7.045,-8.377
0.2,850002102.5917181,2.5077347755,8953.647655495937,3070.4356507300654,1.927,0.715,-7.08,-8.39
0.2,850002102.5917181,2.5077373981,9036.494737223014,3131.1220745994874,1.641,0.402,-7.078,-8.352
0.2,850002102.5917181,2.507740736,8994.975815300355,3208.484902035953,1.176,-0.188,-7.057,-8.284
