FeH,Age,Mini,L,Te,Bmag,Vmag,Jmag,Kmag
-0.8,1750007862.8829043,0.090000011,0.0005357966575133417,2685.962840260098,19.114,17.081,10.831,10.242
-0.8,1750007862.8829043,0.0905579701,0.0005508076964054036,2697.1183264949354,19.019,16.994,10.805,10.209
-0.8,1750007862.8829043,0.0939561948,0.0006576578373554205,2764.3943712203372,18.474,16.494,10.645,10.018
-0.8,1750007862.8829043,0.0994170234,0.0008649679187756929,2872.7643320808324,17.626,15.705,10.399,9.722
-0.8,1750007862.8829043,0.1150754392,0.0014487718535447617,3058.4402465105513,16.245,14.411,9.924,9.184
-0.8,1750007862.8829043,0.1182510555,0.001595879147236732,3094.567783987401,15.999,14.182,9.836,9.087
-0.8,1750007862.8829043,0.1370850801,0.002426610095082414,3232.9575336809407,15.06,13.321,9.437,8.664
-0.8,1750007862.8829043,0.1559191346,0.0033419504002611426,3326.5955329400435,14.433,12.75,9.13,8.345
-0.8,1750007862.8829043,0.1778212786,0.004446312674691089,3400.9480651219096,13.924,12.291,8.846,8.056
-0.8,1750007862.8829043,0.1935872138,0.005357966575133417,3449.848313627505,13.604,12.004,8.663,7.87
-0.8,1750007862.8829043,0.2406722903,0.008317637711026709,3552.2211848231955,12.899,11.365,8.222,7.424
-0.8,1750007862.8829043,0.2877573967,0.011803206356517298,3629.108896409478,12.365,10.878,7.869,7.067
-0.8,1750007862.8829043,0.3270499408,0.015703628043335523,3681.289736425313,11.961,10.504,7.58,6.774
-0.8,1750007862.8829043,0.3348424733,0.016557699634695285,3690.6256858412085,11.887,10.435,7.526,6.72
-0.8,1750007862.8829043,0.3819275498,0.02301441817408509,3771.3774501139746,11.399,9.99,7.197,6.388
-0.8,1750007862.8829043,0.4290127158,0.032433961734934916,3880.6100135487018,10.86,9.509,6.859,6.05
-0.8,1750007862.8829043,0.4760977626,0.04731512589614805,4033.6666088992683,10.238,8.971,6.492,5.692
-0.8,1750007862.8829043,0.523182869,0.0706317554262962,4251.087068046156,9.526,8.378,6.114,5.336
-0.8,1750007862.8829043,0.5702679157,0.1054386896391259,4528.975799036209,8.744,7.749,5.753,5.036
-0.8,1750007862.8829043,0.6173529625,0.1538154640303035,4819.477976251272,8.04,7.171,5.43,4.795
-0.8,1750007862.8829043,0.6644381285,0.21928049353504486,5101.5247738556045,7.444,6.667,5.136,4.588
-0.8,1750007862.8829043,0.6732074618,0.23388372386593548,5155.846748750552,7.342,6.581,5.085,4.551
-0.8,1750007862.8829043,0.7127447128,0.30902954325135906,5396.348637300686,6.909,6.217,4.862,4.388
-0.8,1750007862.8829043,0.7453632355,0.3845917820453536,5585.9880205725585,6.588,5.945,4.688,4.255
-0.8,1750007862.8829043,0.7610512972,0.4255984131337431,5676.753024298228,6.441,5.821,4.608,4.192
-0.8,1750007862.8829043,0.7681933641,0.4456562483975033,5712.1552162304315,6.378,5.767,4.571,4.161
-0.8,1750007862.8829043,0.8093579412,0.5767664633922508,5912.89272693748,6.026,5.469,4.362,3.989
-0.8,1750007862.8829043,0.8450248241,0.7144963260755134,6064.569815101367,5.742,5.225,4.182,3.835
-0.8,1750007862.8829043,0.8576644659,0.7709034690644301,6117.866558211328,5.645,5.14,4.12,3.781
-0.8,1750007862.8829043,0.8912559152,0.9375620069258802,6248.848563929625,5.394,4.922,3.953,3.636
-0.8,1750007862.8829043,0.9059710503,1.02093948370768,6303.764788294872,5.287,4.828,3.881,3.573
-0.8,1750007862.8829043,0.9327017665,1.1857687481671602,6404.717815693422,5.097,4.661,3.754,3.461
-0.8,1750007862.8829043,0.9542776346,1.3365955165464423,6484.850971441381,4.946,4.528,3.652,3.371
-0.8,1750007862.8829043,0.9563087225,1.3520725631942772,6493.816315762113,4.932,4.516,3.642,3.363
-0.8,1750007862.8829043,0.9864136577,1.5922087270511702,6606.934480075957,4.727,4.333,3.503,3.241
-0.8,1750007862.8829043,1.002584219,1.733803997754138,6668.067692136218,4.619,4.236,3.429,3.176
-0.8,1750007862.8829043,1.0129748583,1.8323144223712116,6709.652064618787,4.55,4.175,3.383,3.136
-0.8,1750007862.8829043,1.0382344723,2.0941124558508926,6809.26129679685,4.383,4.026,3.272,3.039
-0.8,1750007862.8829043,1.0508908033,2.2335722228305315,6859.619085293151,4.301,3.952,3.217,2.991
-0.8,1750007862.8829043,1.0712190866,2.4774220576332855,6948.643007488283,4.17,3.835,3.133,2.92
-0.8,1750007862.8829043,1.0906053782,2.735268726306712,7032.342269076595,4.046,3.725,3.054,2.852
-0.8,1750007862.8829043,1.0991973877,2.857590543374947,7069.6839644940255,3.991,3.676,3.019,2.822
-0.8,1750007862.8829043,1.1220605373,3.1915378551007616,7184.557087925965,3.847,3.549,2.933,2.751
-0.8,1750007862.8829043,1.1461174488,3.5892193464500526,7302.978128733656,3.698,3.417,2.844,2.677
-0.8,1750007862.8829043,1.1475039721,3.6140986263961334,7309.707518686013,3.689,3.41,2.839,2.673
-0.8,1750007862.8829043,1.1642961502,3.90840895792402,7406.277836681551,3.586,3.32,2.783,2.629
-0.8,1750007862.8829043,1.1958105564,4.539416166502032,7582.283175716292,3.396,3.153,2.678,2.544
-0.8,1750007862.8829043,1.2213109732,5.105049999754062,7728.585218603322,3.246,3.022,2.596,2.478
-0.8,1750007862.8829043,1.2441170216,5.662392890382533,7852.356346100718,3.115,2.907,2.523,2.418
-0.8,1750007862.8829043,1.2752219439,6.501296903430906,8005.712689353624,2.942,2.754,2.419,2.329
-0.8,1750007862.8829043,1.2924238443,7.030723198838334,8085.371885255472,2.848,2.671,2.361,2.278
-0.8,1750007862.8829043,1.3305051327,8.31763771102671,8250.874854788077,2.643,2.491,2.23,2.16
-0.8,1750007862.8829043,1.3407303095,8.709635899560805,8287.05077906983,2.589,2.442,2.192,2.126
-0.8,1750007862.8829043,1.3516558409,9.162204901219997,8313.808179156222,2.531,2.389,2.147,2.082
-0.8,1750007862.8829043,1.3790385723,10.375284158180126,8350.260034320117,2.388,2.253,2.023,1.961
-0.8,1750007862.8829043,1.3890368938,10.889300933334333,8354.106356756141,2.335,2.203,1.974,1.913
-0.8,1750007862.8829043,1.4011598825,11.508003889444357,8350.260034320117,2.272,2.141,1.913,1.851
-0.8,1750007862.8829043,1.4185652733,12.473835142429433,8315.722724645895,2.182,2.049,1.813,1.75
-0.8,1750007862.8829043,1.4367330074,13.583134465871542,8250.874854788077,2.091,1.953,1.701,1.633
-0.8,1750007862.8829043,1.4373434782,13.614446824659497,8247.076061270787,2.088,1.949,1.697,1.629
-0.8,1750007862.8829043,1.438442111,13.677288255958487,8243.279016759807,2.083,1.943,1.69,1.622
-0.8,1750007862.8829043,1.4553607702,14.791083881682072,8139.542590972682,2.002,1.851,1.572,1.496
-0.8,1750007862.8829043,1.4709194899,15.88546748597779,8005.712689353624,1.932,1.766,1.45,1.363
-0.8,1750007862.8829043,1.484778285,16.982436524617444,7863.212274584181,1.873,1.69,1.332,1.234
-0.8,1750007862.8829043,1.4856500626,17.060823890031234,7852.356346100718,1.869,1.685,1.324,1.225
-0.8,1750007862.8829043,1.4910390377,17.498466886246575,7792.916089802483,1.847,1.656,1.277,1.172
-0.8,1750007862.8829043,1.5025988817,18.663796908346693,7671.848181899857,1.792,1.587,1.17,1.053
-0.8,1750007862.8829043,1.5067199469,19.098532585662376,7643.636049263664,1.768,1.559,1.134,1.014
-0.8,1750007862.8829043,1.5119765997,20.32357010936222,7818.078017635865,1.674,1.49,1.122,1.02
-0.8,1750007862.8829043,1.5136567354,21.086281499332898,7972.600453665317,1.616,1.454,1.134,1.046
-0.8,1750007862.8829043,1.5143778324,21.827299118430012,8147.042840208396,1.561,1.424,1.153,1.08
-0.8,1750007862.8829043,1.514752388,22.646443075930595,8325.302067492423,1.507,1.394,1.171,1.11
-0.8,1750007862.8829043,1.5149714947,23.65919697485759,8505.502958970947,1.453,1.363,1.183,1.133
-0.8,1750007862.8829043,1.5151119232,24.774220576332848,8669.61875758217,1.407,1.334,1.188,1.147
-0.8,1750007862.8829043,1.5151758194,25.23480772480574,8737.757751180196,1.388,1.321,1.189,1.153
-0.8,1750007862.8829043,1.5152491331,24.043628000069333,8582.227050540156,1.437,1.355,1.192,1.146
-0.8,1750007862.8829043,1.515316844,23.442288153199225,8381.080267271636,1.466,1.362,1.152,1.095
-0.8,1750007862.8829043,1.5154008865,23.87811282913177,8169.585080397146,1.458,1.327,1.064,0.992
-0.8,1750007862.8829043,1.5155185461,24.717241450161303,7952.4326553339615,1.436,1.278,0.955,0.867
-0.8,1750007862.8829043,1.5156735182,25.40972705549305,7742.834919124594,1.432,1.244,0.857,0.75
-0.8,1750007862.8829043,1.5158749819,25.82260190634596,7533.55563733717,1.444,1.228,0.773,0.644
-0.8,1750007862.8829043,1.5161275864,26.06153549998895,7329.932916517789,1.467,1.221,0.696,0.544
-0.8,1750007862.8829043,1.5164256096,26.18183008218985,7130.171895014071,1.498,1.223,0.626,0.449
-0.8,1750007862.8829043,1.5167517662,26.24218543384442,6940.647689943377,1.535,1.23,0.563,0.361
-0.8,1750007862.8829043,1.5170843601,26.18183008218985,6767.059576741911,1.575,1.241,0.507,0.28
-0.8,1750007862.8829043,1.5174081326,26.06153549998895,6606.934480075957,1.619,1.256,0.459,0.209
-0.8,1750007862.8829043,1.5177352428,25.88212915153092,6456.542290346556,1.668,1.275,0.417,0.143
-0.8,1750007862.8829043,1.5180853605,25.527013026612472,6311.026445054064,1.726,1.301,0.383,0.086
-0.8,1750007862.8829043,1.518491745,24.94594726942955,6161.692202002784,1.8,1.341,0.359,0.035
-0.8,1750007862.8829043,1.5189377069,23.933157564053875,6011.737374832779,1.897,1.401,0.354,0.003
-0.8,1750007862.8829043,1.5192915201,22.750974307720703,5899.293451041436,1.996,1.469,0.371,-0.001
-0.8,1750007862.8829043,1.5196352005,21.428906011200585,5792.952933981774,2.104,1.549,0.402,0.009
-0.8,1750007862.8829043,1.5199619532,20.23019178678272,5696.3937334118355,2.206,1.624,0.433,0.019
-0.8,1750007862.8829043,1.5203882456,19.275249131909355,5580.845504054144,2.308,1.696,0.448,0.01
-0.8,1750007862.8829043,1.5204946995,19.098532585662376,5553.924862434803,2.329,1.709,0.448,0.003
-0.8,1750007862.8829043,1.5210419893,20.32357010936222,5460.092497542736,2.305,1.66,0.35,-0.117
-0.8,1750007862.8829043,1.5215876102,22.335722228305315,5391.380704697852,2.236,1.571,0.224,-0.259
-0.8,1750007862.8829043,1.5220227242,24.434305526939713,5350.569381731372,2.157,1.48,0.111,-0.382
-0.8,1750007862.8829043,1.5224407911,26.853444456585077,5318.632707726801,2.072,1.386,0.0,-0.5
-0.8,1750007862.8829043,1.5228482485,29.44421633798762,5290.539972095819,1.986,1.291,-0.109,-0.615
-0.8,1750007862.8829043,1.5232474804,32.210687912834345,5265.019693769153,1.9,1.197,-0.216,-0.729
-0.8,1750007862.8829043,1.523645401,35.3183169791957,5239.622519059377,1.815,1.105,-0.322,-0.841
-0.8,1750007862.8829043,1.5240421295,38.54783576657719,5215.548640348755,1.733,1.014,-0.428,-0.953
-0.8,1750007862.8829043,1.5244380236,42.169650342858226,5191.585371063544,1.651,0.925,-0.532,-1.064
-0.8,1750007862.8829043,1.5248329639,46.025657358135604,5167.732202999587,1.571,0.836,-0.634,-1.173
-0.8,1750007862.8829043,1.5253254175,51.16818355403078,5138.069802323445,1.472,0.727,-0.762,-1.308
-0.8,1750007862.8829043,1.5257729292,56.36376558259543,5112.107761177404,1.384,0.63,-0.875,-1.429
-0.8,1750007862.8829043,1.5262253284,62.08690342300634,5085.1058793510465,1.297,0.534,-0.989,-1.551
-0.8,1750007862.8829043,1.5267418623,69.3425806016569,5053.589947531675,1.199,0.425,-1.118,-1.689
-0.8,1750007862.8829043,1.5271350145,75.33555637337174,5029.2126585044525,1.125,0.342,-1.216,-1.794
-0.8,1750007862.8829043,1.5275713205,82.41381150130022,5002.648624210056,1.044,0.251,-1.325,-1.91
-0.8,1750007862.8829043,1.5280647278,91.41132414702504,4972.788632333997,0.956,0.151,-1.445,-2.039
-0.8,1750007862.8829043,1.5285454988,100.46157902783946,4944.245193336823,0.874,0.056,-1.558,-2.16
-0.8,1750007862.8829043,1.5290583372,110.9174815262401,4914.733801992678,0.79,-0.04,-1.674,-2.284
-0.8,1750007862.8829043,1.5295869112,121.6186000646368,4886.523593428336,0.712,-0.131,-1.785,-2.403
-0.8,1750007862.8829043,1.5301759243,132.43415351946643,4861.832584649837,0.642,-0.212,-1.884,-2.511
-0.8,1750007862.8829043,1.5307205915,138.99526312133526,4847.301126243664,0.601,-0.26,-1.943,-2.574
-0.8,1750007862.8829043,1.5311585665,132.43415351946643,4864.072056914614,0.639,-0.214,-1.885,-2.51
-0.8,1750007862.8829043,1.5314199924,126.4736347471151,4879.77727286486,0.675,-0.171,-1.83,-2.45
-0.8,1750007862.8829043,1.5315819979,120.50359403717974,4896.660566104027,0.715,-0.124,-1.771,-2.386
-0.8,1750007862.8829043,1.5317451954,112.71974561755106,4918.129952683078,0.769,-0.06,-1.692,-2.301
-0.8,1750007862.8829043,1.5319006443,104.9542428652322,4941.96880847838,0.829,0.009,-1.607,-2.209
-0.8,1750007862.8829043,1.5321317911,95.49925860214358,4971.643737252428,0.908,0.101,-1.495,-2.089
-0.8,1750007862.8829043,1.532325387,100.23052380778994,4957.92553906303,0.867,0.055,-1.551,-2.149
-0.8,1750007862.8829043,1.5326941013,109.1440336448756,4931.738039549359,0.795,-0.029,-1.652,-2.257
-0.8,1750007862.8829043,1.53307271,118.30415557251646,4906.818567679515,0.725,-0.109,-1.749,-2.361
-0.8,1750007862.8829043,1.5334652662,128.82495516931337,4880.901012475759,0.655,-0.192,-1.85,-2.47
-0.8,1750007862.8829043,1.5339374542,142.8893958511102,4848.4173870844625,0.569,-0.291,-1.973,-2.604
-0.8,1750007862.8829043,1.5339566469,143.5489433353656,4847.301126243664,0.566,-0.296,-1.978,-2.61
-0.8,1750007862.8829043,1.5342675447,153.81546403030342,4826.140932685212,0.509,-0.361,-2.06,-2.698
-0.8,1750007862.8829043,1.5347121954,170.215850839495,4794.021749415102,0.427,-0.458,-2.181,-2.83
-0.8,1750007862.8829043,1.5351525545,189.2343618644976,4759.923796672499,0.343,-0.558,-2.306,-2.965
-0.8,1750007862.8829043,1.5355634689,209.89398836235245,4727.156711736158,0.268,-0.658,-2.429,-3.097
-0.8,1750007862.8829043,1.5359587669,233.3458062281002,4693.534343171951,0.196,-0.759,-2.556,-3.23
-0.8,1750007862.8829043,1.5363277197,258.82129151530904,4660.151117021843,0.126,-0.859,-2.68,-3.363
-0.8,1750007862.8829043,1.5366777182,287.73984147356697,4624.875008224019,0.058,-0.958,-2.806,-3.497
-0.8,1750007862.8829043,1.5370006561,319.15378551007615,4590.922907591308,-0.007,-1.055,-2.93,-3.63
-0.8,1750007862.8829043,1.5373060703,354.8133892335753,4556.170837990161,-0.072,-1.151,-3.055,-3.764
-0.8,1750007862.8829043,1.5375964642,394.4573020752785,4520.640796485013,-0.135,-1.247,-3.181,-3.9
-0.8,1750007862.8829043,1.5378633738,437.5221051582521,4486.420743836898,-0.195,-1.341,-3.305,-4.035
-0.8,1750007862.8829043,1.5381090641,485.28850016212095,4451.434629201126,-0.253,-1.432,-3.427,-4.168
-0.8,1750007862.8829043,1.5383423567,539.5106225151279,4415.704473533126,-0.312,-1.518,-3.551,-4.306
-0.8,1750007862.8829043,1.5385571718,598.4115950603199,4380.261111703606,-0.369,-1.603,-3.673,-4.442
-0.8,1750007862.8829043,1.5387574434,662.2165037017622,4345.102241715715,-0.425,-1.685,-3.794,-4.577
-0.8,1750007862.8829043,1.5389467478,736.2070974947361,4310.225580049957,-0.481,-1.768,-3.916,-4.714
-0.8,1750007862.8829043,1.5391232967,816.5823713585922,4275.62886151586,-0.536,-1.85,-4.039,-4.851
-0.8,1750007862.8829043,1.539285779,905.7326008981998,4240.333353850188,-0.586,-1.928,-4.158,-4.986
-0.8,1750007862.8829043,1.5394380093,1002.3052380778994,4206.297636505622,-0.635,-2.006,-4.278,-5.121
-0.8,1750007862.8829043,1.5395803452,1111.7317272815908,4170.614031267226,-0.682,-2.081,-4.397,-5.257
-0.8,1750007862.8829043,1.5397155285,1233.1048332289097,4136.185425726619,-0.722,-2.153,-4.517,-5.393
-0.8,1750007862.8829043,1.5398395061,1361.4446824659497,4102.041029866068,-0.759,-2.222,-4.634,-5.527
-0.8,1750007862.8829043,1.5399582386,1506.6070661867418,4068.178497521943,-0.794,-2.29,-4.751,-5.66
-0.8,1750007862.8829043,1.5400170088,1581.2480392703826,4051.3522022926395,-0.81,-2.321,-4.808,-5.725
-0.8,1750007862.8829043,1.5400170088,69.02398038402418,5271.08476236396,1.069,0.369,-1.043,-1.556
-0.8,1750007862.8829043,1.5409400463,70.6317554262962,5254.120151100796,1.052,0.347,-1.075,-1.592
-0.8,1750007862.8829043,1.5417996645,71.6143410212902,5246.866327776169,1.041,0.333,-1.092,-1.611
-0.8,1750007862.8829043,1.5426702499,72.27698036021702,5246.866327776169,1.032,0.324,-1.102,-1.621
-0.8,1750007862.8829043,1.5435466766,72.77798045368242,5249.283155466852,1.023,0.316,-1.108,-1.626
-0.8,1750007862.8829043,1.5444179773,73.2824533138904,5252.910484500485,1.014,0.309,-1.114,-1.631
-0.8,1750007862.8829043,1.5453101397,73.79042301291011,5256.540320069867,1.005,0.301,-1.12,-1.637
-0.8,1750007862.8829043,1.5462092161,74.30191378967014,5258.961603824607,0.996,0.292,-1.127,-1.643
-0.8,1750007862.8829043,1.5471565723,74.81695005111546,5262.595620803182,0.986,0.283,-1.134,-1.649
-0.8,1750007862.8829043,1.5480891466,75.33555637337174,5265.019693769153,0.976,0.274,-1.141,-1.656
-0.8,1750007862.8829043,1.5489989519,76.03262769401819,5267.444883319061,0.966,0.265,-1.149,-1.663
-0.8,1750007862.8829043,1.549939394,76.55966069112561,5269.871189967232,0.956,0.256,-1.157,-1.67
-0.8,1750007862.8829043,1.5508859158,77.26805850957021,5272.298614228227,0.945,0.246,-1.165,-1.678
-0.8,1750007862.8829043,1.5518445969,77.98301105232585,5274.727156616845,0.935,0.236,-1.174,-1.686
-0.8,1750007862.8829043,1.5527745485,78.52356346100719,5277.15681764812,0.925,0.227,-1.182,-1.694
-0.8,1750007862.8829043,1.553743124,79.25013304804718,5279.587597837324,0.914,0.217,-1.191,-1.702
-0.8,1750007862.8829043,1.5543082952,79.61593504173187,5280.803407777241,0.908,0.211,-1.196,-1.707
-0.8,1750007862.8829043,1.554725647,79.98342550070285,5280.803407777241,0.903,0.207,-1.2,-1.711
-0.8,1750007862.8829043,1.5556856394,80.72350302488383,5283.235867669997,0.893,0.197,-1.209,-1.72
-0.8,1750007862.8829043,1.5566232204,81.2830516164099,5284.452517751803,0.883,0.187,-1.218,-1.728
-0.8,1750007862.8829043,1.557541728,82.03515443298181,5285.669448009903,0.873,0.178,-1.227,-1.737
-0.8,1750007862.8829043,1.55783391,82.22426499470713,5285.669448009903,0.87,0.175,-1.229,-1.739
-0.8,1750007862.8829043,1.5585025549,82.7942163712334,5286.886658508808,0.863,0.169,-1.236,-1.745
-0.8,1750007862.8829043,1.5594848394,83.36811846196343,5286.886658508808,0.854,0.159,-1.245,-1.754
-0.8,1750007862.8829043,1.5604752302,84.13951416451951,5286.886658508808,0.844,0.15,-1.254,-1.763
-0.8,1750007862.8829043,1.5614205599,84.91804750363139,5286.886658508808,0.836,0.141,-1.263,-1.773
-0.8,1750007862.8829043,1.5616348982,84.91804750363139,5285.669448009903,0.834,0.139,-1.265,-1.775
-0.8,1750007862.8829043,1.562048316,85.31001140175896,5285.669448009903,0.83,0.135,-1.269,-1.779
-0.8,1750007862.8829043,1.5629297495,85.90135215053957,5284.452517751803,0.823,0.128,-1.278,-1.788
-0.8,1750007862.8829043,1.5637897253,86.49679187756934,5283.235867669997,0.816,0.12,-1.286,-1.797
-0.8,1750007862.8829043,1.5646965504,87.29713683881117,5279.587597837324,0.809,0.112,-1.296,-1.808
-0.8,1750007862.8829043,1.5655560493,87.90225168308842,5275.9418472699535,0.802,0.104,-1.306,-1.819
-0.8,1750007862.8829043,1.5664340258,88.71560120379608,5271.08476236396,0.795,0.096,-1.317,-1.831
-0.8,1750007862.8829043,1.5673041344,89.53647655495938,5265.019693769153,0.789,0.087,-1.329,-1.844
-0.8,1750007862.8829043,1.5681760311,90.36494737223013,5257.7508225669435,0.782,0.078,-1.342,-1.859
-0.8,1750007862.8829043,1.5690939426,91.62204901219997,5249.283155466852,0.774,0.067,-1.358,-1.878
-0.8,1750007862.8829043,1.5699750185,92.68298233793494,5240.829125640289,0.766,0.056,-1.374,-1.895
-0.8,1750007862.8829043,1.5708715916,94.84184633008974,5219.152658354482,0.755,0.037,-1.406,-1.932
-0.8,1750007862.8829043,1.571770668,99.5405417351527,5178.452536000238,0.726,-0.007,-1.474,-2.011
-0.8,1750007862.8829043,1.5724117756,108.14339512979376,5120.354149383066,0.673,-0.082,-1.584,-2.135
-0.8,1750007862.8829043,1.5726203918,117.21953655481303,5074.578790806499,0.617,-0.156,-1.686,-2.25
-0.8,1750007862.8829043,1.5726941824,127.64388088113435,5032.687915706669,0.555,-0.234,-1.791,-2.366
-0.8,1750007862.8829043,1.5727255344,138.3566378971781,4995.741981759636,0.494,-0.311,-1.891,-2.476
-0.8,1750007862.8829043,1.572732091,141.5793779957081,4985.3998926398735,0.477,-0.331,-1.919,-2.506
-0.8,1750007862.8829043,1.5727323294,141.5793779957081,4985.3998926398735,0.476,-0.332,-1.92,-2.508
-0.8,1750007862.8829043,1.5727524757,157.39828644662197,4943.106869868354,0.395,-0.432,-2.048,-2.647
-0.8,1750007862.8829043,1.5727689266,171.79083871575875,4907.948534495558,0.325,-0.517,-2.156,-2.766
-0.8,1750007862.8829043,1.5727847815,184.50154191794738,4879.77727286486,0.272,-0.582,-2.241,-2.859
-0.8,1750007862.8829043,1.5728074312,195.43394557753942,4858.475309374926,0.227,-0.636,-2.311,-2.937
-0.8,1750007862.8829043,1.572850585,185.35316234148104,4878.653791974776,0.266,-0.588,-2.248,-2.867
-0.8,1750007862.8829043,1.5729036331,173.38039977541374,4905.6888610179985,0.317,-0.525,-2.167,-2.777
-0.8,1750007862.8829043,1.573179245,164.43717232149325,4926.063433495771,0.359,-0.475,-2.102,-2.707
-0.8,1750007862.8829043,1.5736402273,173.38039977541374,4904.559414451102,0.318,-0.525,-2.167,-2.778
-0.8,1750007862.8829043,1.5739808083,189.67059212111465,4869.675251658631,0.251,-0.607,-2.274,-2.896
-0.8,1750007862.8829043,1.5742813349,209.41124558508935,4831.700432460599,0.176,-0.699,-2.394,-3.028
-0.8,1750007862.8829043,1.5745415688,231.20647901755942,4792.918012190856,0.107,-0.796,-2.517,-3.161
-0.8,1750007862.8829043,1.5747653246,255.2701302661247,4756.636893186042,0.042,-0.889,-2.636,-3.289
-0.8,1750007862.8829043,1.5749589205,280.54336379517133,4721.717503108786,-0.019,-0.978,-2.751,-3.412
-0.8,1750007862.8829043,1.575130105,308.31879502493535,4685.975353086258,-0.078,-1.067,-2.865,-3.535
-0.8,1750007862.8829043,1.5752819777,338.0648362059815,4651.574703021666,-0.134,-1.152,-2.978,-3.655
-0.8,1750007862.8829043,1.5754203796,371.5352290971724,4609.990177075899,-0.181,-1.234,-3.092,-3.781
-0.8,1750007862.8829043,1.5755141973,398.1071705534973,4569.82953285961,-0.203,-1.288,-3.18,-3.881
-0.8,1750007862.8829043,1.575630188,436.5158322401661,4534.192977790139,-0.253,-1.369,-3.291,-4.003
-0.8,1750007862.8829043,1.5757336617,478.6300923226385,4493.657830540859,-0.294,-1.445,-3.402,-4.127
-0.8,1750007862.8829043,1.5758326054,524.8074602497728,4460.669020551353,-0.342,-1.521,-3.51,-4.247
-0.8,1750007862.8829043,1.5759289265,574.1164622073275,4428.942071986359,-0.394,-1.596,-3.618,-4.367
-0.8,1750007862.8829043,1.5760220289,628.058358813318,4397.440784473689,-0.443,-1.67,-3.724,-4.486
-0.8,1750007862.8829043,1.5761135817,687.0684400142325,4364.153323262729,-0.489,-1.741,-3.831,-4.606
-0.8,1750007862.8829043,1.5762047768,753.355563733717,4331.1178393104055,-0.535,-1.811,-3.938,-4.726
-0.8,1750007862.8829043,1.5762943029,829.8507675144226,4297.342811536805,-0.584,-1.886,-4.051,-4.853
-0.8,1750007862.8829043,1.5763732195,922.5714271547629,4258.9250766720725,-0.635,-1.967,-4.176,-4.996
-0.8,1750007862.8829043,1.5764282942,1028.0162981264734,4218.907465677975,-0.682,-2.046,-4.303,-5.141
-0.8,1750007862.8829043,1.5764681101,1129.7959146727976,4185.043726669273,-0.722,-2.114,-4.413,-5.266
-0.8,1750007862.8829043,1.576508522,1250.25903021772,4148.585069344544,-0.759,-2.183,-4.531,-5.401
-0.8,1750007862.8829043,1.5765395164,1367.7288255958495,4116.2334730276525,-0.788,-2.242,-4.636,-5.521
-0.8,1750007862.8829043,1.5765719414,1499.684835502374,4084.1341617107687,-0.819,-2.303,-4.744,-5.645
-0.8,1750007862.8829043,1.5766067505,1717.9083871575876,4035.5246088074728,-0.857,-2.387,-4.901,-5.826
-0.8,1750007862.8829043,1.5766137838,1823.8957023196383,4013.284982627411,-0.871,-2.422,-4.97,-5.906
-0.8,1750007862.8829043,1.5766147375,1733.8039977541375,4029.953175019774,-0.857,-2.391,-4.912,-5.84
-0.8,1750007862.8829043,1.5766149759,1640.5897731995387,4049.48691518634,-0.84,-2.356,-4.848,-5.766
-0.8,1750007862.8829043,1.5766150951,1559.552502826954,4066.305463404283,-0.825,-2.325,-4.79,-5.7
-0.8,1750007862.8829043,1.5766152143,1618.0800376430661,4055.085354483839,-0.835,-2.347,-4.831,-5.746
-0.8,1750007862.8829043,1.5766153336,1819.7008586099826,4013.284982627411,-0.87,-2.42,-4.967,-5.903
-0.8,1750007862.8829043,1.5766156912,1786.4875748520499,4019.758849668722,-0.865,-2.41,-4.948,-5.881
-0.8,1750007862.8829043,1.5766158104,1745.8221529205039,4027.170343254591,-0.858,-2.395,-4.92,-5.849
-0.8,1750007862.8829043,1.5766159296,1706.0823890031243,4035.5246088074728,-0.851,-2.381,-4.894,-5.819
-0.8,1750007862.8829043,1.5766160488,1671.090614310707,4042.9651707596545,-0.845,-2.367,-4.868,-5.789
-0.8,1750007862.8829043,1.5766164064,1629.296032639723,4052.2851680189106,-0.837,-2.351,-4.839,-5.755
-0.8,1750007862.8829043,1.5766193867,1644.3717232149324,4047.6224868787363,-0.839,-2.356,-4.85,-5.769
-0.8,1750007862.8829043,1.5766215324,1741.8068733916145,4027.170343254591,-0.856,-2.393,-4.918,-5.847
-0.8,1750007862.8829043,1.5766236782,1857.8044550916989,4004.9767571215903,-0.873,-2.432,-4.992,-5.932
-0.8,1750007862.8829043,1.5766259432,1981.527025805099,3981.988486715585,-0.89,-2.471,-5.066,-6.018
-0.8,1750007862.8829043,1.5766284466,2108.6281499332886,3960.0438961152527,-0.904,-2.506,-5.137,-6.101
-0.8,1750007862.8829043,1.5766326189,2301.441817408509,3928.2579671627864,-0.921,-2.554,-5.239,-6.22
-0.8,1750007862.8829043,1.5766384602,2511.88643150958,3895.8300217812994,-0.935,-2.6,-5.339,-6.338
-0.8,1750007862.8829043,1.5766475201,2722.701308077913,3866.339621093609,-0.943,-2.637,-5.432,-6.447
-0.8,1750007862.8829043,1.5766483545,2735.268726306711,3864.55951581426,-0.943,-2.64,-5.438,-6.454
-0.8,1750007862.8829043,1.5766487122,2735.268726306711,3864.55951581426,-0.943,-2.64,-5.438,-6.454
-0.8,1750007862.8829043,1.5766494274,1710.015315090288,4022.5365599868255,-0.828,-2.366,-4.897,-5.828
-0.8,1750007862.8829043,1.5766499043,1428.8939585111023,4087.897521111197,-0.778,-2.256,-4.689,-5.589
-0.8,1750007862.8829043,1.5766515732,826.0379495771783,4292.398159704706,-0.571,-1.877,-4.048,-4.852
-0.8,1750007862.8829043,1.5766540766,831.7637711026708,4289.434099967818,-0.573,-1.881,-4.056,-4.862
-0.8,1750007862.8829043,1.5766574144,997.7000638225536,4218.907465677975,-0.649,-2.012,-4.27,-5.108
-0.8,1750007862.8829043,1.5766615868,1422.32878712282,4085.0746766312514,-0.77,-2.249,-4.685,-5.585
-0.8,1750007862.8829043,1.5766667128,1981.527025805099,3964.605690612772,-0.855,-2.448,-5.07,-6.031
-0.8,1750007862.8829043,1.5766726732,2483.13310529557,3884.1858339296286,-0.898,-2.57,-5.328,-6.333
-0.8,1750007862.8829043,1.5766794682,2792.543841237339,3841.4925917875894,-0.909,-2.624,-5.466,-6.494
-0.8,1750007862.8829043,1.576687336,2944.4216337987605,3821.202031837345,-0.908,-2.645,-5.527,-6.567
-0.8,1750007862.8829043,1.5766960382,3026.913428101305,3809.7808984641915,-0.904,-2.653,-5.559,-6.605
-0.8,1750007862.8829043,1.5766963959,2243.881923782766,3912.911271268528,-0.863,-2.505,-5.212,-6.202
-0.8,1750007862.8829043,1.5766974688,1614.3585568264868,4029.025350832952,-0.786,-2.315,-4.834,-5.762
-0.8,1750007862.8829043,1.5766996145,935.4056741475521,4230.5808577652315,-0.603,-1.954,-4.196,-5.028
-0.8,1750007862.8829043,1.5767025948,941.8895965228418,4227.659485162412,-0.605,-1.959,-4.205,-5.039
-0.8,1750007862.8829043,1.5767066479,1129.7959146727976,4158.148545615802,-0.676,-2.085,-4.418,-5.283
-0.8,1750007862.8829043,1.5767116547,1603.2453906900419,4029.025350832952,-0.777,-2.305,-4.825,-5.753
-0.8,1750007862.8829043,1.5767177343,2218.1964198002192,3912.01039387351,-0.85,-2.492,-5.201,-6.192
-0.8,1750007862.8829043,1.5767250061,2766.9416454115126,3833.540007590441,-0.879,-2.601,-5.456,-6.489
-0.8,1750007862.8829043,1.5767333508,3111.716337106017,3790.5305394288553,-0.882,-2.648,-5.592,-6.648
-0.8,1750007862.8829043,1.5767427683,3280.9529311311903,3770.5091583339295,-0.877,-2.664,-5.654,-6.721
-0.8,1750007862.8829043,1.5767533779,3372.873086588689,3759.239540129174,-0.872,-2.67,-5.687,-6.76
-0.8,1750007862.8829043,1.5767537355,2558.585886905645,3853.8960821181918,-0.858,-2.555,-5.367,-6.389
-0.8,1750007862.8829043,1.5767551661,1849.2686189780777,3968.2589095091143,-0.795,-2.38,-4.994,-5.954
-0.8,1750007862.8829043,1.5767575502,1073.989412341245,4167.734067976717,-0.641,-2.041,-4.36,-5.221
-0.8,1750007862.8829043,1.5767611265,1081.4339512979375,4164.856093407415,-0.642,-2.045,-4.368,-5.231
-0.8,1750007862.8829043,1.5767658949,1291.2192736135348,4097.321098135413,-0.696,-2.16,-4.577,-5.472
-0.8,1750007862.8829043,1.5767718554,1815.515662773135,3971.915494694405,-0.784,-2.365,-4.972,-5.93
-0.8,1750007862.8829043,1.5767791271,2488.85731828239,3858.335599053513,-0.841,-2.532,-5.335,-6.355
-0.8,1750007862.8829043,1.576787591,3083.1879502493534,3782.683455893896,-0.85,-2.622,-5.582,-6.643
-0.8,1750007862.8829043,1.5767974854,3443.4993076333844,3742.8291224080526,-0.846,-2.659,-5.713,-6.795
-0.8,1750007862.8829043,1.576808691,3622.4299841669877,3723.917062545687,-0.841,-2.673,-5.771,-6.863
-0.8,1750007862.8829043,1.576821208,3715.352290971724,3713.6417019195583,-0.836,-2.678,-5.8,-6.898
-0.8,1750007862.8829043,1.5768216848,2910.717118066605,3798.3939015450715,-0.835,-2.592,-5.517,-6.57
-0.8,1750007862.8829043,1.5768231153,2113.489039836648,3911.1097238892944,-0.799,-2.439,-5.148,-6.139
-0.8,1750007862.8829043,1.576825738,1227.4392311584072,4110.55061281175,-0.669,-2.121,-4.519,-5.408
-0.8,1750007862.8829043,1.5768296719,1238.796586530369,4107.712125533876,-0.67,-2.125,-4.528,-5.418
-0.8,1750007862.8829043,1.5768349171,1475.7065332758946,4040.1733537300024,-0.715,-2.232,-4.733,-5.656
-0.8,1750007862.8829043,1.5768413544,2051.1621788255648,3918.3208939411097,-0.783,-2.416,-5.113,-6.101
-0.8,1750007862.8829043,1.5768493414,2779.7132677592886,3807.150103801774,-0.814,-2.56,-5.465,-6.513
-0.8,1750007862.8829043,1.5768586397,3411.9291162192844,3732.5015779572063,-0.808,-2.628,-5.704,-6.792
-0.8,1750007862.8829043,1.5768693686,3801.8939632056126,3693.175960479867,-0.796,-2.653,-5.831,-6.94
-0.8,1750007862.8829043,1.5768815279,3990.2490236214207,3673.6688011030355,-0.785,-2.658,-5.888,-7.007
-0.8,1750007862.8829043,1.576895237,4092.6065973001096,3662.6886275878364,-0.776,-2.658,-5.918,-7.043
-0.8,1750007862.8829043,1.5768955946,3326.5955329400435,3735.0807894306217,-0.787,-2.605,-5.675,-6.761
-0.8,1750007862.8829043,1.5768970251,2426.6100950824143,3847.689338937884,-0.785,-2.486,-5.309,-6.335
-0.8,1750007862.8829043,1.5768995285,1415.793779957081,4048.5545937074157,-0.686,-2.196,-4.685,-5.605
-0.8,1750007862.8829043,1.576903224,1425.607593602188,4044.827453799996,-0.686,-2.199,-4.694,-5.615
-0.8,1750007862.8829043,1.5769081116,1690.440931643265,3978.3226282329574,-0.722,-2.297,-4.894,-5.849
-0.8,1750007862.8829043,1.5769141912,2322.7367963571073,3859.2241159472915,-0.768,-2.457,-5.259,-6.279
-0.8,1750007862.8829043,1.5769217014,3111.716337106017,3751.4572346200985,-0.768,-2.568,-5.599,-6.677
-0.8,1750007862.8829043,1.5769304037,3784.425847170932,3679.594830147843,-0.751,-2.617,-5.829,-6.945
-0.8,1750007862.8829043,1.5769405365,4197.589839910078,3641.665065732136,-0.735,-2.634,-5.951,-7.087
-0.8,1750007862.8829043,1.5769519806,4405.548635065535,3623.2641755313257,-0.722,-2.635,-6.007,-7.152
-0.8,1750007862.8829043,1.5769648552,4518.559443749222,3613.2665452345186,-0.712,-2.631,-6.037,-7.188
-0.8,1750007862.8829043,1.5769652128,3784.425847170932,3673.6688011030355,-1.146,-2.906,-5.831,-6.903
-0.8,1750007862.8829043,1.5769666433,2779.7132677592886,3783.5545512323115,-1.091,-2.743,-5.482,-6.492
-0.8,1750007862.8829043,1.5769691467,1625.5487557504835,3984.7400971777515,-0.903,-2.408,-4.865,-5.778
-0.8,1750007862.8829043,1.576972723,1640.5897731995387,3980.155135426724,-0.904,-2.411,-4.875,-5.789
-0.8,1750007862.8829043,1.5769776106,1940.8858775927772,3910.2092612681363,-0.969,-2.519,-5.07,-6.017
-0.8,1750007862.8829043,1.5769836903,2636.3313858253787,3785.297343755959,-1.048,-2.691,-5.421,-6.432
-0.8,1750007862.8829043,1.5769910812,3491.4031547858626,3666.0636424947174,-1.065,-2.814,-5.74,-6.817
-0.8,1750007862.8829043,1.5769999027,4216.965034285822,3578.49158264176,-1.046,-2.874,-5.95,-7.081
-0.8,1750007862.8829043,1.5770099163,4666.593803142887,3522.086356184678,-1.008,-2.886,-6.06,-7.227
-0.8,1750007862.8829043,1.5770213604,4886.523593428336,3484.9776724044846,-0.965,-2.871,-6.109,-7.301
-0.8,1750007862.8829043,1.5770341158,5011.872336272725,3453.027205056406,-0.927,-2.849,-6.136,-7.35
-0.8,1750007862.8829043,1.5770344734,4355.118736855684,3513.176750372876,-0.923,-2.8,-5.984,-7.157
-0.8,1750007862.8829043,1.5770357847,3213.660538640318,3645.8601019727603,-0.946,-2.7,-5.65,-6.739
-0.8,1750007862.8829043,1.5770380497,1883.6490894898002,3893.1398070156406,-0.909,-2.468,-5.041,-5.997
-0.8,1750007862.8829043,1.5770415068,1896.7059212111465,3885.974979543936,-0.906,-2.469,-5.05,-6.009
-0.8,1750007862.8829043,1.5770460367,2238.72113856834,3801.0186455476655,-0.926,-2.543,-5.24,-6.243
-0.8,1750007862.8829043,1.5770517588,2999.16251898765,3655.1061999238823,-0.9,-2.641,-5.573,-6.658
-0.8,1750007862.8829043,1.5770586729,3917.4187710778306,3519.654225247658,-0.84,-2.702,-5.868,-7.038
-0.8,1750007862.8829043,1.5770667791,4688.13382145265,3422.9456231604145,-0.79,-2.727,-6.061,-7.296
-0.8,1750007862.8829043,1.5770760775,5152.286445817567,3362.017734543793,-0.761,-2.729,-6.162,-7.438
-0.8,1750007862.8829043,1.5770868063,5382.697825162882,3320.4733579750687,-0.715,-2.705,-6.207,-7.511
-0.8,1750007862.8829043,1.5770987272,5508.076964054036,3283.2201160919944,-0.658,-2.668,-6.232,-7.56
-0.8,1750007862.8829043,1.5770990849,4954.5019080479005,3332.728995761379,-0.651,-2.635,-6.115,-7.412
-0.8,1750007862.8829043,1.5771002769,3672.8230049808462,3473.761519726527,-0.665,-2.556,-5.795,-6.997
-0.8,1750007862.8829043,1.5771025419,2162.71852372702,3740.244560424048,-0.766,-2.423,-5.208,-6.245
-0.8,1750007862.8829043,1.5771057606,2177.709772353159,3729.9241475247336,-0.753,-2.417,-5.217,-6.259
-0.8,1750007862.8829043,1.5771101713,2558.585886905645,3636.6373933084765,-0.708,-2.45,-5.4,-6.497
-0.8,1750007862.8829043,1.5771155357,3388.441561392024,3481.769367055342,-0.608,-2.486,-5.707,-6.904
-0.8,1750007862.8829043,1.5771222115,4375.221051582521,3339.6426598662515,-0.532,-2.513,-5.98,-7.272
-0.8,1750007862.8829043,1.5771299601,5188.000389289609,3238.918349968776,-0.484,-2.524,-6.166,-7.522
-0.8,1750007862.8829043,1.57713902,5675.446054085472,3174.6803215678747,-0.402,-2.499,-6.269,-7.661
-0.8,1750007862.8829043,1.5771491528,5915.616341754737,3129.6804715636677,-0.324,-2.461,-6.319,-7.734
-0.8,1750007862.8829043,1.5771605968,6053.408747539136,3090.295432513592,-0.242,-2.411,-6.348,-7.783
-0.8,1750007862.8829043,1.5771609545,5636.376558259543,3124.640085806112,-0.263,-2.4,-6.264,-7.682
-0.8,1750007862.8829043,1.5771620274,4207.266283844442,3268.8876924727197,-0.328,-2.348,-5.933,-7.273
-0.8,1750007862.8829043,1.5771640539,2488.85731828239,3543.2353487838454,-0.463,-2.27,-5.37,-6.527
-0.8,1750007862.8829043,1.5771669149,2494.5947269429535,3539.1583956694994,-0.455,-2.266,-5.372,-6.532
-0.8,1750007862.8829043,1.5771708488,2924.1523778433366,3449.848313627505,-0.385,-2.276,-5.542,-6.761
-0.8,1750007862.8829043,1.5771757364,3810.65823393773,3302.934793960337,-0.298,-2.3,-5.827,-7.145
-0.8,1750007862.8829043,1.5771816969,4852.88500162121,3172.488087350881,-0.245,-2.333,-6.095,-7.489
-0.8,1750007862.8829043,1.5771887302,5688.529308438413,3085.3184768063825,-0.168,-2.338,-6.279,-7.716
-0.8,1750007862.8829043,1.5771968365,6180.164001384158,3035.2886644741984,-0.107,-2.324,-6.372,-7.826
-0.8,1750007862.8829043,1.5772060156,6397.348354826482,3005.3842076633828,-0.061,-2.306,-6.415,-7.877
-0.8,1750007862.8829043,1.5772162676,6531.305526474723,2983.321101768171,-0.019,-2.283,-6.44,-7.906
-0.8,1750007862.8829043,1.5772166252,6295.061828571975,3000.5440024430936,-0.03,-2.277,-6.396,-7.859
-0.8,1750007862.8829043,1.5772176981,4720.630412635905,3140.5086938762165,-0.135,-2.247,-6.069,-7.48
-0.8,1750007862.8829043,1.5772196054,2837.9190284415554,3409.5730529319967,-0.253,-2.173,-5.507,-6.754
-0.8,1750007862.8829043,1.5772224665,2818.382931264455,3407.218616593573,-0.24,-2.162,-5.5,-6.749
-0.8,1750007862.8829043,1.577226162,3288.51630875983,3313.599377790872,-0.16,-2.156,-5.663,-6.976
-0.8,1750007862.8829043,1.5772309303,4236.429660495409,3166.6495274920885,-0.096,-2.181,-5.946,-7.345
-0.8,1750007862.8829043,1.5772366524,5321.082592667942,3035.9876459875045,0.036,-2.171,-6.207,-7.661
-0.8,1750007862.8829043,1.5772434473,6165.9500186148225,2946.4562708650446,0.138,-2.155,-6.383,-7.858
-0.8,1750007862.8829043,1.5772511959,6668.067692136218,2892.6773831200917,0.211,-2.134,-6.478,-7.96
-0.8,1750007862.8829043,1.5772601366,6902.398038402419,2859.565178927503,0.265,-2.11,-6.523,-8.007
-0.8,1750007862.8829043,1.577270031,7030.723198838334,2834.653633489668,0.313,-2.085,-6.55,-8.033
-0.8,1750007862.8829043,1.5772702694,7014.552984199714,2833.3485277843724,0.317,-2.082,-6.549,-8.033
-0.8,1750007862.8829043,1.5772713423,5308.8444423098845,2974.404298125139,0.212,-2.051,-6.215,-7.684
-0.8,1750007862.8829043,1.5772730112,3228.4941217126348,3246.384827880331,0.011,-2.023,-5.644,-6.998
-0.8,1750007862.8829043,1.5772756338,3176.8740706497692,3244.8901566053664,0.031,-2.004,-5.627,-6.983
-0.8,1750007862.8829043,1.5772790909,3689.775985701505,3144.850465476959,0.104,-1.995,-5.798,-7.207
-0.8,1750007862.8829043,1.5772833824,4698.941086052156,2996.4014599344437,0.273,-1.964,-6.077,-7.541
-0.8,1750007862.8829043,1.5772886276,5807.644175213118,2869.4588430750064,0.409,-1.95,-6.333,-7.817
-0.8,1750007862.8829043,1.5772948265,6668.067692136218,2790.6154863980737,0.479,-1.955,-6.506,-7.986
-0.8,1750007862.8829043,1.5773018599,7161.43410212902,2757.401452346361,0.499,-1.969,-6.595,-8.07
-0.8,1750007862.8829043,1.5773099661,7396.052750582382,2758.671575076395,0.475,-1.998,-6.631,-8.106
-0.8,1750007862.8829043,1.577319026,7533.55563733717,2784.1972488835645,0.405,-2.053,-6.645,-8.123
-0.8,1750007862.8829043,1.5773192644,7780.365510398041,2752.9606261551385,0.448,-2.036,-6.69,-8.164
-0.8,1750007862.8829043,1.5773202181,5929.2532458,2872.7643320808324,0.414,-1.958,-6.358,-7.841
-0.8,1750007862.8829043,1.5773217678,3639.1503612720708,3109.5675818498016,0.237,-1.904,-5.79,-7.216
-0.8,1750007862.8829043,1.577324152,3539.9734108343464,3036.686788465786,0.453,-1.741,-5.763,-7.217
-0.8,1750007862.8829043,1.5773273706,4083.1938633269233,2852.9883615207186,0.788,-1.562,-5.949,-7.432
-0.8,1750007862.8829043,1.5773313046,5093.308710571952,2640.5840763127353,1.058,-1.462,-6.252,-7.693
-0.8,1750007862.8829043,1.5773360729,6180.164001384158,2484.276893696803,1.003,-1.575,-6.479,-7.909
-0.8,1750007862.8829043,1.5773416758,6982.324040771711,2422.70201210924,0.883,-1.7,-6.612,-8.042
-0.8,1750007862.8829043,1.5773482323,7379.042301291008,2474.001735792561,0.821,-1.762,-6.673,-8.104
-0.8,1750007862.8829043,1.5773556232,7533.55563733717,2664.4035277248977,0.679,-1.866,-6.677,-8.131
-0.8,1750007862.8829043,1.5773639679,7568.328950209744,3052.1087222420074,-0.301,-2.546,-6.607,-8.049
