FeH,Age,Mini,L,Te,Bmag,Vmag,Jmag,Kmag
0.2,1549993939.2303696,0.093007721,0.00041209751909733044,2285.072585387519,19.765,17.988,11.139,10.216
0.2,1549993939.2303696,0.0974980444,0.00048305880203977283,2333.9954227194694,19.583,17.81,10.967,10.044
0.2,1549993939.2303696,0.1029621437,0.0005821032177708716,2393.3157564053877,19.368,17.599,10.763,9.84
0.2,1549993939.2303696,0.1074274778,0.000663743070401909,2431.644037875914,19.217,17.452,10.622,9.697
0.2,1549993939.2303696,0.1128844768,0.0007726805850957021,2476.851675793545,19.044,17.283,10.458,9.534
0.2,1549993939.2303696,0.1205339134,0.0009440608762859235,2538.6334606273663,18.813,17.057,10.241,9.315
0.2,1549993939.2303696,0.122871004,0.0010023052380778994,2556.8190886896873,18.745,16.991,10.177,9.251
0.2,1549993939.2303696,0.1427798569,0.0015066070661867417,2677.3182599684565,17.878,16.172,9.757,8.833
0.2,1549993939.2303696,0.1626887172,0.002074913517454911,2765.667715050151,17.024,15.384,9.439,8.521
0.2,1549993939.2303696,0.1872089803,0.002837919028441555,2845.116144233279,16.275,14.682,9.127,8.214
0.2,1549993939.2303696,0.202506423,0.0033806483620598153,2890.6798823654744,15.87,14.297,8.953,8.044
0.2,1549993939.2303696,0.2158485502,0.003854783576657717,2921.4603738773317,15.589,14.032,8.819,7.913
0.2,1549993939.2303696,0.2522785664,0.0053333489548762075,2999.16251898765,14.924,13.401,8.492,7.594
0.2,1549993939.2303696,0.3138309121,0.0084527884516029,3102.4157748720872,14.059,12.565,8.029,7.138
0.2,1549993939.2303696,0.3259294033,0.009268298233793494,3118.1715159014625,13.908,12.422,7.933,7.044
0.2,1549993939.2303696,0.3323957026,0.009705099672454899,3127.519311407983,13.83,12.348,7.887,6.998
0.2,1549993939.2303696,0.3518228829,0.01101539309541415,3156.4578912990714,13.606,12.136,7.758,6.87
0.2,1549993939.2303696,0.4015950263,0.015310874616820304,3240.4102704918173,13.022,11.581,7.427,6.541
0.2,1549993939.2303696,0.4513671398,0.021428906011200583,3334.2641276323507,12.441,11.023,7.094,6.207
0.2,1549993939.2303696,0.4726353288,0.024888573182823902,3379.8700286198914,12.181,10.778,6.946,6.058
0.2,1549993939.2303696,0.5011392832,0.030060763026282307,3439.5371138063997,11.861,10.473,6.758,5.868
0.2,1549993939.2303696,0.5201674104,0.034514373933585626,3489.7956743787454,11.619,10.242,6.624,5.733
0.2,1549993939.2303696,0.5509114265,0.04275628861515862,3571.9058251119704,11.247,9.88,6.418,5.526
0.2,1549993939.2303696,0.5573855042,0.04487453899331321,3595.837026057048,11.155,9.789,6.373,5.481
0.2,1549993939.2303696,0.6006835699,0.061235039172477336,3750.5935291111437,10.58,9.215,6.088,5.198
0.2,1549993939.2303696,0.6384326816,0.08090958991783821,3924.641573534599,10.04,8.689,5.838,4.965
0.2,1549993939.2303696,0.6504557133,0.08810488730080142,3980.155135426724,9.876,8.534,5.76,4.894
0.2,1549993939.2303696,0.7002279162,0.1253141174941416,4240.333353850188,9.161,7.885,5.445,4.633
0.2,1549993939.2303696,0.747895956,0.17579236139586926,4554.07312683254,8.388,7.239,5.165,4.448
0.2,1549993939.2303696,0.75,0.17823787674480895,4567.725533088667,8.355,7.212,5.153,4.441
0.2,1549993939.2303696,0.7552641034,0.18407720014689558,4588.8091961986775,8.294,7.16,5.124,4.419
0.2,1549993939.2303696,0.8000000119,0.24043628000069334,4773.094139287512,7.79,6.74,4.886,4.247
0.2,1549993939.2303696,0.8500000238,0.3213660538640317,4985.3998926398735,7.27,6.307,4.634,4.062
0.2,1549993939.2303696,0.8999999762,0.4246195639463129,5192.78091540883,6.805,5.915,4.395,3.881
0.2,1549993939.2303696,0.9500000477,0.5546257129579107,5390.139436325507,6.384,5.558,4.165,3.702
0.2,1549993939.2303696,0.9543098807,0.5662392890382533,5406.298239953035,6.349,5.529,4.146,3.686
0.2,1549993939.2303696,1.0,0.7177942912713617,5574.424015437457,5.994,5.228,3.946,3.525
0.2,1549993939.2303696,1.0405606031,0.8790225168308843,5714.786366718672,5.698,4.977,3.772,3.381
0.2,1549993939.2303696,1.0499999523,0.9225714271547631,5746.45486597673,5.631,4.92,3.733,3.348
0.2,1549993939.2303696,1.0652588606,0.9931160484209338,5795.621301763043,5.525,4.83,3.668,3.293
0.2,1549993939.2303696,1.1000000238,1.1748975549395295,5904.729404069866,5.29,4.63,3.524,3.171
0.2,1549993939.2303696,1.1469501257,1.4689262776438667,6042.2682204988105,4.986,4.37,3.333,3.006
0.2,1549993939.2303696,1.1499999762,1.4893610777109152,6050.6216915829655,4.967,4.354,3.321,2.995
0.2,1549993939.2303696,1.2000000477,1.8749945080674189,6187.283275532346,4.662,4.091,3.121,2.82
0.2,1549993939.2303696,1.2089365721,1.9498445997580451,6210.120110685405,4.61,4.047,3.087,2.789
0.2,1549993939.2303696,1.2486664057,2.3120647901755946,6309.57344480193,4.385,3.852,2.936,2.655
0.2,1549993939.2303696,1.25,2.328091257665008,6312.479779910386,4.378,3.845,2.931,2.651
0.2,1549993939.2303696,1.2999999523,2.857590543374947,6425.397500373017,4.114,3.614,2.748,2.486
0.2,1549993939.2303696,1.3421452045,3.372873086588689,6510.284984348614,3.906,3.431,2.6,2.351
0.2,1549993939.2303696,1.3500000238,3.4753616144320585,6525.29274119251,3.868,3.397,2.573,2.326
0.2,1549993939.2303696,1.3958624601,4.120975190973302,6609.977786538225,3.656,3.206,2.416,2.182
0.2,1549993939.2303696,1.3999999762,4.187935651179184,6616.068605559997,3.637,3.189,2.402,2.169
0.2,1549993939.2303696,1.414360404,4.405548635065533,6640.488057745739,3.573,3.131,2.354,2.124
0.2,1549993939.2303696,1.4500000477,5.000345349769784,6694.220293097285,3.418,2.99,2.234,2.011
0.2,1549993939.2303696,1.4909633398,5.767664633922507,6748.3873087075735,3.246,2.831,2.097,1.883
0.2,1549993939.2303696,1.5,5.956621435290105,6757.716993552864,3.209,2.797,2.066,1.853
0.2,1549993939.2303696,1.5246183872,6.4714261574858325,6777.975582993672,3.114,2.706,1.984,1.774
0.2,1549993939.2303696,1.5499999523,7.030723198838334,6788.909197955847,3.018,2.614,1.897,1.689
0.2,1549993939.2303696,1.5506235361,7.046930689671469,6790.472582051879,3.016,2.611,1.895,1.687
0.2,1549993939.2303696,1.5738046169,7.603262769401819,6799.860450033224,2.93,2.528,1.816,1.61
0.2,1549993939.2303696,1.6000000238,8.260379495771788,6796.72971950456,2.837,2.435,1.723,1.516
0.2,1549993939.2303696,1.6006809473,8.279421637123342,6796.72971950456,2.834,2.433,1.721,1.514
0.2,1549993939.2303696,1.6295720339,9.099132726322514,6790.472582051879,2.733,2.332,1.618,1.411
0.2,1549993939.2303696,1.6499999762,9.705099672454896,6774.85492849846,2.665,2.261,1.542,1.333
0.2,1549993939.2303696,1.663949728,10.139113857366794,6765.501583068961,2.618,2.213,1.491,1.281
0.2,1549993939.2303696,1.6749999523,10.495424286523221,6753.050539950786,2.583,2.175,1.449,1.238
0.2,1549993939.2303696,1.6871870756,10.914403364487566,6737.518954705829,2.545,2.134,1.402,1.189
0.2,1549993939.2303696,1.7000000477,11.350108156723149,6715.83472933331,2.507,2.092,1.352,1.135
0.2,1549993939.2303696,1.7157082558,11.91242008027375,6684.978271615899,2.462,2.04,1.289,1.069
0.2,1549993939.2303696,1.7250001431,12.246161992650489,6664.997640442605,2.437,2.01,1.252,1.028
0.2,1549993939.2303696,1.7429801226,12.91219273613534,6619.116119411212,2.392,1.955,1.178,0.949
0.2,1549993939.2303696,1.75,13.182567385564074,6597.8129651395675,2.375,1.934,1.15,0.917
0.2,1549993939.2303696,1.7591301203,13.551894123510356,6572.037002870897,2.353,1.906,1.112,0.876
0.2,1549993939.2303696,1.7750000954,14.157937799570817,6520.786785135783,2.319,1.859,1.045,0.802
0.2,1549993939.2303696,1.79548347,14.962356560944336,6437.244428047446,2.287,1.804,0.956,0.7
0.2,1549993939.2303696,1.7999999523,15.13561248436208,6418.0042448391805,2.281,1.793,0.936,0.678
0.2,1549993939.2303696,1.8137317896,15.703628043335524,6359.163628244043,2.262,1.757,0.876,0.608
0.2,1549993939.2303696,1.8250000477,16.18080037643066,6309.57344480193,2.248,1.728,0.826,0.55
0.2,1549993939.2303696,1.834441185,16.557699634695286,6266.138646723356,2.238,1.705,0.783,0.5
0.2,1549993939.2303696,1.8499999046,17.378008287493753,6201.546436537854,2.212,1.659,0.708,0.413
0.2,1549993939.2303696,1.8594020605,18.071741260109267,6175.896369491144,2.181,1.62,0.658,0.36
0.2,1549993939.2303696,1.8670650721,20.137242498623884,6289.266531604159,2.014,1.489,0.579,0.3
0.2,1549993939.2303696,1.8689225912,21.527817347243726,6388.516193898019,1.903,1.409,0.543,0.281
0.2,1549993939.2303696,1.8695793152,22.8559880337543,6493.816315762113,1.8,1.337,0.516,0.271
0.2,1549993939.2303696,1.8698755503,24.154608344449404,6599.332342635646,1.704,1.269,0.492,0.262
0.2,1549993939.2303696,1.8700473309,25.527013026612472,6708.107287992274,1.61,1.201,0.469,0.254
0.2,1549993939.2303696,1.8701928854,26.853444456585077,6815.535747267042,1.524,1.14,0.45,0.251
0.2,1549993939.2303696,1.8702130318,27.039583641088434,6831.247179792927,1.513,1.133,0.448,0.251
0.2,1549993939.2303696,1.8702878952,25.06109253032114,6731.316327276249,1.625,1.222,0.498,0.287
0.2,1549993939.2303696,1.8703410625,23.823194693586903,6632.847312550216,1.71,1.282,0.519,0.294
0.2,1549993939.2303696,1.8704230785,23.01441817408509,6486.344335482381,1.794,1.329,0.506,0.259
0.2,1549993939.2303696,1.8705375195,23.12064790175595,6337.237741643961,1.843,1.335,0.447,0.177
0.2,1549993939.2303696,1.8707158566,23.442288153199225,6187.283275532346,1.888,1.333,0.378,0.082
0.2,1549993939.2303696,1.8709801435,23.334580622810034,6036.705647858452,1.959,1.355,0.329,0.006
0.2,1549993939.2303696,1.8713573217,22.59435770220978,5885.725452612013,2.065,1.411,0.309,-0.044
0.2,1549993939.2303696,1.8718355894,21.281390459827122,5738.521326746189,2.205,1.503,0.325,-0.059
0.2,1549993939.2303696,1.8722157478,19.998618696327437,5633.781508509383,2.327,1.592,0.357,-0.05
0.2,1549993939.2303696,1.872582674,18.663796908346693,5539.875439385942,2.454,1.69,0.401,-0.027
0.2,1549993939.2303696,1.8729115725,17.458221529205037,5458.835409516774,2.572,1.783,0.448,0.001
0.2,1549993939.2303696,1.8733355999,16.032453906900418,5357.966575133417,2.722,1.9,0.507,0.035
0.2,1549993939.2303696,1.8737587929,15.100801541641486,5262.595620803182,2.847,1.994,0.544,0.048
0.2,1549993939.2303696,1.8740757704,14.791083881682072,5197.5658465836195,2.914,2.039,0.547,0.034
0.2,1549993939.2303696,1.8747862577,15.812480392703835,5080.424479948444,2.925,2.009,0.439,-0.105
0.2,1549993939.2303696,1.875,16.368165214278086,5051.263219145947,2.909,1.981,0.391,-0.162
0.2,1549993939.2303696,1.8753296137,17.579236139586932,5010.718442871759,2.864,1.92,0.302,-0.262
0.2,1549993939.2303696,1.8757351637,19.453600816226626,4965.923214503363,2.789,1.827,0.177,-0.4
0.2,1549993939.2303696,1.876087904,21.478304741305344,4930.6025956279445,2.713,1.736,0.061,-0.527
0.2,1549993939.2303696,1.8764151335,23.60478233180577,4898.916080940641,2.635,1.646,-0.053,-0.649
0.2,1549993939.2303696,1.8767279387,25.941793621188136,4869.675251658631,2.56,1.558,-0.163,-0.769
0.2,1549993939.2303696,1.8770282269,28.444611074479155,4841.7236758409945,2.485,1.472,-0.271,-0.886
0.2,1549993939.2303696,1.8773232698,31.117163371060183,4813.932540001449,2.412,1.387,-0.377,-1.0
0.2,1549993939.2303696,1.8776180744,34.04081897010009,4789.608324977883,2.338,1.303,-0.481,-1.112
0.2,1549993939.2303696,1.8779125214,37.23917062545685,4763.212971455834,2.266,1.219,-0.585,-1.224
0.2,1549993939.2303696,1.8782054186,40.73802778041128,4738.053933388255,2.193,1.136,-0.69,-1.337
0.2,1549993939.2303696,1.8784972429,44.6683592150963,4711.94269420276,2.12,1.051,-0.796,-1.453
0.2,1549993939.2303696,1.878783226,48.86523593428336,4684.8964916001305,2.048,0.968,-0.901,-1.567
0.2,1549993939.2303696,1.879065156,53.456435939697165,4658.005532200294,1.977,0.885,-1.007,-1.682
0.2,1549993939.2303696,1.8793424368,58.47900841444806,4631.268924918746,1.907,0.803,-1.112,-1.797
0.2,1549993939.2303696,1.8796095848,63.973483548264824,4603.625637759879,1.84,0.724,-1.216,-1.91
0.2,1549993939.2303696,1.8799034357,70.6317554262962,4572.987349813346,1.769,0.635,-1.333,-2.038
0.2,1549993939.2303696,1.88020432,78.52356346100719,4540.461526048465,1.699,0.544,-1.456,-2.171
0.2,1549993939.2303696,1.8804636002,86.09937521846008,4512.321133443373,1.638,0.465,-1.564,-2.289
0.2,1549993939.2303696,1.8807604313,95.71940712948447,4478.164058439384,1.568,0.373,-1.69,-2.426
0.2,1549993939.2303696,1.8810442686,105.92537251772886,4445.28899122317,1.504,0.287,-1.809,-2.558
0.2,1549993939.2303696,1.88131845,116.6809617060963,4414.687837052633,1.445,0.208,-1.922,-2.681
0.2,1549993939.2303696,1.8815999031,128.23305826560218,4385.306977749856,1.387,0.129,-2.033,-2.803
0.2,1549993939.2303696,1.8819378614,141.2537544622754,4354.116049150633,1.329,0.051,-2.145,-2.927
0.2,1549993939.2303696,1.8823558092,152.75660582380732,4330.1206773800395,1.283,-0.011,-2.235,-3.026
0.2,1549993939.2303696,1.8825998306,145.8814260275349,4344.101860128392,1.308,0.024,-2.183,-2.969
0.2,1549993939.2303696,1.8827837706,133.3521432163324,4374.2137356813055,1.36,0.095,-2.078,-2.852
0.2,1549993939.2303696,1.8828961849,122.4616199265049,4402.50644073913,1.412,0.166,-1.977,-2.741
0.2,1549993939.2303696,1.8829969168,111.68632477805612,4432.002533708497,1.468,0.242,-1.869,-2.622
0.2,1549993939.2303696,1.8830887079,102.09394837076798,4462.723707622523,1.521,0.315,-1.763,-2.505
0.2,1549993939.2303696,1.883187294,92.46981739382225,4494.692652627942,1.584,0.398,-1.648,-2.379
0.2,1549993939.2303696,1.8832939863,83.75292821268826,4526.890608773584,1.649,0.484,-1.53,-2.25
0.2,1549993939.2303696,1.8834081888,76.03262769401819,4558.269515401941,1.71,0.565,-1.418,-2.127
0.2,1549993939.2303696,1.8835587502,68.86522963442762,4590.922907591308,1.778,0.653,-1.299,-1.997
0.2,1549993939.2303696,1.8836282492,66.3743070401909,4601.506077890588,1.802,0.684,-1.258,-1.952
0.2,1549993939.2303696,1.8838224411,71.28530301265195,4579.3095315174405,1.752,0.62,-1.342,-2.043
0.2,1549993939.2303696,1.8840981722,78.16278045883297,4550.928370849554,1.692,0.542,-1.448,-2.16
0.2,1549993939.2303696,1.8844695091,86.29785477669702,4519.600000304826,1.626,0.456,-1.566,-2.288
0.2,1549993939.2303696,1.884878993,95.71940712948447,4486.420743836898,1.558,0.366,-1.688,-2.422
0.2,1549993939.2303696,1.8852834702,105.92537251772886,4454.510633598985,1.494,0.282,-1.805,-2.55
0.2,1549993939.2303696,1.8857132196,117.48975549395291,4420.79116875633,1.43,0.196,-1.927,-2.684
0.2,1549993939.2303696,1.886118412,129.41958414499862,4390.358656409448,1.37,0.115,-2.041,-2.809
0.2,1549993939.2303696,1.8865263462,142.8893958511102,4358.128185607303,1.311,0.035,-2.156,-2.936
0.2,1549993939.2303696,1.8869354725,157.76112696993485,4326.1343249159545,1.253,-0.045,-2.273,-3.065
0.2,1549993939.2303696,1.8873276711,174.18068733916147,4295.364267648873,1.195,-0.126,-2.385,-3.187
0.2,1549993939.2303696,1.8877002001,191.4255925021086,4264.813065450337,1.14,-0.205,-2.494,-3.305
0.2,1549993939.2303696,1.8880662918,210.3778439766475,4234.479161692072,1.083,-0.282,-2.605,-3.425
0.2,1549993939.2303696,1.8884184361,231.73946499684797,4203.393032365499,1.027,-0.359,-2.715,-3.545
0.2,1549993939.2303696,1.8887429237,254.0972705549304,4174.457078262909,0.972,-0.433,-2.821,-3.661
0.2,1549993939.2303696,1.889054656,278.61211686297696,4144.765840379393,0.918,-0.505,-2.927,-3.777
0.2,1549993939.2303696,1.8893544674,305.49211132155125,4114.338313870812,0.864,-0.575,-3.033,-3.894
0.2,1549993939.2303696,1.889631629,334.19504002611427,4086.015408138228,0.811,-0.643,-3.135,-4.007
0.2,1549993939.2303696,1.8898928165,364.75394692560764,4056.9532203604513,0.759,-0.708,-3.236,-4.119
0.2,1549993939.2303696,1.890140295,398.1071705534973,4029.025350832952,0.711,-0.769,-3.337,-4.232
0.2,1549993939.2303696,1.8903721571,433.51087838752886,4000.3685104612505,0.672,-0.823,-3.438,-4.346
0.2,1549993939.2303696,1.8905864954,472.06304126359043,3971.915494694405,0.636,-0.873,-3.536,-4.456
0.2,1549993939.2303696,1.890789628,512.8613839913648,3944.573020752785,0.602,-0.918,-3.634,-4.567
0.2,1549993939.2303696,1.8909813166,557.1857489319299,3917.4187710778306,0.569,-0.962,-3.731,-4.676
0.2,1549993939.2303696,1.8911601305,602.5595860743575,3890.4514499428046,0.539,-1.004,-3.826,-4.782
0.2,1549993939.2303696,1.8913270235,651.6283940608428,3863.669770540693,0.515,-1.035,-3.918,-4.886
0.2,1549993939.2303696,1.89148283,703.0723198838334,3837.9560752329744,0.493,-1.064,-4.008,-4.987
0.2,1549993939.2303696,1.8915579319,727.7798045368243,3825.6038866803838,0.483,-1.077,-4.05,-5.035
0.2,1549993939.2303696,1.8915579319,39.99447497610976,4823.918924327151,2.131,1.108,-0.647,-1.266
0.2,1549993939.2303696,1.8937294483,41.20975190973302,4815.041116556669,2.108,1.081,-0.68,-1.302
0.2,1549993939.2303696,1.8959386349,41.78303666466218,4812.824218676023,2.095,1.068,-0.696,-1.319
0.2,1549993939.2303696,1.8981648684,41.97589839910075,4812.824218676023,2.088,1.061,-0.703,-1.325
0.2,1549993939.2303696,1.9000509977,41.97589839910075,4816.14994840047,2.087,1.061,-0.701,-1.322
0.2,1549993939.2303696,1.9003281593,42.36429660495411,4812.824218676023,2.08,1.052,-0.712,-1.334
0.2,1549993939.2303696,1.9011098146,43.35108783875289,4805.073110898136,2.061,1.03,-0.739,-1.365
0.2,1549993939.2303696,1.901892066,44.157044735331255,4798.439240638985,2.047,1.013,-0.761,-1.388
0.2,1549993939.2303696,1.9026833773,44.77133041763626,4794.021749415102,2.036,1.001,-0.777,-1.405
0.2,1549993939.2303696,1.9034794569,45.18559443749224,4791.814529082236,2.029,0.993,-0.787,-1.416
0.2,1549993939.2303696,1.9042634964,45.39416166502032,4790.711300030745,2.025,0.988,-0.792,-1.422
0.2,1549993939.2303696,1.9058339596,46.238102139926035,4784.097257646801,2.01,0.971,-0.814,-1.446
0.2,1549993939.2303696,1.9069834948,47.97334486366892,4771.995220268839,1.982,0.937,-0.858,-1.494
0.2,1549993939.2303696,1.9082329273,48.97788193684461,4765.407017251339,1.965,0.917,-0.884,-1.522
0.2,1549993939.2303696,1.9082735777,47.97334486366892,4773.094139287512,1.982,0.938,-0.857,-1.492
0.2,1549993939.2303696,1.9083045721,46.88133821452653,4780.793661491186,1.998,0.956,-0.832,-1.465
0.2,1549993939.2303696,1.9083381891,46.025657358135604,4787.4031366341615,2.013,0.975,-0.808,-1.439
0.2,1549993939.2303696,1.9083893299,44.87453899331321,4796.22998644458,2.033,0.998,-0.778,-1.406
0.2,1549993939.2303696,1.9084570408,43.752210515825205,4803.966829296808,2.053,1.021,-0.749,-1.374
0.2,1549993939.2303696,1.9085557461,42.65795188015925,4811.716152521639,2.073,1.045,-0.719,-1.342
0.2,1549993939.2303696,1.9087109566,41.59106104940221,4820.587829837399,2.092,1.068,-0.69,-1.31
0.2,1549993939.2303696,1.9089761972,40.55085354483839,4828.363964551585,2.113,1.092,-0.659,-1.277
0.2,1549993939.2303696,1.9094600677,39.35500754557774,4838.380286511588,2.136,1.118,-0.626,-1.24
0.2,1549993939.2303696,1.9104276896,38.194427084004666,4848.4173870844625,2.161,1.148,-0.589,-1.2
0.2,1549993939.2303696,1.9104664326,38.37072454922788,4846.185122401829,2.157,1.143,-0.595,-1.208
0.2,1549993939.2303696,1.910541296,40.179081084894,4831.700432460599,2.121,1.101,-0.648,-1.265
0.2,1549993939.2303696,1.9106469154,40.83193863326921,4826.140932685212,2.109,1.086,-0.667,-1.286
0.2,1549993939.2303696,1.9159866571,37.41105882720533,4850.650679999713,2.18,1.168,-0.567,-1.178
0.2,1549993939.2303696,1.9249999523,35.0751873952568,4866.312560731986,2.237,1.232,-0.491,-1.097
0.2,1549993939.2303696,1.9315159321,35.3183169791957,4873.040266252349,2.223,1.22,-0.498,-1.102
0.2,1549993939.2303696,1.9484374523,37.15352290971726,4878.653791974776,2.163,1.162,-0.55,-1.152
0.2,1549993939.2303696,1.9524360895,37.67037989839089,4879.77727286486,2.147,1.147,-0.565,-1.167
0.2,1549993939.2303696,1.9740667343,41.20975190973302,4878.653791974776,2.051,1.049,-0.663,-1.265
0.2,1549993939.2303696,1.9953123331,46.13175745603793,4861.832584649837,1.942,0.933,-0.792,-1.399
0.2,1549993939.2303696,2.0053119659,49.20395356814509,4847.301126243664,1.886,0.871,-0.865,-1.476
0.2,1549993939.2303696,2.0087463856,50.35006087879047,4842.83865227851,1.866,0.849,-0.891,-1.504
0.2,1549993939.2303696,2.0131168365,52.60172663907063,4828.363964551585,1.832,0.809,-0.942,-1.559
0.2,1549993939.2303696,2.0163884163,53.08844442309885,4830.5880203977285,1.819,0.797,-0.952,-1.569
0.2,1549993939.2303696,2.0208983421,56.88529308438413,4801.755030139799,1.769,0.735,-1.036,-1.661
0.2,1549993939.2303696,2.0226759911,62.8058358813318,4758.827909888171,1.702,0.65,-1.155,-1.794
0.2,1549993939.2303696,2.02339077,68.54882264526617,4722.804843922316,1.641,0.574,-1.26,-1.912
0.2,1549993939.2303696,2.0238068104,74.98942093324558,4688.13382145265,1.578,0.496,-1.367,-2.03
0.2,1549993939.2303696,2.0240809917,83.56030182312479,4646.222461325775,1.51,0.404,-1.497,-2.174
0.2,1549993939.2303696,2.0242176056,92.89663867799364,4606.806808300934,1.443,0.314,-1.624,-2.314
0.2,1549993939.2303696,2.0242826939,101.85913880541169,4574.040440300427,1.386,0.237,-1.732,-2.433
0.2,1549993939.2303696,2.0243282318,111.68632477805612,4539.416166502032,1.33,0.159,-1.843,-2.556
0.2,1549993939.2303696,2.0243382454,114.55129414455361,4530.018754322402,1.315,0.14,-1.872,-2.588
0.2,1549993939.2303696,2.0243625641,120.78138351067798,4512.321133443373,1.283,0.096,-1.933,-2.656
0.2,1549993939.2303696,2.0244038105,126.4736347471151,4495.727713019056,1.255,0.058,-1.988,-2.716
0.2,1549993939.2303696,2.02450037,123.8796586530369,4504.016781680873,1.266,0.074,-1.964,-2.689
0.2,1549993939.2303696,2.0246634483,117.21953655481303,4523.764623324995,1.299,0.119,-1.899,-2.617
0.2,1549993939.2303696,2.0257496834,119.6740531307243,4516.479049291119,1.286,0.102,-1.923,-2.644
0.2,1549993939.2303696,2.02643013,124.45146117713857,4502.9798128808925,1.261,0.068,-1.971,-2.696
0.2,1549993939.2303696,2.0279409885,135.8313446587154,4473.0113482444785,1.207,-0.005,-2.073,-2.809
0.2,1549993939.2303696,2.028963089,149.9684835502374,4439.1518378955125,1.148,-0.086,-2.19,-2.939
0.2,1549993939.2303696,2.029676199,164.05897731995387,4407.5779324153655,1.097,-0.157,-2.295,-3.054
0.2,1549993939.2303696,2.0302345753,179.47336268325265,4376.228599453495,1.045,-0.229,-2.401,-3.171
0.2,1549993939.2303696,2.0306899548,196.7886289706845,4345.102241715715,0.995,-0.304,-2.507,-3.287
0.2,1549993939.2303696,2.0310723782,215.27817347243737,4313.204006994161,0.945,-0.378,-2.612,-3.402
0.2,1549993939.2303696,2.0314030647,235.5049283896009,4281.539943374177,0.894,-0.451,-2.716,-3.516
0.2,1549993939.2303696,2.0316958427,257.63211570025754,4251.087068046156,0.844,-0.523,-2.82,-3.63
0.2,1549993939.2303696,2.0319583416,282.48799749157075,4219.879016871569,0.793,-0.594,-2.925,-3.745
0.2,1549993939.2303696,2.0321900845,309.7419299216581,4187.935651179182,0.74,-0.667,-3.031,-3.862
0.2,1549993939.2303696,2.0323848724,339.62527259040854,4156.2340882986055,0.687,-0.738,-3.138,-3.98
0.2,1549993939.2303696,2.0325391293,371.5352290971724,4124.772497846638,0.636,-0.804,-3.242,-4.096
0.2,1549993939.2303696,2.0326595306,405.5085354483839,4094.4917463268844,0.587,-0.869,-3.341,-4.207
0.2,1549993939.2303696,2.032759428,441.57044735331255,4065.3692697573383,0.54,-0.93,-3.44,-4.319
0.2,1549993939.2303696,2.0328416824,478.6300923226385,4037.3834645533043,0.505,-0.98,-3.536,-4.427
0.2,1549993939.2303696,2.0329110622,516.416369272071,4010.513660865759,0.472,-1.027,-3.626,-4.528
0.2,1549993939.2303696,2.0329785347,559.7576014951104,3981.988486715585,0.438,-1.076,-3.721,-4.636
0.2,1549993939.2303696,2.0330533981,615.1768727098683,3949.1169934897503,0.403,-1.124,-3.833,-4.762
0.2,1549993939.2303696,2.0331163406,668.3439175686149,3921.0285091946057,0.373,-1.165,-3.929,-4.871
0.2,1549993939.2303696,2.0331816673,726.1059574351551,3890.4514499428046,0.344,-1.207,-4.03,-4.985
0.2,1549993939.2303696,2.0332605839,803.5261221856169,3854.783576657717,0.317,-1.244,-4.149,-5.12
0.2,1549993939.2303696,2.0333464146,893.3054837332954,3817.684194975441,0.289,-1.284,-4.275,-5.263
0.2,1549993939.2303696,2.0334331989,988.553094656939,3780.941866832965,0.27,-1.308,-4.397,-5.401
0.2,1549993939.2303696,2.0335245132,1093.956366272094,3743.6910398904515,0.263,-1.319,-4.52,-5.54
0.2,1549993939.2303696,2.0336198807,1210.598133550483,3705.953792179554,0.263,-1.32,-4.643,-5.68
0.2,1549993939.2303696,2.0337171555,1336.5955165464418,3668.5969444134184,0.276,-1.301,-4.765,-5.816
0.2,1549993939.2303696,2.0338139534,1510.0801541641476,3622.4299841669877,0.3,-1.268,-4.915,-5.986
0.2,1549993939.2303696,2.0338232517,1584.893192461114,3604.1262864914356,0.319,-1.242,-4.975,-6.053
0.2,1549993939.2303696,2.0338253975,1595.879147236732,3601.6375039472773,0.321,-1.24,-4.981,-6.06
0.2,1549993939.2303696,2.0338258743,1555.965631605075,3570.2612803901543,0.461,-1.077,-4.965,-6.058
0.2,1549993939.2303696,2.0338265896,695.0243175887969,3854.783576657717,0.463,-1.086,-3.991,-4.963
0.2,1549993939.2303696,2.033826828,622.3002851691596,3899.419866765436,0.487,-1.051,-3.856,-4.809
0.2,1549993939.2303696,2.0338282585,359.74933515574236,4121.924189830974,0.677,-0.764,-3.207,-4.063
0.2,1549993939.2303696,2.0338306427,365.59479161312504,4113.391061524547,0.671,-0.773,-3.226,-4.085
0.2,1549993939.2303696,2.0338335037,466.6593803142887,4010.513660865759,0.574,-0.917,-3.515,-4.418
0.2,1549993939.2303696,2.0338375568,717.7942912713615,3837.0724549227884,0.467,-1.086,-4.031,-5.011
0.2,1549993939.2303696,2.0338423252,1076.465213629835,3680.4421857199322,0.454,-1.106,-4.524,-5.571
0.2,1549993939.2303696,2.0338482857,1428.8939585111023,3573.5511273490297,0.533,-0.998,-4.871,-5.963
0.2,1549993939.2303696,2.0338549614,1671.090614310707,3514.7950006430638,0.619,-0.883,-5.065,-6.181
0.2,1549993939.2303696,2.0338628292,1803.017740859568,3484.175319018589,0.679,-0.805,-5.16,-6.289
0.2,1549993939.2303696,2.0338716507,1887.9913490962927,3464.1764103524893,0.725,-0.746,-5.219,-6.357
0.2,1549993939.2303696,2.0338718891,1032.7614057613969,3682.9854234157206,0.488,-1.069,-4.477,-5.524
0.2,1549993939.2303696,2.0338726044,762.0790100254122,3797.519389713327,0.491,-1.069,-4.109,-5.107
0.2,1549993939.2303696,2.0338742733,439.5416154378243,4016.983057462358,0.625,-0.86,-3.448,-4.349
0.2,1549993939.2303696,2.0338766575,444.6312674691088,4012.360995991895,0.622,-0.866,-3.461,-4.364
0.2,1549993939.2303696,2.0338797569,563.6376558259543,3916.5168559121084,0.554,-0.973,-3.744,-4.69
0.2,1549993939.2303696,2.03388381,855.0667128846832,3753.185242379138,0.486,-1.074,-4.248,-5.265
0.2,1549993939.2303696,2.0338890553,1264.736347471151,3605.7864302164235,0.536,-1.003,-4.727,-5.805
0.2,1549993939.2303696,2.0338950157,1651.961798229015,3507.5187395256794,0.66,-0.835,-5.055,-6.175
0.2,1549993939.2303696,2.0339021683,1901.0782799232995,3457.0049388687194,0.752,-0.712,-5.229,-6.369
0.2,1549993939.2303696,2.0339105129,2013.7242498623875,3435.5794789987463,0.806,-0.642,-5.301,-6.45
0.2,1549993939.2303696,2.0339198112,2070.1413487910413,3425.3109270831965,0.834,-0.606,-5.334,-6.488
0.2,1549993939.2303696,2.0339200497,1148.1536214968828,3639.1503612720708,0.517,-1.031,-4.608,-5.673
0.2,1549993939.2303696,2.0339210033,849.1804750363135,3753.185242379138,0.493,-1.067,-4.239,-5.256
0.2,1549993939.2303696,2.0339224339,489.77881936844614,3971.915494694405,0.595,-0.912,-3.575,-4.496
0.2,1549993939.2303696,2.0339250565,494.3106869868354,3967.345289316547,0.591,-0.917,-3.588,-4.511
0.2,1549993939.2303696,2.0339283943,625.1726927756855,3873.468245564424,0.532,-1.008,-3.869,-4.833
0.2,1549993939.2303696,2.0339326859,944.0608762859235,3712.786702756398,0.488,-1.073,-4.368,-5.403
0.2,1549993939.2303696,2.0339379311,1389.9526312133526,3567.795882885623,0.582,-0.942,-4.843,-5.937
0.2,1549993939.2303696,2.0339443684,1807.1741260109275,3472.1621617221945,0.729,-0.745,-5.168,-6.302
0.2,1549993939.2303696,2.0339519978,2074.9135174549106,3422.9456231604145,0.844,-0.595,-5.338,-6.493
0.2,1549993939.2303696,2.0339605808,2197.8598727848253,3402.5146202702363,0.896,-0.528,-5.409,-6.572
0.2,1549993939.2303696,2.033970356,2254.2392121524304,3393.907487744292,0.919,-0.499,-5.44,-6.606
0.2,1549993939.2303696,2.0339705944,1270.5741052085418,3601.6375039472773,0.546,-0.991,-4.733,-5.814
0.2,1549993939.2303696,2.0339715481,941.8895965228418,3716.2078809514237,0.481,-1.082,-4.364,-5.397
0.2,1549993939.2303696,2.0339729786,543.250331492433,3935.5007545577764,0.557,-0.964,-3.698,-4.635
0.2,1549993939.2303696,2.0339756012,548.2769649208536,3931.877693146969,0.553,-0.969,-3.711,-4.649
0.2,1549993939.2303696,2.0339789391,690.239803840242,3839.723926353774,0.502,-1.048,-3.987,-4.966
0.2,1549993939.2303696,2.0339832306,1035.1421666793442,3681.289736425313,0.489,-1.068,-4.481,-5.528
0.2,1549993939.2303696,2.0339884758,1517.050367459337,3539.1583956694994,0.608,-0.905,-4.949,-6.056
0.2,1549993939.2303696,2.0339949131,1963.3602768360474,3445.8788144433506,0.779,-0.677,-5.269,-6.414
0.2,1549993939.2303696,2.0340025425,2249.0546058357804,3398.599584656671,0.895,-0.528,-5.436,-6.6
0.2,1549993939.2303696,2.0340111256,2376.840286624876,3380.6483620598156,0.945,-0.464,-5.504,-6.675
0.2,1549993939.2303696,2.0340209007,2432.204009073816,3374.4267097541338,0.962,-0.441,-5.532,-6.706
0.2,1549993939.2303696,2.0340211391,1399.5873225726177,3576.0205018090237,0.544,-0.986,-4.847,-5.938
0.2,1549993939.2303696,2.0340220928,1037.5284158180127,3690.6256858412085,0.46,-1.101,-4.48,-5.524
0.2,1549993939.2303696,2.0340237617,598.4115950603199,3911.1097238892944,0.502,-1.03,-3.812,-4.759
0.2,1549993939.2303696,2.0340266228,605.3408747539136,3906.609483459363,0.499,-1.035,-3.825,-4.774
0.2,1549993939.2303696,2.0340301991,758.5775750291835,3815.047942794385,0.458,-1.101,-4.098,-5.088
0.2,1549993939.2303696,2.0340349674,1132.4003632355566,3657.631930094523,0.474,-1.082,-4.587,-5.644
0.2,1549993939.2303696,2.0340406895,1648.1623915255086,3515.6044052829798,0.628,-0.874,-5.049,-6.165
0.2,1549993939.2303696,2.034047842,2128.139045982711,3422.1575515373916,0.824,-0.617,-5.365,-6.52
0.2,1549993939.2303696,2.0340559483,2432.204009073816,3374.4267097541338,0.961,-0.443,-5.531,-6.705
0.2,1549993939.2303696,2.0340652466,2564.484036517716,3355.057749988978,1.027,-0.36,-5.598,-6.78
0.2,1549993939.2303696,2.0340759754,2624.218543384442,3348.1121738605384,1.052,-0.329,-5.627,-6.812
0.2,1549993939.2303696,2.0340762138,1545.254439538414,3542.4195826164946,0.573,-0.945,-4.969,-6.074
0.2,1549993939.2303696,2.0340771675,1150.8003889444356,3656.789826173249,0.462,-1.095,-4.604,-5.661
0.2,1549993939.2303696,2.0340790749,663.7430704019089,3877.9303087618246,0.463,-1.082,-3.934,-4.896
0.2,1549993939.2303696,2.0340816975,671.4288529259522,3873.468245564424,0.462,-1.085,-3.947,-4.911
0.2,1549993939.2303696,2.0340855122,839.4599865193973,3780.941866832965,0.435,-1.13,-4.218,-5.222
0.2,1549993939.2303696,2.034090519,1241.6523075924106,3624.933134609571,0.483,-1.067,-4.7,-5.77
0.2,1549993939.2303696,2.0340964794,1794.7336268325266,3484.175319018589,0.682,-0.802,-5.156,-6.285
0.2,1549993939.2303696,2.034103632,2312.064790175594,3390.783022519265,0.911,-0.507,-5.47,-6.637
0.2,1549993939.2303696,2.034112215,2636.3313858253787,3342.7200013786605,1.082,-0.292,-5.634,-6.821
0.2,1549993939.2303696,2.0341219902,2779.7132677592886,3322.0028446165034,1.159,-0.197,-5.702,-6.897
0.2,1549993939.2303696,2.0341329575,2851.0182675039096,3312.8364811728147,1.194,-0.154,-5.732,-6.932
0.2,1549993939.2303696,2.0341331959,1721.8685749860078,3499.451670283573,0.657,-0.836,-5.105,-6.227
0.2,1549993939.2303696,2.0341341496,1285.2866599436154,3612.434655644614,0.496,-1.049,-4.741,-5.816
0.2,1549993939.2303696,2.0341360569,741.3102413009177,3834.4228144309195,0.441,-1.115,-4.067,-5.049
0.2,1549993939.2303696,2.0341389179,749.8942093324558,3830.010812264487,0.44,-1.118,-4.08,-5.063
0.2,1549993939.2303696,2.034142971,931.10787546783,3740.244560424048,0.432,-1.135,-4.345,-5.368
0.2,1549993939.2303696,2.0341479778,1367.7288255958495,3586.740857699508,0.529,-1.006,-4.818,-5.905
0.2,1549993939.2303696,2.0341541767,1958.844673505989,3448.2599655262325,0.771,-0.688,-5.265,-6.409
0.2,1549993939.2303696,2.0341618061,2500.345361696432,3356.603166999334,1.046,-0.339,-5.57,-6.752
0.2,1549993939.2303696,2.0341706276,2837.9190284415554,3309.0246319221333,1.227,-0.115,-5.728,-6.93
0.2,1549993939.2303696,2.0341806412,2985.3826189179604,3290.031075247056,1.32,0.007,-5.791,-7.001
0.2,1549993939.2303696,2.0341920853,3047.8949896279833,3281.708485445259,1.362,0.062,-5.817,-7.031
0.2,1549993939.2303696,2.0341923237,1896.7059212111465,3458.597315106485,0.749,-0.717,-5.225,-6.365
0.2,1549993939.2303696,2.0341932774,1415.793779957081,3571.9058251119704,0.549,-0.98,-4.863,-5.956
0.2,1549993939.2303696,2.0341951847,820.3515443298185,3794.8970620763503,0.427,-1.139,-4.188,-5.187
0.2,1549993939.2303696,2.0341980457,827.9421637123345,3790.5305394288553,0.427,-1.139,-4.201,-5.202
0.2,1549993939.2303696,2.0342018604,1025.651926251408,3701.689610332348,0.44,-1.126,-4.463,-5.503
0.2,1549993939.2303696,2.0342066288,1492.794409578996,3550.5857031262385,0.576,-0.945,-4.927,-6.029
0.2,1549993939.2303696,2.0342128277,2123.2444620002193,3414.286807579689,0.869,-0.564,-5.366,-6.524
0.2,1549993939.2303696,2.0342199802,2697.7394324449206,3323.533035774775,1.18,-0.175,-5.667,-6.862
0.2,1549993939.2303696,2.0342285633,3054.9211132155124,3277.177768051718,1.392,0.101,-5.821,-7.037
0.2,1549993939.2303696,2.0342383385,3213.660538640318,3257.616829660631,1.493,0.232,-5.885,-7.11
0.2,1549993939.2303696,2.0342495441,3288.51630875983,3248.6281257920155,1.54,0.293,-5.913,-7.142
0.2,1549993939.2303696,2.0342497826,2103.778439766475,3416.6461281382244,0.865,-0.569,-5.356,-6.514
0.2,1549993939.2303696,2.0342507362,1577.6112696993484,3528.5802582852702,0.615,-0.894,-4.998,-6.108
0.2,1549993939.2303696,2.034252882,916.2204901220001,3751.4572346200985,0.421,-1.146,-4.322,-5.34
0.2,1549993939.2303696,2.034255743,924.698173938223,3747.1406951440317,0.422,-1.146,-4.335,-5.355
0.2,1549993939.2303696,2.0342597961,1140.2497875611684,3659.3167197534817,0.461,-1.097,-4.595,-5.651
0.2,1549993939.2303696,2.0342650414,1644.3717232149324,3510.750771848301,0.651,-0.847,-5.049,-6.167
0.2,1549993939.2303696,2.0342714787,2317.39464996848,3376.758486420327,0.993,-0.41,-5.48,-6.653
0.2,1549993939.2303696,2.034279108,2930.8932452503213,3287.0022396877516,1.355,0.049,-5.773,-6.985
0.2,1549993939.2303696,2.034288168,3318.944575526103,3240.4102704918173,1.596,0.364,-5.925,-7.159
0.2,1549993939.2303696,2.0342986584,3491.4031547858626,3220.3271981675407,1.678,0.469,-5.989,-7.231
0.2,1549993939.2303696,2.0343103409,3580.9643710263585,3210.7020105619063,1.717,0.518,-6.019,-7.265
0.2,1549993939.2303696,2.0343105793,2360.478233180578,3366.665743686229,1.034,-0.359,-5.504,-6.681
0.2,1549993939.2303696,2.034311533,1778.2794100389228,3478.5640153042373,0.718,-0.761,-5.147,-6.278
0.2,1549993939.2303696,2.0343136787,1037.5284158180127,3700.8373629231564,0.432,-1.135,-4.476,-5.515
0.2,1549993939.2303696,2.0343165398,1042.3174293933037,3698.281797802663,0.433,-1.133,-4.483,-5.523
0.2,1549993939.2303696,2.0343205929,1279.3813041575252,3613.2665452345186,0.5,-1.046,-4.736,-5.811
0.2,1549993939.2303696,2.0343258381,1819.7008586099826,3468.965654460541,0.737,-0.737,-5.176,-6.311
0.2,1549993939.2303696,2.0343322754,2535.128630497907,3338.8737672512307,1.141,-0.226,-5.593,-6.782
0.2,1549993939.2303696,2.0343399048,3176.8740706497692,3252.370400952974,1.539,0.288,-5.874,-7.102
0.2,1549993939.2303696,2.0343487263,3572.7283815192886,3208.484902035953,1.729,0.532,-6.018,-7.265
0.2,1549993939.2303696,2.0343592167,3741.105882720533,3191.5378551007616,1.8,0.621,-6.076,-7.331
0.2,1549993939.2303696,2.0343708992,3819.442708400464,3184.1975217261256,1.83,0.659,-6.101,-7.359
0.2,1549993939.2303696,2.0343711376,2606.153549998895,3329.660852068807,1.174,-0.186,-5.627,-6.82
0.2,1549993939.2303696,2.0343720913,1967.886289706845,3441.1214439609093,0.804,-0.65,-5.274,-6.421
0.2,1549993939.2303696,2.0343739986,1156.1122421920993,3661.845359452976,0.441,-1.121,-4.609,-5.664
0.2,1549993939.2303696,2.0343766212,1158.7773561551262,3661.0022854654303,0.44,-1.121,-4.611,-5.666
0.2,1549993939.2303696,2.0343804359,1412.537544622754,3577.6676993611068,0.532,-1.002,-4.858,-5.949
0.2,1549993939.2303696,2.0343854427,1990.6733389871863,3436.370641490611,0.815,-0.635,-5.287,-6.436
0.2,1549993939.2303696,2.0343914032,2747.8941531023975,3308.2627885569786,1.26,-0.078,-5.693,-6.895
0.2,1549993939.2303696,2.0343985558,3419.794425137087,3224.0368719181865,1.676,0.463,-5.966,-7.206
0.2,1549993939.2303696,2.0344069004,3837.0724549227884,3180.5336883295204,1.851,0.684,-6.106,-7.366
0.2,1549993939.2303696,2.0344166756,4017.9081084894,3162.2776601683795,1.934,0.788,-6.164,-7.432
0.2,1549993939.2303696,2.0344276428,4102.041029866068,3154.278240344361,1.967,0.826,-6.189,-7.461
0.2,1549993939.2303696,2.0344278812,2890.6798823654744,3288.51630875983,1.358,0.049,-5.756,-6.967
0.2,1549993939.2303696,2.0344288349,2192.80493535045,3398.599584656671,0.921,-0.502,-5.408,-6.572
0.2,1549993939.2303696,2.0344307423,1297.1792709839558,3618.2619073242986,0.469,-1.083,-4.749,-5.823
0.2,1549993939.2303696,2.0344336033,1294.1958414499863,3619.0951388429776,0.468,-1.084,-4.747,-5.82
0.2,1549993939.2303696,2.034437418,1570.3628043335532,3535.90021100387,0.589,-0.927,-4.989,-6.097
0.2,1549993939.2303696,2.0344424248,2192.80493535045,3397.8171182708334,0.926,-0.496,-5.408,-6.573
0.2,1549993939.2303696,2.0344486237,2992.264636608189,3272.6533057537135,1.445,0.162,-5.802,-7.02
0.2,1549993939.2303696,2.0344557762,3706.80721782576,3188.5996933863867,1.824,0.65,-6.066,-7.322
0.2,1549993939.2303696,2.0344643593,4139.996748197304,3145.5746774318936,2.013,0.876,-6.203,-7.479
0.2,1549993939.2303696,2.0344743729,4345.102241715715,3126.799256376112,2.091,0.964,-6.26,-7.546
0.2,1549993939.2303696,2.0344855785,4436.086439314323,3116.7358754452835,2.134,1.01,-6.287,-7.578
0.2,1549993939.2303696,2.034485817,3228.4941217126348,3239.664224348446,1.628,0.399,-5.896,-7.13
0.2,1549993939.2303696,2.0344867706,2454.708915685031,3348.883193942221,1.112,-0.265,-5.554,-6.739
0.2,1549993939.2303696,2.0344884396,1465.5478409559114,3566.1532304264047,0.54,-0.991,-4.902,-5.997
0.2,1549993939.2303696,2.0344913006,1455.4590805819653,3568.617492834813,0.535,-0.997,-4.893,-5.987
0.2,1549993939.2303696,2.0344951153,1753.880501841762,3488.9922117346073,0.688,-0.8,-5.129,-6.256
0.2,1549993939.2303696,2.0344998837,2415.4608344449402,3355.057749988978,1.086,-0.296,-5.533,-6.715
0.2,1549993939.2303696,2.0345058441,3258.367010020087,3234.446708514467,1.656,0.435,-5.909,-7.145
0.2,1549993939.2303696,2.0345127583,3999.4474976109736,3154.278240344361,1.987,0.847,-6.161,-7.432
0.2,1549993939.2303696,2.0345211029,4436.086439314323,3113.8665771825613,2.153,1.031,-6.288,-7.581
0.2,1549993939.2303696,2.0345306396,4623.810213992603,3097.419299216581,2.222,1.107,-6.339,-7.641
0.2,1549993939.2303696,2.0345416069,4709.77326396953,3090.295432513592,2.252,1.141,-6.362,-7.667
0.2,1549993939.2303696,2.0345418453,3539.9734108343464,3201.842758202777,1.784,0.596,-6.012,-7.262
0.2,1549993939.2303696,2.034542799,2703.9583641088434,3309.786650728407,1.265,-0.075,-5.677,-6.878
0.2,1549993939.2303696,2.0345442295,1625.5487557504835,3526.1436430685917,0.599,-0.913,-5.031,-6.143
0.2,1549993939.2303696,2.0345468521,1606.9412530128773,3531.018557237582,0.589,-0.926,-5.017,-6.126
0.2,1549993939.2303696,2.03455019,1927.5249131909366,3451.437393358561,0.769,-0.694,-5.247,-6.389
0.2,1549993939.2303696,2.0345544815,2624.218543384442,3321.2380132514595,1.221,-0.131,-5.638,-6.835
0.2,1549993939.2303696,2.0345599651,3507.5187395256794,3203.3176008528117,1.783,0.594,-6.0,-7.249
0.2,1549993939.2303696,2.0345664024,4265.795188015925,3124.640085806112,2.118,0.992,-6.24,-7.527
0.2,1549993939.2303696,2.0345737934,4709.77326396953,3084.6081377571413,2.275,1.159,-6.363,-7.671
0.2,1549993939.2303696,2.0345826149,4909.078761526029,3067.608976917938,2.313,1.178,-6.413,-7.728
0.2,1549993939.2303696,2.0345923901,4988.844874600121,3059.849034654997,2.332,1.189,-6.435,-7.753
0.2,1549993939.2303696,2.0345926285,3863.669770540693,3160.0939904479483,1.98,0.838,-6.123,-7.391
0.2,1549993939.2303696,2.0345935822,2964.8313895243423,3268.1350899154786,1.489,0.214,-5.792,-7.013
0.2,1549993939.2303696,2.0345950127,1794.7336268325266,3482.571166386543,0.694,-0.791,-5.156,-6.286
0.2,1549993939.2303696,2.0345976353,1766.037820686164,3488.9922117346073,0.679,-0.811,-5.136,-6.263
0.2,1549993939.2303696,2.0346009731,2108.6281499332886,3411.9291162192844,0.89,-0.543,-5.361,-6.52
0.2,1549993939.2303696,2.0346055031,2837.9190284415554,3285.4888677097247,1.4,0.098,-5.739,-6.951
0.2,1549993939.2303696,2.0346109867,3749.730022454834,3171.027438947892,1.935,0.783,-6.086,-7.35
0.2,1549993939.2303696,2.034617424,4528.975799036209,3095.2804165939788,2.254,1.142,-6.316,-7.618
0.2,1549993939.2303696,2.0346250534,4977.37084978936,3057.032106987659,2.346,1.2,-6.433,-7.752
0.2,1549993939.2303696,2.0346338749,5176.068319505676,3042.2857274809608,2.381,1.217,-6.48,-7.806
0.2,1549993939.2303696,2.0346438885,5260.172663907063,3035.2886644741984,2.396,1.224,-6.499,-7.828
0.2,1549993939.2303696,2.0346441269,4197.589839910078,3124.640085806112,2.132,1.007,-6.223,-7.51
0.2,1549993939.2303696,2.0346448421,3235.936569296281,3232.2132033960884,1.682,0.462,-5.9,-7.138
0.2,1549993939.2303696,2.0346462727,1972.4227361148535,3445.08546286579,0.783,-0.677,-5.274,-6.419
0.2,1549993939.2303696,2.0346486568,1936.4219639466069,3453.822385498232,0.758,-0.709,-5.249,-6.391
0.2,1549993939.2303696,2.0346517563,2301.441817408509,3376.758486420327,1.003,-0.403,-5.47,-6.643
0.2,1549993939.2303696,2.034655571,3069.021988391158,3253.1193731384888,1.574,0.323,-5.835,-7.062
0.2,1549993939.2303696,2.0346605778,4008.6671762730302,3141.2319059861875,2.07,0.938,-6.169,-7.447
0.2,1549993939.2303696,2.0346662998,4808.393484497285,3066.9027151623077,2.336,1.201,-6.391,-7.706
0.2,1549993939.2303696,2.034673214,5272.298614228227,3029.0050681662174,2.423,1.244,-6.505,-7.837
0.2,1549993939.2303696,2.0346810818,5482.769649208536,3013.006024186122,2.457,1.259,-6.551,-7.891
0.2,1549993939.2303696,2.0346899033,5571.857489319298,3004.692272040942,2.472,1.264,-6.573,-7.915
0.2,1549993939.2303696,2.0346901417,4570.881896148751,3083.8979622506845,2.307,1.191,-6.33,-7.638
0.2,1549993939.2303696,2.0346908569,3531.83169791957,3190.0684359752117,1.864,0.69,-6.014,-7.269
0.2,1549993939.2303696,2.0346922874,2172.7011788637456,3400.9480651219096,0.922,-0.505,-5.398,-6.562
0.2,1549993939.2303696,2.0346946716,2123.2444620002193,3411.9291162192844,0.888,-0.547,-5.367,-6.526
0.2,1549993939.2303696,2.0346977711,2511.88643150958,3336.56815138526,1.171,-0.196,-5.583,-6.773
0.2,1549993939.2303696,2.0347015858,3311.311214825911,3215.8812236044914,1.757,0.555,-5.933,-7.176
0.2,1549993939.2303696,2.0347065926,4285.485203974396,3107.420310388586,2.225,1.108,-6.251,-7.547
0.2,1549993939.2303696,2.0347123146,5093.308710571952,3036.686788465786,2.421,1.252,-6.464,-7.792
0.2,1549993939.2303696,2.0347192287,5559.042572704037,3000.5440024430936,2.492,1.28,-6.57,-7.914
0.2,1549993939.2303696,2.0347270966,5754.399373371566,2985.3826189179604,2.518,1.288,-6.612,-7.963
0.2,1549993939.2303696,2.034735918,5834.451042737448,2978.5164294291912,2.532,1.294,-6.63,-7.984
0.2,1549993939.2303696,2.0347361565,4920.395356814511,3046.491705257325,2.405,1.249,-6.423,-7.747
0.2,1549993939.2303696,2.0347368717,3819.442708400464,3152.1000945192795,2.046,0.91,-6.113,-7.385
0.2,1549993939.2303696,2.0347380638,2365.9196974857587,3361.243690470534,1.075,-0.316,-5.509,-6.689
0.2,1549993939.2303696,2.0347402096,2301.441817408509,3373.6498087376713,1.026,-0.376,-5.474,-6.649
0.2,1549993939.2303696,2.0347428322,2716.4392688390835,3298.3747715856816,1.349,0.025,-5.685,-6.891
0.2,1549993939.2303696,2.0347464085,3556.3131856898544,3180.5336883295204,1.922,0.759,-6.023,-7.282
0.2,1549993939.2303696,2.0347507,4560.369159512959,3073.972656082513,2.352,1.227,-6.331,-7.642
0.2,1549993939.2303696,2.0347559452,5382.697825162882,3004.0004957242286,2.504,1.298,-6.536,-7.879
0.2,1549993939.2303696,2.0347619057,5874.893525297769,2967.563358073529,2.566,1.317,-6.641,-7.999
0.2,1549993939.2303696,2.0347690582,6081.350012787177,2951.209226666387,2.596,1.327,-6.685,-8.05
0.2,1549993939.2303696,2.034776926,6180.164001384158,2942.388401724649,2.61,1.333,-6.706,-8.074
0.2,1549993939.2303696,2.0347771645,5345.643593969719,3000.5440024430936,2.522,1.313,-6.529,-7.873
0.2,1549993939.2303696,2.0347778797,4168.693834703355,3104.5595881283557,2.267,1.154,-6.223,-7.52
0.2,1549993939.2303696,2.0347790718,2600.159563165272,3312.0737601979727,1.295,-0.049,-5.632,-6.833
0.2,1549993939.2303696,2.0347809792,2517.676927758854,3326.5955329400435,1.234,-0.124,-5.591,-6.785
0.2,1549993939.2303696,2.0347836018,2958.0124665515464,3253.8685178010755,1.607,0.355,-5.794,-7.021
0.2,1549993939.2303696,2.0347869396,3828.2474331682283,3139.062769137658,2.125,0.996,-6.118,-7.397
0.2,1549993939.2303696,2.0347912312,4852.88500162121,3036.686788465786,2.461,1.295,-6.411,-7.739
0.2,1549993939.2303696,2.0347962379,5675.446054085472,2969.6139863991652,2.586,1.341,-6.604,-7.961
0.2,1549993939.2303696,2.0348021984,6151.7687270986835,2935.621096191421,2.635,1.353,-6.701,-8.071
0.2,1549993939.2303696,2.0348091125,6338.69711256927,2921.4603738773317,2.652,1.357,-6.739,-8.114
0.2,1549993939.2303696,2.0348167419,6412.095765851615,2915.4124227107563,2.662,1.361,-6.754,-8.132
0.2,1549993939.2303696,2.0348169804,5688.529308438413,2964.8313895243423,2.605,1.354,-6.607,-7.966
0.2,1549993939.2303696,2.0348174572,4446.312674691088,3068.315401315068,2.4,1.271,-6.306,-7.62
0.2,1549993939.2303696,2.0348188877,2798.981319634363,3274.1607653757505,1.502,0.217,-5.726,-6.944
0.2,1549993939.2303696,2.0348205566,2697.7394324449206,3290.788720121735,1.418,0.107,-5.681,-6.891
0.2,1549993939.2303696,2.0348231792,3155.0046233746275,3218.103443093442,1.795,0.592,-5.88,-7.123
0.2,1549993939.2303696,2.0348265171,4055.085354483839,3105.274521697761,2.292,1.179,-6.192,-7.489
0.2,1549993939.2303696,2.0348305702,5093.308710571952,3004.692272040942,2.55,1.349,-6.475,-7.817
0.2,1549993939.2303696,2.0348353386,5929.2532458,2939.002801171145,2.657,1.38,-6.661,-8.03
0.2,1549993939.2303696,2.0348410606,6397.348354826482,2904.6914073819084,2.695,1.386,-6.755,-8.136
0.2,1549993939.2303696,2.0348477364,6591.738952443213,2890.014355349471,2.714,1.39,-6.792,-8.179
0.2,1549993939.2303696,2.0348551273,6683.439175686149,2882.703663307125,2.726,1.395,-6.808,-8.198
0.2,1549993939.2303696,2.0348553658,6067.363295885053,2922.8060659319312,2.688,1.397,-6.69,-8.064
0.2,1549993939.2303696,2.0348558426,4764.309868054156,3026.216535763348,2.527,1.351,-6.395,-7.728
0.2,1549993939.2303696,2.0348570347,3013.006024186122,3231.4690444798844,1.758,0.54,-5.825,-7.063
0.2,1549993939.2303696,2.0348587036,2897.3435877013244,3249.376236187617,1.663,0.418,-5.775,-7.004
0.2,1549993939.2303696,2.0348610878,3380.6483620598156,3177.6056571612876,1.995,0.837,-5.969,-7.229
0.2,1549993939.2303696,2.0348641872,4295.364267648873,3066.9027151623077,2.439,1.309,-6.269,-7.584
0.2,1549993939.2303696,2.0348677635,5357.966575133417,2968.9302862263726,2.643,1.4,-6.541,-7.898
0.2,1549993939.2303696,2.0348722935,6194.410750767812,2904.022654464451,2.727,1.419,-6.72,-8.101
0.2,1549993939.2303696,2.0348775387,6668.067692136218,2871.441679790805,2.759,1.426,-6.808,-8.201
0.2,1549993939.2303696,2.0348834991,6854.882264526614,2856.932634583698,2.779,1.439,-6.843,-8.24
0.2,1549993939.2303696,2.0348904133,6934.258060165695,2849.049533909905,2.795,1.45,-6.858,-8.258
0.2,1549993939.2303696,2.0348906517,6441.692655151775,2880.713049775041,2.766,1.437,-6.767,-8.157
0.2,1549993939.2303696,2.0348911285,5069.907082747044,2983.321101768171,2.638,1.414,-6.477,-7.827
0.2,1549993939.2303696,2.0348920822,3235.936569296281,3187.8655756958997,1.968,0.798,-5.919,-7.174
0.2,1549993939.2303696,2.0348937511,3097.419299216581,3207.746206134075,1.883,0.691,-5.864,-7.111
0.2,1549993939.2303696,2.0348961353,3597.4933515574235,3135.4508691442925,2.211,1.084,-6.053,-7.334
0.2,1549993939.2303696,2.0348989964,4549.880601500485,3026.913428101305,2.569,1.395,-6.345,-7.678
0.2,1549993939.2303696,2.0349023342,5623.413251903491,2930.2184598312765,2.736,1.454,-6.606,-7.978
0.2,1549993939.2303696,2.0349066257,6471.426157485831,2866.8171905248937,2.8,1.467,-6.778,-8.171
0.2,1549993939.2303696,2.0349116325,6950.243175887969,2833.3485277843724,2.853,1.5,-6.862,-8.268
0.2,1549993939.2303696,2.0349173546,7144.963260755135,2818.382931264455,2.881,1.519,-6.897,-8.308
0.2,1549993939.2303696,2.0349237919,7227.698036021702,2809.9591088425027,2.894,1.533,-6.913,-8.325
0.2,1549993939.2303696,2.0349240303,6870.684400142324,2831.391995799379,2.872,1.518,-6.852,-8.259
0.2,1549993939.2303696,2.0349245071,5407.5432294558095,2935.621096191421,2.757,1.481,-6.562,-7.931
0.2,1549993939.2303696,2.0349254608,3475.3616144320576,3139.7856482728203,2.223,1.095,-6.013,-7.292
0.2,1549993939.2303696,2.0349268913,3311.311214825911,3160.8217127583484,2.134,0.995,-5.954,-7.222
0.2,1549993939.2303696,2.0349290371,3837.0724549227884,3088.1614691845125,2.458,1.352,-6.138,-7.444
0.2,1549993939.2303696,2.0349316597,4808.393484497285,2979.8884028194198,2.704,1.478,-6.42,-7.771
0.2,1549993939.2303696,2.0349349976,5902.010801718442,2884.031503126606,2.841,1.516,-6.672,-8.06
0.2,1549993939.2303696,2.0349390507,6745.280276979222,2820.97995366343,2.926,1.568,-6.834,-8.243
0.2,1549993939.2303696,2.0349435806,7194.489780036998,2787.404520323769,2.963,1.606,-6.915,-8.332
0.2,1549993939.2303696,2.0349490643,7396.052750582382,2770.7669583872052,2.989,1.633,-6.948,-8.369
0.2,1549993939.2303696,2.0349550247,7464.487584100669,2759.9422828542642,3.01,1.655,-6.962,-8.387
0.2,1549993939.2303696,2.0349552631,7277.798045368242,2770.7669583872052,3.003,1.647,-6.931,-8.353
0.2,1549993939.2303696,2.03495574,5714.786366718672,2876.7359455385426,2.891,1.567,-6.64,-8.03
0.2,1549993939.2303696,2.0349566936,3698.281797802663,3078.93130974161,2.538,1.423,-6.101,-7.41
0.2,1549993939.2303696,2.0349581242,3515.6044052829798,3100.9873885323427,2.469,1.36,-6.038,-7.337
0.2,1549993939.2303696,2.0349600315,4055.085354483839,3026.913428101305,2.685,1.513,-6.221,-7.553
0.2,1549993939.2303696,2.0349626541,5058.246620031143,2917.427014001166,2.884,1.594,-6.494,-7.869
0.2,1549993939.2303696,2.0349657536,6151.7687270986835,2820.3304738015363,3.012,1.659,-6.735,-8.144
0.2,1549993939.2303696,2.0349693298,6998.419960022738,2754.862960952472,3.085,1.735,-6.893,-8.318
0.2,1549993939.2303696,2.0349738598,7464.487584100669,2717.064824112676,3.12,1.788,-6.973,-8.406
0.2,1549993939.2303696,2.0349788666,7655.966069112562,2695.2558665040997,3.157,1.836,-7.007,-8.445
0.2,1549993939.2303696,2.0349845886,7744.617978025183,2678.5514945323343,3.19,1.884,-7.023,-8.464
0.2,1549993939.2303696,2.034984827,7726.805850957021,2679.7852971525067,3.191,1.885,-7.02,-8.461
0.2,1549993939.2303696,2.0349850655,6053.408747539136,2786.1211686297693,3.13,1.781,-6.727,-8.142
0.2,1549993939.2303696,2.0349860191,3935.5007545577764,2986.070107816526,2.877,1.664,-6.201,-7.549
0.2,1549993939.2303696,2.0349874496,3732.5015779572063,3008.153543944214,2.846,1.657,-6.134,-7.474
0.2,1549993939.2303696,2.034989357,4295.364267648873,2932.2432823031154,2.996,1.724,-6.312,-7.682
0.2,1549993939.2303696,2.0349917412,5321.082592667942,2821.629583090804,3.138,1.796,-6.575,-7.981
0.2,1549993939.2303696,2.0349946022,6426.877173170194,2722.701308077913,3.248,1.919,-6.809,-8.238
0.2,1549993939.2303696,2.0349981785,7261.0595743515505,2654.605561975539,3.31,2.035,-6.961,-8.403
0.2,1549993939.2303696,2.0350022316,7726.805850957021,2612.7628960311017,3.348,2.104,-7.035,-8.484
0.2,1549993939.2303696,2.035007,7906.786279998253,2585.234839562191,3.365,2.12,-7.063,-8.517
0.2,1549993939.2303696,2.0350124836,7979.946872679769,2562.7131654112345,3.381,2.126,-7.075,-8.533
0.2,1549993939.2303696,2.0350124836,8128.305161640995,2553.2891515338883,3.373,2.114,-7.096,-8.555
0.2,1549993939.2303696,2.0350129604,6382.634861905489,2661.3377849246144,3.422,2.145,-6.816,-8.256
0.2,1549993939.2303696,2.0350139141,4168.693834703355,2860.2236939542804,3.245,1.929,-6.302,-7.693
0.2,1549993939.2303696,2.0350151062,3935.5007545577764,2882.0399726720025,3.255,1.941,-6.232,-7.619
0.2,1549993939.2303696,2.0350170135,4528.975799036209,2801.5604642568937,3.371,2.031,-6.405,-7.815
0.2,1549993939.2303696,2.0350191593,5559.042572704037,2687.200056717113,3.494,2.191,-6.662,-8.098
0.2,1549993939.2303696,2.0350220203,6683.439175686149,2584.6396357698422,3.539,2.297,-6.88,-8.332
0.2,1549993939.2303696,2.0350253582,7516.228940182053,2511.88643150958,3.507,2.233,-7.013,-8.479
0.2,1549993939.2303696,2.0350294113,7961.593504173184,2467.1752518516005,3.5,2.21,-7.08,-8.554
0.2,1549993939.2303696,2.0350339413,8147.042840208396,2437.8108183687523,3.503,2.207,-7.107,-8.583
0.2,1549993939.2303696,2.0350389481,8222.426499470712,2415.4608344449402,3.506,2.207,-7.119,-8.596
