FeH,Age,Mini,L,Te,Bmag,Vmag,Jmag,Kmag
-0.2,449997395.3258027,0.0900000036,0.0006123503917247734,2490.5771539520997,19.361,17.493,10.701,9.853
-0.2,449997395.3258027,0.0936900824,0.000677641507610675,2532.211635280831,19.255,17.386,10.592,9.745
-0.2,449997395.3258027,0.096420683,0.0007311390834834172,2563.8936102242947,19.172,17.303,10.509,9.662
-0.2,449997395.3258027,0.1000000015,0.0008128305161640995,2607.9544390266037,19.029,17.163,10.394,9.546
-0.2,449997395.3258027,0.1116146818,0.001061695557198724,2704.5810452170326,18.204,16.387,10.142,9.28
-0.2,449997395.3258027,0.1200000048,0.001309181922999407,2778.4334572025496,17.572,15.807,9.944,9.075
-0.2,449997395.3258027,0.1400000006,0.0019588446735059888,2896.6765264870983,16.525,14.822,9.553,8.676
-0.2,449997395.3258027,0.1599999964,0.0026853444456585063,2984.695288301337,15.788,14.127,9.246,8.368
-0.2,449997395.3258027,0.200000003,0.0042559841313374305,3113.8665771825613,14.783,13.165,8.794,7.92
-0.2,449997395.3258027,0.2368201464,0.005847900841444806,3195.2143648082215,14.175,12.589,8.477,7.609
-0.2,449997395.3258027,0.25,0.006516283940608427,3221.810555177115,13.975,12.4,8.367,7.5
-0.2,449997395.3258027,0.3000000119,0.009311078754678301,3302.934793960337,13.367,11.822,8.009,7.146
-0.2,449997395.3258027,0.3500000238,0.01309181922999407,3383.763488617649,12.803,11.289,7.665,6.803
-0.2,449997395.3258027,0.4000000358,0.018663796908346696,3472.9617486579155,12.233,10.753,7.309,6.448
-0.2,449997395.3258027,0.4500000179,0.026977394324449205,3579.3156556503877,11.643,10.195,6.944,6.083
-0.2,449997395.3258027,0.5,0.03935500754557775,3714.496897976222,11.018,9.599,6.579,5.718
-0.2,449997395.3258027,0.5500000119,0.05807644175213121,3901.21602952676,10.342,8.968,6.216,5.363
-0.2,449997395.3258027,0.6000000238,0.0849180475036314,4133.329236662004,9.645,8.352,5.862,5.034
-0.2,449997395.3258027,0.6499999762,0.1233104833228909,4401.492842868152,8.895,7.727,5.522,4.752
-0.2,449997395.3258027,0.6684523821,0.14157937799570816,4499.8703387215055,8.615,7.498,5.401,4.66
-0.2,449997395.3258027,0.7000000477,0.1761976046411629,4684.8964916001305,8.148,7.123,5.214,4.535
-0.2,449997395.3258027,0.75,0.2443430552693972,4965.923214503363,7.52,6.609,4.941,4.354
-0.2,449997395.3258027,0.7994467616,0.32960971217745777,5204.751511705225,7.016,6.186,4.691,4.171
-0.2,449997395.3258027,0.8488935232,0.4375221051582521,5431.252578811117,6.572,5.811,4.456,3.992
-0.2,449997395.3258027,0.8983402848,0.5741164622073276,5638.972803349493,6.167,5.469,4.232,3.815
-0.2,449997395.3258027,0.9191107154,0.6397348354826481,5720.052304159283,6.01,5.337,4.141,3.741
-0.2,449997395.3258027,0.9477870464,0.7413102413009175,5831.764797316426,5.803,5.163,4.022,3.643
-0.2,449997395.3258027,0.9972338676,0.9462371613657931,6010.353280502418,5.462,4.877,3.822,3.477
-0.2,449997395.3258027,1.0466805696,1.1967405313072434,6171.631684555837,5.147,4.61,3.627,3.312
-0.2,449997395.3258027,1.0961273909,1.5031419660900223,6325.574863525833,4.85,4.355,3.436,3.145
-0.2,449997395.3258027,1.1371287107,1.7988709151287878,6447.628406439211,4.617,4.154,3.284,3.012
-0.2,449997395.3258027,1.1455740929,1.86637969083467,6472.916429993276,4.57,4.114,3.254,2.986
-0.2,449997395.3258027,1.1950209141,2.290867652767773,6619.116119411212,4.305,3.883,3.08,2.833
-0.2,449997395.3258027,1.2444677353,2.78612116862977,6768.6179291974595,4.055,3.665,2.918,2.693
-0.2,449997395.3258027,1.2939143181,3.3496543915782766,6927.874312745173,3.817,3.457,2.77,2.566
-0.2,449997395.3258027,1.3433612585,4.008667176273028,7107.223944090936,3.587,3.258,2.636,2.456
-0.2,449997395.3258027,1.3784326315,4.518559443749224,7259.38784607024,3.427,3.123,2.555,2.394
-0.2,449997395.3258027,1.3928079605,4.742419852602447,7319.81323199808,3.364,3.069,2.523,2.369
-0.2,449997395.3258027,1.4422547817,5.5718574893192985,7564.844408332819,3.148,2.889,2.428,2.301
-0.2,449997395.3258027,1.4917014837,6.516283940608426,7816.278045883293,2.942,2.717,2.338,2.237
-0.2,449997395.3258027,1.5411483049,7.568328950209744,8057.494170914513,2.749,2.558,2.253,2.173
-0.2,449997395.3258027,1.569701314,8.241381150130023,8186.532683155699,2.644,2.471,2.204,2.135
-0.2,449997395.3258027,1.5905948877,8.74983775227436,8279.421637123345,2.569,2.41,2.169,2.106
-0.2,449997395.3258027,1.6264637709,9.68277856261249,8429.464771677229,2.448,2.31,2.109,2.056
-0.2,449997395.3258027,1.6400417089,10.046157902783952,8483.987109859956,2.404,2.273,2.086,2.037
-0.2,449997395.3258027,1.6637428999,10.715193052376065,8576.30070524158,2.33,2.212,2.046,2.003
-0.2,449997395.3258027,1.6894886494,11.481536214968829,8671.615240918298,2.253,2.147,2.003,1.965
-0.2,449997395.3258027,1.692722559,11.561122421920986,8683.60379960594,2.244,2.139,1.998,1.96
-0.2,449997395.3258027,1.7389353514,13.061708881318419,8845.04404755262,2.114,2.028,1.92,1.89
-0.2,449997395.3258027,1.7883820534,14.791083881682072,9007.411421869569,1.983,1.915,1.836,1.814
-0.2,449997395.3258027,1.8034428358,15.381546403030349,9055.240722683606,1.945,1.881,1.81,1.791
-0.2,449997395.3258027,1.8378289938,16.749428760264372,9160.09546844429,1.858,1.804,1.751,1.736
-0.2,449997395.3258027,1.8893222809,19.010782799232995,9315.367652385738,1.732,1.693,1.663,1.654
-0.2,449997395.3258027,1.9408154488,21.527817347243726,9458.015033710133,1.61,1.584,1.573,1.57
-0.2,449997395.3258027,1.9923086166,24.378108183687527,9594.006315159337,1.491,1.475,1.482,1.484
-0.2,449997395.3258027,2.0131003857,25.58585886905645,9649.393118055825,1.443,1.432,1.445,1.449
-0.2,449997395.3258027,2.0438017845,27.542287033381662,9722.993602579225,1.373,1.368,1.39,1.396
-0.2,449997395.3258027,2.0647599697,28.90679882365476,9772.372209558112,1.326,1.325,1.352,1.36
-0.2,449997395.3258027,2.0952951908,31.045595881283557,9840.111057611335,1.257,1.26,1.295,1.305
-0.2,449997395.3258027,2.1176147461,32.734069487883815,9885.53094656939,1.207,1.213,1.253,1.264
-0.2,449997395.3258027,2.1467883587,34.99451670283573,9940.311634657772,1.14,1.151,1.195,1.208
-0.2,449997395.3258027,2.198281765,39.53666200681279,10032.28820578001,1.021,1.039,1.093,1.108
-0.2,449997395.3258027,2.2091135979,40.45758916974427,10048.471382465812,0.996,1.015,1.071,1.087
-0.2,449997395.3258027,2.2497749329,44.46312674691086,10104.155005282139,0.901,0.924,0.985,1.003
-0.2,449997395.3258027,2.2599101067,45.498806015004845,10118.124058555879,0.878,0.902,0.964,0.982
-0.2,449997395.3258027,2.3012683392,50.11872336272722,10157.808007969006,0.779,0.807,0.873,0.893
-0.2,449997395.3258027,2.3308420181,53.57966575133417,10181.224173776958,0.708,0.739,0.806,0.827
-0.2,449997395.3258027,2.3527612686,56.36376558259543,10185.91388054117,0.653,0.684,0.752,0.773
-0.2,449997395.3258027,2.3762331009,59.566214352901035,10190.605747492522,0.594,0.626,0.695,0.716
-0.2,449997395.3258027,2.4042546749,63.53309318517436,10183.568757197852,0.521,0.555,0.623,0.644
-0.2,449997395.3258027,2.419205904,65.61452663029053,10183.568757197852,0.485,0.519,0.587,0.607
-0.2,449997395.3258027,2.4557480812,71.28530301265195,10164.827197220973,0.392,0.427,0.493,0.513
-0.2,449997395.3258027,2.4602236748,71.94489780036994,10160.14719899765,0.38,0.415,0.481,0.501
-0.2,449997395.3258027,2.5022768974,79.25013304804718,10092.528860766834,0.262,0.295,0.355,0.373
-0.2,449997395.3258027,2.5454442501,87.70008211436348,9977.000638225536,0.133,0.163,0.212,0.227
-0.2,449997395.3258027,2.581959486,95.49925860214358,9846.91071376939,0.02,0.046,0.082,0.093
-0.2,449997395.3258027,2.6122887135,102.32929922807536,9687.238673827638,-0.082,-0.063,-0.043,-0.037
-0.2,449997395.3258027,2.6374630928,108.64256236170655,9523.5748619192,-0.171,-0.158,-0.156,-0.156
-0.2,449997395.3258027,2.6608240604,114.55129414455361,9356.210840627022,-0.253,-0.249,-0.267,-0.272
-0.2,449997395.3258027,2.6617207527,114.81536214968828,9349.750030886005,-0.256,-0.253,-0.272,-0.277
-0.2,449997395.3258027,2.6817140579,120.50359403717974,9179.09786057337,-0.329,-0.335,-0.376,-0.388
-0.2,449997395.3258027,2.7027146816,127.35030810166616,9017.787559341552,-0.409,-0.425,-0.488,-0.506
-0.2,449997395.3258027,2.7128505707,131.5224832192239,8972.221776728788,-0.449,-0.467,-0.538,-0.557
-0.2,449997395.3258027,2.7236676216,141.5793779957081,9227.83881535078,-0.503,-0.502,-0.536,-0.545
-0.2,449997395.3258027,2.7262001038,147.23125024327194,9451.483924407292,-0.518,-0.503,-0.509,-0.51
-0.2,449997395.3258027,2.7273452282,153.10874616820303,9687.238673827638,-0.527,-0.499,-0.479,-0.472
-0.2,449997395.3258027,2.727959156,159.95580286146696,9928.874013250434,-0.537,-0.498,-0.453,-0.439
-0.2,449997395.3258027,2.7283182144,167.88040181225605,10167.16800466376,-0.55,-0.501,-0.435,-0.414
-0.2,449997395.3258027,2.7285540104,175.3880501841762,10377.67343070855,-0.562,-0.506,-0.422,-0.396
-0.2,449997395.3258027,2.728631258,177.0108958317422,10439.988012574855,-0.563,-0.505,-0.417,-0.388
-0.2,449997395.3258027,2.7287266254,167.49428760264382,10308.607400626268,-0.524,-0.471,-0.393,-0.368
-0.2,449997395.3258027,2.7288064957,158.48931924611142,10120.454110965426,-0.494,-0.448,-0.387,-0.367
-0.2,449997395.3258027,2.7289013863,152.40527537972906,9849.178309808165,-0.497,-0.462,-0.425,-0.414
-0.2,449997395.3258027,2.7290043831,153.10874616820303,9587.381298845328,-0.542,-0.519,-0.509,-0.506
-0.2,449997395.3258027,2.7291266918,157.39828644662197,9330.394357910895,-0.609,-0.598,-0.619,-0.624
-0.2,449997395.3258027,2.7292656898,161.4358556826487,9078.205301781862,-0.667,-0.673,-0.727,-0.742
-0.2,449997395.3258027,2.7294185162,164.43717232149325,8830.799004185632,-0.708,-0.732,-0.824,-0.849
-0.2,449997395.3258027,2.7295825481,165.57699634695277,8590.13521505396,-0.732,-0.777,-0.911,-0.948
-0.2,449997395.3258027,2.72975564,166.34126503701697,8356.030182312483,-0.739,-0.808,-0.99,-1.041
-0.2,449997395.3258027,2.7299346924,165.95869074375614,8126.433765672033,-0.729,-0.827,-1.064,-1.13
-0.2,449997395.3258027,2.7301156521,165.19617982290148,7903.1459086447085,-0.705,-0.835,-1.133,-1.216
-0.2,449997395.3258027,2.7302958965,163.68165214278085,7685.993272617573,-0.668,-0.834,-1.197,-1.299
-0.2,449997395.3258027,2.7304720879,162.18100973589299,7473.086341912762,-0.618,-0.825,-1.258,-1.381
-0.2,449997395.3258027,2.7306427956,159.95580286146696,7266.077069393996,-0.562,-0.81,-1.316,-1.46
-0.2,449997395.3258027,2.7308061123,157.76112696993485,7066.429004252079,-0.501,-0.788,-1.368,-1.536
-0.2,449997395.3258027,2.7309613228,155.23870099580816,6870.684400142324,-0.435,-0.761,-1.417,-1.611
-0.2,449997395.3258027,2.7311081886,152.40527537972906,6681.900434105529,-0.364,-0.73,-1.461,-1.682
-0.2,449997395.3258027,2.7312467098,149.6235656094433,6502.7940547237,-0.288,-0.695,-1.501,-1.749
-0.2,449997395.3258027,2.7313773632,146.55478409559115,6335.778706712548,-0.206,-0.659,-1.537,-1.811
-0.2,449997395.3258027,2.731500864,143.21878992735438,6185.858764917845,-0.124,-0.62,-1.565,-1.865
-0.2,449997395.3258027,2.7316186428,139.95873225726177,6057.591738749951,-0.043,-0.579,-1.584,-1.907
-0.2,449997395.3258027,2.7317392826,136.14446824659495,5938.817778927777,0.043,-0.532,-1.596,-1.944
-0.2,449997395.3258027,2.7318730354,131.2199899019203,5827.7377479636825,0.136,-0.476,-1.597,-1.968
-0.2,449997395.3258027,2.7320415974,124.73835142429432,5708.210761718673,0.25,-0.4,-1.581,-1.978
-0.2,449997395.3258027,2.7322025299,118.03206356517298,5609.188048338182,0.362,-0.32,-1.553,-1.973
-0.2,449997395.3258027,2.7323768139,110.40786199020735,5514.422023817434,0.484,-0.226,-1.511,-1.954
-0.2,449997395.3258027,2.7325422764,103.5142166679344,5430.002130657378,0.6,-0.137,-1.469,-1.931
-0.2,449997395.3258027,2.7327070236,97.72372209558107,5350.569381731372,0.708,-0.057,-1.434,-1.915
-0.2,449997395.3258027,2.7329046726,93.9723310564638,5258.961603824607,0.808,0.011,-1.42,-1.924
-0.2,449997395.3258027,2.7329785824,93.11078754678306,5225.164890163825,0.841,0.033,-1.419,-1.932
-0.2,449997395.3258027,2.7330625057,93.9723310564638,5190.390101970821,0.853,0.032,-1.441,-1.962
-0.2,449997395.3258027,2.7333123684,100.0,5094.481623274436,0.848,-0.007,-1.54,-2.087
-0.2,449997395.3258027,2.7335431576,109.90058394325209,5023.4258952238715,0.797,-0.083,-1.663,-2.23
-0.2,449997395.3258027,2.7337601185,119.94993031493793,4971.643737252428,0.742,-0.158,-1.773,-2.355
-0.2,449997395.3258027,2.7340312004,131.82567385564073,4921.528450161719,0.679,-0.243,-1.892,-2.489
-0.2,449997395.3258027,2.7343561649,146.21771744567184,4873.040266252349,0.611,-0.334,-2.019,-2.631
-0.2,449997395.3258027,2.734680891,161.80800376430662,4829.475864447709,0.543,-0.423,-2.142,-2.766
-0.2,449997395.3258027,2.7347891331,167.1090614310707,4815.041116556669,0.521,-0.453,-2.182,-2.811
-0.2,449997395.3258027,2.7350029945,178.64875748520498,4787.4031366341615,0.475,-0.513,-2.264,-2.9
-0.2,449997395.3258027,2.7351100445,184.92686189780778,4774.193311370779,0.452,-0.543,-2.304,-2.945
-0.2,449997395.3258027,2.7352824211,195.43394557753942,4752.257885621896,0.415,-0.591,-2.371,-3.019
-0.2,449997395.3258027,2.7355694771,214.28906011200584,4716.284552998378,0.353,-0.673,-2.481,-3.14
-0.2,449997395.3258027,2.7358565331,234.96328208483072,4682.739513736003,0.289,-0.755,-2.591,-3.261
-0.2,449997395.3258027,2.7361433506,257.63211570025754,4649.433066875436,0.225,-0.836,-2.701,-3.382
-0.2,449997395.3258027,2.7364304066,282.48799749157075,4616.363515404673,0.162,-0.918,-2.812,-3.504
-0.2,449997395.3258027,2.7367744446,316.22776601683796,4577.2011670508655,0.088,-1.019,-2.946,-3.649
-0.2,449997395.3258027,2.7370607853,348.33731503601166,4543.599049293402,0.03,-1.103,-3.058,-3.771
-0.2,449997395.3258027,2.7373538017,384.5917820453535,4509.205208756537,-0.031,-1.191,-3.176,-3.898
-0.2,449997395.3258027,2.7376072407,419.75898399100777,4478.164058439384,-0.084,-1.267,-3.279,-4.01
-0.2,449997395.3258027,2.7379038334,465.5860935229591,4442.2193547105535,-0.145,-1.355,-3.398,-4.141
-0.2,449997395.3258027,2.7381570339,503.50060878790475,4414.687837052633,-0.192,-1.423,-3.491,-4.242
-0.2,449997395.3258027,2.738309145,521.1947111050805,4403.520272026519,-0.213,-1.453,-3.531,-4.286
-0.2,449997395.3258027,2.7386863232,492.0395356814511,4424.86474355665,-0.181,-1.405,-3.463,-4.211
-0.2,449997395.3258027,2.739156723,461.31757456037957,4448.360748898113,-0.144,-1.351,-3.388,-4.129
-0.2,449997395.3258027,2.739803791,428.54852039743963,4476.102262460901,-0.103,-1.289,-3.302,-4.034
-0.2,449997395.3258027,2.7406952381,392.6449353995997,4509.205208756537,-0.052,-1.213,-3.197,-3.919
-0.2,449997395.3258027,2.7413916588,362.24299841669875,4539.416166502032,-0.005,-1.144,-3.103,-3.816
-0.2,449997395.3258027,2.7420594692,332.65955329400435,4570.881896148751,0.043,-1.071,-3.002,-3.706
-0.2,449997395.3258027,2.7426128387,309.0295432513592,4599.38749388997,0.088,-1.005,-2.913,-3.609
-0.2,449997395.3258027,2.7431619167,285.75905433749466,4628.0708623811315,0.138,-0.937,-2.82,-3.508
-0.2,449997395.3258027,2.7437176704,263.63313858253787,4659.078201101275,0.19,-0.869,-2.725,-3.403
-0.2,449997395.3258027,2.7442905903,243.2204009073816,4689.213428447355,0.244,-0.798,-2.628,-3.295
-0.2,449997395.3258027,2.7448990345,223.872113856834,4720.630412635905,0.301,-0.723,-2.528,-3.185
-0.2,449997395.3258027,2.745652914,203.23570109362208,4758.827909888171,0.367,-0.637,-2.411,-3.056
-0.2,449997395.3258027,2.7464323044,185.35316234148104,4795.1257408135025,0.43,-0.556,-2.301,-2.935
-0.2,449997395.3258027,2.747345686,168.65530253887405,4832.813100695309,0.495,-0.471,-2.187,-2.809
-0.2,449997395.3258027,2.7484734058,153.10874616820303,4874.162454431541,0.561,-0.385,-2.069,-2.679
-0.2,449997395.3258027,2.7503721714,136.14446824659495,4930.6025956279445,0.639,-0.28,-1.923,-2.518
-0.2,449997395.3258027,2.7532253265,123.02687708123811,4992.292237091719,0.697,-0.196,-1.796,-2.372
-0.2,449997395.3258027,2.7587635517,115.08003889444356,5080.424479948444,0.707,-0.153,-1.694,-2.245
-0.2,449997395.3258027,2.7713582516,120.78138351067798,5094.481623274436,0.644,-0.211,-1.744,-2.291
-0.2,449997395.3258027,2.7971549034,134.2764961137864,5106.225616299567,0.521,-0.33,-1.855,-2.399
-0.2,449997395.3258027,2.8268802166,152.75660582380732,5106.225616299567,0.381,-0.472,-1.996,-2.538
-0.2,449997395.3258027,2.854380846,172.5837891990204,5099.175975748702,0.258,-0.601,-2.13,-2.674
-0.2,449997395.3258027,2.8619277477,178.23787674480891,5095.65480608114,0.225,-0.636,-2.167,-2.712
-0.2,449997395.3258027,2.8676941395,181.5515662773135,5083.935125244855,0.214,-0.652,-2.192,-2.74
-0.2,449997395.3258027,2.8886976242,194.98445997580455,5038.485348423044,0.172,-0.714,-2.283,-2.843
-0.2,449997395.3258027,2.8985178471,201.37242498623874,5002.648624210056,0.166,-0.736,-2.328,-2.898
-0.2,449997395.3258027,2.9090294838,212.81390459827114,4915.86559156862,0.177,-0.761,-2.415,-3.011
-0.2,449997395.3258027,2.9123225212,232.80912576650078,4832.813100695309,0.153,-0.823,-2.539,-3.159
-0.2,449997395.3258027,2.9128460884,254.6830252585042,4778.592531515467,0.108,-0.895,-2.653,-3.29
-0.2,449997395.3258027,2.9130175114,278.61211686297696,4731.512589614803,0.058,-0.968,-2.764,-3.416
-0.2,449997395.3258027,2.9130179882,278.61211686297696,4731.512589614803,0.058,-0.968,-2.764,-3.416
-0.2,449997395.3258027,2.9131140709,312.6079367123956,4680.583528968204,-0.013,-1.067,-2.904,-3.573
-0.2,449997395.3258027,2.9131822586,336.5115693754908,4649.433066875436,-0.058,-1.128,-2.993,-3.672
-0.2,449997395.3258027,2.9132516384,352.3708710424873,4630.202658603084,-0.085,-1.17,-3.049,-3.733
-0.2,449997395.3258027,2.9134533405,352.3708710424873,4632.335436779563,-0.086,-1.169,-3.047,-3.73
-0.2,449997395.3258027,2.9136698246,332.65955329400435,4655.860935229591,-0.054,-1.121,-2.979,-3.656
-0.2,449997395.3258027,2.9146587849,325.0872973854344,4664.445252037798,-0.038,-1.1,-2.952,-3.626
-0.2,449997395.3258027,2.9152464867,344.3499307633384,4639.807899821257,-0.07,-1.148,-3.021,-3.702
-0.2,449997395.3258027,2.915844202,372.39170625456865,4606.806808300934,-0.115,-1.216,-3.116,-3.806
-0.2,449997395.3258027,2.9165110588,409.26065973001096,4566.673896495316,-0.167,-1.297,-3.228,-3.93
-0.2,449997395.3258027,2.9171953201,449.77985489328796,4524.806378555487,-0.213,-1.373,-3.341,-4.056
-0.2,449997395.3258027,2.9178552628,494.3106869868354,4479.195312542835,-0.257,-1.448,-3.456,-4.184
-0.2,449997395.3258027,2.9184732437,544.5026528424214,4434.04401633441,-0.3,-1.522,-3.571,-4.314
-0.2,449997395.3258027,2.9190347195,598.4115950603199,4398.453449216315,-0.355,-1.603,-3.683,-4.437
-0.2,449997395.3258027,2.9194197655,642.6877173170194,4361.139713930648,-0.381,-1.654,-3.769,-4.536
-0.2,449997395.3258027,2.9198856354,706.3175542629623,4325.138310350088,-0.432,-1.73,-3.878,-4.659
-0.2,449997395.3258027,2.9203016758,776.247116628692,4291.409912283691,-0.485,-1.807,-3.987,-4.78
-0.2,449997395.3258027,2.9206769466,853.1001140175895,4257.944535825967,-0.533,-1.878,-4.097,-4.904
-0.2,449997395.3258027,2.9210202694,937.5620069258802,4222.795013060563,-0.578,-1.946,-4.208,-5.03
-0.2,449997395.3258027,2.9213342667,1030.386120441616,4188.900070027829,-0.624,-2.015,-4.319,-5.156
-0.2,449997395.3258027,2.9216229916,1132.4003632355566,4156.2340882986055,-0.669,-2.084,-4.429,-5.28
-0.2,449997395.3258027,2.9218883514,1244.5146117713857,4122.873407228869,-0.712,-2.149,-4.539,-5.405
-0.2,449997395.3258027,2.9221324921,1364.583136588924,4089.7805010288275,-0.754,-2.214,-4.648,-5.53
-0.2,449997395.3258027,2.9223582745,1499.684835502374,4057.8874759172845,-0.795,-2.278,-4.757,-5.654
-0.2,449997395.3258027,2.9225668907,1648.1623915255086,4024.389433137699,-0.831,-2.337,-4.866,-5.779
-0.2,449997395.3258027,2.9227600098,1807.1741260109275,3992.087024388079,-0.868,-2.396,-4.974,-5.903
-0.2,449997395.3258027,2.9229393005,1986.0949173573717,3959.1321672816603,-0.898,-2.45,-5.083,-6.028
-0.2,449997395.3258027,2.923106432,2177.709772353159,3925.545359701092,-0.925,-2.5,-5.191,-6.152
-0.2,449997395.3258027,2.9232635498,2387.8112829131783,3892.2434816444134,-0.95,-2.548,-5.299,-6.277
-0.2,449997395.3258027,2.9234116077,2618.1830082189863,3858.335599053513,-0.969,-2.588,-5.408,-6.402
-0.2,449997395.3258027,2.9235517979,2870.780582024692,3824.7231102392916,-0.988,-2.626,-5.515,-6.525
-0.2,449997395.3258027,2.9236853123,3140.5086938762165,3791.4034418330666,-1.002,-2.659,-5.621,-6.648
-0.2,449997395.3258027,2.9238140583,3427.6778654645045,3757.508744904872,-1.008,-2.679,-5.726,-6.77
-0.2,449997395.3258027,2.9239397049,3741.105882720533,3723.917062545687,-1.011,-2.697,-5.829,-6.889
-0.2,449997395.3258027,2.9240641594,4055.085354483839,3691.4755816541306,-1.005,-2.698,-5.927,-7.003
-0.2,449997395.3258027,2.9241988659,4365.158322401661,3662.6886275878364,-0.991,-2.69,-6.015,-7.104
-0.2,449997395.3258027,2.924418211,4931.738039549359,3614.0986263961313,-0.96,-2.667,-6.165,-7.276
-0.2,449997395.3258027,2.9244952202,5296.634438916581,3586.740857699508,-0.936,-2.641,-6.251,-7.373
-0.2,449997395.3258027,2.9245841503,5420.008904016238,3578.49158264176,-0.93,-2.635,-6.279,-7.405
-0.2,449997395.3258027,2.9246168137,5236.0043658575005,3592.5266624766173,-0.944,-2.65,-6.238,-7.358
-0.2,449997395.3258027,2.9246346951,5508.076964054036,3571.9058251119704,-0.922,-2.627,-6.3,-7.429
-0.2,449997395.3258027,2.9246673584,5834.451042737448,3547.316998366914,-0.895,-2.597,-6.372,-7.512
-0.2,449997395.3258027,2.9246804714,5807.644175213118,3549.7682446720896,-0.898,-2.601,-6.365,-7.504
-0.2,449997395.3258027,2.924687624,6123.503917247734,3527.7678661887385,-0.861,-2.557,-6.431,-7.58
-0.2,449997395.3258027,2.9246935844,6471.426157485831,3505.09666806693,-0.82,-2.508,-6.5,-7.659
-0.2,449997395.3258027,2.9247016907,6902.398038402419,3478.5640153042373,-0.771,-2.448,-6.579,-7.75
-0.2,449997395.3258027,2.9247174263,7447.319739059889,3446.6723487178924,-0.7,-2.36,-6.676,-7.86
-0.2,449997395.3258027,2.9247221947,7568.328950209744,3439.5371138063997,-0.684,-2.34,-6.695,-7.882
-0.2,449997395.3258027,2.9247243404,7568.328950209744,3439.5371138063997,-0.684,-2.34,-6.695,-7.882
-0.2,449997395.3258027,2.9247252941,7638.357835776907,3453.027205056406,-0.753,-2.422,-6.701,-7.882
-0.2,449997395.3258027,2.9247252941,7691.304402866098,3450.6427620182526,-0.747,-2.415,-6.708,-7.891
-0.2,449997395.3258027,2.924726963,5688.529308438413,3574.3740626448075,-0.959,-2.669,-6.335,-7.463
-0.2,449997395.3258027,2.9247298241,4305.266104917106,3692.325673185324,-1.063,-2.763,-5.992,-7.066
-0.2,449997395.3258027,2.9247341156,4602.565735813559,3663.532089914713,-1.042,-2.748,-6.075,-7.162
-0.2,449997395.3258027,2.9247395992,5482.769649208536,3588.3929932948636,-0.972,-2.682,-6.291,-7.412
-0.2,449997395.3258027,2.9247467518,6546.361740672747,3513.985782353995,-0.865,-2.56,-6.509,-7.663
-0.2,449997395.3258027,2.9247555733,7413.102413009177,3461.784268375584,-0.766,-2.44,-6.664,-7.842
-0.2,449997395.3258027,2.9247660637,7961.593504173184,3431.6263979646833,-0.693,-2.347,-6.754,-7.944
-0.2,449997395.3258027,2.9247784615,8279.421637123345,3415.0730666882723,-0.647,-2.291,-6.803,-8.0
-0.2,449997395.3258027,2.924793005,8531.001140175895,3401.731252517908,-0.611,-2.246,-6.84,-8.042
-0.2,449997395.3258027,2.9247932434,11324.003632355578,3290.788720121735,-0.205,-1.728,-7.197,-8.444
-0.2,449997395.3258027,2.9247941971,8689.60429286302,3393.907487744292,-0.59,-2.219,-6.865,-8.071
-0.2,449997395.3258027,2.9247963428,6441.692655151775,3515.6044052829798,-0.856,-2.55,-6.49,-7.644
-0.2,449997395.3258027,2.9247999191,4864.072056914614,3633.2894685013125,-1.006,-2.718,-6.142,-7.244
-0.2,449997395.3258027,2.9248049259,5176.068319505676,3605.7864302164235,-0.977,-2.687,-6.221,-7.335
-0.2,449997395.3258027,2.9248118401,6137.620051647939,3534.2722436627364,-0.887,-2.588,-6.431,-7.576
-0.2,449997395.3258027,2.9248206615,7261.0595743515505,3464.974158289286,-0.76,-2.435,-6.639,-7.815
-0.2,449997395.3258027,2.9248316288,8147.042840208396,3417.4329305629954,-0.645,-2.289,-6.785,-7.981
-0.2,449997395.3258027,2.9248447418,8669.61875758217,3392.3448954144324,-0.579,-2.207,-6.861,-8.068
-0.2,449997395.3258027,2.924860239,8912.509381337459,3380.6483620598156,-0.54,-2.158,-6.896,-8.108
-0.2,449997395.3258027,2.9248781204,9057.326008981998,3373.6498087376713,-0.514,-2.125,-6.917,-8.132
-0.2,449997395.3258027,2.9248783588,12078.138351067797,3259.8678890446836,-0.046,-1.52,-7.284,-8.542
-0.2,449997395.3258027,2.9248795509,9311.078754678301,3362.017734543793,-0.473,-2.074,-6.953,-8.172
-0.2,449997395.3258027,2.9248816967,6918.309709189362,3482.571166386543,-0.788,-2.47,-6.579,-7.748
-0.2,449997395.3258027,2.9248857498,5211.947111050806,3600.8082917348274,-0.965,-2.674,-6.229,-7.346
-0.2,449997395.3258027,2.9248912334,5559.042572704037,3572.7283815192886,-0.931,-2.639,-6.309,-7.437
-0.2,449997395.3258027,2.9248986244,6561.452663029057,3501.8698409688745,-0.817,-2.505,-6.517,-7.677
-0.2,449997395.3258027,2.9249083996,7744.617978025183,3432.416650121203,-0.669,-2.322,-6.722,-7.912
-0.2,449997395.3258027,2.9249203205,8669.61875758217,3385.3221281535407,-0.541,-2.161,-6.865,-8.075
-0.2,449997395.3258027,2.9249343872,9204.495717531712,3358.9226273449517,-0.444,-2.041,-6.941,-8.161
-0.2,449997395.3258027,2.9249513149,9462.37161365793,3345.8001785330107,-0.391,-1.975,-6.976,-8.202
-0.2,449997395.3258027,2.9249708652,9616.122783836649,3337.3365130514867,-0.353,-1.927,-6.998,-8.227
-0.2,449997395.3258027,2.9249711037,12912.192736135336,3221.0687912834346,0.171,-1.237,-7.374,-8.647
-0.2,449997395.3258027,2.9249722958,9977.000638225536,3322.0028446165034,-0.297,-1.858,-7.045,-8.28
-0.2,449997395.3258027,2.9249746799,7413.102413009177,3441.9138826842905,-0.672,-2.329,-6.672,-7.858
-0.2,449997395.3258027,2.9249789715,5584.701947368307,3560.4099003595707,-0.894,-2.598,-6.319,-7.454
-0.2,449997395.3258027,2.9249849319,5942.921586155727,3533.4585410890204,-0.852,-2.549,-6.398,-7.544
-0.2,449997395.3258027,2.9249927998,7014.552984199714,3463.378846082793,-0.721,-2.391,-6.601,-7.778
-0.2,449997395.3258027,2.9250030518,8222.426499470712,3397.0348320337944,-0.555,-2.182,-6.802,-8.007
-0.2,449997395.3258027,2.9250156879,9162.204901220002,3351.969050221629,-0.399,-1.987,-6.94,-8.163
-0.2,449997395.3258027,2.9250309467,9682.778562612497,3328.1278395965264,-0.308,-1.874,-7.011,-8.244
-0.2,449997395.3258027,2.9250488281,9931.160484209335,3317.416496945389,-0.264,-1.819,-7.042,-8.279
-0.2,449997395.3258027,2.9250695705,10069.316688518044,3311.311214825911,-0.236,-1.784,-7.06,-8.299
-0.2,449997395.3258027,2.925069809,13614.44682465951,3191.5378551007616,0.33,-1.029,-7.446,-8.729
-0.2,449997395.3258027,2.9250712395,10543.86896391258,3292.3045333340656,-0.151,-1.671,-7.119,-8.365
-0.2,449997395.3258027,2.9250741005,7870.457896950985,3411.1435809487116,-0.581,-2.217,-6.748,-7.946
-0.2,449997395.3258027,2.9250788689,5915.616341754737,3531.018557237582,-0.836,-2.533,-6.392,-7.54
-0.2,449997395.3258027,2.9250855446,6295.061828571975,3503.482883015712,-0.784,-2.47,-6.47,-7.63
-0.2,449997395.3258027,2.9250946045,7396.052750582382,3434.788498657803,-0.635,-2.286,-6.671,-7.86
-0.2,449997395.3258027,2.925106287,8629.785477669702,3368.992157414906,-0.445,-2.048,-6.867,-8.083
-0.2,449997395.3258027,2.9251208305,9594.006315159337,3325.0639317743994,-0.278,-1.839,-7.0,-8.234
-0.2,449997395.3258027,2.9251382351,10115.794542598982,3302.1743526707673,-0.179,-1.713,-7.069,-8.311
-0.2,449997395.3258027,2.9251587391,10327.61405761398,3291.546539470676,-0.126,-1.643,-7.098,-8.344
-0.2,449997395.3258027,2.9251825809,10447.202192208004,3284.7324430306794,-0.092,-1.599,-7.113,-8.362
-0.2,449997395.3258027,2.9251828194,14256.075936021878,3161.5496026522924,0.502,-0.809,-7.51,-8.805
-0.2,449997395.3258027,2.9251842499,11066.237839776653,3262.1205039426677,0.019,-1.452,-7.185,-8.443
-0.2,449997395.3258027,2.9251868725,8279.421637123345,3380.6483620598156,-0.469,-2.081,-6.816,-8.028
-0.2,449997395.3258027,2.9251916409,6223.002851691595,3501.063598465195,-0.762,-2.446,-6.457,-7.618
-0.2,449997395.3258027,2.9251983166,6622.165037017622,3473.761519726527,-0.709,-2.383,-6.534,-7.707
-0.2,449997395.3258027,2.9252071381,7744.617978025183,3406.4341658307585,-0.542,-2.174,-6.733,-7.933
-0.2,449997395.3258027,2.9252185822,8994.975815300355,3342.7200013786605,-0.325,-1.903,-6.923,-8.15
-0.2,449997395.3258027,2.9252328873,9931.160484209335,3300.6539952850767,-0.152,-1.683,-7.051,-8.294
-0.2,449997395.3258027,2.925249815,10447.202192208004,3278.687311745482,-0.048,-1.545,-7.116,-8.367
-0.2,449997395.3258027,2.9252698421,10665.961212302567,3268.8876924727197,0.002,-1.479,-7.142,-8.397
-0.2,449997395.3258027,2.9252932072,10764.65213629835,3263.623111913169,0.032,-1.44,-7.154,-8.411
-0.2,449997395.3258027,2.9252934456,14791.083881682072,3136.172916512987,0.624,-0.66,-7.561,-8.864
-0.2,449997395.3258027,2.9252948761,11481.536214968817,3236.6817570165304,0.169,-1.259,-7.239,-8.506
-0.2,449997395.3258027,2.9252974987,8629.785477669702,3355.057749988978,-0.356,-1.943,-6.872,-8.094
-0.2,449997395.3258027,2.9253022671,6471.426157485831,3476.9624461781286,-0.699,-2.373,-6.51,-7.682
-0.2,449997395.3258027,2.9253087044,6886.522963442762,3449.848313627505,-0.635,-2.294,-6.588,-7.771
-0.2,449997395.3258027,2.9253177643,8035.261221856169,3382.9844379759015,-0.454,-2.067,-6.783,-7.994
-0.2,449997395.3258027,2.9253292084,9289.663867799363,3320.4733579750687,-0.218,-1.773,-6.969,-8.205
-0.2,449997395.3258027,2.9253432751,10232.929922807536,3278.687311745482,-0.03,-1.526,-7.094,-8.345
-0.2,449997395.3258027,2.9253602028,10739.89412341244,3257.616829660631,0.078,-1.384,-7.156,-8.415
-0.2,449997395.3258027,2.9253802299,10939.563662720931,3247.8801876353714,0.131,-1.314,-7.181,-8.444
-0.2,449997395.3258027,2.925403595,11040.786199020735,3241.902878227874,0.166,-1.27,-7.192,-8.458
-0.2,449997395.3258027,2.9254038334,15275.660582380731,3111.716337106017,0.75,-0.509,-7.609,-8.92
-0.2,449997395.3258027,2.9254052639,11912.420080273738,3211.441387141269,0.313,-1.075,-7.288,-8.565
-0.2,449997395.3258027,2.9254081249,8953.647655495937,3328.894257585374,-0.232,-1.794,-6.925,-8.157
-0.2,449997395.3258027,2.9254126549,6714.288529259523,3451.437393358561,-0.618,-2.278,-6.56,-7.743
-0.2,449997395.3258027,2.9254193306,7144.963260755135,3423.733876264524,-0.547,-2.188,-6.639,-7.832
-0.2,449997395.3258027,2.9254283905,8317.63771102671,3357.3761424295453,-0.336,-1.925,-6.831,-8.052
-0.2,449997395.3258027,2.9254398346,9594.006315159337,3296.097121774576,-0.084,-1.606,-7.014,-8.259
-0.2,449997395.3258027,2.9254541397,10543.86896391258,3254.61783498046,0.118,-1.339,-7.136,-8.396
-0.2,449997395.3258027,2.9254713058,11040.786199020735,3232.9575336809407,0.231,-1.19,-7.196,-8.465
-0.2,449997395.3258027,2.9254915714,11246.049739669268,3223.2945954551496,0.285,-1.12,-7.221,-8.494
-0.2,449997395.3258027,2.9255149364,11350.108156723143,3216.6217928790406,0.323,-1.071,-7.234,-8.508
-0.2,449997395.3258027,2.9255151749,15776.112696993501,3083.1879502493534,0.881,-0.354,-7.658,-8.979
-0.2,449997395.3258027,2.9255166054,12331.048332289096,3181.9987155303106,0.489,-0.851,-7.341,-8.628
-0.2,449997395.3258027,2.925519228,9311.078754678301,3298.3747715856816,-0.073,-1.597,-6.98,-8.224
-0.2,449997395.3258027,2.9255237579,6982.324040771711,3422.1575515373916,-0.513,-2.152,-6.613,-7.807
-0.2,449997395.3258027,2.9255301952,7413.102413009177,3394.6890538007865,-0.436,-2.057,-6.691,-7.897
-0.2,449997395.3258027,2.9255390167,8609.937521846008,3328.894257585374,-0.192,-1.752,-6.882,-8.114
-0.2,449997395.3258027,2.9255502224,9885.53094656939,3268.1350899154786,0.083,-1.393,-7.061,-8.316
-0.2,449997395.3258027,2.9255640507,10839.269140212038,3227.750819048055,0.289,-1.122,-7.179,-8.45
-0.2,449997395.3258027,2.9255809784,11350.108156723143,3206.2693245054643,0.394,-0.984,-7.238,-8.517
-0.2,449997395.3258027,2.9256005287,11534.53257821093,3195.9501748147595,0.45,-0.912,-7.263,-8.545
-0.2,449997395.3258027,2.9256234169,11641.260294104908,3189.333980133178,0.489,-0.862,-7.275,-8.559
-0.2,449997395.3258027,2.9256236553,16292.960326397215,3053.514593940289,0.981,-0.258,-7.707,-9.037
-0.2,449997395.3258027,2.9256250858,12764.388088113436,3152.1000945192795,0.666,-0.63,-7.392,-8.69
-0.2,449997395.3258027,2.9256277084,9660.508789898131,3267.3826606314346,0.112,-1.363,-7.035,-8.29
-0.2,449997395.3258027,2.9256322384,7227.698036021702,3391.5638690582196,-0.394,-2.012,-6.665,-7.872
-0.2,449997395.3258027,2.9256386757,7691.304402866098,3363.566357483622,-0.29,-1.882,-6.743,-7.962
-0.2,449997395.3258027,2.9256472588,8912.509381337459,3297.6153801591913,-0.024,-1.546,-6.932,-8.177
-0.2,449997395.3258027,2.9256584644,10209.394837076808,3238.1726473132535,0.275,-1.152,-7.108,-8.375
-0.2,449997395.3258027,2.9256720543,11142.945335917293,3198.1586216666074,0.472,-0.892,-7.223,-8.505
-0.2,449997395.3258027,2.9256885052,11641.260294104908,3176.1426525728807,0.584,-0.745,-7.281,-8.57
-0.2,449997395.3258027,2.9257080555,11857.687481671597,3165.191567226265,0.65,-0.661,-7.305,-8.599
-0.2,449997395.3258027,2.9257307053,11939.88104464273,3157.1847762703,0.695,-0.605,-7.318,-8.614
-0.2,449997395.3258027,2.9257309437,16788.040181225588,3019.256430871959,1.108,-0.14,-7.757,-9.097
-0.2,449997395.3258027,2.9257321358,13182.567385564074,3116.7358754452835,0.859,-0.399,-7.446,-8.755
-0.2,449997395.3258027,2.9257347584,10000.0,3229.9812405956245,0.349,-1.064,-7.09,-8.36
-0.2,449997395.3258027,2.9257390499,7481.6950051115455,3353.5130445056075,-0.205,-1.787,-6.718,-7.941
-0.2,449997395.3258027,2.9257452488,7961.593504173184,3325.8296441911734,-0.093,-1.649,-6.797,-8.031
-0.2,449997395.3258027,2.9257535934,9183.32596483581,3261.3694594087888,0.202,-1.262,-6.984,-8.242
-0.2,449997395.3258027,2.9257643223,10495.42428652322,3203.3176008528117,0.491,-0.881,-7.155,-8.434
-0.2,449997395.3258027,2.9257776737,11428.783347897712,3165.191567226265,0.686,-0.625,-7.267,-8.56
-0.2,449997395.3258027,2.9257936478,11939.88104464273,3144.850465476959,0.778,-0.509,-7.323,-8.623
-0.2,449997395.3258027,2.9258124828,12133.888504649762,3134.007273083861,0.83,-0.447,-7.346,-8.649
-0.2,449997395.3258027,2.9258341789,12217.99660164871,3126.799256376112,0.871,-0.398,-7.358,-8.664
-0.2,449997395.3258027,2.9258344173,17258.37891990204,2990.198367170568,1.197,-0.057,-7.801,-9.148
-0.2,449997395.3258027,2.9258356094,13583.134465871542,3083.8979622506845,1.032,-0.201,-7.494,-8.815
-0.2,449997395.3258027,2.925838232,10327.61405761398,3193.007951074664,0.586,-0.769,-7.143,-8.426
-0.2,449997395.3258027,2.9258425236,7726.805850957021,3312.0737601979727,0.024,-1.517,-6.771,-8.011
-0.2,449997395.3258027,2.925848484,8222.426499470712,3283.2201160919944,0.164,-1.333,-6.851,-8.101
-0.2,449997395.3258027,2.9258568287,9462.37161365793,3220.3271981675407,0.48,-0.917,-7.036,-8.309
-0.2,449997395.3258027,2.9258673191,10789.467222298297,3163.0058853452065,0.766,-0.54,-7.204,-8.498
-0.2,449997395.3258027,2.9258801937,11721.953655481304,3123.920693664115,0.933,-0.334,-7.315,-8.622
-0.2,449997395.3258027,2.9258959293,12217.99660164871,3102.4157748720872,1.037,-0.208,-7.37,-8.685
-0.2,449997395.3258027,2.9259142876,12416.523075924119,3088.8726265127525,1.106,-0.128,-7.394,-8.714
-0.2,449997395.3258027,2.9259357452,12502.590302177214,3078.93130974161,1.144,-0.09,-7.407,-8.73
-0.2,449997395.3258027,2.9259359837,17782.794100389227,2949.171307508275,-0.757,-3.128,-7.537,-9.037
-0.2,449997395.3258027,2.9259369373,14028.13704561959,3042.2857274809608,-0.82,-3.094,-7.273,-8.732
-0.2,449997395.3258027,2.9259390831,10690.548792226577,3159.3664356825157,-0.908,-3.064,-6.969,-8.361
-0.2,449997395.3258027,2.9259428978,7979.946872679769,3302.1743526707673,-1.013,-3.047,-6.65,-7.949
-0.2,449997395.3258027,2.9259479046,8491.804750363135,3312.0737601979727,-1.096,-3.129,-6.718,-8.01
-0.2,449997395.3258027,2.9259550571,9772.372209558112,3296.856163568906,-1.194,-3.245,-6.873,-8.173
-0.2,449997395.3258027,2.9259641171,11091.748152624008,3296.856163568906,-1.308,-3.373,-7.014,-8.312
-0.2,449997395.3258027,2.9259750843,12050.359403717986,3329.660852068807,-1.468,-3.52,-7.106,-8.38
-0.2,449997395.3258027,2.9259884357,12531.411749414156,3400.1650580407095,-1.691,-3.696,-7.153,-8.377
-0.2,449997395.3258027,2.9260041714,12735.030810166629,3505.9038393261267,-1.991,-3.913,-7.167,-8.323
-0.2,449997395.3258027,2.9260225296,12823.305826560205,3646.699688942269,-2.298,-4.146,-7.178,-8.242
-0.2,449997395.3258027,2.926022768,18323.144223712112,3408.7880601025868,-2.132,-4.128,-7.569,-8.784
-0.2,449997395.3258027,2.9260237217,14454.39770745928,3568.617492834813,-2.307,-4.167,-7.301,-8.418
-0.2,449997395.3258027,2.9260258675,11040.786199020735,3760.971132597691,-2.381,-4.154,-7.01,-8.006
-0.2,449997395.3258027,2.9260294437,8241.38115013002,3985.6577231340093,-2.477,-4.117,-6.662,-7.546
-0.2,449997395.3258027,2.9260344505,8770.008211436349,3946.3899820986467,-2.475,-4.138,-6.734,-7.636
-0.2,449997395.3258027,2.9260413647,10069.316688518044,3849.46167342452,-2.445,-4.169,-6.899,-7.848
-0.2,449997395.3258027,2.9260501862,11376.27285823431,3765.3036041227815,-2.422,-4.193,-7.043,-8.037
-0.2,449997395.3258027,2.9260611534,12331.048332289096,3716.2078809514237,-2.423,-4.215,-7.131,-8.153
-0.2,449997395.3258027,2.9260742664,12793.813041575253,3699.9853117285957,-2.433,-4.233,-7.173,-8.205
-0.2,449997395.3258027,2.9260897636,13001.695780332899,3701.689610332348,-2.454,-4.252,-7.189,-8.22
-0.2,449997395.3258027,2.926107645,13091.81922999407,3713.6417019195583,-2.482,-4.275,-7.196,-8.22
-0.2,449997395.3258027,2.9261078835,18749.945080674173,3432.416650121203,-2.232,-4.202,-7.591,-8.792
-0.2,449997395.3258027,2.9261088371,14825.180851459545,3606.6167888195973,-2.413,-4.255,-7.331,-8.422
-0.2,449997395.3258027,2.9261109829,11350.108156723143,3808.9037649813513,-2.492,-4.245,-7.037,-8.006
-0.2,449997395.3258027,2.9261143208,8472.274141405964,4033.6666088992683,-2.543,-4.171,-6.687,-7.559
-0.2,449997395.3258027,2.9261193275,8994.975815300355,3940.0342764474544,-2.489,-4.158,-6.764,-7.668
-0.2,449997395.3258027,2.9261257648,10303.861204416158,3769.641066462436,-2.324,-4.091,-6.934,-7.926
-0.2,449997395.3258027,2.9261343479,11641.260294104908,3603.296501281602,-2.144,-3.987,-7.068,-8.162
-0.2,449997395.3258027,2.9261448383,12560.299636948754,3462.5814654379196,-1.915,-3.84,-7.151,-8.336
-0.2,449997395.3258027,2.9261574745,13031.667784523,3339.6426598662515,-1.616,-3.642,-7.193,-8.459
-0.2,449997395.3258027,2.9261724949,13212.956341865765,3219.585775790117,-1.315,-3.424,-7.205,-8.552
-0.2,449997395.3258027,2.926189661,13304.5441797809,3091.0070812616214,-0.97,-3.175,-7.218,-8.645
-0.2,449997395.3258027,2.9261898994,19142.55925021086,2849.7056273411536,-0.607,-3.034,-7.632,-9.159
-0.2,449997395.3258027,2.9261908531,15170.503674593368,2998.4720157970514,-0.829,-3.114,-7.361,-8.835
-0.2,449997395.3258027,2.9261927605,11641.260294104908,3173.218663836144,-1.074,-3.203,-7.063,-8.441
-0.2,449997395.3258027,2.9261960983,8669.61875758217,3375.2037896792626,-1.314,-3.286,-6.743,-7.99
-0.2,449997395.3258027,2.9262008667,9225.71427154763,3309.0246319221333,-1.21,-3.227,-6.807,-8.099
-0.2,449997395.3258027,2.926207304,10543.86896391258,3183.464417556432,-1.01,-3.122,-6.953,-8.327
-0.2,449997395.3258027,2.9262154102,11885.022274370189,3065.490679425787,-0.797,-3.009,-7.091,-8.533
-0.2,449997395.3258027,2.9262254238,12793.813041575253,2972.3503619120297,-0.603,-2.89,-7.172,-8.66
-0.2,449997395.3258027,2.9262375832,13273.944577297401,2898.6781710077653,-0.426,-2.775,-7.22,-8.737
-0.2,449997395.3258027,2.9262518883,13458.60354055947,2832.044022964096,-0.246,-2.651,-7.243,-8.78
-0.2,449997395.3258027,2.9262685776,13551.89412351035,2761.213575949454,-0.059,-2.519,-7.255,-8.798
-0.2,449997395.3258027,2.926268816,19543.394557753963,2536.8804402999413,0.038,-2.582,-7.694,-9.235
-0.2,449997395.3258027,2.9262697697,15523.870099580816,2672.3909970469035,0.071,-2.476,-7.425,-8.974
-0.2,449997395.3258027,2.926271677,11939.88104464273,2832.044022964096,-0.141,-2.534,-7.11,-8.647
-0.2,449997395.3258027,2.9262747765,8892.011178579482,3019.256430871959,-0.405,-2.622,-6.769,-8.24
-0.2,449997395.3258027,2.9262793064,9440.608762859236,2960.738151747431,-0.297,-2.563,-6.835,-8.331
-0.2,449997395.3258027,2.9262855053,10789.467222298297,2849.049533909905,-0.1,-2.469,-6.997,-8.53
-0.2,449997395.3258027,2.9262933731,12133.888504649762,2744.732343478535,0.082,-2.38,-7.136,-8.681
-0.2,449997395.3258027,2.9263031483,13061.708881318404,2664.4035277248977,0.241,-2.294,-7.234,-8.783
-0.2,449997395.3258027,2.9263148308,13520.72563194278,2602.555501826247,0.353,-2.229,-7.285,-8.826
-0.2,449997395.3258027,2.9263286591,13708.817661648523,2547.4167494427943,0.364,-2.229,-7.302,-8.844
-0.2,449997395.3258027,2.9263446331,13772.094688939473,2490.0037433881985,0.38,-2.223,-7.311,-8.852
-0.2,449997395.3258027,2.9263448715,19952.62314968879,2277.193838226865,0.019,-2.603,-7.717,-9.259
-0.2,449997395.3258027,2.9263455868,15885.467485977775,2404.916488744403,0.264,-2.356,-7.468,-9.01
-0.2,449997395.3258027,2.9263474941,12246.16199265049,2559.1750909098946,0.458,-2.122,-7.177,-8.718
-0.2,449997395.3258027,2.9263505936,9120.108393559096,2744.732343478535,0.333,-2.1,-6.821,-8.366
-0.2,449997395.3258027,2.9263548851,9682.778562612497,2700.225286888239,0.41,-2.068,-6.897,-8.448
-0.2,449997395.3258027,2.9263608456,11040.786199020735,2607.9544390266037,0.517,-2.041,-7.06,-8.601
-0.2,449997395.3258027,2.926368475,12359.474334445094,2526.969499378336,0.46,-2.126,-7.19,-8.731
-0.2,449997395.3258027,2.9263777733,13273.944577297401,2471.724145016129,0.418,-2.185,-7.271,-8.813
-0.2,449997395.3258027,2.926388979,13740.41975012515,2437.249556303923,0.402,-2.21,-7.31,-8.851
-0.2,449997395.3258027,2.9264023304,13931.568029453036,2413.79286937296,0.4,-2.218,-7.325,-8.866
-0.2,449997395.3258027,2.9264175892,13995.873225726178,2392.2138475120555,0.396,-2.223,-7.332,-8.873
-0.2,449997395.3258027,2.9264178276,20370.42077705719,2171.7008433479928,-0.003,-2.624,-7.738,-9.28
-0.2,449997395.3258027,2.9264185429,16218.100973589299,2301.971804985357,0.244,-2.378,-7.492,-9.033
-0.2,449997395.3258027,2.9264204502,12531.411749414156,2459.2348238462314,0.474,-2.125,-7.206,-8.748
-0.2,449997395.3258027,2.9264233112,9311.078754678301,2651.551093009211,0.567,-1.945,-6.865,-8.41
-0.2,449997395.3258027,2.9264276028,9908.319448927676,2604.953648244834,0.618,-1.932,-6.941,-8.48
-0.2,449997395.3258027,2.9264333248,11271.974561755094,2511.3081148680512,0.547,-2.033,-7.087,-8.629
-0.2,449997395.3258027,2.9264404774,12589.254117941662,2429.405442020422,0.48,-2.125,-7.214,-8.755
-0.2,449997395.3258027,2.9264495373,13520.72563194278,2374.1054227349614,0.435,-2.184,-7.292,-8.834
-0.2,449997395.3258027,2.9264605045,13963.683610559363,2339.375837841565,0.403,-2.217,-7.328,-8.87
-0.2,449997395.3258027,2.9264733791,14125.375446227554,2314.728186015243,0.392,-2.229,-7.342,-8.884
-0.2,449997395.3258027,2.9264881611,14223.287871228184,2292.450674773442,0.388,-2.234,-7.348,-8.889
-0.2,449997395.3258027,2.9264883995,20701.413487910413,2068.711839599834,-0.022,-2.643,-7.758,-9.299
-0.2,449997395.3258027,2.9264891148,16557.699634695295,2195.83650097319,0.223,-2.399,-7.513,-9.055
-0.2,449997395.3258027,2.9264907837,12793.813041575253,2346.929262686464,0.493,-2.125,-7.233,-8.774
-0.2,449997395.3258027,2.9264936447,9506.04793656282,2531.0457771974393,0.687,-1.873,-6.901,-8.44
-0.2,449997395.3258027,2.9264976978,10115.794542598982,2471.1550750182187,0.655,-1.92,-6.969,-8.51
-0.2,449997395.3258027,2.9265031815,11481.536214968817,2362.653315486059,0.585,-2.021,-7.114,-8.655
-0.2,449997395.3258027,2.926510334,12823.305826560205,2263.6016404497495,0.497,-2.123,-7.236,-8.777
-0.2,449997395.3258027,2.9265189171,13708.817661648523,2185.747548686934,0.426,-2.196,-7.31,-8.852
-0.2,449997395.3258027,2.9265294075,14157.93779957081,2124.7116540061397,0.391,-2.231,-7.345,-8.886
-0.2,449997395.3258027,2.9265418053,14354.89433353656,2068.235555931765,0.378,-2.244,-7.358,-8.9
-0.2,449997395.3258027,2.9265561104,14421.153515248681,2009.5554765889192,0.372,-2.249,-7.364,-8.905
-0.2,449997395.3258027,2.9265563488,21086.281499332887,1808.0065521100082,-0.041,-2.662,-7.777,-9.318
-0.2,449997395.3258027,2.9265570641,16865.530253887424,1925.3070450776831,0.202,-2.42,-7.534,-9.076
-0.2,449997395.3258027,2.926558733,13061.708881318404,2070.1413487910413,0.478,-2.143,-7.257,-8.799
-0.2,449997395.3258027,2.9265613556,9705.099672454899,2254.7583296763437,0.772,-1.837,-6.933,-8.474
-0.2,449997395.3258027,2.9265654087,10327.61405761398,2225.8710447930052,0.727,-1.891,-7.0,-8.541
-0.2,449997395.3258027,2.9265706539,11721.953655481304,2159.2354411108718,0.598,-2.024,-7.138,-8.68
-0.2,449997395.3258027,2.9265775681,13031.667784523,2108.1426762531873,0.481,-2.141,-7.255,-8.797
-0.2,449997395.3258027,2.9265859127,13931.568029453036,2084.4908830972886,0.408,-2.213,-7.327,-8.869
-0.2,449997395.3258027,2.9265959263,14387.985782558466,2085.9312958311166,0.374,-2.247,-7.362,-8.903
-0.2,449997395.3258027,2.9266078472,14554.59080581967,2102.325702919464,0.361,-2.26,-7.375,-8.916
-0.2,449997395.3258027,2.9266216755,14655.478409559128,2127.1592273629826,0.355,-2.266,-7.38,-8.922
-0.2,449997395.3258027,2.9266219139,21478.304741305332,1898.0165718757248,-0.061,-2.682,-7.797,-9.338
-0.2,449997395.3258027,2.9266226292,17218.685749860062,2023.9510279887695,0.18,-2.442,-7.556,-9.098
-0.2,449997395.3258027,2.9266242981,13365.955165464433,2174.703232440353,0.454,-2.167,-7.281,-8.823
-0.2,449997395.3258027,2.9266266823,9931.160484209335,2362.653315486059,0.712,-1.88,-6.953,-8.494
-0.2,449997395.3258027,2.926630497,10543.86896391258,2302.501914610407,0.684,-1.925,-7.021,-8.563
-0.2,449997395.3258027,2.9266357422,11939.88104464273,2195.330949139849,0.576,-2.046,-7.16,-8.701
-0.2,449997395.3258027,2.9266421795,13273.944577297401,2098.456640492368,0.461,-2.16,-7.275,-8.816
-0.2,449997395.3258027,2.9266502857,14190.575216890926,2023.0191786782718,0.39,-2.231,-7.345,-8.887
-0.2,449997395.3258027,2.9266598225,14621.771744567182,1963.3602768360474,0.357,-2.264,-7.379,-8.92
-0.2,449997395.3258027,2.9266712666,14791.083881682072,1908.5344342315736,0.344,-2.277,-7.391,-8.933
-0.2,449997395.3258027,2.926684618,14859.35642287006,1850.5464897947093,0.339,-2.283,-7.397,-8.939
-0.2,449997395.3258027,2.9266848564,21877.616239495517,1648.1623915255086,-0.081,-2.702,-7.816,-9.358
-0.2,449997395.3258027,2.9266855717,17538.805018417603,1760.759336763031,0.158,-2.464,-7.578,-9.119
-0.2,449997395.3258027,2.9266870022,13645.831365889238,1899.3281282184803,0.431,-2.191,-7.305,-8.846
-0.2,449997395.3258027,2.9266896248,10139.1138573668,2079.217874372196,0.754,-1.867,-6.982,-8.523
-0.2,449997395.3258027,2.9266932011,10764.65213629835,2044.560659295861,0.689,-1.933,-7.047,-8.588
-0.2,449997395.3258027,2.9266982079,12189.895989248673,1972.4227361148535,0.555,-2.067,-7.181,-8.722
-0.2,449997395.3258027,2.9267044067,13520.72563194278,1914.6967494866421,0.442,-2.179,-7.294,-8.835
-0.2,449997395.3258027,2.9267122746,14387.985782558466,1881.4817062183597,0.373,-2.248,-7.363,-8.904
-0.2,449997395.3258027,2.9267215729,14825.180851459545,1869.390365137484,0.341,-2.281,-7.395,-8.936
-0.2,449997395.3258027,2.9267325401,14996.84835502374,1868.9599716514906,0.329,-2.293,-7.407,-8.949
-0.2,449997395.3258027,2.9267454147,15066.070661867418,1873.2683693442134,0.323,-2.298,-7.413,-8.954
-0.2,449997395.3258027,2.9267456532,22233.098906514053,1653.4840121711518,-0.099,-2.721,-7.835,-9.376
-0.2,449997395.3258027,2.9267463684,17906.058540352948,1772.5561442845963,0.138,-2.484,-7.598,-9.14
-0.2,449997395.3258027,2.9267477989,13931.568029453036,1918.668740670289,0.409,-2.213,-7.327,-8.869
-0.2,449997395.3258027,2.9267501831,10351.42166679343,2109.1137354107086,0.732,-1.889,-7.003,-8.545
-0.2,449997395.3258027,2.9267537594,10990.05839432522,2064.9046392026903,0.667,-1.954,-7.069,-8.61
-0.2,449997395.3258027,2.9267585278,12416.523075924119,1980.1587080824117,0.535,-2.087,-7.201,-8.743
-0.2,449997395.3258027,2.9267644882,13740.41975012515,1909.413549227291,0.424,-2.197,-7.312,-8.853
-0.2,449997395.3258027,2.9267721176,14621.771744567182,1863.3738652568352,0.357,-2.265,-7.379,-8.921
-0.2,449997395.3258027,2.9267811775,15066.070661867418,1836.1155134490953,0.325,-2.296,-7.411,-8.952
-0.2,449997395.3258027,2.9267916679,15205.47529732497,1818.0256237742628,0.313,-2.309,-7.423,-8.964
-0.2,449997395.3258027,2.9268040657,15310.874616820287,1802.1876116640487,0.308,-2.314,-7.428,-8.97
-0.2,449997395.3258027,2.9268043041,22646.44307593062,1584.528299328705,-0.117,-2.739,-7.853,-9.395
-0.2,449997395.3258027,2.926804781,18238.957023196384,1701.3748158991975,0.117,-2.504,-7.618,-9.16
-0.2,449997395.3258027,2.9268062115,14223.287871228184,1846.290350974784,0.387,-2.235,-7.349,-8.891
-0.2,449997395.3258027,2.9268085957,10543.86896391258,2038.4497026427523,0.711,-1.91,-7.025,-8.566
-0.2,449997395.3258027,2.9268121719,11194.378834671525,2000.3224078650387,0.646,-1.976,-7.09,-8.631
-0.2,449997395.3258027,2.9268167019,12647.363474711523,1923.5345881289984,0.515,-2.106,-7.221,-8.762
-0.2,449997395.3258027,2.9268226624,13963.683610559363,1862.9448569616536,0.407,-2.215,-7.329,-8.871
-0.2,449997395.3258027,2.9268298149,14825.180851459545,1827.679328970409,0.341,-2.281,-7.395,-8.936
-0.2,449997395.3258027,2.9268386364,15240.527537972906,1813.8442808706197,0.31,-2.311,-7.425,-8.967
-0.2,449997395.3258027,2.9268488884,15417.004529495583,1811.3400926196025,0.299,-2.323,-7.437,-8.978
-0.2,449997395.3258027,2.9268608093,15488.166189124828,1813.8442808706197,0.294,-2.327,-7.442,-8.983
-0.2,449997395.3258027,2.9268610477,22961.486481123608,1580.520015284257,-0.134,-2.755,-7.87,-9.411
-0.2,449997395.3258027,2.9268615246,18535.316234148104,1702.942561877548,0.099,-2.522,-7.636,-9.178
-0.2,449997395.3258027,2.9268631935,14487.718535447602,1854.812440027907,0.366,-2.255,-7.369,-8.911
-0.2,449997395.3258027,2.9268653393,10739.89412341244,2057.785013477374,0.692,-1.93,-7.044,-8.586
-0.2,449997395.3258027,2.9268689156,11402.497875611696,2012.3336987652767,0.626,-1.995,-7.109,-8.651
-0.2,449997395.3258027,2.9268734455,12852.866599436155,1926.6374595240816,0.497,-2.124,-7.239,-8.78
-0.2,449997395.3258027,2.926879406,14157.93779957081,1856.521572381504,0.391,-2.231,-7.345,-8.886
-0.2,449997395.3258027,2.9268865585,15031.419660900208,1812.1744376590239,0.327,-2.295,-7.409,-8.951
-0.2,449997395.3258027,2.92689538,15452.54439538414,1787.722063077692,0.297,-2.324,-7.439,-8.98
-0.2,449997395.3258027,2.9269058704,15595.525028269523,1772.5561442845963,0.286,-2.336,-7.45,-8.991
-0.2,449997395.3258027,2.9269177914,15667.5107010815,1759.9486638014696,0.281,-2.34,-7.455,-8.996
-0.2,449997395.3258027,2.9269180298,23280.91257665008,1525.1058958433393,-0.15,-2.771,-7.885,-9.427
-0.2,449997395.3258027,2.9269185066,18836.49089489802,1647.0242744164195,0.082,-2.54,-7.654,-9.196
-0.2,449997395.3258027,2.9269199371,14757.065332758932,1798.8709151287874,0.347,-2.275,-7.389,-8.931
-0.2,449997395.3258027,2.9269220829,10939.563662720931,2005.3953334298287,0.672,-1.949,-7.063,-8.605
-0.2,449997395.3258027,2.9269251823,11614.486138403438,1962.4563241736917,0.607,-2.014,-7.128,-8.67
-0.2,449997395.3258027,2.9269294739,13061.708881318404,1880.6154513503277,0.48,-2.142,-7.256,-8.797
-0.2,449997395.3258027,2.9269349575,14354.89433353656,1816.3519311765112,0.376,-2.246,-7.36,-8.902
-0.2,449997395.3258027,2.9269416332,15205.47529732497,1778.2794100389228,0.313,-2.309,-7.423,-8.964
-0.2,449997395.3258027,2.9269497395,15631.47642640954,1761.1648132635655,0.284,-2.337,-7.452,-8.993
-0.2,449997395.3258027,2.9269592762,15776.112696993501,1754.6883796679151,0.273,-2.348,-7.462,-9.004
-0.2,449997395.3258027,2.9269702435,15848.93192461114,1752.2658618857076,0.269,-2.353,-7.467,-9.008
-0.2,449997395.3258027,2.9269704819,23604.78233180578,1511.8196993608167,-0.165,-2.786,-7.9,-9.442
-0.2,449997395.3258027,2.9269709587,19142.55925021086,1634.933151129828,0.065,-2.557,-7.671,-9.213
-0.2,449997395.3258027,2.9269723892,14996.84835502374,1788.5455291077712,0.328,-2.294,-7.408,-8.949
-0.2,449997395.3258027,2.926974535,11117.317272815919,2000.3224078650387,0.654,-1.967,-7.081,-8.623
-0.2,449997395.3258027,2.9269776344,11803.206356517298,1957.942799877064,0.589,-2.032,-7.147,-8.688
-0.2,449997395.3258027,2.9269816875,13243.415351946644,1877.1544183750225,0.463,-2.158,-7.273,-8.814
-0.2,449997395.3258027,2.9269871712,14554.59080581967,1814.679779396928,0.361,-2.261,-7.375,-8.916
-0.2,449997395.3258027,2.9269936085,15417.004529495583,1779.0985265651434,0.3,-2.322,-7.436,-8.978
-0.2,449997395.3258027,2.9270017147,15812.480392703827,1765.6312222633771,0.272,-2.35,-7.464,-9.006
-0.2,449997395.3258027,2.927011013,15958.791472367337,1763.1935968238333,0.261,-2.36,-7.475,-9.016
-0.2,449997395.3258027,2.9270219803,16032.453906900417,1766.037820686164,0.257,-2.365,-7.479,-9.021
-0.2,449997395.3258027,2.9270222187,23933.15756405385,1513.9097989198235,-0.179,-2.801,-7.915,-9.457
-0.2,449997395.3258027,2.9270226955,19453.600816226615,1640.5897731995387,0.048,-2.574,-7.688,-9.229
-0.2,449997395.3258027,2.9270238876,15275.660582380731,1799.699516577357,0.309,-2.312,-7.427,-8.968
-0.2,449997395.3258027,2.9270260334,11297.959146727977,2022.0877584014443,0.636,-1.985,-7.1,-8.641
-0.2,449997395.3258027,2.9270288944,11994.993031493781,1977.8802779424002,0.571,-2.051,-7.165,-8.706
-0.2,449997395.3258027,2.9270329475,13458.60354055947,1894.9597947435489,0.446,-2.175,-7.289,-8.831
-0.2,449997395.3258027,2.9270379543,14757.065332758932,1831.4708046613507,0.346,-2.276,-7.39,-8.931
-0.2,449997395.3258027,2.9270441532,15595.525028269523,1797.2148565476596,0.286,-2.335,-7.45,-8.991
-0.2,449997395.3258027,2.9270517826,15995.580286146678,1785.253939086202,0.259,-2.363,-7.477,-9.019
-0.2,449997395.3258027,2.9270608425,16143.585568264869,1786.4875748520499,0.248,-2.373,-7.488,-9.029
-0.2,449997395.3258027,2.9270710945,16218.100973589299,1793.907311734205,0.243,-2.378,-7.492,-9.034
-0.2,449997395.3258027,2.9270713329,24322.04009073816,1524.7547676599154,-0.195,-2.817,-7.931,-9.473
-0.2,449997395.3258027,2.9270718098,19769.69640111862,1656.151262490047,0.03,-2.592,-7.706,-9.248
-0.2,449997395.3258027,2.9270730019,15559.65631605075,1821.3776371047802,0.289,-2.333,-7.447,-8.988
-0.2,449997395.3258027,2.9270749092,11508.003889444357,2053.997922510629,0.616,-2.005,-7.119,-8.661
-0.2,449997395.3258027,2.9270777702,12217.99660164871,2001.7046589899603,0.551,-2.07,-7.185,-8.726
-0.2,449997395.3258027,2.9270815849,13677.288255958494,1908.9739411235064,0.428,-2.193,-7.308,-8.849
-0.2,449997395.3258027,2.9270863533,14996.84835502374,1838.6539538640259,0.33,-2.292,-7.406,-8.948
-0.2,449997395.3258027,2.9270925522,15812.480392703827,1800.528499698872,0.271,-2.35,-7.464,-9.006
-0.2,449997395.3258027,2.9270997047,16218.100973589299,1788.9574043521886,0.244,-2.377,-7.491,-9.033
-0.2,449997395.3258027,2.9271082878,16368.165214278102,1796.801080173495,0.234,-2.388,-7.502,-9.043
-0.2,449997395.3258027,2.9271183014,16443.717232149324,1819.2819052385496,0.229,-2.392,-7.507,-9.048
-0.2,449997395.3258027,2.9271183014,24717.24145016129,1532.1454648108954,-0.212,-2.834,-7.948,-9.49
-0.2,449997395.3258027,2.9271190166,20090.928126087278,1668.7835113653905,0.01,-2.611,-7.725,-9.267
-0.2,449997395.3258027,2.9271202087,15885.467485977775,1840.7720014689564,0.267,-2.354,-7.468,-9.01
-0.2,449997395.3258027,2.9271218777,11721.953655481304,2088.3341959395875,0.596,-2.026,-7.14,-8.681
-0.2,449997395.3258027,2.9271247387,12445.146117713844,2032.3570109362208,0.531,-2.091,-7.205,-8.747
-0.2,449997395.3258027,2.927128315,13931.568029453036,1937.7600589594226,0.41,-2.212,-7.326,-8.868
-0.2,449997395.3258027,2.9271330833,15205.47529732497,1872.4058959867998,0.314,-2.308,-7.422,-8.964
-0.2,449997395.3258027,2.9271388054,16032.453906900417,1849.6944778405107,0.257,-2.364,-7.478,-9.02
-0.2,449997395.3258027,2.9271457195,16405.89773199539,1869.8208577366481,0.232,-2.39,-7.504,-9.046
-0.2,449997395.3258027,2.9271538258,16557.699634695295,1931.0788175580838,0.222,-2.399,-7.514,-9.055
-0.2,449997395.3258027,2.9271633625,16595.869074375598,2039.8583002685625,0.218,-2.403,-7.518,-9.059
-0.2,449997395.3258027,2.9271633625,25003.453616964296,1688.4958594867533,-0.226,-2.848,-7.962,-9.504
-0.2,449997395.3258027,2.9271640778,20417.379446695275,1853.1048811186727,-0.006,-2.628,-7.742,-9.283
-0.2,449997395.3258027,2.9271650314,16143.585568264869,2063.4787461531964,0.249,-2.372,-7.487,-9.028
-0.2,449997395.3258027,2.9271669388,11912.420080273738,2377.9351141013517,0.579,-2.043,-7.157,-8.698
-0.2,449997395.3258027,2.927169323,12647.363474711523,2321.132860663976,0.515,-2.107,-7.221,-8.762
-0.2,449997395.3258027,2.9271728992,14092.887984218747,2225.8710447930052,0.397,-2.224,-7.339,-8.88
-0.2,449997395.3258027,2.9271771908,15310.874616820287,2180.720468824944,0.306,-2.316,-7.43,-8.972
-0.2,449997395.3258027,2.9271826744,16069.412530128788,2210.5482562994043,0.253,-2.368,-7.482,-9.024
-0.2,449997395.3258027,2.9271893501,16405.89773199539,2330.236496722463,0.231,-2.39,-7.504,-9.046
-0.2,449997395.3258027,2.9271969795,16481.62391525507,2564.484036517716,0.226,-2.396,-7.51,-9.052
-0.2,449997395.3258027,2.9272060394,16481.62391525507,2969.6139863991652,-0.771,-3.112,-7.461,-8.942
