FeH,Age,Mini,L,Te,Bmag,Vmag,Jmag,Kmag
-0.0,1549993939.2303696,0.0900000036,0.00038370724549227885,2310.46822389757,19.968,18.128,11.219,10.317
-0.0,1549993939.2303696,0.0934462324,0.00044258837236262646,2359.3914430440477,19.804,17.967,11.064,10.16
-0.0,1549993939.2303696,0.1000000015,0.0005780960474057181,2450.7555792438225,19.498,17.666,10.775,9.869
-0.0,1549993939.2303696,0.1116420999,0.0008356030182312483,2573.3567644261093,19.077,17.253,10.377,9.469
-0.0,1549993939.2303696,0.1170670688,0.0009794899854086991,2627.846540838493,18.802,16.99,10.211,9.301
-0.0,1549993939.2303696,0.1200000048,0.0010641430182243164,2657.05167035507,18.525,16.731,10.132,9.22
-0.0,1549993939.2303696,0.1400000006,0.0016180800376430662,2781.6340890110087,17.329,15.621,9.723,8.807
-0.0,1549993939.2303696,0.1599999964,0.002243881923782766,2869.4588430750064,16.513,14.851,9.403,8.489
-0.0,1549993939.2303696,0.200000003,0.003681289736425313,2995.711592427998,15.401,13.798,8.91,8.002
-0.0,1549993939.2303696,0.25,0.005861381645140285,3110.999920424558,14.455,12.886,8.445,7.545
-0.0,1549993939.2303696,0.3278678954,0.01039920165829059,3226.264727075673,13.476,11.956,7.859,6.968
-0.0,1549993939.2303696,0.3366219997,0.011040786199020729,3238.1726473132535,13.376,11.862,7.8,6.909
-0.0,1549993939.2303696,0.3500000238,0.012022644346174132,3257.616829660631,13.233,11.725,7.712,6.822
-0.0,1549993939.2303696,0.4000000358,0.016826740610704674,3340.4117295457277,12.664,11.184,7.375,6.488
-0.0,1549993939.2303696,0.4500000179,0.023713737056616554,3434.788498657803,12.088,10.637,7.032,6.145
-0.0,1549993939.2303696,0.5,0.03396252725904084,3553.857419860757,11.484,10.059,6.68,5.794
-0.0,1549993939.2303696,0.5155783892,0.03828247433168226,3602.466907114875,11.275,9.857,6.566,5.681
-0.0,1549993939.2303696,0.5500000119,0.0493173803954936,3710.2228861746507,10.834,9.429,6.326,5.444
-0.0,1549993939.2303696,0.6000000238,0.0716143410212902,3910.2092612681363,10.157,8.783,5.981,5.112
-0.0,1549993939.2303696,0.6499999762,0.10399201658290592,4162.938547861454,9.442,8.14,5.638,4.806
-0.0,1549993939.2303696,0.7000000477,0.14893610777109154,4442.2193547105535,8.686,7.504,5.321,4.56
-0.0,1549993939.2303696,0.7247230411,0.17660378206861643,4588.8091961986775,8.307,7.197,5.175,4.466
-0.0,1549993939.2303696,0.75,0.20941124558508925,4742.419852602448,7.945,6.906,5.035,4.38
-0.0,1549993939.2303696,0.8000000119,0.28444611074479154,4972.788632333997,7.387,6.442,4.767,4.186
-0.0,1549993939.2303696,0.8500000238,0.38194427084004656,5198.762768142835,6.891,6.025,4.517,4.0
-0.0,1549993939.2303696,0.8712502122,0.43151907682776525,5290.539972095819,6.698,5.862,4.414,3.921
-0.0,1549993939.2303696,0.8999999762,0.505824662003114,5413.772478826865,6.45,5.653,4.28,3.817
-0.0,1549993939.2303696,0.9500000477,0.662216503701762,5614.356681329818,6.043,5.31,4.057,3.639
-0.0,1549993939.2303696,0.951672256,0.6668067692136221,5620.824170602134,6.03,5.299,4.049,3.633
-0.0,1549993939.2303696,1.0,0.8590135215053957,5799.626158196422,5.67,4.996,3.838,3.459
-0.0,1549993939.2303696,1.029409647,0.9977000638225533,5900.651969956664,5.461,4.819,3.712,3.352
-0.0,1549993939.2303696,1.0499999523,1.1040786199020731,5968.978299546356,5.318,4.698,3.626,3.28
-0.0,1549993939.2303696,1.0545846224,1.1297959146727978,5984.115950603199,5.287,4.672,3.607,3.263
-0.0,1549993939.2303696,1.0999314785,1.4125375446227544,6124.914068474841,4.988,4.417,3.417,3.098
-0.0,1549993939.2303696,1.1000000238,1.4125375446227544,6126.324544438646,4.987,4.417,3.417,3.098
-0.0,1549993939.2303696,1.1154654026,1.5205475297324955,6171.631684555837,4.889,4.332,3.353,3.042
-0.0,1549993939.2303696,1.14970541,1.7906058540352943,6269.024974761653,4.677,4.15,3.213,2.918
-0.0,1549993939.2303696,1.1499999762,1.7906058540352943,6270.468637308513,4.676,4.149,3.212,2.917
-0.0,1549993939.2303696,1.1875014305,2.1330449131465765,6373.823014383464,4.451,3.954,3.061,2.783
-0.0,1549993939.2303696,1.2000000477,2.254239212152429,6407.667976494362,4.377,3.89,3.011,2.739
-0.0,1549993939.2303696,1.2257522345,2.529297996446145,6474.407045688151,4.232,3.764,2.912,2.65
-0.0,1549993939.2303696,1.25,2.8054336379517135,6535.818751130748,4.1,3.647,2.82,2.567
-0.0,1549993939.2303696,1.2999999523,3.451437393358563,6652.731562017413,3.841,3.416,2.636,2.4
-0.0,1549993939.2303696,1.3296021223,3.8815036599064823,6720.475466282961,3.695,3.286,2.531,2.306
-0.0,1549993939.2303696,1.3500000238,4.1975898399100755,6763.943948096019,3.596,3.197,2.46,2.24
-0.0,1549993939.2303696,1.3999999762,5.05824662003114,6865.939938366495,3.366,2.988,2.29,2.085
-0.0,1549993939.2303696,1.4120782614,5.296634438916578,6889.695054811368,3.312,2.939,2.25,2.048
-0.0,1549993939.2303696,1.4500000477,6.0673632958850545,6956.64753528352,3.145,2.786,2.123,1.93
-0.0,1549993939.2303696,1.4692993164,6.501296903430906,6987.148925611264,3.064,2.711,2.06,1.871
-0.0,1549993939.2303696,1.4959858656,7.128530301265195,7019.400139695796,2.954,2.608,1.97,1.785
-0.0,1549993939.2303696,1.5,7.227698036021702,7022.633437357637,2.937,2.592,1.956,1.772
-0.0,1549993939.2303696,1.5289816856,7.9983425500702845,7046.930689671467,2.822,2.482,1.856,1.675
-0.0,1549993939.2303696,1.5499999523,8.590135215053959,7051.800218620772,2.741,2.403,1.779,1.599
-0.0,1549993939.2303696,1.5679816008,9.120108393559097,7056.673112483567,2.672,2.335,1.714,1.535
-0.0,1549993939.2303696,1.5899996758,9.840111057611336,7050.176668539836,2.59,2.253,1.631,1.452
-0.0,1549993939.2303696,1.6000000238,10.162486928706954,7043.686205287465,2.554,2.217,1.592,1.412
-0.0,1549993939.2303696,1.6104667187,10.543868963912587,7037.20171722057,2.516,2.178,1.552,1.372
-0.0,1549993939.2303696,1.6313816309,11.297959146727976,7014.552984199714,2.444,2.102,1.469,1.286
-0.0,1549993939.2303696,1.6499999762,11.994993031493788,6977.502487693657,2.384,2.036,1.39,1.203
-0.0,1549993939.2303696,1.6690607071,12.76438808811344,6931.065451499368,2.325,1.97,1.307,1.114
-0.0,1549993939.2303696,1.6902099848,13.645831365889245,6862.778784114733,2.266,1.898,1.211,1.009
-0.0,1549993939.2303696,1.7000000477,14.092887984218748,6824.958265220593,2.241,1.866,1.165,0.959
-0.0,1549993939.2303696,1.7003662586,14.092887984218748,6823.3869414166975,2.24,1.865,1.164,0.957
-0.0,1549993939.2303696,1.7189617157,14.92794409578996,6745.280276979222,2.195,1.806,1.075,0.858
-0.0,1549993939.2303696,1.7383935452,15.812480392703835,6640.488057745739,2.16,1.748,0.978,0.746
-0.0,1549993939.2303696,1.75,16.330519478943348,6576.578373554205,2.142,1.715,0.92,0.679
-0.0,1549993939.2303696,1.756208539,16.634126503701697,6543.347723737576,2.132,1.698,0.89,0.644
-0.0,1549993939.2303696,1.7753303051,17.538805018417612,6435.762368376424,2.107,1.645,0.794,0.532
-0.0,1549993939.2303696,1.7930761576,18.620871366628677,6348.922123377013,2.07,1.585,0.697,0.421
-0.0,1549993939.2303696,1.7984946966,19.098532585662376,6334.320007697662,2.048,1.559,0.665,0.387
-0.0,1549993939.2303696,1.7999998331,19.453600816226626,6351.846583394707,2.022,1.538,0.652,0.377
-0.0,1549993939.2303696,1.8050152063,20.65380155810529,6415.049325106628,1.934,1.469,0.61,0.345
-0.0,1549993939.2303696,1.8072553873,22.181964198002195,6550.885369386104,1.811,1.381,0.58,0.336
-0.0,1549993939.2303696,1.8079681396,23.60478233180577,6701.931737237644,1.698,1.304,0.563,0.341
-0.0,1549993939.2303696,1.8082797527,25.003453616964308,6848.571591258556,1.597,1.234,0.55,0.349
-0.0,1549993939.2303696,1.8084467649,26.3633138582538,6980.716486330289,1.505,1.169,0.536,0.353
-0.0,1549993939.2303696,1.8085846901,27.66941645411511,7105.587633694735,1.424,1.111,0.525,0.358
-0.0,1549993939.2303696,1.8086044788,27.797132677592884,7117.049722679209,1.417,1.107,0.526,0.36
-0.0,1549993939.2303696,1.808658123,26.42408757321946,7053.424142580965,1.487,1.164,0.558,0.383
-0.0,1549993939.2303696,1.8087103367,24.831331052955704,6932.6615720512,1.585,1.239,0.587,0.397
-0.0,1549993939.2303696,1.8087623119,23.823194693586903,6798.294904549553,1.663,1.289,0.586,0.377
-0.0,1549993939.2303696,1.8088419437,23.65919697485759,6631.320218835529,1.716,1.306,0.537,0.305
-0.0,1549993939.2303696,1.8089534044,24.154608344449404,6469.9362280868145,1.74,1.291,0.457,0.201
-0.0,1549993939.2303696,1.8091250658,24.547089156850298,6313.933449447962,1.779,1.286,0.386,0.105
-0.0,1549993939.2303696,1.8093882799,24.434305526939713,6158.855291153395,1.844,1.303,0.334,0.028
-0.0,1549993939.2303696,1.8097743988,23.76840286624876,6003.437587325644,1.94,1.351,0.31,-0.025
-0.0,1549993939.2303696,1.8102699518,22.438819237827662,5846.554467527501,2.076,1.435,0.316,-0.05
-0.0,1549993939.2303696,1.8106771708,21.086281499332898,5734.558665459647,2.198,1.521,0.345,-0.044
-0.0,1549993939.2303696,1.8110613823,19.633602768360465,5632.484431714734,2.328,1.619,0.39,-0.022
-0.0,1549993939.2303696,1.811396122,18.281002161427427,5546.25712957911,2.449,1.713,0.436,0.004
-0.0,1549993939.2303696,1.811824441,16.788040181225607,5438.76131720408,2.601,1.831,0.494,0.037
-0.0,1549993939.2303696,1.8122520447,15.848931924611133,5338.263413640386,2.723,1.921,0.526,0.045
-0.0,1549993939.2303696,1.81257236,15.595525028269538,5269.871189967232,2.783,1.958,0.523,0.024
-0.0,1549993939.2303696,1.8128912449,15.958791472367329,5213.147344399808,2.794,1.951,0.48,-0.034
-0.0,1549993939.2303696,1.8134220839,17.218685749860068,5132.15778474056,2.766,1.894,0.372,-0.163
-0.0,1549993939.2303696,1.8138427734,18.836490894898002,5080.424479948444,2.706,1.815,0.258,-0.291
-0.0,1549993939.2303696,1.8142251968,20.701413487910425,5040.806191026696,2.633,1.726,0.143,-0.417
-0.0,1549993939.2303696,1.8145794868,22.750974307720703,5007.258356403354,2.557,1.637,0.031,-0.538
-0.0,1549993939.2303696,1.8149213791,24.94594726942955,4976.224899734694,2.481,1.548,-0.08,-0.658
-0.0,1549993939.2303696,1.8152538538,27.41574171927882,4947.661736816762,2.404,1.459,-0.19,-0.777
-0.0,1549993939.2303696,1.8155800104,30.060763026282306,4918.129952683078,2.325,1.369,-0.3,-0.895
-0.0,1549993939.2303696,1.8158992529,32.96097121774578,4891.026321245936,2.249,1.281,-0.408,-1.011
-0.0,1549993939.2303696,1.8162977695,36.897759857015025,4859.594143462719,2.155,1.175,-0.538,-1.151
-0.0,1549993939.2303696,1.8166956902,41.20975190973302,4827.252320650396,2.062,1.069,-0.669,-1.291
-0.0,1549993939.2303696,1.8170931339,46.13175745603793,4795.1257408135025,1.968,0.961,-0.8,-1.433
-0.0,1549993939.2303696,1.8174108267,50.5824662003114,4768.699981017778,1.894,0.876,-0.907,-1.548
-0.0,1549993939.2303696,1.8177295923,55.46257129579107,4741.3279957862,1.819,0.79,-1.015,-1.666
-0.0,1549993939.2303696,1.8180916309,61.65950018614822,4708.688923442734,1.734,0.691,-1.14,-1.802
-0.0,1549993939.2303696,1.8184019327,67.7641507610675,4680.583528968204,1.66,0.604,-1.249,-1.92
-0.0,1549993939.2303696,1.8187747002,76.03262769401819,4645.152752227492,1.578,0.502,-1.384,-2.066
-0.0,1549993939.2303696,1.8190915585,83.94599865193973,4614.238090876438,1.507,0.412,-1.501,-2.194
-0.0,1549993939.2303696,1.819440484,93.9723310564638,4578.255227916937,1.428,0.312,-1.634,-2.339
-0.0,1549993939.2303696,1.819767952,104.47202192208003,4543.599049293402,1.356,0.219,-1.76,-2.476
-0.0,1549993939.2303696,1.8200534582,114.81536214968828,4514.399612669502,1.294,0.139,-1.869,-2.595
-0.0,1549993939.2303696,1.8204009533,127.64388088113435,4479.195312542835,1.223,0.046,-1.996,-2.735
-0.0,1549993939.2303696,1.8207443953,140.92887984218748,4447.3365938979705,1.161,-0.037,-2.112,-2.863
-0.0,1549993939.2303696,1.8211308718,153.4616982799294,4420.79116875633,1.108,-0.107,-2.209,-2.97
-0.0,1549993939.2303696,1.8213398457,157.39828644662197,4412.655266224519,1.091,-0.129,-2.24,-3.004
-0.0,1549993939.2303696,1.8215911388,150.31419660900224,4428.942071986359,1.12,-0.09,-2.185,-2.942
-0.0,1549993939.2303696,1.8217948675,137.72094688939458,4457.58876355946,1.172,-0.02,-2.084,-2.831
-0.0,1549993939.2303696,1.8219257593,124.73835142429432,4490.554793555168,1.236,0.065,-1.966,-2.7
-0.0,1549993939.2303696,1.8220300674,112.97959146727976,4523.764623324995,1.3,0.149,-1.849,-2.573
-0.0,1549993939.2303696,1.8221235275,102.80162981264735,4555.121861657392,1.362,0.23,-1.737,-2.45
-0.0,1549993939.2303696,1.8222227097,92.89663867799364,4587.752705471357,1.429,0.318,-1.62,-2.321
-0.0,1549993939.2303696,1.8223295212,84.13951416451951,4620.617301970837,1.498,0.406,-1.502,-2.192
-0.0,1549993939.2303696,1.8224468231,76.38357835776907,4652.645890999017,1.564,0.491,-1.387,-2.067
-0.0,1549993939.2303696,1.8226262331,68.54882264526617,4688.13382145265,1.64,0.588,-1.259,-1.928
-0.0,1549993939.2303696,1.8226475716,67.92036326171846,4691.37338834597,1.646,0.595,-1.25,-1.917
-0.0,1549993939.2303696,1.8228886127,73.45138681571152,4666.593803142887,1.591,0.526,-1.34,-2.016
-0.0,1549993939.2303696,1.82322824,80.90958991783822,4634.46919736288,1.523,0.439,-1.455,-2.141
-0.0,1549993939.2303696,1.8236898184,90.36494737223013,4599.38749388997,1.444,0.34,-1.587,-2.284
-0.0,1549993939.2303696,1.8240772486,98.8553094656939,4571.934501781391,1.383,0.261,-1.691,-2.397
-0.0,1549993939.2303696,1.824565053,110.15393095414144,4537.326169379414,1.311,0.168,-1.818,-2.536
-0.0,1549993939.2303696,1.8249598742,119.94993031493793,4509.205208756537,1.253,0.093,-1.919,-2.647
-0.0,1549993939.2303696,1.8254417181,133.3521432163324,4475.071720476557,1.184,0.003,-2.043,-2.783
-0.0,1549993939.2303696,1.8259060383,147.57065332758947,4442.2193547105535,1.12,-0.083,-2.163,-2.916
-0.0,1549993939.2303696,1.8263562918,163.30519478943347,4409.608164506378,1.056,-0.167,-2.282,-3.046
-0.0,1549993939.2303696,1.8267089128,177.0108958317422,4383.2879341924645,1.007,-0.236,-2.376,-3.149
-0.0,1549993939.2303696,1.827126503,195.43394557753942,4351.1093709276765,0.948,-0.32,-2.49,-3.272
-0.0,1549993939.2303696,1.8275232315,215.77444091526667,4320.161676181425,0.889,-0.402,-2.601,-3.394
-0.0,1549993939.2303696,1.8278942108,237.13737056616552,4290.421892388853,0.832,-0.481,-2.71,-3.513
-0.0,1549993939.2303696,1.8281811476,255.85858869056452,4264.813065450337,0.786,-0.545,-2.798,-3.608
-0.0,1549993939.2303696,1.8285107613,279.8981319634363,4235.4542988140065,0.731,-0.62,-2.902,-3.723
-0.0,1549993939.2303696,1.8288228512,306.19634336906785,4207.266283844442,0.676,-0.694,-3.005,-3.836
-0.0,1549993939.2303696,1.8291150331,334.9654391578276,4178.303666466218,0.621,-0.766,-3.105,-3.948
-0.0,1549993939.2303696,1.8293823004,364.75394692560764,4150.496003347124,0.571,-0.833,-3.202,-4.055
-0.0,1549993939.2303696,1.8296333551,396.2780342554393,4123.822843217308,0.52,-0.899,-3.297,-4.161
-0.0,1549993939.2303696,1.8298677206,429.53642676488727,4097.321098135413,0.476,-0.96,-3.392,-4.267
-0.0,1549993939.2303696,1.8300869465,465.5860935229591,4070.989666502739,0.436,-1.017,-3.485,-4.373
-0.0,1549993939.2303696,1.8302863836,503.50060878790475,4045.7589169744288,0.401,-1.067,-3.574,-4.473
-0.0,1549993939.2303696,1.8304727077,542.0008904016238,4020.6845399191266,0.367,-1.116,-3.661,-4.571
-0.0,1549993939.2303696,1.8306479454,583.4451042737447,3996.6857311446765,0.333,-1.165,-3.747,-4.668
-0.0,1549993939.2303696,1.8308110237,626.6138646723356,3973.745050614633,0.301,-1.211,-3.83,-4.763
-0.0,1549993939.2303696,1.8309614658,671.4288529259522,3950.936047894297,0.273,-1.25,-3.911,-4.854
-0.0,1549993939.2303696,1.8311004639,717.7942912713615,3928.2579671627864,0.248,-1.287,-3.989,-4.942
-0.0,1549993939.2303696,1.8312307596,765.5966069112561,3906.609483459363,0.223,-1.324,-4.065,-5.029
-0.0,1549993939.2303696,1.8313518763,814.7042840208396,3885.08030374528,0.2,-1.357,-4.138,-5.112
-0.0,1549993939.2303696,1.8314653635,864.967918775693,3864.55951581426,0.181,-1.385,-4.209,-5.192
-0.0,1549993939.2303696,1.8315736055,918.332596483581,3844.147117595778,0.163,-1.412,-4.279,-5.272
-0.0,1549993939.2303696,1.8316925764,981.7479430199844,3822.0819974268243,0.144,-1.441,-4.356,-5.36
-0.0,1549993939.2303696,1.8316925764,43.151907682776525,4922.661804443356,1.932,0.974,-0.69,-1.283
-0.0,1549993939.2303696,1.8337315321,44.87453899331321,4906.818567679515,1.901,0.938,-0.737,-1.334
-0.0,1549993939.2303696,1.8357799053,45.81418867145335,4900.044227932357,1.884,0.918,-0.762,-1.361
-0.0,1549993939.2303696,1.8378679752,45.91980128368685,4902.30130136168,1.879,0.914,-0.765,-1.364
-0.0,1549993939.2303696,1.8399808407,45.91980128368685,4905.6888610179985,1.877,0.914,-0.763,-1.36
-0.0,1549993939.2303696,1.8420877457,45.81418867145335,4909.078761526029,1.876,0.913,-0.761,-1.357
-0.0,1549993939.2303696,1.8442015648,45.81418867145335,4912.471004503345,1.874,0.913,-0.759,-1.354
-0.0,1549993939.2303696,1.8464077711,45.81418867145335,4915.86559156862,1.871,0.912,-0.757,-1.351
-0.0,1549993939.2303696,1.848764658,45.81418867145335,4919.262524341649,1.868,0.91,-0.756,-1.349
-0.0,1549993939.2303696,1.8499250412,45.81418867145335,4921.528450161719,1.867,0.909,-0.756,-1.348
-0.0,1549993939.2303696,1.8526165485,47.75292736576909,4909.078761526029,1.83,0.867,-0.806,-1.402
-0.0,1549993939.2303696,1.8546245098,47.20630412635904,4915.86559156862,1.839,0.879,-0.79,-1.384
-0.0,1549993939.2303696,1.8546668291,47.097732639695295,4916.997641778744,1.841,0.881,-0.786,-1.38
-0.0,1549993939.2303696,1.8547021151,46.88133821452653,4918.129952683078,1.843,0.884,-0.783,-1.377
-0.0,1549993939.2303696,1.8547478914,46.77351412871981,4919.262524341649,1.845,0.887,-0.78,-1.373
-0.0,1549993939.2303696,1.8548028469,46.665938031428865,4920.395356814511,1.848,0.89,-0.776,-1.369
-0.0,1549993939.2303696,1.8548727036,46.451527522274944,4921.528450161719,1.85,0.893,-0.772,-1.365
-0.0,1549993939.2303696,1.8549677134,46.34469197362879,4922.661804443356,1.853,0.896,-0.768,-1.36
-0.0,1549993939.2303696,1.8551039696,46.13175745603793,4923.795419719503,1.857,0.9,-0.763,-1.355
-0.0,1549993939.2303696,1.8553642035,45.91980128368685,4926.063433495771,1.861,0.905,-0.757,-1.348
-0.0,1549993939.2303696,1.8557397127,45.60369159512962,4928.332491971514,1.865,0.91,-0.75,-1.341
-0.0,1549993939.2303696,1.8563731909,45.28975799036207,4931.738039549359,1.871,0.917,-0.741,-1.33
-0.0,1549993939.2303696,1.8580360413,44.6683592150963,4937.419182496813,1.881,0.93,-0.724,-1.311
-0.0,1549993939.2303696,1.8581140041,45.18559443749224,4932.873744946497,1.872,0.918,-0.738,-1.327
-0.0,1549993939.2303696,1.8581613302,45.498806015004845,4930.6025956279445,1.866,0.912,-0.747,-1.337
-0.0,1549993939.2303696,1.8582584858,45.498806015004845,4930.6025956279445,1.867,0.913,-0.745,-1.335
-0.0,1549993939.2303696,1.8634338379,44.157044735331255,4940.831009106554,1.889,0.939,-0.711,-1.298
-0.0,1549993939.2303696,1.874199152,42.55984131337431,4955.642855622974,1.919,0.975,-0.665,-1.247
-0.0,1549993939.2303696,1.9000000954,39.62780342554395,4985.3998926398735,1.973,1.041,-0.579,-1.152
-0.0,1549993939.2303696,1.9008040428,39.71915494694403,4985.3998926398735,1.969,1.037,-0.582,-1.156
-0.0,1549993939.2303696,1.9201215506,43.65158322401658,4980.810283567242,1.871,0.936,-0.686,-1.261
-0.0,1549993939.2303696,1.935593605,47.75292736576909,4964.779900060685,1.785,0.844,-0.789,-1.368
-0.0,1549993939.2303696,1.9412924051,49.43106869868354,4959.067275049038,1.754,0.81,-0.827,-1.408
-0.0,1549993939.2303696,1.9434931278,50.11872336272722,4955.642855622974,1.74,0.795,-0.845,-1.427
-0.0,1549993939.2303696,1.9491854906,53.08844442309885,4934.00971187958,1.695,0.741,-0.914,-1.502
-0.0,1549993939.2303696,1.9500000477,53.70317963702527,4930.6025956279445,1.688,0.733,-0.925,-1.515
-0.0,1549993939.2303696,1.9522582293,54.954087385762456,4922.661804443356,1.669,0.71,-0.953,-1.545
-0.0,1549993939.2303696,1.9548121691,57.14786366718669,4906.818567679515,1.639,0.675,-1.0,-1.596
-0.0,1549993939.2303696,1.9575937986,62.23002851691595,4868.554096577112,1.577,0.597,-1.105,-1.714
-0.0,1549993939.2303696,1.9586420059,68.39116472814293,4828.363964551585,1.51,0.514,-1.219,-1.841
-0.0,1549993939.2303696,1.9591642618,75.50922276654337,4787.4031366341615,1.439,0.426,-1.338,-1.973
-0.0,1549993939.2303696,1.9594241381,83.17637711026708,4748.9762757306435,1.373,0.342,-1.454,-2.101
-0.0,1549993939.2303696,1.9595682621,92.25714271547633,4709.77326396953,1.304,0.251,-1.578,-2.237
-0.0,1549993939.2303696,1.9596369267,100.0,4679.505908852532,1.249,0.179,-1.676,-2.344
-0.0,1549993939.2303696,1.9596794844,107.64652136298349,4652.645890999017,1.202,0.117,-1.762,-2.44
-0.0,1549993939.2303696,1.9596899748,109.90058394325209,4645.152752227492,1.188,0.098,-1.787,-2.467
-0.0,1549993939.2303696,1.9597204924,117.48975549395291,4620.617301970837,1.144,0.04,-1.867,-2.555
-0.0,1549993939.2303696,1.9597712755,130.016957803329,4584.584692493264,1.078,-0.047,-1.987,-2.687
-0.0,1549993939.2303696,1.9599220753,134.58603540559483,4572.987349813346,1.055,-0.077,-2.028,-2.731
-0.0,1549993939.2303696,1.9601707458,122.17996601648723,4606.806808300934,1.118,0.006,-1.914,-2.606
-0.0,1549993939.2303696,1.9617006779,122.74392311584072,4606.806808300934,1.113,0.001,-1.919,-2.611
-0.0,1549993939.2303696,1.9643572569,133.04544179780913,4580.364077908267,1.059,-0.069,-2.013,-2.714
-0.0,1549993939.2303696,1.9656504393,147.57065332758947,4543.599049293402,0.994,-0.156,-2.135,-2.849
-0.0,1549993939.2303696,1.9665768147,163.68165214278085,4506.091435730975,0.929,-0.243,-2.258,-2.985
-0.0,1549993939.2303696,1.9672759771,181.13400926196024,4470.951924630434,0.867,-0.328,-2.378,-3.118
-0.0,1549993939.2303696,1.9678323269,199.9861869632745,4435.065110253052,0.81,-0.409,-2.494,-3.245
-0.0,1549993939.2303696,1.9682921171,220.2926463053456,4401.492842868152,0.754,-0.491,-2.606,-3.368
-0.0,1549993939.2303696,1.9686858654,242.10290467361776,4368.174708649131,0.699,-0.571,-2.718,-3.49
-0.0,1549993939.2303696,1.9690300226,266.0725059798809,4334.110703101766,0.645,-0.649,-2.828,-3.61
-0.0,1549993939.2303696,1.9693289995,293.0893245250321,4301.302633821362,0.589,-0.728,-2.937,-3.731
-0.0,1549993939.2303696,1.9695804119,322.84941217126345,4267.7601117035365,0.533,-0.807,-3.049,-3.854
-0.0,1549993939.2303696,1.969782114,355.6313185689855,4230.5808577652315,0.481,-0.881,-3.161,-3.981
-0.0,1549993939.2303696,1.9699419737,390.8408957924021,4193.72549666233,0.431,-0.954,-3.271,-4.105
-0.0,1549993939.2303696,1.9700577259,424.619563946313,4140.950127434679,0.418,-0.994,-3.369,-4.225
-0.0,1549993939.2303696,1.9701590538,462.38102139926036,4112.4440272660895,0.372,-1.057,-3.468,-4.336
-0.0,1549993939.2303696,1.9702619314,508.1594425605605,4081.3139159697193,0.325,-1.124,-3.579,-4.461
-0.0,1549993939.2303696,1.970349431,554.625712957911,4051.3522022926395,0.286,-1.181,-3.68,-4.575
-0.0,1549993939.2303696,1.9704334736,603.94862937638,4022.5365599868255,0.248,-1.237,-3.78,-4.689
-0.0,1549993939.2303696,1.9705201387,660.6934480075957,3992.087024388079,0.21,-1.294,-3.884,-4.807
-0.0,1549993939.2303696,1.9706045389,719.4489780036998,3962.7803425543934,0.176,-1.344,-3.985,-4.921
-0.0,1549993939.2303696,1.970690012,783.429642766212,3933.688806732022,0.144,-1.391,-4.084,-5.034
-0.0,1549993939.2303696,1.97077775,853.1001140175895,3903.9118250765996,0.113,-1.437,-4.182,-5.146
-0.0,1549993939.2303696,1.9708707333,928.9663867799363,3874.3602472800194,0.085,-1.479,-4.282,-5.261
-0.0,1549993939.2303696,1.9709644318,1006.9316688518045,3845.032367094809,0.063,-1.513,-4.38,-5.372
-0.0,1549993939.2303696,1.9710618258,1093.956366272094,3815.047942794385,0.043,-1.546,-4.477,-5.484
-0.0,1549993939.2303696,1.9711561203,1185.7687481671596,3786.169041033592,0.031,-1.569,-4.572,-5.591
-0.0,1549993939.2303696,1.9712096453,1253.1411749414156,3766.1706971416666,0.025,-1.58,-4.639,-5.668
-0.0,1549993939.2303696,1.9712158442,1207.8138351067798,3779.2010796187897,0.028,-1.573,-4.595,-5.618
-0.0,1549993939.2303696,1.9712181091,1161.4486138403427,3793.1498497368207,0.033,-1.565,-4.548,-5.565
-0.0,1549993939.2303696,1.9712226391,1207.8138351067798,3779.2010796187897,0.028,-1.573,-4.596,-5.619
-0.0,1549993939.2303696,1.9712258577,1258.9254117941675,3764.436710736454,0.025,-1.58,-4.643,-5.673
-0.0,1549993939.2303696,1.9712297916,1306.1708881318418,3749.730022454834,0.022,-1.586,-4.69,-5.726
-0.0,1549993939.2303696,1.9712358713,1364.583136588924,3734.220854303426,0.018,-1.594,-4.742,-5.786
-0.0,1549993939.2303696,1.9712431431,1422.32878712282,3717.9196520448604,0.018,-1.598,-4.791,-5.842
-0.0,1549993939.2303696,1.9712526798,1482.518085145953,3700.8373629231564,0.023,-1.593,-4.842,-5.9
-0.0,1549993939.2303696,1.9712674618,1538.154640303034,3686.3791409739756,0.029,-1.586,-4.887,-5.951
-0.0,1549993939.2303696,1.9712785482,1402.8137045619576,3723.059697665676,0.018,-1.597,-4.774,-5.823
-0.0,1549993939.2303696,1.9712786674,1297.1792709839558,3752.321139027498,0.021,-1.586,-4.682,-5.717
-0.0,1549993939.2303696,1.9712787867,1276.4388088113435,3759.239540129174,0.023,-1.583,-4.66,-5.692
-0.0,1549993939.2303696,1.9712789059,1435.489433353656,3713.6417019195583,0.018,-1.599,-4.804,-5.856
-0.0,1549993939.2303696,1.9712790251,1674.9428760264382,3650.900524844982,0.046,-1.568,-4.991,-6.071
-0.0,1549993939.2303696,1.9712791443,1745.8221529205039,3633.2894685013125,0.057,-1.556,-5.043,-6.131
-0.0,1549993939.2303696,1.9712793827,1745.8221529205039,3633.2894685013125,0.057,-1.556,-5.043,-6.131
-0.0,1549993939.2303696,1.9712795019,1686.5530253887407,3648.379442958715,0.048,-1.566,-4.999,-6.08
-0.0,1549993939.2303696,1.9712796211,1621.8100973589299,3665.219597323419,0.037,-1.578,-4.951,-6.025
-0.0,1549993939.2303696,1.9712798595,1499.684835502374,3696.5790681932745,0.025,-1.591,-4.856,-5.916
-0.0,1549993939.2303696,1.971280098,1445.439770745928,3711.07729492926,0.019,-1.598,-4.811,-5.865
-0.0,1549993939.2303696,1.9712802172,1393.1568029453035,3725.632384666039,0.018,-1.596,-4.768,-5.815
-0.0,1549993939.2303696,1.9712803364,1345.8603540559484,3739.3834364315157,0.019,-1.592,-4.725,-5.767
-0.0,1549993939.2303696,1.9712804556,1300.16957803329,3752.321139027498,0.022,-1.586,-4.682,-5.717
-0.0,1549993939.2303696,1.9712805748,1253.1411749414156,3766.1706971416666,0.025,-1.579,-4.639,-5.667
-0.0,1549993939.2303696,1.971280694,1202.2644346174131,3780.0713730181124,0.03,-1.57,-4.59,-5.613
-0.0,1549993939.2303696,1.9712808132,1221.7996601648722,3774.8526172405905,0.028,-1.575,-4.61,-5.635
-0.0,1549993939.2303696,1.9712809324,1377.2094688939458,3730.783093184723,0.017,-1.596,-4.752,-5.797
-0.0,1549993939.2303696,1.9712810516,1496.235656094433,3698.281797802663,0.023,-1.592,-4.852,-5.912
-0.0,1549993939.2303696,1.9712814093,1524.0527537972907,3689.775985701505,0.027,-1.588,-4.876,-5.939
-0.0,1549993939.2303696,1.9712816477,1468.9262776438661,3705.1005630192394,0.021,-1.595,-4.83,-5.887
-0.0,1549993939.2303696,1.9712818861,1409.2887984218748,3721.3455600387106,0.017,-1.598,-4.781,-5.83
-0.0,1549993939.2303696,1.9712821245,1358.3134465871542,3735.9409225879995,0.018,-1.593,-4.736,-5.779
-0.0,1549993939.2303696,1.9712823629,1306.1708881318418,3750.5935291111437,0.021,-1.587,-4.689,-5.725
-0.0,1549993939.2303696,1.9712826014,1258.9254117941675,3763.5700169367306,0.025,-1.58,-4.645,-5.675
-0.0,1549993939.2303696,1.9712827206,1213.3888504649774,3776.591401452663,0.029,-1.572,-4.601,-5.625
-0.0,1549993939.2303696,1.971282959,1122.018454301963,3805.397250027089,0.04,-1.555,-4.507,-5.518
-0.0,1549993939.2303696,1.9712831974,1111.7317272815908,3808.9037649813513,0.042,-1.551,-4.496,-5.505
-0.0,1549993939.2303696,1.9712833166,1161.4486138403427,3793.1498497368207,0.034,-1.564,-4.548,-5.565
-0.0,1549993939.2303696,1.9712834358,1256.0299636948755,3764.436710736454,0.024,-1.58,-4.643,-5.673
-0.0,1549993939.2303696,1.971283555,1306.1708881318418,3750.5935291111437,0.021,-1.587,-4.688,-5.723
-0.0,1549993939.2303696,1.9712836742,1364.583136588924,3734.220854303426,0.018,-1.594,-4.74,-5.784
-0.0,1549993939.2303696,1.9712841511,1361.4446824659497,3735.0807894306217,0.018,-1.594,-4.739,-5.782
-0.0,1549993939.2303696,1.9712843895,1303.1667784523,3751.4572346200985,0.022,-1.586,-4.686,-5.721
-0.0,1549993939.2303696,1.9712847471,1238.796586530369,3770.5091583339295,0.026,-1.577,-4.625,-5.652
-0.0,1549993939.2303696,1.9712851048,1166.8096170609629,3791.4034418330666,0.033,-1.565,-4.554,-5.572
-0.0,1549993939.2303696,1.9712854624,1104.0786199020736,3811.5357714484903,0.043,-1.549,-4.487,-5.495
-0.0,1549993939.2303696,1.97128582,1042.3174293933037,3832.6574040003447,0.055,-1.527,-4.419,-5.418
-0.0,1549993939.2303696,1.9712862968,997.7000638225536,3847.689338937884,0.068,-1.508,-4.367,-5.358
-0.0,1549993939.2303696,1.9712867737,995.4054173515275,3848.57540415743,0.068,-1.507,-4.366,-5.357
-0.0,1549993939.2303696,1.9712870121,1035.1421666793442,3835.3058245685934,0.056,-1.525,-4.412,-5.409
-0.0,1549993939.2303696,1.9712879658,1066.596121230258,3823.8425365811263,0.05,-1.536,-4.447,-5.449
-0.0,1549993939.2303696,1.9712888002,1023.2929922807537,3838.8398990276855,0.06,-1.519,-4.398,-5.393
-0.0,1549993939.2303696,1.9712898731,984.0111057611335,3853.0087919083076,0.072,-1.502,-4.351,-5.34
-0.0,1549993939.2303696,1.9712990522,977.2372209558112,3855.671275573944,0.071,-1.501,-4.344,-5.332
-0.0,1549993939.2303696,1.9713041782,1081.4339512979375,3819.442708400464,0.046,-1.542,-4.464,-5.468
-0.0,1549993939.2303696,1.9713082314,1166.8096170609629,3791.4034418330666,0.032,-1.566,-4.554,-5.571
-0.0,1549993939.2303696,1.9713126421,1261.8275345906707,3762.7035226776516,0.025,-1.579,-4.647,-5.677
-0.0,1549993939.2303696,1.9713186026,1364.583136588924,3733.3611171608127,0.019,-1.593,-4.743,-5.787
-0.0,1549993939.2303696,1.9713287354,1475.7065332758946,3703.39469397536,0.019,-1.597,-4.838,-5.895
-0.0,1549993939.2303696,1.9713320732,1492.794409578996,3699.1334567034833,0.02,-1.596,-4.851,-5.91
-0.0,1549993939.2303696,1.9713326693,1492.794409578996,3699.1334567034833,0.02,-1.596,-4.851,-5.91
-0.0,1549993939.2303696,1.9713336229,626.6138646723356,4022.5365599868255,0.212,-1.275,-3.82,-4.728
-0.0,1549993939.2303696,1.9713340998,553.3501092157366,4069.115338091966,0.26,-1.201,-3.673,-4.561
-0.0,1549993939.2303696,1.9713362455,318.41975217261256,4282.5259178891965,0.528,-0.804,-3.031,-3.831
-0.0,1549993939.2303696,1.9713395834,322.10687912834345,4276.613474797276,0.523,-0.812,-3.044,-3.846
-0.0,1549993939.2303696,1.9713439941,412.0975190973304,4178.303666466218,0.396,-0.999,-3.331,-4.17
-0.0,1549993939.2303696,1.9713497162,648.6344335482381,4004.0546833054636,0.208,-1.29,-3.862,-4.779
-0.0,1549993939.2303696,1.9713567495,990.8319448927675,3847.689338937884,0.073,-1.501,-4.361,-5.352
-0.0,1549993939.2303696,1.9713650942,1327.3944577297402,3742.8291224080526,0.024,-1.586,-4.708,-5.748
-0.0,1549993939.2303696,1.9713748693,1552.3870099580815,3685.5304185247937,0.02,-1.596,-4.898,-5.963
-0.0,1549993939.2303696,1.9713861942,1667.2472125510626,3658.474227939712,0.029,-1.587,-4.986,-6.062
-0.0,1549993939.2303696,1.9713989496,1733.8039977541375,3641.665065732136,0.039,-1.576,-5.033,-6.117
-0.0,1549993939.2303696,1.9713993073,893.3054837332954,3870.793472432571,0.131,-1.431,-4.241,-5.222
-0.0,1549993939.2303696,1.9714004993,651.6283940608428,3985.6577231340093,0.235,-1.271,-3.87,-4.797
-0.0,1549993939.2303696,1.9714027643,374.1105882720533,4195.657223387252,0.476,-0.906,-3.223,-4.056
-0.0,1549993939.2303696,1.9714062214,377.572190925416,4190.829574049906,0.473,-0.912,-3.233,-4.069
-0.0,1549993939.2303696,1.9714108706,481.9477976251271,4096.377763696796,0.357,-1.082,-3.515,-4.391
-0.0,1549993939.2303696,1.9714169502,751.6228940182053,3929.1625861305615,0.195,-1.339,-4.038,-4.991
-0.0,1549993939.2303696,1.9714244604,1137.627285823431,3778.3309865888623,0.089,-1.507,-4.53,-5.553
-0.0,1549993939.2303696,1.9714332819,1510.0801541641476,3677.9007042238622,0.07,-1.541,-4.87,-5.938
-0.0,1549993939.2303696,1.9714437723,1753.880501841762,3624.0985589974434,0.081,-1.529,-5.052,-6.143
-0.0,1549993939.2303696,1.9714556932,1870.6821403657998,3599.15043999954,0.104,-1.5,-5.129,-6.232
-0.0,1549993939.2303696,1.9714691639,1927.5249131909366,3585.9150751717484,0.121,-1.478,-5.166,-6.275
-0.0,1549993939.2303696,1.9714695215,1009.2528860766844,3807.150103801774,0.139,-1.446,-4.39,-5.401
-0.0,1549993939.2303696,1.9714708328,737.9042301291007,3921.0285091946057,0.229,-1.305,-4.02,-4.977
-0.0,1549993939.2303696,1.971473217,422.66861426560286,4129.524052369216,0.441,-0.975,-3.366,-4.227
-0.0,1549993939.2303696,1.9714769125,425.59841313374307,4125.7223711671995,0.438,-0.98,-3.375,-4.237
-0.0,1549993939.2303696,1.9714820385,539.5106225151279,4034.595501898297,0.342,-1.13,-3.654,-4.558
-0.0,1549993939.2303696,1.9714884758,835.6030182312483,3872.576449216173,0.196,-1.361,-4.167,-5.147
-0.0,1549993939.2303696,1.9714964628,1253.1411749414156,3727.348496903337,0.118,-1.486,-4.651,-5.698
-0.0,1549993939.2303696,1.9715059996,1651.961798229015,3630.780547701014,0.118,-1.489,-4.983,-6.073
-0.0,1549993939.2303696,1.971517086,1905.4607179632462,3580.9643710263585,0.15,-1.446,-5.156,-6.268
-0.0,1549993939.2303696,1.9715299606,2018.3663636815618,3559.59018006083,0.166,-1.424,-5.226,-6.346
-0.0,1549993939.2303696,1.971544385,2060.6299132700005,3550.5857031262385,0.177,-1.411,-5.254,-6.378
-0.0,1549993939.2303696,1.9715447426,1104.0786199020736,3764.436710736454,0.151,-1.441,-4.501,-5.531
-0.0,1549993939.2303696,1.9715460539,807.2350302488383,3877.0374851038273,0.219,-1.333,-4.13,-5.108
-0.0,1549993939.2303696,1.9715486765,462.38102139926036,4086.015408138228,0.413,-1.028,-3.474,-4.354
-0.0,1549993939.2303696,1.9715524912,466.6593803142887,4083.1938633269233,0.41,-1.033,-3.482,-4.364
-0.0,1549993939.2303696,1.9715578556,588.843655355589,3994.845613082856,0.323,-1.172,-3.757,-4.68
-0.0,1549993939.2303696,1.9715645313,903.6494737223014,3836.1890380502714,0.191,-1.379,-4.263,-5.261
-0.0,1549993939.2303696,1.971572876,1348.9628825916532,3693.175960479867,0.136,-1.468,-4.742,-5.804
-0.0,1549993939.2303696,1.9715828896,1770.108958317422,3599.979270433565,0.157,-1.44,-5.069,-6.172
-0.0,1549993939.2303696,1.9715945721,2032.3570109362208,3552.2211848231955,0.186,-1.401,-5.238,-6.362
-0.0,1549993939.2303696,1.9716079235,2147.8304741305333,3533.4585410890204,0.206,-1.374,-5.305,-6.437
-0.0,1549993939.2303696,1.9716230631,2197.8598727848253,3526.1436430685917,0.214,-1.362,-5.331,-6.466
-0.0,1549993939.2303696,1.9716234207,1205.0359403717973,3732.5015779572063,0.143,-1.457,-4.606,-5.651
-0.0,1549993939.2303696,1.971624732,883.079900418563,3845.032367094809,0.195,-1.371,-4.236,-5.229
-0.0,1549993939.2303696,1.9716273546,505.82466200311427,4056.0191798991405,0.373,-1.087,-3.579,-4.473
-0.0,1549993939.2303696,1.9716311693,510.50499997540646,4053.218348593218,0.369,-1.093,-3.588,-4.484
-0.0,1549993939.2303696,1.9716365337,642.6877173170194,3965.518679916798,0.287,-1.225,-3.859,-4.795
-0.0,1549993939.2303696,1.9716432095,979.4899854086991,3808.9037649813513,0.166,-1.415,-4.356,-5.367
-0.0,1549993939.2303696,1.9716515541,1452.111617587742,3668.5969444134184,0.135,-1.469,-4.83,-5.903
-0.0,1549993939.2303696,1.9716615677,1896.7059212111465,3576.0205018090237,0.17,-1.423,-5.153,-6.267
-0.0,1549993939.2303696,1.9716732502,2177.709772353159,3529.3928374635293,0.208,-1.37,-5.322,-6.455
-0.0,1549993939.2303696,1.9716866016,2306.747188720069,3511.5592451629086,0.229,-1.341,-5.389,-6.53
-0.0,1549993939.2303696,1.9717017412,2355.049283896009,3505.09666806693,0.235,-1.331,-5.417,-6.561
-0.0,1549993939.2303696,1.9717020988,1330.4544179780914,3703.39469397536,0.123,-1.484,-4.722,-5.78
-0.0,1549993939.2303696,1.9717036486,977.2372209558112,3815.926491189337,0.155,-1.425,-4.353,-5.36
-0.0,1549993939.2303696,1.9717063904,559.7576014951104,4027.170343254591,0.319,-1.16,-3.694,-4.602
-0.0,1549993939.2303696,1.9717106819,563.6376558259543,4024.389433137699,0.316,-1.164,-3.704,-4.612
-0.0,1549993939.2303696,1.9717165232,706.3175542629623,3937.313537008506,0.241,-1.285,-3.97,-4.919
-0.0,1549993939.2303696,1.9717239141,1066.596121230258,3783.5545512323115,0.141,-1.449,-4.458,-5.48
-0.0,1549993939.2303696,1.9717330933,1570.3628043335532,3644.181507888609,0.131,-1.474,-4.923,-6.006
-0.0,1549993939.2303696,1.9717440605,2037.042077705719,3552.2211848231955,0.185,-1.402,-5.24,-6.364
-0.0,1549993939.2303696,1.9717568159,2333.458062281002,3505.09666806693,0.244,-1.322,-5.405,-6.548
-0.0,1549993939.2303696,1.9717714787,2460.3676041476274,3486.582933528731,0.271,-1.286,-5.471,-6.622
-0.0,1549993939.2303696,1.971788168,2511.88643150958,3480.166322150038,0.281,-1.274,-5.496,-6.65
-0.0,1549993939.2303696,1.9717885256,1462.1771744567184,3670.2867848109704,0.125,-1.481,-4.838,-5.91
-0.0,1549993939.2303696,1.9717900753,1078.9467222298285,3781.8125611095074,0.133,-1.458,-4.47,-5.492
-0.0,1549993939.2303696,1.9717929363,618.0164001384157,3995.765566188054,0.272,-1.226,-3.81,-4.732
-0.0,1549993939.2303696,1.9717973471,623.7348354824192,3993.006342231626,0.269,-1.231,-3.82,-4.743
-0.0,1549993939.2303696,1.9718033075,778.0365510398041,3906.609483459363,0.202,-1.341,-4.081,-5.045
-0.0,1549993939.2303696,1.9718109369,1164.126029410491,3754.0495447208405,0.127,-1.47,-4.561,-5.596
-0.0,1549993939.2303696,1.9718203545,1698.2436524617442,3615.76336361097,0.144,-1.458,-5.018,-6.114
-0.0,1549993939.2303696,1.9718316793,2192.80493535045,3524.5201677586315,0.224,-1.35,-5.331,-6.466
-0.0,1549993939.2303696,1.9718447924,2506.109253032114,3476.9624461781286,0.295,-1.257,-5.495,-6.65
-0.0,1549993939.2303696,1.9718599319,2648.500138606701,3458.597315106485,0.331,-1.21,-5.562,-6.725
-0.0,1549993939.2303696,1.9718769789,2710.1916318908416,3450.6427620182526,0.348,-1.188,-5.59,-6.756
-0.0,1549993939.2303696,1.9718773365,1633.0519478943347,3630.780547701014,0.131,-1.475,-4.971,-6.06
-0.0,1549993939.2303696,1.9718790054,1207.8138351067798,3742.8291224080526,0.118,-1.483,-4.605,-5.646
-0.0,1549993939.2303696,1.9718818665,693.4258060165695,3958.2206483572263,0.223,-1.296,-3.944,-4.884
-0.0,1549993939.2303696,1.9718862772,699.8419960022738,3954.5766707846387,0.22,-1.301,-3.956,-4.897
-0.0,1549993939.2303696,1.9718923569,868.960429286302,3868.120546330521,0.164,-1.397,-4.213,-5.195
-0.0,1549993939.2303696,1.9719001055,1288.2495516931335,3717.9196520448604,0.116,-1.491,-4.683,-5.735
-0.0,1549993939.2303696,1.9719096422,1866.3796908346694,3580.1399184306892,0.174,-1.42,-5.133,-6.245
-0.0,1549993939.2303696,1.9719210863,2398.83291901949,3488.9922117346073,0.287,-1.27,-5.443,-6.594
-0.0,1549993939.2303696,1.9719344378,2741.5741719278835,3440.329187682278,0.385,-1.143,-5.608,-6.778
-0.0,1549993939.2303696,1.9719496965,2904.022654464451,3419.794425137087,0.435,-1.078,-5.679,-6.857
-0.0,1549993939.2303696,1.9719671011,2978.5164294291912,3409.5730529319967,0.461,-1.044,-5.713,-6.895
-0.0,1549993939.2303696,1.9719674587,1862.0871366628676,3577.6676993611068,0.182,-1.41,-5.133,-6.246
-0.0,1549993939.2303696,1.9719690084,1383.566378971781,3689.775985701505,0.124,-1.482,-4.771,-5.834
-0.0,1549993939.2303696,1.9719717503,796.1593504173184,3906.609483459363,0.18,-1.365,-4.106,-5.07
-0.0,1549993939.2303696,1.9719760418,803.5261221856169,3902.114421141359,0.178,-1.369,-4.117,-5.083
-0.0,1549993939.2303696,1.9719817638,990.8319448927675,3818.563350459785,0.135,-1.446,-4.367,-5.373
-0.0,1549993939.2303696,1.9719891548,1448.7718535447616,3671.131996879641,0.131,-1.474,-4.827,-5.898
-0.0,1549993939.2303696,1.9719983339,2070.1413487910413,3536.7144758575937,0.228,-1.352,-5.263,-6.394
-0.0,1549993939.2303696,1.972009182,2642.4087573219476,3447.4660657314944,0.385,-1.147,-5.565,-6.733
-0.0,1549993939.2303696,1.9720219374,3006.076302628232,3400.9480651219096,0.496,-1.002,-5.725,-6.91
-0.0,1549993939.2303696,1.9720364809,3169.56746304349,3380.6483620598156,0.553,-0.929,-5.792,-6.986
-0.0,1549993939.2303696,1.972053051,3250.872973854344,3371.3201787284347,0.588,-0.885,-5.823,-7.021
-0.0,1549993939.2303696,1.9720534086,2108.6281499332886,3527.7678661887385,0.248,-1.326,-5.285,-6.419
-0.0,1549993939.2303696,1.9720549583,1570.3628043335532,3639.1503612720708,0.145,-1.46,-4.925,-6.011
-0.0,1549993939.2303696,1.9720578194,903.6494737223014,3857.447286724761,0.148,-1.418,-4.258,-5.245
-0.0,1549993939.2303696,1.9720622301,912.0108393559096,3853.8960821181918,0.147,-1.421,-4.268,-5.257
-0.0,1549993939.2303696,1.9720681906,1119.4378834671513,3771.3774501139746,0.124,-1.471,-4.513,-5.54
-0.0,1549993939.2303696,1.97207582,1614.3585568264868,3628.273359403348,0.151,-1.453,-4.959,-6.049
-0.0,1549993939.2303696,1.9720852375,2280.3420720004187,3497.0351694345923,0.3,-1.258,-5.382,-6.529
-0.0,1549993939.2303696,1.9720965624,2884.031503126606,3410.3582265334926,0.489,-1.014,-5.675,-6.857
-0.0,1549993939.2303696,1.9721096754,3250.872973854344,3365.8906294925205,0.62,-0.847,-5.827,-7.027
-0.0,1549993939.2303696,1.972124815,3419.794425137087,3347.341331292356,0.685,-0.765,-5.889,-7.096
-0.0,1549993939.2303696,1.9721418619,3499.451670283573,3339.6426598662515,0.714,-0.729,-5.917,-7.127
-0.0,1549993939.2303696,1.9721422195,2355.049283896009,3484.175319018589,0.325,-1.227,-5.425,-6.577
-0.0,1549993939.2303696,1.9721436501,1766.037820686164,3595.0091493002346,0.179,-1.418,-5.068,-6.173
-0.0,1549993939.2303696,1.9721462727,1023.2929922807537,3812.4135110429906,0.116,-1.47,-4.405,-5.413
-0.0,1549993939.2303696,1.9721503258,1028.0162981264734,3810.65823393773,0.115,-1.472,-4.41,-5.419
-0.0,1549993939.2303696,1.9721559286,1253.1411749414156,3729.9241475247336,0.112,-1.493,-4.65,-5.696
-0.0,1549993939.2303696,1.972162962,1786.4875748520499,3590.0458899019936,0.184,-1.411,-5.083,-6.19
-0.0,1549993939.2303696,1.9721716642,2494.5947269429535,3461.784268375584,0.372,-1.167,-5.495,-6.657
-0.0,1549993939.2303696,1.9721820354,3133.2857243155854,3375.981048554255,0.594,-0.882,-5.78,-6.976
-0.0,1549993939.2303696,1.9721941948,3523.7087104248726,3331.9616948930816,0.751,-0.684,-5.929,-7.142
-0.0,1549993939.2303696,1.9722081423,3706.80721782576,3312.8364811728147,0.822,-0.596,-5.991,-7.212
-0.0,1549993939.2303696,1.9722239971,3793.1498497368207,3304.4562019345226,0.864,-0.542,-6.02,-7.245
-0.0,1549993939.2303696,1.9722243547,2654.605561975539,3436.370641490611,0.437,-1.084,-5.574,-6.745
-0.0,1549993939.2303696,1.9722257853,1995.2623149688789,3546.5002924732053,0.226,-1.357,-5.218,-6.345
-0.0,1549993939.2303696,1.9722285271,1166.8096170609629,3763.5700169367306,0.102,-1.497,-4.562,-5.592
-0.0,1549993939.2303696,1.9722325802,1166.8096170609629,3764.436710736454,0.102,-1.498,-4.561,-5.591
-0.0,1549993939.2303696,1.972238183,1412.537544622754,3684.6818914786804,0.118,-1.49,-4.796,-5.861
-0.0,1549993939.2303696,1.9722453356,1986.0949173573717,3547.316998366914,0.226,-1.358,-5.214,-6.34
-0.0,1549993939.2303696,1.9722541571,2741.5741719278835,3422.9456231604145,0.476,-1.035,-5.615,-6.792
-0.0,1549993939.2303696,1.9722646475,3411.9291162192844,3339.6426598662515,0.736,-0.705,-5.89,-7.1
-0.0,1549993939.2303696,1.972276926,3819.442708400464,3296.097121774576,0.911,-0.482,-6.032,-7.26
-0.0,1549993939.2303696,1.9722911119,4008.6671762730302,3277.932453002282,0.998,-0.368,-6.092,-7.327
-0.0,1549993939.2303696,1.972307086,4102.041029866068,3269.640468343053,1.041,-0.312,-6.119,-7.359
-0.0,1549993939.2303696,1.9723074436,2978.5164294291912,3389.221868727554,0.565,-0.921,-5.721,-6.911
-0.0,1549993939.2303696,1.9723087549,2249.0546058357804,3498.6459845201675,0.306,-1.253,-5.368,-6.515
-0.0,1549993939.2303696,1.9723111391,1327.3944577297402,3715.352290971724,0.094,-1.517,-4.717,-5.77
-0.0,1549993939.2303696,1.9723149538,1318.2567385564075,3717.9196520448604,0.093,-1.518,-4.71,-5.761
-0.0,1549993939.2303696,1.9723199606,1588.546748597779,3639.9884030888024,0.131,-1.477,-4.939,-6.024
-0.0,1549993939.2303696,1.9723265171,2202.9264630534562,3506.711196464777,0.293,-1.27,-5.343,-6.486
-0.0,1549993939.2303696,1.9723345041,2999.16251898765,3385.3221281535407,0.581,-0.902,-5.73,-6.922
-0.0,1549993939.2303696,1.9723440409,3698.281797802663,3304.4562019345226,0.883,-0.521,-5.994,-7.218
-0.0,1549993939.2303696,1.9723552465,4120.975190973304,3262.871721430849,1.081,-0.261,-6.129,-7.371
-0.0,1549993939.2303696,1.9723681211,4315.19076827765,3245.6374062026525,1.166,-0.15,-6.186,-7.436
-0.0,1549993939.2303696,1.9723826647,4405.548635065535,3237.42711634235,1.207,-0.096,-6.212,-7.465
-0.0,1549993939.2303696,1.9723830223,3318.944575526103,3345.0298682601374,0.729,-0.716,-5.858,-7.066
-0.0,1549993939.2303696,1.9723843336,2517.676927758854,3453.822385498232,0.402,-1.132,-5.51,-6.675
-0.0,1549993939.2303696,1.9723867178,1499.684835502374,3668.5969444134184,0.107,-1.504,-4.866,-5.938
-0.0,1549993939.2303696,1.9723904133,1482.518085145953,3673.6688011030355,0.104,-1.507,-4.852,-5.922
-0.0,1549993939.2303696,1.9723955393,1778.2794100389228,3596.665093461474,0.166,-1.434,-5.075,-6.179
-0.0,1549993939.2303696,1.9724019766,2437.8108183687523,3466.5702053333894,0.37,-1.173,-5.467,-6.627
-0.0,1549993939.2303696,1.9724099636,3273.406948788383,3348.1121738605384,0.721,-0.728,-5.841,-7.048
-0.0,1549993939.2303696,1.9724195004,3999.4474976109736,3269.640468343053,1.06,-0.292,-6.093,-7.333
-0.0,1549993939.2303696,1.972430706,4436.086439314323,3229.2375955486873,1.252,-0.04,-6.224,-7.48
-0.0,1549993939.2303696,1.9724434614,4634.46919736288,3212.1809339879856,1.325,0.055,-6.278,-7.541
-0.0,1549993939.2303696,1.972458005,4731.512589614803,3203.3176008528117,1.364,0.105,-6.304,-7.571
-0.0,1549993939.2303696,1.9724583626,3698.281797802663,3298.3747715856816,0.93,-0.464,-5.996,-7.223
-0.0,1549993939.2303696,1.9724594355,2818.382931264455,3406.4341658307585,0.532,-0.967,-5.653,-6.837
-0.0,1549993939.2303696,1.9724617004,1694.3378004473288,3619.928562242391,0.136,-1.471,-5.014,-6.108
-0.0,1549993939.2303696,1.9724650383,1663.4126503701698,3626.6028624488754,0.128,-1.482,-4.994,-6.085
-0.0,1549993939.2303696,1.9724695683,1981.527025805099,3551.4033498288213,0.215,-1.373,-5.211,-6.335
-0.0,1549993939.2303696,1.9724752903,2679.1683248190316,3426.099724881373,0.483,-1.031,-5.59,-6.766
-0.0,1549993939.2303696,1.9724824429,3556.3131856898544,3311.311214825911,0.872,-0.541,-5.948,-7.169
-0.0,1549993939.2303696,1.9724910259,4305.266104917106,3235.936569296281,1.24,-0.059,-6.187,-7.441
-0.0,1549993939.2303696,1.9725010395,4753.352259428054,3196.686154267323,1.405,0.156,-6.311,-7.58
-0.0,1549993939.2303696,1.9725124836,4943.106869868354,3180.5336883295204,1.484,0.257,-6.362,-7.637
-0.0,1549993939.2303696,1.9725254774,5035.006087879047,3173.218663836144,1.524,0.308,-6.385,-7.664
-0.0,1549993939.2303696,1.972525835,4064.4332916521275,3255.3673247163633,1.149,-0.18,-6.117,-7.363
-0.0,1549993939.2303696,1.9725269079,3118.8895840939385,3362.791956867804,0.682,-0.78,-5.781,-6.982
-0.0,1549993939.2303696,1.9725290537,1887.9913490962927,3574.3740626448075,0.186,-1.409,-5.149,-6.263
-0.0,1549993939.2303696,1.9725323915,1849.2686189780777,3583.43886814277,0.175,-1.423,-5.122,-6.232
-0.0,1549993939.2303696,1.9725369215,2192.80493535045,3509.942484670127,0.29,-1.277,-5.335,-6.477
-0.0,1549993939.2303696,1.9725426435,2930.8932452503213,3386.881485634765,0.597,-0.888,-5.703,-6.894
-0.0,1549993939.2303696,1.9725497961,3837.0724549227884,3275.668919368471,1.056,-0.303,-6.046,-7.283
-0.0,1549993939.2303696,1.97255826,4613.175745603796,3202.5800946290287,1.395,0.14,-6.276,-7.543
-0.0,1549993939.2303696,1.9725681543,5069.907082747044,3164.462838835526,1.579,0.376,-6.395,-7.677
-0.0,1549993939.2303696,1.9725795984,5260.172663907063,3148.4731933873795,1.647,0.459,-6.444,-7.733
-0.0,1549993939.2303696,1.972592473,5357.966575133417,3140.5086938762165,1.68,0.499,-6.467,-7.759
-0.0,1549993939.2303696,1.9725927114,4477.133041763624,3211.441387141269,1.363,0.097,-6.241,-7.504
-0.0,1549993939.2303696,1.9725937843,3443.4993076333844,3317.416496945389,0.865,-0.553,-5.91,-7.129
-0.0,1549993939.2303696,1.9725956917,2103.778439766475,3527.7678661887385,0.255,-1.323,-5.285,-6.419
-0.0,1549993939.2303696,1.9725986719,2051.1621788255648,3539.1583956694994,0.234,-1.35,-5.252,-6.381
-0.0,1549993939.2303696,1.972602725,2421.0290467361774,3466.5702053333894,0.382,-1.163,-5.461,-6.62
-0.0,1549993939.2303696,1.972607851,3198.895109691397,3347.341331292356,0.753,-0.694,-5.815,-7.022
-0.0,1549993939.2303696,1.9726141691,4139.996748197304,3239.664224348446,1.25,-0.054,-6.143,-7.395
-0.0,1549993939.2303696,1.9726217985,4920.395356814511,3168.8377271814975,1.573,0.365,-6.362,-7.643
-0.0,1549993939.2303696,1.97263062,5382.697825162882,3132.5643416709277,1.727,0.553,-6.475,-7.77
-0.0,1549993939.2303696,1.9726407528,5584.701947368307,3116.7358754452835,1.791,0.631,-6.521,-7.822
-0.0,1549993939.2303696,1.9726523161,5675.446054085472,3109.5675818498016,1.825,0.672,-6.543,-7.847
-0.0,1549993939.2303696,1.9726525545,4886.523593428336,3168.8377271814975,1.581,0.374,-6.353,-7.634
-0.0,1549993939.2303696,1.9726535082,3775.72190925416,3274.1607653757505,1.085,-0.271,-6.028,-7.265
-0.0,1549993939.2303696,1.9726554155,2328.091257665008,3482.571166386543,0.35,-1.205,-5.412,-6.565
-0.0,1549993939.2303696,1.9726581573,2254.2392121524304,3496.2300400270183,0.321,-1.241,-5.373,-6.52
-0.0,1549993939.2303696,1.972661972,2648.500138606701,3424.5223108915197,0.504,-1.01,-5.578,-6.754
-0.0,1549993939.2303696,1.9726668596,3467.368504525317,3308.2627885569786,0.921,-0.487,-5.92,-7.143
-0.0,1549993939.2303696,1.9726729393,4436.086439314323,3204.0552769132337,1.42,0.164,-6.234,-7.5
-0.0,1549993939.2303696,1.9726800919,5236.0043658575005,3135.4508691442925,1.733,0.558,-6.444,-7.738
-0.0,1549993939.2303696,1.9726884365,5701.642722807472,3100.2734419981916,1.879,0.735,-6.551,-7.859
-0.0,1549993939.2303696,1.9726980925,5902.010801718442,3084.6081377571413,1.937,0.797,-6.595,-7.909
-0.0,1549993939.2303696,1.9727090597,5997.910762555094,3076.805193759751,1.958,0.812,-6.616,-7.932
-0.0,1549993939.2303696,1.9727092981,5308.8444423098845,3125.35964361334,1.783,0.617,-6.463,-7.761
-0.0,1549993939.2303696,1.9727102518,4120.975190973304,3229.9812405956245,1.321,0.031,-6.142,-7.398
-0.0,1549993939.2303696,1.9727121592,2564.484036517716,3436.370641490611,0.479,-1.045,-5.536,-6.708
-0.0,1549993939.2303696,1.972714901,2471.724145016129,3452.2322076905675,0.435,-1.101,-5.49,-6.656
-0.0,1549993939.2303696,1.9727187157,2890.6798823654744,3381.4268747382753,0.646,-0.835,-5.692,-6.885
-0.0,1549993939.2303696,1.972723484,3741.105882720533,3268.8876924727197,1.138,-0.209,-6.021,-7.261
-0.0,1549993939.2303696,1.9727294445,4742.419852602448,3167.3787594444734,1.62,0.416,-6.321,-7.603
-0.0,1549993939.2303696,1.9727365971,5546.25712957911,3100.9873885323427,1.899,0.755,-6.521,-7.829
-0.0,1549993939.2303696,1.9727449417,6011.737374832779,3066.9027151623077,2.001,0.849,-6.623,-7.943
-0.0,1549993939.2303696,1.9727544785,6208.690342300638,3051.4060291410433,2.04,0.877,-6.664,-7.99
-0.0,1549993939.2303696,1.9727653265,6295.061828571975,3043.6870744812113,2.063,0.894,-6.684,-8.012
-0.0,1549993939.2303696,1.9727655649,5741.164622073275,3081.768416611512,1.977,0.836,-6.566,-7.881
-0.0,1549993939.2303696,1.9727663994,4477.133041763624,3185.664236573113,1.545,0.315,-6.251,-7.525
-0.0,1549993939.2303696,1.9727680683,2805.433637951713,3390.002355756172,0.626,-0.863,-5.656,-6.846
-0.0,1549993939.2303696,1.9727704525,2697.7394324449206,3408.0032480036516,0.574,-0.929,-5.604,-6.787
-0.0,1549993939.2303696,1.9727737904,3140.5086938762165,3338.1050516598925,0.832,-0.607,-5.801,-7.012
-0.0,1549993939.2303696,1.9727780819,4027.170343254591,3227.750819048055,1.361,0.075,-6.118,-7.375
-0.0,1549993939.2303696,1.9727833271,5046.612975635282,3129.6804715636677,1.807,0.639,-6.407,-7.703
-0.0,1549993939.2303696,1.9727896452,5874.893525297769,3064.7849053700324,2.034,0.881,-6.598,-7.919
-0.0,1549993939.2303696,1.9727970362,6338.69711256927,3030.4002977883647,2.118,0.94,-6.696,-8.029
-0.0,1549993939.2303696,1.9728055,6531.305526474723,3015.0880540378826,2.158,0.968,-6.737,-8.075
-0.0,1549993939.2303696,1.9728150368,6637.43070401909,3006.076302628232,2.179,0.982,-6.757,-8.097
-0.0,1549993939.2303696,1.9728152752,6208.690342300638,3033.891184194272,2.123,0.948,-6.671,-8.003
-0.0,1549993939.2303696,1.9728161097,4864.072056914614,3136.8951301583775,1.797,0.623,-6.361,-7.655
-0.0,1549993939.2303696,1.9728176594,3076.096814740708,3339.6426598662515,0.846,-0.594,-5.776,-6.986
-0.0,1549993939.2303696,1.9728199244,2937.6496519615307,3359.69613691214,0.768,-0.692,-5.718,-6.92
-0.0,1549993939.2303696,1.972823143,3411.9291162192844,3290.031075247056,1.076,-0.305,-5.911,-7.142
-0.0,1549993939.2303696,1.9728273153,4325.138310350088,3181.9987155303106,1.601,0.377,-6.216,-7.491
-0.0,1549993939.2303696,1.9728323221,5370.317963702527,3086.73964568386,2.017,0.881,-6.493,-7.806
-0.0,1549993939.2303696,1.9728384018,6208.690342300638,3023.430570511337,2.173,0.991,-6.676,-8.011
-0.0,1549993939.2303696,1.9728455544,6668.067692136218,2990.198367170568,2.238,1.031,-6.768,-8.113
-0.0,1549993939.2303696,1.9728536606,6870.684400142324,2974.404298125139,2.273,1.052,-6.807,-8.157
-0.0,1549993939.2303696,1.9728628397,6966.265141107687,2964.8313895243423,2.298,1.069,-6.826,-8.179
-0.0,1549993939.2303696,1.9728630781,6668.067692136218,2982.634245778771,2.267,1.054,-6.771,-8.118
-0.0,1549993939.2303696,1.9728637934,5248.074602497728,3084.6081377571413,2.049,0.913,-6.467,-7.78
-0.0,1549993939.2303696,1.9728652239,3341.950400261143,3286.2454665820464,1.128,-0.245,-5.891,-7.123
-0.0,1549993939.2303696,1.9728673697,3176.8740706497692,3308.2627885569786,1.017,-0.391,-5.827,-7.05
-0.0,1549993939.2303696,1.9728703499,3681.289736425313,3238.918349968776,1.38,0.08,-6.015,-7.268
-0.0,1549993939.2303696,1.9728741646,4623.810213992603,3133.2857243155854,1.868,0.699,-6.31,-7.605
-0.0,1549993939.2303696,1.972878933,5688.529308438413,3039.484968770113,2.178,1.01,-6.576,-7.905
-0.0,1549993939.2303696,1.9728845358,6516.283940608428,2977.8306796291185,2.307,1.091,-6.75,-8.098
-0.0,1549993939.2303696,1.9728910923,6982.324040771711,2945.099689996018,2.372,1.129,-6.837,-8.195
-0.0,1549993939.2303696,1.9728986025,7177.942912713615,2928.8693550290154,2.405,1.151,-6.874,-8.237
-0.0,1549993939.2303696,1.9729070663,7261.0595743515505,2918.098853741841,2.432,1.17,-6.892,-8.257
-0.0,1549993939.2303696,1.9729073048,7112.1351365332885,2926.846862378789,2.42,1.164,-6.866,-8.229
-0.0,1549993939.2303696,1.97290802,5623.413251903491,3028.307694265778,2.244,1.068,-6.567,-7.9
-0.0,1549993939.2303696,1.9729093313,3614.0986263961313,3228.4941217126348,1.472,0.186,-5.999,-7.256
-0.0,1549993939.2303696,1.9729113579,3419.794425137087,3252.370400952974,1.357,0.036,-5.93,-7.176
-0.0,1549993939.2303696,1.9729142189,3944.573020752785,3182.7314821707823,1.694,0.471,-6.115,-7.39
-0.0,1549993939.2303696,1.9729177952,4920.395356814511,3077.513735907868,2.142,1.004,-6.401,-7.717
-0.0,1549993939.2303696,1.9729222059,5997.910762555094,2985.3826189179604,2.356,1.15,-6.656,-8.002
-0.0,1549993939.2303696,1.9729275703,6839.116472814293,2923.4791443876893,2.469,1.214,-6.823,-8.186
-0.0,1549993939.2303696,1.9729337692,7294.575102545687,2890.014355349471,2.533,1.253,-6.907,-8.28
-0.0,1549993939.2303696,1.9729408026,7481.6950051115455,2871.441679790805,2.571,1.286,-6.943,-8.32
-0.0,1549993939.2303696,1.9729489088,7568.328950209744,2858.9068155119553,2.602,1.317,-6.961,-8.34
-0.0,1549993939.2303696,1.9729491472,7620.790100254122,2855.617271381299,2.607,1.321,-6.97,-8.349
-0.0,1549993939.2303696,1.9729497433,6011.737374832779,2958.6936525140045,2.462,1.235,-6.668,-8.022
-0.0,1549993939.2303696,1.9729510546,3890.4514499428046,3157.1847762703,1.89,0.702,-6.11,-7.396
-0.0,1549993939.2303696,1.9729529619,3664.3757464783334,3182.7314821707823,1.771,0.55,-6.035,-7.31
-0.0,1549993939.2303696,1.9729555845,4216.965034285822,3110.999920424558,2.105,0.958,-6.219,-7.523
-0.0,1549993939.2303696,1.9729589224,5223.9618899911975,3005.3842076633828,2.41,1.222,-6.497,-7.836
-0.0,1549993939.2303696,1.9729630947,6324.118513762197,2912.0578615296977,2.585,1.326,-6.742,-8.108
-0.0,1549993939.2303696,1.9729681015,7144.963260755135,2849.049533909905,2.689,1.407,-6.902,-8.282
-0.0,1549993939.2303696,1.9729739428,7603.262769401815,2811.9008303989394,2.75,1.466,-6.983,-8.37
-0.0,1549993939.2303696,1.9729806185,7798.3011052325855,2789.330656339983,2.793,1.518,-7.019,-8.408
-0.0,1549993939.2303696,1.9729881287,7888.601176185541,2772.043237577702,2.837,1.57,-7.038,-8.43
-0.0,1549993939.2303696,1.9729882479,8128.305161640995,2757.401452346361,2.847,1.584,-7.079,-8.473
-0.0,1549993939.2303696,1.9729889631,6397.348354826482,2860.8823606272076,2.755,1.477,-6.777,-8.154
-0.0,1549993939.2303696,1.9729901552,4178.303666466218,3057.032106987659,2.404,1.256,-6.23,-7.553
-0.0,1549993939.2303696,1.9729919434,3917.4187710778306,3081.0588948997392,2.357,1.225,-6.151,-7.466
-0.0,1549993939.2303696,1.9729944468,4497.798548932879,3004.692272040942,2.564,1.379,-6.334,-7.673
-0.0,1549993939.2303696,1.9729976654,5533.501092157366,2894.6762641760283,2.784,1.518,-6.604,-7.974
-0.0,1549993939.2303696,1.9730014801,6637.43070401909,2795.76072758083,2.933,1.661,-6.841,-8.228
-0.0,1549993939.2303696,1.9730062485,7464.487584100669,2725.837738928534,3.024,1.786,-6.995,-8.392
-0.0,1549993939.2303696,1.9730117321,7906.786279998253,2682.2546076084946,3.101,1.898,-7.074,-8.477
-0.0,1549993939.2303696,1.973017931,8090.958991783821,2653.994386822902,3.161,1.994,-7.109,-8.514
-0.0,1549993939.2303696,1.9730250835,8184.647881347895,2630.873703214671,3.222,2.089,-7.128,-8.535
