FeH,Age,Mini,L,Te,Bmag,Vmag,Jmag,Kmag
-0.0,449997395.3258027,0.0900000036,0.0005767664633922509,2386.162410879492,19.427,17.621,10.781,9.868
-0.0,449997395.3258027,0.091041334,0.0005915616341754736,2397.176436138303,19.401,17.594,10.753,9.84
-0.0,449997395.3258027,0.0983039215,0.0007112135136533288,2472.8626781870225,19.207,17.397,10.553,9.641
-0.0,449997395.3258027,0.1000000015,0.0007447319739059888,2490.5771539520997,19.159,17.35,10.504,9.592
-0.0,449997395.3258027,0.1023361906,0.0007870457896950985,2511.3081148680512,19.099,17.289,10.444,9.532
-0.0,449997395.3258027,0.1148524955,0.0010641430182243164,2624.218543384442,18.687,16.886,10.122,9.209
-0.0,449997395.3258027,0.1200000048,0.0012133888504649774,2672.3909970469035,18.247,16.474,9.996,9.08
-0.0,449997395.3258027,0.1400000006,0.001770108958317422,2784.8384078050026,17.188,15.491,9.628,8.711
-0.0,449997395.3258027,0.1575938016,0.00228559880337543,2859.565178927503,16.529,14.868,9.38,8.464
-0.0,449997395.3258027,0.1599999964,0.002365919697485759,2869.4588430750064,16.441,14.784,9.346,8.431
-0.0,449997395.3258027,0.200000003,0.0037325015779572064,2994.3323338672667,15.386,13.784,8.893,7.985
-0.0,449997395.3258027,0.246077314,0.005675446054085471,3102.4157748720872,14.521,12.948,8.478,7.577
-0.0,449997395.3258027,0.25,0.005861381645140285,3110.283668685142,14.458,12.888,8.445,7.545
-0.0,449997395.3258027,0.2598221004,0.006324118513762197,3126.799256376112,14.322,12.759,8.369,7.47
-0.0,449997395.3258027,0.3000000119,0.008375292821268827,3189.333980133178,13.823,12.285,8.084,7.191
-0.0,449997395.3258027,0.3051500916,0.00866961875758217,3197.422303204927,13.758,12.224,8.048,7.155
-0.0,449997395.3258027,0.3500000238,0.011694993910198712,3268.1350899154786,13.236,11.728,7.745,6.856
-0.0,449997395.3258027,0.4000000358,0.016557699634695285,3353.5130445056075,12.651,11.172,7.396,6.51
-0.0,449997395.3258027,0.4500000179,0.02349632820848307,3446.6723487178924,12.075,10.625,7.045,6.159
-0.0,449997395.3258027,0.482808888,0.02992264636608189,3524.5201677586315,11.671,10.239,6.808,5.923
-0.0,449997395.3258027,0.5,0.033884415613920256,3566.9744620973356,11.464,10.04,6.687,5.802
-0.0,449997395.3258027,0.5049625039,0.03499451670283573,3580.9643710263585,11.406,9.984,6.654,5.77
-0.0,449997395.3258027,0.5500000119,0.048865235934283366,3729.9241475247336,10.814,9.41,6.342,5.462
-0.0,449997395.3258027,0.6000000238,0.0707945784384138,3933.688806732022,10.141,8.771,6.001,5.135
-0.0,449997395.3258027,0.6499999762,0.1018591388054117,4175.418393198107,9.448,8.15,5.663,4.835
-0.0,449997395.3258027,0.7000000477,0.14487718535447616,4443.242331287159,8.715,7.532,5.349,4.59
-0.0,449997395.3258027,0.7119907141,0.15776112696993486,4506.091435730975,8.54,7.388,5.276,4.538
-0.0,449997395.3258027,0.75,0.20276827195212824,4735.872481253356,7.988,6.946,5.069,4.411
-0.0,449997395.3258027,0.8000000119,0.27289777828080414,4960.2092739597465,7.443,6.493,4.809,4.224
-0.0,449997395.3258027,0.8500000238,0.36307805477010135,5179.645056050334,6.961,6.088,4.566,4.044
-0.0,449997395.3258027,0.8999999762,0.4753352259428053,5387.657756854133,6.534,5.728,4.339,3.869
-0.0,449997395.3258027,0.9500000477,0.6151768727098681,5582.130689177262,6.139,5.396,4.124,3.699
-0.0,449997395.3258027,0.9611532092,0.6516283940608427,5623.413251903491,6.055,5.325,4.076,3.661
-0.0,449997395.3258027,1.0,0.7906786279998251,5765.00913769855,5.776,5.091,3.916,3.529
-0.0,449997395.3258027,1.0499999523,1.0023052380778996,5934.716805530554,5.439,4.808,3.719,3.365
-0.0,449997395.3258027,1.1000000238,1.2618275345906707,6092.562597496563,5.124,4.543,3.528,3.204
-0.0,449997395.3258027,1.1387891769,1.4962356560944334,6208.690342300638,4.894,4.348,3.384,3.079
-0.0,449997395.3258027,1.1499999762,1.5703628043335525,6241.658450909745,4.83,4.293,3.344,3.044
-0.0,449997395.3258027,1.1718322039,1.7258378919902035,6305.2164509004215,4.705,4.188,3.265,2.976
-0.0,449997395.3258027,1.2000000477,1.940885877592778,6385.574850788397,4.55,4.056,3.166,2.89
-0.0,449997395.3258027,1.25,2.371373705661655,6525.29274119251,4.289,3.831,2.999,2.744
-0.0,449997395.3258027,1.2999999523,2.870780582024691,6663.463144693567,4.043,3.618,2.839,2.604
-0.0,449997395.3258027,1.3500000238,3.4355794789987466,6806.126238014957,3.809,3.415,2.691,2.476
-0.0,449997395.3258027,1.3999999762,4.083193863326921,6959.851927647889,3.586,3.223,2.556,2.361
-0.0,449997395.3258027,1.4500000477,4.808393484497286,7133.456216702232,3.371,3.039,2.436,2.263
-0.0,449997395.3258027,1.5,5.636376558259545,7338.3766733353805,3.16,2.862,2.331,2.183
-0.0,449997395.3258027,1.5499999523,6.561452663029053,7559.620603389211,2.957,2.693,2.238,2.114
-0.0,449997395.3258027,1.6000000238,7.603262769401819,7773.202827984621,2.766,2.533,2.149,2.047
-0.0,449997395.3258027,1.6404823065,8.511380382023766,7935.969681957695,2.621,2.411,2.079,1.992
-0.0,449997395.3258027,1.6499999762,8.74983775227436,7974.436424126813,2.588,2.384,2.063,1.979
-0.0,449997395.3258027,1.6906093359,9.749896377173869,8122.692266200639,2.452,2.27,1.993,1.922
-0.0,449997395.3258027,1.7000000477,10.0,8156.427871327876,2.421,2.245,1.978,1.908
-0.0,449997395.3258027,1.712551713,10.327614057613975,8199.738454574752,2.381,2.211,1.956,1.89
-0.0,449997395.3258027,1.75,11.37627285823431,8321.469006867934,2.263,2.112,1.892,1.834
-0.0,449997395.3258027,1.7999998331,12.91219273613534,8478.128602875053,2.115,1.987,1.807,1.759
-0.0,449997395.3258027,1.8134644032,13.33521432163324,8519.223264285474,2.076,1.954,1.784,1.739
-0.0,449997395.3258027,1.8500001431,14.588142602753482,8625.812229534791,1.975,1.868,1.721,1.683
-0.0,449997395.3258027,1.8903256655,16.106456351782708,8739.769925905892,1.866,1.774,1.652,1.619
-0.0,449997395.3258027,1.9000000954,16.481623915255085,8765.970403212794,1.841,1.752,1.635,1.604
-0.0,449997395.3258027,1.9202921391,17.298163592151013,8820.63802136673,1.789,1.706,1.6,1.572
-0.0,449997395.3258027,1.9500000477,18.57804455091698,8900.204796255253,1.713,1.639,1.549,1.524
-0.0,449997395.3258027,1.9801079035,19.952623149688797,8974.287945007482,1.639,1.574,1.496,1.475
-0.0,449997395.3258027,2.0,20.892961308540396,9024.01897831141,1.59,1.53,1.461,1.442
-0.0,449997395.3258027,2.0402359962,22.961486481123618,9122.208617910435,1.493,1.444,1.391,1.377
-0.0,449997395.3258027,2.0499999523,23.49632820848307,9145.343031204598,1.47,1.423,1.375,1.361
-0.0,449997395.3258027,2.0591509342,23.9883291901949,9168.536114619232,1.449,1.404,1.359,1.346
-0.0,449997395.3258027,2.0999999046,26.302679918953814,9259.765745612469,1.354,1.319,1.287,1.278
-0.0,449997395.3258027,2.1157722473,27.289777828080403,9293.942901315802,1.318,1.286,1.259,1.251
-0.0,449997395.3258027,2.1500000954,29.512092266663856,9360.520527214574,1.239,1.214,1.196,1.191
-0.0,449997395.3258027,2.1697106361,30.83187950249355,9399.397147667809,1.195,1.172,1.16,1.156
-0.0,449997395.3258027,2.2000000477,33.036954103681474,9451.483924407292,1.125,1.108,1.102,1.101
-0.0,449997395.3258027,2.25,36.982817978026624,9530.155787081256,1.009,1.0,1.005,1.006
-0.0,449997395.3258027,2.2952885628,40.926065973001094,9596.21567110341,0.906,0.902,0.915,0.918
-0.0,449997395.3258027,2.2999999523,41.39996748197304,9600.635909453471,0.895,0.892,0.905,0.909
-0.0,449997395.3258027,2.3542034626,46.665938031428865,9660.508789898131,0.769,0.773,0.793,0.798
-0.0,449997395.3258027,2.4000000954,51.760683195056764,9689.46949978737,0.66,0.667,0.691,0.698
-0.0,449997395.3258027,2.4446048737,57.14786366718669,9702.865247929214,0.553,0.563,0.588,0.595
-0.0,449997395.3258027,2.4862527847,62.66138646723353,9698.397942067511,0.451,0.462,0.487,0.494
-0.0,449997395.3258027,2.5355653763,69.82324040771715,9669.410546091212,0.326,0.338,0.36,0.366
-0.0,449997395.3258027,2.583325386,77.62471166286916,9594.006315159337,0.198,0.208,0.221,0.225
-0.0,449997395.3258027,2.5999999046,80.53784411990665,9552.125065089958,0.151,0.159,0.168,0.171
-0.0,449997395.3258027,2.6254618168,85.31001140175896,9484.184633008968,0.08,0.085,0.086,0.087
-0.0,449997395.3258027,2.6611144543,92.25714271547633,9356.210840627022,-0.023,-0.024,-0.038,-0.042
-0.0,449997395.3258027,2.693073988,98.8553094656939,9196.021966586175,-0.119,-0.129,-0.164,-0.174
-0.0,449997395.3258027,2.7179741859,104.23174293933036,9046.904377381195,-0.194,-0.214,-0.27,-0.286
-0.0,449997395.3258027,2.7443432808,110.40786199020735,8865.433979891743,-0.273,-0.305,-0.389,-0.413
-0.0,449997395.3258027,2.7643373013,115.34532578210919,8709.635899560806,-0.333,-0.378,-0.488,-0.518
-0.0,449997395.3258027,2.7833778858,121.05981335504829,8572.352082084062,-0.39,-0.448,-0.584,-0.621
-0.0,449997395.3258027,2.798058033,126.18275345906706,8497.672707759728,-0.439,-0.503,-0.654,-0.695
-0.0,449997395.3258027,2.7999999523,127.64388088113435,8519.223264285474,-0.451,-0.512,-0.658,-0.698
-0.0,449997395.3258027,2.804869175,130.9181922999407,8574.326166361796,-0.478,-0.533,-0.668,-0.705
-0.0,449997395.3258027,2.8104307652,137.72094688939458,8774.047879567535,-0.526,-0.56,-0.658,-0.685
-0.0,449997395.3258027,2.8124425411,143.8798578255845,8997.047223493295,-0.555,-0.57,-0.632,-0.649
-0.0,449997395.3258027,2.8134012222,149.6235656094433,9212.977276685555,-0.577,-0.576,-0.607,-0.616
-0.0,449997395.3258027,2.8139441013,156.3147642640954,9429.746114598993,-0.597,-0.582,-0.586,-0.587
-0.0,449997395.3258027,2.8142962456,164.43717232149325,9660.508789898131,-0.621,-0.592,-0.571,-0.564
-0.0,449997395.3258027,2.814524889,173.38039977541374,9871.883010683967,-0.646,-0.607,-0.563,-0.549
-0.0,449997395.3258027,2.8146193027,174.98466886246564,9931.160484209335,-0.646,-0.604,-0.555,-0.539
-0.0,449997395.3258027,2.8147192001,163.68165214278085,9781.377043229864,-0.597,-0.563,-0.528,-0.517
-0.0,449997395.3258027,2.8148002625,154.5254439538414,9591.797467879695,-0.562,-0.538,-0.524,-0.519
-0.0,449997395.3258027,2.8148722649,149.6235656094433,9395.069561856679,-0.554,-0.541,-0.55,-0.552
-0.0,449997395.3258027,2.8149707317,148.59356422870076,9149.55558721381,-0.577,-0.58,-0.62,-0.631
-0.0,449997395.3258027,2.8150846958,151.70503674593368,8908.405964008209,-0.623,-0.643,-0.718,-0.739
-0.0,449997395.3258027,2.8152155876,155.23870099580816,8669.61875758217,-0.664,-0.706,-0.821,-0.853
-0.0,449997395.3258027,2.8153591156,157.76112696993485,8437.232172118302,-0.687,-0.752,-0.913,-0.958
-0.0,449997395.3258027,2.815513134,158.8546748597779,8211.074640850884,-0.69,-0.782,-0.995,-1.054
-0.0,449997395.3258027,2.8156754971,159.220872705117,7989.13941667404,-0.677,-0.8,-1.07,-1.145
-0.0,449997395.3258027,2.815844059,158.8546748597779,7773.202827984621,-0.65,-0.807,-1.14,-1.232
-0.0,449997395.3258027,2.8160152435,157.76112696993485,7561.361470777293,-0.606,-0.805,-1.204,-1.315
-0.0,449997395.3258027,2.8161866665,155.95525028269537,7355.293378672722,-0.555,-0.794,-1.265,-1.396
-0.0,449997395.3258027,2.8163557053,154.170045294956,7154.841214168983,-0.497,-0.777,-1.32,-1.474
-0.0,449997395.3258027,2.8165204525,151.70503674593368,6959.851927647889,-0.433,-0.753,-1.37,-1.549
-0.0,449997395.3258027,2.8166792393,149.2794409578996,6768.6179291974595,-0.364,-0.725,-1.418,-1.622
-0.0,449997395.3258027,2.8168313503,146.55478409559115,6584.154299433819,-0.287,-0.692,-1.46,-1.691
-0.0,449997395.3258027,2.8169763088,143.5489433353656,6406.192726268982,-0.203,-0.655,-1.5,-1.758
-0.0,449997395.3258027,2.8171143532,140.28137045619576,6240.221421389766,-0.112,-0.616,-1.534,-1.82
-0.0,449997395.3258027,2.8172466755,136.77288255958496,6092.562597496563,-0.022,-0.573,-1.561,-1.873
-0.0,449997395.3258027,2.8173787594,133.04544179780913,5962.110213666547,0.071,-0.525,-1.577,-1.915
-0.0,449997395.3258027,2.8175196648,128.82495516931337,5842.517205360298,0.168,-0.47,-1.583,-1.945
-0.0,449997395.3258027,2.8176801205,123.31048332289096,5726.641550089671,0.275,-0.402,-1.576,-1.963
-0.0,449997395.3258027,2.8178339005,117.48975549395291,5629.891173942436,0.378,-0.33,-1.556,-1.965
-0.0,449997395.3258027,2.8180034161,110.66237839776664,5533.501092157366,0.496,-0.243,-1.523,-1.954
-0.0,449997395.3258027,2.8181807995,103.2761405761397,5441.266536154456,0.623,-0.146,-1.478,-1.931
-0.0,449997395.3258027,2.8183443546,96.8277856261249,5362.9037180085825,0.739,-0.058,-1.434,-1.906
-0.0,449997395.3258027,2.8185675144,89.94975815300351,5261.38400287851,0.885,0.052,-1.385,-1.882
-0.0,449997395.3258027,2.818778038,86.29785477669702,5170.112579686548,0.992,0.127,-1.367,-1.888
-0.0,449997395.3258027,2.8188555241,85.70378452303697,5138.069802323445,1.021,0.144,-1.371,-1.9
-0.0,449997395.3258027,2.8191092014,89.74287945007487,5041.967013185367,1.041,0.128,-1.45,-2.006
-0.0,449997395.3258027,2.8193354607,97.2747223776965,4968.210633313916,1.012,0.07,-1.559,-2.136
-0.0,449997395.3258027,2.81955266,106.41430182243164,4911.339996469978,0.961,-0.004,-1.674,-2.268
-0.0,449997395.3258027,2.8197622299,115.34532578210919,4866.312560731986,0.91,-0.072,-1.775,-2.383
-0.0,449997395.3258027,2.8200764656,128.52866599436155,4811.716152521639,0.843,-0.165,-1.909,-2.535
-0.0,449997395.3258027,2.8203382492,139.95873225726177,4773.094139287512,0.789,-0.238,-2.014,-2.651
-0.0,449997395.3258027,2.8205997944,152.40527537972906,4736.963081746328,0.737,-0.311,-2.116,-2.765
-0.0,449997395.3258027,2.8207566738,160.32453906900417,4715.198713364481,0.705,-0.354,-2.178,-2.833
-0.0,449997395.3258027,2.82091856,169.04409316432648,4694.615193825913,0.67,-0.401,-2.243,-2.904
-0.0,449997395.3258027,2.8210804462,178.64875748520498,4673.045396315099,0.635,-0.447,-2.307,-2.976
-0.0,449997395.3258027,2.8211920261,185.35316234148104,4658.005532200294,0.613,-0.479,-2.352,-3.026
-0.0,449997395.3258027,2.8215272427,207.49135174549107,4616.363515404673,0.54,-0.575,-2.486,-3.173
-0.0,449997395.3258027,2.8218064308,227.50974307720716,4582.47389928456,0.479,-0.656,-2.598,-3.296
-0.0,449997395.3258027,2.8221411705,255.2701302661247,4542.552967388711,0.406,-0.753,-2.733,-3.445
-0.0,449997395.3258027,2.8224759102,286.41779699065796,4504.016781680873,0.331,-0.852,-2.869,-3.595
-0.0,449997395.3258027,2.8227546215,316.22776601683796,4471.981517887507,0.269,-0.939,-2.984,-3.718
-0.0,449997395.3258027,2.8230333328,349.1403154785863,4436.086439314323,0.211,-1.023,-3.1,-3.846
-0.0,449997395.3258027,2.8233118057,387.25764492161727,4401.492842868152,0.149,-1.111,-3.219,-3.975
-0.0,449997395.3258027,2.8235518932,423.6429660495409,4371.193179262241,0.093,-1.188,-3.324,-4.089
-0.0,449997395.3258027,2.8237886429,463.44691973628795,4339.103405929243,0.042,-1.262,-3.427,-4.203
-0.0,449997395.3258027,2.8240599632,511.6818355403078,4305.266104917106,-0.017,-1.343,-3.54,-4.327
-0.0,449997395.3258027,2.8242590427,534.5643593969719,4289.434099967818,-0.044,-1.381,-3.593,-4.386
-0.0,449997395.3258027,2.8245201111,514.0436515824259,4304.274894883304,-0.022,-1.349,-3.546,-4.334
-0.0,449997395.3258027,2.8250677586,474.2419852602448,4334.110703101766,0.025,-1.282,-3.452,-4.229
-0.0,449997395.3258027,2.8256571293,436.5158322401661,4364.153323262729,0.071,-1.216,-3.357,-4.125
-0.0,449997395.3258027,2.8262732029,402.71703432545905,4394.404188918088,0.118,-1.148,-3.262,-4.02
-0.0,449997395.3258027,2.8268864155,367.2823004980846,4426.90293835173,0.17,-1.073,-3.157,-3.905
-0.0,449997395.3258027,2.8274726868,333.4264127632351,4463.75140604447,0.224,-0.992,-3.043,-3.779
-0.0,449997395.3258027,2.827944994,306.19634336906785,4494.692652627942,0.274,-0.92,-2.944,-3.671
-0.0,449997395.3258027,2.8284041882,281.8382931264455,4525.848373686597,0.323,-0.848,-2.845,-3.562
-0.0,449997395.3258027,2.8288683891,258.22601906345955,4557.220055886471,0.374,-0.778,-2.743,-3.449
-0.0,449997395.3258027,2.8293466568,237.13737056616552,4589.865930219982,0.429,-0.705,-2.64,-3.335
-0.0,449997395.3258027,2.8298518658,217.27011788637455,4622.74566491089,0.485,-0.629,-2.535,-3.219
-0.0,449997395.3258027,2.8303978443,198.60949173573715,4656.933110262015,0.541,-0.554,-2.429,-3.102
-0.0,449997395.3258027,2.8310694695,180.3017740859568,4693.534343171951,0.604,-0.47,-2.312,-2.974
-0.0,449997395.3258027,2.8317725658,164.81623915255085,4729.334149186516,0.661,-0.393,-2.206,-2.856
-0.0,449997395.3258027,2.8326120377,151.00801541641476,4765.407017251339,0.719,-0.316,-2.098,-2.737
-0.0,449997395.3258027,2.8342971802,131.82567385564073,4823.918924327151,0.805,-0.199,-1.934,-2.556
-0.0,449997395.3258027,2.8362514973,119.3988104464273,4874.162454431541,0.865,-0.114,-1.811,-2.417
-0.0,449997395.3258027,2.8395857811,109.1440336448756,4936.28243059449,0.911,-0.044,-1.695,-2.282
-0.0,449997395.3258027,2.8440899849,105.43868963912593,4988.844874600121,0.907,-0.028,-1.641,-2.212
-0.0,449997395.3258027,2.8641674519,112.71974561755106,4987.696282857759,0.836,-0.099,-1.714,-2.285
-0.0,449997395.3258027,2.8990600109,127.05741052085419,4983.104559705293,0.709,-0.229,-1.847,-2.419
-0.0,449997395.3258027,2.9283516407,141.5793779957081,4976.224899734694,0.598,-0.343,-1.965,-2.538
-0.0,449997395.3258027,2.9547951221,155.59656316050751,4964.779900060685,0.507,-0.443,-2.074,-2.65
-0.0,449997395.3258027,2.9595623016,158.48931924611142,4960.2092739597465,0.492,-0.46,-2.093,-2.671
-0.0,449997395.3258027,2.9724478722,165.19617982290148,4938.556196176078,0.466,-0.496,-2.145,-2.729
-0.0,449997395.3258027,2.9961292744,181.97008586099827,4869.675251658631,0.423,-0.572,-2.272,-2.876
-0.0,449997395.3258027,3.0,185.35316234148104,4855.120352422797,0.416,-0.586,-2.297,-2.906
-0.0,449997395.3258027,3.0000915527,185.7804455091699,4855.120352422797,0.416,-0.586,-2.298,-2.907
-0.0,449997395.3258027,3.0066950321,196.33602768360475,4798.439240638985,0.407,-0.621,-2.377,-3.003
-0.0,449997395.3258027,3.0086138248,213.79620895022325,4743.511960856962,0.373,-0.683,-2.485,-3.128
-0.0,449997395.3258027,3.0093171597,237.6840286624876,4685.975353086258,0.32,-0.767,-2.616,-3.278
-0.0,449997395.3258027,3.0095157623,261.8183008218986,4640.876378080087,0.267,-0.845,-2.734,-3.41
-0.0,449997395.3258027,3.0095484257,267.30064086633115,4631.268924918746,0.255,-0.862,-2.759,-3.439
-0.0,449997395.3258027,3.009645462,301.3006024186122,4581.418867145335,0.185,-0.961,-2.904,-3.601
-0.0,449997395.3258027,3.0097241402,333.4264127632351,4539.416166502032,0.13,-1.043,-3.024,-3.734
-0.0,449997395.3258027,3.0100495815,323.5936569296281,4553.024633460011,0.142,-1.021,-2.99,-3.696
-0.0,449997395.3258027,3.0109837055,304.7894989627983,4577.2011670508655,0.177,-0.971,-2.917,-3.615
-0.0,449997395.3258027,3.0118284225,323.5936569296281,4550.928370849554,0.145,-1.019,-2.989,-3.696
-0.0,449997395.3258027,3.0125713348,358.92193464500536,4509.205208756537,0.089,-1.105,-3.113,-3.832
-0.0,449997395.3258027,3.0132462978,391.74187710778307,4474.041415755961,0.04,-1.179,-3.216,-3.945
-0.0,449997395.3258027,3.0139284134,428.54852039743963,4441.1966136558885,-0.01,-1.252,-3.32,-4.059
-0.0,449997395.3258027,3.014578104,467.73514128719813,4407.5779324153655,-0.06,-1.325,-3.423,-4.173
-0.0,449997395.3258027,3.0151922703,511.6818355403078,4358.128185607303,-0.091,-1.387,-3.531,-4.298
-0.0,449997395.3258027,3.0157635212,561.0479760324706,4309.233228186264,-0.122,-1.448,-3.64,-4.425
-0.0,449997395.3258027,3.0162870884,615.1768727098683,4268.742912929737,-0.165,-1.516,-3.747,-4.547
-0.0,449997395.3258027,3.0167617798,674.5280276979222,4233.504249077914,-0.217,-1.588,-3.854,-4.667
-0.0,449997395.3258027,3.0171878338,739.6052750582381,4201.457743989054,-0.27,-1.661,-3.959,-4.785
-0.0,449997395.3258027,3.0175719261,810.9610578538404,4168.693834703355,-0.316,-1.728,-4.067,-4.907
-0.0,449997395.3258027,3.0178360939,868.960429286302,4144.765840379393,-0.348,-1.776,-4.147,-4.998
-0.0,449997395.3258027,3.0181615353,950.6047936562819,4112.4440272660895,-0.39,-1.838,-4.254,-5.119
-0.0,449997395.3258027,3.0184600353,1042.3174293933037,4080.3742668966966,-0.432,-1.901,-4.361,-5.24
-0.0,449997395.3258027,3.0187351704,1140.2497875611684,4049.48691518634,-0.472,-1.96,-4.467,-5.361
-0.0,449997395.3258027,3.0189886093,1250.25903021772,4016.983057462358,-0.509,-2.017,-4.573,-5.482
-0.0,449997395.3258027,3.0192227364,1367.7288255958495,3984.7400971777515,-0.545,-2.073,-4.679,-5.603
-0.0,449997395.3258027,3.0194382668,1496.235656094433,3953.666200681279,-0.579,-2.124,-4.785,-5.723
-0.0,449997395.3258027,3.0196375847,1636.8165214278085,3921.0285091946057,-0.61,-2.172,-4.889,-5.844
-0.0,449997395.3258027,3.0198221207,1790.6058540352947,3889.555743517412,-0.638,-2.218,-4.994,-5.963
-0.0,449997395.3258027,3.0199935436,1954.3394557753943,3857.447286724761,-0.659,-2.254,-5.098,-6.082
-0.0,449997395.3258027,3.0201535225,2133.0449131465775,3825.6038866803838,-0.678,-2.288,-5.202,-6.2
-0.0,449997395.3258027,3.0203034878,2322.7367963571073,3793.1498497368207,-0.693,-2.316,-5.305,-6.319
-0.0,449997395.3258027,3.0204441547,2529.2979964461447,3760.971132597691,-0.698,-2.329,-5.407,-6.436
-0.0,449997395.3258027,3.0205769539,2754.2287033381663,3729.065399621527,-0.702,-2.341,-5.507,-6.551
-0.0,449997395.3258027,3.0207028389,2985.3826189179604,3697.4303349809716,-0.699,-2.341,-5.606,-6.664
-0.0,449997395.3258027,3.0208232403,3235.936569296281,3666.9078820369723,-0.689,-2.331,-5.703,-6.774
-0.0,449997395.3258027,3.0209393501,3491.4031547858626,3636.6373933084765,-0.678,-2.32,-5.797,-6.882
-0.0,449997395.3258027,3.0210528374,3749.730022454834,3608.278079727421,-0.652,-2.289,-5.885,-6.983
-0.0,449997395.3258027,3.0211591721,3944.573020752785,3587.566830392618,-0.631,-2.262,-5.947,-7.054
-0.0,449997395.3258027,3.0212709904,4102.041029866068,3571.9058251119704,-0.613,-2.241,-5.995,-7.108
-0.0,449997395.3258027,3.0214276314,4477.133041763624,3536.7144758575937,-0.564,-2.181,-6.104,-7.231
-0.0,449997395.3258027,3.021573782,5069.907082747044,3487.385841352184,-0.47,-2.062,-6.258,-7.407
-0.0,449997395.3258027,3.0216116905,5105.049999754065,3484.175319018589,-0.464,-2.054,-6.269,-7.419
-0.0,449997395.3258027,3.0216345787,5164.163692720711,3480.166322150038,-0.455,-2.042,-6.281,-7.433
-0.0,449997395.3258027,3.0216460228,5260.172663907063,3471.362758876978,-0.438,-2.02,-6.306,-7.462
-0.0,449997395.3258027,3.0216684341,5470.159628939716,3455.413295778485,-0.396,-1.967,-6.355,-7.518
-0.0,449997395.3258027,3.02170825,5675.446054085472,3440.329187682278,-0.357,-1.918,-6.401,-7.569
-0.0,449997395.3258027,3.0217349529,6456.542290346556,3386.881485634765,-0.207,-1.728,-6.563,-7.753
-0.0,449997395.3258027,3.0217428207,6729.766562843175,3368.2165076063116,-0.134,-1.636,-6.618,-7.816
-0.0,449997395.3258027,3.021750927,6745.280276979222,3367.4410363771217,-0.133,-1.635,-6.62,-7.818
-0.0,449997395.3258027,3.0217692852,5470.159628939716,3455.413295778485,-0.395,-1.966,-6.354,-7.517
-0.0,449997395.3258027,3.0217702389,5597.576014951104,3445.8788144433506,-0.37,-1.935,-6.383,-7.549
-0.0,449997395.3258027,3.0217704773,5623.413251903491,3443.4993076333844,-0.363,-1.926,-6.391,-7.558
-0.0,449997395.3258027,3.0217707157,5636.376558259543,3442.7065038944434,-0.361,-1.924,-6.393,-7.56
-0.0,449997395.3258027,3.0217709541,5662.3928903825345,3440.329187682278,-0.356,-1.917,-6.399,-7.567
-0.0,449997395.3258027,3.0217711926,5688.529308438413,3439.5371138063997,-0.353,-1.913,-6.403,-7.572
-0.0,449997395.3258027,3.021771431,5701.642722807472,3437.953513094916,-0.349,-1.908,-6.407,-7.577
-0.0,449997395.3258027,3.0217723846,5780.960474057181,3432.416650121203,-0.334,-1.889,-6.425,-7.596
-0.0,449997395.3258027,3.0217733383,5861.3816451402845,3426.099724881373,-0.318,-1.869,-6.443,-7.617
-0.0,449997395.3258027,3.0217761993,6109.420249055721,3409.5730529319967,-0.272,-1.81,-6.496,-7.676
-0.0,449997395.3258027,3.0217790604,6397.348354826482,3390.002355756172,-0.217,-1.74,-6.554,-7.743
-0.0,449997395.3258027,3.0217819214,6668.067692136218,3372.873086588689,-0.152,-1.659,-6.607,-7.803
-0.0,449997395.3258027,3.0217857361,6982.324040771711,3353.5130445056075,-0.078,-1.567,-6.664,-7.867
-0.0,449997395.3258027,3.0217907429,7328.245331389045,3332.728995761379,0.007,-1.462,-6.725,-7.937
-0.0,449997395.3258027,3.0217986107,7673.614893618185,3312.8364811728147,0.09,-1.361,-6.783,-8.004
-0.0,449997395.3258027,3.0218174458,8128.305161640995,3287.7591870669708,0.215,-1.198,-6.857,-8.088
-0.0,449997395.3258027,3.0218193531,8147.042840208396,3287.0022396877516,0.221,-1.191,-6.86,-8.092
-0.0,449997395.3258027,3.0218214989,8147.042840208396,3287.0022396877516,0.221,-1.191,-6.86,-8.092
-0.0,449997395.3258027,3.0218224525,7961.593504173184,3302.1743526707673,0.134,-1.302,-6.828,-8.053
-0.0,449997395.3258027,3.0218224525,8053.784411990669,3296.856163568906,0.16,-1.268,-6.845,-8.072
-0.0,449997395.3258027,3.0218241215,5984.115950603199,3420.581952567498,-0.307,-1.854,-6.467,-7.643
-0.0,449997395.3258027,3.0218269825,4528.975799036209,3539.1583956694994,-0.585,-2.205,-6.117,-7.243
-0.0,449997395.3258027,3.0218310356,4841.7236758409945,3509.942484670127,-0.523,-2.128,-6.201,-7.34
-0.0,449997395.3258027,3.0218365192,5780.960474057181,3433.2070842609537,-0.339,-1.895,-6.424,-7.595
-0.0,449997395.3258027,3.0218434334,6918.309709189362,3357.3761424295453,-0.091,-1.583,-6.652,-7.854
-0.0,449997395.3258027,3.0218522549,7852.356346100718,3303.6954103681487,0.135,-1.303,-6.813,-8.038
-0.0,449997395.3258027,3.0218627453,8433.347577642757,3273.406948788383,0.283,-1.109,-6.902,-8.14
-0.0,449997395.3258027,3.0218751431,8729.713683881113,3257.616829660631,0.366,-1.001,-6.948,-8.192
-0.0,449997395.3258027,3.0218896866,8933.054837332953,3247.1324216780226,0.427,-0.922,-6.978,-8.227
-0.0,449997395.3258027,3.021889925,11614.486138403438,3143.4025417390094,0.922,-0.288,-7.309,-8.6
-0.0,449997395.3258027,3.0218908787,8892.011178579482,3248.6281257920155,0.416,-0.937,-6.971,-8.219
-0.0,449997395.3258027,3.0218925476,6591.738952443213,3370.5439929348295,-0.131,-1.635,-6.594,-7.791
-0.0,449997395.3258027,3.0218958855,4988.844874600121,3488.9922117346073,-0.462,-2.054,-6.241,-7.389
-0.0,449997395.3258027,3.0219004154,5321.082592667942,3460.9872548535277,-0.399,-1.974,-6.321,-7.481
-0.0,449997395.3258027,3.0219066143,6309.57344480193,3388.441561392024,-0.195,-1.715,-6.539,-7.729
-0.0,449997395.3258027,3.0219144821,7498.942093324558,3316.6527215043507,0.09,-1.362,-6.758,-7.977
-0.0,449997395.3258027,3.0219242573,8452.788451602899,3266.6304045806874,0.33,-1.05,-6.909,-8.149
-0.0,449997395.3258027,3.0219361782,8994.975815300355,3241.1564884384366,0.463,-0.877,-6.988,-8.239
-0.0,449997395.3258027,3.0219502449,9246.98173938223,3229.9812405956245,0.52,-0.803,-7.022,-8.277
-0.0,449997395.3258027,3.0219666958,9354.05674147552,3223.2945954551496,0.551,-0.763,-7.04,-8.297
-0.0,449997395.3258027,3.0219669342,12246.16199265049,3118.1715159014625,1.039,-0.149,-7.378,-8.679
-0.0,449997395.3258027,3.0219678879,9375.620069258803,3222.5524898879053,0.556,-0.757,-7.043,-8.301
-0.0,449997395.3258027,3.0219700336,6982.324040771711,3343.489779723791,-0.013,-1.491,-6.668,-7.876
-0.0,449997395.3258027,3.0219733715,5284.452517751803,3461.784268375584,-0.392,-1.967,-6.313,-7.473
-0.0,449997395.3258027,3.0219786167,5623.413251903491,3433.99770042585,-0.315,-1.869,-6.395,-7.566
-0.0,449997395.3258027,3.0219852924,6668.067692136218,3361.243690470534,-0.082,-1.576,-6.61,-7.811
-0.0,449997395.3258027,3.0219941139,7888.601176185541,3290.788720121735,0.223,-1.192,-6.824,-8.055
-0.0,449997395.3258027,3.0220050812,8871.560120379609,3241.902878227874,0.47,-0.87,-6.973,-8.223
-0.0,449997395.3258027,3.0220181942,9418.895965228417,3216.6217928790406,0.594,-0.709,-7.05,-8.311
-0.0,449997395.3258027,3.0220336914,9682.778562612497,3205.531138700436,0.653,-0.635,-7.083,-8.348
-0.0,449997395.3258027,3.0220518112,9794.89985408699,3198.895109691397,0.686,-0.593,-7.1,-8.368
-0.0,449997395.3258027,3.0220520496,12912.192736135336,3089.5839476098754,1.173,0.008,-7.448,-8.761
-0.0,449997395.3258027,3.0220530033,9931.160484209335,3193.7432529771722,0.711,-0.561,-7.115,-8.385
-0.0,449997395.3258027,3.0220553875,7396.052750582382,3314.36245009259,0.117,-1.332,-6.744,-7.964
-0.0,449997395.3258027,3.0220592022,5597.576014951104,3433.2070842609537,-0.306,-1.859,-6.388,-7.559
-0.0,449997395.3258027,3.0220646858,5956.621435290103,3405.6498956736095,-0.227,-1.759,-6.469,-7.651
-0.0,449997395.3258027,3.0220720768,7030.723198838334,3334.2641276323507,0.036,-1.432,-6.68,-7.891
-0.0,449997395.3258027,3.0220816135,8279.421637123345,3265.126412019571,0.36,-1.016,-6.888,-8.129
-0.0,449997395.3258027,3.0220935345,9268.298233793494,3218.103443093442,0.597,-0.709,-7.031,-8.291
-0.0,449997395.3258027,3.0221078396,9817.479430199845,3194.4787242086913,0.719,-0.553,-7.104,-8.374
-0.0,449997395.3258027,3.0221247673,10046.157902783947,3184.1975217261256,0.773,-0.483,-7.134,-8.408
-0.0,449997395.3258027,3.0221443176,10162.486928706949,3178.3374121462216,0.802,-0.446,-7.148,-8.425
-0.0,449997395.3258027,3.022144556,13489.628825916532,3065.490679425787,1.241,0.057,-7.507,-8.828
-0.0,449997395.3258027,3.0221455097,10399.2016582906,3169.56746304349,0.851,-0.384,-7.178,-8.458
-0.0,449997395.3258027,3.0221478939,7780.365510398041,3288.51630875983,0.253,-1.159,-6.81,-8.041
-0.0,449997395.3258027,3.0221517086,5874.893525297769,3408.0032480036516,-0.228,-1.762,-6.453,-7.634
-0.0,449997395.3258027,3.0221569538,6266.138646723356,3380.6483620598156,-0.14,-1.652,-6.533,-7.726
-0.0,449997395.3258027,3.0221643448,7362.070974947361,3310.5488450161934,0.144,-1.302,-6.74,-7.962
-0.0,449997395.3258027,3.0221738815,8629.785477669702,3243.3961734934933,0.484,-0.858,-6.943,-8.193
-0.0,449997395.3258027,3.022185564,9638.290236239705,3198.1586216666074,0.71,-0.567,-7.081,-8.349
-0.0,449997395.3258027,3.0221998692,10162.486928706949,3174.6803215678747,0.831,-0.412,-7.15,-8.429
-0.0,449997395.3258027,3.0222165585,10399.2016582906,3165.191567226265,0.884,-0.343,-7.179,-8.461
-0.0,449997395.3258027,3.0222361088,10495.42428652322,3159.3664356825157,0.91,-0.311,-7.192,-8.477
-0.0,449997395.3258027,3.0222363472,14060.47524129913,3042.986320313067,1.309,0.106,-7.562,-8.891
-0.0,449997395.3258027,3.0222375393,10864.256236170644,3145.5746774318936,0.965,-0.244,-7.235,-8.525
-0.0,449997395.3258027,3.0222399235,8165.823713585923,3264.3746754294584,0.385,-0.989,-6.871,-8.113
-0.0,449997395.3258027,3.0222437382,6151.7687270986835,3385.3221281535407,-0.148,-1.663,-6.513,-7.704
-0.0,449997395.3258027,3.0222494602,6546.361740672747,3357.3761424295453,-0.038,-1.528,-6.593,-7.795
-0.0,449997395.3258027,3.022257328,7673.614893618185,3288.51630875983,0.266,-1.145,-6.795,-8.027
-0.0,449997395.3258027,3.0222673416,8974.287945007482,3222.5524898879053,0.599,-0.712,-6.993,-8.251
-0.0,449997395.3258027,3.022279501,9954.054173515275,3178.3374121462216,0.824,-0.423,-7.126,-8.403
-0.0,449997395.3258027,3.0222945213,10495.42428652322,3155.7311736800216,0.935,-0.282,-7.193,-8.479
-0.0,449997395.3258027,3.0223121643,10715.193052376071,3146.2990561619904,0.977,-0.232,-7.219,-8.509
-0.0,449997395.3258027,3.0223326683,10814.339512979375,3141.2319059861875,1.001,-0.204,-7.232,-8.524
-0.0,449997395.3258027,3.0223329067,14588.142602753474,3020.64717004684,1.381,0.159,-7.611,-8.949
-0.0,449997395.3258027,3.0223340988,11297.959146727977,3123.2014671492143,1.077,-0.112,-7.287,-8.586
-0.0,449997395.3258027,3.022336483,8511.380382023768,3240.4102704918173,0.521,-0.815,-6.928,-8.179
-0.0,449997395.3258027,3.0223402977,6412.095765851615,3362.017734543793,-0.048,-1.542,-6.568,-7.767
-0.0,449997395.3258027,3.0223460197,6823.3869414166975,3335.031958716416,0.066,-1.402,-6.647,-7.859
-0.0,449997395.3258027,3.0223536491,7979.946872679769,3266.6304045806874,0.39,-0.987,-6.846,-8.087
-0.0,449997395.3258027,3.0223636627,9289.663867799363,3201.842758202777,0.719,-0.562,-7.039,-8.306
-0.0,449997395.3258027,3.0223760605,10280.162981264724,3157.9118286322528,0.941,-0.279,-7.169,-8.454
-0.0,449997395.3258027,3.0223908424,10814.339512979375,3136.172916512987,1.034,-0.166,-7.233,-8.527
-0.0,449997395.3258027,3.0224084854,11015.393095414145,3126.0793671239558,1.08,-0.112,-7.26,-8.558
-0.0,449997395.3258027,3.0224289894,11142.945335917293,3120.326216598013,1.108,-0.079,-7.272,-8.573
-0.0,449997395.3258027,3.0224292278,15100.801541641493,2996.4014599344437,1.434,0.194,-7.66,-9.005
-0.0,449997395.3258027,3.0224301815,11721.953655481304,3098.846042012061,1.203,0.034,-7.34,-8.649
-0.0,449997395.3258027,3.0224325657,8871.560120379609,3215.8812236044914,0.66,-0.64,-6.983,-8.244
-0.0,449997395.3258027,3.0224363804,6668.067692136218,3338.8737672512307,0.063,-1.408,-6.621,-7.831
-0.0,449997395.3258027,3.022441864,7095.777679633888,3311.311214825911,0.18,-1.265,-6.699,-7.921
-0.0,449997395.3258027,3.022449255,8260.379495771784,3244.1430790488475,0.525,-0.816,-6.895,-8.145
-0.0,449997395.3258027,3.0224590302,9571.94071294844,3180.5336883295204,0.846,-0.403,-7.082,-8.358
-0.0,449997395.3258027,3.0224709511,10543.86896391258,3138.340056432409,1.041,-0.161,-7.206,-8.499
-0.0,449997395.3258027,3.0224852562,11066.237839776653,3117.453613031264,1.135,-0.049,-7.267,-8.569
-0.0,449997395.3258027,3.0225021839,11271.974561755094,3108.1359027394765,1.178,0.003,-7.291,-8.596
-0.0,449997395.3258027,3.0225219727,11350.108156723143,3103.1302147534125,1.203,0.032,-7.3,-8.608
-0.0,449997395.3258027,3.0225222111,15488.166189124828,2976.459653637275,1.487,0.231,-7.695,-9.047
-0.0,449997395.3258027,3.0225234032,12050.359403717986,3078.2224412226315,1.29,0.12,-7.378,-8.695
-0.0,449997395.3258027,3.0225255489,9120.108393559096,3194.4787242086913,0.787,-0.483,-7.024,-8.294
-0.0,449997395.3258027,3.0225293636,6870.684400142324,3318.944575526103,0.165,-1.287,-6.661,-7.879
-0.0,449997395.3258027,3.0225350857,7294.575102545687,3290.788720121735,0.3,-1.114,-6.739,-7.969
-0.0,449997395.3258027,3.0225427151,8491.804750363135,3224.0368719181865,0.643,-0.668,-6.932,-8.19
-0.0,449997395.3258027,3.0225524902,9794.89985408699,3161.5496026522924,0.966,-0.255,-7.115,-8.399
-0.0,449997395.3258027,3.0225644112,10764.65213629835,3120.326216598013,1.141,-0.045,-7.235,-8.536
-0.0,449997395.3258027,3.0225791931,11271.974561755094,3099.559659837377,1.236,0.068,-7.294,-8.603
-0.0,449997395.3258027,3.0225963593,11455.129414455361,3090.295432513592,1.28,0.12,-7.317,-8.629
-0.0,449997395.3258027,3.0226163864,11534.53257821093,3086.0289794360633,1.296,0.133,-7.326,-8.64
-0.0,449997395.3258027,3.0226166248,15848.93192461114,2955.2892906487523,1.55,0.277,-7.728,-9.087
-0.0,449997395.3258027,3.0226175785,12359.474334445094,3057.032106987659,1.364,0.178,-7.414,-8.738
-0.0,449997395.3258027,3.0226199627,9375.620069258803,3173.218663836144,0.922,-0.316,-7.063,-8.342
-0.0,449997395.3258027,3.022623539,7046.930689671467,3298.3747715856816,0.283,-1.142,-6.699,-7.926
-0.0,449997395.3258027,3.0226290226,7498.942093324558,3270.3934175663962,0.428,-0.953,-6.777,-8.016
-0.0,449997395.3258027,3.0226361752,8709.635899560806,3203.3176008528117,0.771,-0.51,-6.969,-8.236
-0.0,449997395.3258027,3.0226454735,10023.052380779005,3141.2319059861875,1.074,-0.128,-7.149,-8.441
-0.0,449997395.3258027,3.022657156,11015.393095414145,3099.559659837377,1.257,0.09,-7.269,-8.578
-0.0,449997395.3258027,3.0226712227,11508.003889444357,3078.2224412226315,1.332,0.164,-7.328,-8.645
-0.0,449997395.3258027,3.0226876736,11721.953655481304,3068.315401315068,1.361,0.185,-7.353,-8.673
-0.0,449997395.3258027,3.0227069855,11830.41555725166,3061.963433690679,1.383,0.202,-7.365,-8.687
-0.0,449997395.3258027,3.0227072239,16330.519478943346,2928.8693550290154,1.613,0.321,-7.773,-9.14
-0.0,449997395.3258027,3.0227081776,12764.388088113436,3029.7026026614167,1.46,0.252,-7.461,-8.796
-0.0,449997395.3258027,3.0227103233,9705.099672454899,3145.5746774318936,1.076,-0.13,-7.113,-8.403
-0.0,449997395.3258027,3.022714138,7294.575102545687,3271.1465401826636,0.447,-0.935,-6.747,-7.986
-0.0,449997395.3258027,3.0227193832,7762.4711662869195,3243.3961734934933,0.596,-0.742,-6.826,-8.076
-0.0,449997395.3258027,3.0227265358,8974.287945007482,3176.8740706497692,0.936,-0.306,-7.014,-8.292
-0.0,449997395.3258027,3.0227355957,10303.861204416158,3116.0183031054607,1.212,0.032,-7.19,-8.492
-0.0,449997395.3258027,3.0227470398,11271.974561755094,3075.3885988131847,1.365,0.196,-7.305,-8.623
-0.0,449997395.3258027,3.0227608681,11776.059735208066,3054.9211132155124,1.42,0.235,-7.362,-8.687
-0.0,449997395.3258027,3.0227770805,11967.405313072442,3045.089066974223,1.45,0.256,-7.384,-8.713
-0.0,449997395.3258027,3.0227959156,12050.359403717986,3039.484968770113,1.472,0.273,-7.394,-8.724
-0.0,449997395.3258027,3.022796154,16710.90614310707,2903.3540555153136,1.68,0.369,-7.809,-9.183
-0.0,449997395.3258027,3.0227971077,13061.708881318404,3004.0004957242286,1.548,0.318,-7.499,-8.842
-0.0,449997395.3258027,3.0227992535,9977.000638225536,3119.60781764676,1.22,0.037,-7.153,-8.453
-0.0,449997395.3258027,3.0228028297,7498.942093324558,3246.384827880331,0.61,-0.732,-6.786,-8.035
-0.0,449997395.3258027,3.0228078365,7961.593504173184,3217.3625326955976,0.756,-0.544,-6.865,-8.126
-0.0,449997395.3258027,3.0228147507,9204.495717531712,3151.374380204506,1.091,-0.119,-7.052,-8.339
-0.0,449997395.3258027,3.0228238106,10519.618738232235,3091.0070812616214,1.358,0.2,-7.225,-8.537
-0.0,449997395.3258027,3.0228347778,11508.003889444357,3050.7034978225156,1.461,0.273,-7.338,-8.664
-0.0,449997395.3258027,3.0228483677,11994.993031493781,3030.4002977883647,1.518,0.313,-7.394,-8.728
-0.0,449997395.3258027,3.0228641033,12189.895989248673,3019.9517204020162,1.551,0.337,-7.416,-8.754
-0.0,449997395.3258027,3.0228824615,12274.392311584084,3013.699874341145,1.57,0.351,-7.426,-8.767
-0.0,449997395.3258027,3.0228827,17100.15315090286,2876.073628863028,1.757,0.428,-7.848,-9.23
-0.0,449997395.3258027,3.0228836536,13427.649611378642,2975.7743773728107,1.63,0.379,-7.539,-8.891
-0.0,449997395.3258027,3.0228857994,10256.519262514079,3090.295432513592,1.389,0.232,-7.197,-8.509
-0.0,449997395.3258027,3.0228893757,7709.034690644301,3217.3625326955976,0.795,-0.504,-6.829,-8.09
-0.0,449997395.3258027,3.0228943825,8184.647881347895,3188.5996933863867,0.946,-0.311,-6.908,-8.181
-0.0,449997395.3258027,3.0229012966,9440.608762859236,3122.4824062232706,1.254,0.07,-7.092,-8.391
-0.0,449997395.3258027,3.0229101181,10764.65213629835,3062.6685580037692,1.469,0.293,-7.262,-8.584
-0.0,449997395.3258027,3.0229213238,11721.953655481304,3022.7344800386522,1.575,0.365,-7.373,-8.71
-0.0,449997395.3258027,3.0229344368,12217.99660164871,3001.9261222416912,1.622,0.393,-7.427,-8.77
-0.0,449997395.3258027,3.0229501724,12416.523075924119,2990.8869650638235,1.65,0.412,-7.448,-8.795
-0.0,449997395.3258027,3.0229685307,12502.590302177214,2983.321101768171,1.671,0.428,-7.459,-8.808
-0.0,449997395.3258027,3.0229687691,17498.466886246584,2843.806221472982,1.83,0.499,-7.884,-9.273
-0.0,449997395.3258027,3.0229697227,13740.41975012515,2942.388401724649,1.736,0.459,-7.579,-8.942
-0.0,449997395.3258027,3.0229716301,10543.86896391258,3056.3282803659663,1.521,0.34,-7.24,-8.564
-0.0,449997395.3258027,3.0229752064,7906.786279998253,3183.464417556432,1.016,-0.234,-6.872,-8.147
-0.0,449997395.3258027,3.0229799747,8394.599865193974,3154.278240344361,1.165,-0.046,-6.95,-8.237
-0.0,449997395.3258027,3.0229866505,9660.508789898131,3088.8726265127525,1.453,0.297,-7.133,-8.446
-0.0,449997395.3258027,3.0229952335,10990.05839432522,3029.0050681662174,1.607,0.404,-7.299,-8.634
-0.0,449997395.3258027,3.023005724,11967.405313072442,2988.821646959374,1.694,0.457,-7.408,-8.755
-0.0,449997395.3258027,3.0230185986,12445.146117713844,2966.880130021004,1.738,0.483,-7.461,-8.815
-0.0,449997395.3258027,3.0230336189,12647.363474711523,2955.2892906487523,1.77,0.505,-7.483,-8.841
-0.0,449997395.3258027,3.0230512619,12735.030810166629,2946.4562708650446,1.798,0.527,-7.493,-8.854
-0.0,449997395.3258027,3.0230515003,17864.8757485205,2803.4963822309305,1.932,0.599,-7.924,-9.322
-0.0,449997395.3258027,3.023052454,14060.47524129913,2902.685610499054,1.855,0.551,-7.622,-8.996
-0.0,449997395.3258027,3.0230543613,10814.339512979375,3016.4768731622175,1.684,0.471,-7.285,-8.624
-0.0,449997395.3258027,3.0230576992,8109.610578538404,3144.126420258796,1.266,0.065,-6.916,-8.207
-0.0,449997395.3258027,3.0230624676,8609.937521846008,3114.583654012132,1.399,0.224,-6.994,-8.297
-0.0,449997395.3258027,3.0230691433,9885.53094656939,3049.2989203838,1.615,0.432,-7.175,-8.502
-0.0,449997395.3258027,3.0230774879,11220.18454301963,2990.8869650638235,1.75,0.516,-7.338,-8.685
-0.0,449997395.3258027,3.0230879784,12189.895989248673,2951.209226666387,1.824,0.556,-7.444,-8.804
-0.0,449997395.3258027,3.0231003761,12676.518658578449,2930.2184598312765,1.864,0.581,-7.496,-8.862
-0.0,449997395.3258027,3.0231153965,12882.495516931349,2918.098853741841,1.894,0.602,-7.517,-8.886
-0.0,449997395.3258027,3.0231325626,12941.958414499863,2909.3769918965468,1.919,0.621,-7.528,-8.9
-0.0,449997395.3258027,3.0231328011,18238.957023196384,2768.8536412912363,2.009,0.694,-7.96,-9.363
-0.0,449997395.3258027,3.0231337547,14421.153515248681,2864.1779699065796,1.969,0.645,-7.665,-9.049
-0.0,449997395.3258027,3.0231356621,11091.748152624008,2973.7194950692915,1.833,0.585,-7.331,-8.684
-0.0,449997395.3258027,3.0231387615,8317.63771102671,3097.419299216581,1.553,0.394,-6.964,-8.274
-0.0,449997395.3258027,3.0231432915,8830.799004185632,3067.608976917938,1.644,0.475,-7.043,-8.363
-0.0,449997395.3258027,3.0231497288,10139.1138573668,3004.692272040942,1.798,0.577,-7.22,-8.563
-0.0,449997395.3258027,3.023157835,11481.536214968817,2948.4923138943664,1.9,0.631,-7.38,-8.74
-0.0,449997395.3258027,3.0231678486,12445.146117713844,2910.717118066605,1.959,0.661,-7.483,-8.854
-0.0,449997395.3258027,3.0231797695,12912.192736135336,2890.014355349471,1.996,0.681,-7.535,-8.913
-0.0,449997395.3258027,3.0231940746,13121.998990192042,2878.0610364895265,2.025,0.702,-7.557,-8.938
-0.0,449997395.3258027,3.0232107639,13212.956341865765,2869.4588430750064,2.051,0.726,-7.568,-8.951
-0.0,449997395.3258027,3.0232110023,18663.796908346696,2737.158835750586,2.087,0.79,-7.996,-9.405
-0.0,449997395.3258027,3.0232117176,14791.083881682072,2825.530502459557,2.072,0.736,-7.709,-9.103
-0.0,449997395.3258027,3.023213625,11376.27285823431,2925.499309897072,2.0,0.713,-7.381,-8.748
-0.0,449997395.3258027,3.0232167244,8531.001140175895,3039.484968770113,1.818,0.629,-7.018,-8.348
-0.0,449997395.3258027,3.0232212543,9057.326008981998,3012.312333777606,1.887,0.673,-7.096,-8.436
-0.0,449997395.3258027,3.0232274532,10375.284158180126,2955.969849504591,1.983,0.718,-7.268,-8.626
-0.0,449997395.3258027,3.0232350826,11721.953655481304,2906.698590298831,2.045,0.74,-7.423,-8.796
-0.0,449997395.3258027,3.0232448578,12676.518658578449,2876.073628863028,2.083,0.753,-7.523,-8.905
-0.0,449997395.3258027,3.0232565403,13152.248321922376,2862.2001490511943,2.086,0.755,-7.569,-8.954
-0.0,449997395.3258027,3.0232703686,13335.21432163324,2858.2486036727378,2.087,0.752,-7.586,-8.973
-0.0,449997395.3258027,3.023286581,13427.649611378642,2858.9068155119553,2.083,0.745,-7.593,-8.98
-0.0,449997395.3258027,3.0232868195,19054.607179632483,2747.8941531023975,-0.16,-2.709,-7.632,-9.204
-0.0,449997395.3258027,3.0232875347,15100.801541641493,2827.4829840696057,-0.182,-2.649,-7.373,-8.932
-0.0,449997395.3258027,3.0232892036,11668.09617060963,2928.195035574271,-0.265,-2.62,-7.076,-8.596
-0.0,449997395.3258027,3.0232920647,8749.837752274363,3062.6685580037692,-0.4,-2.626,-6.758,-8.206
-0.0,449997395.3258027,3.0232961178,9289.663867799363,3086.73964568386,-0.518,-2.736,-6.826,-8.258
-0.0,449997395.3258027,3.0233018398,10616.955571987242,3093.855315451652,-0.651,-2.881,-6.976,-8.402
-0.0,449997395.3258027,3.0233089924,11967.405313072442,3117.453613031264,-0.828,-3.052,-7.106,-8.515
-0.0,449997395.3258027,3.0233178139,12912.192736135336,3178.3374121462216,-1.078,-3.259,-7.187,-8.556
-0.0,449997395.3258027,3.0233287811,13396.766874259343,3283.2201160919944,-1.396,-3.511,-7.233,-8.526
-0.0,449997395.3258027,3.0233414173,13583.134465871542,3438.7452222912716,-1.863,-3.846,-7.249,-8.437
-0.0,449997395.3258027,3.0233561993,13677.288255958494,3650.900524844982,-2.397,-4.228,-7.25,-8.304
-0.0,449997395.3258027,3.0233564377,19498.445997580457,3342.7200013786605,-2.0,-4.053,-7.642,-8.893
-0.0,449997395.3258027,3.0233571529,15488.166189124828,3526.9556611308685,-2.282,-4.166,-7.38,-8.517
-0.0,449997395.3258027,3.0233588219,11994.993031493781,3729.065399621527,-2.415,-4.2,-7.105,-8.112
-0.0,449997395.3258027,3.0233614445,8974.287945007482,3950.026415978837,-2.476,-4.16,-6.768,-7.658
-0.0,449997395.3258027,3.0233654976,9527.96164023652,3813.2914527677754,-2.311,-4.061,-6.85,-7.809
-0.0,449997395.3258027,3.0233707428,10889.300933334333,3592.5266624766173,-2.045,-3.891,-6.998,-8.092
-0.0,449997395.3258027,3.0233776569,12217.99660164871,3369.7679858440365,-1.577,-3.603,-7.133,-8.367
-0.0,449997395.3258027,3.02338624,13152.248321922376,3165.191567226265,-1.114,-3.277,-7.206,-8.581
-0.0,449997395.3258027,3.023396492,13614.44682465951,2966.880130021004,-0.551,-2.876,-7.246,-8.74
-0.0,449997395.3258027,3.0234086514,13803.842646028837,2759.9422828542642,0.058,-2.437,-7.273,-8.84
-0.0,449997395.3258027,3.023422718,13867.558288718896,2533.9614293978393,0.528,-2.109,-7.307,-8.895
-0.0,449997395.3258027,3.0234229565,19860.949173573717,2353.9649933074334,0.139,-2.498,-7.697,-9.285
-0.0,449997395.3258027,3.0234236717,15812.480392703827,2470.5861360384306,0.387,-2.25,-7.449,-9.037
-0.0,449997395.3258027,3.0234251022,12274.392311584084,2612.1613543992053,0.588,-2.018,-7.166,-8.755
-0.0,449997395.3258027,3.0234277248,9183.32596483581,2791.900908278534,0.327,-2.102,-6.82,-8.389
-0.0,449997395.3258027,3.0234315395,9749.896377173867,2780.3533940870425,0.307,-2.138,-6.886,-8.456
-0.0,449997395.3258027,3.0234367847,11091.748152624008,2733.379922053339,0.334,-2.163,-7.035,-8.613
-0.0,449997395.3258027,3.0234434605,12445.146117713844,2702.713431942815,0.335,-2.204,-7.169,-8.756
-0.0,449997395.3258027,3.0234518051,13365.955165464433,2705.203869719351,0.265,-2.279,-7.248,-8.833
-0.0,449997395.3258027,3.0234615803,13835.66378971781,2742.205515393157,0.116,-2.397,-7.277,-8.849
-0.0,449997395.3258027,3.0234735012,13995.873225726178,2808.018728116636,-0.087,-2.549,-7.289,-8.85
-0.0,449997395.3258027,3.0234870911,14060.47524129913,2898.6781710077653,-0.37,-2.757,-7.29,-8.816
-0.0,449997395.3258027,3.0234873295,20230.191786782718,2623.6143642959228,0.078,-2.548,-7.713,-9.297
-0.0,449997395.3258027,3.0234880447,16143.585568264869,2785.4797143757387,-0.148,-2.642,-7.446,-9.008
-0.0,449997395.3258027,3.0234894753,12531.411749414156,2970.297844017863,-0.483,-2.8,-7.155,-8.648
-0.0,449997395.3258027,3.0234918594,9375.620069258803,3190.0684359752117,-0.847,-2.974,-6.834,-8.195
-0.0,449997395.3258027,3.0234954357,9954.054173515275,3099.559659837377,-0.649,-2.85,-6.905,-8.324
-0.0,449997395.3258027,3.0235002041,11324.003632355578,2943.0659896990132,-0.31,-2.637,-7.041,-8.55
-0.0,449997395.3258027,3.023506403,12676.518658578449,2792.543841237339,0.045,-2.419,-7.178,-8.743
-0.0,449997395.3258027,3.0235140324,13583.134465871542,2663.1768070405187,0.374,-2.208,-7.273,-8.86
-0.0,449997395.3258027,3.0235233307,14060.47524129913,2546.8302525850418,0.513,-2.124,-7.322,-8.909
-0.0,449997395.3258027,3.0235342979,14256.075936021878,2426.6100950824143,0.5,-2.137,-7.336,-8.924
-0.0,449997395.3258027,3.0235471725,14321.878992735425,2292.978591824821,0.494,-2.144,-7.343,-8.931
-0.0,449997395.3258027,3.023547411,20653.80155810531,2088.3341959395875,0.097,-2.541,-7.74,-9.328
-0.0,449997395.3258027,3.0235481262,16519.61798229015,2210.5482562994043,0.34,-2.298,-7.497,-9.085
-0.0,449997395.3258027,3.0235495567,12882.495516931349,2355.049283896009,0.611,-2.027,-7.225,-8.813
-0.0,449997395.3258027,3.0235519409,9616.122783836649,2536.2963692377325,0.856,-1.748,-6.901,-8.492
-0.0,449997395.3258027,3.0235557556,10209.394837076808,2495.169194741598,0.818,-1.798,-6.969,-8.559
-0.0,449997395.3258027,3.023560524,11587.773561551261,2410.460393808425,0.724,-1.913,-7.111,-8.699
-0.0,449997395.3258027,3.0235669613,12912.192736135336,2337.2221850151404,0.607,-2.031,-7.23,-8.818
-0.0,449997395.3258027,3.0235748291,13835.66378971781,2288.758657062362,0.533,-2.105,-7.304,-8.892
-0.0,449997395.3258027,3.0235841274,14288.939585111037,2261.5177461083626,0.498,-2.139,-7.338,-8.926
-0.0,449997395.3258027,3.0235953331,14454.39770745928,2245.4324779840013,0.485,-2.152,-7.351,-8.939
-0.0,449997395.3258027,3.0236084461,14521.11617587742,2233.5722228305326,0.48,-2.157,-7.356,-8.944
-0.0,449997395.3258027,3.0236086845,20989.398836235243,2010.018247113693,0.079,-2.559,-7.757,-9.345
-0.0,449997395.3258027,3.0236091614,16826.740610704674,2140.424926771628,0.32,-2.318,-7.517,-9.105
-0.0,449997395.3258027,3.0236105919,13121.998990192042,2295.620001212577,0.589,-2.049,-7.248,-8.836
-0.0,449997395.3258027,3.0236129761,9794.89985408699,2492.872116990457,0.862,-1.755,-6.926,-8.516
-0.0,449997395.3258027,3.0236165524,10399.2016582906,2447.372073067255,0.827,-1.804,-6.994,-8.582
-0.0,449997395.3258027,3.0236210823,11803.206356517298,2356.6766563181304,0.706,-1.932,-7.131,-8.719
-0.0,449997395.3258027,3.0236272812,13121.998990192042,2279.817064280293,0.59,-2.048,-7.247,-8.835
-0.0,449997395.3258027,3.0236346722,14028.13704561959,2229.461617916385,0.518,-2.12,-7.319,-8.907
-0.0,449997395.3258027,3.0236437321,14454.39770745928,2200.3917096373975,0.484,-2.153,-7.352,-8.94
-0.0,449997395.3258027,3.0236542225,14621.771744567182,2181.7249589883,0.472,-2.166,-7.364,-8.952
-0.0,449997395.3258027,3.0236666203,14689.262776438662,2164.7113787030034,0.467,-2.171,-7.369,-8.957
-0.0,449997395.3258027,3.0236668587,21330.44913146575,1944.9121974767643,0.062,-2.575,-7.774,-9.362
-0.0,449997395.3258027,3.0236673355,17139.573075084252,2071.094903660335,0.301,-2.337,-7.536,-9.124
-0.0,449997395.3258027,3.023668766,13396.766874259343,2221.7746129151997,0.567,-2.07,-7.269,-8.857
-0.0,449997395.3258027,3.0236709118,10000.0,2417.1299521044175,0.884,-1.753,-6.951,-8.539
-0.0,449997395.3258027,3.0236742496,10616.955571987242,2375.198990470028,0.82,-1.818,-7.016,-8.604
-0.0,449997395.3258027,3.0236787796,11994.993031493781,2290.8676527677726,0.686,-1.951,-7.15,-8.738
-0.0,449997395.3258027,3.0236842632,13335.21432163324,2220.240395345076,0.573,-2.065,-7.263,-8.851
-0.0,449997395.3258027,3.0236914158,14223.287871228184,2177.208393872835,0.503,-2.135,-7.333,-8.921
-0.0,449997395.3258027,3.0236999989,14655.478409559128,2156.7509598981674,0.471,-2.167,-7.366,-8.954
-0.0,449997395.3258027,3.0237100124,14825.180851459545,2149.3146554191767,0.458,-2.179,-7.378,-8.966
-0.0,449997395.3258027,3.0237216949,14893.610777109154,2147.335974820855,0.453,-2.184,-7.383,-8.971
-0.0,449997395.3258027,3.0237219334,21677.041048196963,1908.5344342315736,0.045,-2.593,-7.792,-9.38
-0.0,449997395.3258027,3.0237224102,17458.22152920504,2043.6193210844672,0.281,-2.357,-7.556,-9.144
-0.0,449997395.3258027,3.0237238407,13677.288255958494,2205.9720217473264,0.545,-2.093,-7.292,-8.88
-0.0,449997395.3258027,3.0237259865,10209.394837076808,2417.686580925773,0.863,-1.775,-6.973,-8.561
-0.0,449997395.3258027,3.0237290859,10839.269140212038,2374.6521436516746,0.798,-1.839,-7.038,-8.626
-0.0,449997395.3258027,3.0237333775,12217.99660164871,2288.758657062362,0.666,-1.971,-7.17,-8.758
-0.0,449997395.3258027,3.0237388611,13551.89412351035,2222.2862543282035,0.555,-2.082,-7.281,-8.869
-0.0,449997395.3258027,3.0237455368,14421.153515248681,2186.7543544392634,0.487,-2.151,-7.349,-8.937
-0.0,449997395.3258027,3.023753643,14859.35642287006,2177.208393872835,0.455,-2.182,-7.381,-8.969
-0.0,449997395.3258027,3.0237634182,15031.419660900208,2183.735327602175,0.443,-2.195,-7.393,-8.981
-0.0,449997395.3258027,3.0237746239,15100.801541641493,2199.3786250967664,0.438,-2.2,-7.399,-8.987
-0.0,449997395.3258027,3.0237748623,22080.047330189012,1971.0607052410344,0.025,-2.612,-7.811,-9.399
-0.0,449997395.3258027,3.0237753391,17782.794100389227,2097.973508619247,0.259,-2.379,-7.577,-9.165
-0.0,449997395.3258027,3.0237765312,13963.683610559363,2251.127015912878,0.522,-2.116,-7.315,-8.903
-0.0,449997395.3258027,3.023778677,10399.2016582906,2457.5366312150454,0.843,-1.795,-6.994,-8.582
-0.0,449997395.3258027,3.023781538,11015.393095414145,2423.817964554634,0.781,-1.857,-7.055,-8.643
-0.0,449997395.3258027,3.0237855911,12359.474334445094,2352.8812019381685,0.655,-1.983,-7.181,-8.769
-0.0,449997395.3258027,3.0237908363,13583.134465871542,2303.5625001175354,0.552,-2.086,-7.284,-8.872
-0.0,449997395.3258027,3.0237972736,14354.89433353656,2290.8676527677726,0.492,-2.145,-7.344,-8.932
-0.0,449997395.3258027,3.0238051414,14655.478409559128,2314.1952615112523,0.47,-2.168,-7.367,-8.955
-0.0,449997395.3258027,3.0238142014,14689.262776438662,2368.645131784139,0.467,-2.171,-7.37,-8.958
-0.0,449997395.3258027,3.0238249302,14621.771744567182,2454.708915685031,0.472,-2.165,-7.364,-8.952
-0.0,449997395.3258027,3.0238249302,21428.906011200605,2168.2032946046156,0.056,-2.582,-7.78,-9.368
-0.0,449997395.3258027,3.0238256454,17338.039977541375,2324.3418403925252,0.287,-2.35,-7.549,-9.137
-0.0,449997395.3258027,3.0238268375,13645.831365889238,2513.043464356287,0.548,-2.089,-7.288,-8.876
-0.0,449997395.3258027,3.0238287449,10115.794542598982,2765.667715050151,0.437,-2.082,-6.943,-8.505
-0.0,449997395.3258027,3.0238316059,10690.548792226577,2720.821182091787,0.517,-2.042,-7.009,-8.584
-0.0,449997395.3258027,3.0238354206,11939.88104464273,2636.938493453466,0.62,-1.997,-7.14,-8.723
-0.0,449997395.3258027,3.023840189,13061.708881318404,2585.8301804210555,0.596,-2.042,-7.241,-8.829
-0.0,449997395.3258027,3.0238463879,13708.817661648523,2582.260190634596,0.543,-2.095,-7.293,-8.882
-0.0,449997395.3258027,3.0238535404,13899.526312133527,2626.636651392894,0.478,-2.146,-7.306,-8.889
-0.0,449997395.3258027,3.0238623619,13835.66378971781,2715.8138575883313,0.252,-2.311,-7.291,-8.868
-0.0,449997395.3258027,3.0238723755,13677.288255958494,2853.6453620049656,-0.145,-2.598,-7.27,-8.81
-0.0,449997395.3258027,3.0238723755,20137.242498623895,2593.5820990111324,0.125,-2.512,-7.711,-9.299
-0.0,449997395.3258027,3.0238730907,16330.519478943346,2733.379922053339,0.019,-2.529,-7.466,-9.037
-0.0,449997395.3258027,3.0238740444,12882.495516931349,2898.6781710077653,-0.22,-2.635,-7.201,-8.722
-0.0,449997395.3258027,3.0238759518,9594.006315159337,3116.0183031054607,-0.591,-2.815,-6.872,-8.275
-0.0,449997395.3258027,3.0238788128,10162.486928706949,3073.264929204293,-0.514,-2.78,-6.941,-8.369
-0.0,449997395.3258027,3.0238823891,11402.497875611696,2995.711592427998,-0.398,-2.727,-7.063,-8.536
-0.0,449997395.3258027,3.0238871574,12531.411749414156,2943.7437337117412,-0.333,-2.706,-7.163,-8.663
-0.0,449997395.3258027,3.0238928795,13243.415351946644,2928.195035574271,-0.343,-2.731,-7.227,-8.734
-0.0,449997395.3258027,3.023900032,13583.134465871542,2944.4216337987605,-0.423,-2.796,-7.251,-8.751
-0.0,449997395.3258027,3.0239083767,13708.817661648523,2987.4455606053048,-0.569,-2.906,-7.262,-8.74
-0.0,449997395.3258027,3.0239181519,13740.41975012515,3054.9211132155124,-0.785,-3.066,-7.268,-8.707
-0.0,449997395.3258027,3.0239181519,20276.827195212838,2861.5411789812,-0.597,-3.044,-7.698,-9.236
-0.0,449997395.3258027,3.0239188671,16481.62391525507,2964.8313895243423,-0.699,-3.054,-7.461,-8.95
-0.0,449997395.3258027,3.0239198208,13061.708881318404,3087.450475587445,-0.829,-3.084,-7.212,-8.631
-0.0,449997395.3258027,3.0239217281,9705.099672454899,3250.124518861833,-1.01,-3.118,-6.879,-8.196
-0.0,449997395.3258027,3.0239241123,10303.861204416158,3226.264727075673,-1.011,-3.134,-6.942,-8.276
-0.0,449997395.3258027,3.0239276886,11534.53257821093,3179.069335643364,-0.997,-3.158,-7.066,-8.43
-0.0,449997395.3258027,3.0239322186,12647.363474711523,3150.648832972395,-1.008,-3.195,-7.168,-8.55
-0.0,449997395.3258027,3.0239377022,13365.955165464433,3149.923452784473,-1.065,-3.253,-7.228,-8.611
-0.0,449997395.3258027,3.0239446163,13708.817661648523,3173.9494085622255,-1.168,-3.333,-7.253,-8.621
-0.0,449997395.3258027,3.0239524841,13835.66378971781,3218.103443093442,-1.309,-3.439,-7.263,-8.602
-0.0,449997395.3258027,3.0239617825,13899.526312133527,3281.708485445259,-1.48,-3.569,-7.27,-8.564
