FeH,Age,Mini,L,Te,Bmag,Vmag,Jmag,Kmag
-0.0,949992113.6225947,0.0900000036,0.00041879356511791827,2328.6273822087624,19.855,18.021,11.126,10.222
-0.0,949992113.6225947,0.1000000015,0.00060394862937638,2458.1025650893434,19.441,17.613,10.729,9.823
-0.0,949992113.6225947,0.1200000048,0.001076465213629835,2658.2755696601644,18.501,16.708,10.12,9.208
-0.0,949992113.6225947,0.125917241,0.001216186000646368,2695.2558665040997,18.128,16.359,10.003,9.088
-0.0,949992113.6225947,0.1400000006,0.0016218100973589297,2781.6340890110087,17.328,15.62,9.721,8.806
-0.0,949992113.6225947,0.1514423341,0.0019588446735059888,2832.696200280899,16.848,15.17,9.534,8.619
-0.0,949992113.6225947,0.1599999964,0.00223872113856834,2869.4588430750064,16.514,14.852,9.403,8.489
-0.0,949992113.6225947,0.200000003,0.003681289736425313,2995.711592427998,15.403,13.799,8.91,8.002
-0.0,949992113.6225947,0.25,0.005861381645140285,3110.999920424558,14.458,12.888,8.447,7.547
-0.0,949992113.6225947,0.3123394847,0.00922571427154763,3206.2693245054643,13.667,12.138,7.985,7.093
-0.0,949992113.6225947,0.3179527223,0.009616122783836648,3214.400596524381,13.598,12.072,7.942,7.051
-0.0,949992113.6225947,0.3438198268,0.011402497875611685,3253.8685178010755,13.301,11.79,7.768,6.879
-0.0,949992113.6225947,0.3500000238,0.011857687481671602,3262.871721430849,13.235,11.727,7.729,6.84
-0.0,949992113.6225947,0.4000000358,0.016672472125510627,3345.8001785330107,12.66,11.18,7.384,6.498
-0.0,949992113.6225947,0.4500000179,0.02360478233180577,3439.5371138063997,12.085,10.634,7.038,6.152
-0.0,949992113.6225947,0.5,0.033806483620598154,3557.9513055974294,11.482,10.057,6.685,5.8
-0.0,949992113.6225947,0.5139469504,0.03767037989839089,3603.296501281602,11.291,9.872,6.584,5.699
-0.0,949992113.6225947,0.5500000119,0.04897788193684462,3715.352290971724,10.832,9.427,6.334,5.453
-0.0,949992113.6225947,0.6000000238,0.07112135136533292,3919.2232245497667,10.154,8.781,5.991,5.124
-0.0,949992113.6225947,0.622338295,0.08413951416451952,4026.243159764701,9.839,8.494,5.836,4.982
-0.0,949992113.6225947,0.6450628042,0.0993116048420934,4134.281080471346,9.526,8.215,5.682,4.845
-0.0,949992113.6225947,0.6499999762,0.10280162981264736,4159.106104940223,9.458,8.155,5.649,4.817
-0.0,949992113.6225947,0.7000000477,0.1468926277643867,4436.086439314323,8.709,7.525,5.335,4.573
-0.0,949992113.6225947,0.7061610222,0.15310874616820302,4474.041415755961,8.613,7.446,5.298,4.548
-0.0,949992113.6225947,0.75,0.20558905959841414,4735.872481253356,7.971,6.929,5.052,4.395
-0.0,949992113.6225947,0.7620611191,0.22181964198002188,4790.711300030745,7.829,6.812,4.987,4.349
-0.0,949992113.6225947,0.8000000119,0.278612116862977,4962.494060797449,7.42,6.471,4.788,4.204
-0.0,949992113.6225947,0.8117343783,0.29853826189179594,5014.180920308942,7.298,6.369,4.728,4.16
-0.0,949992113.6225947,0.8500000238,0.3723917062545685,5185.611776858396,6.929,6.059,4.541,4.021
-0.0,949992113.6225947,0.8999999762,0.4897788193684462,5398.834319992117,6.494,5.692,4.309,3.842
-0.0,949992113.6225947,0.9184791446,0.5407543229455808,5471.419324763784,6.342,5.563,4.226,3.776
-0.0,949992113.6225947,0.9500000477,0.6367955209079158,5596.287273819709,6.093,5.355,4.091,3.67
-0.0,949992113.6225947,1.0,0.8203515443298183,5780.960474057181,5.727,5.047,3.88,3.496
-0.0,949992113.6225947,1.0360789299,0.9794899854086989,5904.729404069866,5.478,4.837,3.732,3.373
-0.0,949992113.6225947,1.0499999523,1.0471285480508996,5951.137709938006,5.384,4.758,3.677,3.327
-0.0,949992113.6225947,1.0593479872,1.096478196143185,5981.360797812744,5.322,4.706,3.639,3.295
-0.0,949992113.6225947,1.1000000238,1.3273944577297394,6109.420249055721,5.062,4.486,3.478,3.157
-0.0,949992113.6225947,1.1321247816,1.5381546403030348,6204.403011913813,4.866,4.319,3.353,3.048
-0.0,949992113.6225947,1.1499999762,1.667247212551063,6256.046959640024,4.76,4.228,3.285,2.988
-0.0,949992113.6225947,1.1597460508,1.741806873391614,6284.923560377511,4.703,4.179,3.248,2.956
-0.0,949992113.6225947,1.2000000477,2.07491351745491,6398.821568325593,4.472,3.982,3.098,2.824
-0.0,949992113.6225947,1.2404989004,2.4603676041476272,6510.284984348614,4.253,3.793,2.954,2.697
-0.0,949992113.6225947,1.25,2.5585858869056457,6535.818751130748,4.203,3.749,2.921,2.668
-0.0,949992113.6225947,1.2953077555,3.061963433690677,6655.795963672291,3.973,3.548,2.767,2.531
-0.0,949992113.6225947,1.2999999523,3.118889584093937,6668.067692136218,3.95,3.527,2.751,2.517
-0.0,949992113.6225947,1.3500000238,3.767037989839088,6804.559249946384,3.709,3.316,2.592,2.378
-0.0,949992113.6225947,1.3564190865,3.854783576657718,6823.3869414166975,3.679,3.29,2.573,2.361
-0.0,949992113.6225947,1.3999999762,4.508167045414602,6948.643007488283,3.479,3.115,2.445,2.25
-0.0,949992113.6225947,1.4500000477,5.357966575133416,7108.860631304903,3.256,2.921,2.311,2.136
-0.0,949992113.6225947,1.4738227129,5.807644175213121,7191.17735782509,3.151,2.831,2.251,2.087
-0.0,949992113.6225947,1.5,6.324118513762195,7277.798045368242,3.039,2.734,2.186,2.031
-0.0,949992113.6225947,1.5235445499,6.823386941416696,7358.6813965104475,2.942,2.65,2.13,1.985
-0.0,949992113.6225947,1.5499999523,7.430191378967014,7438.750629075672,2.837,2.557,2.065,1.93
-0.0,949992113.6225947,1.5756857395,8.035261221856173,7514.498463746845,2.737,2.47,2.004,1.877
-0.0,949992113.6225947,1.6000000238,8.649679187756934,7580.537491482208,2.644,2.388,1.945,1.825
-0.0,949992113.6225947,1.6193951368,9.183325964835808,7629.568911615328,2.572,2.324,1.898,1.783
-0.0,949992113.6225947,1.6499999762,10.046157902783952,7698.391619294355,2.461,2.223,1.821,1.714
-0.0,949992113.6225947,1.661796689,10.423174293933041,7725.026892978104,2.419,2.185,1.792,1.687
-0.0,949992113.6225947,1.692625165,11.402497875611685,7783.94932626726,2.309,2.085,1.712,1.613
-0.0,949992113.6225947,1.7000000477,11.668096170609624,7798.3011052325855,2.283,2.061,1.693,1.595
-0.0,949992113.6225947,1.7213788033,12.416523075924113,7834.29642766212,2.208,1.993,1.637,1.543
-0.0,949992113.6225947,1.75,13.489628825916533,7879.524314513305,2.109,1.902,1.561,1.471
-0.0,949992113.6225947,1.7604944706,13.931568029453029,7894.052311366033,2.073,1.869,1.533,1.444
-0.0,949992113.6225947,1.7980511189,15.523870099580824,7937.797216901173,1.945,1.749,1.429,1.344
-0.0,949992113.6225947,1.7999998331,15.595525028269538,7939.625172698565,1.939,1.743,1.423,1.339
-0.0,949992113.6225947,1.8285807371,16.94337800447329,7961.593504173184,1.843,1.653,1.341,1.259
-0.0,949992113.6225947,1.8500001431,18.071741260109267,7968.929780742464,1.772,1.585,1.276,1.194
-0.0,949992113.6225947,1.8570194244,18.407720014689556,7968.929780742464,1.749,1.562,1.254,1.172
-0.0,949992113.6225947,1.8881691694,20.137242498623884,7961.593504173184,1.649,1.463,1.154,1.072
-0.0,949992113.6225947,1.9000000954,20.844908830972887,7952.4326553339615,1.612,1.426,1.114,1.032
-0.0,949992113.6225947,1.918595314,21.978598727848254,7939.625172698565,1.554,1.367,1.053,0.969
-0.0,949992113.6225947,1.9495252371,23.9883291901949,7894.052311366033,1.46,1.269,0.943,0.856
-0.0,949992113.6225947,1.9500000477,24.043628000069333,7892.234847899735,1.459,1.268,0.941,0.854
-0.0,949992113.6225947,1.9779261351,26.001595631652723,7821.679204756053,1.379,1.18,0.833,0.741
-0.0,949992113.6225947,2.0,27.60577856220346,7748.185327756203,1.321,1.111,0.743,0.644
-0.0,949992113.6225947,2.0091004372,28.31391995799379,7716.138244793735,1.297,1.083,0.705,0.603
-0.0,949992113.6225947,2.0336637497,30.269134281013063,7606.765007662276,1.239,1.009,0.597,0.485
-0.0,949992113.6225947,2.0499999523,31.622776601683793,7514.498463746845,1.205,0.961,0.519,0.397
-0.0,949992113.6225947,2.0601379871,32.43396173493492,7450.7501463625185,1.186,0.932,0.469,0.341
-0.0,949992113.6225947,2.0784254074,34.04081897010009,7321.49887534064,1.156,0.882,0.375,0.233
-0.0,949992113.6225947,2.0960199833,35.56313185689853,7184.557087925965,1.133,0.836,0.28,0.123
-0.0,949992113.6225947,2.0999999046,35.892193464500515,7149.900531600002,1.129,0.826,0.258,0.097
-0.0,949992113.6225947,2.1050262451,36.391503612720705,7105.587633694735,1.124,0.813,0.23,0.063
-0.0,949992113.6225947,2.1197762489,37.84425847170934,6974.289968817341,1.109,0.775,0.142,-0.041
-0.0,949992113.6225947,2.1340079308,39.810717055349734,6900.808885484521,1.07,0.721,0.063,-0.13
-0.0,949992113.6225947,2.1399102211,41.87935651179185,7004.8687123168265,0.989,0.662,0.043,-0.136
-0.0,949992113.6225947,2.1434259415,44.05548635065532,7163.083273130367,0.897,0.6,0.041,-0.118
-0.0,949992113.6225947,2.1447823048,46.025657358135604,7328.245331389045,0.816,0.548,0.049,-0.091
-0.0,949992113.6225947,2.145475626,48.083934844972845,7497.215596874701,0.736,0.498,0.058,-0.063
-0.0,949992113.6225947,2.1458802223,50.46612975635284,7668.3159786302695,0.654,0.447,0.065,-0.04
-0.0,949992113.6225947,2.1461288929,52.966344389165776,7834.29642766212,0.574,0.397,0.067,-0.023
-0.0,949992113.6225947,2.1462962627,55.71857489319299,7992.819398621498,0.497,0.349,0.066,-0.011
-0.0,949992113.6225947,2.1464037895,57.14786366718669,8085.371885255472,0.46,0.326,0.069,-0.001
-0.0,949992113.6225947,2.1464648247,54.20008904016238,7998.342550070284,0.528,0.38,0.098,0.021
-0.0,949992113.6225947,2.146522522,51.05049999754062,7865.023054586586,0.611,0.438,0.117,0.029
-0.0,949992113.6225947,2.1465773582,49.09078761526032,7709.034690644301,0.678,0.477,0.107,0.007
-0.0,949992113.6225947,2.1466517448,48.30588020397726,7511.038706017857,0.729,0.494,0.058,-0.062
-0.0,949992113.6225947,2.1467399597,48.86523593428336,7313.074538624834,0.751,0.482,-0.021,-0.162
-0.0,949992113.6225947,2.1468436718,49.77370849789361,7120.327999992026,0.769,0.466,-0.106,-0.27
-0.0,949992113.6225947,2.1469607353,50.35006087879047,6931.065451499368,0.799,0.46,-0.183,-0.371
-0.0,949992113.6225947,2.1470906734,50.5824662003114,6748.3873087075735,0.841,0.464,-0.25,-0.462
-0.0,949992113.6225947,2.1472337246,50.46612975635284,6573.550444548967,0.894,0.478,-0.306,-0.544
-0.0,949992113.6225947,2.1473948956,50.003453497697855,6407.667976494362,0.958,0.498,-0.356,-0.618
-0.0,949992113.6225947,2.1475865841,49.31738039549359,6251.726927756856,1.034,0.527,-0.395,-0.683
-0.0,949992113.6225947,2.1478340626,47.97334486366892,6099.580958722386,1.126,0.572,-0.419,-0.734
-0.0,949992113.6225947,2.1481499672,45.81418867145335,5944.290151976951,1.246,0.641,-0.426,-0.77
-0.0,949992113.6225947,2.1484241486,43.65158322401658,5827.7377479636825,1.358,0.713,-0.413,-0.781
-0.0,949992113.6225947,2.1487185955,40.83193863326921,5709.52527715281,1.489,0.806,-0.381,-0.774
-0.0,949992113.6225947,2.1489827633,38.018939632056124,5610.479760324706,1.618,0.903,-0.336,-0.752
-0.0,949992113.6225947,2.1492114067,35.48133892335755,5529.680004928025,1.735,0.995,-0.289,-0.724
-0.0,949992113.6225947,2.1495010853,32.658783217233584,5431.252578811117,1.882,1.11,-0.23,-0.688
-0.0,949992113.6225947,2.1497182846,30.83187950249355,5359.200434577747,1.987,1.191,-0.19,-0.665
-0.0,949992113.6225947,2.1500000954,30.19951720402016,5277.15681764812,2.061,1.237,-0.194,-0.689
-0.0,949992113.6225947,2.1502540112,29.92264636608189,5205.950088015483,2.117,1.268,-0.206,-0.72
-0.0,949992113.6225947,2.1506409645,31.988951096913972,5119.175279997109,2.104,1.224,-0.306,-0.842
-0.0,949992113.6225947,2.1510267258,35.3183169791957,5051.263219145947,2.046,1.139,-0.436,-0.991
-0.0,949992113.6225947,2.1513345242,38.63669770540692,5007.258356403354,1.982,1.058,-0.546,-1.114
-0.0,949992113.6225947,2.1516418457,42.36429660495411,4968.210633313916,1.914,0.975,-0.657,-1.237
-0.0,949992113.6225947,2.1519474983,46.55860935229589,4931.738039549359,1.841,0.888,-0.771,-1.361
-0.0,949992113.6225947,2.1522476673,51.16818355403078,4896.660566104027,1.766,0.799,-0.884,-1.484
-0.0,949992113.6225947,2.1525399685,56.23413251903491,4862.952191867843,1.693,0.712,-0.996,-1.607
-0.0,949992113.6225947,2.1528258324,61.65950018614822,4831.700432460599,1.621,0.627,-1.105,-1.726
-0.0,949992113.6225947,2.1531107426,67.60829753919819,4801.755030139799,1.548,0.542,-1.213,-1.843
-0.0,949992113.6225947,2.153181076,69.18309709189366,4794.021749415102,1.529,0.521,-1.24,-1.872
-0.0,949992113.6225947,2.15346241,75.68328950209744,4765.407017251339,1.457,0.437,-1.346,-1.988
-0.0,949992113.6225947,2.1535329819,77.44617978025188,4758.827909888171,1.439,0.416,-1.373,-2.017
-0.0,949992113.6225947,2.153676033,81.2830516164099,4743.511960856962,1.402,0.372,-1.428,-2.078
-0.0,949992113.6225947,2.1539583206,89.12509381337455,4714.113123725611,1.332,0.286,-1.539,-2.198
-0.0,949992113.6225947,2.1542370319,97.94899854086991,4684.8964916001305,1.262,0.2,-1.65,-2.318
-0.0,949992113.6225947,2.1545090675,107.64652136298349,4654.789007046166,1.196,0.116,-1.761,-2.438
-0.0,949992113.6225947,2.1547746658,118.03206356517298,4624.875008224019,1.131,0.033,-1.871,-2.558
-0.0,949992113.6225947,2.1550366879,129.7179270983956,4594.095300365836,1.067,-0.049,-1.981,-2.678
-0.0,949992113.6225947,2.1552948952,142.23287871228197,4562.469770768501,1.004,-0.131,-2.092,-2.799
-0.0,949992113.6225947,2.1555404663,155.95525028269537,4532.1053854810425,0.945,-0.209,-2.198,-2.916
-0.0,949992113.6225947,2.1558070183,172.18685749860077,4498.834324565384,0.881,-0.293,-2.316,-3.046
-0.0,949992113.6225947,2.1561210155,194.08858775927774,4458.615279480707,0.805,-0.395,-2.457,-3.202
-0.0,949992113.6225947,2.1563501358,212.32444620002192,4427.922387787075,0.751,-0.469,-2.562,-3.317
-0.0,949992113.6225947,2.1565835476,232.80912576650078,4397.440784473689,0.698,-0.546,-2.668,-3.432
-0.0,949992113.6225947,2.1568152905,254.6830252585042,4367.16901504156,0.644,-0.623,-2.772,-3.546
-0.0,949992113.6225947,2.1571118832,284.44611074479167,4329.123745028265,0.58,-0.715,-2.9,-3.686
-0.0,949992113.6225947,2.1573653221,308.31879502493535,4302.2931593879675,0.532,-0.782,-2.993,-3.788
-0.0,949992113.6225947,2.1574611664,316.22776601683796,4293.386634704304,0.517,-0.803,-3.023,-3.821
-0.0,949992113.6225947,2.1575245857,299.916251898765,4311.218160437416,0.548,-0.759,-2.961,-3.753
-0.0,949992113.6225947,2.1575593948,272.89777828080406,4344.101860128392,0.604,-0.68,-2.851,-3.632
-0.0,949992113.6225947,2.1575880051,249.45947269429536,4375.221051582521,0.654,-0.608,-2.749,-3.52
-0.0,949992113.6225947,2.1576223373,228.03420720004186,4405.548635065535,0.706,-0.532,-2.645,-3.407
-0.0,949992113.6225947,2.1576647758,207.9696687103696,4437.1080035723835,0.761,-0.453,-2.537,-3.289
-0.0,949992113.6225947,2.1577208042,189.67059212111465,4468.89344919767,0.815,-0.378,-2.43,-3.17
-0.0,949992113.6225947,2.1577937603,172.18685749860077,4502.9798128808925,0.876,-0.296,-2.314,-3.042
-0.0,949992113.6225947,2.1578843594,155.59656316050751,4537.326169379414,0.941,-0.21,-2.195,-2.911
-0.0,949992113.6225947,2.157992363,140.28137045619576,4572.987349813346,1.006,-0.123,-2.073,-2.777
-0.0,949992113.6225947,2.1581192017,126.76518658578462,4607.867686902717,1.074,-0.035,-1.953,-2.646
-0.0,949992113.6225947,2.1582713127,115.34532578210919,4640.876378080087,1.139,0.049,-1.84,-2.522
-0.0,949992113.6225947,2.1584699154,104.9542428652322,4673.045396315099,1.202,0.131,-1.729,-2.4
-0.0,949992113.6225947,2.1587631702,94.84184633008974,4708.688923442734,1.273,0.223,-1.607,-2.268
-0.0,949992113.6225947,2.1591906548,82.60379495771788,4755.541763152083,1.371,0.346,-1.444,-2.09
-0.0,949992113.6225947,2.1595306396,73.79042301291011,4795.1257408135025,1.457,0.448,-1.311,-1.943
-0.0,949992113.6225947,2.1598517895,67.29766562843179,4827.252320650396,1.529,0.534,-1.201,-1.823
-0.0,949992113.6225947,2.1604099274,59.29253245799997,4873.040266252349,1.628,0.651,-1.05,-1.657
-0.0,949992113.6225947,2.1610586643,53.33348954876211,4911.339996469978,1.709,0.748,-0.924,-1.519
-0.0,949992113.6225947,2.1619594097,47.97334486366892,4953.361223155476,1.791,0.846,-0.796,-1.38
-0.0,949992113.6225947,2.1635122299,43.35108783875289,4996.8924263059425,1.866,0.938,-0.674,-1.244
-0.0,949992113.6225947,2.1643855572,42.169650342858226,5010.718442871759,1.885,0.963,-0.639,-1.205
-0.0,949992113.6225947,2.1816010475,44.56562483975033,5013.026495398051,1.824,0.902,-0.698,-1.263
-0.0,949992113.6225947,2.2000000477,47.315125896148054,5015.335611066592,1.757,0.835,-0.763,-1.328
-0.0,949992113.6225947,2.2248296738,51.52286445817565,5017.645790367086,1.662,0.741,-0.855,-1.419
-0.0,949992113.6225947,2.2480559349,56.36376558259543,5016.490567732232,1.565,0.643,-0.953,-1.517
-0.0,949992113.6225947,2.25,56.754460540854716,5015.335611066592,1.557,0.635,-0.962,-1.526
-0.0,949992113.6225947,2.2570948601,58.47900841444806,5014.180920308942,1.527,0.604,-0.994,-1.558
-0.0,949992113.6225947,2.2782702446,64.12095765851615,5004.95295959168,1.436,0.508,-1.096,-1.663
-0.0,949992113.6225947,2.2965805531,69.66265141107687,4988.844874600121,1.358,0.424,-1.191,-1.763
-0.0,949992113.6225947,2.2999999523,70.95777679633888,4983.104559705293,1.343,0.407,-1.212,-1.785
-0.0,949992113.6225947,2.3020601273,71.6143410212902,4979.663541644856,1.333,0.396,-1.225,-1.799
-0.0,949992113.6225947,2.3182249069,79.43282347242814,4937.419182496813,1.255,0.301,-1.35,-1.937
-0.0,949992113.6225947,2.326829195,83.56030182312479,4921.528450161719,1.213,0.253,-1.41,-2.002
-0.0,949992113.6225947,2.3307418823,91.62204901219997,4869.675251658631,1.156,0.175,-1.525,-2.133
-0.0,949992113.6225947,2.3319878578,101.62486928706959,4818.368378188961,1.09,0.087,-1.652,-2.276
-0.0,949992113.6225947,2.3324787617,112.71974561755106,4771.995220268839,1.026,-0.001,-1.777,-2.415
-0.0,949992113.6225947,2.3326864243,124.45146117713857,4730.423243999551,0.963,-0.087,-1.899,-2.55
-0.0,949992113.6225947,2.3327841759,136.4583136588924,4692.453741364405,0.904,-0.167,-2.01,-2.673
-0.0,949992113.6225947,2.3328309059,146.21771744567184,4665.519403909797,0.86,-0.226,-2.093,-2.764
-0.0,949992113.6225947,2.3328356743,147.23125024327194,4662.297690149265,0.855,-0.232,-2.102,-2.774
-0.0,949992113.6225947,2.3328769207,154.5254439538414,4644.083289410481,0.825,-0.273,-2.16,-2.838
-0.0,949992113.6225947,2.3329212666,161.4358556826487,4628.0708623811315,0.797,-0.31,-2.211,-2.895
-0.0,949992113.6225947,2.3330931664,154.170045294956,4646.222461325775,0.824,-0.273,-2.157,-2.835
-0.0,949992113.6225947,2.3335340023,150.66070661867417,4654.789007046166,0.839,-0.253,-2.129,-2.804
-0.0,949992113.6225947,2.3360991478,161.064563517827,4631.268924918746,0.797,-0.309,-2.207,-2.889
-0.0,949992113.6225947,2.3371300697,175.7923613958693,4597.269885308723,0.741,-0.385,-2.313,-3.007
-0.0,949992113.6225947,2.3378839493,192.30917289101575,4563.520439214676,0.684,-0.46,-2.42,-3.125
-0.0,949992113.6225947,2.3384978771,210.86281499332887,4530.018754322402,0.628,-0.537,-2.529,-3.246
-0.0,949992113.6225947,2.3390176296,231.73946499684797,4494.692652627942,0.572,-0.614,-2.64,-3.37
-0.0,949992113.6225947,2.3394625187,255.2701302661247,4459.642031793193,0.516,-0.696,-2.754,-3.494
-0.0,949992113.6225947,2.3398501873,287.73984147356697,4415.704473533126,0.449,-0.796,-2.893,-3.646
-0.0,949992113.6225947,2.3401939869,321.3660538640318,4375.221051582521,0.385,-0.889,-3.024,-3.79
-0.0,949992113.6225947,2.3405032158,354.8133892335753,4340.10263644744,0.329,-0.969,-3.136,-3.913
-0.0,949992113.6225947,2.3407888412,389.9419866765436,4279.568675300529,0.312,-1.023,-3.251,-4.051
-0.0,949992113.6225947,2.3410475254,426.57951880159254,4246.19563946313,0.262,-1.094,-3.355,-4.168
-0.0,949992113.6225947,2.3412914276,466.6593803142887,4211.143104363183,0.215,-1.161,-3.458,-4.284
-0.0,949992113.6225947,2.3415231705,508.1594425605605,4179.265867213064,0.167,-1.229,-3.558,-4.397
-0.0,949992113.6225947,2.3417463303,554.625712957911,4148.585069344544,0.119,-1.294,-3.657,-4.508
-0.0,949992113.6225947,2.3419647217,603.94862937638,4120.026410605537,0.077,-1.355,-3.758,-4.621
-0.0,949992113.6225947,2.3421828747,659.1738952443212,4089.7805010288275,0.035,-1.416,-3.86,-4.737
-0.0,949992113.6225947,2.3424019814,729.4575102545687,4056.0191798991405,-0.011,-1.483,-3.976,-4.869
-0.0,949992113.6225947,2.3426029682,833.681184619634,4009.5903122771956,-0.068,-1.569,-4.134,-5.048
-0.0,949992113.6225947,2.3427169323,937.5620069258802,3968.2589095091143,-0.115,-1.64,-4.272,-5.205
-0.0,949992113.6225947,2.342787981,1035.1421666793442,3933.688806732022,-0.151,-1.694,-4.387,-5.337
-0.0,949992113.6225947,2.3428461552,1127.1974561755105,3903.9118250765996,-0.182,-1.74,-4.488,-5.451
-0.0,949992113.6225947,2.3428993225,1221.7996601648722,3875.252454410245,-0.207,-1.779,-4.581,-5.559
-0.0,949992113.6225947,2.3429510593,1318.2567385564075,3847.689338937884,-0.227,-1.811,-4.672,-5.663
-0.0,949992113.6225947,2.3430054188,1425.607593602188,3820.322268844109,-0.245,-1.842,-4.764,-5.767
-0.0,949992113.6225947,2.3430616856,1534.6169827992942,3793.1498497368207,-0.258,-1.866,-4.853,-5.869
-0.0,949992113.6225947,2.3431229591,1655.7699634695275,3764.436710736454,-0.264,-1.878,-4.944,-5.973
-0.0,949992113.6225947,2.3431887627,1786.4875748520499,3735.9409225879995,-0.269,-1.89,-5.034,-6.075
-0.0,949992113.6225947,2.343234539,1866.3796908346694,3719.632211619559,-0.272,-1.898,-5.088,-6.137
-0.0,949992113.6225947,2.3432502747,1770.108958317422,3739.3834364315157,-0.266,-1.887,-5.023,-6.063
-0.0,949992113.6225947,2.3432514668,1713.9573075084252,3750.5935291111437,-0.264,-1.881,-4.985,-6.02
-0.0,949992113.6225947,2.3432519436,1690.440931643265,3754.9140460984254,-0.262,-1.879,-4.97,-6.003
-0.0,949992113.6225947,2.343252182,1671.090614310707,3759.239540129174,-0.261,-1.877,-4.956,-5.986
-0.0,949992113.6225947,2.3432524204,1663.4126503701698,3761.8372279132846,-0.261,-1.876,-4.949,-5.979
-0.0,949992113.6225947,2.3432526588,1651.961798229015,3763.5700169367306,-0.26,-1.874,-4.942,-5.97
-0.0,949992113.6225947,2.3432528973,1659.5869074375614,3762.7035226776516,-0.261,-1.875,-4.945,-5.975
-0.0,949992113.6225947,2.3432531357,1663.4126503701698,3760.971132597691,-0.261,-1.876,-4.95,-5.98
-0.0,949992113.6225947,2.3432543278,1698.2436524617442,3754.0495447208405,-0.263,-1.879,-4.973,-6.006
-0.0,949992113.6225947,2.3432569504,1770.108958317422,3738.522510697288,-0.267,-1.887,-5.023,-6.064
-0.0,949992113.6225947,2.3432602882,1849.2686189780777,3722.202530178502,-0.27,-1.895,-5.077,-6.126
-0.0,949992113.6225947,2.3432638645,1936.4219639466069,3705.1005630192394,-0.269,-1.896,-5.131,-6.187
-0.0,949992113.6225947,2.3432693481,2046.444636724674,3683.8335597906507,-0.263,-1.889,-5.2,-6.265
-0.0,949992113.6225947,2.3432753086,2147.8304741305333,3665.219597323419,-0.257,-1.883,-5.258,-6.331
-0.0,949992113.6225947,2.3432836533,2254.2392121524304,3646.699688942269,-0.25,-1.875,-5.317,-6.399
-0.0,949992113.6225947,2.3433001041,1879.3168168032685,3711.931900441403,-0.259,-1.884,-5.096,-6.149
-0.0,949992113.6225947,2.3433015347,2051.1621788255648,3680.4421857199322,-0.254,-1.88,-5.203,-6.269
-0.0,949992113.6225947,2.3433017731,2055.8905959841427,3678.7476696641274,-0.254,-1.879,-5.207,-6.274
-0.0,949992113.6225947,2.3433020115,2060.6299132700005,3677.9007042238622,-0.253,-1.879,-5.209,-6.276
-0.0,949992113.6225947,2.3433022499,2060.6299132700005,3678.7476696641274,-0.253,-1.879,-5.207,-6.275
-0.0,949992113.6225947,2.3433024883,2032.3570109362208,3682.9854234157206,-0.255,-1.88,-5.193,-6.258
-0.0,949992113.6225947,2.3433027267,1999.8618696327449,3689.775985701505,-0.256,-1.881,-5.172,-6.234
-0.0,949992113.6225947,2.3433029652,1940.8858775927772,3700.8373629231564,-0.258,-1.884,-5.136,-6.193
-0.0,949992113.6225947,2.3433032036,1901.0782799232995,3707.660840003112,-0.26,-1.886,-5.112,-6.166
-0.0,949992113.6225947,2.343303442,1870.6821403657998,3714.496897976222,-0.262,-1.888,-5.09,-6.142
-0.0,949992113.6225947,2.3433036804,1840.7720014689564,3720.488787200874,-0.261,-1.886,-5.072,-6.121
-0.0,949992113.6225947,2.3433039188,1828.1002161427427,3723.917062545687,-0.261,-1.885,-5.063,-6.111
-0.0,949992113.6225947,2.3433041573,1798.8709151287874,3729.9241475247336,-0.261,-1.883,-5.045,-6.09
-0.0,949992113.6225947,2.3433043957,1782.378767448089,3733.3611171608127,-0.26,-1.882,-5.033,-6.075
-0.0,949992113.6225947,2.3433048725,1737.8008287493763,3743.6910398904515,-0.26,-1.878,-5.002,-6.041
-0.0,949992113.6225947,2.3433053493,1702.15850839495,3751.4572346200985,-0.259,-1.876,-4.978,-6.012
-0.0,949992113.6225947,2.3433055878,1671.090614310707,3758.374042884443,-0.258,-1.874,-4.956,-5.988
-0.0,949992113.6225947,2.3433060646,1640.5897731995387,3766.1706971416666,-0.258,-1.871,-4.932,-5.96
-0.0,949992113.6225947,2.3433067799,1584.893192461114,3779.2010796187897,-0.257,-1.867,-4.892,-5.914
-0.0,949992113.6225947,2.3433122635,1629.296032639723,3769.641066462436,-0.259,-1.872,-4.924,-5.95
-0.0,949992113.6225947,2.3433167934,1725.837891990204,3748.003605517044,-0.264,-1.883,-4.992,-6.028
-0.0,949992113.6225947,2.3433206081,1823.8957023196383,3727.348496903337,-0.267,-1.891,-5.059,-6.104
-0.0,949992113.6225947,2.3433248997,1945.3600816226633,3702.5420540013483,-0.266,-1.892,-5.137,-6.194
-0.0,949992113.6225947,2.3433301449,2103.778439766475,3672.8230049808462,-0.257,-1.882,-5.232,-6.302
-0.0,949992113.6225947,2.3433363438,2290.8676527677726,3639.9884030888024,-0.246,-1.872,-5.337,-6.421
-0.0,949992113.6225947,2.3433439732,2443.430552693971,3614.0986263961313,-0.227,-1.848,-5.416,-6.512
-0.0,949992113.6225947,2.3433551788,2648.500138606701,3581.789013481115,-0.194,-1.807,-5.514,-6.624
-0.0,949992113.6225947,2.3433594704,2710.1916318908416,3573.5511273490297,-0.186,-1.797,-5.542,-6.656
-0.0,949992113.6225947,2.3433601856,2710.1916318908416,3573.5511273490297,-0.186,-1.797,-5.542,-6.656
-0.0,949992113.6225947,2.3433611393,1555.965631605075,3750.5935291111437,-0.168,-1.776,-4.878,-5.914
-0.0,949992113.6225947,2.3433616161,1465.5478409559114,3773.1146335838903,-0.164,-1.767,-4.806,-5.831
-0.0,949992113.6225947,2.3433635235,895.3647655495937,3966.431879468582,-0.065,-1.587,-4.222,-5.156
-0.0,949992113.6225947,2.3433668613,809.0958991783822,4006.8215418221093,-0.033,-1.533,-4.101,-5.016
-0.0,949992113.6225947,2.3433713913,946.237161365793,3942.7568959559076,-0.076,-1.609,-4.286,-5.232
-0.0,949992113.6225947,2.3433773518,1339.6766874259345,3804.5211258004038,-0.15,-1.744,-4.699,-5.71
-0.0,949992113.6225947,2.3433849812,1905.4607179632462,3667.7523159949515,-0.148,-1.763,-5.127,-6.2
-0.0,949992113.6225947,2.3433940411,2460.3676041476274,3571.9058251119704,-0.089,-1.688,-5.437,-6.552
-0.0,949992113.6225947,2.3434045315,2831.391995799379,3518.8438882095843,-0.022,-1.601,-5.611,-6.748
-0.0,949992113.6225947,2.3434171677,3026.913428101305,3492.2071726340682,0.027,-1.539,-5.694,-6.842
-0.0,949992113.6225947,2.3434312344,3140.5086938762165,3476.161938153812,0.062,-1.495,-5.741,-6.897
-0.0,949992113.6225947,2.3434314728,2208.004733018899,3601.6375039472773,-0.084,-1.688,-5.31,-6.412
-0.0,949992113.6225947,2.3434326649,1721.8685749860078,3694.0264435828335,-0.123,-1.734,-5.007,-6.068
-0.0,949992113.6225947,2.3434350491,1054.3868963912591,3884.1858339296286,-0.076,-1.635,-4.419,-5.393
-0.0,949992113.6225947,2.3434388638,948.4184633008969,3927.3535564672516,-0.051,-1.589,-4.293,-5.246
-0.0,949992113.6225947,2.343444109,1104.0786199020736,3869.011316551087,-0.091,-1.656,-4.472,-5.454
-0.0,949992113.6225947,2.3434510231,1548.816618912481,3739.3834364315157,-0.137,-1.745,-4.877,-5.919
-0.0,949992113.6225947,2.3434596062,2182.7299118430014,3612.434655644614,-0.113,-1.721,-5.294,-6.39
-0.0,949992113.6225947,2.3434700966,2786.1211686297693,3526.1436430685917,-0.039,-1.622,-5.59,-6.725
-0.0,949992113.6225947,2.3434824944,3176.8740706497692,3482.571166386543,0.023,-1.541,-5.75,-6.903
-0.0,949992113.6225947,2.3434967995,3357.3761424295453,3466.5702053333894,0.041,-1.515,-5.818,-6.977
-0.0,949992113.6225947,2.3435130119,3451.437393358561,3461.784268375584,0.042,-1.512,-5.849,-7.01
-0.0,949992113.6225947,2.3435132504,2466.0393372343387,3580.9643710263585,-0.122,-1.726,-5.437,-6.548
-0.0,949992113.6225947,2.3435146809,1927.5249131909366,3672.8230049808462,-0.173,-1.789,-5.136,-6.206
-0.0,949992113.6225947,2.343517065,1183.0415557251647,3861.8908944898994,-0.147,-1.72,-4.55,-5.534
-0.0,949992113.6225947,2.3435211182,1061.6955571987241,3905.710056937564,-0.125,-1.678,-4.421,-5.385
-0.0,949992113.6225947,2.3435266018,1233.1048332289097,3847.689338937884,-0.158,-1.736,-4.598,-5.589
-0.0,949992113.6225947,2.3435337543,1713.9573075084252,3718.7758332493545,-0.188,-1.805,-4.995,-6.045
-0.0,949992113.6225947,2.3435428143,2398.83291901949,3593.3539675538973,-0.137,-1.745,-5.403,-6.508
-0.0,949992113.6225947,2.3435535431,3040.88502567628,3507.5187395256794,-0.04,-1.618,-5.693,-6.835
-0.0,949992113.6225947,2.3435664177,3443.4993076333844,3463.378846082793,0.034,-1.522,-5.847,-7.007
-0.0,949992113.6225947,2.3435814381,3622.4299841669877,3446.6723487178924,0.069,-1.475,-5.91,-7.077
-0.0,949992113.6225947,2.3435983658,3706.80721782576,3440.329187682278,0.079,-1.463,-5.937,-7.106
-0.0,949992113.6225947,2.3435986042,2710.1916318908416,3553.0392081527184,-0.118,-1.718,-5.549,-6.672
-0.0,949992113.6225947,2.3436000347,2118.3611352485023,3645.8601019727603,-0.188,-1.807,-5.25,-6.333
-0.0,949992113.6225947,2.3436028957,1309.181922999407,3834.4228144309195,-0.19,-1.777,-4.667,-5.665
-0.0,949992113.6225947,2.3436071873,1172.1953655481304,3878.8233380237325,-0.172,-1.741,-4.536,-5.512
-0.0,949992113.6225947,2.3436131477,1358.3134465871542,3820.322268844109,-0.196,-1.789,-4.711,-5.714
-0.0,949992113.6225947,2.3436207771,1874.9945080674192,3693.175960479867,-0.203,-1.824,-5.101,-6.163
-0.0,949992113.6225947,2.3436305523,2600.159563165272,3568.617492834813,-0.131,-1.735,-5.5,-6.616
-0.0,949992113.6225947,2.3436424732,3280.9529311311903,3483.3731503601166,-0.007,-1.575,-5.785,-6.937
-0.0,949992113.6225947,2.3436563015,3698.281797802663,3439.5371138063997,0.086,-1.454,-5.936,-7.105
-0.0,949992113.6225947,2.343672514,3890.4514499428046,3421.369661353676,0.126,-1.402,-5.997,-7.174
-0.0,949992113.6225947,2.3436911106,3971.915494694405,3415.0730666882723,0.141,-1.383,-6.024,-7.203
-0.0,949992113.6225947,2.3436915874,2992.264636608189,3518.8438882095843,-0.071,-1.656,-5.67,-6.808
-0.0,949992113.6225947,2.343693018,2338.837238659356,3611.602957582318,-0.175,-1.791,-5.369,-6.467
-0.0,949992113.6225947,2.343695879,1455.4590805819653,3799.2686147637874,-0.219,-1.822,-4.791,-5.804
-0.0,949992113.6225947,2.3437001705,1300.16957803329,3845.032367094809,-0.205,-1.789,-4.657,-5.649
-0.0,949992113.6225947,2.3437066078,1503.1419660900224,3786.169041033592,-0.219,-1.825,-4.831,-5.85
-0.0,949992113.6225947,2.3437147141,2060.6299132700005,3660.1594055804926,-0.201,-1.822,-5.215,-6.291
-0.0,949992113.6225947,2.343724966,2837.9190284415554,3536.7144758575937,-0.097,-1.69,-5.606,-6.736
-0.0,949992113.6225947,2.3437371254,3556.3131856898544,3451.437393358561,0.063,-1.485,-5.886,-7.051
-0.0,949992113.6225947,2.3437519073,4008.6671762730302,3406.4341658307585,0.173,-1.343,-6.036,-7.219
-0.0,949992113.6225947,2.3437688351,4216.965034285822,3387.661433708217,0.224,-1.278,-6.099,-7.29
-0.0,949992113.6225947,2.343788147,4315.19076827765,3378.313899290581,0.258,-1.236,-6.13,-7.324
-0.0,949992113.6225947,2.3437883854,3365.115693754908,3469.764505288517,0.027,-1.533,-5.818,-6.976
-0.0,949992113.6225947,2.3437898159,2624.218543384442,3564.5113342624427,-0.124,-1.727,-5.511,-6.629
-0.0,949992113.6225947,2.3437926769,1640.5897731995387,3750.5935291111437,-0.221,-1.835,-4.938,-5.974
-0.0,949992113.6225947,2.3437969685,1465.5478409559114,3796.6450792221963,-0.221,-1.825,-4.8,-5.814
-0.0,949992113.6225947,2.3438031673,1690.440931643265,3738.522510697288,-0.219,-1.835,-4.972,-6.013
-0.0,949992113.6225947,2.3438110352,2296.148648112363,3614.9308991735757,-0.167,-1.782,-5.347,-6.443
-0.0,949992113.6225947,2.3438208103,3126.0793671239558,3493.011375635544,-0.007,-1.577,-5.73,-6.877
-0.0,949992113.6225947,2.3438329697,3890.4514499428046,3409.5730529319967,0.187,-1.329,-6.003,-7.185
-0.0,949992113.6225947,2.3438470364,4375.221051582521,3364.340936432299,0.328,-1.151,-6.149,-7.349
-0.0,949992113.6225947,2.3438634872,4591.980128368686,3344.2597353373435,0.405,-1.054,-6.213,-7.421
-0.0,949992113.6225947,2.3438823223,4709.77326396953,3332.728995761379,0.452,-0.996,-6.244,-7.457
-0.0,949992113.6225947,2.3438827991,3801.8939632056126,3411.9291162192844,0.197,-1.319,-5.977,-7.158
-0.0,949992113.6225947,2.3438842297,2958.0124665515464,3508.326468551656,-0.016,-1.592,-5.663,-6.805
-0.0,949992113.6225947,2.3438870907,1862.0871366628676,3693.175960479867,-0.195,-1.815,-5.094,-6.155
-0.0,949992113.6225947,2.3438916206,1655.7699634695275,3741.105882720533,-0.208,-1.823,-4.951,-5.991
-0.0,949992113.6225947,2.3438978195,1905.4607179632462,3684.6818914786804,-0.194,-1.814,-5.12,-6.185
-0.0,949992113.6225947,2.3439061642,2558.585886905645,3566.1532304264047,-0.106,-1.707,-5.483,-6.6
-0.0,949992113.6225947,2.3439166546,3443.4993076333844,3450.6427620182526,0.098,-1.445,-5.853,-7.018
-0.0,949992113.6225947,2.3439290524,4246.19563946313,3371.3201787284347,0.314,-1.169,-6.115,-7.312
-0.0,949992113.6225947,2.3439438343,4742.419852602448,3330.427623087463,0.462,-0.984,-6.253,-7.466
-0.0,949992113.6225947,2.3439612389,4965.923214503363,3313.599377790872,0.523,-0.908,-6.31,-7.531
-0.0,949992113.6225947,2.3439807892,5069.907082747044,3306.739627988452,0.552,-0.87,-6.337,-7.56
-0.0,949992113.6225947,2.3439810276,4255.984131337431,3372.096543265998,0.307,-1.178,-6.117,-7.314
-0.0,949992113.6225947,2.3439824581,3303.6954103681487,3470.5635400798756,0.042,-1.516,-5.798,-6.956
-0.0,949992113.6225947,2.3439853191,2094.1124558508936,3654.264677506526,-0.199,-1.82,-5.235,-6.313
-0.0,949992113.6225947,2.3439898491,1857.8044550916989,3704.2475302995863,-0.224,-1.847,-5.086,-6.143
-0.0,949992113.6225947,2.3439958096,2123.2444620002193,3648.379442958715,-0.196,-1.817,-5.252,-6.332
-0.0,949992113.6225947,2.3440039158,2824.8799749157074,3531.83169791957,-0.072,-1.662,-5.603,-6.735
-0.0,949992113.6225947,2.3440139294,3749.730022454834,3419.0070790206964,0.173,-1.349,-5.959,-7.137
-0.0,949992113.6225947,2.3440260887,4581.418867145335,3341.950400261143,0.422,-1.035,-6.209,-7.418
-0.0,949992113.6225947,2.3440403938,5081.594425605605,3302.1743526707673,0.583,-0.831,-6.339,-7.565
-0.0,949992113.6225947,2.3440568447,5296.634438916581,3285.4888677097247,0.662,-0.728,-6.392,-7.625
-0.0,949992113.6225947,2.3440759182,5395.1062251512785,3277.932453002282,0.697,-0.682,-6.416,-7.652
-0.0,949992113.6225947,2.3440761566,4709.77326396953,3330.427623087463,0.468,-0.978,-6.244,-7.457
-0.0,949992113.6225947,2.3440775871,3639.1503612720708,3430.8363277495027,0.144,-1.387,-5.921,-7.094
-0.0,949992113.6225947,2.3440799713,2328.091257665008,3613.2665452345186,-0.175,-1.792,-5.363,-6.459
-0.0,949992113.6225947,2.3440840244,2055.8905959841427,3665.219597323419,-0.214,-1.837,-5.211,-6.284
-0.0,949992113.6225947,2.3440895081,2344.228815319923,3609.940135864167,-0.171,-1.787,-5.373,-6.471
-0.0,949992113.6225947,2.344096899,3090.295432513592,3496.2300400270183,-0.006,-1.578,-5.714,-6.861
-0.0,949992113.6225947,2.3441059589,4055.085354483839,3386.881485634765,0.266,-1.232,-6.058,-7.249
-0.0,949992113.6225947,2.3441169262,4909.078761526029,3311.311214825911,0.548,-0.88,-6.299,-7.52
-0.0,949992113.6225947,2.3441298008,5420.008904016238,3272.6533057537135,0.735,-0.635,-6.423,-7.661
-0.0,949992113.6225947,2.3441448212,5649.369748123023,3256.1169870485296,0.815,-0.529,-6.475,-7.72
-0.0,949992113.6225947,2.3441619873,5767.664633922509,3248.6281257920155,0.854,-0.478,-6.499,-7.748
-0.0,949992113.6225947,2.3441622257,5199.959965335162,3287.7591870669708,0.665,-0.728,-6.37,-7.601
-0.0,949992113.6225947,2.3441634178,4008.6671762730302,3390.002355756172,0.258,-1.242,-6.044,-7.234
-0.0,949992113.6225947,2.344165802,2582.260190634596,3571.083458083457,-0.131,-1.737,-5.491,-6.606
-0.0,949992113.6225947,2.3441696167,2275.0974307720717,3625.7679024119648,-0.193,-1.814,-5.334,-6.424
-0.0,949992113.6225947,2.3441748619,2582.260190634596,3571.083458083457,-0.131,-1.737,-5.492,-6.607
-0.0,949992113.6225947,2.344181776,3365.115693754908,3460.9872548535277,0.071,-1.481,-5.822,-6.983
-0.0,949992113.6225947,2.3441903591,4365.158322401661,3355.057749988978,0.388,-1.08,-6.152,-7.355
-0.0,949992113.6225947,2.3442008495,5223.9618899911975,3283.2201160919944,0.693,-0.692,-6.379,-7.613
-0.0,949992113.6225947,2.3442130089,5741.164622073275,3246.384827880331,0.872,-0.457,-6.496,-7.745
-0.0,949992113.6225947,2.344227314,5956.621435290103,3231.4690444798844,0.943,-0.365,-6.542,-7.798
-0.0,949992113.6225947,2.3442435265,6053.408747539136,3224.779319316378,0.971,-0.328,-6.562,-7.82
-0.0,949992113.6225947,2.3442437649,5636.376558259543,3252.370400952974,0.847,-0.491,-6.473,-7.72
-0.0,949992113.6225947,2.344244957,4345.102241715715,3355.8303695328004,0.389,-1.08,-6.146,-7.349
-0.0,949992113.6225947,2.3442473412,2818.382931264455,3535.0861336199705,-0.082,-1.675,-5.599,-6.73
-0.0,949992113.6225947,2.3442511559,2477.4220576332864,3590.872623694513,-0.157,-1.769,-5.438,-6.544
-0.0,949992113.6225947,2.3442561626,2805.433637951713,3536.7144758575937,-0.084,-1.679,-5.595,-6.725
-0.0,949992113.6225947,2.3442630768,3622.4299841669877,3429.2567329756016,0.158,-1.371,-5.917,-7.091
-0.0,949992113.6225947,2.3442714214,4655.860935229591,3325.8296441911734,0.506,-0.935,-6.235,-7.45
-0.0,949992113.6225947,2.3442816734,5546.25712957911,3256.1169870485296,0.833,-0.51,-6.454,-7.699
-0.0,949992113.6225947,2.3442935944,6067.363295885053,3220.3271981675407,1.002,-0.29,-6.567,-7.827
-0.0,949992113.6225947,2.3443076611,6295.061828571975,3204.7931228494,1.074,-0.198,-6.613,-7.879
-0.0,949992113.6225947,2.3443236351,6397.348354826482,3198.1586216666074,1.11,-0.151,-6.635,-7.904
-0.0,949992113.6225947,2.3443238735,6151.7687270986835,3212.9206511412604,1.04,-0.242,-6.586,-7.848
-0.0,949992113.6225947,2.3443250656,4731.512589614803,3317.416496945389,0.546,-0.887,-6.257,-7.476
-0.0,949992113.6225947,2.344326973,3097.419299216581,3495.425095985996,-0.0,-1.573,-5.718,-6.865
-0.0,949992113.6225947,2.3443303108,2710.1916318908416,3552.2211848231955,-0.112,-1.714,-5.55,-6.673
-0.0,949992113.6225947,2.3443350792,3061.963433690679,3498.6459845201675,-0.008,-1.583,-5.705,-6.85
-0.0,949992113.6225947,2.3443410397,3917.4187710778306,3394.6890538007865,0.259,-1.244,-6.017,-7.205
-0.0,949992113.6225947,2.3443484306,4977.37084978936,3294.579562412821,0.655,-0.747,-6.321,-7.55
-0.0,949992113.6225947,2.344357729,5874.893525297769,3227.750819048055,0.982,-0.319,-6.529,-7.786
-0.0,949992113.6225947,2.3443684578,6397.348354826482,3193.007951074664,1.145,-0.108,-6.637,-7.908
-0.0,949992113.6225947,2.3443808556,6622.165037017622,3178.3374121462216,1.221,-0.012,-6.681,-7.958
-0.0,949992113.6225947,2.3443951607,6714.288529259523,3171.027438947892,1.261,0.039,-6.7,-7.981
-0.0,949992113.6225947,2.3443953991,6652.731562017413,3174.6803215678747,1.241,0.013,-6.687,-7.965
-0.0,949992113.6225947,2.3443963528,5116.818355403078,3280.1975507699003,0.734,-0.645,-6.356,-7.591
-0.0,949992113.6225947,2.3443984985,3365.115693754908,3456.209025701263,0.095,-1.456,-5.825,-6.988
-0.0,949992113.6225947,2.3444018364,2937.6496519615307,3515.6044052829798,-0.037,-1.622,-5.653,-6.791
-0.0,949992113.6225947,2.3444063663,3311.311214825911,3463.378846082793,0.077,-1.479,-5.805,-6.965
-0.0,949992113.6225947,2.3444123268,4197.589839910078,3362.017734543793,0.386,-1.088,-6.107,-7.307
-0.0,949992113.6225947,2.3444197178,5284.452517751803,3265.8783217233567,0.81,-0.547,-6.398,-7.639
-0.0,949992113.6225947,2.3444285393,6180.164001384158,3201.842758202777,1.115,-0.15,-6.596,-7.864
-0.0,949992113.6225947,2.3444392681,6698.846094165266,3168.8377271814975,1.28,0.061,-6.697,-7.978
-0.0,949992113.6225947,2.3444514275,6902.398038402419,3155.7311736800216,1.342,0.138,-6.737,-8.024
-0.0,949992113.6225947,2.3444654942,6998.419960022738,3149.923452784473,1.366,0.167,-6.754,-8.043
-0.0,949992113.6225947,2.3444657326,7128.530301265198,3142.678829879227,1.394,0.201,-6.776,-8.067
-0.0,949992113.6225947,2.3444666862,5470.159628939716,3249.376236187617,0.897,-0.435,-6.443,-7.691
-0.0,949992113.6225947,2.3444685936,3630.780547701014,3423.733876264524,0.187,-1.34,-5.921,-7.097
-0.0,949992113.6225947,2.344471693,3162.2776601683795,3484.9776724044846,0.028,-1.541,-5.744,-6.896
-0.0,949992113.6225947,2.3444757462,3556.3131856898544,3432.416650121203,0.163,-1.37,-5.895,-7.067
-0.0,949992113.6225947,2.3444812298,4477.133041763624,3333.496473327569,0.503,-0.944,-6.188,-7.4
-0.0,949992113.6225947,2.3444879055,5584.701947368307,3239.664224348446,0.948,-0.37,-6.468,-7.72
-0.0,949992113.6225947,2.3444962502,6486.344335482381,3177.6056571612876,1.246,0.014,-6.659,-7.936
-0.0,949992113.6225947,2.3445060253,6998.419960022738,3145.5746774318936,1.392,0.197,-6.756,-8.046
-0.0,949992113.6225947,2.344517231,7227.698036021702,3132.5643416709277,1.447,0.264,-6.796,-8.091
-0.0,949992113.6225947,2.3445301056,7328.245331389045,3125.35964361334,1.476,0.298,-6.814,-8.112
-0.0,949992113.6225947,2.344530344,7620.790100254122,3108.8516598805636,1.546,0.382,-6.865,-8.17
-0.0,949992113.6225947,2.3445312977,5861.3816451402845,3216.6217928790406,1.063,-0.223,-6.532,-7.794
-0.0,949992113.6225947,2.3445329666,3908.4089579240213,3389.221868727554,0.292,-1.209,-6.017,-7.207
-0.0,949992113.6225947,2.3445358276,3396.2527259040853,3451.437393358561,0.114,-1.435,-5.836,-7.001
-0.0,949992113.6225947,2.3445396423,3810.65823393773,3400.1650580407095,0.262,-1.248,-5.984,-7.17
-0.0,949992113.6225947,2.3445448875,4753.352259428054,3302.934793960337,0.643,-0.772,-6.268,-7.493
-0.0,949992113.6225947,2.3445513248,5874.893525297769,3212.9206511412604,1.085,-0.196,-6.537,-7.799
-0.0,949992113.6225947,2.3445589542,6792.036326171843,3152.825975955186,1.379,0.179,-6.719,-8.007
-0.0,949992113.6225947,2.3445682526,7294.575102545687,3121.763510848167,1.505,0.33,-6.811,-8.111
-0.0,949992113.6225947,2.344578743,7516.228940182053,3108.8516598805636,1.562,0.399,-6.848,-8.153
-0.0,949992113.6225947,2.3445909023,7603.262769401815,3102.4157748720872,1.593,0.436,-6.864,-8.171
-0.0,949992113.6225947,2.3445911407,8072.350302488382,3077.513735907868,1.675,0.518,-6.941,-8.258
-0.0,949992113.6225947,2.3445920944,6208.690342300638,3184.9307947187244,1.232,-0.01,-6.608,-7.882
-0.0,949992113.6225947,2.3445937634,4168.693834703355,3356.603166999334,0.431,-1.038,-6.1,-7.303
-0.0,949992113.6225947,2.3445966244,3605.7864302164235,3420.581952567498,0.214,-1.311,-5.915,-7.092
-0.0,949992113.6225947,2.3446004391,4036.4539296760486,3368.992157414906,0.384,-1.098,-6.061,-7.259
-0.0,949992113.6225947,2.3446056843,5011.872336272725,3274.1607653757505,0.805,-0.564,-6.336,-7.573
-0.0,949992113.6225947,2.3446121216,6137.620051647939,3185.664236573113,1.236,-0.006,-6.596,-7.87
-0.0,949992113.6225947,2.344619751,7046.930689671467,3127.519311407983,1.502,0.324,-6.771,-8.068
-0.0,949992113.6225947,2.3446290493,7550.922276654342,3097.419299216581,1.632,0.48,-6.858,-8.168
-0.0,949992113.6225947,2.3446395397,7744.617978025183,3084.6081377571413,1.68,0.53,-6.892,-8.207
-0.0,949992113.6225947,2.3446516991,7834.29642766212,3078.2224412226315,1.699,0.544,-6.906,-8.223
-0.0,949992113.6225947,2.3446519375,8472.274141405964,3045.7903053734226,1.775,0.596,-7.008,-8.336
-0.0,949992113.6225947,2.3446526527,6516.283940608428,3154.278240344361,1.408,0.208,-6.675,-7.962
-0.0,949992113.6225947,2.3446543217,4395.416154378243,3324.298395649131,0.58,-0.859,-6.173,-7.389
-0.0,949992113.6225947,2.3446569443,3793.1498497368207,3390.002355756172,0.32,-1.182,-5.985,-7.174
-0.0,949992113.6225947,2.3446605206,4246.19563946313,3338.8737672512307,0.524,-0.929,-6.13,-7.34
-0.0,949992113.6225947,2.3446652889,5236.0043658575005,3244.8901566053664,0.975,-0.349,-6.398,-7.648
-0.0,949992113.6225947,2.3446712494,6397.348354826482,3158.6390484234703,1.399,0.195,-6.651,-7.936
-0.0,949992113.6225947,2.3446784019,7294.575102545687,3100.9873885323427,1.639,0.484,-6.82,-8.128
-0.0,949992113.6225947,2.344686985,7798.3011052325855,3071.8499642344627,1.733,0.574,-6.906,-8.225
-0.0,949992113.6225947,2.3446967602,8016.78063387679,3058.4402465105513,1.768,0.6,-6.94,-8.263
-0.0,949992113.6225947,2.3447079659,8090.958991783821,3051.4060291410433,1.79,0.617,-6.955,-8.281
-0.0,949992113.6225947,2.3447082043,8912.509381337459,3011.6188030788244,1.88,0.674,-7.077,-8.417
-0.0,949992113.6225947,2.3447089195,6854.882264526614,3121.044780985781,1.57,0.399,-6.744,-8.044
-0.0,949992113.6225947,2.3447105885,4645.152752227492,3290.031075247056,0.764,-0.629,-6.248,-7.479
-0.0,949992113.6225947,2.3447132111,4008.6671762730302,3356.603166999334,0.47,-1.001,-6.057,-7.26
-0.0,949992113.6225947,2.3447167873,4477.133041763624,3305.217168699801,0.689,-0.728,-6.2,-7.424
-0.0,949992113.6225947,2.3447215557,5495.408738576249,3213.660538640318,1.15,-0.13,-6.462,-7.725
-0.0,949992113.6225947,2.3447275162,6652.731562017413,3128.959918963571,1.548,0.371,-6.709,-8.005
-0.0,949992113.6225947,2.3447346687,7568.328950209744,3072.557365267445,1.758,0.6,-6.873,-8.191
-0.0,949992113.6225947,2.3447430134,8072.350302488382,3043.6870744812113,1.831,0.652,-6.955,-8.284
-0.0,949992113.6225947,2.3447527885,8279.421637123345,3030.4002977883647,1.868,0.679,-6.988,-8.322
-0.0,949992113.6225947,2.3447639942,8375.292821268826,3023.430570511337,1.892,0.697,-7.003,-8.339
-0.0,949992113.6225947,2.3447642326,9354.05674147552,2977.8306796291185,1.972,0.738,-7.144,-8.494
-0.0,949992113.6225947,2.3447649479,7194.489780036998,3086.73964568386,1.743,0.596,-6.812,-8.125
-0.0,949992113.6225947,2.3447666168,4897.7881936844615,3253.8685178010755,0.979,-0.358,-6.321,-7.567
-0.0,949992113.6225947,2.344769001,4216.965034285822,3322.0028446165034,0.643,-0.793,-6.128,-7.345
-0.0,949992113.6225947,2.3447725773,4698.941086052156,3270.3934175663962,0.897,-0.466,-6.269,-7.508
-0.0,949992113.6225947,2.3447771072,5741.164622073275,3179.8014276915274,1.348,0.117,-6.526,-7.802
-0.0,949992113.6225947,2.3447825909,6918.309709189362,3096.7061741707726,1.719,0.569,-6.765,-8.075
-0.0,949992113.6225947,2.344789505,7834.29642766212,3041.585295947742,1.868,0.689,-6.924,-8.253
-0.0,949992113.6225947,2.3447976112,8336.81184619634,3013.006024186122,1.94,0.738,-7.004,-8.343
-0.0,949992113.6225947,2.3448069096,8550.667128846831,2999.8531811907933,1.969,0.756,-7.035,-8.378
-0.0,949992113.6225947,2.3448176384,8629.785477669702,2991.575721530859,1.991,0.771,-7.05,-8.395
-0.0,949992113.6225947,2.3448178768,9772.372209558112,2939.6796094924184,2.076,0.811,-7.208,-8.569
-0.0,949992113.6225947,2.3448185921,7533.55563733717,3049.2989203838,1.872,0.699,-6.877,-8.203
-0.0,949992113.6225947,2.3448200226,5152.286445817567,3215.8812236044914,1.201,-0.08,-6.391,-7.652
-0.0,949992113.6225947,2.3448224068,4415.704473533126,3284.7324430306794,0.86,-0.524,-6.195,-7.428
-0.0,949992113.6225947,2.3448257446,4920.395356814511,3232.9575336809407,1.128,-0.176,-6.335,-7.59
-0.0,949992113.6225947,2.3448300362,5997.910762555094,3142.678829879227,1.563,0.375,-6.588,-7.879
-0.0,949992113.6225947,2.3448355198,7177.942912713615,3060.5536720536616,1.863,0.699,-6.821,-8.143
-0.0,949992113.6225947,2.3448421955,8109.610578538404,3006.076302628232,1.994,0.788,-6.975,-8.316
-0.0,949992113.6225947,2.3448498249,8609.937521846008,2976.459653637275,2.054,0.823,-7.053,-8.403
-0.0,949992113.6225947,2.3448588848,8810.488730080138,2962.1019360527644,2.09,0.847,-7.084,-8.439
-0.0,949992113.6225947,2.3448691368,8892.011178579482,2953.2485540555085,2.119,0.867,-7.099,-8.457
-0.0,949992113.6225947,2.3448693752,10209.394837076808,2895.3428647598066,2.2,0.905,-7.273,-8.647
-0.0,949992113.6225947,2.3448700905,7870.457896950985,3004.692272040942,2.027,0.822,-6.944,-8.285
-0.0,949992113.6225947,2.344871521,5407.5432294558095,3170.297366952724,1.482,0.266,-6.463,-7.743
-0.0,949992113.6225947,2.3448739052,4623.810213992603,3240.4102704918173,1.142,-0.172,-6.264,-7.516
-0.0,949992113.6225947,2.3448770046,5152.286445817567,3188.5996933863867,1.393,0.151,-6.403,-7.676
-0.0,949992113.6225947,2.3448810577,6237.348354824191,3100.2734419981916,1.8,0.651,-6.651,-7.959
-0.0,949992113.6225947,2.3448863029,7447.319739059889,3019.9517204020162,2.022,0.829,-6.877,-8.215
-0.0,949992113.6225947,2.3448927402,8375.292821268826,2966.880130021004,2.123,0.884,-7.027,-8.38
-0.0,949992113.6225947,2.3449001312,8871.560120379609,2939.002801171145,2.176,0.914,-7.101,-8.463
-0.0,949992113.6225947,2.3449087143,9057.326008981998,2925.499309897072,2.203,0.932,-7.131,-8.496
-0.0,949992113.6225947,2.3449187279,9141.132414702499,2916.755328939502,2.227,0.95,-7.145,-8.513
-0.0,949992113.6225947,2.3449189663,10641.430182243164,2854.9598169004084,2.296,0.988,-7.335,-8.718
-0.0,949992113.6225947,2.3449196815,8203.515443298185,2962.1019360527644,2.166,0.922,-7.007,-8.362
-0.0,949992113.6225947,2.3449211121,5649.369748123023,3121.763510848167,1.761,0.593,-6.534,-7.833
-0.0,949992113.6225947,2.3449232578,4830.5880203977285,3189.333980133178,1.454,0.211,-6.333,-7.606
-0.0,949992113.6225947,2.3449263573,5382.697825162882,3139.7856482728203,1.695,0.511,-6.472,-7.764
-0.0,949992113.6225947,2.3449304104,6501.296903430909,3056.3282803659663,1.99,0.825,-6.713,-8.037
-0.0,949992113.6225947,2.3449354172,7709.034690644301,2982.634245778771,2.147,0.921,-6.932,-8.28
-0.0,949992113.6225947,2.3449413776,8629.785477669702,2935.621096191421,2.225,0.958,-7.075,-8.438
-0.0,949992113.6225947,2.3449485302,9141.132414702499,2912.7284648349846,2.26,0.975,-7.146,-8.515
-0.0,949992113.6225947,2.3449568748,9332.543007969914,2903.3540555153136,2.281,0.985,-7.174,-8.547
-0.0,949992113.6225947,2.3449664116,9440.608762859236,2898.6781710077653,2.29,0.99,-7.187,-8.561
-0.0,949992113.6225947,2.34496665,11091.748152624008,2839.880070698581,2.328,1.004,-7.389,-8.778
-0.0,949992113.6225947,2.3449671268,8570.378452303692,2934.269503955967,2.25,0.979,-7.067,-8.43
-0.0,949992113.6225947,2.3449680805,5929.2532458,3076.805193759751,1.996,0.844,-6.604,-7.921
-0.0,949992113.6225947,2.344969511,5058.246620031143,3143.4025417390094,1.744,0.555,-6.402,-7.694
-0.0,949992113.6225947,2.3449718952,5623.413251903491,3103.844819159537,1.9,0.745,-6.535,-7.842
-0.0,949992113.6225947,2.3449747562,6760.829753919818,3031.098153584047,2.089,0.9,-6.767,-8.101
-0.0,949992113.6225947,2.3449783325,7979.946872679769,2964.8313895243423,2.206,0.957,-6.978,-8.333
-0.0,949992113.6225947,2.3449826241,8912.509381337459,2922.8060659319312,2.258,0.976,-7.116,-8.482
-0.0,949992113.6225947,2.3449876308,9418.895965228417,2905.3603143031482,2.273,0.976,-7.182,-8.555
-0.0,949992113.6225947,2.3449935913,9616.122783836649,2905.3603143031482,2.255,0.955,-7.206,-8.578
-0.0,949992113.6225947,2.3450005054,9705.099672454899,2916.755328939502,2.212,0.917,-7.212,-8.581
-0.0,949992113.6225947,2.3450007439,11508.003889444357,2834.653633489668,0.009,-2.413,-7.07,-8.626
-0.0,949992113.6225947,2.3450012207,8892.011178579482,2964.1487904584055,-0.152,-2.441,-6.773,-8.274
-0.0,949992113.6225947,2.3450021744,6165.9500186148225,3160.8217127583484,-0.376,-2.486,-6.369,-7.757
-0.0,949992113.6225947,2.3450036049,5248.074602497728,3259.8678890446836,-0.49,-2.52,-6.195,-7.517
-0.0,949992113.6225947,2.3450057507,5834.451042737448,3216.6217928790406,-0.475,-2.543,-6.309,-7.659
-0.0,949992113.6225947,2.3450086117,6982.324040771711,3136.172916512987,-0.424,-2.564,-6.509,-7.91
-0.0,949992113.6225947,2.3450119495,8222.426499470712,3069.021988391158,-0.385,-2.591,-6.694,-8.135
-0.0,949992113.6225947,2.3450162411,9162.204901220002,3037.3860919461044,-0.391,-2.631,-6.812,-8.272
-0.0,949992113.6225947,2.3450212479,9638.290236239705,3039.484968770113,-0.444,-2.687,-6.869,-8.327
-0.0,949992113.6225947,2.3450269699,9840.111057611335,3065.490679425787,-0.535,-2.762,-6.892,-8.333
-0.0,949992113.6225947,2.3450336456,9908.319448927676,3104.5595881283557,-0.655,-2.854,-6.9,-8.316
-0.0,949992113.6225947,2.3450336456,11857.687481671597,2999.16251898765,-0.512,-2.805,-7.096,-8.573
-0.0,949992113.6225947,2.3450341225,9162.204901220002,3152.1000945192795,-0.716,-2.871,-6.809,-8.196
-0.0,949992113.6225947,2.3450350761,6382.634861905489,3379.8700286198914,-0.981,-2.95,-6.415,-7.65
-0.0,949992113.6225947,2.3450367451,5420.008904016238,3484.175319018589,-1.075,-2.968,-6.238,-7.404
-0.0,949992113.6225947,2.3450386524,6011.737374832779,3408.7880601025868,-1.002,-2.946,-6.352,-7.567
-0.0,949992113.6225947,2.3450415134,7194.489780036998,3285.4888677097247,-0.852,-2.893,-6.544,-7.843
-0.0,949992113.6225947,2.3450448513,8433.347577642757,3175.411402891837,-0.704,-2.835,-6.717,-8.09
-0.0,949992113.6225947,2.3450489044,9354.05674147552,3099.559659837377,-0.587,-2.785,-6.837,-8.257
-0.0,949992113.6225947,2.3450536728,9840.111057611335,3054.2177726121445,-0.503,-2.739,-6.893,-8.341
-0.0,949992113.6225947,2.3450591564,10023.052380779005,3024.126821283228,-0.433,-2.693,-6.913,-8.379
-0.0,949992113.6225947,2.3450655937,10092.528860766834,2996.4014599344437,-0.359,-2.639,-6.918,-8.4
-0.0,949992113.6225947,2.3450655937,12161.86000646368,2888.0186935140546,-0.201,-2.587,-7.132,-8.665
-0.0,949992113.6225947,2.3450660706,9418.895965228417,3034.5898438888025,-0.407,-2.653,-6.844,-8.305
-0.0,949992113.6225947,2.3450670242,6576.578373554205,3250.872973854344,-0.676,-2.732,-6.443,-7.768
-0.0,949992113.6225947,2.3450684547,5584.701947368307,3347.341331292356,-0.771,-2.751,-6.267,-7.526
-0.0,949992113.6225947,2.3450703621,6194.410750767812,3265.126412019571,-0.655,-2.698,-6.378,-7.693
-0.0,949992113.6225947,2.3450729847,7379.042301291008,3135.4508691442925,-0.469,-2.616,-6.57,-7.971
-0.0,949992113.6225947,2.3450763226,8629.785477669702,3016.4768731622175,-0.276,-2.526,-6.746,-8.219
-0.0,949992113.6225947,2.3450801373,9549.92586021436,2928.8693550290154,-0.108,-2.435,-6.856,-8.373
-0.0,949992113.6225947,2.3450849056,10023.052380779005,2866.1571574642016,0.037,-2.347,-6.918,-8.463
-0.0,949992113.6225947,2.3450901508,10209.394837076808,2814.4918798121453,0.181,-2.249,-6.94,-8.505
-0.0,949992113.6225947,2.3450963497,10280.162981264724,2761.213575949454,0.326,-2.144,-6.948,-8.519
-0.0,949992113.6225947,2.3450963497,12502.590302177214,2658.887730705083,0.468,-2.113,-7.181,-8.769
-0.0,949992113.6225947,2.3450968266,9682.778562612497,2794.473528597117,0.285,-2.155,-6.881,-8.448
-0.0,949992113.6225947,2.3450977802,6776.41507610675,2997.091486307045,0.004,-2.237,-6.475,-7.963
-0.0,949992113.6225947,2.3450992107,5741.164622073275,3097.419299216581,-0.132,-2.283,-6.292,-7.722
-0.0,949992113.6225947,2.3451011181,6367.955209079156,3039.484968770113,-0.06,-2.265,-6.408,-7.872
-0.0,949992113.6225947,2.3451035023,7568.328950209744,2941.710969752718,0.065,-2.228,-6.596,-8.111
-0.0,949992113.6225947,2.3451066017,8830.799004185632,2856.932634583698,0.181,-2.199,-6.777,-8.328
-0.0,949992113.6225947,2.3451104164,9749.896377173867,2805.433637951713,0.25,-2.183,-6.888,-8.455
-0.0,949992113.6225947,2.3451149464,10232.929922807536,2782.915373852606,0.272,-2.183,-6.942,-8.51
-0.0,949992113.6225947,2.3451199532,10399.2016582906,2777.154235884665,0.272,-2.189,-6.961,-8.53
-0.0,949992113.6225947,2.3451259136,10471.285480508985,2778.4334572025496,0.264,-2.197,-6.969,-8.537
-0.0,949992113.6225947,2.3451259136,12823.305826560205,2664.4035277248977,0.435,-2.146,-7.21,-8.797
-0.0,949992113.6225947,2.3451263905,9931.160484209335,2807.3722323436496,0.229,-2.205,-6.911,-8.476
-0.0,949992113.6225947,2.3451273441,6982.324040771711,3018.5613014197993,-0.082,-2.313,-6.51,-7.985
-0.0,949992113.6225947,2.3451285362,5915.616341754737,3119.60781764676,-0.217,-2.357,-6.324,-7.738
-0.0,949992113.6225947,2.3451304436,6546.361740672747,3047.193266663114,-0.105,-2.309,-6.439,-7.898
-0.0,949992113.6225947,2.3451328278,7762.4711662869195,2931.568186062337,0.076,-2.23,-6.626,-8.145
-0.0,949992113.6225947,2.3451359272,9015.711376059571,2828.7853879701315,0.253,-2.155,-6.803,-8.364
-0.0,949992113.6225947,2.3451395035,9931.160484209335,2757.401452346361,0.372,-2.101,-6.911,-8.482
-0.0,949992113.6225947,2.345143795,10423.174293933036,2713.9384876415893,0.472,-2.047,-6.971,-8.556
-0.0,949992113.6225947,2.3451488018,10592.537251772897,2683.490115967991,0.552,-1.997,-6.997,-8.587
-0.0,949992113.6225947,2.3451545238,10665.961212302567,2656.4399320300045,0.621,-1.949,-7.007,-8.596
-0.0,949992113.6225947,2.3451545238,13152.248321922376,2539.2180698867146,0.586,-2.051,-7.249,-8.837
-0.0,949992113.6225947,2.3451550007,10209.394837076808,2679.1683248190316,0.597,-1.951,-6.955,-8.546
-0.0,949992113.6225947,2.3451559544,7177.942912713615,2885.359954579744,0.287,-2.053,-6.548,-8.09
-0.0,949992113.6225947,2.3451571465,6067.363295885053,2984.695288301337,0.147,-2.097,-6.354,-7.849
-0.0,949992113.6225947,2.3451588154,6729.766562843175,2910.717118066605,0.27,-2.042,-6.471,-8.001
-0.0,949992113.6225947,2.3451611996,7961.593504173184,2795.76072758083,0.465,-1.958,-6.664,-8.233
-0.0,949992113.6225947,2.3451640606,9225.71427154763,2694.014941063669,0.648,-1.88,-6.841,-8.433
-0.0,949992113.6225947,2.3451676369,10139.1138573668,2621.8026615104413,0.76,-1.833,-6.955,-8.543
-0.0,949992113.6225947,2.34517169,10592.537251772897,2574.542111926454,0.776,-1.84,-7.01,-8.6
-0.0,949992113.6225947,2.3451764584,10789.467222298297,2539.2180698867146,0.775,-1.849,-7.03,-8.62
-0.0,949992113.6225947,2.345181942,10839.269140212038,2504.9554127725546,0.783,-1.849,-7.039,-8.627
-0.0,949992113.6225947,2.345181942,13458.60354055947,2390.011551484727,0.562,-2.076,-7.275,-8.863
-0.0,949992113.6225947,2.3451824188,10471.285480508985,2523.4807724805755,0.808,-1.816,-6.997,-8.587
-0.0,949992113.6225947,2.3451831341,7379.042301291008,2720.1947619843772,0.764,-1.719,-6.59,-8.174
-0.0,949992113.6225947,2.3451843262,6237.348354824191,2819.0319626364717,0.625,-1.759,-6.391,-7.958
-0.0,949992113.6225947,2.3451859951,6902.398038402419,2752.9606261551385,0.72,-1.725,-6.508,-8.084
-0.0,949992113.6225947,2.3451881409,8147.042840208396,2649.7200988789637,0.886,-1.667,-6.709,-8.299
-0.0,949992113.6225947,2.3451910019,9397.233105646375,2560.353906004206,0.892,-1.718,-6.879,-8.47
-0.0,949992113.6225947,2.3451941013,10303.861204416158,2500.345361696432,0.834,-1.796,-6.983,-8.572
-0.0,949992113.6225947,2.3451981544,10764.65213629835,2465.471576061104,0.802,-1.835,-7.033,-8.621
-0.0,949992113.6225947,2.345202446,10964.78196143185,2443.9932381496833,0.785,-1.852,-7.05,-8.638
-0.0,949992113.6225947,2.3452076912,11015.393095414145,2426.0514117825314,0.779,-1.859,-7.057,-8.645
-0.0,949992113.6225947,2.3452076912,13772.094688939473,2308.341183710067,0.537,-2.1,-7.299,-8.887
-0.0,949992113.6225947,2.345208168,10715.193052376071,2440.057159428208,0.81,-1.828,-7.026,-8.614
-0.0,949992113.6225947,2.3452088833,7585.775750291836,2633.2979436755145,1.004,-1.559,-6.633,-8.222
-0.0,949992113.6225947,2.3452100754,6397.348354826482,2732.121443878487,0.864,-1.598,-6.429,-8.011
-0.0,949992113.6225947,2.3452117443,7063.175542629623,2666.8586645214805,0.973,-1.557,-6.552,-8.144
-0.0,949992113.6225947,2.3452138901,8317.63771102671,2565.665297034867,1.009,-1.593,-6.744,-8.335
-0.0,949992113.6225947,2.3452167511,9594.006315159337,2477.9925708234186,0.917,-1.714,-6.905,-8.493
-0.0,949992113.6225947,2.3452198505,10495.42428652322,2419.9143783392165,0.832,-1.805,-7.004,-8.592
-0.0,949992113.6225947,2.3452239037,10964.78196143185,2386.7119083399743,0.786,-1.852,-7.05,-8.638
-0.0,949992113.6225947,2.3452281952,11117.317272815919,2367.5545815176833,0.769,-1.869,-7.068,-8.656
-0.0,949992113.6225947,2.3452334404,11194.378834671525,2353.423035234756,0.762,-1.876,-7.074,-8.662
-0.0,949992113.6225947,2.3452334404,14092.887984218747,2228.435149270303,0.513,-2.125,-7.324,-8.912
-0.0,949992113.6225947,2.3452339172,10964.78196143185,2363.1973991540162,0.785,-1.853,-7.052,-8.64
-0.0,949992113.6225947,2.3452346325,7780.365510398041,2559.7644305989975,1.084,-1.519,-6.672,-8.263
-0.0,949992113.6225947,2.3452358246,6561.452663029057,2661.950651151836,1.071,-1.464,-6.471,-8.062
-0.0,949992113.6225947,2.3452374935,7244.359600749898,2594.179362118815,1.139,-1.454,-6.592,-8.184
-0.0,949992113.6225947,2.3452394009,8511.380382023768,2490.0037433881985,1.037,-1.59,-6.774,-8.363
-0.0,949992113.6225947,2.3452422619,9772.372209558112,2401.0433435693208,0.909,-1.728,-6.927,-8.515
-0.0,949992113.6225947,2.3452453613,10665.961212302567,2343.149506594071,0.814,-1.824,-7.023,-8.611
-0.0,949992113.6225947,2.345249176,11117.317272815919,2312.064790175594,0.769,-1.869,-7.068,-8.656
-0.0,949992113.6225947,2.3452534676,11297.959146727977,2296.677416751609,0.752,-1.886,-7.085,-8.673
-0.0,949992113.6225947,2.3452584743,11376.27285823431,2288.2317115750116,0.745,-1.892,-7.091,-8.679
-0.0,949992113.6225947,2.3452584743,14421.153515248681,2156.254406807191,0.488,-2.149,-7.348,-8.936
-0.0,949992113.6225947,2.3452589512,11220.18454301963,2288.758657062362,0.759,-1.878,-7.077,-8.665
-0.0,949992113.6225947,2.3452596664,7979.946872679769,2480.275937692957,1.121,-1.513,-6.707,-8.295
-0.0,949992113.6225947,2.3452606201,6714.288529259523,2575.134990410314,1.242,-1.36,-6.511,-8.103
-0.0,949992113.6225947,2.345262289,7413.102413009177,2491.724371253899,1.186,-1.441,-6.624,-8.213
-0.0,949992113.6225947,2.3452641964,8669.61875758217,2371.373705661655,1.039,-1.598,-6.797,-8.385
-0.0,949992113.6225947,2.345266819,9931.160484209335,2266.2092088956742,0.893,-1.745,-6.944,-8.532
-0.0,949992113.6225947,2.3452699184,10789.467222298297,2194.3201946290037,0.801,-1.836,-7.035,-8.623
-0.0,949992113.6225947,2.3452734947,11220.18454301963,2153.277488110985,0.759,-1.879,-7.077,-8.665
-0.0,949992113.6225947,2.3452775478,11376.27285823431,2135.010425127228,0.745,-1.893,-7.092,-8.68
-0.0,949992113.6225947,2.3452823162,11428.783347897712,2134.518877403093,0.741,-1.897,-7.096,-8.684
-0.0,949992113.6225947,2.3452823162,14588.142602753474,1988.8407051736501,0.476,-2.162,-7.361,-8.949
-0.0,949992113.6225947,2.345282793,11376.27285823431,2129.6096202155113,0.746,-1.892,-7.091,-8.679
-0.0,949992113.6225947,2.3452835083,8109.610578538404,2334.532906903994,1.112,-1.526,-6.725,-8.313
-0.0,949992113.6225947,2.345284462,6807.693586937417,2438.3722096838287,1.301,-1.336,-6.534,-8.122
-0.0,949992113.6225947,2.3452858925,7516.228940182053,2350.173906091388,1.195,-1.442,-6.641,-8.229
-0.0,949992113.6225947,2.3452877998,8770.008211436349,2226.896332353404,1.028,-1.61,-6.808,-8.396
-0.0,949992113.6225947,2.345290184,10000.0,2126.6694872358285,0.885,-1.752,-6.951,-8.539
-0.0,949992113.6225947,2.345293045,10839.269140212038,2068.235555931765,0.797,-1.841,-7.04,-8.628
-0.0,949992113.6225947,2.3452963829,11246.049739669268,2052.106991451269,0.756,-1.881,-7.08,-8.668
-0.0,949992113.6225947,2.345300436,11402.497875611696,2073.480712904681,0.743,-1.894,-7.093,-8.681
-0.0,949992113.6225947,2.345304966,11428.783347897712,2132.5538179462005,0.74,-1.898,-7.096,-8.684
-0.0,949992113.6225947,2.345304966,14689.262776438662,1970.1532072167602,0.467,-2.17,-7.369,-8.957
-0.0,949992113.6225947,2.3453054428,11481.536214968817,2126.6694872358285,0.735,-1.902,-7.101,-8.689
-0.0,949992113.6225947,2.3453059196,8222.426499470712,2356.1340739338475,1.098,-1.539,-6.738,-8.326
-0.0,949992113.6225947,2.3453068733,6886.522963442762,2482.5614085898933,1.29,-1.348,-6.546,-8.134
-0.0,949992113.6225947,2.3453083038,7585.775750291836,2403.255804933243,1.184,-1.453,-6.652,-8.24
-0.0,949992113.6225947,2.3453102112,8830.799004185632,2296.677416751609,1.02,-1.618,-6.817,-8.405
-0.0,949992113.6225947,2.3453123569,10046.157902783947,2226.3836295529077,0.88,-1.757,-6.956,-8.544
-0.0,949992113.6225947,2.345315218,10864.256236170644,2215.64409631286,0.794,-1.843,-7.042,-8.63
-0.0,949992113.6225947,2.3453183174,11271.974561755094,2269.8648518838213,0.755,-1.883,-7.081,-8.669
-0.0,949992113.6225947,2.3453221321,11402.497875611696,2393.3157564053877,0.742,-1.895,-7.094,-8.682
-0.0,949992113.6225947,2.3453264236,11428.783347897712,2603.7542989387357,0.732,-1.903,-7.097,-8.684
