FeH,Age,Mini,L,Te,Bmag,Vmag,Jmag,Kmag
-0.4,200000001.99681082,0.0899999961,0.001188502227437019,2713.3136521506985,17.879,16.047,10.015,9.198
-0.4,200000001.99681082,0.0961545929,0.0013365955165464418,2755.4973646268027,17.537,15.733,9.905,9.083
-0.4,200000001.99681082,0.0992661342,0.001415793779957081,2777.7937729057107,17.361,15.57,9.85,9.026
-0.4,200000001.99681082,0.1066089794,0.001614358556826487,2826.8320070020036,16.982,15.218,9.728,8.899
-0.4,200000001.99681082,0.1160182953,0.001892343618644976,2890.6798823654744,16.511,14.772,9.581,8.746
-0.4,200000001.99681082,0.1177984104,0.0019498445997580456,2902.685610499054,16.427,14.693,9.554,8.719
-0.4,200000001.99681082,0.1240531951,0.002133044913146577,2936.2971257566924,16.184,14.465,9.468,8.632
-0.4,200000001.99681082,0.136330694,0.002552701302661247,3001.9261222416912,15.721,14.028,9.3,8.462
-0.4,200000001.99681082,0.1425822526,0.002760577856220345,3029.0050681662174,15.529,13.846,9.225,8.387
-0.4,200000001.99681082,0.1548629701,0.0032136605386403182,3081.0588948997392,15.161,13.494,9.08,8.241
-0.4,200000001.99681082,0.1587499827,0.003357376142429545,3093.855315451652,15.067,13.404,9.039,8.201
-0.4,200000001.99681082,0.1801214963,0.00424619563946313,3164.462838835526,14.579,12.946,8.809,7.972
-0.4,200000001.99681082,0.1919275075,0.004830588020397728,3200.368594586517,14.328,12.709,8.682,7.845
-0.4,200000001.99681082,0.2382582128,0.007328245331389044,3311.311214825911,13.569,11.99,8.271,7.436
-0.4,200000001.99681082,0.2571700513,0.008375292821268827,3348.1121738605384,13.337,11.775,8.138,7.304
-0.4,200000001.99681082,0.2845888734,0.009954054173515275,3397.0348320337944,13.038,11.496,7.967,7.134
-0.4,200000001.99681082,0.3153433204,0.012189895989248667,3452.2322076905675,12.703,11.185,7.766,6.933
-0.4,200000001.99681082,0.3309195936,0.013427649611378635,3478.5640153042373,12.545,11.037,7.668,6.835
-0.4,200000001.99681082,0.377250284,0.018879913490962935,3566.1532304264047,12.011,10.539,7.329,6.495
-0.4,200000001.99681082,0.4235809743,0.02606153549998895,3674.5147919993988,11.476,10.039,7.016,6.179
-0.4,200000001.99681082,0.4276130199,0.026915348039269153,3686.3791409739756,11.424,9.99,6.987,6.15
-0.4,200000001.99681082,0.4699116945,0.036812897364253146,3801.0186455476655,10.914,9.518,6.684,5.848
-0.4,200000001.99681082,0.5018028021,0.0460256573581356,3894.933077036545,10.543,9.178,6.471,5.637
-0.4,200000001.99681082,0.5162423849,0.051404365158242614,3944.573020752785,10.361,9.015,6.366,5.535
-0.4,200000001.99681082,0.5625730157,0.07413102413009177,4153.364054890737,9.706,8.449,6.023,5.21
-0.4,200000001.99681082,0.5956385136,0.09616122783836649,4327.130568849061,9.206,8.036,5.782,4.999
-0.4,200000001.99681082,0.6089037657,0.10641430182243161,4395.416154378243,9.007,7.873,5.691,4.924
-0.4,200000001.99681082,0.6552344561,0.15031419660900225,4659.078201101275,8.297,7.303,5.389,4.7
-0.4,200000001.99681082,0.6904823184,0.19364219639466074,4857.356732878539,7.822,6.911,5.173,4.549
-0.4,200000001.99681082,0.7015650868,0.20892961308540392,4922.661804443356,7.684,6.797,5.111,4.507
-0.4,200000001.99681082,0.7514939904,0.28840315031266056,5205.950088015483,7.126,6.333,4.849,4.326
-0.4,200000001.99681082,0.8014228344,0.3890451449942806,5452.554309382917,6.659,5.939,4.604,4.142
-0.4,200000001.99681082,0.8645036817,0.5559042572704036,5733.238386538407,6.142,5.5,4.312,3.91
-0.4,200000001.99681082,0.8874232173,0.6309573444801932,5827.7377479636825,5.967,5.351,4.209,3.825
-0.4,200000001.99681082,0.8988066912,0.6668067692136221,5876.246425275582,5.889,5.286,4.166,3.791
-0.4,200000001.99681082,0.9012805223,0.674528027697922,5885.725452612013,5.871,5.272,4.157,3.784
-0.4,200000001.99681082,0.9031056762,0.6823386941416696,5892.505546643294,5.858,5.26,4.148,3.776
-0.4,200000001.99681082,0.911926806,0.7161434102129021,5923.794715877255,5.791,5.203,4.105,3.739
-0.4,200000001.99681082,0.9255189896,0.7655966069112563,5974.478464258169,5.699,5.125,4.051,3.695
-0.4,200000001.99681082,0.9512093663,0.8669618757582166,6070.158063410441,5.529,4.983,3.952,3.614
-0.4,200000001.99681082,1.0011382103,1.1066237839776663,6238.784722719976,5.208,4.709,3.749,3.44
-0.4,200000001.99681082,1.0053286552,1.1297959146727978,6253.166606822608,5.182,4.686,3.732,3.424
-0.4,200000001.99681082,1.0510671139,1.4028137045619582,6397.348354826482,4.904,4.444,3.548,3.263
-0.4,200000001.99681082,1.1009960175,1.7498466886246569,6553.9028583347745,4.623,4.199,3.362,3.1
-0.4,200000001.99681082,1.1340414286,2.0137242498623884,6658.861776861276,4.444,4.042,3.245,2.999
-0.4,200000001.99681082,1.1509248018,2.1577444091526665,6711.197196984211,4.355,3.964,3.187,2.948
-0.4,200000001.99681082,1.2008537054,2.6302679918953817,6873.8491959032335,4.104,3.744,3.028,2.812
-0.4,200000001.99681082,1.2189002037,2.8183829312644537,6940.647689943377,4.016,3.667,2.975,2.768
-0.4,200000001.99681082,1.2507824898,3.169567463043491,7055.048440506529,3.863,3.534,2.884,2.692
-0.4,200000001.99681082,1.3007112741,3.7844258471709327,7267.750338103239,3.631,3.334,2.76,2.595
-0.4,200000001.99681082,1.3017536402,3.8018939632056115,7272.772456558234,3.626,3.33,2.758,2.593
-0.4,200000001.99681082,1.3506404161,4.487453899331322,7524.887301735844,3.405,3.144,2.659,2.523
-0.4,200000001.99681082,1.3807379007,4.943106869868354,7693.075595060678,3.274,3.035,2.606,2.488
-0.4,200000001.99681082,1.4005692005,5.2722986142282275,7803.689841784654,3.19,2.965,2.572,2.465
-0.4,200000001.99681082,1.4504979849,6.165950018614822,8085.371885255472,2.986,2.797,2.491,2.41
-0.4,200000001.99681082,1.4718075991,6.576578373554204,8201.626731515516,2.904,2.73,2.459,2.387
-0.4,200000001.99681082,1.5004268885,7.177942912713617,8359.879162611805,2.797,2.645,2.416,2.357
-0.4,200000001.99681082,1.5503555536,8.279421637123342,8625.812229534791,2.628,2.51,2.347,2.304
-0.4,200000001.99681082,1.6002845764,9.506047936562814,8881.77976319248,2.48,2.391,2.281,2.251
-0.4,200000001.99681082,1.6502133608,10.864256236170656,9126.410517675107,2.349,2.282,2.216,2.197
-0.4,200000001.99681082,1.6764962673,11.614486138403427,9246.98173938223,2.285,2.23,2.182,2.169
-0.4,200000001.99681082,1.7001422644,12.33104833228909,9356.210840627022,2.23,2.183,2.152,2.143
-0.4,200000001.99681082,1.7500711679,13.931568029453029,9571.94071294844,2.12,2.09,2.087,2.086
-0.4,200000001.99681082,1.7999999523,15.667510701081493,9776.873589674216,2.017,2.001,2.022,2.029
-0.4,200000001.99681082,1.8474507332,17.458221529205037,9960.932565980786,1.924,1.919,1.961,1.973
-0.4,200000001.99681082,1.8642852306,18.113400926196025,10023.052380779005,1.892,1.891,1.939,1.953
-0.4,200000001.99681082,1.8949013948,19.408858775927783,10136.779508886484,1.834,1.841,1.899,1.916
-0.4,200000001.99681082,1.9423522949,21.527817347243726,10308.607400626268,1.748,1.764,1.839,1.86
-0.4,200000001.99681082,1.9898030758,23.76840286624876,10476.108796203616,1.665,1.689,1.778,1.804
-0.4,200000001.99681082,1.9936271906,23.9883291901949,10490.592077764457,1.658,1.683,1.773,1.8
-0.4,200000001.99681082,2.0372538567,26.302679918953814,10641.430182243164,1.584,1.616,1.718,1.748
-0.4,200000001.99681082,2.0847046375,28.973435877013227,10804.383723712297,1.505,1.544,1.658,1.692
-0.4,200000001.99681082,2.1321556568,31.84197521726124,10959.733655238053,1.427,1.472,1.597,1.635
-0.4,200000001.99681082,2.1796064377,34.99451670283573,11112.198737687342,1.352,1.402,1.538,1.579
-0.4,200000001.99681082,2.1835746765,35.23708710424871,11124.999496564447,1.345,1.397,1.533,1.574
-0.4,200000001.99681082,2.2270572186,38.37072454922788,11264.190846286354,1.277,1.333,1.478,1.522
-0.4,200000001.99681082,2.274507761,41.97589839910075,11407.750129221204,1.203,1.264,1.419,1.465
-0.4,200000001.99681082,2.2803454399,42.46195639463128,11426.152076228898,1.195,1.256,1.411,1.458
-0.4,200000001.99681082,2.3219587803,45.91980128368685,11550.479136828499,1.131,1.196,1.359,1.408
-0.4,200000001.99681082,2.3694093227,50.11872336272722,11686.91808421924,1.059,1.128,1.299,1.351
-0.4,200000001.99681082,2.4517970085,58.21032177708713,11920.651731327465,0.938,1.013,1.198,1.254
-0.4,200000001.99681082,2.5592126846,70.46930689671471,12209.559622961062,0.781,0.863,1.063,1.124
-0.4,200000001.99681082,2.6438779831,81.65823713585922,12422.24241293733,0.657,0.743,0.954,1.019
-0.4,200000001.99681082,2.7490158081,97.94899854086991,12664.848528539205,0.501,0.594,0.816,0.885
-0.4,200000001.99681082,2.7622630596,100.23052380778994,12694.044019618035,0.482,0.575,0.799,0.868
-0.4,200000001.99681082,2.8523795605,116.6809617060963,12870.635762533337,0.345,0.442,0.675,0.746
-0.4,200000001.99681082,2.9333586693,133.96766874259345,13007.684661395384,0.218,0.318,0.556,0.63
-0.4,200000001.99681082,2.93881917,135.20725631942764,13016.673155792632,0.209,0.309,0.548,0.622
-0.4,200000001.99681082,2.9797618389,144.87718535447618,13076.755389202208,0.144,0.246,0.487,0.562
-0.4,200000001.99681082,3.0488736629,162.9296032639723,13164.367570556056,0.031,0.135,0.381,0.456
-0.4,200000001.99681082,3.1121046543,181.5515662773135,13228.177080099353,-0.075,0.031,0.279,0.355
-0.4,200000001.99681082,3.1286220551,186.63796908346694,13234.27028367405,-0.105,0.001,0.249,0.326
-0.4,200000001.99681082,3.1924495697,207.9696687103696,13252.566739590982,-0.221,-0.114,0.135,0.212
-0.4,200000001.99681082,3.2589964867,233.3458062281002,13240.366293918927,-0.349,-0.241,0.007,0.084
-0.4,200000001.99681082,3.3184256554,258.82129151530904,13197.75311707115,-0.47,-0.362,-0.116,-0.04
-0.4,200000001.99681082,3.3608593941,279.2543841237339,13134.090365327345,-0.563,-0.455,-0.212,-0.137
-0.4,200000001.99681082,3.4184675217,309.7419299216581,13001.695780332899,-0.699,-0.592,-0.356,-0.283
-0.4,200000001.99681082,3.4699304104,339.62527259040854,12841.034121716337,-0.828,-0.723,-0.495,-0.424
-0.4,200000001.99681082,3.5082285404,364.75394692560764,12656.102982063649,-0.939,-0.836,-0.618,-0.549
-0.4,200000001.99681082,3.5093688965,365.59479161312504,12650.275973072668,-0.942,-0.84,-0.621,-0.553
-0.4,200000001.99681082,3.5463132858,391.74187710778307,12442.280846809936,-1.055,-0.955,-0.747,-0.682
-0.4,200000001.99681082,3.5807032585,417.83036664662177,12223.624492787327,-1.165,-1.068,-0.872,-0.81
-0.4,200000001.99681082,3.6071257591,441.57044735331255,12039.265722160064,-1.259,-1.164,-0.978,-0.919
-0.4,200000001.99681082,3.6368105412,473.15125896148027,11890.496789850973,-1.36,-1.267,-1.09,-1.034
-0.4,200000001.99681082,3.652282238,503.50060878790475,12201.128470319318,-1.375,-1.276,-1.082,-1.021
-0.4,200000001.99681082,3.6558930874,519.9959965335162,12479.580878702829,-1.359,-1.257,-1.048,-0.982
-0.4,200000001.99681082,3.6575212479,537.0317963702527,12773.208461131482,-1.341,-1.234,-1.011,-0.941
-0.4,200000001.99681082,3.6583750248,555.9042572704037,13070.734707217076,-1.327,-1.215,-0.978,-0.904
-0.4,200000001.99681082,3.6588721275,576.7664633922509,13350.575895623706,-1.319,-1.203,-0.953,-0.875
-0.4,200000001.99681082,3.6592402458,597.0352865838366,13608.178583624549,-1.313,-1.193,-0.932,-0.85
-0.4,200000001.99681082,3.6592960358,599.7910762555094,13645.831365889238,-1.311,-1.191,-0.928,-0.846
-0.4,200000001.99681082,3.6595160961,553.3501092157366,13310.672559803745,-1.279,-1.164,-0.916,-0.838
-0.4,200000001.99681082,3.659630537,534.5643593969719,13028.667477561592,-1.292,-1.181,-0.945,-0.872
-0.4,200000001.99681082,3.6597731113,532.1082592667942,12685.278312575732,-1.346,-1.24,-1.021,-0.952
-0.4,200000001.99681082,3.6599318981,544.5026528424214,12356.62878792735,-1.432,-1.331,-1.129,-1.065
-0.4,200000001.99681082,3.660112381,563.6376558259543,12033.722711826847,-1.528,-1.431,-1.246,-1.188
-0.4,200000001.99681082,3.6603090763,579.428696426881,11713.859212800262,-1.615,-1.524,-1.357,-1.304
-0.4,200000001.99681082,3.6605169773,590.2010801718442,11405.12370007243,-1.692,-1.606,-1.458,-1.41
-0.4,200000001.99681082,3.6607344151,598.4115950603199,11099.412707748237,-1.76,-1.68,-1.552,-1.51
-0.4,200000001.99681082,3.6609575748,602.5595860743575,10804.383723712297,-1.823,-1.749,-1.641,-1.605
-0.4,200000001.99681082,3.6611831188,605.3408747539136,10514.775390081819,-1.88,-1.812,-1.725,-1.696
-0.4,200000001.99681082,3.6614077091,606.7363295885053,10230.573974866691,-1.932,-1.871,-1.807,-1.785
-0.4,200000001.99681082,3.6616289616,606.7363295885053,9954.054173515275,-1.979,-1.926,-1.885,-1.871
-0.4,200000001.99681082,3.6618437767,603.94862937638,9682.778562612497,-2.02,-1.977,-1.962,-1.955
-0.4,200000001.99681082,3.6620509624,601.1737374832779,9418.895965228417,-2.056,-2.023,-2.036,-2.039
-0.4,200000001.99681082,3.6622495651,597.0352865838366,9160.09546844429,-2.086,-2.065,-2.109,-2.121
-0.4,200000001.99681082,3.6624379158,592.9253245799999,8908.405964008209,-2.107,-2.102,-2.18,-2.202
-0.4,200000001.99681082,3.6626164913,587.4893525297769,8663.632065076616,-2.119,-2.132,-2.249,-2.282
-0.4,200000001.99681082,3.6627848148,580.7644175213118,8425.583753398265,-2.119,-2.154,-2.315,-2.361
-0.4,200000001.99681082,3.6629431248,574.1164622073275,8192.189693228678,-2.107,-2.166,-2.379,-2.439
-0.4,200000001.99681082,3.6630916595,567.5446054085471,7963.426939899095,-2.083,-2.17,-2.44,-2.517
-0.4,200000001.99681082,3.6632311344,559.7576014951104,7742.834919124594,-2.047,-2.166,-2.499,-2.594
-0.4,200000001.99681082,3.6633620262,550.8076964054036,7526.620170564824,-1.996,-2.155,-2.557,-2.672
-0.4,200000001.99681082,3.6634848118,543.250331492433,7316.443109490725,-1.937,-2.139,-2.612,-2.749
-0.4,200000001.99681082,3.6636002064,534.5643593969719,7110.497695423427,-1.871,-2.116,-2.666,-2.827
-0.4,200000001.99681082,3.6637084484,524.8074602497728,6910.349294049405,-1.802,-2.089,-2.716,-2.903
-0.4,200000001.99681082,3.6638104916,515.2286445817567,6715.83472933331,-1.728,-2.058,-2.764,-2.978
-0.4,200000001.99681082,3.6639070511,505.82466200311427,6525.29274119251,-1.649,-2.023,-2.809,-3.052
-0.4,200000001.99681082,3.663998127,496.59232145033627,6340.1568195658365,-1.562,-1.984,-2.852,-3.124
-0.4,200000001.99681082,3.6640849113,486.4072056914614,6161.692202002784,-1.47,-1.941,-2.891,-3.195
-0.4,200000001.99681082,3.6641685963,476.4309868054156,5993.768983266384,-1.374,-1.896,-2.925,-3.262
-0.4,200000001.99681082,3.6642563343,464.5152752227492,5831.764797316426,-1.267,-1.843,-2.956,-3.328
-0.4,200000001.99681082,3.6643543243,449.77985489328796,5678.060295486644,-1.157,-1.782,-2.974,-3.379
-0.4,200000001.99681082,3.6644749641,430.5266104917105,5533.501092157366,-1.034,-1.705,-2.974,-3.414
-0.4,200000001.99681082,3.6645972729,410.2041029866068,5422.505485172428,-0.919,-1.627,-2.956,-3.422
-0.4,200000001.99681082,3.6647408009,386.36697705406937,5314.959995066477,-0.79,-1.537,-2.927,-3.419
-0.4,200000001.99681082,3.664899826,365.59479161312504,5208.348068742078,-0.662,-1.448,-2.901,-3.421
-0.4,200000001.99681082,3.6650702953,353.9973410834346,5100.350239594463,-0.552,-1.378,-2.9,-3.448
-0.4,200000001.99681082,3.6651208401,357.27283815192885,5069.907082747044,-0.542,-1.38,-2.92,-3.476
-0.4,200000001.99681082,3.6652815342,380.1893963205613,4977.37084978936,-0.538,-1.414,-3.015,-3.597
-0.4,200000001.99681082,3.6654033661,407.3802778041126,4913.6022729909155,-0.561,-1.466,-3.112,-3.712
-0.4,200000001.99681082,3.665525198,441.57044735331255,4858.475309374926,-0.601,-1.53,-3.217,-3.834
-0.4,200000001.99681082,3.6656491756,475.3352259428054,4815.041116556669,-0.643,-1.591,-3.31,-3.94
-0.4,200000001.99681082,3.6658697128,526.0172663907063,4761.019935823142,-0.694,-1.677,-3.435,-4.079
-0.4,200000001.99681082,3.6659641266,544.5026528424214,4742.419852602448,-0.711,-1.706,-3.478,-4.127
-0.4,200000001.99681082,3.6660277843,554.625712957911,4732.602186090037,-0.721,-1.723,-3.502,-4.154
-0.4,200000001.99681082,3.666040659,557.1857489319299,4730.423243999551,-0.723,-1.727,-3.507,-4.16
-0.4,200000001.99681082,3.6663634777,609.5368972401693,4687.05446301803,-0.769,-1.804,-3.618,-4.281
-0.4,200000001.99681082,3.666686058,663.7430704019089,4647.292416762036,-0.814,-1.878,-3.722,-4.397
-0.4,200000001.99681082,3.6670086384,722.7698036021702,4609.990177075899,-0.859,-1.95,-3.824,-4.509
-0.4,200000001.99681082,3.6673309803,785.2356346100718,4575.093773298477,-0.906,-2.024,-3.926,-4.621
-0.4,200000001.99681082,3.6676535606,855.0667128846832,4541.507126325547,-0.952,-2.096,-4.026,-4.731
-0.4,200000001.99681082,3.6679756641,928.9663867799363,4509.205208756537,-1.0,-2.169,-4.125,-4.84
-0.4,200000001.99681082,3.6682980061,1009.2528860766844,4479.195312542835,-1.048,-2.242,-4.224,-4.948
-0.4,200000001.99681082,3.6686201096,1096.4781961431852,4449.385139745807,-1.096,-2.314,-4.322,-5.055
-0.4,200000001.99681082,3.6690454483,1183.0415557251647,4421.809210742687,-1.139,-2.376,-4.412,-5.156
-0.4,200000001.99681082,3.6696043015,1258.9254117941675,4400.479478359837,-1.173,-2.425,-4.483,-5.235
-0.4,200000001.99681082,3.6710991859,1233.1048332289097,4409.608164506378,-1.164,-2.41,-4.459,-5.208
-0.4,200000001.99681082,3.6766850948,1142.8783347897713,4443.242331287159,-1.13,-2.354,-4.368,-5.103
-0.4,200000001.99681082,3.6808671951,1059.2537251772887,4475.071720476557,-1.094,-2.294,-4.278,-5.002
-0.4,200000001.99681082,3.6839942932,984.0111057611335,4506.091435730975,-1.056,-2.232,-4.19,-4.905
-0.4,200000001.99681082,3.686830759,914.1132414702499,4537.326169379414,-1.016,-2.169,-4.1,-4.805
-0.4,200000001.99681082,3.6896173954,845.27884516029,4570.881896148751,-0.976,-2.104,-4.008,-4.703
-0.4,200000001.99681082,3.6924002171,783.429642766212,4603.625637759879,-0.935,-2.037,-3.914,-4.599
-0.4,200000001.99681082,3.6950910091,727.7798045368243,4637.671681240619,-0.897,-1.974,-3.825,-4.501
-0.4,200000001.99681082,3.6980316639,676.0829753919819,4673.045396315099,-0.86,-1.911,-3.734,-4.4
-0.4,200000001.99681082,3.7004950047,638.263486190549,4701.105526734309,-0.832,-1.863,-3.665,-4.323
-0.4,200000001.99681082,3.705299139,586.1381645140285,4751.163763775616,-0.796,-1.793,-3.557,-4.201
-0.4,200000001.99681082,3.7121839523,545.757861091271,4816.14994840047,-0.786,-1.745,-3.46,-4.087
-0.4,200000001.99681082,3.7182333469,532.1082592667942,4870.796664925371,-0.809,-1.738,-3.416,-4.028
-0.4,200000001.99681082,3.7321274281,629.5061828571975,5122.712702645385,-1.187,-2.016,-3.523,-4.061
-0.4,200000001.99681082,3.7386944294,680.7693586937418,5274.727156616845,-1.374,-2.146,-3.559,-4.057
-0.4,200000001.99681082,3.742661953,711.2135136533288,5325.985748490616,-1.455,-2.208,-3.591,-4.076
-0.4,200000001.99681082,3.7464675903,746.448758410067,5406.298239953035,-1.556,-2.279,-3.615,-4.081
-0.4,200000001.99681082,3.7492756844,770.90346906443,5492.878591960475,-1.644,-2.335,-3.622,-4.068
-0.4,200000001.99681082,3.7517952919,790.6786279998254,5606.60551647698,-1.736,-2.387,-3.613,-4.031
-0.4,200000001.99681082,3.7538921833,807.2350302488383,5713.470640013352,-1.815,-2.429,-3.598,-3.992
-0.4,200000001.99681082,3.7559671402,820.3515443298185,5815.6732771851475,-1.885,-2.465,-3.581,-3.953
-0.4,200000001.99681082,3.7581591606,833.681184619634,5915.616341754737,-1.951,-2.498,-3.564,-3.914
-0.4,200000001.99681082,3.7625191212,853.1001140175895,6035.315805032603,-2.037,-2.542,-3.546,-3.87
-0.4,200000001.99681082,3.7642629147,859.013521505396,6056.1970872775855,-2.054,-2.553,-3.546,-3.866
-0.4,200000001.99681082,3.7722411156,877.0008211436349,5986.872372480598,-2.044,-2.566,-3.593,-3.928
-0.4,200000001.99681082,3.7996640205,954.992586021436,5892.505546643294,-2.089,-2.644,-3.721,-4.076
-0.4,200000001.99681082,3.8078508377,970.5099672454899,5776.968506969277,-2.052,-2.644,-3.778,-4.157
-0.4,200000001.99681082,3.8132889271,977.2372209558112,5655.877570891539,-1.994,-2.629,-3.827,-4.232
-0.4,200000001.99681082,3.8174986839,979.4899854086991,5538.599982773566,-1.928,-2.606,-3.868,-4.301
-0.4,200000001.99681082,3.8213436604,977.2372209558112,5413.772478826865,-1.849,-2.575,-3.908,-4.37
-0.4,200000001.99681082,3.825458765,966.0508789898131,5268.657896973707,-1.743,-2.526,-3.944,-4.442
-0.4,200000001.99681082,3.8289885521,946.237161365793,5136.886854227248,-1.626,-2.463,-3.963,-4.494
-0.4,200000001.99681082,3.8324306011,912.0108393559096,5016.490567732232,-1.495,-2.383,-3.961,-4.525
-0.4,200000001.99681082,3.8347597122,870.9635899560806,4913.6022729909155,-1.363,-2.294,-3.944,-4.538
-0.4,200000001.99681082,3.8369600773,845.27884516029,4810.608341479539,-1.235,-2.217,-3.94,-4.564
-0.4,200000001.99681082,3.838996172,866.9618757582169,4693.534343171951,-1.139,-2.198,-4.002,-4.657
-0.4,200000001.99681082,3.8395130634,918.332596483581,4631.268924918746,-1.13,-2.229,-4.082,-4.754
-0.4,200000001.99681082,3.839546442,924.698173938223,4624.875008224019,-1.131,-2.234,-4.092,-4.766
-0.4,200000001.99681082,3.8396606445,1004.6157902783947,4578.255227916937,-1.163,-2.3,-4.195,-4.884
-0.4,200000001.99681082,3.8397469521,1083.9269140212039,4541.507126325547,-1.199,-2.361,-4.287,-4.987
-0.4,200000001.99681082,3.8399372101,1124.6049739669268,4528.975799036209,-1.22,-2.393,-4.33,-5.034
-0.4,200000001.99681082,3.8401296139,1106.6237839776663,4535.237134514455,-1.211,-2.38,-4.311,-5.013
-0.4,200000001.99681082,3.840681076,1158.7773561551262,4508.167045414601,-1.226,-2.412,-4.367,-5.078
-0.4,200000001.99681082,3.8409376144,1267.6518658578461,4466.835921509631,-1.269,-2.485,-4.477,-5.202
-0.4,200000001.99681082,3.8413295746,1419.0575216890927,4418.755787887183,-1.321,-2.569,-4.611,-5.354
-0.4,200000001.99681082,3.8417506218,1555.965631605075,4380.261111703606,-1.365,-2.639,-4.72,-5.479
-0.4,200000001.99681082,3.842266798,1702.15850839495,4344.101860128392,-1.409,-2.708,-4.829,-5.602
-0.4,200000001.99681082,3.8428332806,1866.3796908346694,4307.249209819747,-1.452,-2.776,-4.937,-5.726
-0.4,200000001.99681082,3.8434000015,2046.444636724674,4270.709194407456,-1.495,-2.843,-5.046,-5.849
-0.4,200000001.99681082,3.8439407349,2243.881923782766,4236.429660495409,-1.536,-2.91,-5.153,-5.972
-0.4,200000001.99681082,3.8444428444,2460.3676041476274,4201.457743989054,-1.576,-2.975,-5.261,-6.096
-0.4,200000001.99681082,3.8449029922,2697.7394324449206,4165.815197379616,-1.615,-3.04,-5.369,-6.219
-0.4,200000001.99681082,3.8453214169,2958.0124665515464,4131.426206427586,-1.649,-3.101,-5.476,-6.343
-0.4,200000001.99681082,3.8456995487,3235.936569296281,4098.264649809825,-1.682,-3.161,-5.583,-6.465
-0.4,200000001.99681082,3.8460438251,3548.133892335753,4065.3692697573383,-1.713,-3.22,-5.689,-6.586
-0.4,200000001.99681082,3.8463616371,3872.576449216173,4031.809464434654,-1.741,-3.274,-5.793,-6.706
-0.4,200000001.99681082,3.8466587067,4236.429660495409,4000.3685104612505,-1.77,-3.329,-5.897,-6.826
-0.4,200000001.99681082,3.8469347954,4634.46919736288,3968.2589095091143,-1.796,-3.382,-6.0,-6.945
-0.4,200000001.99681082,3.8471906185,5058.246620031143,3936.4070414309936,-1.82,-3.431,-6.102,-7.064
-0.4,200000001.99681082,3.8474276066,5520.774392807573,3905.710056937564,-1.842,-3.479,-6.203,-7.181
-0.4,200000001.99681082,3.8476483822,6011.737374832779,3874.3602472800194,-1.861,-3.522,-6.303,-7.297
-0.4,200000001.99681082,3.8478555679,6561.452663029057,3843.2620719095157,-1.877,-3.562,-6.403,-7.413
-0.4,200000001.99681082,3.8480498791,7128.530301265198,3811.5357714484903,-1.885,-3.597,-6.503,-7.529
-0.4,200000001.99681082,3.8482329845,7744.617978025183,3780.941866832965,-1.889,-3.622,-6.6,-7.642
-0.4,200000001.99681082,3.8484077454,8413.951416451948,3749.730022454834,-1.888,-3.643,-6.697,-7.755
-0.4,200000001.99681082,3.8485760689,9141.132414702499,3717.9196520448604,-1.885,-3.661,-6.794,-7.868
-0.4,200000001.99681082,3.8487374783,9931.160484209335,3683.8335597906507,-1.867,-3.659,-6.894,-7.984
-0.4,200000001.99681082,3.8488943577,10814.339512979375,3645.8601019727603,-1.841,-3.649,-6.998,-8.108
-0.4,200000001.99681082,3.8490555286,11912.420080273738,3603.296501281602,-1.801,-3.618,-7.115,-8.245
-0.4,200000001.99681082,3.849183321,12912.192736135336,3568.617492834813,-1.761,-3.582,-7.214,-8.361
-0.4,200000001.99681082,3.8493077755,13995.873225726178,3532.645025855673,-1.71,-3.529,-7.312,-8.477
-0.4,200000001.99681082,3.8494250774,15100.801541641493,3497.0351694345923,-1.642,-3.454,-7.407,-8.587
-0.4,200000001.99681082,3.8495471478,16106.4563517827,3464.974158289286,-1.57,-3.374,-7.489,-8.684
-0.4,200000001.99681082,3.8497486115,16368.165214278102,3447.4660657314944,-1.503,-3.295,-7.513,-8.715
-0.4,200000001.99681082,3.8497982025,14757.065332758932,3488.188934073285,-1.583,-3.391,-7.386,-8.57
-0.4,200000001.99681082,3.8498158455,13121.998990192042,3537.5289282243193,-1.664,-3.483,-7.242,-8.404
-0.4,200000001.99681082,3.8498249054,11748.975549395303,3583.43886814277,-1.715,-3.532,-7.105,-8.245
-0.4,200000001.99681082,3.8498313427,11091.748152624008,3606.6167888195973,-1.737,-3.551,-7.035,-8.164
-0.4,200000001.99681082,3.8498396873,11194.378834671525,3602.466907114875,-1.733,-3.547,-7.046,-8.177
-0.4,200000001.99681082,3.8498487473,11939.88104464273,3576.0205018090237,-1.708,-3.525,-7.126,-8.269
-0.4,200000001.99681082,3.8498563766,12647.363474711523,3552.2211848231955,-1.684,-3.505,-7.196,-8.351
-0.4,200000001.99681082,3.8498682976,13335.21432163324,3531.018557237582,-1.653,-3.47,-7.259,-8.424
-0.4,200000001.99681082,3.849886179,13551.89412351035,3522.897439914557,-1.639,-3.454,-7.28,-8.448
-0.4,200000001.99681082,3.8498942852,13995.873225726178,3509.1343835855246,-1.616,-3.428,-7.321,-8.496
-0.4,200000001.99681082,3.8499052525,14655.478409559128,3489.7956743787454,-1.581,-3.389,-7.377,-8.561
-0.4,200000001.99681082,3.8499166965,15240.527537972906,3472.1621617221945,-1.548,-3.353,-7.427,-8.619
-0.4,200000001.99681082,3.8499243259,15240.527537972906,3472.1621617221945,-1.548,-3.353,-7.427,-8.619
-0.4,200000001.99681082,3.8499252796,20137.242498623895,3358.1492958644226,-1.241,-2.968,-7.776,-9.016
-0.4,200000001.99681082,3.8499248028,20989.398836235243,3341.1809763304277,-1.182,-2.891,-7.83,-9.076
-0.4,200000001.99681082,3.8499259949,17906.058540352948,3404.865806080549,-1.387,-3.154,-7.629,-8.849
-0.4,200000001.99681082,3.8499279022,13489.628825916532,3522.086356184678,-1.632,-3.447,-7.277,-8.446
-0.4,200000001.99681082,3.8499307632,12217.99660164871,3564.5113342624427,-1.691,-3.51,-7.154,-8.303
-0.4,200000001.99681082,3.8499350548,13520.72563194278,3520.4647488942164,-1.628,-3.442,-7.28,-8.45
-0.4,200000001.99681082,3.8499405384,14689.262776438662,3485.7802105603496,-1.567,-3.374,-7.381,-8.567
-0.4,200000001.99681082,3.849947691,15488.166189124828,3463.378846082793,-1.523,-3.324,-7.447,-8.643
-0.4,200000001.99681082,3.8499565125,15995.580286146678,3449.0540481442044,-1.488,-3.281,-7.488,-8.689
-0.4,200000001.99681082,3.8499672413,16368.165214278102,3438.7452222912716,-1.461,-3.247,-7.517,-8.723
-0.4,200000001.99681082,3.8499798775,16749.42876026438,3428.467208333132,-1.433,-3.213,-7.545,-8.756
-0.4,200000001.99681082,3.8499798775,26915.348039269138,3238.918349968776,-0.717,-2.267,-8.149,-9.432
-0.4,200000001.99681082,3.8499805927,23067.471887200714,3299.1343378886454,-1.007,-2.664,-7.951,-9.213
-0.4,200000001.99681082,3.8499817848,19633.602768360473,3362.791956867804,-1.246,-2.977,-7.748,-8.985
-0.4,200000001.99681082,3.8499839306,14791.083881682072,3478.5640153042373,-1.546,-3.35,-7.392,-8.581
-0.4,200000001.99681082,3.84998703,13335.21432163324,3522.086356184678,-1.619,-3.433,-7.264,-8.434
-0.4,200000001.99681082,3.8499917984,14723.125024327193,3480.166322150038,-1.547,-3.352,-7.387,-8.575
-0.4,200000001.99681082,3.8499977589,15922.0872705117,3447.4660657314944,-1.477,-3.268,-7.483,-8.685
-0.4,200000001.99681082,3.8500056267,16672.472125510645,3427.6778654645045,-1.428,-3.207,-7.542,-8.752
-0.4,200000001.99681082,3.8500154018,17100.15315090286,3417.4329305629954,-1.4,-3.173,-7.573,-8.788
-0.4,200000001.99681082,3.8500270844,17338.039977541375,3410.3582265334926,-1.382,-3.151,-7.592,-8.81
-0.4,200000001.99681082,3.850041151,17538.805018417603,3404.865806080549,-1.366,-3.131,-7.607,-8.828
-0.4,200000001.99681082,3.850041151,28248.799749157046,3215.8812236044914,-0.604,-2.114,-8.214,-9.504
-0.4,200000001.99681082,3.8500418663,24210.2904673618,3275.668919368471,-0.886,-2.501,-8.016,-9.286
-0.4,200000001.99681082,3.8500432968,20653.80155810531,3338.8737672512307,-1.152,-2.858,-7.812,-9.059
-0.4,200000001.99681082,3.850045681,15559.65631605075,3453.822385498232,-1.485,-3.28,-7.456,-8.655
-0.4,200000001.99681082,3.8500492573,13995.873225726178,3497.840484251412,-1.569,-3.378,-7.325,-8.506
-0.4,200000001.99681082,3.8500545025,15452.54439538414,3456.209025701263,-1.489,-3.285,-7.447,-8.646
-0.4,200000001.99681082,3.8500614166,16634.126503701696,3424.5223108915197,-1.41,-3.187,-7.541,-8.753
-0.4,200000001.99681082,3.8500702381,17418.068733916127,3405.6498956736095,-1.361,-3.127,-7.597,-8.818
-0.4,200000001.99681082,3.8500812054,17823.787674480907,3395.4707998402328,-1.334,-3.093,-7.626,-8.851
-0.4,200000001.99681082,3.8500945568,18030.1774085957,3390.002355756172,-1.316,-3.072,-7.641,-8.869
-0.4,200000001.99681082,3.8501102924,18197.008586099826,3384.542718663093,-1.298,-3.049,-7.653,-8.883
-0.4,200000001.99681082,3.8501102924,29241.52377843337,3195.2143648082215,-0.498,-1.973,-8.263,-9.56
-0.4,200000001.99681082,3.8501110077,25118.864315095823,3254.61783498046,-0.77,-2.347,-8.066,-9.343
-0.4,200000001.99681082,3.8501124382,21428.906011200605,3318.180448272474,-1.062,-2.745,-7.862,-9.117
-0.4,200000001.99681082,3.8501150608,16143.585568264869,3433.2070842609537,-1.42,-3.201,-7.505,-8.714
-0.4,200000001.99681082,3.8501191139,14521.11617587742,3476.9624461781286,-1.519,-3.323,-7.373,-8.562
-0.4,200000001.99681082,3.850124836,15995.580286146678,3435.5794789987463,-1.424,-3.208,-7.494,-8.701
-0.4,200000001.99681082,3.8501324654,17218.685749860062,3404.081897010009,-1.345,-3.109,-7.587,-8.808
-0.4,200000001.99681082,3.8501422405,17988.709151287872,3385.3221281535407,-1.293,-3.045,-7.641,-8.87
-0.4,200000001.99681082,3.8501541615,18365.383433483476,3375.981048554255,-1.257,-2.998,-7.669,-8.902
-0.4,200000001.99681082,3.850168705,18578.04455091699,3369.7679858440365,-1.233,-2.969,-7.683,-8.918
-0.4,200000001.99681082,3.8501858711,18706.821403658018,3365.115693754908,-1.213,-2.944,-7.694,-8.931
-0.4,200000001.99681082,3.8501861095,30130.060241861218,3175.411402891837,-0.386,-1.823,-8.306,-9.609
-0.4,200000001.99681082,3.8501865864,25882.12915153093,3234.446708514467,-0.65,-2.19,-8.109,-9.394
-0.4,200000001.99681082,3.8501882553,22080.047330189012,3297.6153801591913,-0.954,-2.606,-7.905,-9.168
-0.4,200000001.99681082,3.8501911163,16672.472125510645,3411.9291162192844,-1.35,-3.118,-7.548,-8.766
-0.4,200000001.99681082,3.8501954079,14996.84835502374,3457.0049388687194,-1.459,-3.254,-7.414,-8.613
-0.4,200000001.99681082,3.8502016068,16481.62391525507,3415.8595068605546,-1.356,-3.126,-7.535,-8.751
-0.4,200000001.99681082,3.850209713,17741.894808901645,3384.542718663093,-1.272,-3.022,-7.626,-8.856
-0.4,200000001.99681082,3.8502202034,18492.686189780798,3365.8906294925205,-1.205,-2.937,-7.68,-8.917
-0.4,200000001.99681082,3.850233078,18879.913490962925,3355.8303695328004,-1.167,-2.889,-7.707,-8.947
-0.4,200000001.99681082,3.8502485752,19054.607179632483,3350.425766809598,-1.142,-2.857,-7.72,-8.963
-0.4,200000001.99681082,3.8502671719,19186.68740670291,3345.0298682601374,-1.12,-2.829,-7.73,-8.975
-0.4,200000001.99681082,3.8502674103,30902.95432513592,3154.278240344361,-0.271,-1.674,-8.344,-9.653
-0.4,200000001.99681082,3.8502681255,26546.055619755418,3213.660538640318,-0.534,-2.038,-8.149,-9.44
-0.4,200000001.99681082,3.8502697945,22698.648518838214,3276.4232568537846,-0.831,-2.446,-7.945,-9.215
-0.4,200000001.99681082,3.8502726555,17139.573075084252,3390.783022519265,-1.274,-3.028,-7.587,-8.814
-0.4,200000001.99681082,3.8502771854,15381.546403030357,3436.370641490611,-1.387,-3.168,-7.451,-8.659
-0.4,200000001.99681082,3.8502836227,16943.37800447329,3395.4707998402328,-1.281,-3.038,-7.571,-8.796
-0.4,200000001.99681082,3.8502922058,18197.008586099826,3364.340936432299,-1.178,-2.907,-7.662,-8.899
-0.4,200000001.99681082,3.8503031731,18923.43618644976,3345.8001785330107,-1.109,-2.819,-7.715,-8.96
-0.4,200000001.99681082,3.8503167629,19319.68317016922,3335.7999666204814,-1.069,-2.768,-7.741,-8.989
-0.4,200000001.99681082,3.8503329754,19498.445997580457,3329.660852068807,-1.042,-2.735,-7.753,-9.004
-0.4,200000001.99681082,3.8503525257,19588.44673505989,3325.0639317743994,-1.017,-2.705,-7.762,-9.014
-0.4,200000001.99681082,3.8503527641,31550.04623374624,3133.2857243155854,-0.164,-1.537,-8.378,-9.693
-0.4,200000001.99681082,3.8503534794,27164.392688390835,3192.272818462188,-0.408,-1.874,-8.184,-9.482
-0.4,200000001.99681082,3.8503551483,23227.36796357105,3254.61783498046,-0.696,-2.271,-7.98,-9.258
-0.4,200000001.99681082,3.8503582478,17579.23613958693,3368.992157414906,-1.174,-2.907,-7.623,-8.858
-0.4,200000001.99681082,3.8503627777,15739.828644662197,3415.0730666882723,-1.306,-3.074,-7.484,-8.701
-0.4,200000001.99681082,3.8503694534,17298.16359215103,3374.4267097541338,-1.187,-2.924,-7.604,-8.837
-0.4,200000001.99681082,3.8503782749,18578.04455091699,3343.489779723791,-1.075,-2.781,-7.694,-8.939
-0.4,200000001.99681082,3.850389719,19319.68317016922,3325.0639317743994,-1.004,-2.691,-7.746,-8.998
-0.4,200000001.99681082,3.8504035473,19678.86289706843,3315.125698118432,-0.962,-2.639,-7.77,-9.027
-0.4,200000001.99681082,3.850420475,19815.27025805097,3309.0246319221333,-0.932,-2.601,-7.781,-9.04
-0.4,200000001.99681082,3.8504405022,19906.733389871883,3304.4562019345226,-0.901,-2.561,-7.789,-9.05
-0.4,200000001.99681082,3.8504407406,32062.693245054674,3111.716337106017,-0.056,-1.399,-8.407,-9.729
-0.4,200000001.99681082,3.8504414558,27669.416454115126,3170.297366952724,-0.272,-1.698,-8.215,-9.52
-0.4,200000001.99681082,3.8504431248,23659.196974857565,3232.9575336809407,-0.555,-2.089,-8.011,-9.297
-0.4,200000001.99681082,3.8504462242,17906.058540352948,3347.341331292356,-1.064,-2.774,-7.654,-8.898
-0.4,200000001.99681082,3.8504507542,16032.453906900417,3393.907487744292,-1.22,-2.973,-7.513,-8.739
-0.4,200000001.99681082,3.8504574299,17619.76046411631,3352.740958484161,-1.079,-2.794,-7.633,-8.874
-0.4,200000001.99681082,3.8504662514,18879.913490962925,3322.0028446165034,-0.963,-2.646,-7.721,-8.975
-0.4,200000001.99681082,3.850477457,19633.602768360473,3303.6954103681487,-0.884,-2.543,-7.772,-9.033
-0.4,200000001.99681082,3.8504912853,19952.62314968879,3293.821044764936,-0.832,-2.474,-7.796,-9.06
-0.4,200000001.99681082,3.8505079746,20090.928126087278,3287.7591870669708,-0.796,-2.427,-7.807,-9.073
-0.4,200000001.99681082,3.8505280018,20183.663636815596,3282.4642137521723,-0.762,-2.384,-7.814,-9.082
-0.4,200000001.99681082,3.8505282402,32508.729738543407,3089.5839476098754,0.063,-1.251,-8.433,-9.762
-0.4,200000001.99681082,3.8505289555,28054.33637951716,3147.748314101317,-0.141,-1.531,-8.242,-9.554
-0.4,200000001.99681082,3.8505306244,24043.628000069348,3210.7020105619063,-0.416,-1.911,-8.04,-9.332
-0.4,200000001.99681082,3.8505337238,18238.957023196384,3324.298395649131,-0.943,-2.628,-7.682,-8.935
-0.4,200000001.99681082,3.8505384922,16292.960326397215,3371.3201787284347,-1.11,-2.842,-7.539,-8.774
-0.4,200000001.99681082,3.8505449295,17864.8757485205,3330.427623087463,-0.958,-2.649,-7.659,-8.909
-0.4,200000001.99681082,3.8505539894,19142.55925021086,3299.8940791083483,-0.829,-2.479,-7.747,-9.009
-0.4,200000001.99681082,3.8505651951,19860.949173573717,3280.9529311311903,-0.735,-2.354,-7.797,-9.065
-0.4,200000001.99681082,3.8505792618,20183.663636815596,3271.1465401826636,-0.678,-2.279,-7.82,-9.092
-0.4,200000001.99681082,3.8505961895,20323.57010936221,3264.3746754294584,-0.637,-2.225,-7.831,-9.105
-0.4,200000001.99681082,3.8506162167,20417.379446695275,3258.367010020087,-0.597,-2.174,-7.838,-9.114
-0.4,200000001.99681082,3.8506164551,32885.16308759833,3064.7849053700324,0.164,-1.144,-8.459,-9.793
-0.4,200000001.99681082,3.8506171703,28379.19028441558,3122.4824062232706,-0.0,-1.356,-8.269,-9.587
-0.4,200000001.99681082,3.8506188393,24322.04009073816,3184.9307947187244,-0.253,-1.703,-8.066,-9.367
-0.4,200000001.99681082,3.8506217003,18492.686189780798,3299.1343378886454,-0.789,-2.437,-7.709,-8.972
-0.4,200000001.99681082,3.8506264687,16481.62391525507,3345.8001785330107,-0.973,-2.678,-7.564,-8.809
-0.4,200000001.99681082,3.850632906,18071.74126010926,3304.4562019345226,-0.809,-2.467,-7.683,-8.944
-0.4,200000001.99681082,3.8506417274,19319.68317016922,3274.1607653757505,-0.657,-2.262,-7.771,-9.042
-0.4,200000001.99681082,3.8506526947,20090.928126087278,3255.3673247163633,-0.558,-2.129,-7.821,-9.098
-0.4,200000001.99681082,3.850666523,20417.379446695275,3244.8901566053664,-0.496,-2.047,-7.844,-9.125
-0.4,200000001.99681082,3.8506829739,20511.621788255667,3237.42711634235,-0.448,-1.986,-7.854,-9.138
-0.4,200000001.99681082,3.8507027626,20606.299132700005,3230.7250568928803,-0.405,-1.93,-7.861,-9.147
-0.4,200000001.99681082,3.850703001,33189.44575526103,3036.686788465786,0.272,-1.027,-8.483,-9.824
-0.4,200000001.99681082,3.8507037163,28707.805820246922,3093.855315451652,0.158,-1.158,-8.294,-9.622
-0.4,200000001.99681082,3.8507053852,24603.676041476272,3156.4578912990714,-0.067,-1.466,-8.093,-9.402
-0.4,200000001.99681082,3.8507082462,18706.821403658018,3269.640468343053,-0.593,-2.188,-7.737,-9.009
-0.4,200000001.99681082,3.8507130146,16672.472125510645,3317.416496945389,-0.809,-2.482,-7.589,-8.845
-0.4,200000001.99681082,3.8507196903,18281.00216142741,3275.668919368471,-0.613,-2.218,-7.709,-8.979
-0.4,200000001.99681082,3.8507282734,19543.394557753963,3244.8901566053664,-0.452,-2.002,-7.796,-9.077
-0.4,200000001.99681082,3.8507394791,20230.191786782718,3225.52193768908,-0.352,-1.869,-7.845,-9.133
-0.4,200000001.99681082,3.8507533073,20558.905959841406,3214.400596524381,-0.291,-1.789,-7.868,-9.159
-0.4,200000001.99681082,3.8507699966,20701.413487910413,3206.2693245054643,-0.242,-1.726,-7.879,-9.173
-0.4,200000001.99681082,3.8507897854,20749.13517454911,3198.895109691397,-0.192,-1.662,-7.886,-9.182
-0.4,200000001.99681082,3.8507900238,33419.50400261143,3004.692272040942,0.389,-0.9,-8.508,-9.855
-0.4,200000001.99681082,3.8507907391,28973.435877013213,3061.2584717197674,0.303,-1.001,-8.322,-9.656
-0.4,200000001.99681082,3.850792408,24831.331052955677,3123.2014671492143,0.125,-1.228,-8.121,-9.439
-0.4,200000001.99681082,3.850795269,18879.913490962925,3235.936569296281,-0.354,-1.887,-7.765,-9.049
-0.4,200000001.99681082,3.850799799,16826.740610704674,3283.2201160919944,-0.586,-2.203,-7.616,-8.883
-0.4,200000001.99681082,3.8508062363,18450.154191794736,3241.1564884384366,-0.372,-1.915,-7.735,-9.018
-0.4,200000001.99681082,3.8508148193,19678.86289706843,3209.96280421069,-0.22,-1.709,-7.822,-9.115
-0.4,200000001.99681082,3.8508257866,20417.379446695275,3190.8030609514212,-0.119,-1.575,-7.871,-9.17
-0.4,200000001.99681082,3.8508393764,20701.413487910413,3178.3374121462216,-0.05,-1.484,-7.894,-9.197
-0.4,200000001.99681082,3.8508558273,20844.908830972887,3169.56746304349,0.009,-1.409,-7.905,-9.211
-0.4,200000001.99681082,3.8508753777,20892.96130854041,3160.0939904479483,0.069,-1.334,-7.912,-9.221
-0.4,200000001.99681082,3.8508756161,33651.15693754908,2967.563358073529,0.527,-0.753,-8.535,-9.889
-0.4,200000001.99681082,3.8508760929,29174.27014001166,3023.430570511337,0.461,-0.833,-8.35,-9.694
-0.4,200000001.99681082,3.8508777618,25003.453616964296,3084.6081377571413,0.346,-0.961,-8.15,-9.48
-0.4,200000001.99681082,3.8508808613,19098.532585662368,3195.2143648082215,-0.085,-1.547,-7.796,-9.093
-0.4,200000001.99681082,3.8508853912,16982.43652461746,3241.902878227874,-0.294,-1.837,-7.645,-8.927
-0.4,200000001.99681082,3.8508918285,18578.04455091699,3199.6317673183503,-0.09,-1.561,-7.765,-9.061
-0.4,200000001.99681082,3.8509001732,19815.27025805097,3168.10815932805,0.07,-1.344,-7.852,-9.158
-0.4,200000001.99681082,3.8509111404,20511.621788255667,3147.023601705661,0.17,-1.214,-7.901,-9.213
-0.4,200000001.99681082,3.8509244919,20844.908830972887,3132.5643416709277,0.241,-1.123,-7.925,-9.241
-0.4,200000001.99681082,3.8509407043,20941.124558508913,3121.044780985781,0.308,-1.041,-7.937,-9.256
-0.4,200000001.99681082,3.8509600163,20989.398836235243,3108.8516598805636,0.38,-0.952,-7.946,-9.268
-0.4,200000001.99681082,3.8509602547,33806.483620598156,2918.098853741841,0.69,-0.575,-8.567,-9.93
-0.4,200000001.99681082,3.8509607315,29376.496519615306,2973.0348496770193,0.652,-0.628,-8.384,-9.737
-0.4,200000001.99681082,3.8509624004,25234.807724805756,3032.494347329631,0.578,-0.717,-8.187,-9.528
-0.4,200000001.99681082,3.8509654999,19230.917289101577,3140.5086938762165,0.273,-1.101,-7.833,-9.147
-0.4,200000001.99681082,3.8509697914,17100.15315090286,3185.664236573113,0.091,-1.354,-7.682,-8.982
-0.4,200000001.99681082,3.8509762287,18706.821403658018,3142.678829879227,0.29,-1.087,-7.802,-9.116
-0.4,200000001.99681082,3.8509845734,19952.62314968879,3108.8516598805636,0.435,-0.896,-7.889,-9.212
-0.4,200000001.99681082,3.8509953022,20653.80155810531,3084.6081377571413,0.539,-0.765,-7.939,-9.269
-0.4,200000001.99681082,3.8510084152,20941.124558508913,3066.9027151623077,0.606,-0.693,-7.965,-9.298
-0.4,200000001.99681082,3.8510243893,21037.784397664775,3050.7034978225156,0.677,-0.618,-7.979,-9.316
-0.4,200000001.99681082,3.8510434628,21086.281499332887,3032.494347329631,0.757,-0.534,-7.991,-9.332
