FeH,Age,Mini,L,Te,Bmag,Vmag,Jmag,Kmag
-0.4,1750007862.8829043,0.0899999961,0.0004528975799036209,2495.743794831572,19.721,17.772,11.003,10.256
-0.4,1750007862.8829043,0.0937566087,0.0005420008904016238,2562.7131654112345,19.513,17.567,10.807,10.058
-0.4,1750007862.8829043,0.096024029,0.0006025595860743575,2603.154831374184,19.38,17.438,10.693,9.942
-0.4,1750007862.8829043,0.0992661342,0.0006998419960022738,2660.7250597988086,18.936,17.02,10.553,9.785
-0.4,1750007862.8829043,0.1025288254,0.0007798301105232585,2695.876543557444,18.598,16.705,10.453,9.673
-0.4,1750007862.8829043,0.1177984104,0.0012445146117713857,2852.331512299011,17.256,15.47,10.014,9.201
-0.4,1750007862.8829043,0.136330694,0.0018836490894898002,2982.634245778771,16.196,14.474,9.618,8.79
-0.4,1750007862.8829043,0.1548629701,0.002594179362118815,3076.096814740708,15.458,13.774,9.309,8.475
-0.4,1750007862.8829043,0.1919275075,0.004187935651179182,3204.7931228494,14.495,12.867,8.837,8.003
-0.4,1750007862.8829043,0.2382582128,0.006591738952443213,3318.180448272474,13.679,12.096,8.388,7.555
-0.4,1750007862.8829043,0.2845888734,0.009418895965228418,3400.9480651219096,13.094,11.551,8.028,7.197
-0.4,1750007862.8829043,0.3145486116,0.011776059735208072,3443.4993076333844,12.758,11.235,7.799,6.967
-0.4,1750007862.8829043,0.3309195936,0.013212956341865752,3465.7720899354867,12.588,11.075,7.683,6.85
-0.4,1750007862.8829043,0.3639474511,0.016749428760264373,3519.654225247658,12.224,10.735,7.443,6.609
-0.4,1750007862.8829043,0.377250284,0.01832314422371211,3540.788613684981,12.087,10.607,7.353,6.519
-0.4,1750007862.8829043,0.3826297224,0.019098532585662378,3552.2211848231955,12.022,10.546,7.312,6.478
-0.4,1750007862.8829043,0.4235809743,0.025468302525850407,3637.4748564263245,11.56,10.113,7.028,6.191
-0.4,1750007862.8829043,0.4552430212,0.03258367010020087,3722.202530178502,11.16,9.738,6.792,5.953
-0.4,1750007862.8829043,0.4699116945,0.03630780547701014,3760.10523668496,10.987,9.578,6.687,5.849
-0.4,1750007862.8829043,0.5162423849,0.05248074602497726,3920.125762951651,10.369,9.014,6.337,5.502
-0.4,1750007862.8829043,0.5285822749,0.058210321777087126,3976.4909647456543,10.186,8.853,6.24,5.409
-0.4,1750007862.8829043,0.5625730157,0.07638357835776907,4127.622774083493,9.705,8.437,5.984,5.166
-0.4,1750007862.8829043,0.5981779099,0.10162486928706957,4322.151642327874,9.152,7.98,5.721,4.935
-0.4,1750007862.8829043,0.6089037657,0.11040786199020733,4380.261111703606,8.985,7.844,5.645,4.873
-0.4,1750007862.8829043,0.6522119045,0.15417004529495593,4641.945102393461,8.288,7.287,5.357,4.663
-0.4,1750007862.8829043,0.6552344561,0.15776112696993486,4661.22428001887,8.242,7.25,5.338,4.649
-0.4,1750007862.8829043,0.7015650868,0.2202926463053456,4937.419182496813,7.614,6.733,5.058,4.459
-0.4,1750007862.8829043,0.7481935024,0.3013006024186121,5208.348068742078,7.077,6.285,4.803,4.28
-0.4,1750007862.8829043,0.7514939904,0.3076096814740708,5227.571721671628,7.042,6.255,4.786,4.268
-0.4,1750007862.8829043,0.7572857141,0.31915378551007617,5256.540320069867,6.982,6.205,4.755,4.245
-0.4,1750007862.8829043,0.8014228344,0.4216965034285822,5482.769649208536,6.556,5.846,4.528,4.073
-0.4,1750007862.8829043,0.8387447596,0.5272298614228227,5659.785862426966,6.23,5.569,4.345,3.928
-0.4,1750007862.8829043,0.8513516784,0.5675446054085471,5718.735365066645,6.125,5.479,4.285,3.88
-0.4,1750007862.8829043,0.8779342771,0.662216503701762,5831.764797316426,5.912,5.298,4.157,3.774
-0.4,1750007862.8829043,0.9012805223,0.7568328950209744,5929.2532458,5.731,5.144,4.049,3.685
-0.4,1750007862.8829043,0.9234046936,0.8550667128846833,6013.121787899338,5.564,5.003,3.946,3.598
-0.4,1750007862.8829043,0.9504253268,0.9908319448927676,6113.641945007669,5.368,4.836,3.824,3.494
-0.4,1750007862.8829043,0.9512093663,0.995405417351527,6116.458029546624,5.363,4.831,3.821,3.491
-0.4,1750007862.8829043,0.9693461061,1.099005839432521,6178.741129854402,5.235,4.721,3.737,3.418
-0.4,1750007862.8829043,1.0011382103,1.3001695780332903,6283.476569844776,5.018,4.531,3.59,3.288
-0.4,1750007862.8829043,1.0270879269,1.492794409578996,6367.955209079156,4.845,4.379,3.472,3.183
-0.4,1750007862.8829043,1.0510671139,1.6904409316432643,6444.659847416884,4.687,4.241,3.363,3.086
-0.4,1750007862.8829043,1.0607960224,1.7741894808901657,6475.898004649498,4.625,4.186,3.32,3.048
-0.4,1750007862.8829043,1.0917326212,2.07491351745491,6573.550444548967,4.429,4.011,3.184,2.926
-0.4,1750007862.8829043,1.1009960175,2.1727011788637447,6602.372147378005,4.371,3.96,3.143,2.889
-0.4,1750007862.8829043,1.1210263968,2.3988329190194904,6666.532489563035,4.247,3.85,3.058,2.814
-0.4,1750007862.8829043,1.1414554119,2.6485001386067006,6731.316327276249,4.123,3.739,2.972,2.737
-0.4,1750007862.8829043,1.1509248018,2.7733201046518405,6760.829753919818,4.066,3.688,2.932,2.701
-0.4,1750007862.8829043,1.2008537054,3.4914031547858615,6921.49644226647,3.779,3.43,2.735,2.527
-0.4,1750007862.8829043,1.2193973064,3.793149849736819,6987.148925611264,3.675,3.337,2.667,2.467
-0.4,1750007862.8829043,1.2507824898,4.355118736855686,7090.877782620701,3.502,3.183,2.551,2.365
-0.4,1750007862.8829043,1.2982596159,5.321082592667942,7261.0595743515505,3.249,2.957,2.387,2.223
-0.4,1750007862.8829043,1.3007112741,5.370317963702527,7269.4239921411945,3.236,2.945,2.379,2.215
-0.4,1750007862.8829043,1.339889884,6.309573444801933,7396.052750582382,3.038,2.767,2.246,2.098
-0.4,1750007862.8829043,1.3506404161,6.591738952443213,7425.060556921996,2.984,2.718,2.208,2.064
-0.4,1750007862.8829043,1.3664908409,7.030723198838334,7469.645650780071,2.906,2.646,2.152,2.013
-0.4,1750007862.8829043,1.4005692005,8.090958991783824,7545.70808545774,2.738,2.491,2.025,1.895
-0.4,1750007862.8829043,1.4085092545,8.35603018231248,7554.400405676191,2.701,2.455,1.993,1.864
-0.4,1750007862.8829043,1.4321678877,9.204495717531712,7564.844408332819,2.591,2.348,1.891,1.763
-0.4,1750007862.8829043,1.4504979849,9.908319448927676,7557.880136804521,2.508,2.266,1.808,1.68
-0.4,1750007862.8829043,1.4536440372,10.046157902783952,7556.140070930927,2.494,2.252,1.793,1.666
-0.4,1750007862.8829043,1.4719623327,10.81433951297938,7531.821171741792,2.415,2.17,1.705,1.575
-0.4,1750007862.8829043,1.491133213,11.668096170609624,7479.972479493333,2.336,2.086,1.605,1.469
-0.4,1750007862.8829043,1.5004268885,12.105981335504822,7447.319739059889,2.299,2.045,1.554,1.415
-0.4,1750007862.8829043,1.5172291994,12.941958414499863,7370.551753379346,2.237,1.974,1.458,1.311
-0.4,1750007862.8829043,1.534684062,13.83566378971781,7259.38784607024,2.18,1.901,1.347,1.188
-0.4,1750007862.8829043,1.5503555536,14.68926277643867,7131.813866797403,2.136,1.839,1.24,1.065
-0.4,1750007862.8829043,1.5536468029,14.893610777109155,7103.951700029559,2.127,1.826,1.218,1.039
-0.4,1750007862.8829043,1.5692381859,15.776112696993485,6956.64753528352,2.091,1.766,1.106,0.909
-0.4,1750007862.8829043,1.5849622488,16.865530253887414,6815.535747267042,2.047,1.699,0.986,0.771
-0.4,1750007862.8829043,1.5944782495,17.660378206861647,6740.622411390064,2.014,1.653,0.912,0.686
-0.4,1750007862.8829043,1.5983880758,18.535316234148116,6840.691418893661,1.937,1.594,0.893,0.681
-0.4,1750007862.8829043,1.6002845764,18.967059212111465,6891.281648380538,1.899,1.566,0.883,0.679
-0.4,1750007862.8829043,1.6003552675,19.010782799232995,6892.868607318448,1.898,1.565,0.883,0.679
-0.4,1750007862.8829043,1.6020023823,19.860949173573715,7050.176668539836,1.814,1.509,0.886,0.703
-0.4,1750007862.8829043,1.6026536226,20.749135174549096,7222.707043121718,1.732,1.454,0.895,0.733
-0.4,1750007862.8829043,1.602992177,21.727011788637444,7392.647526562264,1.65,1.399,0.9,0.759
-0.4,1750007862.8829043,1.6031951904,22.908676527677734,7561.361470777293,1.565,1.34,0.9,0.777
-0.4,1750007862.8829043,1.6033397913,24.043628000069333,7710.809965858578,1.488,1.286,0.896,0.789
-0.4,1750007862.8829043,1.6033802032,24.322040090738145,7753.5394335959745,1.467,1.271,0.895,0.792
-0.4,1750007862.8829043,1.6034411192,23.01441817408509,7641.8762396346765,1.546,1.333,0.92,0.805
-0.4,1750007862.8829043,1.6034959555,21.928049353504484,7483.417927401598,1.625,1.388,0.92,0.789
-0.4,1750007862.8829043,1.6035650969,21.6271852372702,7282.827106931315,1.674,1.406,0.87,0.715
-0.4,1750007862.8829043,1.6036483049,22.130947096056374,7095.777679633888,1.684,1.388,0.784,0.607
-0.4,1750007862.8829043,1.6037538052,22.698648518838223,6916.716892895647,1.694,1.367,0.697,0.497
-0.4,1750007862.8829043,1.6038827896,23.01441817408509,6749.941361219489,1.715,1.359,0.625,0.402
-0.4,1750007862.8829043,1.6040418148,23.173946499684785,6599.332342635646,1.746,1.36,0.568,0.322
-0.4,1750007862.8829043,1.604249835,23.227367963571073,6459.516322696259,1.784,1.368,0.519,0.253
-0.4,1750007862.8829043,1.6045384407,23.06747188720069,6328.488569256951,1.833,1.384,0.482,0.195
-0.4,1750007862.8829043,1.6049642563,22.59435770220978,6188.708114190298,1.901,1.417,0.456,0.146
-0.4,1750007862.8829043,1.6055258512,21.67704104819695,6036.705647858452,2.003,1.476,0.448,0.109
-0.4,1750007862.8829043,1.6060025692,20.606299132700006,5916.978619587192,2.109,1.546,0.46,0.096
-0.4,1750007862.8829043,1.6064836979,19.14255925021086,5794.286964268809,2.241,1.642,0.498,0.11
-0.4,1750007862.8829043,1.6068731546,17.78279410038923,5692.460162787103,2.366,1.738,0.544,0.134
-0.4,1750007862.8829043,1.6072075367,16.710906143107078,5602.733947937972,2.475,1.822,0.582,0.152
-0.4,1750007862.8829043,1.6076452732,15.88546748597779,5492.878591960475,2.584,1.899,0.602,0.147
-0.4,1750007862.8829043,1.608082056,15.703628043335524,5393.864099044902,2.647,1.933,0.583,0.105
-0.4,1750007862.8829043,1.6081863642,15.88546748597779,5376.504331222544,2.644,1.924,0.564,0.082
-0.4,1750007862.8829043,1.6087079048,17.179083871575884,5296.634438916581,2.603,1.859,0.454,-0.048
-0.4,1750007862.8829043,1.6091245413,18.706821403658008,5249.283155466852,2.539,1.779,0.346,-0.169
-0.4,1750007862.8829043,1.609526515,20.511621788255656,5210.747154033924,2.462,1.69,0.234,-0.291
-0.4,1750007862.8829043,1.6099066734,22.438819237827662,5178.452536000238,2.383,1.6,0.124,-0.409
-0.4,1750007862.8829043,1.6102743149,24.603676041476273,5151.100224595073,2.301,1.509,0.017,-0.524
-0.4,1750007862.8829043,1.610635519,26.915348039269155,5123.892386646796,2.221,1.419,-0.09,-0.638
-0.4,1750007862.8829043,1.6109937429,29.44421633798762,5098.001982256051,2.138,1.329,-0.195,-0.75
-0.4,1750007862.8829043,1.611350894,32.210687912834345,5072.242398926514,2.057,1.24,-0.3,-0.862
-0.4,1750007862.8829043,1.6117072105,35.23708710424871,5045.4510838273745,1.977,1.151,-0.406,-0.975
-0.4,1750007862.8829043,1.6120628119,38.459178204535355,5021.113054699537,1.897,1.063,-0.509,-1.085
-0.4,1750007862.8829043,1.6125069857,42.95364267648873,4988.844874600121,1.803,0.956,-0.638,-1.223
-0.4,1750007862.8829043,1.6129411459,47.75292736576909,4959.067275049038,1.711,0.852,-0.763,-1.358
-0.4,1750007862.8829043,1.6133188009,52.36004365857503,4931.738039549359,1.631,0.761,-0.873,-1.475
-0.4,1750007862.8829043,1.6137751341,58.74893525297766,4898.916080940641,1.534,0.651,-1.006,-1.618
-0.4,1750007862.8829043,1.6141633987,64.86344335482384,4869.675251658631,1.45,0.556,-1.122,-1.744
-0.4,1750007862.8829043,1.6145039797,70.79457843841381,4841.7236758409945,1.378,0.473,-1.225,-1.855
-0.4,1750007862.8829043,1.6148449183,77.44617978025188,4815.041116556669,1.305,0.387,-1.332,-1.97
-0.4,1750007862.8829043,1.6151814461,84.91804750363139,4786.300923226385,1.232,0.3,-1.44,-2.087
-0.4,1750007862.8829043,1.6155688763,94.18895965228413,4753.352259428054,1.152,0.203,-1.563,-2.22
-0.4,1750007862.8829043,1.6159540415,103.9920165829059,4721.717503108786,1.075,0.11,-1.681,-2.348
-0.4,1750007862.8829043,1.6163070202,113.50108156723155,4694.615193825913,1.008,0.029,-1.785,-2.461
-0.4,1750007862.8829043,1.6167654991,126.18275345906706,4661.22428001887,0.93,-0.067,-1.908,-2.594
-0.4,1750007862.8829043,1.6173586845,137.08817661648536,4635.536446198508,0.868,-0.143,-2.006,-2.701
-0.4,1750007862.8829043,1.6176890135,129.7179270983956,4653.717325654918,0.907,-0.094,-1.94,-2.63
-0.4,1750007862.8829043,1.6179285049,119.6740531307243,4681.661397243642,0.965,-0.021,-1.845,-2.525
-0.4,1750007862.8829043,1.6180649996,110.66237839776664,4707.604832565835,1.023,0.05,-1.752,-2.424
-0.4,1750007862.8829043,1.6181920767,101.15794542598982,4736.963081746328,1.091,0.133,-1.646,-2.308
-0.4,1750007862.8829043,1.6183108091,92.46981739382225,4766.504419105543,1.159,0.216,-1.54,-2.192
-0.4,1750007862.8829043,1.6184395552,83.94599865193973,4798.439240638985,1.233,0.306,-1.425,-2.067
-0.4,1750007862.8829043,1.6185802221,76.55966069112561,4828.363964551585,1.305,0.393,-1.315,-1.949
-0.4,1750007862.8829043,1.6187571287,70.30723198838334,4857.356732878539,1.372,0.474,-1.213,-1.838
-0.4,1750007862.8829043,1.618773818,69.82324040771715,4859.594143462719,1.378,0.48,-1.204,-1.829
-0.4,1750007862.8829043,1.6188856363,71.6143410212902,4851.7677121925735,1.358,0.456,-1.234,-1.861
-0.4,1750007862.8829043,1.619297266,79.61593504173187,4818.368378188961,1.273,0.355,-1.361,-1.998
-0.4,1750007862.8829043,1.6197193861,87.29713683881117,4788.50560386518,1.2,0.268,-1.47,-2.116
-0.4,1750007862.8829043,1.620157361,95.49925860214358,4761.019935823142,1.129,0.183,-1.577,-2.231
-0.4,1750007862.8829043,1.6206144094,104.9542428652322,4731.512589614803,1.058,0.097,-1.687,-2.35
-0.4,1750007862.8829043,1.6210571527,114.81536214968828,4703.2709644077795,0.989,0.013,-1.794,-2.467
-0.4,1750007862.8829043,1.6214979887,125.89254117941675,4674.121528671508,0.92,-0.072,-1.902,-2.584
-0.4,1750007862.8829043,1.6219182014,137.4041975012515,4645.152752227492,0.854,-0.153,-2.007,-2.699
-0.4,1750007862.8829043,1.6223191023,149.9684835502374,4616.363515404673,0.79,-0.232,-2.111,-2.812
-0.4,1750007862.8829043,1.6227165461,164.43717232149325,4587.752705471357,0.725,-0.313,-2.217,-2.928
-0.4,1750007862.8829043,1.6230860949,179.06058540352947,4559.319216592223,0.666,-0.391,-2.319,-3.039
-0.4,1750007862.8829043,1.6234408617,195.43394557753942,4531.0619497855805,0.612,-0.469,-2.421,-3.149
-0.4,1750007862.8829043,1.6237819195,213.30449131465772,4501.94308282431,0.557,-0.548,-2.524,-3.26
-0.4,1750007862.8829043,1.6241028309,232.27367963571075,4474.041415755961,0.504,-0.625,-2.625,-3.369
-0.4,1750007862.8829043,1.6244028807,252.92979964461446,4446.312674691088,0.454,-0.699,-2.724,-3.476
-0.4,1750007862.8829043,1.6246865988,274.78941531023975,4418.755787887183,0.404,-0.772,-2.822,-3.582
-0.4,1750007862.8829043,1.6249560118,299.2264636608189,4391.369690244064,0.354,-0.846,-2.919,-3.688
-0.4,1750007862.8829043,1.6252106428,325.0872973854344,4364.153323262729,0.306,-0.918,-3.017,-3.794
-0.4,1750007862.8829043,1.6254477501,352.3708710424873,4336.107094491863,0.261,-0.986,-3.111,-3.898
-0.4,1750007862.8829043,1.6256718636,381.94427084004644,4310.225580049957,0.215,-1.055,-3.205,-4.001
-0.4,1750007862.8829043,1.6258852482,414.95404263436285,4283.512119459382,0.168,-1.124,-3.299,-4.104
-0.4,1750007862.8829043,1.6261302233,457.0881896148752,4251.087068046156,0.114,-1.202,-3.414,-4.233
-0.4,1750007862.8829043,1.6263563633,504.6612975635282,4217.936138166562,0.063,-1.276,-3.527,-4.361
-0.4,1750007862.8829043,1.6265288591,545.757861091271,4191.7946593256365,0.022,-1.336,-3.619,-4.464
-0.4,1750007862.8829043,1.6267254353,599.7910762555094,4161.021885174549,-0.026,-1.408,-3.729,-4.588
-0.4,1750007862.8829043,1.6269079447,659.1738952443212,4130.475019901614,-0.072,-1.476,-3.837,-4.71
-0.4,1750007862.8829043,1.6270477772,709.5777679633887,4105.820889699131,-0.108,-1.53,-3.924,-4.809
-0.4,1750007862.8829043,1.6272079945,778.0365510398041,4075.6792655948925,-0.15,-1.596,-4.03,-4.929
-0.4,1750007862.8829043,1.62735641,851.1380382023768,4045.7589169744288,-0.19,-1.657,-4.133,-5.047
-0.4,1750007862.8829043,1.6274939775,928.9663867799363,4017.9081084894,-0.228,-1.717,-4.234,-5.162
-0.4,1750007862.8829043,1.6276217699,1011.5794542598983,3988.4118690905275,-0.263,-1.774,-4.334,-5.276
-0.4,1750007862.8829043,1.6277426481,1104.0786199020736,3960.0438961152527,-0.292,-1.826,-4.433,-5.39
-0.4,1750007862.8829043,1.6278532743,1196.7405313072431,3932.7831456834174,-0.319,-1.875,-4.529,-5.499
-0.4,1750007862.8829043,1.6279559135,1297.1792709839558,3905.710056937564,-0.345,-1.923,-4.622,-5.606
-0.4,1750007862.8829043,1.6280529499,1406.0475241299143,3879.7165729369067,-0.369,-1.968,-4.714,-5.711
-0.4,1750007862.8829043,1.6281455755,1520.5475297324954,3853.8960821181918,-0.389,-2.008,-4.804,-5.814
-0.4,1750007862.8829043,1.6281827688,1566.7510701081485,3842.3772299890893,-0.395,-2.022,-4.84,-5.856
-0.4,1750007862.8829043,1.6281827688,57.94286964268809,5068.739827890221,1.422,0.601,-0.94,-1.502
-0.4,1750007862.8829043,1.6292995214,59.979107625550945,5052.4264494015615,1.396,0.569,-0.983,-1.549
-0.4,1750007862.8829043,1.6304616928,60.953689724016904,5047.775135009473,1.383,0.554,-1.001,-1.568
-0.4,1750007862.8829043,1.6315022707,61.09420249055721,5050.100256703167,1.378,0.55,-1.004,-1.571
-0.4,1750007862.8829043,1.6325786114,61.235039172477336,5053.589947531675,1.373,0.546,-1.005,-1.571
-0.4,1750007862.8829043,1.6336342096,61.37620051647942,5055.917747662187,1.368,0.543,-1.007,-1.572
-0.4,1750007862.8829043,1.6347155571,61.65950018614822,5059.411458459371,1.363,0.539,-1.009,-1.574
-0.4,1750007862.8829043,1.6358114481,61.80164001384158,5061.74194011213,1.358,0.534,-1.012,-1.575
-0.4,1750007862.8829043,1.6368796825,61.94410750767815,5064.073495238508,1.353,0.53,-1.014,-1.577
-0.4,1750007862.8829043,1.6379740238,62.23002851691595,5066.406124332974,1.347,0.525,-1.018,-1.58
-0.4,1750007862.8829043,1.6391568184,62.51726927756859,5068.739827890221,1.341,0.519,-1.022,-1.584
-0.4,1750007862.8829043,1.6403951645,62.8058358813318,5071.074606405172,1.334,0.513,-1.027,-1.588
-0.4,1750007862.8829043,1.6415580511,63.09573444801933,5073.410460372977,1.327,0.507,-1.032,-1.592
-0.4,1750007862.8829043,1.6426715851,63.3869711256927,5075.747390289013,1.321,0.501,-1.036,-1.596
-0.4,1750007862.8829043,1.6438031197,63.82634861905486,5076.916258882489,1.314,0.495,-1.041,-1.601
-0.4,1750007862.8829043,1.6449238062,64.12095765851615,5079.2548036502085,1.307,0.489,-1.046,-1.605
-0.4,1750007862.8829043,1.645209074,64.12095765851615,5079.2548036502085,1.306,0.487,-1.048,-1.606
-0.4,1750007862.8829043,1.6458586454,64.41692655151772,5080.424479948444,1.302,0.484,-1.051,-1.609
-0.4,1750007862.8829043,1.6470558643,64.71426157485831,5081.594425605605,1.294,0.477,-1.057,-1.615
-0.4,1750007862.8829043,1.6482956409,65.16283940608427,5082.764640683731,1.287,0.47,-1.063,-1.621
-0.4,1750007862.8829043,1.6494755745,65.61452663029053,5083.935125244855,1.28,0.463,-1.07,-1.627
-0.4,1750007862.8829043,1.6506556273,65.91738952443212,5083.935125244855,1.273,0.456,-1.076,-1.633
-0.4,1750007862.8829043,1.6518495083,66.3743070401909,5083.935125244855,1.265,0.448,-1.083,-1.64
-0.4,1750007862.8829043,1.6530401707,66.83439175686145,5083.935125244855,1.258,0.441,-1.091,-1.648
-0.4,1750007862.8829043,1.6540560722,67.29766562843179,5083.935125244855,1.252,0.435,-1.097,-1.654
-0.4,1750007862.8829043,1.6542239189,67.29766562843179,5083.935125244855,1.251,0.434,-1.098,-1.656
-0.4,1750007862.8829043,1.6554067135,67.7641507610675,5082.764640683731,1.244,0.426,-1.106,-1.664
-0.4,1750007862.8829043,1.6565622091,68.39116472814293,5081.594425605605,1.236,0.418,-1.115,-1.673
-0.4,1750007862.8829043,1.6577370167,68.86522963442762,5079.2548036502085,1.229,0.41,-1.125,-1.683
-0.4,1750007862.8829043,1.658867836,69.5024317588797,5076.916258882489,1.221,0.402,-1.135,-1.694
-0.4,1750007862.8829043,1.6589150429,69.5024317588797,5076.916258882489,1.221,0.401,-1.135,-1.695
-0.4,1750007862.8829043,1.660125494,70.14552984199715,5072.242398926514,1.213,0.392,-1.147,-1.708
-0.4,1750007862.8829043,1.6613295078,70.95777679633888,5067.572841772825,1.204,0.381,-1.161,-1.722
-0.4,1750007862.8829043,1.6625083685,71.94489780036994,5061.74194011213,1.194,0.37,-1.176,-1.739
-0.4,1750007862.8829043,1.6636997461,72.94575102545687,5055.917747662187,1.184,0.357,-1.193,-1.758
-0.4,1750007862.8829043,1.6648919582,72.94575102545687,5059.411458459371,1.181,0.355,-1.192,-1.757
-0.4,1750007862.8829043,1.6660850048,74.98942093324558,5041.967013185367,1.163,0.331,-1.227,-1.796
-0.4,1750007862.8829043,1.6673030853,78.88601176185544,5011.872336272725,1.129,0.286,-1.292,-1.869
-0.4,1750007862.8829043,1.6681834459,85.31001140175896,4968.210633313916,1.076,0.215,-1.392,-1.982
-0.4,1750007862.8829043,1.6685801744,93.11078754678306,4926.063433495771,1.017,0.137,-1.5,-2.102
-0.4,1750007862.8829043,1.668753624,101.39113857366789,4886.523593428336,0.958,0.061,-1.604,-2.218
-0.4,1750007862.8829043,1.6688334942,110.66237839776664,4848.4173870844625,0.897,-0.018,-1.711,-2.336
-0.4,1750007862.8829043,1.6688710451,119.94993031493793,4813.932540001449,0.839,-0.092,-1.811,-2.446
-0.4,1750007862.8829043,1.6688938141,129.41958414499862,4784.097257646801,0.785,-0.16,-1.902,-2.546
-0.4,1750007862.8829043,1.6688946486,129.7179270983956,4782.995805358158,0.783,-0.163,-1.906,-2.55
-0.4,1750007862.8829043,1.6688950062,130.016957803329,4781.894606659083,0.782,-0.164,-1.907,-2.552
-0.4,1750007862.8829043,1.6689141989,142.23287871228197,4746.789794829222,0.718,-0.245,-2.016,-2.673
-0.4,1750007862.8829043,1.6689339876,155.95525028269537,4713.027784024217,0.655,-0.327,-2.125,-2.792
-0.4,1750007862.8829043,1.6689879894,165.57699634695277,4690.293284059374,0.612,-0.381,-2.197,-2.872
-0.4,1750007862.8829043,1.6691439152,146.89262776438662,4735.872481253356,0.695,-0.274,-2.054,-2.714
-0.4,1750007862.8829043,1.6701091528,153.10874616820303,4719.543572446043,0.666,-0.311,-2.104,-2.769
-0.4,1750007862.8829043,1.6706125736,168.26740610704672,4683.817878502438,0.601,-0.395,-2.217,-2.894
-0.4,1750007862.8829043,1.6709940434,185.35316234148104,4647.292416762036,0.536,-0.48,-2.332,-3.021
-0.4,1750007862.8829043,1.6713104248,203.23570109362208,4612.113644917027,0.479,-0.561,-2.442,-3.14
-0.4,1750007862.8829043,1.6715817451,222.3309890651403,4578.255227916937,0.424,-0.644,-2.551,-3.258
-0.4,1750007862.8829043,1.6718207598,243.78108183687525,4543.599049293402,0.371,-0.724,-2.661,-3.378
-0.4,1750007862.8829043,1.6720305681,267.30064086633115,4510.243611171937,0.318,-0.805,-2.77,-3.497
-0.4,1750007862.8829043,1.6722160578,293.0893245250321,4476.102262460901,0.266,-0.884,-2.877,-3.614
-0.4,1750007862.8829043,1.6723835468,320.6269324505464,4443.242331287159,0.216,-0.961,-2.984,-3.732
-0.4,1750007862.8829043,1.6725355387,351.560440528298,4409.608164506378,0.165,-1.039,-3.092,-3.85
-0.4,1750007862.8829043,1.6726717949,383.70724549227884,4369.180633852881,0.127,-1.108,-3.198,-3.97
-0.4,1750007862.8829043,1.6728000641,418.79356511791826,4325.138310350088,0.099,-1.169,-3.301,-4.089
-0.4,1750007862.8829043,1.6729254723,457.0881896148752,4287.459197337663,0.061,-1.234,-3.404,-4.207
-0.4,1750007862.8829043,1.6730492115,498.88448746001217,4256.964220731747,0.016,-1.302,-3.508,-4.324
-0.4,1750007862.8829043,1.6731715202,545.757861091271,4224.740129875454,-0.029,-1.369,-3.613,-4.443
-0.4,1750007862.8829043,1.6732878685,601.1737374832779,4191.7946593256365,-0.076,-1.44,-3.725,-4.569
-0.4,1750007862.8829043,1.6733829975,663.7430704019089,4157.19120675218,-0.125,-1.513,-3.841,-4.701
-0.4,1750007862.8829043,1.6734451056,724.4359600749899,4127.622774083493,-0.165,-1.576,-3.942,-4.816
-0.4,1750007862.8829043,1.6734908819,787.0457896950985,4099.208418770049,-0.203,-1.634,-4.038,-4.925
-0.4,1750007862.8829043,1.6735322475,855.0667128846832,4070.989666502739,-0.24,-1.693,-4.135,-5.036
-0.4,1750007862.8829043,1.6735700369,928.9663867799363,4042.9651707596545,-0.273,-1.747,-4.229,-5.144
-0.4,1750007862.8829043,1.6736049652,1004.6157902783947,4015.1335942882924,-0.304,-1.799,-4.321,-5.249
-0.4,1750007862.8829043,1.6736371517,1083.9269140212039,3988.4118690905275,-0.332,-1.848,-4.41,-5.352
-0.4,1750007862.8829043,1.6736726761,1183.0415557251647,3959.1321672816603,-0.359,-1.898,-4.509,-5.466
-0.4,1750007862.8829043,1.6737121344,1294.1958414499863,3926.449353995997,-0.384,-1.949,-4.615,-5.588
-0.4,1750007862.8829043,1.6737500429,1399.5873225726177,3898.5220955234804,-0.405,-1.993,-4.707,-5.694
-0.4,1750007862.8829043,1.6737583876,1422.32878712282,3893.1398070156406,-0.408,-2.001,-4.724,-5.714
-0.4,1750007862.8829043,1.6737627983,1435.489433353656,3888.6602433122985,-0.41,-2.006,-4.735,-5.727
-0.4,1750007862.8829043,1.6737680435,1452.111617587742,3885.08030374528,-0.412,-2.011,-4.748,-5.742
-0.4,1750007862.8829043,1.6737763882,1448.7718535447616,3885.08030374528,-0.412,-2.01,-4.747,-5.741
-0.4,1750007862.8829043,1.6737771034,1442.1153515248682,3887.7649492799937,-0.411,-2.008,-4.741,-5.734
-0.4,1750007862.8829043,1.6737772226,1442.1153515248682,3887.7649492799937,-0.411,-2.008,-4.74,-5.733
-0.4,1750007862.8829043,1.6737773418,1462.1771744567184,3882.397512057637,-0.413,-2.014,-4.757,-5.752
-0.4,1750007862.8829043,1.6737774611,1465.5478409559114,3880.6100135487018,-0.413,-2.015,-4.76,-5.755
-0.4,1750007862.8829043,1.6737775803,1465.5478409559114,3880.6100135487018,-0.414,-2.015,-4.761,-5.757
-0.4,1750007862.8829043,1.6737776995,1465.5478409559114,3881.5036599064824,-0.414,-2.015,-4.759,-5.755
-0.4,1750007862.8829043,1.6737778187,1462.1771744567184,3881.5036599064824,-0.414,-2.014,-4.758,-5.753
-0.4,1750007862.8829043,1.6737779379,1462.1771744567184,3882.397512057637,-0.414,-2.014,-4.756,-5.751
-0.4,1750007862.8829043,1.6737780571,1458.814260275349,3882.397512057637,-0.413,-2.014,-4.755,-5.75
-0.4,1750007862.8829043,1.6737781763,1458.814260275349,3883.291570049549,-0.413,-2.013,-4.753,-5.748
-0.4,1750007862.8829043,1.6737782955,1455.4590805819653,3883.291570049549,-0.413,-2.013,-4.752,-5.747
-0.4,1750007862.8829043,1.6737784147,1455.4590805819653,3884.1858339296286,-0.413,-2.012,-4.751,-5.745
-0.4,1750007862.8829043,1.6737785339,1452.111617587742,3885.08030374528,-0.413,-2.011,-4.749,-5.743
-0.4,1750007862.8829043,1.6737786531,1448.7718535447616,3885.974979543936,-0.412,-2.01,-4.745,-5.739
-0.4,1750007862.8829043,1.6737787724,1452.111617587742,3884.1858339296286,-0.413,-2.012,-4.75,-5.744
-0.4,1750007862.8829043,1.6737788916,1462.1771744567184,3882.397512057637,-0.414,-2.014,-4.757,-5.752
-0.4,1750007862.8829043,1.6737790108,1468.9262776438661,3880.6100135487018,-0.415,-2.016,-4.762,-5.758
-0.4,1750007862.8829043,1.6737793684,1468.9262776438661,3880.6100135487018,-0.415,-2.016,-4.762,-5.758
-0.4,1750007862.8829043,1.6737796068,1465.5478409559114,3881.5036599064824,-0.415,-2.016,-4.76,-5.756
-0.4,1750007862.8829043,1.673779726,1465.5478409559114,3881.5036599064824,-0.414,-2.015,-4.759,-5.754
-0.4,1750007862.8829043,1.6737799644,1462.1771744567184,3882.397512057637,-0.414,-2.015,-4.758,-5.753
-0.4,1750007862.8829043,1.6737802029,1462.1771744567184,3882.397512057637,-0.414,-2.014,-4.757,-5.752
-0.4,1750007862.8829043,1.6737809181,1462.1771744567184,3882.397512057637,-0.414,-2.015,-4.758,-5.753
-0.4,1750007862.8829043,1.6737843752,1510.0801541641476,3869.9022919026884,-0.42,-2.029,-4.794,-5.795
-0.4,1750007862.8829043,1.673786521,1548.816618912481,3861.0017636183584,-0.424,-2.04,-4.824,-5.83
-0.4,1750007862.8829043,1.6737889051,1610.64563517827,3845.9178204535356,-0.432,-2.057,-4.869,-5.883
-0.4,1750007862.8829043,1.6737911701,1674.9428760264382,3830.8928063841463,-0.439,-2.076,-4.917,-5.938
-0.4,1750007862.8829043,1.6737939119,1786.4875748520499,3808.026833442713,-0.45,-2.104,-4.991,-6.024
-0.4,1750007862.8829043,1.6737972498,1936.4219639466069,3778.3309865888623,-0.46,-2.132,-5.085,-6.134
-0.4,1750007862.8829043,1.6738013029,2065.3801558105292,3753.185242379138,-0.464,-2.151,-5.161,-6.223
-0.4,1750007862.8829043,1.6738063097,2218.1964198002192,3726.490341997325,-0.469,-2.171,-5.245,-6.32
-0.4,1750007862.8829043,1.6738135815,2355.049283896009,3703.39469397536,-0.467,-2.18,-5.316,-6.403
-0.4,1750007862.8829043,1.6738190651,2460.3676041476274,3685.5304185247937,-0.462,-2.182,-5.369,-6.464
-0.4,1750007862.8829043,1.6738194227,2460.3676041476274,3685.5304185247937,-0.462,-2.182,-5.369,-6.464
-0.4,1750007862.8829043,1.6738198996,1330.4544179780914,3904.8108374925373,-0.368,-1.948,-4.649,-5.632
-0.4,1750007862.8829043,1.6738202572,1124.6049739669268,3967.345289316547,-0.326,-1.857,-4.453,-5.405
-0.4,1750007862.8829043,1.6738214493,656.1452663029056,4172.53511231794,-0.137,-1.517,-3.826,-4.679
-0.4,1750007862.8829043,1.6738232374,660.6934480075957,4169.653822449889,-0.139,-1.521,-3.834,-4.688
-0.4,1750007862.8829043,1.6738255024,820.3515443298185,4085.0746766312514,-0.22,-1.663,-4.086,-4.98
-0.4,1750007862.8829043,1.6738284826,1205.0359403717973,3939.1271544686583,-0.338,-1.89,-4.534,-5.5
-0.4,1750007862.8829043,1.6738321781,1713.9573075084252,3808.9037649813513,-0.413,-2.062,-4.946,-5.979
-0.4,1750007862.8829043,1.6738363504,2172.7011788637456,3723.059697665676,-0.441,-2.142,-5.224,-6.301
-0.4,1750007862.8829043,1.6738413572,2460.3676041476274,3678.7476696641274,-0.441,-2.161,-5.37,-6.469
-0.4,1750007862.8829043,1.6738469601,2588.2129151530903,3659.3167197534817,-0.434,-2.162,-5.43,-6.539
-0.4,1750007862.8829043,1.6738532782,2642.4087573219476,3649.2196100947112,-0.427,-2.159,-5.456,-6.57
-0.4,1750007862.8829043,1.6738535166,1702.15850839495,3802.769482436101,-0.394,-2.046,-4.94,-5.976
-0.4,1750007862.8829043,1.6738542318,1224.6161992650489,3922.8346253952054,-0.322,-1.885,-4.554,-5.528
-0.4,1750007862.8829043,1.6738556623,714.4963260755135,4126.6724632293635,-0.149,-1.56,-3.929,-4.803
-0.4,1750007862.8829043,1.6738576889,721.1074791828997,4122.873407228869,-0.151,-1.564,-3.937,-4.813
-0.4,1750007862.8829043,1.6738604307,893.3054837332954,4040.1733537300024,-0.228,-1.701,-4.187,-5.103
-0.4,1750007862.8829043,1.6738638878,1306.1708881318418,3896.7271730789967,-0.334,-1.917,-4.63,-5.618
-0.4,1750007862.8829043,1.6738681793,1853.5316234148106,3769.641066462436,-0.397,-2.068,-5.039,-6.093
-0.4,1750007862.8829043,1.6738731861,2344.228815319923,3685.5304185247937,-0.416,-2.13,-5.316,-6.412
-0.4,1750007862.8829043,1.6738790274,2648.500138606701,3641.665065732136,-0.408,-2.142,-5.461,-6.579
-0.4,1750007862.8829043,1.6738855839,2786.1211686297693,3622.4299841669877,-0.399,-2.139,-5.522,-6.649
-0.4,1750007862.8829043,1.6738929749,2851.0182675039096,3613.2665452345186,-0.39,-2.131,-5.55,-6.68
-0.4,1750007862.8829043,1.6738932133,1866.3796908346694,3760.10523668496,-0.383,-2.057,-5.049,-6.107
-0.4,1750007862.8829043,1.6738940477,1342.7649611378642,3878.8233380237325,-0.325,-1.919,-4.664,-5.662
-0.4,1750007862.8829043,1.6738955975,785.2356346100718,4080.3742668966966,-0.17,-1.612,-4.04,-4.937
-0.4,1750007862.8829043,1.6738979816,792.5013304804718,4077.556617502122,-0.172,-1.617,-4.049,-4.947
-0.4,1750007862.8829043,1.6739010811,979.4899854086991,3996.6857311446765,-0.243,-1.747,-4.295,-5.233
-0.4,1750007862.8829043,1.673905015,1422.32878712282,3856.559178913931,-0.335,-1.944,-4.732,-5.741
-0.4,1750007862.8829043,1.6739097834,2009.0928126087279,3732.5015779572063,-0.387,-2.078,-5.136,-6.209
-0.4,1750007862.8829043,1.6739153862,2535.128630497907,3650.059970708618,-0.391,-2.118,-5.41,-6.523
-0.4,1750007862.8829043,1.6739219427,2857.5905433749467,3608.278079727421,-0.376,-2.116,-5.554,-6.687
-0.4,1750007862.8829043,1.6739294529,3006.076302628232,3590.0458899019936,-0.365,-2.108,-5.615,-6.755
-0.4,1750007862.8829043,1.6739377975,3069.021988391158,3581.789013481115,-0.358,-2.103,-5.641,-6.786
-0.4,1750007862.8829043,1.673938036,2051.1621788255648,3722.202530178502,-0.381,-2.078,-5.16,-6.238
-0.4,1750007862.8829043,1.6739389896,1479.1083881682073,3839.723926353774,-0.335,-1.957,-4.777,-5.795
-0.4,1750007862.8829043,1.6739407778,864.967918775693,4041.103745134904,-0.198,-1.669,-4.153,-5.069
-0.4,1750007862.8829043,1.6739432812,872.9713683881113,4037.3834645533043,-0.2,-1.674,-4.162,-5.079
-0.4,1750007862.8829043,1.6739467382,1073.989412341245,3958.2206483572263,-0.263,-1.796,-4.405,-5.363
-0.4,1750007862.8829043,1.6739510298,1552.3870099580815,3820.322268844109,-0.341,-1.976,-4.834,-5.862
-0.4,1750007862.8829043,1.673956275,2177.709772353159,3697.4303349809716,-0.377,-2.083,-5.232,-6.322
-0.4,1750007862.8829043,1.6739624739,2735.268726306711,3617.4288676421797,-0.362,-2.1,-5.502,-6.631
-0.4,1750007862.8829043,1.6739696264,3076.096814740708,3575.197187450261,-0.339,-2.083,-5.644,-6.791
-0.4,1750007862.8829043,1.6739777327,3221.0687912834346,3557.9513055974294,-0.327,-2.074,-5.703,-6.858
-0.4,1750007862.8829043,1.6739869118,3296.097121774576,3549.7682446720896,-0.319,-2.067,-5.728,-6.887
-0.4,1750007862.8829043,1.6739871502,2249.0546058357804,3682.1374823089295,-0.367,-2.078,-5.271,-6.369
-0.4,1750007862.8829043,1.6739881039,1625.5487557504835,3800.143529415859,-0.341,-1.99,-4.889,-5.928
-0.4,1750007862.8829043,1.6739897728,952.7961640236521,4001.2897354069864,-0.224,-1.724,-4.265,-5.201
-0.4,1750007862.8829043,1.673992157,959.4006315159336,3998.5266968073333,-0.226,-1.728,-4.274,-5.211
-0.4,1750007862.8829043,1.6739953756,1177.6059735208078,3919.2232245497667,-0.277,-1.839,-4.512,-5.489
-0.4,1750007862.8829043,1.673999548,1686.5530253887407,3785.297343755959,-0.342,-1.999,-4.933,-5.979
-0.4,1750007862.8829043,1.6740045547,2349.6328208483073,3664.3757464783334,-0.359,-2.077,-5.323,-6.429
-0.4,1750007862.8829043,1.6740105152,2930.8932452503213,3585.9150751717484,-0.327,-2.068,-5.589,-6.732
-0.4,1750007862.8829043,1.6740174294,3280.9529311311903,3545.683774611333,-0.302,-2.048,-5.727,-6.887
-0.4,1750007862.8829043,1.674025178,3435.5794789987463,3528.5802582852702,-0.28,-2.024,-5.783,-6.951
-0.4,1750007862.8829043,1.6740339994,3507.5187395256794,3520.4647488942164,-0.269,-2.011,-5.807,-6.979
-0.4,1750007862.8829043,1.6740342379,2449.0632418447444,3646.699688942269,-0.348,-2.073,-5.373,-6.488
-0.4,1750007862.8829043,1.6740351915,1774.1894808901661,3764.436710736454,-0.34,-2.01,-4.992,-6.048
-0.4,1750007862.8829043,1.6740368605,1039.920165829059,3966.431879468582,-0.246,-1.773,-4.368,-5.321
-0.4,1750007862.8829043,1.6740393639,1047.1285480508996,3963.6929115081043,-0.247,-1.776,-4.375,-5.33
-0.4,1750007862.8829043,1.6740425825,1279.3813041575252,3885.974979543936,-0.29,-1.878,-4.61,-5.604
-0.4,1750007862.8829043,1.6740467548,1815.515662773135,3753.185242379138,-0.338,-2.014,-5.021,-6.083
-0.4,1750007862.8829043,1.6740518808,2506.109253032114,3634.9630454608155,-0.337,-2.067,-5.403,-6.524
-0.4,1750007862.8829043,1.6740579605,3111.716337106017,3557.9513055974294,-0.292,-2.036,-5.663,-6.818
-0.4,1750007862.8829043,1.6740648746,3467.368504525317,3518.0337377370256,-0.249,-1.99,-5.796,-6.969
-0.4,1750007862.8829043,1.6740727425,3622.4299841669877,3501.8698409688745,-0.227,-1.964,-5.848,-7.029
-0.4,1750007862.8829043,1.6740816832,3681.289736425313,3494.6203372688556,-0.215,-1.951,-5.869,-7.053
-0.4,1750007862.8829043,1.6740819216,2630.2679918953813,3614.9308991735757,-0.317,-2.05,-5.46,-6.59
-0.4,1750007862.8829043,1.674082756,1909.8532585662388,3731.642236647028,-0.334,-2.022,-5.079,-6.153
-0.4,1750007862.8829043,1.6740841866,1122.018454301963,3935.5007545577764,-0.259,-1.809,-4.456,-5.425
-0.4,1750007862.8829043,1.6740864515,1127.1974561755105,3933.688806732022,-0.26,-1.812,-4.463,-5.433
-0.4,1750007862.8829043,1.6740893126,1374.041975012515,3856.559178913931,-0.296,-1.905,-4.693,-5.702
-0.4,1750007862.8829043,1.6740931273,1931.9683170169242,3726.490341997325,-0.332,-2.024,-5.095,-6.171
-0.4,1750007862.8829043,1.6740976572,2648.500138606701,3609.940135864167,-0.308,-2.042,-5.47,-6.603
-0.4,1750007862.8829043,1.6741029024,3265.8783217233567,3533.4585410890204,-0.251,-1.993,-5.724,-6.89
-0.4,1750007862.8829043,1.6741091013,3630.780547701014,3495.425095985996,-0.203,-1.938,-5.853,-7.036
-0.4,1750007862.8829043,1.6741162539,3784.425847170932,3480.166322150038,-0.181,-1.913,-5.902,-7.093
-0.4,1750007862.8829043,1.6741241217,3837.0724549227884,3473.761519726527,-0.17,-1.902,-5.921,-7.115
-0.4,1750007862.8829043,1.6741243601,2792.543841237339,3588.3929932948636,-0.287,-2.024,-5.535,-6.677
-0.4,1750007862.8829043,1.6741250753,2032.3570109362208,3705.1005630192394,-0.328,-2.029,-5.154,-6.241
-0.4,1750007862.8829043,1.6741265059,1196.7405313072431,3911.1097238892944,-0.271,-1.842,-4.531,-5.512
-0.4,1750007862.8829043,1.6741285324,1202.2644346174131,3908.4089579240213,-0.272,-1.844,-4.537,-5.52
-0.4,1750007862.8829043,1.6741312742,1458.814260275349,3831.7750036138436,-0.302,-1.928,-4.764,-5.786
-0.4,1750007862.8829043,1.6741348505,2041.7379446695295,3702.5420540013483,-0.324,-2.026,-5.159,-6.247
-0.4,1750007862.8829043,1.6741390228,2773.320104651841,3587.566830392618,-0.279,-2.016,-5.529,-6.671
-0.4,1750007862.8829043,1.6741440296,3404.081897010009,3512.3679046568063,-0.207,-1.944,-5.777,-6.954
-0.4,1750007862.8829043,1.6741498709,3775.72190925416,3474.561474970439,-0.156,-1.886,-5.903,-7.096
-0.4,1750007862.8829043,1.6741565466,3926.449353995997,3458.597315106485,-0.13,-1.854,-5.951,-7.152
-0.4,1750007862.8829043,1.6741639376,3981.0717055349733,3453.027205056406,-0.115,-1.837,-5.969,-7.172
-0.4,1750007862.8829043,1.674164176,2951.209226666387,3562.049907308445,-0.252,-1.992,-5.603,-6.757
-0.4,1750007862.8829043,1.674164772,2152.781734724374,3679.594830147843,-0.313,-2.022,-5.223,-6.323
-0.4,1750007862.8829043,1.6741660833,1267.6518658578461,3885.974979543936,-0.278,-1.868,-4.599,-5.593
-0.4,1750007862.8829043,1.6741678715,1273.5030810166616,3884.1858339296286,-0.279,-1.87,-4.605,-5.6
-0.4,1750007862.8829043,1.6741703749,1541.70045294956,3808.026833442713,-0.303,-1.947,-4.828,-5.862
-0.4,1750007862.8829043,1.6741735935,2142.8906011200584,3680.4421857199322,-0.31,-2.019,-5.218,-6.316
-0.4,1750007862.8829043,1.6741774082,2897.3435877013244,3566.1532304264047,-0.25,-1.989,-5.582,-6.734
-0.4,1750007862.8829043,1.674181819,3539.9734108343464,3492.2071726340682,-0.164,-1.896,-5.825,-7.011
-0.4,1750007862.8829043,1.6741870642,3908.4089579240213,3455.413295778485,-0.108,-1.83,-5.949,-7.15
-0.4,1750007862.8829043,1.6741930246,4064.4332916521275,3440.329187682278,-0.08,-1.795,-5.996,-7.204
-0.4,1750007862.8829043,1.6741997004,4120.975190973304,3434.788498657803,-0.067,-1.779,-6.013,-7.223
-0.4,1750007862.8829043,1.6741999388,3097.419299216581,3539.1583956694994,-0.219,-1.959,-5.664,-6.828
-0.4,1750007862.8829043,1.6742005348,2264.6443075930597,3656.789826173249,-0.298,-2.017,-5.285,-6.395
-0.4,1750007862.8829043,1.6742017269,1333.521432163324,3865.44946598284,-0.284,-1.888,-4.66,-5.665
-0.4,1750007862.8829043,1.6742033958,1342.7649611378642,3862.780230114958,-0.284,-1.89,-4.666,-5.672
-0.4,1750007862.8829043,1.67420578,1618.0800376430661,3787.040939050054,-0.302,-1.959,-4.887,-5.932
-0.4,1750007862.8829043,1.6742086411,2238.72113856834,3660.1594055804926,-0.296,-2.013,-5.271,-6.38
-0.4,1750007862.8829043,1.6742122173,3013.006024186122,3547.316998366914,-0.223,-1.964,-5.631,-6.791
-0.4,1750007862.8829043,1.6742163897,3664.3757464783334,3473.761519726527,-0.124,-1.852,-5.87,-7.064
-0.4,1750007862.8829043,1.6742212772,4045.7589169744288,3437.1619861753497,-0.06,-1.773,-5.992,-7.201
-0.4,1750007862.8829043,1.6742268801,4197.589839910078,3422.9456231604145,-0.031,-1.737,-6.039,-7.254
-0.4,1750007862.8829043,1.674233079,4255.984131337431,3417.4329305629954,-0.018,-1.721,-6.055,-7.272
-0.4,1750007862.8829043,1.6742331982,3243.3961734934933,3516.4139963166635,-0.175,-1.91,-5.723,-6.897
-0.4,1750007862.8829043,1.6742339134,2376.840286624876,3634.1261606422304,-0.277,-2.006,-5.345,-6.467
-0.4,1750007862.8829043,1.6742349863,1402.8137045619576,3842.3772299890893,-0.282,-1.903,-4.72,-5.736
-0.4,1750007862.8829043,1.674236536,1409.2887984218748,3839.723926353774,-0.282,-1.905,-4.726,-5.744
-0.4,1750007862.8829043,1.674238801,1698.2436524617442,3764.436710736454,-0.294,-1.964,-4.945,-6.001
-0.4,1750007862.8829043,1.6742415428,2333.458062281002,3639.1503612720708,-0.276,-2.002,-5.324,-6.443
-0.4,1750007862.8829043,1.6742448807,3126.0793671239558,3527.7678661887385,-0.185,-1.922,-5.679,-6.848
-0.4,1750007862.8829043,1.6742488146,3793.1498497368207,3456.209025701263,-0.082,-1.803,-5.915,-7.117
-0.4,1750007862.8829043,1.6742533445,4178.303666466218,3419.794425137087,-0.014,-1.718,-6.036,-7.251
-0.4,1750007862.8829043,1.6742585897,4335.108783875289,3405.6498956736095,0.015,-1.681,-6.081,-7.303
-0.4,1750007862.8829043,1.674264431,4395.416154378243,3400.9480651219096,0.028,-1.666,-6.097,-7.321
-0.4,1750007862.8829043,1.6742645502,3396.2527259040853,3495.425095985996,-0.613,-2.492,-5.716,-6.896
-0.4,1750007862.8829043,1.6742651463,2494.5947269429535,3611.602957582318,-0.602,-2.368,-5.376,-6.482
-0.4,1750007862.8829043,1.6742662191,1472.3125024327194,3818.563350459785,-0.49,-2.097,-4.781,-5.772
-0.4,1750007862.8829043,1.6742676497,1479.1083881682073,3816.8052419008277,-0.491,-2.1,-4.787,-5.779
-0.4,1750007862.8829043,1.6742697954,1778.2794100389228,3742.8291224080526,-0.286,-1.968,-5.0,-6.068
-0.4,1750007862.8829043,1.6742722988,2437.8108183687523,3619.928562242391,-0.255,-1.986,-5.376,-6.504
-0.4,1750007862.8829043,1.6742753983,3243.3961734934933,3510.750771848301,-0.151,-1.885,-5.726,-6.903
-0.4,1750007862.8829043,1.6742790937,3926.449353995997,3440.329187682278,-0.042,-1.756,-5.959,-7.166
-0.4,1750007862.8829043,1.6742833853,4315.19076827765,3404.865806080549,0.025,-1.671,-6.076,-7.298
-0.4,1750007862.8829043,1.6742882729,4477.133041763624,3391.5638690582196,0.054,-1.635,-6.121,-7.349
-0.4,1750007862.8829043,1.6742937565,4528.975799036209,3386.881485634765,0.066,-1.62,-6.136,-7.366
-0.4,1750007862.8829043,1.6742941141,3548.133892335753,3476.161938153812,-0.665,-2.527,-5.759,-6.95
-0.4,1750007862.8829043,1.6742954254,2612.1613543992053,3590.0458899019936,-0.634,-2.395,-5.423,-6.543
-0.4,1750007862.8829043,1.6742976904,1548.816618912481,3795.7709700253163,-0.527,-2.132,-4.836,-5.838
-0.4,1750007862.8829043,1.6743010283,1559.552502826954,3790.5305394288553,-0.527,-2.135,-4.845,-5.85
-0.4,1750007862.8829043,1.6743055582,1879.3168168032685,3711.931900441403,-0.569,-2.231,-5.057,-6.104
-0.4,1750007862.8829043,1.674311161,2570.3957827688646,3580.1399184306892,-0.596,-2.363,-5.406,-6.532
-0.4,1750007862.8829043,1.6743181944,3427.6778654645045,3458.597315106485,-0.591,-2.462,-5.72,-6.924
-0.4,1750007862.8829043,1.6743263006,4149.5404263436285,3372.873086588689,-0.559,-2.507,-5.927,-7.189
-0.4,1750007862.8829043,1.6743358374,4581.418867145335,3321.2380132514595,-0.524,-2.515,-6.034,-7.33
-0.4,1750007862.8829043,1.6743465662,4775.2927365769065,3290.788720121735,-0.495,-2.505,-6.079,-7.395
-0.4,1750007862.8829043,1.6743587255,4875.284901033865,3268.1350899154786,-0.461,-2.485,-6.101,-7.432
-0.4,1750007862.8829043,1.6743590832,3917.4187710778306,3359.69613691214,-0.472,-2.424,-5.863,-7.134
-0.4,1750007862.8829043,1.6743601561,2890.6798823654744,3490.599322048292,-0.507,-2.341,-5.535,-6.718
-0.4,1750007862.8829043,1.6743623018,1717.9083871575876,3729.9241475247336,-0.511,-2.159,-4.957,-5.995
-0.4,1750007862.8829043,1.6743654013,1729.8163592151016,3723.917062545687,-0.509,-2.16,-4.966,-6.007
-0.4,1750007862.8829043,1.6743694544,2074.9135174549106,3634.9630454608155,-0.515,-2.227,-5.17,-6.262
-0.4,1750007862.8829043,1.6743746996,2811.9008303989394,3488.9922117346073,-0.474,-2.307,-5.502,-6.688
-0.4,1750007862.8829043,1.6743810177,3706.80721782576,3355.8303695328004,-0.41,-2.36,-5.802,-7.076
-0.4,1750007862.8829043,1.6743885279,4456.562483975033,3264.3746754294584,-0.358,-2.383,-6.001,-7.335
-0.4,1750007862.8829043,1.6743971109,4886.523593428336,3210.7020105619063,-0.326,-2.385,-6.104,-7.471
-0.4,1750007862.8829043,1.6744070053,5081.594425605605,3179.069335643364,-0.289,-2.369,-6.148,-7.533
-0.4,1750007862.8829043,1.6744180918,5176.068319505676,3155.0046233746275,-0.248,-2.344,-6.168,-7.567
-0.4,1750007862.8829043,1.6744184494,4255.984131337431,3244.1430790488475,-0.263,-2.298,-5.952,-7.3
-0.4,1750007862.8829043,1.6744195223,3162.2776601683795,3384.542718663093,-0.334,-2.248,-5.628,-6.884
-0.4,1750007862.8829043,1.6744215488,1883.6490894898002,3645.0207083030436,-0.437,-2.138,-5.062,-6.149
-0.4,1750007862.8829043,1.6744245291,1896.7059212111465,3638.3125123993877,-0.432,-2.137,-5.071,-6.162
-0.4,1750007862.8829043,1.674428463,2264.6443075930597,3542.4195826164946,-0.387,-2.168,-5.265,-6.418
-0.4,1750007862.8829043,1.6744334698,3040.88502567628,3387.661433708217,-0.306,-2.214,-5.585,-6.839
-0.4,1750007862.8829043,1.6744395494,3971.915494694405,3250.124518861833,-0.205,-2.235,-5.875,-7.219
-0.4,1750007862.8829043,1.6744468212,4742.419852602448,3156.4578912990714,-0.161,-2.254,-6.072,-7.472
-0.4,1750007862.8829043,1.6744551659,5188.000389289609,3101.7014994776896,-0.118,-2.25,-6.175,-7.604
-0.4,1750007862.8829043,1.6744645834,5395.1062251512785,3070.4356507300654,-0.066,-2.227,-6.218,-7.663
-0.4,1750007862.8829043,1.6744753122,5482.769649208536,3045.7903053734226,-0.014,-2.196,-6.238,-7.693
-0.4,1750007862.8829043,1.6744755507,4623.810213992603,3125.35964361334,-0.061,-2.173,-6.047,-7.464
-0.4,1750007862.8829043,1.6744766235,3451.437393358561,3269.640468343053,-0.121,-2.126,-5.72,-7.052
-0.4,1750007862.8829043,1.6744785309,2055.8905959841427,3538.343568147222,-0.287,-2.063,-5.16,-6.315
-0.4,1750007862.8829043,1.6744812727,2074.9135174549106,3531.83169791957,-0.28,-2.06,-5.168,-6.328
-0.4,1750007862.8829043,1.6744849682,2466.0393372343387,3433.99770042585,-0.223,-2.08,-5.357,-6.581
-0.4,1750007862.8829043,1.6744897366,3280.9529311311903,3280.1975507699003,-0.102,-2.095,-5.667,-6.992
-0.4,1750007862.8829043,1.6744954586,4255.984131337431,3143.4025417390094,-0.018,-2.116,-5.953,-7.36
-0.4,1750007862.8829043,1.6745022535,5046.612975635282,3051.4060291410433,0.045,-2.124,-6.147,-7.6
-0.4,1750007862.8829043,1.6745100021,5508.076964054036,2999.8531811907933,0.107,-2.111,-6.246,-7.72
-0.4,1750007862.8829043,1.6745189428,5714.786366718672,2970.297844017863,0.153,-2.091,-6.289,-7.771
-0.4,1750007862.8829043,1.6745289564,5807.644175213118,2947.81347660652,0.199,-2.064,-6.309,-7.799
-0.4,1750007862.8829043,1.6745291948,5023.4258952238715,3017.1715226017723,0.145,-2.051,-6.143,-7.611
-0.4,1750007862.8829043,1.6745302677,3758.374042884443,3160.8217127583484,0.068,-2.015,-5.815,-7.214
-0.4,1750007862.8829043,1.6745319366,2249.0546058357804,3431.6263979646833,-0.128,-1.979,-5.254,-6.48
-0.4,1750007862.8829043,1.6745345592,2264.6443075930597,3424.5223108915197,-0.119,-1.975,-5.262,-6.493
-0.4,1750007862.8829043,1.6745381355,2685.344445658506,3327.3615980616237,-0.035,-1.976,-5.447,-6.743
-0.4,1750007862.8829043,1.6745425463,3548.133892335753,3176.1426525728807,0.092,-1.981,-5.751,-7.142
-0.4,1750007862.8829043,1.6745480299,4560.369159512959,3042.2857274809608,0.168,-2.001,-6.034,-7.491
-0.4,1750007862.8829043,1.6745544672,5370.317963702527,2951.8888459446066,0.259,-1.994,-6.222,-7.711
-0.4,1750007862.8829043,1.6745618582,5847.900841444806,2901.3491821234015,0.319,-1.982,-6.324,-7.826
-0.4,1750007862.8829043,1.6745702028,6053.408747539136,2872.1029297978343,0.366,-1.962,-6.367,-7.875
-0.4,1750007862.8829043,1.6745797396,6151.7687270986835,2849.7056273411536,0.411,-1.936,-6.388,-7.899
-0.4,1750007862.8829043,1.674579978,5445.026528424214,2908.707160207584,0.364,-1.925,-6.244,-7.744
-0.4,1750007862.8829043,1.6745809317,4083.1938633269233,3050.7034978225156,0.255,-1.903,-5.914,-7.368
-0.4,1750007862.8829043,1.6745824814,2449.0632418447444,3322.7678521107573,0.064,-1.872,-5.345,-6.645
-0.4,1750007862.8829043,1.6745848656,2466.0393372343387,3316.6527215043507,0.075,-1.868,-5.353,-6.657
-0.4,1750007862.8829043,1.674587965,2917.427014001166,3221.0687912834346,0.162,-1.863,-5.536,-6.9
-0.4,1750007862.8829043,1.6745920181,3810.65823393773,3073.972656082513,0.269,-1.872,-5.837,-7.282
-0.4,1750007862.8829043,1.6745969057,4852.88500162121,2945.099689996018,0.373,-1.878,-6.112,-7.602
-0.4,1750007862.8829043,1.6746026278,5688.529308438413,2860.8823606272076,0.456,-1.877,-6.3,-7.809
-0.4,1750007862.8829043,1.6746094227,6151.7687270986835,2815.1400151333,0.508,-1.87,-6.394,-7.91
-0.4,1750007862.8829043,1.6746169329,6353.309318517436,2791.900908278534,0.538,-1.861,-6.435,-7.949
-0.4,1750007862.8829043,1.6746255159,6456.542290346556,2776.514846105508,0.565,-1.847,-6.453,-7.967
-0.4,1750007862.8829043,1.6746257544,5834.451042737448,2822.929290779784,0.537,-1.83,-6.334,-7.849
-0.4,1750007862.8829043,1.674626708,4405.548635065535,2960.0564950758185,0.429,-1.804,-6.002,-7.489
-0.4,1750007862.8829043,1.6746282578,2648.500138606701,3227.007687515532,0.244,-1.772,-5.429,-6.789
-0.4,1750007862.8829043,1.6746306419,2666.8586645214805,3212.9206511412604,0.274,-1.754,-5.438,-6.806
-0.4,1750007862.8829043,1.6746338606,3140.5086938762165,3107.420310388586,0.387,-1.728,-5.623,-7.051
-0.4,1750007862.8829043,1.6746379137,4073.802778041126,2947.134795608739,0.54,-1.7,-5.92,-7.411
-0.4,1750007862.8829043,1.6746428013,5152.286445817567,2802.205621666745,0.715,-1.662,-6.2,-7.714
-0.4,1750007862.8829043,1.6746486425,5997.910762555094,2697.7394324449206,0.85,-1.625,-6.391,-7.903
-0.4,1750007862.8829043,1.6746553183,6471.426157485831,2631.4795540202017,0.942,-1.591,-6.492,-7.988
-0.4,1750007862.8829043,1.6746630669,6683.439175686149,2587.617025712439,0.986,-1.574,-6.536,-8.026
-0.4,1750007862.8829043,1.6746716499,6776.41507610675,2553.877135779322,0.993,-1.577,-6.553,-8.044
-0.4,1750007862.8829043,1.6746718884,6280.58358813318,2584.6396357698422,1.048,-1.51,-6.468,-7.958
-0.4,1750007862.8829043,1.6746727228,4753.352259428054,2705.8268376488263,1.052,-1.404,-6.136,-7.646
-0.4,1750007862.8829043,1.6746741533,2870.780582024692,2955.2892906487523,0.873,-1.348,-5.537,-7.026
-0.4,1750007862.8829043,1.6746762991,2890.6798823654744,2864.8375471900267,1.099,-1.19,-5.556,-7.062
-0.4,1750007862.8829043,1.6746791601,3388.441561392024,2661.3377849246144,1.459,-1.001,-5.777,-7.273
-0.4,1750007862.8829043,1.6746828556,4365.158322401661,2404.916488744403,1.446,-1.113,-6.072,-7.562
-0.4,1750007862.8829043,1.6746873856,5457.57861091271,2182.7299118430014,1.31,-1.295,-6.324,-7.818
-0.4,1750007862.8829043,1.6746926308,6309.57344480193,2030.4860027168038,1.152,-1.453,-6.481,-7.976
-0.4,1750007862.8829043,1.6746987104,6776.41507610675,1952.9899120756843,1.073,-1.532,-6.56,-8.055
-0.4,1750007862.8829043,1.6747056246,6982.324040771711,1945.8080689095705,1.041,-1.564,-6.592,-8.087
-0.4,1750007862.8829043,1.6747134924,7079.457843841381,2010.018247113693,1.027,-1.578,-6.606,-8.101
