FeH,Age,Mini,L,Te,Bmag,Vmag,Jmag,Kmag
0.2,1400006332.2395284,0.093007721,0.00041879356511791827,2287.7048874073726,19.743,17.967,11.121,10.198
0.2,1400006332.2395284,0.1029621437,0.0005847900841444806,2393.8669011741927,19.361,17.593,10.758,9.835
0.2,1400006332.2395284,0.1052114218,0.0006237348354824192,2412.6815325916327,19.289,17.523,10.69,9.766
0.2,1400006332.2395284,0.1105028465,0.0007244359600749898,2457.5366312150454,19.116,17.353,10.527,9.602
0.2,1400006332.2395284,0.1160418317,0.0008413951416451947,2502.64932573108,18.946,17.187,10.366,9.441
0.2,1400006332.2395284,0.122871004,0.0010023052380778994,2556.8190886896873,18.745,16.991,10.177,9.251
0.2,1400006332.2395284,0.1427798569,0.0015066070661867417,2677.3182599684565,17.878,16.172,9.757,8.833
0.2,1400006332.2395284,0.1626887172,0.002074913517454911,2765.667715050151,17.024,15.384,9.439,8.521
0.2,1400006332.2395284,0.202506423,0.0033806483620598153,2890.6798823654744,15.87,14.297,8.953,8.044
0.2,1400006332.2395284,0.242217645,0.004897788193684461,2978.5164294291912,15.096,13.565,8.578,7.677
0.2,1400006332.2395284,0.2522785664,0.0053333489548762075,2999.16251898765,14.925,13.402,8.493,7.594
0.2,1400006332.2395284,0.3091424406,0.008147042840208396,3095.2804165939788,14.121,12.623,8.068,7.176
0.2,1400006332.2395284,0.3220981359,0.008994975815300356,3113.149665447022,13.956,12.467,7.964,7.074
0.2,1400006332.2395284,0.3280750215,0.009397233105646375,3121.763510848167,13.883,12.398,7.92,7.03
0.2,1400006332.2395284,0.3518228829,0.010990058394325208,3157.1847762703,13.606,12.137,7.76,6.873
0.2,1400006332.2395284,0.4015950263,0.015310874616820304,3241.1564884384366,13.022,11.581,7.428,6.543
0.2,1400006332.2395284,0.4513671398,0.021379620895022326,3334.2641276323507,12.441,11.023,7.096,6.209
0.2,1400006332.2395284,0.5011392832,0.030060763026282307,3440.329187682278,11.86,10.472,6.759,5.87
0.2,1400006332.2395284,0.5306800604,0.03715352290971726,3518.8438882095843,11.49,10.117,6.553,5.662
0.2,1400006332.2395284,0.5509114265,0.04275628861515862,3572.7283815192886,11.248,9.881,6.42,5.528
0.2,1400006332.2395284,0.5833563805,0.05420008904016239,3688.926481189961,10.803,9.437,6.201,5.31
0.2,1400006332.2395284,0.6006835699,0.061235039172477336,3750.5935291111437,10.581,9.216,6.09,5.201
0.2,1400006332.2395284,0.6151018739,0.06823386941416697,3816.8052419008277,10.371,9.011,5.993,5.108
0.2,1400006332.2395284,0.6504557133,0.08790225168308842,3979.2387763422494,9.879,8.538,5.763,4.897
0.2,1400006332.2395284,0.6607367396,0.09484184633008974,4032.7379297611305,9.73,8.399,5.696,4.839
0.2,1400006332.2395284,0.7002279162,0.125025903021772,4239.357093413646,9.166,7.89,5.448,4.636
0.2,1400006332.2395284,0.75,0.1778279410038923,4567.725533088667,8.36,7.216,5.157,4.445
0.2,1400006332.2395284,0.7773832679,0.2098939883623524,4678.428536839501,8.046,6.953,5.008,4.336
0.2,1400006332.2395284,0.8000000119,0.23933157564053875,4770.896554256487,7.798,6.747,4.89,4.251
0.2,1400006332.2395284,0.8500000238,0.31915378551007617,4983.104559705293,7.279,6.315,4.639,4.066
0.2,1400006332.2395284,0.8999999762,0.4216965034285822,5189.195108067298,6.815,5.924,4.401,3.887
0.2,1400006332.2395284,0.9036169648,0.4295364267648873,5203.553211345586,6.783,5.897,4.384,3.874
0.2,1400006332.2395284,0.9500000477,0.5495408738576245,5386.4173456235285,6.396,5.569,4.173,3.709
0.2,1400006332.2395284,0.980355382,0.6426877173170197,5499.206143874975,6.156,5.366,4.038,3.6
0.2,1400006332.2395284,1.0,0.7112135136533291,5570.574669415543,6.007,5.24,3.955,3.533
0.2,1400006332.2395284,1.0117540359,0.7533555637337174,5611.771769773147,5.919,5.165,3.905,3.492
0.2,1400006332.2395284,1.0499999523,0.9120108393559098,5741.164622073275,5.646,4.933,3.744,3.358
0.2,1400006332.2395284,1.0905333757,1.109174815262401,5870.836693962703,5.37,4.698,3.576,3.216
0.2,1400006332.2395284,1.1000000238,1.158777356155126,5900.651969956664,5.307,4.645,3.538,3.183
0.2,1400006332.2395284,1.1264055967,1.3152248321922384,5978.606913524932,5.135,4.499,3.431,3.092
0.2,1400006332.2395284,1.1499999762,1.4655478409559115,6047.835918818006,4.986,4.371,3.337,3.01
0.2,1400006332.2395284,1.2000000477,1.840772001468956,6185.858764917845,4.683,4.111,3.14,2.838
0.2,1400006332.2395284,1.2003250122,1.8450154191794736,6185.858764917845,4.681,4.11,3.139,2.837
0.2,1400006332.2395284,1.2357531786,2.147830474130534,6277.691938382178,4.479,3.935,3.006,2.72
0.2,1400006332.2395284,1.25,2.280342072000418,6312.479779910386,4.4,3.867,2.953,2.673
0.2,1400006332.2395284,1.2999999523,2.7989813196343625,6429.8375410824665,4.135,3.637,2.773,2.512
0.2,1400006332.2395284,1.3482494354,3.372873086588689,6534.313996495986,3.898,3.429,2.607,2.362
0.2,1400006332.2395284,1.3500000238,3.3962527259040844,6537.323852287956,3.889,3.421,2.601,2.356
0.2,1400006332.2395284,1.3540196419,3.451437393358563,6546.361740672747,3.87,3.404,2.588,2.344
0.2,1400006332.2395284,1.3999999762,4.083193863326921,6638.959204886984,3.658,3.215,2.435,2.205
0.2,1400006332.2395284,1.4037661552,4.139996748197304,6646.606990710733,3.641,3.199,2.423,2.194
0.2,1400006332.2395284,1.4500000477,4.875284901033862,6728.217155215477,3.437,3.016,2.273,2.055
0.2,1400006332.2395284,1.5,5.79428696426881,6810.829367676388,3.227,2.825,2.114,1.908
0.2,1400006332.2395284,1.5156494379,6.109420249055721,6831.247179792927,3.165,2.767,2.064,1.861
0.2,1400006332.2395284,1.5469976664,6.760829753919817,6862.778784114733,3.043,2.653,1.963,1.765
0.2,1400006332.2395284,1.5499999523,6.839116472814292,6864.359179269944,3.032,2.643,1.954,1.755
0.2,1400006332.2395284,1.576235652,7.430191378967014,6889.695054811368,2.933,2.55,1.871,1.676
0.2,1400006332.2395284,1.6000000238,8.016780633876792,6903.987557278437,2.846,2.466,1.794,1.601
0.2,1400006332.2395284,1.6239434481,8.649679187756934,6918.309709189362,2.759,2.383,1.717,1.526
0.2,1400006332.2395284,1.6499999762,9.375620069258803,6921.49644226647,2.668,2.293,1.629,1.439
0.2,1400006332.2395284,1.6649708748,9.817479430199844,6921.49644226647,2.616,2.242,1.578,1.388
0.2,1400006332.2395284,1.6749999523,10.139113857366794,6919.902892284818,2.581,2.207,1.543,1.353
0.2,1400006332.2395284,1.6976706982,10.889300933334333,6911.940643980488,2.505,2.13,1.464,1.274
0.2,1400006332.2395284,1.7000000477,10.964781961431852,6911.940643980488,2.497,2.122,1.456,1.265
0.2,1400006332.2395284,1.7026264668,11.04078619902073,6910.349294049405,2.488,2.113,1.447,1.256
0.2,1400006332.2395284,1.7250001431,11.830415557251646,6894.455931709223,2.416,2.038,1.367,1.174
0.2,1400006332.2395284,1.7270025015,11.91242008027375,6892.868607318448,2.409,2.031,1.359,1.166
0.2,1400006332.2395284,1.75,12.76438808811344,6859.619085293151,2.34,1.956,1.273,1.076
0.2,1400006332.2395284,1.7739890814,13.740419750125149,6817.105263058537,2.271,1.879,1.18,0.978
0.2,1400006332.2395284,1.7750000954,13.772094688939466,6813.9665928283175,2.268,1.875,1.176,0.973
0.2,1400006332.2395284,1.7937642336,14.52111617587742,6765.501583068961,2.22,1.818,1.1,0.891
0.2,1400006332.2395284,1.7999999523,14.791083881682072,6746.833613988271,2.205,1.799,1.074,0.863
0.2,1400006332.2395284,1.8116085529,15.310874616820303,6714.288529259523,2.177,1.764,1.027,0.811
0.2,1400006332.2395284,1.8250000477,15.88546748597779,6668.067692136218,2.149,1.725,0.971,0.749
0.2,1400006332.2395284,1.8313002586,16.18080037643066,6645.076729077792,2.136,1.707,0.944,0.719
0.2,1400006332.2395284,1.8499999046,16.982436524617444,6561.452663029057,2.105,1.657,0.861,0.625
0.2,1400006332.2395284,1.8520363569,17.10015315090288,6552.39394015981,2.102,1.652,0.852,0.614
0.2,1400006332.2395284,1.8736627102,18.071741260109267,6456.542290346556,2.072,1.597,0.759,0.507
0.2,1400006332.2395284,1.875,18.113400926196025,6450.598332848317,2.071,1.594,0.753,0.5
0.2,1400006332.2395284,1.881061554,18.407720014689556,6422.4391767043135,2.064,1.579,0.726,0.468
0.2,1400006332.2395284,1.9000000954,19.31968317016924,6328.488569256951,2.046,1.533,0.64,0.368
0.2,1400006332.2395284,1.9007400274,19.31968317016924,6324.118513762197,2.045,1.532,0.636,0.364
0.2,1400006332.2395284,1.9206295013,20.65380155810529,6248.848563929625,2.003,1.466,0.537,0.252
0.2,1400006332.2395284,1.9249999523,21.03778439766475,6235.912317626269,1.989,1.448,0.514,0.226
0.2,1400006332.2395284,1.9251657724,21.03778439766475,6234.476611050059,1.989,1.448,0.513,0.225
0.2,1400006332.2395284,1.9253001213,21.03778439766475,6234.476611050059,1.988,1.447,0.512,0.225
0.2,1400006332.2395284,1.929468751,22.080047330189004,6279.137596800936,1.918,1.391,0.477,0.197
0.2,1400006332.2395284,1.9340834618,23.87811282913177,6387.045353025886,1.79,1.296,0.431,0.169
0.2,1400006332.2395284,1.9354883432,25.644840365177174,6529.801810928715,1.66,1.208,0.404,0.164
0.2,1400006332.2395284,1.9360001087,27.41574171927882,6684.978271615899,1.538,1.124,0.382,0.165
0.2,1400006332.2395284,1.9362249374,29.10717118066605,6820.245379032683,1.434,1.051,0.364,0.165
0.2,1400006332.2395284,1.936372757,30.69021988391158,6942.246017141189,1.345,0.988,0.348,0.166
0.2,1400006332.2395284,1.9364511967,31.477483141013156,7004.8687123168265,1.303,0.959,0.343,0.168
0.2,1400006332.2395284,1.9364943504,30.338911841942704,6961.45467729398,1.353,1.001,0.368,0.188
0.2,1400006332.2395284,1.9365487099,28.379190284415568,6858.039781459258,1.452,1.077,0.404,0.21
0.2,1400006332.2395284,1.9366033077,26.977394324449207,6726.668104310991,1.544,1.14,0.415,0.204
0.2,1400006332.2395284,1.9366796017,26.42408757321946,6569.011164762662,1.614,1.172,0.384,0.15
0.2,1400006332.2395284,1.9367792606,26.791683248190314,6419.482215080359,1.649,1.167,0.316,0.059
0.2,1400006332.2395284,1.9369196892,27.227013080779127,6276.246612800244,1.687,1.161,0.247,-0.033
0.2,1400006332.2395284,1.9371298552,27.289777828080403,6129.146470875522,1.748,1.175,0.194,-0.112
0.2,1400006332.2395284,1.9374262094,26.730064086633117,5982.738215608625,1.835,1.214,0.163,-0.171
0.2,1400006332.2395284,1.9378267527,25.527013026612472,5831.764797316426,1.958,1.287,0.158,-0.206
0.2,1400006332.2395284,1.938182354,24.266100950824157,5718.735365066645,2.073,1.365,0.177,-0.211
0.2,1400006332.2395284,1.9385640621,22.59435770220978,5607.8966337451,2.209,1.465,0.216,-0.196
0.2,1400006332.2395284,1.9389013052,21.03778439766475,5514.422023817434,2.338,1.566,0.264,-0.171
0.2,1400006332.2395284,1.9393004179,19.18668740670289,5410.034068634678,2.496,1.691,0.329,-0.13
0.2,1400006332.2395284,1.9396924973,17.78279410038923,5312.5129290366,2.64,1.803,0.383,-0.1
0.2,1400006332.2395284,1.9400837421,16.94337800447329,5221.556720489596,2.75,1.882,0.406,-0.1
0.2,1400006332.2395284,1.9401882887,16.94337800447329,5201.157438224064,2.764,1.89,0.4,-0.112
0.2,1400006332.2395284,1.9404997826,17.298163592151013,5143.988630287732,2.78,1.885,0.359,-0.168
0.2,1400006332.2395284,1.940705657,17.701089583174213,5108.5776616335625,2.781,1.873,0.323,-0.213
0.2,1400006332.2395284,1.9408929348,18.15515662773135,5078.085396648894,2.778,1.859,0.288,-0.257
0.2,1400006332.2395284,1.941054821,18.706821403658008,5054.753713597985,2.762,1.834,0.247,-0.304
0.2,1400006332.2395284,1.9412032366,19.31968317016924,5035.006087879047,2.743,1.807,0.206,-0.351
0.2,1400006332.2395284,1.9413439035,19.906733389871864,5015.335611066592,2.724,1.781,0.167,-0.396
0.2,1400006332.2395284,1.9414783716,20.558905959841415,4998.043135782391,2.704,1.754,0.127,-0.44
0.2,1400006332.2395284,1.9416104555,21.330449131465762,4981.957289567119,2.678,1.722,0.084,-0.488
0.2,1400006332.2395284,1.9417418242,22.080047330189004,4965.923214503363,2.653,1.691,0.041,-0.535
0.2,1400006332.2395284,1.9418725967,22.8559880337543,4951.080641176657,2.627,1.659,-0.002,-0.583
0.2,1400006332.2395284,1.942002058,23.71373705661655,4937.419182496813,2.598,1.624,-0.046,-0.632
0.2,1400006332.2395284,1.9421298504,24.603676041476273,4923.795419719503,2.57,1.59,-0.091,-0.68
0.2,1400006332.2395284,1.9422547817,25.58585886905645,4910.20924883086,2.541,1.555,-0.135,-0.728
0.2,1400006332.2395284,1.9423774481,26.54605561975539,4896.660566104027,2.511,1.52,-0.179,-0.777
0.2,1400006332.2395284,1.9424967766,27.542287033381662,4884.273784229252,2.483,1.487,-0.223,-0.824
0.2,1400006332.2395284,1.9426128864,28.510182675039097,4871.918336436785,2.455,1.453,-0.266,-0.87
0.2,1400006332.2395284,1.9427428246,29.716660317380267,4858.475309374926,2.422,1.415,-0.314,-0.923
0.2,1400006332.2395284,1.94285357,30.83187950249355,4847.301126243664,2.394,1.382,-0.356,-0.969
0.2,1400006332.2395284,1.942986846,32.210687912834345,4832.813100695309,2.359,1.342,-0.407,-1.024
0.2,1400006332.2395284,1.9431136847,33.57376142429547,4819.477976251272,2.326,1.303,-0.456,-1.078
0.2,1400006332.2395284,1.9432338476,34.914031547858606,4807.286438439701,2.295,1.267,-0.503,-1.128
0.2,1400006332.2395284,1.9433374405,36.14098626396133,4796.22998644458,2.268,1.235,-0.543,-1.172
0.2,1400006332.2395284,1.9434469938,37.41105882720533,4785.198963583403,2.239,1.202,-0.584,-1.216
0.2,1400006332.2395284,1.9435899258,39.174187710778305,4771.995220268839,2.203,1.16,-0.637,-1.274
0.2,1400006332.2395284,1.9437652826,41.20975190973302,4756.636893186042,2.162,1.112,-0.698,-1.339
0.2,1400006332.2395284,1.9438351393,41.97589839910075,4752.257885621896,2.148,1.096,-0.717,-1.36
0.2,1400006332.2395284,1.9439095259,42.55984131337431,4747.882909415973,2.136,1.083,-0.734,-1.379
0.2,1400006332.2395284,1.9439588785,42.85485203974394,4746.789794829222,2.13,1.076,-0.742,-1.387
0.2,1400006332.2395284,1.9439998865,43.05266104917106,4745.696931912426,2.126,1.071,-0.748,-1.393
0.2,1400006332.2395284,1.9440379143,43.251383103500864,4744.604320607653,2.122,1.067,-0.753,-1.398
0.2,1400006332.2395284,1.9440716505,43.35108783875289,4743.511960856962,2.119,1.063,-0.757,-1.403
0.2,1400006332.2395284,1.9441081285,43.55118736855686,4742.419852602448,2.114,1.059,-0.762,-1.408
0.2,1400006332.2395284,1.9441469908,43.85306977749856,4741.3279957862,2.11,1.053,-0.769,-1.416
0.2,1400006332.2395284,1.9442132711,44.46312674691086,4738.053933388255,2.098,1.04,-0.785,-1.433
0.2,1400006332.2395284,1.9444084167,47.64309868054156,4717.370642684883,2.044,0.977,-0.864,-1.519
0.2,1400006332.2395284,1.9446679354,51.999599653351595,4691.37338834597,1.973,0.895,-0.969,-1.632
0.2,1400006332.2395284,1.9449237585,56.88529308438413,4664.445252037798,1.903,0.813,-1.073,-1.746
0.2,1400006332.2395284,1.9451755285,62.23002851691595,4637.671681240619,1.834,0.732,-1.178,-1.86
0.2,1400006332.2395284,1.9454228878,68.07693586937414,4609.990177075899,1.766,0.652,-1.282,-1.974
0.2,1400006332.2395284,1.9456596375,74.30191378967014,4582.47389928456,1.705,0.574,-1.385,-2.086
0.2,1400006332.2395284,1.9459244013,82.03515443298181,4551.9763814842045,1.638,0.487,-1.502,-2.213
0.2,1400006332.2395284,1.9461544752,89.74287945007487,4523.764623324995,1.58,0.411,-1.606,-2.327
0.2,1400006332.2395284,1.9464408159,100.46157902783946,4487.453899331323,1.506,0.314,-1.739,-2.472
0.2,1400006332.2395284,1.9467090368,111.94378834671514,4452.459727917414,1.438,0.223,-1.866,-2.611
0.2,1400006332.2395284,1.9469435215,123.02687708123811,4421.809210742687,1.38,0.145,-1.977,-2.734
0.2,1400006332.2395284,1.9472175837,137.08817661648536,4386.316848258552,1.313,0.055,-2.105,-2.874
0.2,1400006332.2395284,1.9474518299,149.9684835502374,4358.128185607303,1.26,-0.017,-2.208,-2.988
0.2,1400006332.2395284,1.9477131367,162.9296032639723,4331.1178393104055,1.212,-0.082,-2.305,-3.094
0.2,1400006332.2395284,1.9481498003,180.3017740859568,4298.3324252156535,1.152,-0.167,-2.424,-3.224
0.2,1400006332.2395284,1.9484374523,167.49428760264382,4323.146969108837,1.195,-0.106,-2.337,-3.13
0.2,1400006332.2395284,1.9484416246,167.1090614310707,4323.146969108837,1.195,-0.105,-2.336,-3.129
0.2,1400006332.2395284,1.9485601187,159.220872705117,4340.10263644744,1.223,-0.067,-2.279,-3.065
0.2,1400006332.2395284,1.948644042,149.2794409578996,4362.144019080488,1.26,-0.015,-2.202,-2.981
0.2,1400006332.2395284,1.9487187862,139.95873225726177,4383.2879341924645,1.298,0.037,-2.127,-2.897
0.2,1400006332.2395284,1.9487985373,129.12192736135347,4408.592931591316,1.346,0.102,-2.034,-2.795
0.2,1400006332.2395284,1.948884964,118.30415557251646,4438.12980308139,1.398,0.174,-1.93,-2.681
0.2,1400006332.2395284,1.9489780664,107.64652136298349,4469.922568418684,1.455,0.252,-1.82,-2.559
0.2,1400006332.2395284,1.9490766525,97.94899854086991,4500.906591456169,1.516,0.332,-1.709,-2.437
0.2,1400006332.2395284,1.949297905,85.31001140175896,4546.738740611353,1.604,0.449,-1.545,-2.257
0.2,1400006332.2395284,1.949483633,81.09610578538408,4563.520439214676,1.637,0.493,-1.485,-2.191
0.2,1400006332.2395284,1.9497138262,49.20395356814509,4728.2453051179655,1.996,0.934,-0.899,-1.55
0.2,1400006332.2395284,1.9497219324,47.533522594280534,4739.145036236972,2.025,0.967,-0.856,-1.503
0.2,1400006332.2395284,1.9497280121,46.238102139926035,4747.882909415973,2.045,0.991,-0.825,-1.469
0.2,1400006332.2395284,1.949734807,45.28975799036207,4755.541763152083,2.061,1.01,-0.8,-1.442
0.2,1400006332.2395284,1.949745059,43.85306977749856,4765.407017251339,2.085,1.039,-0.763,-1.402
0.2,1400006332.2395284,1.9497586489,42.46195639463128,4775.2927365769065,2.11,1.068,-0.726,-1.361
0.2,1400006332.2395284,1.9497789145,40.73802778041128,4789.608324977883,2.143,1.106,-0.676,-1.306
0.2,1400006332.2395284,1.949811101,38.90451449942807,4803.966829296808,2.179,1.149,-0.622,-1.248
0.2,1400006332.2395284,1.9498672485,36.897759857015025,4821.697939006178,2.221,1.198,-0.56,-1.18
0.2,1400006332.2395284,1.9499750137,34.35579478998746,4845.069375499792,2.278,1.264,-0.475,-1.088
0.2,1400006332.2395284,1.9502109289,31.988951096913972,4869.675251658631,2.334,1.331,-0.39,-0.995
0.2,1400006332.2395284,1.9504249096,32.210687912834345,4866.312560731986,2.329,1.325,-0.398,-1.004
0.2,1400006332.2395284,1.9508351088,34.753616144320574,4841.7236758409945,2.269,1.254,-0.488,-1.102
0.2,1400006332.2395284,1.9514074326,36.72823004980846,4823.918924327151,2.225,1.203,-0.553,-1.172
0.2,1400006332.2395284,1.973205328,35.3183169791957,4865.192179849536,2.23,1.224,-0.499,-1.106
0.2,1400006332.2395284,1.9953123331,36.55947916131249,4883.149268098355,2.175,1.176,-0.533,-1.134
0.2,1400006332.2395284,2.0117602348,38.54783576657719,4887.648886615807,2.114,1.116,-0.59,-1.189
0.2,1400006332.2395284,2.0411450863,43.35108783875289,4886.523593428336,1.99,0.991,-0.716,-1.315
0.2,1400006332.2395284,2.0421872139,43.55118736855686,4885.398559319364,1.985,0.986,-0.721,-1.321
0.2,1400006332.2395284,2.0598967075,47.315125896148054,4876.407606118823,1.902,0.898,-0.815,-1.418
0.2,1400006332.2395284,2.0841374397,54.954087385762456,4842.83865227851,1.771,0.753,-0.986,-1.599
0.2,1400006332.2395284,2.0890622139,56.36376558259543,4836.152643020435,1.749,0.728,-1.017,-1.632
0.2,1400006332.2395284,2.089268446,56.49369748123026,4835.039205916214,1.748,0.727,-1.018,-1.633
0.2,1400006332.2395284,2.0923449993,58.74893525297766,4820.587829837399,1.719,0.692,-1.064,-1.684
0.2,1400006332.2395284,2.0981266499,66.98846094165265,4765.407017251339,1.624,0.575,-1.224,-1.862
0.2,1400006332.2395284,2.0993494987,71.77942912713618,4736.963081746328,1.578,0.516,-1.307,-1.953
0.2,1400006332.2395284,2.1000475883,77.98301105232585,4703.2709644077795,1.521,0.445,-1.406,-2.064
0.2,1400006332.2395284,2.100464344,85.50667128846833,4666.593803142887,1.462,0.366,-1.516,-2.186
0.2,1400006332.2395284,2.100689888,93.5405674147552,4632.335436779563,1.407,0.291,-1.623,-2.304
0.2,1400006332.2395284,2.1008172035,102.32929922807536,4598.328567699996,1.351,0.215,-1.731,-2.423
0.2,1400006332.2395284,2.1008918285,111.42945335917304,4566.673896495316,1.297,0.142,-1.833,-2.536
0.2,1400006332.2395284,2.1009438038,121.89895989248662,4534.192977790139,1.244,0.069,-1.939,-2.654
0.2,1400006332.2395284,2.1009466648,122.74392311584072,4531.0619497855805,1.241,0.064,-1.946,-2.661
0.2,1400006332.2395284,2.1009702682,126.4736347471151,4520.640796485013,1.222,0.039,-1.982,-2.701
0.2,1400006332.2395284,2.1009991169,130.9181922999407,4508.167045414601,1.2,0.009,-2.024,-2.748
0.2,1400006332.2395284,2.1010284424,134.58603540559483,4498.834324565384,1.184,-0.013,-2.056,-2.783
0.2,1400006332.2395284,2.1010885239,135.51894123510365,4496.763011769069,1.178,-0.02,-2.065,-2.793
0.2,1400006332.2395284,2.1011476517,129.7179270983956,4513.360253409558,1.204,0.016,-2.013,-2.734
0.2,1400006332.2395284,2.101228714,124.45146117713857,4527.933083871694,1.23,0.052,-1.962,-2.678
0.2,1400006332.2395284,2.1014215946,119.3988104464273,4543.599049293402,1.255,0.086,-1.913,-2.624
0.2,1400006332.2395284,2.1037564278,129.41958414499862,4515.439211278319,1.204,0.016,-2.01,-2.731
0.2,1400006332.2395284,2.105199337,146.21771744567184,4471.981517887507,1.13,-0.085,-2.154,-2.89
0.2,1400006332.2395284,2.1061513424,164.43717232149325,4430.982144892989,1.062,-0.179,-2.292,-3.042
0.2,1400006332.2395284,2.1068356037,184.92686189780778,4389.34785534717,0.994,-0.274,-2.431,-3.197
0.2,1400006332.2395284,2.107363224,207.01413487910415,4350.10760630697,0.932,-0.366,-2.562,-3.34
0.2,1400006332.2395284,2.1077885628,229.08676527677724,4314.197273268735,0.876,-0.448,-2.68,-3.469
0.2,1400006332.2395284,2.1081483364,252.92979964461446,4280.55419586204,0.822,-0.527,-2.793,-3.592
0.2,1400006332.2395284,2.108464241,277.97132677592884,4247.173474714387,0.769,-0.602,-2.902,-3.712
0.2,1400006332.2395284,2.1087470055,304.088502567628,4215.994153984273,0.717,-0.674,-3.007,-3.828
0.2,1400006332.2395284,2.1090023518,332.65955329400435,4185.043726669273,0.666,-0.744,-3.11,-3.941
0.2,1400006332.2395284,2.1092300415,363.0780547701014,4155.277190204325,0.616,-0.81,-3.21,-4.051
0.2,1400006332.2395284,2.1094236374,394.4573020752785,4125.7223711671995,0.568,-0.873,-3.307,-4.16
0.2,1400006332.2395284,2.1095776558,428.54852039743963,4097.321098135413,0.521,-0.935,-3.402,-4.266
0.2,1400006332.2395284,2.1096966267,464.5152752227492,4070.0523944023344,0.478,-0.991,-3.494,-4.37
0.2,1400006332.2395284,2.1097817421,497.7370849789361,4045.7589169744288,0.447,-1.035,-3.577,-4.463
0.2,1400006332.2395284,2.1098546982,534.5643593969719,4021.6104433421337,0.416,-1.079,-3.66,-4.557
0.2,1400006332.2395284,2.1099355221,587.4893525297769,3988.4118690905275,0.377,-1.136,-3.772,-4.684
0.2,1400006332.2395284,2.1100072861,645.6542290346556,3954.5766707846387,0.342,-1.184,-3.883,-4.81
0.2,1400006332.2395284,2.1100769043,711.2135136533288,3921.931463326502,0.306,-1.234,-3.997,-4.938
0.2,1400006332.2395284,2.1101360321,770.90346906443,3893.1398070156406,0.277,-1.276,-4.094,-5.048
0.2,1400006332.2395284,2.1102089882,853.1001140175895,3856.559178913931,0.249,-1.314,-4.214,-5.184
0.2,1400006332.2395284,2.1102819443,939.7233105646376,3822.0819974268243,0.224,-1.349,-4.33,-5.316
0.2,1400006332.2395284,2.1103610992,1039.920165829059,3785.297343755959,0.207,-1.373,-4.45,-5.452
0.2,1400006332.2395284,2.1104426384,1145.5129414455362,3749.730022454834,0.2,-1.383,-4.567,-5.584
0.2,1400006332.2395284,2.1105279922,1256.0299636948755,3714.496897976222,0.195,-1.391,-4.681,-5.713
0.2,1400006332.2395284,2.1106159687,1377.2094688939458,3680.4421857199322,0.207,-1.374,-4.793,-5.84
0.2,1400006332.2395284,2.1107041836,1510.0801541641476,3645.8601019727603,0.221,-1.355,-4.905,-5.966
0.2,1400006332.2395284,2.1107695103,1629.296032639723,3616.5960197524582,0.241,-1.327,-4.999,-6.072
0.2,1400006332.2395284,2.1107833385,1655.7699634695275,3611.602957582318,0.246,-1.321,-5.017,-6.092
0.2,1400006332.2395284,2.1107895374,1702.15850839495,3599.979270433565,0.259,-1.303,-5.052,-6.132
0.2,1400006332.2395284,2.1107964516,1741.8068733916145,3590.872623694513,0.27,-1.289,-5.08,-6.164
0.2,1400006332.2395284,2.1107981205,1745.8221529205039,3590.0458899019936,0.272,-1.287,-5.084,-6.169
0.2,1400006332.2395284,2.1107985973,1644.3717232149324,3571.083458083457,0.401,-1.139,-5.026,-6.119
0.2,1400006332.2395284,2.1107993126,788.860117618554,3837.0724549227884,0.37,-1.188,-4.134,-5.113
0.2,1400006332.2395284,2.110799551,716.143410212902,3876.144867002412,0.388,-1.16,-4.016,-4.979
0.2,1400006332.2395284,2.1108012199,413.04750199016144,4102.041029866068,0.555,-0.898,-3.361,-4.224
0.2,1400006332.2395284,2.1108036041,414.95404263436285,4099.208418770049,0.554,-0.9,-3.367,-4.231
0.2,1400006332.2395284,2.1108071804,519.9959965335162,4003.132821780234,0.475,-1.024,-3.635,-4.541
0.2,1400006332.2395284,2.1108114719,783.429642766212,3835.3058245685934,0.38,-1.177,-4.126,-5.107
0.2,1400006332.2395284,2.1108169556,1161.4486138403427,3680.4421857199322,0.376,-1.188,-4.605,-5.652
0.2,1400006332.2395284,2.1108233929,1531.0874616820304,3574.3740626448075,0.458,-1.077,-4.946,-6.038
0.2,1400006332.2395284,2.1108310223,1790.6058540352947,3514.7950006430638,0.547,-0.958,-5.14,-6.256
0.2,1400006332.2395284,2.1108398438,1936.4219639466069,3483.3731503601166,0.608,-0.878,-5.239,-6.368
0.2,1400006332.2395284,2.1108498573,2037.042077705719,3461.784268375584,0.658,-0.814,-5.302,-6.441
0.2,1400006332.2395284,2.1108500957,1193.9881044642732,3655.9479161312506,0.421,-1.135,-4.645,-5.703
0.2,1400006332.2395284,2.1108510494,895.3647655495937,3767.0379898390893,0.402,-1.163,-4.293,-5.304
0.2,1400006332.2395284,2.1108527184,516.416369272071,3988.4118690905275,0.509,-0.995,-3.629,-4.542
0.2,1400006332.2395284,2.1108551025,515.2286445817567,3990.2490236214207,0.509,-0.995,-3.626,-4.539
0.2,1400006332.2395284,2.1108586788,638.263486190549,3902.114421141359,0.451,-1.085,-3.885,-4.837
0.2,1400006332.2395284,2.1108634472,948.4184633008969,3745.4154703610106,0.398,-1.168,-4.362,-5.382
0.2,1400006332.2395284,2.1108689308,1380.3842646028852,3601.6375039472773,0.459,-1.083,-4.824,-5.904
0.2,1400006332.2395284,2.110875845,1790.6058540352947,3505.9038393261267,0.585,-0.913,-5.144,-6.264
0.2,1400006332.2395284,2.1108837128,2055.8905959841427,3456.209025701263,0.677,-0.791,-5.314,-6.454
0.2,1400006332.2395284,2.1108930111,2177.709772353159,3435.5794789987463,0.726,-0.727,-5.385,-6.534
0.2,1400006332.2395284,2.1109035015,2233.5722228305326,3426.888704327863,0.748,-0.699,-5.417,-6.57
0.2,1400006332.2395284,2.1109037399,1330.4544179780914,3616.5960197524582,0.444,-1.103,-4.776,-5.85
0.2,1400006332.2395284,2.1109046936,997.7000638225536,3727.348496903337,0.391,-1.175,-4.423,-5.452
0.2,1400006332.2395284,2.1109063625,576.7664633922509,3948.207780378827,0.469,-1.051,-3.761,-4.692
0.2,1400006332.2395284,2.1109092236,574.1164622073275,3950.026415978837,0.469,-1.05,-3.756,-4.686
0.2,1400006332.2395284,2.1109127998,711.2135136533288,3862.780230114958,0.421,-1.128,-4.013,-4.981
0.2,1400006332.2395284,2.1109175682,1049.542428652322,3708.514658756861,0.391,-1.176,-4.486,-5.522
0.2,1400006332.2395284,2.1109235287,1524.0527537972907,3566.9744620973356,0.491,-1.038,-4.945,-6.04
0.2,1400006332.2395284,2.1109306812,1972.4227361148535,3472.1621617221945,0.642,-0.837,-5.262,-6.397
0.2,1400006332.2395284,2.1109390259,2259.435770220978,3422.9456231604145,0.757,-0.688,-5.43,-6.585
0.2,1400006332.2395284,2.110948801,2393.3157564053877,3402.5146202702363,0.809,-0.621,-5.502,-6.664
0.2,1400006332.2395284,2.1109597683,2454.708915685031,3393.907487744292,0.831,-0.593,-5.535,-6.701
0.2,1400006332.2395284,2.1109600067,1485.9356422870076,3577.6676993611068,0.474,-1.06,-4.913,-6.003
0.2,1400006332.2395284,2.1109609604,1116.863247780561,3688.0771722615455,0.391,-1.172,-4.562,-5.606
0.2,1400006332.2395284,2.1109628677,648.6344335482381,3907.5091171056138,0.426,-1.111,-3.9,-4.848
0.2,1400006332.2395284,2.1109657288,644.1692655151775,3910.2092612681363,0.427,-1.108,-3.892,-4.839
0.2,1400006332.2395284,2.1109695435,796.1593504173184,3823.8425365811263,0.39,-1.17,-4.146,-5.132
0.2,1400006332.2395284,2.1109747887,1169.4993910198712,3670.2867848109704,0.4,-1.161,-4.616,-5.668
0.2,1400006332.2395284,2.1109809875,1686.5530253887407,3529.3928374635293,0.54,-0.972,-5.069,-6.179
0.2,1400006332.2395284,2.1109886169,2172.7011788637456,3435.5794789987463,0.73,-0.723,-5.383,-6.532
0.2,1400006332.2395284,2.1109974384,2483.13310529557,3386.101717130323,0.863,-0.554,-5.55,-6.719
0.2,1400006332.2395284,2.1110076904,2630.2679918953813,3365.115693754908,0.937,-0.46,-5.621,-6.798
0.2,1400006332.2395284,2.1110193729,2697.7394324449206,3355.8303695328004,0.973,-0.416,-5.654,-6.835
0.2,1400006332.2395284,2.1110196114,1667.2472125510626,3532.645025855673,0.541,-0.973,-5.055,-6.165
0.2,1400006332.2395284,2.111020565,1256.0299636948755,3641.665065732136,0.416,-1.139,-4.706,-5.769
0.2,1400006332.2395284,2.1110227108,731.1390834834173,3860.1128374531977,0.4,-1.151,-4.044,-5.014
0.2,1400006332.2395284,2.1110255718,724.4359600749899,3863.669770540693,0.401,-1.149,-4.033,-5.001
0.2,1400006332.2395284,2.1110296249,891.2509381337459,3778.3309865888623,0.378,-1.188,-4.285,-5.29
0.2,1400006332.2395284,2.1110351086,1300.16957803329,3627.4380147645793,0.425,-1.128,-4.749,-5.818
0.2,1400006332.2395284,2.1110417843,1866.3796908346694,3488.9922117346073,0.619,-0.869,-5.195,-6.322
0.2,1400006332.2395284,2.1110496521,2393.3157564053877,3396.2527259040853,0.843,-0.581,-5.504,-6.67
0.2,1400006332.2395284,2.1110589504,2728.9777828080405,3348.1121738605384,1.009,-0.373,-5.668,-6.853
0.2,1400006332.2395284,2.1110696793,2884.031503126606,3328.1278395965264,1.085,-0.279,-5.737,-6.931
0.2,1400006332.2395284,2.1110818386,2958.0124665515464,3318.180448272474,1.121,-0.233,-5.77,-6.967
0.2,1400006332.2395284,2.111082077,1870.6821403657998,3486.582933528731,0.627,-0.86,-5.199,-6.327
0.2,1400006332.2395284,2.1110832691,1412.537544622754,3595.0091493002346,0.462,-1.078,-4.851,-5.934
0.2,1400006332.2395284,2.1110851765,826.0379495771783,3812.4135110429906,0.376,-1.187,-4.191,-5.182
0.2,1400006332.2395284,2.1110882759,816.5823713585922,3817.684194975441,0.378,-1.185,-4.176,-5.165
0.2,1400006332.2395284,2.1110925674,1000.0,3733.3611171608127,0.374,-1.195,-4.424,-5.45
0.2,1400006332.2395284,2.1110980511,1448.7718535447616,3585.9150751717484,0.472,-1.065,-4.881,-5.968
0.2,1400006332.2395284,2.1111049652,2060.6299132700005,3449.848313627505,0.707,-0.755,-5.32,-6.463
0.2,1400006332.2395284,2.1111133099,2630.2679918953813,3358.9226273449517,0.978,-0.413,-5.624,-6.804
0.2,1400006332.2395284,2.1111228466,2985.3826189179604,3311.311214825911,1.155,-0.193,-5.784,-6.984
0.2,1400006332.2395284,2.1111340523,3155.0046233746275,3291.546539470676,1.248,-0.07,-5.85,-7.059
0.2,1400006332.2395284,2.1111466885,3235.936569296281,3282.4642137521723,1.292,-0.012,-5.881,-7.095
0.2,1400006332.2395284,2.1111469269,2098.9398836235246,3442.7065038944434,0.727,-0.73,-5.343,-6.49
0.2,1400006332.2395284,2.111148119,1588.546748597779,3550.5857031262385,0.51,-1.013,-4.997,-6.098
0.2,1400006332.2395284,2.1111502647,933.2543007969915,3766.1706971416666,0.361,-1.207,-4.339,-5.35
0.2,1400006332.2395284,2.1111533642,918.332596483581,3773.1146335838903,0.361,-1.207,-4.319,-5.327
0.2,1400006332.2395284,2.1111576557,1119.4378834671513,3690.6256858412085,0.38,-1.186,-4.563,-5.606
0.2,1400006332.2395284,2.1111633778,1603.2453906900419,3546.5002924732053,0.518,-1.003,-5.008,-6.111
0.2,1400006332.2395284,2.1111705303,2259.435770220978,3412.7148323868673,0.811,-0.624,-5.435,-6.594
0.2,1400006332.2395284,2.1111791134,2857.5905433749467,3323.533035774775,1.119,-0.239,-5.73,-6.925
0.2,1400006332.2395284,2.1111888885,3228.4941217126348,3277.932453002282,1.327,0.031,-5.881,-7.097
0.2,1400006332.2395284,2.1112003326,3396.2527259040853,3259.8678890446836,1.423,0.156,-5.943,-7.167
0.2,1400006332.2395284,2.1112134457,3467.368504525317,3251.621601204828,1.465,0.211,-5.969,-7.197
0.2,1400006332.2395284,2.1112136841,2317.39464996848,3402.5146202702363,0.842,-0.585,-5.467,-6.63
0.2,1400006332.2395284,2.1112148762,1757.923613958693,3509.942484670127,0.585,-0.915,-5.123,-6.241
0.2,1400006332.2395284,2.1112167835,1039.920165829059,3725.632384666039,0.355,-1.216,-4.469,-5.498
0.2,1400006332.2395284,2.111219883,1020.9394837076798,3734.220854303426,0.353,-1.217,-4.446,-5.471
0.2,1400006332.2395284,2.1112241745,1241.6523075924106,3652.5822138633744,0.396,-1.164,-4.688,-5.747
0.2,1400006332.2395284,2.1112296581,1761.976046411629,3509.942484670127,0.585,-0.916,-5.124,-6.243
0.2,1400006332.2395284,2.1112365723,2466.0393372343387,3378.313899290581,0.919,-0.489,-5.544,-6.717
0.2,1400006332.2395284,2.1112446785,3104.5595881283557,3290.788720121735,1.271,-0.043,-5.833,-7.043
0.2,1400006332.2395284,2.1112544537,3507.5187395256794,3244.8901566053664,1.505,0.262,-5.983,-7.214
0.2,1400006332.2395284,2.1112654209,3689.775985701505,3226.264727075673,1.589,0.37,-6.046,-7.286
0.2,1400006332.2395284,2.1112780571,3775.72190925416,3216.6217928790406,1.623,0.413,-6.077,-7.32
0.2,1400006332.2395284,2.1112782955,2600.159563165272,3358.1492958644226,0.995,-0.394,-5.612,-6.793
0.2,1400006332.2395284,2.1112794876,1981.527025805099,3464.974158289286,0.671,-0.803,-5.27,-6.407
0.2,1400006332.2395284,2.1112816334,1177.6059735208078,3678.7476696641274,0.367,-1.199,-4.622,-5.67
0.2,1400006332.2395284,2.1112847328,1150.8003889444356,3688.926481189961,0.361,-1.207,-4.593,-5.637
0.2,1400006332.2395284,2.1112892628,1393.1568029453035,3608.278079727421,0.428,-1.12,-4.83,-5.907
0.2,1400006332.2395284,2.1112949848,1954.3394557753943,3468.965654460541,0.662,-0.814,-5.255,-6.39
0.2,1400006332.2395284,2.1113021374,2703.9583641088434,3340.4117295457277,1.065,-0.307,-5.663,-6.852
0.2,1400006332.2395284,2.1113107204,3380.6483620598156,3254.61783498046,1.464,0.206,-5.941,-7.168
0.2,1400006332.2395284,2.1113209724,3801.8939632056126,3209.96280421069,1.66,0.459,-6.085,-7.331
0.2,1400006332.2395284,2.111332655,3990.2490236214207,3191.5378551007616,1.737,0.556,-6.145,-7.399
0.2,1400006332.2395284,2.111345768,4073.802778041126,3182.7314821707823,1.776,0.604,-6.172,-7.43
0.2,1400006332.2395284,2.1113460064,2890.6798823654744,3312.8364811728147,1.176,-0.171,-5.748,-6.948
0.2,1400006332.2395284,2.1113471985,2213.094709605639,3419.0070790206964,0.798,-0.642,-5.409,-6.565
0.2,1400006332.2395284,2.1113493443,1324.3415351946644,3632.4529689937044,0.393,-1.165,-4.766,-5.834
0.2,1400006332.2395284,2.1113524437,1288.2495516931335,3644.181507888609,0.384,-1.177,-4.733,-5.795
0.2,1400006332.2395284,2.1113567352,1548.816618912481,3566.1532304264047,0.479,-1.052,-4.963,-6.058
0.2,1400006332.2395284,2.1113624573,2152.781734724374,3430.0464394337664,0.767,-0.681,-5.375,-6.527
0.2,1400006332.2395284,2.1113696098,2944.4216337987605,3305.217168699801,1.213,-0.123,-5.77,-6.973
0.2,1400006332.2395284,2.1113781929,3647.5394692560767,3221.810555177115,1.622,0.409,-6.036,-7.277
0.2,1400006332.2395284,2.1113879681,4073.802778041126,3179.8014276915274,1.796,0.628,-6.173,-7.433
0.2,1400006332.2395284,2.1113994122,4265.795188015925,3162.2776601683795,1.876,0.729,-6.228,-7.496
0.2,1400006332.2395284,2.1114125252,4345.102241715715,3155.0046233746275,1.906,0.762,-6.252,-7.524
0.2,1400006332.2395284,2.1114127636,3184.1975217261256,3274.1607653757505,1.368,0.079,-5.868,-7.086
0.2,1400006332.2395284,2.1114137173,2443.430552693971,3379.8700286198914,0.917,-0.492,-5.536,-6.708
0.2,1400006332.2395284,2.1114156246,1475.7065332758946,3591.6995478714375,0.433,-1.111,-4.899,-5.983
0.2,1400006332.2395284,2.1114187241,1428.8939585111023,3605.7864302164235,0.413,-1.136,-4.86,-5.939
0.2,1400006332.2395284,2.1114227772,1710.015315090288,3528.5802582852702,0.532,-0.983,-5.086,-6.196
0.2,1400006332.2395284,2.1114280224,2349.6328208483073,3396.2527259040853,0.861,-0.562,-5.486,-6.651
0.2,1400006332.2395284,2.1114344597,3184.1975217261256,3274.9147555557906,1.367,0.077,-5.867,-7.084
0.2,1400006332.2395284,2.1114423275,3917.4187710778306,3193.7432529771722,1.739,0.556,-6.124,-7.377
0.2,1400006332.2395284,2.1114513874,4355.118736855684,3152.1000945192795,1.921,0.779,-6.256,-7.529
0.2,1400006332.2395284,2.1114621162,4549.880601500485,3135.4508691442925,1.99,0.855,-6.309,-7.591
0.2,1400006332.2395284,2.1114740372,4645.152752227492,3127.519311407983,2.021,0.889,-6.332,-7.619
0.2,1400006332.2395284,2.1114742756,3507.5187395256794,3236.6817570165304,1.571,0.342,-5.988,-7.223
0.2,1400006332.2395284,2.1114752293,2703.9583641088434,3341.1809763304277,1.061,-0.313,-5.662,-6.849
0.2,1400006332.2395284,2.111477375,1640.5897731995387,3551.4033498288213,0.476,-1.054,-5.031,-6.132
0.2,1400006332.2395284,2.1114802361,1584.893192461114,3566.9744620973356,0.454,-1.082,-4.988,-6.083
0.2,1400006332.2395284,2.1114845276,1892.343618644976,3490.599322048292,0.601,-0.892,-5.21,-6.336
0.2,1400006332.2395284,2.1114897728,2576.3211570025755,3361.243690470534,0.987,-0.405,-5.6,-6.78
0.2,1400006332.2395284,2.1114964485,3451.437393358561,3241.902878227874,1.547,0.31,-5.967,-7.2
0.2,1400006332.2395284,2.1115043163,4216.965034285822,3162.2776601683795,1.89,0.743,-6.216,-7.484
0.2,1400006332.2395284,2.1115138531,4677.351412871981,3121.044780985781,2.058,0.931,-6.343,-7.632
0.2,1400006332.2395284,2.1115245819,4886.523593428336,3103.844819159537,2.132,1.012,-6.396,-7.695
0.2,1400006332.2395284,2.1115367413,4988.844874600121,3095.2804165939788,2.169,1.053,-6.421,-7.724
0.2,1400006332.2395284,2.1115369797,3881.5036599064824,3192.272818462188,1.754,0.573,-6.116,-7.37
0.2,1400006332.2395284,2.1115379333,3006.076302628232,3296.856163568906,1.26,-0.064,-5.796,-7.003
0.2,1400006332.2395284,2.1115396023,1840.7720014689564,3505.09666806693,0.565,-0.938,-5.174,-6.294
0.2,1400006332.2395284,2.1115424633,1770.108958317422,3522.086356184678,0.529,-0.984,-5.125,-6.238
0.2,1400006332.2395284,2.1115460396,2098.9398836235246,3447.4660657314944,0.704,-0.76,-5.341,-6.485
0.2,1400006332.2395284,2.1115510464,2824.8799749157074,3321.2380132514595,1.147,-0.209,-5.718,-6.915
0.2,1400006332.2395284,2.1115570068,3741.105882720533,3205.531138700436,1.702,0.506,-6.07,-7.318
0.2,1400006332.2395284,2.1115641594,4539.416166502032,3128.959918963571,2.035,0.905,-6.307,-7.592
0.2,1400006332.2395284,2.111572504,5011.872336272725,3088.8726265127525,2.199,1.085,-6.429,-7.734
0.2,1400006332.2395284,2.1115822792,5223.9618899911975,3072.557365267445,2.236,1.104,-6.479,-7.792
0.2,1400006332.2395284,2.1115932465,5321.082592667942,3064.079293806048,2.256,1.114,-6.502,-7.818
0.2,1400006332.2395284,2.1115934849,4265.795188015925,3151.374380204506,1.948,0.807,-6.232,-7.506
0.2,1400006332.2395284,2.1115944386,3311.311214825911,3253.8685178010755,1.489,0.232,-5.918,-7.145
0.2,1400006332.2395284,2.1115961075,2041.7379446695295,3460.9872548535277,0.665,-0.81,-5.305,-6.444
0.2,1400006332.2395284,2.1115989685,1958.844673505989,3479.3650764909435,0.619,-0.868,-5.252,-6.383
0.2,1400006332.2395284,2.1116025448,2312.064790175594,3405.6498956736095,0.829,-0.603,-5.463,-6.625
0.2,1400006332.2395284,2.1116075516,3076.096814740708,3283.2201160919944,1.337,0.034,-5.827,-7.04
0.2,1400006332.2395284,2.111613512,4036.4539296760486,3171.027438947892,1.866,0.71,-6.165,-7.429
0.2,1400006332.2395284,2.1116206646,4852.88500162121,3095.993213309174,2.185,1.07,-6.391,-7.693
0.2,1400006332.2395284,2.1116292477,5333.348954876208,3057.736095690077,2.281,1.133,-6.507,-7.826
0.2,1400006332.2395284,2.1116390228,5533.501092157366,3041.585295947742,2.32,1.152,-6.554,-7.881
0.2,1400006332.2395284,2.1116499901,5636.376558259543,3033.1926853535583,2.34,1.163,-6.576,-7.906
0.2,1400006332.2395284,2.1116502285,4655.860935229591,3109.5675818498016,2.134,1.013,-6.34,-7.636
0.2,1400006332.2395284,2.1116509438,3630.780547701014,3211.441387141269,1.695,0.493,-6.033,-7.279
0.2,1400006332.2395284,2.1116526127,2254.2392121524304,3416.6461281382244,0.799,-0.642,-5.431,-6.587
0.2,1400006332.2395284,2.1116549969,2147.8304741305333,3437.1619861753497,0.736,-0.721,-5.371,-6.52
0.2,1400006332.2395284,2.1116585732,2529.2979964461447,3365.8906294925205,0.979,-0.419,-5.578,-6.756
0.2,1400006332.2395284,2.1116628647,3326.5955329400435,3246.384827880331,1.543,0.3,-5.927,-7.157
0.2,1400006332.2395284,2.1116681099,4315.19076827765,3138.340056432409,2.02,0.887,-6.249,-7.529
0.2,1400006332.2395284,2.1116747856,5140.436515824259,3066.1966160107386,2.275,1.138,-6.464,-7.779
0.2,1400006332.2395284,2.1116821766,5623.413251903491,3029.7026026614167,2.36,1.179,-6.574,-7.906
0.2,1400006332.2395284,2.1116909981,5821.032177708716,3014.3938842794687,2.393,1.194,-6.617,-7.956
0.2,1400006332.2395284,2.1117010117,5902.010801718442,3007.460970731941,2.406,1.199,-6.635,-7.977
0.2,1400006332.2395284,2.1117012501,5011.872336272725,3073.972656082513,2.264,1.136,-6.433,-7.745
0.2,1400006332.2395284,2.1117019653,3917.4187710778306,3175.411402891837,1.863,0.703,-6.131,-7.393
0.2,1400006332.2395284,2.1117036343,2449.0632418447444,3378.313899290581,0.93,-0.481,-5.539,-6.711
0.2,1400006332.2395284,2.1117060184,2328.091257665008,3400.9480651219096,0.851,-0.579,-5.475,-6.638
0.2,1400006332.2395284,2.1117093563,2728.9777828080405,3330.427623087463,1.128,-0.236,-5.677,-6.869
0.2,1400006332.2395284,2.1117136478,3556.3131856898544,3214.400596524381,1.699,0.496,-6.012,-7.257
0.2,1400006332.2395284,2.1117191315,4570.881896148751,3108.8516598805636,2.159,1.04,-6.32,-7.616
0.2,1400006332.2395284,2.1117255688,5395.1062251512785,3038.785182061179,2.354,1.185,-6.527,-7.855
0.2,1400006332.2395284,2.1117329597,5874.893525297769,3003.308878676558,2.426,1.215,-6.631,-7.974
0.2,1400006332.2395284,2.1117417812,6067.363295885053,2988.821646959374,2.452,1.224,-6.671,-8.02
0.2,1400006332.2395284,2.1117515564,6151.7687270986835,2982.634245778771,2.465,1.229,-6.688,-8.039
0.2,1400006332.2395284,2.1117517948,5357.966575133417,3038.785182061179,2.362,1.193,-6.518,-7.846
0.2,1400006332.2395284,2.1117525101,4207.266283844442,3139.062769137658,2.036,0.903,-6.221,-7.501
0.2,1400006332.2395284,2.1117539406,2654.605561975539,3341.1809763304277,1.088,-0.288,-5.641,-6.829
0.2,1400006332.2395284,2.1117560863,2511.88643150958,3365.115693754908,0.988,-0.41,-5.572,-6.75
0.2,1400006332.2395284,2.1117589474,2930.8932452503213,3295.3382547359615,1.297,-0.025,-5.77,-6.977
0.2,1400006332.2395284,2.1117627621,3793.1498497368207,3181.9987155303106,1.851,0.684,-6.094,-7.353
0.2,1400006332.2395284,2.1117675304,4819.477976251272,3078.93130974161,2.278,1.155,-6.391,-7.701
0.2,1400006332.2395284,2.1117732525,5675.446054085472,3010.925432053001,2.43,1.229,-6.59,-7.93
0.2,1400006332.2395284,2.1117796898,6151.7687270986835,2975.7743773728107,2.489,1.246,-6.69,-8.044
0.2,1400006332.2395284,2.1117875576,6353.309318517436,2960.738151747431,2.516,1.256,-6.731,-8.091
0.2,1400006332.2395284,2.1117961407,6456.542290346556,2953.2485540555085,2.532,1.263,-6.749,-8.113
0.2,1400006332.2395284,2.1117963791,5754.399373371566,2999.8531811907933,2.458,1.244,-6.61,-7.954
0.2,1400006332.2395284,2.1117970943,4528.975799036209,3100.2734419981916,2.221,1.107,-6.315,-7.615
0.2,1400006332.2395284,2.1117985249,2877.3984147356696,3299.8940791083483,1.283,-0.047,-5.747,-6.953
0.2,1400006332.2395284,2.1118006706,2716.4392688390835,3325.8296441911734,1.164,-0.196,-5.674,-6.869
0.2,1400006332.2395284,2.1118037701,3162.2776601683795,3256.1169870485296,1.522,0.263,-5.867,-7.093
0.2,1400006332.2395284,2.1118075848,4055.085354483839,3144.850465476959,2.036,0.901,-6.18,-7.456
0.2,1400006332.2395284,2.1118123531,5116.818355403078,3044.3879900225406,2.379,1.219,-6.466,-7.791
0.2,1400006332.2395284,2.1118180752,5970.352865838366,2977.8306796291185,2.51,1.271,-6.656,-8.009
0.2,1400006332.2395284,2.1118249893,6456.542290346556,2943.0659896990132,2.564,1.287,-6.752,-8.12
0.2,1400006332.2395284,2.1118328571,6668.067692136218,2928.195035574271,2.584,1.293,-6.791,-8.164
0.2,1400006332.2395284,2.1118416786,6760.829753919818,2919.4429974027034,2.598,1.298,-6.809,-8.185
0.2,1400006332.2395284,2.111841917,6208.690342300638,2953.928642960281,2.562,1.296,-6.707,-8.07
0.2,1400006332.2395284,2.1118426323,4875.284901033865,3056.3282803659663,2.367,1.222,-6.41,-7.729
0.2,1400006332.2395284,2.1118438244,3118.8895840939385,3254.61783498046,1.551,0.295,-5.852,-7.079
0.2,1400006332.2395284,2.1118457317,2930.8932452503213,3281.708485445259,1.4,0.1,-5.775,-6.989
0.2,1400006332.2395284,2.1118485928,3396.2527259040853,3213.660538640318,1.751,0.55,-5.962,-7.207
0.2,1400006332.2395284,2.111852169,4325.138310350088,3104.5595881283557,2.234,1.119,-6.262,-7.56
0.2,1400006332.2395284,2.1118564606,5395.1062251512785,3007.460970731941,2.486,1.285,-6.537,-7.878
0.2,1400006332.2395284,2.1118617058,6251.726927756856,2943.0659896990132,2.593,1.317,-6.718,-8.086
0.2,1400006332.2395284,2.1118679047,6745.280276979222,2910.046977837714,2.63,1.323,-6.809,-8.189
0.2,1400006332.2395284,2.1118750572,6934.258060165695,2895.3428647598066,2.649,1.327,-6.845,-8.231
0.2,1400006332.2395284,2.1118831635,7030.723198838334,2888.0186935140546,2.662,1.332,-6.861,-8.25
0.2,1400006332.2395284,2.1118834019,6637.43070401909,2910.717118066605,2.64,1.335,-6.793,-8.172
0.2,1400006332.2395284,2.1118838787,5199.959965335162,3015.0880540378826,2.491,1.299,-6.494,-7.832
0.2,1400006332.2395284,2.1118850708,3349.654391578276,3212.1809339879856,1.774,0.575,-5.947,-7.192
0.2,1400006332.2395284,2.1118869781,3140.5086938762165,3241.1564884384366,1.646,0.412,-5.865,-7.098
0.2,1400006332.2395284,2.1118896008,3630.780547701014,3173.218663836144,1.952,0.796,-6.049,-7.311
0.2,1400006332.2395284,2.1118929386,4581.418867145335,3066.9027151623077,2.377,1.246,-6.338,-7.653
0.2,1400006332.2395284,2.1118969917,5675.446054085472,2971.666031738025,2.577,1.335,-6.602,-7.958
0.2,1400006332.2395284,2.1119017601,6531.305526474723,2908.707160207584,2.661,1.355,-6.776,-8.156
0.2,1400006332.2395284,2.1119077206,7014.552984199714,2876.7359455385426,2.694,1.36,-6.863,-8.255
0.2,1400006332.2395284,2.1119141579,7211.074791828998,2862.859270872121,2.712,1.371,-6.897,-8.293
0.2,1400006332.2395284,2.1119217873,7311.390834834172,2854.9598169004084,2.727,1.382,-6.912,-8.311
0.2,1400006332.2395284,2.1119220257,7079.457843841381,2868.1377126684647,2.713,1.375,-6.875,-8.269
0.2,1400006332.2395284,2.1119225025,5533.501092157366,2973.7194950692915,2.592,1.354,-6.575,-7.929
0.2,1400006332.2395284,2.1119236946,3589.2193464500533,3170.297366952724,1.986,0.834,-6.038,-7.301
0.2,1400006332.2395284,2.1119253635,3349.654391578276,3201.842758202777,1.841,0.653,-5.951,-7.201
0.2,1400006332.2395284,2.1119277477,3863.669770540693,3134.7289880140065,2.152,1.024,-6.13,-7.411
0.2,1400006332.2395284,2.1119308472,4841.7236758409945,3029.7026026614167,2.497,1.324,-6.41,-7.742
0.2,1400006332.2395284,2.1119346619,5942.921586155727,2936.2971257566924,2.663,1.384,-6.663,-8.033
0.2,1400006332.2395284,2.1119394302,6792.036326171843,2875.4114646740045,2.728,1.395,-6.829,-8.221
0.2,1400006332.2395284,2.1119446754,7277.798045368242,2844.4611074479167,2.771,1.42,-6.91,-8.312
0.2,1400006332.2395284,2.1119508743,7464.487584100669,2830.740118752184,2.796,1.438,-6.942,-8.349
0.2,1400006332.2395284,2.1119580269,7533.55563733717,2823.5793691102995,2.812,1.45,-6.955,-8.365
0.2,1400006332.2395284,2.1119582653,7481.6950051115455,2826.8320070020036,2.809,1.448,-6.946,-8.354
0.2,1400006332.2395284,2.1119587421,5847.900841444806,2934.269503955967,2.689,1.408,-6.646,-8.016
0.2,1400006332.2395284,2.1119599342,3810.65823393773,3130.401190096238,2.196,1.069,-6.117,-7.401
0.2,1400006332.2395284,2.1119613647,3548.133892335753,3163.0058853452065,2.054,0.91,-6.028,-7.296
0.2,1400006332.2395284,2.1119637489,4083.1938633269233,3094.567783987401,2.363,1.254,-6.202,-7.505
0.2,1400006332.2395284,2.11196661,5081.594425605605,2990.198367170568,2.614,1.397,-6.476,-7.823
0.2,1400006332.2395284,2.1119704247,6194.410750767812,2897.3435877013244,2.753,1.438,-6.72,-8.104
0.2,1400006332.2395284,2.1119747162,7046.930689671467,2835.9593403567637,2.832,1.478,-6.878,-8.284
0.2,1400006332.2395284,2.1119799614,7516.228940182053,2803.4963822309305,2.877,1.514,-6.958,-8.372
0.2,1400006332.2395284,2.1119859219,7709.034690644301,2787.404520323769,2.9,1.539,-6.989,-8.408
0.2,1400006332.2395284,2.1119925976,7798.3011052325855,2777.154235884665,2.92,1.56,-7.004,-8.424
0.2,1400006332.2395284,2.111992836,7906.786279998253,2770.7669583872052,2.927,1.567,-7.021,-8.444
0.2,1400006332.2395284,2.1119933128,6165.9500186148225,2879.3867378079763,2.813,1.484,-6.722,-8.112
0.2,1400006332.2395284,2.1119942665,4045.7589169744288,3073.972656082513,2.474,1.351,-6.202,-7.514
0.2,1400006332.2395284,2.111995697,3758.374042884443,3107.420310388586,2.361,1.246,-6.109,-7.405
0.2,1400006332.2395284,2.1119978428,4315.19076827765,3037.3860919461044,2.578,1.416,-6.282,-7.61
0.2,1400006332.2395284,2.1120007038,5333.348954876208,2932.9185340084423,2.784,1.505,-6.547,-7.917
0.2,1400006332.2395284,2.1120040417,6456.542290346556,2839.226239424908,2.898,1.553,-6.781,-8.184
0.2,1400006332.2395284,2.1120080948,7311.390834834172,2775.8756035343426,2.982,1.625,-6.935,-8.355
0.2,1400006332.2395284,2.1120128632,7780.365510398041,2740.311921030278,3.021,1.673,-7.012,-8.441
0.2,1400006332.2395284,2.1120185852,7961.593504173184,2720.821182091787,3.05,1.713,-7.044,-8.477
0.2,1400006332.2395284,2.1120247841,8053.784411990669,2705.8268376488263,3.081,1.752,-7.059,-8.496
0.2,1400006332.2395284,2.1120250225,8336.81184619634,2689.676199564987,3.093,1.771,-7.102,-8.543
0.2,1400006332.2395284,2.1120254993,6501.296903430909,2798.981319634363,3.026,1.671,-6.801,-8.215
0.2,1400006332.2395284,2.112026453,4295.364267648873,2991.575721530859,2.774,1.563,-6.294,-7.64
0.2,1400006332.2395284,2.1120278835,3971.915494694405,3025.519803872306,2.715,1.541,-6.198,-7.531
0.2,1400006332.2395284,2.1120297909,4549.880601500485,2953.928642960281,2.867,1.612,-6.367,-7.729
0.2,1400006332.2395284,2.1120324135,5584.701947368307,2848.3935915323636,2.999,1.666,-6.623,-8.02
0.2,1400006332.2395284,2.1120357513,6714.288529259523,2753.5945917502636,3.13,1.781,-6.849,-8.274
0.2,1400006332.2395284,2.112039566,7585.775750291836,2687.818878638133,3.188,1.873,-6.998,-8.437
0.2,1400006332.2395284,2.1120443344,8035.261221856169,2648.500138606701,3.231,1.956,-7.072,-8.517
0.2,1400006332.2395284,2.1120495796,8222.426499470712,2623.6143642959228,3.269,2.017,-7.103,-8.552
0.2,1400006332.2395284,2.1120555401,8317.63771102671,2602.555501826247,3.297,2.054,-7.117,-8.569
0.2,1400006332.2395284,2.1120557785,8790.225168308842,2578.101431424051,3.274,2.021,-7.178,-8.635
0.2,1400006332.2395284,2.1120562553,6839.116472814293,2687.818878638133,3.287,1.977,-6.887,-8.325
0.2,1400006332.2395284,2.1120569706,4549.880601500485,2878.723810835251,3.117,1.8,-6.39,-7.778
0.2,1400006332.2395284,2.1120584011,4187.935651179182,2912.7284648349846,3.092,1.802,-6.291,-7.667
0.2,1400006332.2395284,2.1120603085,4786.300923226385,2838.5725586841204,3.183,1.853,-6.456,-7.855
0.2,1400006332.2395284,2.1120629311,5847.900841444806,2730.2348129400702,3.327,1.996,-6.703,-8.131
0.2,1400006332.2395284,2.1120660305,6982.324040771711,2633.2979436755145,3.409,2.157,-6.922,-8.367
0.2,1400006332.2395284,2.1120696068,7834.29642766212,2563.8936102242947,3.402,2.147,-7.055,-8.512
0.2,1400006332.2395284,2.1120738983,8279.421637123345,2519.9968621092394,3.397,2.124,-7.119,-8.584
0.2,1400006332.2395284,2.1120789051,8472.274141405964,2489.430464841762,3.412,2.127,-7.146,-8.616
0.2,1400006332.2395284,2.1120846272,8550.667128846831,2463.2018382351575,3.427,2.136,-7.158,-8.631
