FeH,Age,Mini,L,Te,Bmag,Vmag,Jmag,Kmag
-1.0,599998272.533644,0.0900000036,0.0006823386941416697,2831.391995799379,18.088,16.105,10.633,10.055
-1.0,599998272.533644,0.0953922942,0.0008550667128846832,2924.1523778433366,17.406,15.458,10.433,9.806
-1.0,599998272.533644,0.1000000015,0.0010543868963912592,3013.699874341145,16.797,14.884,10.247,9.581
-1.0,599998272.533644,0.1052119434,0.0012274392311584072,3069.021988391158,16.408,14.519,10.108,9.419
-1.0,599998272.533644,0.1133807525,0.0015595525028269538,3160.8217127583484,15.814,13.973,9.889,9.17
-1.0,599998272.533644,0.1200000048,0.0019010782799232997,3235.936569296281,15.349,13.554,9.707,8.968
-1.0,599998272.533644,0.1400000006,0.0028840315031266055,3369.7679858440365,14.504,12.803,9.309,8.545
-1.0,599998272.533644,0.1599999964,0.003953666200681279,3457.8010353230598,13.937,12.303,8.999,8.224
-1.0,599998272.533644,0.1657023132,0.0042559841313374305,3476.9624461781286,13.812,12.191,8.925,8.148
-1.0,599998272.533644,0.2000000179,0.006367955209079156,3577.6676993611068,13.152,11.605,8.526,7.74
-1.0,599998272.533644,0.25,0.00986279485631211,3677.053933782149,12.479,11.001,8.087,7.293
-1.0,599998272.533644,0.3139049411,0.01548816618912481,3772.2459418486137,11.819,10.403,7.629,6.831
-1.0,599998272.533644,0.3208534122,0.016292960326397224,3780.941866832965,11.748,10.337,7.576,6.778
-1.0,599998272.533644,0.3308918476,0.017418068733916145,3794.8970620763503,11.652,10.251,7.508,6.709
-1.0,599998272.533644,0.349999994,0.019453600816226622,3822.9621656591935,11.486,10.102,7.397,6.598
-1.0,599998272.533644,0.400000006,0.027605778562203462,3920.125762951651,10.959,9.633,7.048,6.251
-1.0,599998272.533644,0.4499999881,0.04083193863326921,4050.419451364931,10.349,9.101,6.66,5.871
-1.0,599998272.533644,0.4522297382,0.04168693834703355,4059.7566325156818,10.315,9.072,6.641,5.853
-1.0,599998272.533644,0.5,0.062086903423006344,4265.795188015925,9.618,8.49,6.262,5.497
-1.0,599998272.533644,0.5500000715,0.09549925860214359,4560.369159512959,8.802,7.83,5.875,5.174
-1.0,599998272.533644,0.6000000238,0.142232878712282,4851.7677121925735,8.089,7.238,5.531,4.912
-1.0,599998272.533644,0.6499999762,0.2070141348791042,5136.886854227248,7.482,6.721,5.216,4.679
-1.0,599998272.533644,0.6999999881,0.2944421633798761,5437.50914029847,6.942,6.267,4.933,4.467
-1.0,599998272.533644,0.75,0.40926065973001086,5733.238386538407,6.462,5.866,4.676,4.269
-1.0,599998272.533644,0.8000000119,0.5546257129579107,5971.72774867241,6.05,5.518,4.432,4.066
-1.0,599998272.533644,0.8113769889,0.5929253245799998,6020.048636844589,5.961,5.442,4.377,4.018
-1.0,599998272.533644,0.8500000238,0.7413102413009175,6184.434582271281,5.673,5.194,4.194,3.862
-1.0,599998272.533644,0.8637508154,0.7998342550070284,6238.784722719976,5.574,5.108,4.13,3.806
-1.0,599998272.533644,0.8999999762,0.974989637717387,6381.165375104194,5.323,4.89,3.966,3.665
-1.0,599998272.533644,0.9499999881,1.2647363474711513,6573.550444548967,4.996,4.601,3.751,3.479
-1.0,599998272.533644,1.0,1.6143585568264862,6770.1766405182425,4.686,4.327,3.549,3.306
-1.0,599998272.533644,1.0368995667,1.9186687406702894,6924.68464322636,4.467,4.132,3.412,3.191
-1.0,599998272.533644,1.0499999523,2.0370420777057183,6980.716486330289,4.391,4.064,3.364,3.151
-1.0,599998272.533644,1.0590474606,2.1232444620002195,7022.633437357637,4.339,4.018,3.334,3.126
-1.0,599998272.533644,1.1000000238,2.540972705549305,7212.735394337599,4.108,3.814,3.198,3.015
-1.0,599998272.533644,1.1256703138,2.8313919957993794,7353.5999547540005,3.966,3.691,3.125,2.959
-1.0,599998272.533644,1.1499999762,3.1332857243155856,7486.864962362665,3.834,3.577,3.057,2.908
-1.0,599998272.533644,1.2000000477,3.8194427084004654,7801.893182650611,3.573,3.353,2.939,2.825
-1.0,599998272.533644,1.2130686045,4.017908108489399,7886.784967745007,3.508,3.297,2.911,2.806
-1.0,599998272.533644,1.25,4.613175745603794,8130.176988564409,3.327,3.146,2.835,2.752
-1.0,599998272.533644,1.2999999523,5.546257129579107,8456.682000993545,3.102,2.959,2.74,2.683
-1.0,599998272.533644,1.3465435505,6.546361740672749,8757.900363063685,2.915,2.809,2.66,2.62
-1.0,599998272.533644,1.3500000238,6.622165037017619,8780.110870965294,2.903,2.798,2.654,2.615
-1.0,599998272.533644,1.3898414373,7.603262769401819,9034.41424695002,2.761,2.682,2.586,2.56
-1.0,599998272.533644,1.3999999762,7.870457896950986,9097.037814779893,2.727,2.653,2.568,2.545
-1.0,599998272.533644,1.4157751799,8.298507675144226,9193.904748039808,2.676,2.611,2.542,2.523
-1.0,599998272.533644,1.4500000477,9.289663867799362,9399.397147667809,2.57,2.521,2.483,2.473
-1.0,599998272.533644,1.4625070095,9.68277856261249,9471.090794701602,2.533,2.489,2.462,2.455
-1.0,599998272.533644,1.5,10.914403364487566,9682.778562612497,2.426,2.397,2.397,2.398
-1.0,599998272.533644,1.5354971886,12.217996601648716,9871.883010683967,2.329,2.312,2.334,2.341
-1.0,599998272.533644,1.5499999523,12.76438808811344,9947.180530834234,2.29,2.278,2.308,2.317
-1.0,599998272.533644,1.5682820082,13.520725631942772,10041.532541208799,2.241,2.235,2.274,2.286
-1.0,599998272.533644,1.6000000238,14.893610777109155,10197.647600447164,2.158,2.161,2.216,2.232
-1.0,599998272.533644,1.6068407297,15.205475297324954,10230.573974866691,2.14,2.146,2.203,2.22
-1.0,599998272.533644,1.6431741714,16.982436524617444,10403.991770513518,2.048,2.062,2.135,2.156
-1.0,599998272.533644,1.6499998569,17.338039977541385,10435.181327286247,2.03,2.046,2.122,2.144
-1.0,599998272.533644,1.7000000477,20.137242498623884,10656.142021585181,1.904,1.931,2.024,2.051
-1.0,599998272.533644,1.7270312309,21.77709772353159,10769.610583443417,1.837,1.869,1.97,2.0
-1.0,599998272.533644,1.75,23.280912576650078,10856.754065290243,1.779,1.814,1.921,1.953
-1.0,599998272.533644,1.7770380974,25.23480772480574,10952.165553667368,1.708,1.748,1.862,1.896
-1.0,599998272.533644,1.7999999523,26.977394324449207,11025.543321022227,1.648,1.69,1.809,1.845
-1.0,599998272.533644,1.8104213476,27.861211686297708,11058.596193126166,1.62,1.664,1.785,1.821
-1.0,599998272.533644,1.8497408628,31.260793671239558,11168.632477805611,1.513,1.562,1.69,1.729
-1.0,599998272.533644,1.8500001431,31.260793671239558,11171.204446568341,1.512,1.561,1.689,1.728
-1.0,599998272.533644,1.8857541084,34.753616144320574,11248.63953646776,1.412,1.464,1.597,1.637
-1.0,599998272.533644,1.8999999762,36.224299841669854,11271.974561755094,1.369,1.422,1.557,1.598
-1.0,599998272.533644,1.9322077036,39.902490236214206,11316.183988888624,1.272,1.328,1.466,1.507
-1.0,599998272.533644,1.9500000477,42.072662838444415,11326.611380767868,1.216,1.272,1.411,1.452
-1.0,599998272.533644,1.9702513218,44.6683592150963,11337.048381054106,1.151,1.209,1.347,1.389
-1.0,599998272.533644,2.0,48.86523593428336,11326.611380767868,1.051,1.11,1.248,1.289
-1.0,599998272.533644,2.006152153,49.77370849789361,11324.003632355578,1.03,1.089,1.227,1.268
-1.0,599998272.533644,2.0402019024,55.335010921573684,11261.597469078652,0.904,0.963,1.096,1.137
-1.0,599998272.533644,2.0499999523,57.016427228074754,11235.696513643688,0.865,0.924,1.056,1.096
-1.0,599998272.533644,2.0804777145,62.8058358813318,11130.123928017912,0.741,0.799,0.923,0.961
-1.0,599998272.533644,2.0999999046,66.83439175686145,11040.786199020735,0.656,0.712,0.83,0.866
-1.0,599998272.533644,2.12221241,71.77942912713618,10901.844923851268,0.55,0.605,0.713,0.746
-1.0,599998272.533644,2.1437609196,77.090346906443,10732.477829171974,0.441,0.492,0.588,0.618
-1.0,599998272.533644,2.1500000954,78.88601176185544,10678.24792539099,0.408,0.458,0.55,0.578
-1.0,599998272.533644,2.1630582809,82.41381150130022,10563.309388106862,0.338,0.385,0.468,0.494
-1.0,599998272.533644,2.1810724735,88.30799004185627,10411.181076233397,0.236,0.28,0.351,0.373
-1.0,599998272.533644,2.1894798279,91.20108393559097,10360.960070404835,0.19,0.232,0.299,0.32
-1.0,599998272.533644,2.1978881359,96.60508789898135,10607.181496353147,0.171,0.222,0.308,0.334
-1.0,599998272.533644,2.2000000477,98.62794856312105,10737.421456088827,0.173,0.227,0.322,0.352
-1.0,599998272.533644,2.2012250423,100.92528860766845,10924.460532267929,0.183,0.242,0.351,0.384
-1.0,599998272.533644,2.2020068169,104.23174293933036,11181.498245842185,0.196,0.261,0.387,0.426
-1.0,599998272.533644,2.2024230957,107.89467222298286,11436.680799117077,0.203,0.275,0.417,0.461
-1.0,599998272.533644,2.2026643753,111.94378834671514,11665.409801470576,0.205,0.281,0.438,0.486
-1.0,599998272.533644,2.2028188705,114.81536214968828,11822.246217614635,0.206,0.286,0.451,0.502
-1.0,599998272.533644,2.202947855,107.3989412341245,11566.44774165646,0.233,0.307,0.457,0.503
-1.0,599998272.533644,2.2030498981,104.71285480508996,11259.004688949397,0.205,0.272,0.403,0.444
-1.0,599998272.533644,2.2031724453,107.89467222298286,10964.78196143185,0.117,0.178,0.289,0.324
-1.0,599998272.533644,2.2033340931,113.24003632355566,10665.961212302567,0.008,0.062,0.152,0.18
-1.0,599998272.533644,2.203527689,117.48975549395291,10375.284158180126,-0.083,-0.036,0.031,0.053
-1.0,599998272.533644,2.203751564,119.94993031493793,10092.528860766834,-0.158,-0.12,-0.077,-0.062
-1.0,599998272.533644,2.2040028572,121.89895989248662,9812.959354708222,-0.223,-0.195,-0.177,-0.17
-1.0,599998272.533644,2.2042734623,123.31048332289096,9541.134102819798,-0.278,-0.261,-0.271,-0.273
-1.0,599998272.533644,2.2045536041,124.16523075924107,9272.567425805944,-0.322,-0.319,-0.361,-0.372
-1.0,599998272.533644,2.2048325539,124.73835142429432,9013.635670781414,-0.357,-0.369,-0.447,-0.469
-1.0,599998272.533644,2.2051019669,124.73835142429432,8759.91717633117,-0.381,-0.411,-0.53,-0.563
-1.0,599998272.533644,2.2053563595,124.73835142429432,8513.340425432285,-0.395,-0.445,-0.609,-0.655
-1.0,599998272.533644,2.2055933475,124.45146117713857,8275.609700353541,-0.394,-0.467,-0.684,-0.745
-1.0,599998272.533644,2.2058112621,123.8796586530369,8044.517485521323,-0.379,-0.48,-0.756,-0.834
-1.0,599998272.533644,2.2060105801,123.31048332289096,7821.679204756053,-0.352,-0.485,-0.824,-0.92
-1.0,599998272.533644,2.2061920166,122.4616199265049,7606.765007662276,-0.313,-0.481,-0.888,-1.005
-1.0,599998272.533644,2.2063567638,121.6186000646368,7397.7559507440665,-0.268,-0.471,-0.948,-1.087
-1.0,599998272.533644,2.2065069675,120.50359403717974,7197.803728026996,-0.219,-0.455,-1.005,-1.168
-1.0,599998272.533644,2.206643343,119.3988104464273,7004.8687123168265,-0.167,-0.434,-1.058,-1.246
-1.0,599998272.533644,2.2067677975,118.03206356517298,6820.245379032683,-0.112,-0.411,-1.107,-1.321
-1.0,599998272.533644,2.2068815231,116.6809617060963,6646.606990710733,-0.055,-0.386,-1.152,-1.392
-1.0,599998272.533644,2.2069859505,115.08003889444356,6489.3320953416915,0.003,-0.359,-1.19,-1.455
-1.0,599998272.533644,2.2070822716,113.7627285823431,6350.384185040406,0.061,-0.331,-1.221,-1.509
-1.0,599998272.533644,2.2071714401,111.94378834671514,6233.041235019454,0.116,-0.303,-1.244,-1.553
-1.0,599998272.533644,2.2072556019,110.40786199020735,6126.324544438646,0.17,-0.274,-1.262,-1.59
-1.0,599998272.533644,2.2073421478,108.39269140212039,6028.371389224644,0.225,-0.243,-1.275,-1.62
-1.0,599998272.533644,2.207442522,105.68175092136585,5929.2532458,0.291,-0.203,-1.282,-1.648
-1.0,599998272.533644,2.2075834274,101.62486928706959,5822.372674224978,0.38,-0.144,-1.274,-1.663
-1.0,599998272.533644,2.2077715397,95.49925860214358,5705.582638711286,0.499,-0.058,-1.244,-1.658
-1.0,599998272.533644,2.2079405785,90.36494737223013,5615.649583575098,0.599,0.017,-1.214,-1.647
-1.0,599998272.533644,2.2081604004,85.50667128846833,5508.076964054036,0.709,0.096,-1.191,-1.65
-1.0,599998272.533644,2.2083880901,89.33054837332953,5415.019189534895,0.707,0.066,-1.27,-1.751
-1.0,599998272.533644,2.2086088657,97.2747223776965,5346.874615616075,0.65,-0.013,-1.385,-1.883
-1.0,599998272.533644,2.2088680267,107.3989412341245,5294.19581017428,0.571,-0.109,-1.51,-2.02
-1.0,599998272.533644,2.2091789246,118.85022274370189,5249.283155466852,0.484,-0.21,-1.636,-2.157
-1.0,599998272.533644,2.2094893456,130.61708881318418,5211.947111050806,0.404,-0.304,-1.751,-2.282
-1.0,599998272.533644,2.209644556,136.77288255958496,5193.976735070076,0.364,-0.35,-1.807,-2.343
-1.0,599998272.533644,2.2098050117,143.5489433353656,5177.260290506427,0.323,-0.398,-1.865,-2.404
-1.0,599998272.533644,2.2099120617,148.2518085145953,5166.542425669501,0.295,-0.43,-1.904,-2.446
-1.0,599998272.533644,2.2101249695,158.12480392703827,5143.988630287732,0.239,-0.494,-1.981,-2.528
-1.0,599998272.533644,2.2104439735,173.78008287493762,5112.107761177404,0.157,-0.589,-2.095,-2.651
-1.0,599998272.533644,2.2107625008,190.98532585662386,5080.424479948444,0.075,-0.683,-2.208,-2.772
-1.0,599998272.533644,2.211081028,209.89398836235245,5051.263219145947,-0.006,-0.777,-2.32,-2.891
-1.0,599998272.533644,2.2114517689,233.8837238659356,5016.490567732232,-0.099,-0.885,-2.449,-3.029
-1.0,599998272.533644,2.2118222713,260.0159563165272,4983.104559705293,-0.191,-0.99,-2.577,-3.166
-1.0,599998272.533644,2.2121925354,289.7343587701324,4948.801109202861,-0.281,-1.096,-2.704,-3.302
-1.0,599998272.533644,2.2125201225,317.6874070649769,4919.262524341649,-0.358,-1.185,-2.813,-3.42
-1.0,599998272.533644,2.2128465176,343.55794789987465,4893.279240819371,-0.422,-1.262,-2.908,-3.522
-1.0,599998272.533644,2.2130119801,326.58783217233565,4911.339996469978,-0.382,-1.213,-2.847,-3.455
-1.0,599998272.533644,2.2133059502,297.1666031738025,4943.106869868354,-0.306,-1.123,-2.735,-3.335
-1.0,599998272.533644,2.2138733864,271.64392688390836,4975.0792135144075,-0.232,-1.035,-2.627,-3.218
-1.0,599998272.533644,2.2156000137,240.99054286865956,5016.490567732232,-0.134,-0.919,-2.484,-3.063
-1.0,599998272.533644,2.2169597149,219.78598727848254,5048.937562011554,-0.054,-0.826,-2.371,-2.942
-1.0,599998272.533644,2.2180893421,203.23570109362208,5076.916258882489,0.012,-0.749,-2.276,-2.84
-1.0,599998272.533644,2.2192251682,187.49945080674192,5105.049999754065,0.079,-0.67,-2.181,-2.737
-1.0,599998272.533644,2.2205681801,171.39573075084252,5138.069802323445,0.157,-0.58,-2.07,-2.619
-1.0,599998272.533644,2.2218763828,157.39828644662197,5170.112579686548,0.228,-0.496,-1.967,-2.508
-1.0,599998272.533644,2.2234299183,143.5489433353656,5203.553211345586,0.306,-0.405,-1.857,-2.389
-1.0,599998272.533644,2.2252509594,131.5224832192239,5242.036010084628,0.379,-0.319,-1.748,-2.272
-1.0,599998272.533644,2.2280437946,120.22644346174131,5295.414984166674,0.446,-0.233,-1.633,-2.143
-1.0,599998272.533644,2.2321376801,112.71974561755106,5369.081544647211,0.479,-0.177,-1.538,-2.03
-1.0,599998272.533644,2.2358694077,119.94993031493793,5452.554309382917,0.366,-0.262,-1.578,-2.051
-1.0,599998272.533644,2.2394940853,131.2199899019203,5543.703571804945,0.223,-0.377,-1.645,-2.096
-1.0,599998272.533644,2.242398262,138.03842646028852,5589.848017438496,0.146,-0.441,-1.686,-2.125
-1.0,599998272.533644,2.2453091145,144.5439770745928,5644.168881751422,0.07,-0.501,-1.718,-2.145
-1.0,599998272.533644,2.247551918,149.2794409578996,5702.955725720632,0.008,-0.546,-1.732,-2.146
-1.0,599998272.533644,2.2489635944,151.70503674593368,5750.425747706384,-0.033,-0.573,-1.737,-2.14
-1.0,599998272.533644,2.25,153.81546403030342,5787.619883491208,-0.062,-0.592,-1.737,-2.133
-1.0,599998272.533644,2.2511341572,155.59656316050751,5829.079788672337,-0.093,-0.612,-1.738,-2.124
-1.0,599998272.533644,2.2525224686,157.76112696993485,5865.431942902653,-0.123,-0.632,-1.74,-2.119
-1.0,599998272.533644,2.2540943623,159.5879147236732,5870.836693962703,-0.139,-0.647,-1.752,-2.13
-1.0,599998272.533644,2.2596349716,167.1090614310707,5888.43655355589,-0.196,-0.698,-1.795,-2.169
-1.0,599998272.533644,2.2756900787,190.10782799232996,5955.250030412836,-0.366,-0.849,-1.912,-2.271
-1.0,599998272.533644,2.293510437,218.27299118430014,6015.8915705346435,-0.544,-1.009,-2.041,-2.388
-1.0,599998272.533644,2.2999999523,229.08676527677724,6032.537079266128,-0.605,-1.065,-2.089,-2.432
-1.0,599998272.533644,2.3068487644,240.99054286865956,6050.6216915829655,-0.669,-1.124,-2.139,-2.478
-1.0,599998272.533644,2.3090155125,244.9063241844744,6054.802756898621,-0.688,-1.142,-2.155,-2.493
-1.0,599998272.533644,2.3142261505,252.92979964461446,6032.537079266128,-0.715,-1.174,-2.198,-2.54
-1.0,599998272.533644,2.3237471581,267.91683248190316,5963.483198341263,-0.75,-1.228,-2.284,-2.64
-1.0,599998272.533644,2.3280920982,274.15741719278833,5892.505546643294,-0.745,-1.242,-2.333,-2.704
-1.0,599998272.533644,2.3310678005,276.6941645411513,5822.372674224978,-0.725,-1.243,-2.368,-2.754
-1.0,599998272.533644,2.3315749168,278.61211686297696,5825.054593417401,-0.734,-1.25,-2.374,-2.76
-1.0,599998272.533644,2.3316590786,277.97132677592884,5841.172070928306,-0.739,-1.251,-2.367,-2.749
-1.0,599998272.533644,2.3333466053,279.2543841237339,5795.621301763043,-0.722,-1.247,-2.385,-2.777
-1.0,599998272.533644,2.3346803188,279.8981319634363,5745.131848169437,-0.704,-1.243,-2.406,-2.808
-1.0,599998272.533644,2.335693121,280.54336379517133,5693.771051094232,-0.683,-1.237,-2.426,-2.839
-1.0,599998272.533644,2.3365335464,280.54336379517133,5645.468649299897,-0.66,-1.229,-2.441,-2.865
-1.0,599998272.533644,2.3375089169,279.2543841237339,5583.416170259268,-0.625,-1.213,-2.457,-2.895
-1.0,599998272.533644,2.3384771347,277.3320104651841,5516.9620938349835,-0.582,-1.19,-2.47,-2.924
-1.0,599998272.533644,2.3396539688,272.27013080779125,5411.279918442833,-0.508,-1.15,-2.485,-2.964
-1.0,599998272.533644,2.3405776024,265.4605561975539,5297.854174488645,-0.417,-1.099,-2.496,-3.002
-1.0,599998272.533644,2.3412115574,267.91683248190316,5183.224264170613,-0.358,-1.081,-2.544,-3.079
-1.0,599998272.533644,2.3414342403,278.61211686297696,5113.285003019643,-0.356,-1.106,-2.61,-3.163
-1.0,599998272.533644,2.3414564133,287.0780582024692,5096.828259054277,-0.375,-1.132,-2.647,-3.205
-1.0,599998272.533644,2.34151721,320.6269324505464,5038.485348423044,-0.456,-1.236,-2.787,-3.36
-1.0,599998272.533644,2.3415634632,345.1437393358561,5007.258356403354,-0.513,-1.307,-2.877,-3.457
-1.0,599998272.533644,2.3419072628,328.85163087598295,5033.846868348144,-0.48,-1.262,-2.816,-3.389
-1.0,599998272.533644,2.3427567482,352.3708710424873,4996.8924263059425,-0.528,-1.326,-2.903,-3.486
-1.0,599998272.533644,2.3430197239,378.44258471709315,4965.923214503363,-0.583,-1.394,-2.992,-3.584
-1.0,599998272.533644,2.3433904648,421.6965034285823,4922.661804443356,-0.664,-1.496,-3.123,-3.727
-1.0,599998272.533644,2.3437371254,461.31757456037957,4887.648886615807,-0.732,-1.581,-3.233,-3.848
-1.0,599998272.533644,2.3440930843,504.6612975635282,4852.88500162121,-0.799,-1.665,-3.343,-3.969
-1.0,599998272.533644,2.3444337845,553.3501092157366,4817.25903559163,-0.86,-1.752,-3.455,-4.09
-1.0,599998272.533644,2.3447554111,606.7363295885053,4774.193311370779,-0.913,-1.837,-3.57,-4.215
-1.0,599998272.533644,2.3450548649,663.7430704019089,4726.06836898339,-0.956,-1.919,-3.686,-4.343
-1.0,599998272.533644,2.3453292847,727.7798045368243,4684.8964916001305,-1.002,-2.001,-3.8,-4.467
-1.0,599998272.533644,2.3455784321,797.9946872679768,4651.574703021666,-1.057,-2.085,-3.911,-4.585
-1.0,599998272.533644,2.3458039761,872.9713683881113,4619.553487999654,-1.109,-2.169,-4.02,-4.704
-1.0,599998272.533644,2.3460087776,957.1940712948442,4587.752705471357,-1.159,-2.252,-4.131,-4.822
-1.0,599998272.533644,2.3461952209,1049.542428652322,4555.121861657392,-1.202,-2.332,-4.241,-4.942
-1.0,599998272.533644,2.3463671207,1148.1536214968828,4521.681832344975,-1.251,-2.408,-4.35,-5.062
-1.0,599998272.533644,2.3465259075,1258.9254117941675,4489.520924135662,-1.302,-2.484,-4.458,-5.182
-1.0,599998272.533644,2.3466722965,1377.2094688939458,4455.536440673005,-1.35,-2.558,-4.566,-5.303
-1.0,599998272.533644,2.346808672,1506.6070661867418,4421.809210742687,-1.396,-2.63,-4.674,-5.424
-1.0,599998272.533644,2.346934557,1651.961798229015,4389.34785534717,-1.442,-2.703,-4.781,-5.544
-1.0,599998272.533644,2.3470509052,1807.1741260109275,4356.121655464697,-1.486,-2.773,-4.887,-5.664
-1.0,599998272.533644,2.3471589088,1976.96964011186,4324.142525098645,-1.529,-2.842,-4.992,-5.783
-1.0,599998272.533644,2.3472599983,2157.744409152667,4292.398159704706,-1.565,-2.908,-5.098,-5.901
-1.0,599998272.533644,2.3473546505,2360.478233180578,4259.9058433220425,-1.598,-2.972,-5.203,-6.02
-1.0,599998272.533644,2.3474435806,2576.3211570025755,4227.659485162412,-1.629,-3.033,-5.307,-6.139
-1.0,599998272.533644,2.3475272655,2818.382931264455,4193.72549666233,-1.655,-3.092,-5.411,-6.258
-1.0,599998272.533644,2.3476066589,3076.096814740708,4161.980106186026,-1.683,-3.151,-5.513,-6.375
-1.0,599998272.533644,2.3476827145,3349.654391578276,4129.524052369216,-1.707,-3.206,-5.615,-6.493
-1.0,599998272.533644,2.3477563858,3655.9479161312506,4097.321098135413,-1.729,-3.26,-5.716,-6.609
-1.0,599998272.533644,2.3478283882,3981.0717055349733,4065.3692697573383,-1.75,-3.312,-5.815,-6.724
-1.0,599998272.533644,2.3478972912,4315.19076827765,4035.5246088074728,-1.765,-3.358,-5.908,-6.832
-1.0,599998272.533644,2.3479828835,4720.630412635905,4002.2111724970323,-1.781,-3.41,-6.013,-6.955
-1.0,599998272.533644,2.3481078148,5152.286445817567,3970.0867811218423,-1.787,-3.454,-6.115,-7.074
-1.0,599998272.533644,2.3481738567,5533.501092157366,3944.573020752785,-1.791,-3.488,-6.196,-7.168
-1.0,599998272.533644,2.3481969833,5508.076964054036,3945.481396833012,-1.788,-3.485,-6.192,-7.164
-1.0,599998272.533644,2.3482069969,5395.1062251512785,3952.7559401972776,-1.787,-3.474,-6.166,-7.134
-1.0,599998272.533644,2.3482182026,5236.0043658575005,3962.7803425543934,-1.783,-3.459,-6.133,-7.096
-1.0,599998272.533644,2.3482272625,5407.5432294558095,3951.8458892843655,-1.786,-3.474,-6.17,-7.138
-1.0,599998272.533644,2.3482356071,5584.701947368307,3940.0342764474544,-1.788,-3.491,-6.208,-7.182
-1.0,599998272.533644,2.348241806,5470.159628939716,3947.298776597855,-1.786,-3.479,-6.182,-7.153
-1.0,599998272.533644,2.3482420444,5199.959965335162,3964.605690612772,-1.782,-3.455,-6.125,-7.086
-1.0,599998272.533644,2.3482422829,5395.1062251512785,3951.8458892843655,-1.785,-3.474,-6.169,-7.137
-1.0,599998272.533644,2.3482425213,5688.529308438413,3933.688806732022,-1.789,-3.499,-6.228,-7.206
-1.0,599998272.533644,2.3482427597,5546.25712957911,3941.849147142968,-1.787,-3.487,-6.2,-7.174
-1.0,599998272.533644,2.3482429981,5420.008904016238,3950.026415978837,-1.785,-3.476,-6.174,-7.143
-1.0,599998272.533644,2.3482439518,5188.000389289609,3965.518679916798,-1.782,-3.454,-6.122,-7.083
-1.0,599998272.533644,2.3482477665,5248.074602497728,3961.8679837032632,-1.782,-3.459,-6.135,-7.099
-1.0,599998272.533644,2.3482499123,5420.008904016238,3950.026415978837,-1.785,-3.475,-6.173,-7.142
-1.0,599998272.533644,2.3482527733,5597.576014951104,3938.2202413383675,-1.787,-3.492,-6.211,-7.187
-1.0,599998272.533644,2.3482575417,5794.286964268809,3926.449353995997,-1.79,-3.509,-6.25,-7.232
-1.0,599998272.533644,2.3482675552,5997.910762555094,3913.812356122119,-1.792,-3.525,-6.29,-7.279
-1.0,599998272.533644,2.3482859135,5956.621435290103,3916.5168559121084,-1.79,-3.521,-6.282,-7.269
-1.0,599998272.533644,2.3482861519,5956.621435290103,3916.5168559121084,-1.79,-3.521,-6.282,-7.269
-1.0,599998272.533644,2.3482863903,6576.578373554205,3880.6100135487018,-1.794,-3.567,-6.397,-7.404
-1.0,599998272.533644,2.3482866287,6982.324040771711,3857.447286724761,-1.789,-3.589,-6.466,-7.486
-1.0,599998272.533644,2.3482868671,6683.439175686149,3874.3602472800194,-1.793,-3.574,-6.416,-7.427
-1.0,599998272.533644,2.348287344,6353.309318517436,3893.1398070156406,-1.793,-3.551,-6.357,-7.357
-1.0,599998272.533644,2.3482878208,6109.420249055721,3907.5091171056138,-1.791,-3.533,-6.311,-7.303
-1.0,599998272.533644,2.3482885361,5956.621435290103,3915.6151483961166,-1.79,-3.521,-6.283,-7.27
-1.0,599998272.533644,2.3482892513,5714.786366718672,3930.972449074674,-1.787,-3.501,-6.235,-7.215
-1.0,599998272.533644,2.3482899666,5559.042572704037,3940.9416073228585,-1.785,-3.486,-6.201,-7.175
-1.0,599998272.533644,2.3482906818,5382.697825162882,3952.7559401972776,-1.782,-3.47,-6.164,-7.132
-1.0,599998272.533644,2.3482923508,5164.163692720711,3966.431879468582,-1.779,-3.45,-6.118,-7.079
-1.0,599998272.533644,2.348295927,5248.074602497728,3960.955834906334,-1.78,-3.458,-6.135,-7.098
-1.0,599998272.533644,2.348297596,5382.697825162882,3951.8458892843655,-1.782,-3.471,-6.165,-7.133
-1.0,599998272.533644,2.3482995033,5546.25712957911,3941.849147142968,-1.785,-3.486,-6.2,-7.174
-1.0,599998272.533644,2.3483028412,5688.529308438413,3931.877693146969,-1.787,-3.499,-6.23,-7.209
-1.0,599998272.533644,2.3483088017,5902.010801718442,3919.2232245497667,-1.789,-3.517,-6.272,-7.258
-1.0,599998272.533644,2.348325491,6683.439175686149,3873.468245564424,-1.79,-3.572,-6.416,-7.427
-1.0,599998272.533644,2.3483402729,6966.265141107687,3858.335599053513,-1.787,-3.587,-6.463,-7.482
-1.0,599998272.533644,2.3483405113,7362.070974947361,3837.9560752329744,-1.786,-3.611,-6.528,-7.558
-1.0,599998272.533644,2.3483407497,7430.191378967013,3833.540007590441,-1.783,-3.613,-6.539,-7.572
-1.0,599998272.533644,2.3483409882,6902.398038402419,3861.0017636183584,-1.787,-3.583,-6.453,-7.471
-1.0,599998272.533644,2.3483412266,6698.846094165266,3872.576449216173,-1.789,-3.571,-6.418,-7.429
-1.0,599998272.533644,2.3483417034,6180.164001384158,3901.21602952676,-1.787,-3.536,-6.326,-7.321
-1.0,599998272.533644,2.3483419418,5970.352865838366,3914.713648482051,-1.786,-3.519,-6.284,-7.273
-1.0,599998272.533644,2.3483426571,5520.774392807573,3941.849147142968,-1.781,-3.482,-6.195,-7.169
-1.0,599998272.533644,2.3483433723,5199.959965335162,3963.6929115081043,-1.778,-3.452,-6.124,-7.086
-1.0,599998272.533644,2.3483438492,4931.738039549359,3982.9054790171745,-1.774,-3.426,-6.063,-7.015
-1.0,599998272.533644,2.3483445644,4764.309868054156,3994.845613082856,-1.77,-3.407,-6.023,-6.968
-1.0,599998272.533644,2.3483474255,4943.106869868354,3981.988486715585,-1.773,-3.427,-6.066,-7.019
-1.0,599998272.533644,2.348348856,5260.172663907063,3959.1321672816603,-1.777,-3.457,-6.138,-7.103
-1.0,599998272.533644,2.3483502865,5610.479760324706,3936.4070414309936,-1.782,-3.489,-6.212,-7.189
-1.0,599998272.533644,2.3483526707,6165.9500186148225,3902.114421141359,-1.787,-3.535,-6.323,-7.317
-1.0,599998272.533644,2.3483583927,6902.398038402419,3861.0017636183584,-1.787,-3.583,-6.453,-7.471
-1.0,599998272.533644,2.3483755589,7798.3011052325855,3815.047942794385,-1.778,-3.629,-6.593,-7.636
-1.0,599998272.533644,2.348392725,8128.305161640995,3798.3939015450715,-1.771,-3.642,-6.641,-7.694
-1.0,599998272.533644,2.3483943939,8128.305161640995,3798.3939015450715,-1.771,-3.642,-6.641,-7.694
-1.0,599998272.533644,2.3483951092,9015.711376059571,3754.9140460984254,-1.748,-3.666,-6.762,-7.84
-1.0,599998272.533644,2.3483951092,8649.67918775693,3769.641066462436,-1.751,-3.652,-6.714,-7.783
-1.0,599998272.533644,2.3483963013,6137.620051647939,3893.1398070156406,-1.761,-3.516,-6.318,-7.318
-1.0,599998272.533644,2.3483982086,4731.512589614803,3988.4118690905275,-1.75,-3.392,-6.018,-6.967
-1.0,599998272.533644,2.3484008312,5081.594425605605,3961.8679837032632,-1.752,-3.426,-6.099,-7.063
-1.0,599998272.533644,2.3484044075,6011.737374832779,3899.419866765436,-1.758,-3.505,-6.294,-7.291
-1.0,599998272.533644,2.348408699,7014.552984199714,3843.2620719095157,-1.756,-3.57,-6.473,-7.501
-1.0,599998272.533644,2.3484139442,7762.4711662869195,3806.273576012056,-1.752,-3.61,-6.59,-7.639
-1.0,599998272.533644,2.3484201431,8165.823713585923,3787.040939050054,-1.747,-3.627,-6.649,-7.709
-1.0,599998272.533644,2.3484272957,8356.030182312483,3778.3309865888623,-1.743,-3.633,-6.674,-7.739
-1.0,599998272.533644,2.3484356403,8452.788451602899,3773.1146335838903,-1.739,-3.635,-6.687,-7.755
-1.0,599998272.533644,2.3484358788,11614.486138403438,3662.6886275878364,-1.701,-3.722,-7.056,-8.185
-1.0,599998272.533644,2.348436594,9036.494737223014,3748.8667146053936,-1.733,-3.657,-6.766,-7.847
-1.0,599998272.533644,2.3484385014,6426.877173170194,3870.793472432571,-1.748,-3.527,-6.373,-7.385
-1.0,599998272.533644,2.348441124,4954.5019080479005,3965.518679916798,-1.739,-3.407,-6.073,-7.034
-1.0,599998272.533644,2.3484447002,5321.082592667942,3939.1271544686583,-1.741,-3.44,-6.155,-7.131
-1.0,599998272.533644,2.3484494686,6295.061828571975,3877.0374851038273,-1.745,-3.517,-6.35,-7.359
-1.0,599998272.533644,2.3484556675,7345.138681571151,3821.202031837345,-1.741,-3.58,-6.527,-7.568
-1.0,599998272.533644,2.3484628201,8128.305161640995,3784.425847170932,-1.734,-3.617,-6.645,-7.706
-1.0,599998272.533644,2.3484716415,8570.378452303692,3764.436710736454,-1.727,-3.633,-6.705,-7.777
-1.0,599998272.533644,2.3484816551,8790.225168308842,3755.7787465577244,-1.723,-3.639,-6.732,-7.81
-1.0,599998272.533644,2.3484930992,8912.509381337459,3749.730022454834,-1.719,-3.642,-6.748,-7.83
-1.0,599998272.533644,2.3484933376,12302.68770812381,3636.6373933084765,-1.671,-3.719,-7.125,-8.269
-1.0,599998272.533644,2.3484942913,9594.006315159337,3723.059697665676,-1.712,-3.666,-6.835,-7.931
-1.0,599998272.533644,2.3484961987,6839.116472814293,3843.2620719095157,-1.732,-3.544,-6.444,-7.472
-1.0,599998272.533644,2.3484990597,5272.298614228227,3938.2202413383675,-1.729,-3.428,-6.143,-7.119
-1.0,599998272.533644,2.3485033512,5662.3928903825345,3912.01039387351,-1.731,-3.461,-6.226,-7.216
-1.0,599998272.533644,2.3485085964,6668.067692136218,3851.2348242893136,-1.729,-3.532,-6.417,-7.441
-1.0,599998272.533644,2.3485155106,7762.4711662869195,3795.7709700253163,-1.722,-3.591,-6.591,-7.646
-1.0,599998272.533644,2.3485236168,8570.378452303692,3760.10523668496,-1.712,-3.622,-6.705,-7.78
-1.0,599998272.533644,2.348533392,9015.711376059571,3741.105882720533,-1.705,-3.637,-6.763,-7.849
-1.0,599998272.533644,2.3485445976,9225.71427154763,3732.5015779572063,-1.7,-3.642,-6.789,-7.881
-1.0,599998272.533644,2.3485574722,9332.543007969914,3726.490341997325,-1.695,-3.644,-6.804,-7.899
-1.0,599998272.533644,2.3485577106,13001.695780332899,3610.7714510035285,-1.635,-3.704,-7.19,-8.348
-1.0,599998272.533644,2.3485586643,10139.1138573668,3696.5790681932745,-1.685,-3.666,-6.9,-8.011
-1.0,599998272.533644,2.3485608101,7244.359600749898,3816.8052419008277,-1.713,-3.557,-6.512,-7.556
-1.0,599998272.533644,2.3485639095,5571.857489319298,3912.911271268528,-1.716,-3.446,-6.21,-7.2
-1.0,599998272.533644,2.3485684395,5984.115950603199,3885.974979543936,-1.716,-3.477,-6.292,-7.297
-1.0,599998272.533644,2.3485741615,7046.930689671467,3825.6038866803838,-1.709,-3.542,-6.48,-7.518
-1.0,599998272.533644,2.3485813141,8147.042840208396,3771.3774501139746,-1.697,-3.593,-6.649,-7.718
-1.0,599998272.533644,2.3485901356,8974.287945007482,3735.9409225879995,-1.685,-3.622,-6.759,-7.849
-1.0,599998272.533644,2.348600626,9418.895965228417,3717.0636679606755,-1.676,-3.635,-6.815,-7.915
-1.0,599998272.533644,2.3486125469,9616.122783836649,3708.514658756861,-1.669,-3.637,-6.84,-7.944
-1.0,599998272.533644,2.3486263752,9727.47223776965,3703.39469397536,-1.663,-3.636,-6.853,-7.961
-1.0,599998272.533644,2.3486266136,13645.831365889238,3584.2640804371426,-1.587,-3.676,-7.25,-8.421
-1.0,599998272.533644,2.3486275673,10665.961212302567,3670.2867848109704,-1.644,-3.652,-6.96,-8.086
-1.0,599998272.533644,2.3486297131,7638.357835776907,3789.6578379947123,-1.686,-3.561,-6.574,-7.633
-1.0,599998272.533644,2.3486328125,5861.3816451402845,3886.8698613730226,-1.698,-3.457,-6.27,-7.274
-1.0,599998272.533644,2.348637104,6295.061828571975,3860.1128374531977,-1.694,-3.485,-6.352,-7.371
-1.0,599998272.533644,2.3486430645,7379.042301291008,3800.143529415859,-1.683,-3.546,-6.536,-7.588
-1.0,599998272.533644,2.3486502171,8511.380382023768,3746.277983440598,-1.665,-3.589,-6.701,-7.784
-1.0,599998272.533644,2.3486588001,9354.05674147552,3711.931900441403,-1.651,-3.615,-6.808,-7.911
-1.0,599998272.533644,2.3486692905,9794.89985408699,3694.0264435828335,-1.64,-3.622,-6.861,-7.974
-1.0,599998272.533644,2.3486812115,9977.000638225536,3685.5304185247937,-1.631,-3.621,-6.885,-8.002
-1.0,599998272.533644,2.3486948013,10092.528860766834,3680.4421857199322,-1.623,-3.619,-6.897,-8.017
-1.0,599998272.533644,2.3486950397,14256.075936021878,3557.132151345879,-2.215,-4.121,-7.279,-8.422
-1.0,599998272.533644,2.3486962318,11142.945335917293,3643.342500684969,-2.125,-3.985,-7.015,-8.101
-1.0,599998272.533644,2.348698616,7998.342550070284,3762.7035226776516,-2.042,-3.808,-6.647,-7.664
-1.0,599998272.533644,2.3487019539,6137.620051647939,3861.0017636183584,-1.993,-3.666,-6.343,-7.309
-1.0,599998272.533644,2.3487069607,6591.738952443213,3831.7750036138436,-2.003,-3.702,-6.425,-7.406
-1.0,599998272.533644,2.348713398,7709.034690644301,3769.641066462436,-2.021,-3.779,-6.605,-7.618
-1.0,599998272.533644,2.3487215042,8871.560120379609,3711.931900441403,-2.029,-3.842,-6.764,-7.809
-1.0,599998272.533644,2.3487312794,9705.099672454899,3672.8230049808462,-2.032,-3.877,-6.864,-7.932
-1.0,599998272.533644,2.3487429619,10139.1138573668,3650.059970708618,-2.036,-3.893,-6.913,-7.995
-1.0,599998272.533644,2.3487563133,10351.42166679343,3635.8001230014343,-2.03,-3.893,-6.934,-8.025
-1.0,599998272.533644,2.3487718105,10447.202192208004,3624.0985589974434,-2.018,-3.887,-6.945,-8.043
-1.0,599998272.533644,2.348772049,14859.35642287006,3486.582933528731,-2.159,-4.075,-7.323,-8.511
-1.0,599998272.533644,2.348773241,11641.260294104908,3580.1399184306892,-2.102,-3.961,-7.058,-8.185
-1.0,599998272.533644,2.3487753868,8394.599865193974,3708.514658756861,-2.015,-3.797,-6.702,-7.748
-1.0,599998272.533644,2.3487789631,6426.877173170194,3816.8052419008277,-1.981,-3.669,-6.398,-7.386
-1.0,599998272.533644,2.3487837315,6886.522963442762,3781.8125611095074,-1.981,-3.697,-6.48,-7.486
-1.0,599998272.533644,2.3487899303,8053.784411990669,3710.2228861746507,-1.98,-3.757,-6.656,-7.702
-1.0,599998272.533644,2.3487977982,9225.71427154763,3643.342500684969,-1.975,-3.803,-6.809,-7.894
-1.0,599998272.533644,2.3488073349,10069.316688518044,3594.181463147148,-1.975,-3.827,-6.902,-8.02
-1.0,599998272.533644,2.3488185406,10519.618738232235,3561.2298094276216,-1.957,-3.824,-6.948,-8.088
-1.0,599998272.533644,2.3488316536,10739.89412341244,3535.90021100387,-1.926,-3.806,-6.968,-8.124
-1.0,599998272.533644,2.348846674,10839.269140212038,3511.5592451629086,-1.888,-3.779,-6.978,-8.151
-1.0,599998272.533644,2.3488469124,15523.870099580816,3351.1973196770778,-1.855,-3.875,-7.377,-8.652
-1.0,599998272.533644,2.3488478661,12161.86000646368,3457.8010353230598,-1.888,-3.815,-7.105,-8.313
-1.0,599998272.533644,2.3488500118,8790.225168308842,3604.956262788377,-1.848,-3.694,-6.755,-7.866
-1.0,599998272.533644,2.3488531113,6729.766562843175,3729.9241475247336,-1.85,-3.598,-6.457,-7.493
-1.0,599998272.533644,2.3488576412,7227.698036021702,3690.6256858412085,-1.834,-3.615,-6.537,-7.595
-1.0,599998272.533644,2.3488636017,8413.951416451948,3610.7714510035285,-1.811,-3.654,-6.706,-7.813
-1.0,599998272.533644,2.3488707542,9616.122783836649,3539.1583956694994,-1.813,-3.691,-6.848,-8.002
-1.0,599998272.533644,2.3488795757,10447.202192208004,3488.188934073285,-1.801,-3.704,-6.938,-8.127
-1.0,599998272.533644,2.3488900661,10914.40336448757,3455.413295778485,-1.771,-3.694,-6.984,-8.194
-1.0,599998272.533644,2.3489022255,11091.748152624008,3430.0464394337664,-1.729,-3.67,-7.005,-8.231
-1.0,599998272.533644,2.3489160538,11194.378834671525,3406.4341658307585,-1.678,-3.636,-7.017,-8.258
-1.0,599998272.533644,2.3489162922,16143.585568264869,3239.664224348446,-1.616,-3.714,-7.416,-8.765
-1.0,599998272.533644,2.3489172459,12676.518658578449,3347.341331292356,-1.644,-3.656,-7.153,-8.433
-1.0,599998272.533644,2.3489193916,9183.32596483581,3495.425095985996,-1.675,-3.575,-6.798,-7.982
-1.0,599998272.533644,2.3489224911,7014.552984199714,3624.0985589974434,-1.656,-3.483,-6.509,-7.607
-1.0,599998272.533644,2.348927021,7533.55563733717,3582.613845838672,-1.636,-3.493,-6.586,-7.711
-1.0,599998272.533644,2.3489327431,8749.837752274363,3501.063598465195,-1.633,-3.53,-6.745,-7.925
-1.0,599998272.533644,2.3489398956,9977.000638225536,3426.888704327863,-1.611,-3.549,-6.887,-8.116
-1.0,599998272.533644,2.3489487171,10839.269140212038,3372.873086588689,-1.557,-3.539,-6.98,-8.243
-1.0,599998272.533644,2.3489589691,11271.974561755094,3337.3365130514867,-1.502,-3.514,-7.024,-8.311
-1.0,599998272.533644,2.34897089,11481.536214968817,3309.0246319221333,-1.444,-3.48,-7.042,-8.349
-1.0,599998272.533644,2.3489847183,11587.773561551261,3280.9529311311903,-1.379,-3.438,-7.053,-8.377
-1.0,599998272.533644,2.3489849567,16788.040181225588,3103.844819159537,-1.311,-3.513,-7.47,-8.893
-1.0,599998272.533644,2.3489859104,13212.956341865765,3215.8812236044914,-1.343,-3.457,-7.2,-8.563
-1.0,599998272.533644,2.3489878178,9616.122783836649,3370.5439929348295,-1.431,-3.409,-6.848,-8.114
-1.0,599998272.533644,2.3489906788,7328.245331389045,3506.711196464777,-1.452,-3.346,-6.551,-7.728
-1.0,599998272.533644,2.3489947319,7852.356346100718,3465.7720899354867,-1.443,-3.358,-6.627,-7.831
-1.0,599998272.533644,2.3489999771,9099.132726322518,3383.763488617649,-1.414,-3.378,-6.789,-8.046
-1.0,599998272.533644,2.3490066528,10327.61405761398,3312.0737601979727,-1.351,-3.377,-6.926,-8.232
-1.0,599998272.533644,2.3490147591,11194.378834671525,3262.871721430849,-1.299,-3.369,-7.015,-8.35
-1.0,599998272.533644,2.3490242958,11641.260294104908,3232.9575336809407,-1.262,-3.355,-7.057,-8.412
-1.0,599998272.533644,2.3490352631,11830.41555725166,3212.1809339879856,-1.226,-3.335,-7.077,-8.443
-1.0,599998272.533644,2.3490478992,11939.88104464273,3194.4787242086913,-1.187,-3.311,-7.087,-8.464
-1.0,599998272.533644,2.3490481377,17418.068733916127,3008.153543944214,-1.08,-3.364,-7.515,-8.97
-1.0,599998272.533644,2.3490490913,13740.41975012515,3123.920693664115,-1.149,-3.332,-7.247,-8.661
-1.0,599998272.533644,2.3490507603,10023.052380779005,3284.7324430306794,-1.25,-3.294,-6.891,-8.214
-1.0,599998272.533644,2.3490536213,7620.790100254122,3430.0464394337664,-1.334,-3.266,-6.591,-7.82
-1.0,599998272.533644,2.349057436,8184.647881347895,3390.783022519265,-1.329,-3.279,-6.67,-7.924
-1.0,599998272.533644,2.3490624428,9462.37161365793,3312.8364811728147,-1.268,-3.286,-6.827,-8.132
-1.0,599998272.533644,2.3490686417,10690.548792226577,3247.8801876353714,-1.216,-3.294,-6.964,-8.31
-1.0,599998272.533644,2.3490762711,11561.122421920982,3207.007680303629,-1.189,-3.301,-7.051,-8.42
-1.0,599998272.533644,2.349085331,11994.993031493781,3187.1316270228012,-1.17,-3.302,-7.095,-8.475
-1.0,599998272.533644,2.3490958214,12189.895989248673,3176.8740706497692,-1.157,-3.299,-7.114,-8.5
-1.0,599998272.533644,2.3491077423,12302.68770812381,3169.56746304349,-1.146,-3.295,-7.124,-8.514
-1.0,599998272.533644,2.3491079807,18071.74126010926,2984.695288301337,-1.054,-3.358,-7.558,-9.019
-1.0,599998272.533644,2.349108696,14288.939585111037,3095.2804165939788,-1.112,-3.32,-7.293,-8.721
-1.0,599998272.533644,2.3491103649,10447.202192208004,3247.1324216780226,-1.19,-3.267,-6.938,-8.284
-1.0,599998272.533644,2.3491129875,7925.013304804718,3386.881485634765,-1.288,-3.24,-6.636,-7.892
-1.0,599998272.533644,2.3491165638,8511.380382023768,3344.2597353373435,-1.246,-3.235,-6.713,-7.997
-1.0,599998272.533644,2.3491213322,9817.479430199845,3262.871721430849,-1.169,-3.23,-6.868,-8.205
-1.0,599998272.533644,2.3491272926,11040.786199020735,3190.8030609514212,-1.099,-3.223,-7.004,-8.382
-1.0,599998272.533644,2.3491344452,11912.420080273738,3141.2319059861875,-1.041,-3.209,-7.09,-8.495
-1.0,599998272.533644,2.3491427898,12331.048332289096,3108.8516598805636,-0.997,-3.189,-7.132,-8.553
-1.0,599998272.533644,2.349152565,12502.590302177214,3085.3184768063825,-0.949,-3.161,-7.15,-8.582
-1.0,599998272.533644,2.3491637707,12618.275345906706,3064.7849053700324,-0.897,-3.128,-7.159,-8.598
-1.0,599998272.533644,2.3491640091,18663.796908346696,2858.9068155119553,-0.736,-3.149,-7.614,-9.095
-1.0,599998272.533644,2.3491647243,14757.065332758932,2979.2023371471673,-0.822,-3.128,-7.337,-8.799
-1.0,599998272.533644,2.3491663933,10839.269140212038,3144.850465476959,-0.952,-3.115,-6.987,-8.39
-1.0,599998272.533644,2.3491687775,8203.515443298185,3299.8940791083483,-1.089,-3.112,-6.672,-7.986
-1.0,599998272.533644,2.3491721153,8810.488730080138,3254.61783498046,-1.038,-3.102,-6.751,-8.094
-1.0,599998272.533644,2.3491764069,10115.794542598982,3170.297366952724,-0.951,-3.091,-6.91,-8.3
-1.0,599998272.533644,2.3491818905,11376.27285823431,3099.559659837377,-0.886,-3.085,-7.044,-8.471
-1.0,599998272.533644,2.3491888046,12217.99660164871,3052.8115771626694,-0.831,-3.071,-7.125,-8.568
-1.0,599998272.533644,2.3491966724,12647.363474711523,3025.519803872306,-0.788,-3.053,-7.164,-8.615
-1.0,599998272.533644,2.3492057323,12823.305826560205,3007.460970731941,-0.75,-3.032,-7.182,-8.637
-1.0,599998272.533644,2.3492162228,12912.192736135336,2991.575721530859,-0.712,-3.008,-7.192,-8.651
-1.0,599998272.533644,2.3492164612,19230.917289101577,2790.6154863980737,-0.602,-3.068,-7.665,-9.144
-1.0,599998272.533644,2.3492171764,15240.527537972906,2904.022654464451,-0.639,-3.013,-7.384,-8.862
-1.0,599998272.533644,2.3492186069,11220.18454301963,3059.1445594864085,-0.757,-2.992,-7.033,-8.474
-1.0,599998272.533644,2.3492207527,8491.804750363135,3207.007680303629,-0.867,-2.971,-6.714,-8.084
-1.0,599998272.533644,2.3492238522,9120.108393559096,3160.0939904479483,-0.81,-2.959,-6.797,-8.193
-1.0,599998272.533644,2.3492281437,10447.202192208004,3077.513735907868,-0.733,-2.951,-6.954,-8.389
-1.0,599998272.533644,2.3492331505,11694.9939101987,3008.153543944214,-0.654,-2.934,-7.082,-8.537
-1.0,599998272.533644,2.3492393494,12531.411749414156,2964.1487904584055,-0.6,-2.92,-7.162,-8.628
-1.0,599998272.533644,2.3492467403,12941.958414499863,2941.033693747309,-0.567,-2.908,-7.201,-8.672
-1.0,599998272.533644,2.3492553234,13121.998990192042,2930.8932452503213,-0.553,-2.903,-7.217,-8.69
-1.0,599998272.533644,2.3492650986,13212.956341865765,2930.2184598312765,-0.558,-2.909,-7.225,-8.698
-1.0,599998272.533644,2.349265337,19815.27025805097,2718.316366861065,-0.475,-2.989,-7.714,-9.182
-1.0,599998272.533644,2.3492660522,15739.828644662197,2833.3485277843724,-0.486,-2.92,-7.436,-8.918
-1.0,599998272.533644,2.3492672443,11614.486138403438,2989.5099278145867,-0.591,-2.889,-7.078,-8.537
-1.0,599998272.533644,2.3492693901,8770.008211436349,3137.6175101187496,-0.701,-2.872,-6.76,-8.166
-1.0,599998272.533644,2.3492722511,9418.895965228417,3083.8979622506845,-0.634,-2.849,-6.843,-8.275
-1.0,599998272.533644,2.3492763042,10764.65213629835,2997.091486307045,-0.529,-2.821,-6.993,-8.451
-1.0,599998272.533644,2.3492810726,11994.993031493781,2927.520871369441,-0.445,-2.799,-7.121,-8.594
-1.0,599998272.533644,2.3492867947,12823.305826560205,2886.0244097569725,-0.4,-2.79,-7.199,-8.68
-1.0,599998272.533644,2.3492937088,13212.956341865765,2871.441679790805,-0.393,-2.796,-7.237,-8.718
-1.0,599998272.533644,2.349301815,13396.766874259343,2876.7359455385426,-0.421,-2.819,-7.249,-8.73
-1.0,599998272.533644,2.3493108749,13458.60354055947,2902.017319380225,-0.497,-2.873,-7.25,-8.728
-1.0,599998272.533644,2.3493111134,20323.57010936221,2705.203869719351,-0.473,-2.997,-7.745,-9.21
-1.0,599998272.533644,2.3493115902,16180.800376430645,2808.665372767918,-0.454,-2.907,-7.472,-8.953
-1.0,599998272.533644,2.3493130207,11994.993031493781,2949.8504574842414,-0.506,-2.841,-7.116,-8.585
-1.0,599998272.533644,2.3493149281,9015.711376059571,3093.855315451652,-0.611,-2.819,-6.795,-8.224
-1.0,599998272.533644,2.3493177891,9682.778562612497,3052.1087222420074,-0.57,-2.814,-6.874,-8.316
-1.0,599998272.533644,2.3493213654,11015.393095414145,2982.634245778771,-0.509,-2.815,-7.02,-8.481
-1.0,599998272.533644,2.3493261337,12217.99660164871,2934.945222269793,-0.485,-2.832,-7.139,-8.611
-1.0,599998272.533644,2.3493316174,13001.695780332899,2926.846862378789,-0.527,-2.882,-7.207,-8.681
-1.0,599998272.533644,2.3493380547,13365.955165464433,2962.7840637587915,-0.66,-2.984,-7.231,-8.697
-1.0,599998272.533644,2.3493456841,13489.628825916532,3048.5968741891425,-0.918,-3.166,-7.234,-8.676
-1.0,599998272.533644,2.3493545055,13520.72563194278,3194.4787242086913,-1.306,-3.44,-7.226,-8.601
