FeH,Age,Mini,L,Te,Bmag,Vmag,Jmag,Kmag
-1.0,200000001.99681082,0.0900000036,0.0013427649611378642,3017.866332008685,16.443,14.546,9.995,9.3
-1.0,200000001.99681082,0.0910387412,0.0013708817661648536,3026.913428101305,16.385,14.491,9.976,9.278
-1.0,200000001.99681082,0.096650891,0.0015523870099580816,3081.768416611512,16.044,14.173,9.866,9.15
-1.0,200000001.99681082,0.1000000015,0.001671090614310707,3116.7358754452835,15.839,13.987,9.8,9.076
-1.0,200000001.99681082,0.1088251173,0.0019724227361148533,3181.2661175961725,15.445,13.63,9.647,8.908
-1.0,200000001.99681082,0.1200000048,0.002426610095082414,3268.8876924727197,14.953,13.19,9.459,8.703
-1.0,200000001.99681082,0.1206516698,0.0024490632418447443,3272.6533057537135,14.931,13.171,9.449,8.693
-1.0,200000001.99681082,0.1400000006,0.0033806483620598153,3380.6483620598156,14.285,12.6,9.143,8.372
-1.0,200000001.99681082,0.1599999964,0.004436086439314323,3460.9872548535277,13.794,12.167,8.877,8.098
-1.0,200000001.99681082,0.2000000179,0.006886522963442762,3576.0205018090237,13.064,11.519,8.441,7.652
-1.0,200000001.99681082,0.2455701381,0.009908319448927675,3666.9078820369723,12.489,11.006,8.077,7.283
-1.0,200000001.99681082,0.25,0.010256519262514073,3674.5147919993988,12.438,10.959,8.043,7.249
-1.0,200000001.99681082,0.3000000417,0.01412537544622754,3753.185242379138,11.95,10.522,7.722,6.924
-1.0,200000001.99681082,0.349999994,0.01940885877592778,3831.7750036138436,11.477,10.097,7.402,6.604
-1.0,200000001.99681082,0.400000006,0.02754228703338166,3933.688806732022,10.941,9.623,7.054,6.258
-1.0,200000001.99681082,0.4253203273,0.03341950400261143,4001.2897354069864,10.635,9.357,6.864,6.073
-1.0,200000001.99681082,0.4499999881,0.0403645392967605,4069.115338091966,10.336,9.099,6.678,5.892
-1.0,200000001.99681082,0.5,0.06137620051647943,4282.5259178891965,9.612,8.492,6.281,5.52
-1.0,200000001.99681082,0.5500000715,0.09418895965228413,4563.520439214676,8.813,7.842,5.889,5.189
-1.0,200000001.99681082,0.5570654869,0.1,4603.625637759879,8.705,7.753,5.836,5.146
-1.0,200000001.99681082,0.6000000238,0.14028137045619582,4852.88500162121,8.102,7.252,5.546,4.928
-1.0,200000001.99681082,0.6499999762,0.20323570109362218,5135.704178483554,7.502,6.74,5.234,4.697
-1.0,200000001.99681082,0.6999999881,0.2877398414735669,5436.257251684059,6.967,6.291,4.956,4.49
-1.0,200000001.99681082,0.75,0.3981071705534972,5730.598740537326,6.493,5.896,4.705,4.297
-1.0,200000001.99681082,0.8000000119,0.5370317963702527,5967.604049723488,6.088,5.554,4.467,4.1
-1.0,200000001.99681082,0.8500000238,0.7128530301265196,6178.741129854402,5.718,5.237,4.235,3.902
-1.0,200000001.99681082,0.8999999762,0.933254300796991,6372.355556351471,5.374,4.938,4.011,3.708
-1.0,200000001.99681082,0.9499999881,1.202264434617413,6561.452663029057,5.053,4.655,3.8,3.526
-1.0,200000001.99681082,1.0,1.53108746168203,6753.050539950786,4.75,4.387,3.603,3.357
-1.0,200000001.99681082,1.0499999523,1.9186687406702894,6953.4446182566335,4.464,4.133,3.422,3.205
-1.0,200000001.99681082,1.1000000238,2.371373705661655,7174.638108861394,4.191,3.892,3.261,3.074
-1.0,200000001.99681082,1.1499999762,2.904022654464451,7431.9024407434545,3.929,3.663,3.123,2.967
-1.0,200000001.99681082,1.2000000477,3.5075187395256804,7728.585218603322,3.679,3.449,3.01,2.888
-1.0,200000001.99681082,1.25,4.187935651179184,8046.370017398005,3.445,3.251,2.913,2.823
-1.0,200000001.99681082,1.2999999523,4.977370849789359,8361.804317558855,3.229,3.073,2.827,2.763
-1.0,200000001.99681082,1.3500000238,5.861381645140288,8679.605772923775,3.037,2.918,2.751,2.707
-1.0,200000001.99681082,1.3999999762,6.8865229634427605,8992.904884011861,2.872,2.785,2.681,2.653
-1.0,200000001.99681082,1.4500000477,8.016780633876792,9302.506882321279,2.726,2.666,2.613,2.599
-1.0,200000001.99681082,1.5,9.289663867799362,9607.270084891205,2.597,2.559,2.549,2.546
-1.0,200000001.99681082,1.5499999523,10.690548792226577,9899.19775080584,2.481,2.461,2.486,2.493
-1.0,200000001.99681082,1.6000000238,12.246161992650489,10183.568757197852,2.374,2.371,2.424,2.44
-1.0,200000001.99681082,1.622877717,13.001695780332906,10308.607400626268,2.328,2.332,2.396,2.415
-1.0,200000001.99681082,1.6499998569,13.931568029453029,10454.42135694149,2.274,2.286,2.363,2.385
-1.0,200000001.99681082,1.7000000477,15.812480392703835,10712.726072029467,2.18,2.204,2.301,2.33
-1.0,200000001.99681082,1.75,17.864875748520507,10962.2575177311,2.091,2.124,2.24,2.274
-1.0,200000001.99681082,1.7999999523,20.090928126087277,11204.693988178082,2.004,2.046,2.178,2.217
-1.0,200000001.99681082,1.8500001431,22.54239212152429,11436.680799117077,1.92,1.97,2.117,2.16
-1.0,200000001.99681082,1.8690915108,23.550492838960103,11521.260598258063,1.889,1.941,2.093,2.139
-1.0,200000001.99681082,1.8999999762,25.23480772480574,11660.03891851448,1.839,1.895,2.055,2.103
-1.0,200000001.99681082,1.9500000477,28.11900830398941,11876.815226774688,1.759,1.821,1.995,2.046
-1.0,200000001.99681082,2.0,31.332857243155857,12092.051829432072,1.681,1.749,1.933,1.989
-1.0,200000001.99681082,2.0499999523,34.753616144320574,12299.855235704723,1.604,1.676,1.872,1.931
-1.0,200000001.99681082,2.0999999046,38.54783576657719,12502.590302177214,1.528,1.605,1.812,1.874
-1.0,200000001.99681082,2.1229739189,40.364539296760505,12592.153234588399,1.494,1.573,1.784,1.847
-1.0,200000001.99681082,2.1500000954,42.55984131337431,12696.967267809436,1.453,1.534,1.75,1.816
-1.0,200000001.99681082,2.2000000477,46.98941086052154,12888.429491602195,1.378,1.464,1.689,1.757
-1.0,200000001.99681082,2.2176492214,48.64072056914617,12953.883889748884,1.352,1.439,1.667,1.736
-1.0,200000001.99681082,2.25,51.88000389289612,13070.734707217076,1.304,1.393,1.627,1.697
-1.0,200000001.99681082,2.2999999523,57.14786366718669,13249.515574620971,1.23,1.322,1.564,1.637
-1.0,200000001.99681082,2.3499999046,62.8058358813318,13418.377322533719,1.156,1.252,1.501,1.577
-1.0,200000001.99681082,2.4000000954,68.86522963442762,13589.391171008028,1.083,1.182,1.439,1.517
-1.0,200000001.99681082,2.4598455429,76.91304402866095,13772.094688939473,0.994,1.097,1.361,1.441
-1.0,200000001.99681082,2.573823452,94.6237161365793,14099.379493587247,0.822,0.93,1.208,1.292
-1.0,200000001.99681082,2.5999999046,99.3116048420934,14167.721135183649,0.781,0.891,1.171,1.257
-1.0,200000001.99681082,2.672617197,112.97959146727976,14348.285182325875,0.67,0.784,1.071,1.158
-1.0,200000001.99681082,2.7585809231,131.82567385564073,14534.496779183142,0.533,0.65,0.945,1.034
-1.0,200000001.99681082,2.8000001907,141.90575216890926,14615.03972006163,0.466,0.584,0.881,0.972
-1.0,200000001.99681082,2.800784111,141.90575216890926,14615.03972006163,0.464,0.583,0.88,0.971
-1.0,200000001.99681082,2.8748166561,161.80800376430662,14736.691770366891,0.34,0.462,0.763,0.855
-1.0,200000001.99681082,2.9415438175,182.38957023196383,14825.180851459545,0.225,0.348,0.653,0.746
-1.0,200000001.99681082,2.9967422485,201.37242498623874,14869.62444868948,0.123,0.247,0.553,0.647
-1.0,200000001.99681082,3.0,202.76827195212817,14869.62444868948,0.116,0.241,0.547,0.641
-1.0,200000001.99681082,3.0480952263,221.30947096056389,14883.326187842527,0.023,0.149,0.455,0.549
-1.0,200000001.99681082,3.1129617691,248.88573182823905,14873.048700465295,-0.109,0.018,0.323,0.417
-1.0,200000001.99681082,3.1706981659,277.3320104651841,14811.532641485526,-0.236,-0.11,0.193,0.286
-1.0,200000001.99681082,3.2000000477,293.0893245250321,14760.46366385642,-0.306,-0.179,0.122,0.214
-1.0,200000001.99681082,3.2307572365,311.17163371060167,14696.028989796518,-0.381,-0.255,0.044,0.135
-1.0,200000001.99681082,3.2860274315,346.73685045253166,14527.804937031438,-0.526,-0.401,-0.109,-0.02
-1.0,200000001.99681082,3.3275208473,376.70379898390894,14335.076007281228,-0.649,-0.526,-0.243,-0.156
-1.0,200000001.99681082,3.3661265373,408.3193863326923,14118.871968036585,-0.773,-0.653,-0.378,-0.294
-1.0,200000001.99681082,3.4000000954,439.5416154378243,13896.326196366015,-0.891,-0.772,-0.508,-0.426
-1.0,200000001.99681082,3.4012076855,440.55486350655343,13889.928174968516,-0.895,-0.777,-0.512,-0.431
-1.0,200000001.99681082,3.4354183674,477.5292736576907,13686.73945592673,-1.017,-0.901,-0.646,-0.567
-1.0,200000001.99681082,3.4418172836,485.28850016212095,13674.139306503543,-1.037,-0.922,-0.667,-0.589
-1.0,200000001.99681082,3.4556436539,510.50499997540646,13950.828503573675,-1.046,-0.926,-0.659,-0.577
-1.0,200000001.99681082,3.4610638618,527.2298614228228,14259.358896765678,-1.029,-0.904,-0.625,-0.539
-1.0,200000001.99681082,3.4630851746,542.0008904016238,14594.8622378262,-1.004,-0.875,-0.582,-0.492
-1.0,200000001.99681082,3.464038372,558.4701947368306,14921.071106166968,-0.984,-0.851,-0.545,-0.451
-1.0,200000001.99681082,3.4645926952,579.428696426881,15254.571048863228,-0.971,-0.834,-0.516,-0.418
-1.0,200000001.99681082,3.4649209976,594.2921586155727,15477.471037349194,-0.964,-0.823,-0.497,-0.397
-1.0,200000001.99681082,3.4650301933,578.0960474057181,15346.16982799294,-0.954,-0.816,-0.494,-0.395
-1.0,200000001.99681082,3.4651873112,553.3501092157366,15055.666982669796,-0.952,-0.817,-0.506,-0.411
-1.0,200000001.99681082,3.4653623104,543.250331492433,14652.1042494269,-0.998,-0.868,-0.573,-0.482
-1.0,200000001.99681082,3.465559721,559.7576014951104,14262.642613526188,-1.093,-0.969,-0.689,-0.603
-1.0,200000001.99681082,3.4657969475,586.1381645140285,13873.946006030623,-1.208,-1.089,-0.826,-0.745
-1.0,200000001.99681082,3.4660630226,608.1350012787176,13495.842460197815,-1.314,-1.199,-0.953,-0.877
-1.0,200000001.99681082,3.466350317,625.1726927756855,13125.020790002753,-1.408,-1.298,-1.07,-0.999
-1.0,200000001.99681082,3.4666528702,638.263486190549,12764.388088113436,-1.494,-1.389,-1.178,-1.112
-1.0,200000001.99681082,3.4669647217,647.1426157485831,12410.806372156538,-1.573,-1.473,-1.28,-1.22
-1.0,200000001.99681082,3.4672780037,654.6361740672747,12067.01909593275,-1.646,-1.552,-1.378,-1.323
-1.0,200000001.99681082,3.4675865173,659.1738952443212,11730.053691536921,-1.716,-1.628,-1.472,-1.423
-1.0,200000001.99681082,3.4678852558,662.2165037017622,11405.12370007243,-1.782,-1.699,-1.564,-1.521
-1.0,200000001.99681082,3.4681706429,665.2731562017412,11086.641389799572,-1.844,-1.768,-1.653,-1.616
-1.0,200000001.99681082,3.4684407711,666.8067692136219,10777.052536943213,-1.904,-1.834,-1.74,-1.709
-1.0,200000001.99681082,3.4686944485,666.8067692136219,10476.108796203616,-1.96,-1.897,-1.825,-1.801
-1.0,200000001.99681082,3.4689311981,665.2731562017412,10183.568757197852,-2.013,-1.956,-1.908,-1.891
-1.0,200000001.99681082,3.4691517353,663.7430704019089,9899.19775080584,-2.062,-2.013,-1.988,-1.979
-1.0,200000001.99681082,3.4693565369,662.2165037017622,9622.767660923992,-2.106,-2.065,-2.067,-2.066
-1.0,200000001.99681082,3.4695460796,659.1738952443212,9354.05674147552,-2.144,-2.114,-2.144,-2.151
-1.0,200000001.99681082,3.4697217941,656.1452663029056,9094.943385552955,-2.175,-2.157,-2.219,-2.235
-1.0,200000001.99681082,3.4698848724,651.6283940608428,8843.007635355161,-2.198,-2.194,-2.292,-2.319
-1.0,200000001.99681082,3.4700360298,647.1426157485831,8596.071120194818,-2.212,-2.226,-2.363,-2.402
-1.0,200000001.99681082,3.4701759815,642.6877173170194,8357.954450897025,-2.216,-2.249,-2.433,-2.485
-1.0,200000001.99681082,3.4703056812,636.7955209079155,8126.433765672033,-2.209,-2.264,-2.499,-2.567
-1.0,200000001.99681082,3.4704258442,630.957344480193,7901.326351541296,-2.188,-2.27,-2.564,-2.649
-1.0,200000001.99681082,3.4705374241,625.1726927756855,7682.454556792667,-2.155,-2.269,-2.627,-2.731
-1.0,200000001.99681082,3.4706408978,619.4410750767812,7471.365798284319,-2.11,-2.26,-2.687,-2.812
-1.0,200000001.99681082,3.4707369804,612.3503917247733,7266.077069393996,-2.056,-2.248,-2.746,-2.893
-1.0,200000001.99681082,3.4708263874,605.3408747539136,7066.429004252079,-1.998,-2.228,-2.802,-2.974
-1.0,200000001.99681082,3.4709098339,598.4115950603199,6873.8491959032335,-1.938,-2.205,-2.855,-3.053
-1.0,200000001.99681082,3.4709875584,591.5616341754737,6686.517721976395,-1.874,-2.178,-2.904,-3.13
-1.0,200000001.99681082,3.4710600376,584.7900841444806,6507.287577548787,-1.808,-2.149,-2.951,-3.205
-1.0,200000001.99681082,3.4711279869,576.7664633922509,6334.320007697662,-1.735,-2.117,-2.996,-3.279
-1.0,200000001.99681082,3.4711916447,570.1642722807472,6171.631684555837,-1.661,-2.082,-3.036,-3.349
-1.0,200000001.99681082,3.4712517262,562.341325190349,6025.595860743575,-1.589,-2.047,-3.068,-3.409
-1.0,200000001.99681082,3.4713084698,554.625712957911,5899.293451041436,-1.519,-2.013,-3.097,-3.465
-1.0,200000001.99681082,3.4713628292,545.757861091271,5788.952685656601,-1.453,-1.979,-3.118,-3.509
-1.0,200000001.99681082,3.471416235,537.0317963702527,5700.330022189607,-1.394,-1.946,-3.13,-3.54
-1.0,200000001.99681082,3.4714772701,526.0172663907063,5615.649583575098,-1.332,-1.909,-3.135,-3.564
-1.0,200000001.99681082,3.4715571404,511.6818355403078,5532.227103123719,-1.258,-1.862,-3.132,-3.581
-1.0,200000001.99681082,3.4716880322,487.5284901033865,5425.003216311501,-1.151,-1.789,-3.116,-3.59
-1.0,200000001.99681082,3.4718208313,468.81338214526505,5333.348954876208,-1.055,-1.725,-3.102,-3.599
-1.0,200000001.99681082,3.4719212055,460.25657358135584,5269.871189967232,-0.998,-1.691,-3.104,-3.616
-1.0,200000001.99681082,3.4720323086,475.3352259428054,5203.553211345586,-0.991,-1.709,-3.16,-3.689
-1.0,200000001.99681082,3.4721655846,511.6818355403078,5129.794882858578,-1.024,-1.77,-3.265,-3.813
-1.0,200000001.99681082,3.472284317,554.625712957911,5075.747390289013,-1.076,-1.844,-3.372,-3.934
-1.0,200000001.99681082,3.4724292755,606.7363295885053,5026.897153690667,-1.138,-1.927,-3.486,-4.061
-1.0,200000001.99681082,3.4724874496,625.1726927756855,5010.718442871759,-1.158,-1.954,-3.523,-4.102
-1.0,200000001.99681082,3.4725785255,648.6344335482381,4993.441887213498,-1.183,-1.987,-3.569,-4.152
-1.0,200000001.99681082,3.4726395607,662.2165037017622,4980.810283567242,-1.198,-2.008,-3.597,-4.184
-1.0,200000001.99681082,3.4726941586,672.9766562843175,4973.933791067749,-1.21,-2.022,-3.616,-4.205
-1.0,200000001.99681082,3.4729943275,731.1390834834173,4936.28243059449,-1.268,-2.098,-3.717,-4.317
-1.0,200000001.99681082,3.4733219147,794.3282347242813,4900.044227932357,-1.327,-2.175,-3.82,-4.429
-1.0,200000001.99681082,3.473731041,877.0008211436349,4858.475309374926,-1.4,-2.267,-3.942,-4.565
-1.0,200000001.99681082,3.474146843,968.2778562612496,4820.587829837399,-1.467,-2.362,-4.064,-4.697
-1.0,200000001.99681082,3.4745898247,1064.1430182243164,4785.198963583403,-1.529,-2.452,-4.178,-4.82
-1.0,200000001.99681082,3.4750242233,1119.4378834671513,4766.504419105543,-1.564,-2.502,-4.242,-4.888
-1.0,200000001.99681082,3.4781739712,1078.9467222298285,4785.198963583403,-1.545,-2.468,-4.195,-4.837
-1.0,200000001.99681082,3.4867310524,1006.9316688518045,4821.697939006178,-1.509,-2.405,-4.106,-4.739
-1.0,200000001.99681082,3.4958837032,944.0608762859235,4857.356732878539,-1.477,-2.347,-4.023,-4.647
-1.0,200000001.99681082,3.5047655106,891.2509381337459,4893.279240819371,-1.445,-2.298,-3.949,-4.56
-1.0,200000001.99681082,3.5137610435,845.27884516029,4930.6025956279445,-1.419,-2.255,-3.879,-4.48
-1.0,200000001.99681082,3.5248160362,810.9610578538404,4979.663541644856,-1.413,-2.227,-3.818,-4.405
-1.0,200000001.99681082,3.5339381695,799.8342550070284,5025.739801095915,-1.432,-2.226,-3.787,-4.361
-1.0,200000001.99681082,3.5417776108,829.8507675144226,5094.481623274436,-1.521,-2.288,-3.806,-4.361
-1.0,200000001.99681082,3.5488638878,872.9713683881113,5179.645056050334,-1.634,-2.368,-3.834,-4.366
-1.0,200000001.99681082,3.5532917976,918.332596483581,5273.512745624402,-1.75,-2.448,-3.858,-4.367
-1.0,200000001.99681082,3.5567069054,957.1940712948442,5371.554667486636,-1.855,-2.515,-3.869,-4.353
-1.0,200000001.99681082,3.5591301918,981.7479430199844,5470.159628939716,-1.938,-2.564,-3.864,-4.324
-1.0,200000001.99681082,3.5611138344,1000.0,5576.991723756762,-2.016,-2.606,-3.848,-4.283
-1.0,200000001.99681082,3.5626583099,1013.9113857366789,5678.060295486644,-2.081,-2.639,-3.83,-4.242
-1.0,200000001.99681082,3.564104557,1025.651926251408,5782.291742660339,-2.145,-2.67,-3.808,-4.197
-1.0,200000001.99681082,3.5656137466,1037.5284158180127,5900.651969956664,-2.213,-2.703,-3.78,-4.143
-1.0,200000001.99681082,3.5674362183,1049.542428652322,6052.01505912521,-2.293,-2.741,-3.742,-4.073
-1.0,200000001.99681082,3.5692119598,1064.1430182243164,6202.974559788141,-2.367,-2.775,-3.705,-4.008
-1.0,200000001.99681082,3.5712678432,1078.9467222298285,6373.823014383464,-2.446,-2.811,-3.662,-3.934
-1.0,200000001.99681082,3.5735766888,1093.956366272094,6555.412123990993,-2.525,-2.846,-3.616,-3.857
-1.0,200000001.99681082,3.5758111477,1109.174815262401,6723.5710723431885,-2.59,-2.875,-3.573,-3.789
-1.0,200000001.99681082,3.5783333778,1124.6049739669268,6897.631677186048,-2.654,-2.902,-3.529,-3.719
-1.0,200000001.99681082,3.5815587044,1142.8783347897713,7103.951700029559,-2.726,-2.93,-3.477,-3.64
-1.0,200000001.99681082,3.5852603912,1164.126029410491,7314.75863014725,-2.795,-2.955,-3.424,-3.562
-1.0,200000001.99681082,3.5894024372,1188.502227437019,7524.887301735844,-2.855,-2.976,-3.373,-3.49
-1.0,200000001.99681082,3.594274044,1213.3888504649774,7725.026892978104,-2.908,-2.995,-3.329,-3.426
-1.0,200000001.99681082,3.5999999046,1241.6523075924106,7895.870193366951,-2.947,-3.012,-3.297,-3.379
-1.0,200000001.99681082,3.6010131836,1247.3835142429432,7926.838316658647,-2.954,-3.015,-3.291,-3.371
-1.0,200000001.99681082,3.6091473103,1285.2866599436154,8042.665380156771,-2.99,-3.038,-3.285,-3.357
-1.0,200000001.99681082,3.6164901257,1315.224832192239,7914.072053994852,-3.012,-3.073,-3.352,-3.433
-1.0,200000001.99681082,3.6210486889,1330.4544179780914,7678.917470231442,-3.004,-3.097,-3.443,-3.544
-1.0,200000001.99681082,3.6233825684,1336.5955165464418,7473.086341912762,-2.979,-3.105,-3.517,-3.638
-1.0,200000001.99681082,3.6251940727,1336.5955165464418,7246.027868251423,-2.937,-3.107,-3.597,-3.742
-1.0,200000001.99681082,3.6264615059,1336.5955165464418,7004.8687123168265,-2.876,-3.097,-3.678,-3.854
-1.0,200000001.99681082,3.6272370815,1333.521432163324,6806.126238014957,-2.82,-3.084,-3.745,-3.947
-1.0,200000001.99681082,3.6277806759,1330.4544179780914,6642.0172626764,-2.77,-3.069,-3.799,-4.025
-1.0,200000001.99681082,3.6282646656,1327.3944577297402,6475.898004649498,-2.715,-3.052,-3.853,-4.106
-1.0,200000001.99681082,3.628693819,1321.2956341865752,6309.57344480193,-2.65,-3.028,-3.906,-4.188
-1.0,200000001.99681082,3.6290738583,1315.224832192239,6143.2756127052135,-2.58,-3.002,-3.958,-4.27
-1.0,200000001.99681082,3.6294088364,1309.181922999407,5981.360797812744,-2.508,-2.973,-4.007,-4.351
-1.0,200000001.99681082,3.6297001839,1303.1667784523,5831.764797316426,-2.432,-2.942,-4.053,-4.429
-1.0,200000001.99681082,3.6299479008,1294.1958414499863,5701.642722807472,-2.362,-2.912,-4.09,-4.495
-1.0,200000001.99681082,3.6301572323,1285.2866599436154,5588.561055539444,-2.296,-2.883,-4.119,-4.55
-1.0,200000001.99681082,3.6303377151,1273.5030810166616,5495.408738576249,-2.236,-2.854,-4.141,-4.594
-1.0,200000001.99681082,3.630500555,1261.8275345906707,5416.266187341721,-2.181,-2.828,-4.157,-4.629
-1.0,200000001.99681082,3.6306767464,1247.3835142429432,5338.263413640386,-2.122,-2.797,-4.171,-4.662
-1.0,200000001.99681082,3.6308836937,1218.9895989248662,5257.7508225669435,-2.046,-2.753,-4.173,-4.684
-1.0,200000001.99681082,3.6311509609,1174.897554939529,5164.163692720711,-1.943,-2.687,-4.163,-4.699
-1.0,200000001.99681082,3.631380558,1116.863247780561,5082.764640683731,-1.831,-2.608,-4.135,-4.693
-1.0,200000001.99681082,3.631598711,1071.519305237606,4989.993730845963,-1.718,-2.533,-4.119,-4.702
-1.0,200000001.99681082,3.6316366196,1066.596121230258,4972.788632333997,-1.7,-2.522,-4.12,-4.707
-1.0,200000001.99681082,3.6316604614,1073.989412341245,4957.92553906303,-1.695,-2.525,-4.132,-4.725
-1.0,200000001.99681082,3.6317801476,1193.9881044642732,4864.072056914614,-1.731,-2.604,-4.277,-4.897
-1.0,200000001.99681082,3.6318395138,1306.1708881318418,4815.041116556669,-1.778,-2.685,-4.392,-5.025
-1.0,200000001.99681082,3.6319918633,1377.2094688939458,4796.22998644458,-1.814,-2.736,-4.457,-5.094
-1.0,200000001.99681082,3.6323955059,1352.0725631942764,4796.22998644458,-1.794,-2.716,-4.437,-5.074
-1.0,200000001.99681082,3.6325850487,1419.0575216890927,4767.60207367496,-1.815,-2.759,-4.501,-5.146
-1.0,200000001.99681082,3.6327543259,1531.0874616820304,4731.512589614803,-1.852,-2.827,-4.595,-5.248
-1.0,200000001.99681082,3.6329627037,1663.4126503701698,4694.615193825913,-1.892,-2.9,-4.698,-5.359
-1.0,200000001.99681082,3.6332359314,1811.3400926196025,4656.933110262015,-1.932,-2.976,-4.805,-5.475
-1.0,200000001.99681082,3.6335873604,1976.96964011186,4620.617301970837,-1.972,-3.054,-4.913,-5.593
-1.0,200000001.99681082,3.634021759,2162.71852372702,4584.584692493264,-2.012,-3.132,-5.024,-5.713
-1.0,200000001.99681082,3.6345100403,2371.373705661655,4547.785786436917,-2.048,-3.209,-5.136,-5.835
-1.0,200000001.99681082,3.6350018978,2600.159563165272,4512.321133443373,-2.095,-3.284,-5.246,-5.959
-1.0,200000001.99681082,3.6354651451,2851.0182675039096,4477.133041763624,-2.143,-3.36,-5.357,-6.082
-1.0,200000001.99681082,3.6358890533,3126.0793671239558,4441.1966136558885,-2.187,-3.433,-5.467,-6.206
-1.0,200000001.99681082,3.6362729073,3427.6778654645045,4405.548635065535,-2.23,-3.504,-5.576,-6.33
-1.0,200000001.99681082,3.6366186142,3758.374042884443,4372.199799574554,-2.27,-3.575,-5.685,-6.452
-1.0,200000001.99681082,3.6369345188,4120.975190973304,4342.1017878602825,-2.311,-3.645,-5.793,-6.572
-1.0,200000001.99681082,3.6372275352,4508.167045414601,4307.249209819747,-2.344,-3.71,-5.901,-6.694
-1.0,200000001.99681082,3.6375010014,4943.106869868354,4278.583381637386,-2.384,-3.78,-6.008,-6.813
-1.0,200000001.99681082,3.6377549171,5407.5432294558095,4244.240644295681,-2.414,-3.842,-6.115,-6.935
-1.0,200000001.99681082,3.6379909515,5915.616341754737,4211.143104363183,-2.444,-3.904,-6.221,-7.056
-1.0,200000001.99681082,3.6382119656,6486.344335482381,4177.341687248775,-2.471,-3.965,-6.327,-7.178
-1.0,200000001.99681082,3.6384174824,7095.777679633888,4142.857544606856,-2.496,-4.022,-6.432,-7.299
-1.0,200000001.99681082,3.6386096478,7762.4711662869195,4110.55061281175,-2.521,-4.079,-6.537,-7.419
-1.0,200000001.99681082,3.638790369,8472.274141405964,4078.4956177127,-2.538,-4.132,-6.641,-7.539
-1.0,200000001.99681082,3.6389644146,9268.298233793494,4045.7589169744288,-2.548,-4.181,-6.745,-7.66
-1.0,200000001.99681082,3.6391294003,10139.1138573668,4013.284982627411,-2.558,-4.228,-6.85,-7.781
-1.0,200000001.99681082,3.6392865181,11091.748152624008,3979.2387763422494,-2.565,-4.274,-6.955,-7.903
-1.0,200000001.99681082,3.6394281387,12133.888504649762,3943.6648538097975,-2.56,-4.311,-7.057,-8.025
-1.0,200000001.99681082,3.6395647526,13304.5441797809,3903.9118250765996,-2.55,-4.346,-7.166,-8.155
-1.0,200000001.99681082,3.6396906376,14554.59080581967,3866.339621093609,-2.538,-4.378,-7.271,-8.282
-1.0,200000001.99681082,3.6398053169,15848.93192461114,3830.010812264487,-2.521,-4.403,-7.37,-8.401
-1.0,200000001.99681082,3.6399211884,17258.37891990204,3792.276545253622,-2.496,-4.422,-7.468,-8.521
-1.0,200000001.99681082,3.6400589943,18706.821403658018,3752.321139027498,-2.45,-4.421,-7.563,-8.638
-1.0,200000001.99681082,3.6401734352,18323.144223712112,3750.5935291111437,-2.422,-4.395,-7.541,-8.617
-1.0,200000001.99681082,3.6401937008,17418.068733916127,3769.641066462436,-2.431,-4.381,-7.48,-8.546
-1.0,200000001.99681082,3.640203476,16481.62391525507,3789.6578379947123,-2.439,-4.365,-7.417,-8.472
-1.0,200000001.99681082,3.6402096748,15667.5107010815,3808.026833442713,-2.442,-4.348,-7.36,-8.404
-1.0,200000001.99681082,3.6402146816,14962.356560944329,3825.6038866803838,-2.445,-4.33,-7.305,-8.34
-1.0,200000001.99681082,3.6402256489,14757.065332758932,3829.1290212080958,-2.444,-4.324,-7.291,-8.323
-1.0,200000001.99681082,3.6402320862,15310.874616820287,3815.926491189337,-2.442,-4.337,-7.333,-8.372
-1.0,200000001.99681082,3.6402430534,15667.5107010815,3806.273576012056,-2.439,-4.346,-7.36,-8.405
-1.0,200000001.99681082,3.6402597427,14962.356560944329,3822.9621656591935,-2.44,-4.327,-7.306,-8.342
-1.0,200000001.99681082,3.6402645111,14723.125024327193,3829.1290212080958,-2.44,-4.32,-7.288,-8.32
-1.0,200000001.99681082,3.6402711868,15135.612484362071,3817.684194975441,-2.436,-4.33,-7.321,-8.36
-1.0,200000001.99681082,3.6402950287,14354.89433353656,3834.4228144309195,-2.432,-4.304,-7.26,-8.289
-1.0,200000001.99681082,3.6402957439,13708.817661648523,3852.1217059810283,-2.436,-4.287,-7.206,-8.225
-1.0,200000001.99681082,3.6402959824,13061.708881318404,3869.9022919026884,-2.439,-4.269,-7.152,-8.161
-1.0,200000001.99681082,3.6402962208,14288.939585111037,3836.1890380502714,-2.432,-4.302,-7.254,-8.282
-1.0,200000001.99681082,3.6402971745,14223.287871228184,3837.9560752329744,-2.432,-4.3,-7.249,-8.277
-1.0,200000001.99681082,3.6402981281,13427.649611378642,3860.1128374531977,-2.437,-4.279,-7.182,-8.196
-1.0,200000001.99681082,3.6402997971,12823.305826560205,3876.144867002412,-2.439,-4.261,-7.131,-8.136
-1.0,200000001.99681082,3.6403045654,13273.944577297401,3863.669770540693,-2.437,-4.274,-7.17,-8.182
-1.0,200000001.99681082,3.6403095722,13772.094688939473,3848.57540415743,-2.433,-4.288,-7.213,-8.234
-1.0,200000001.99681082,3.6403250694,15135.612484362071,3814.169596669385,-2.425,-4.322,-7.32,-8.361
-1.0,200000001.99681082,3.6403367519,15595.525028269523,3801.8939632056126,-2.421,-4.332,-7.355,-8.403
-1.0,200000001.99681082,3.6403446198,15595.525028269523,3801.8939632056126,-2.421,-4.332,-7.355,-8.403
-1.0,200000001.99681082,3.640345335,22080.047330189012,3674.5147919993988,-2.354,-4.412,-7.759,-8.879
-1.0,200000001.99681082,3.6403450966,22855.9880337543,3662.6886275878364,-2.347,-4.417,-7.798,-8.924
-1.0,200000001.99681082,3.6403460503,19453.600816226615,3720.488787200874,-2.383,-4.392,-7.612,-8.706
-1.0,200000001.99681082,3.6403474808,14757.065332758932,3822.0819974268243,-2.425,-4.311,-7.291,-8.327
-1.0,200000001.99681082,3.6403496265,12823.305826560205,3874.3602472800194,-2.433,-4.257,-7.13,-8.136
-1.0,200000001.99681082,3.6403529644,14125.375446227554,3837.9560752329744,-2.426,-4.294,-7.242,-8.269
-1.0,200000001.99681082,3.6403572559,15170.503674593368,3810.65823393773,-2.42,-4.32,-7.324,-8.366
-1.0,200000001.99681082,3.6403625011,15848.93192461114,3794.0233553289568,-2.415,-4.334,-7.374,-8.426
-1.0,200000001.99681082,3.6403691769,16255.48755750485,3783.5545512323115,-2.41,-4.341,-7.404,-8.462
-1.0,200000001.99681082,3.6403770447,16595.869074375598,3775.72190925416,-2.406,-4.346,-7.427,-8.489
-1.0,200000001.99681082,3.640386343,16904.409316432633,3767.905482261025,-2.399,-4.349,-7.449,-8.516
-1.0,200000001.99681082,3.640386343,28575.905433749496,3579.3156556503877,-2.269,-4.413,-8.063,-9.233
-1.0,200000001.99681082,3.6403868198,24774.22057633286,3629.9446258272606,-2.313,-4.417,-7.894,-9.037
-1.0,200000001.99681082,3.6403877735,21134.890398366475,3687.228058871221,-2.353,-4.396,-7.707,-8.819
-1.0,200000001.99681082,3.6403896809,15995.580286146678,3788.785337484371,-2.406,-4.332,-7.385,-8.44
-1.0,200000001.99681082,3.6403923035,13867.558288718896,3841.4925917875894,-2.418,-4.281,-7.221,-8.246
-1.0,200000001.99681082,3.6403961182,15240.527537972906,3805.397250027089,-2.41,-4.316,-7.331,-8.376
-1.0,200000001.99681082,3.640401125,16330.519478943346,3780.0713730181124,-2.401,-4.336,-7.409,-8.469
-1.0,200000001.99681082,3.6404073238,16982.43652461746,3764.436710736454,-2.393,-4.346,-7.455,-8.523
-1.0,200000001.99681082,3.6404149532,17378.00828749376,3755.7787465577244,-2.387,-4.351,-7.48,-8.554
-1.0,200000001.99681082,3.6404242516,17619.76046411631,3749.730022454834,-2.382,-4.353,-7.497,-8.574
-1.0,200000001.99681082,3.6404352188,17823.787674480907,3744.553155859532,-2.377,-4.354,-7.512,-8.592
-1.0,200000001.99681082,3.6404352188,30199.51720402019,3556.3131856898544,-2.237,-4.398,-8.127,-9.31
-1.0,200000001.99681082,3.6404356956,26121.61354399205,3606.6167888195973,-2.281,-4.403,-7.959,-9.114
-1.0,200000001.99681082,3.6404368877,22284.35149270303,3663.532089914713,-2.326,-4.394,-7.771,-8.896
-1.0,200000001.99681082,3.6404390335,16865.530253887424,3764.436710736454,-2.386,-4.339,-7.448,-8.516
-1.0,200000001.99681082,3.6404418945,14621.771744567182,3817.684194975441,-2.403,-4.293,-7.282,-8.321
-1.0,200000001.99681082,3.6404461861,16032.453906900417,3782.683455893896,-2.393,-4.324,-7.39,-8.448
-1.0,200000001.99681082,3.6404516697,17139.573075084252,3757.508744904872,-2.38,-4.341,-7.465,-8.538
-1.0,200000001.99681082,3.6404588223,17782.794100389227,3743.6910398904515,-2.37,-4.349,-7.508,-8.589
-1.0,200000001.99681082,3.6404674053,18113.400926196027,3735.9409225879995,-2.364,-4.352,-7.53,-8.616
-1.0,200000001.99681082,3.6404776573,18323.144223712112,3730.783093184723,-2.359,-4.352,-7.543,-8.631
-1.0,200000001.99681082,3.6404900551,18492.686189780798,3726.490341997325,-2.354,-4.352,-7.553,-8.644
-1.0,200000001.99681082,3.6404900551,31260.793671239557,3538.343568147222,-2.204,-4.374,-8.17,-9.362
-1.0,200000001.99681082,3.6404907703,27101.916318908417,3588.3929932948636,-2.25,-4.385,-8.002,-9.167
-1.0,200000001.99681082,3.6404919624,23120.64790175594,3645.0207083030436,-2.299,-4.385,-7.814,-8.949
-1.0,200000001.99681082,3.6404941082,17498.466886246584,3746.277983440598,-2.363,-4.338,-7.491,-8.57
-1.0,200000001.99681082,3.6404974461,15135.612484362071,3800.143529415859,-2.386,-4.297,-7.324,-8.373
-1.0,200000001.99681082,3.6405022144,16634.126503701696,3764.436710736454,-2.371,-4.323,-7.431,-8.499
-1.0,200000001.99681082,3.6405084133,17701.08958317422,3740.244560424048,-2.356,-4.337,-7.505,-8.588
-1.0,200000001.99681082,3.6405160427,18365.383433483476,3725.632384666039,-2.345,-4.344,-7.547,-8.638
-1.0,200000001.99681082,3.6405258179,18706.821403658018,3717.9196520448604,-2.338,-4.346,-7.568,-8.663
-1.0,200000001.99681082,3.640537262,18879.913490962925,3713.6417019195583,-2.332,-4.345,-7.579,-8.677
-1.0,200000001.99681082,3.6405508518,19010.782799232995,3709.3686741322836,-2.325,-4.342,-7.588,-8.688
-1.0,200000001.99681082,3.6405508518,32136.60538640315,3520.4647488942164,-2.164,-4.339,-8.207,-9.407
-1.0,200000001.99681082,3.6405515671,27861.211686297724,3570.2612803901543,-2.214,-4.36,-8.038,-9.213
-1.0,200000001.99681082,3.6405529976,23768.402866248784,3627.4380147645793,-2.264,-4.368,-7.85,-8.996
-1.0,200000001.99681082,3.6405553818,18030.1774085957,3728.2068494295654,-2.334,-4.33,-7.527,-8.617
-1.0,200000001.99681082,3.6405589581,15595.525028269523,3781.8125611095074,-2.362,-4.293,-7.359,-8.418
-1.0,200000001.99681082,3.6405639648,17100.15315090286,3746.277983440598,-2.342,-4.315,-7.466,-8.545
-1.0,200000001.99681082,3.6405706406,18238.957023196384,3722.202530178502,-2.326,-4.328,-7.539,-8.632
-1.0,200000001.99681082,3.6405789852,18879.913490962925,3707.660840003112,-2.314,-4.332,-7.581,-8.682
-1.0,200000001.99681082,3.6405894756,19186.68740670291,3699.9853117285957,-2.305,-4.331,-7.601,-8.706
-1.0,200000001.99681082,3.6406018734,19364.219639466068,3695.72799739443,-2.297,-4.328,-7.612,-8.72
-1.0,200000001.99681082,3.6406166553,19498.445997580457,3690.6256858412085,-2.289,-4.325,-7.62,-8.73
-1.0,200000001.99681082,3.6406166553,32960.97121774576,3501.8698409688745,-2.117,-4.297,-8.241,-9.451
-1.0,200000001.99681082,3.6406173706,28641.7796990658,3551.4033498288213,-2.171,-4.331,-8.072,-9.258
-1.0,200000001.99681082,3.6406188011,24490.63241844747,3608.278079727421,-2.223,-4.34,-7.885,-9.041
-1.0,200000001.99681082,3.6406214237,18578.04455091699,3708.514658756861,-2.3,-4.316,-7.562,-8.663
-1.0,200000001.99681082,3.640625,16032.453906900417,3762.7035226776516,-2.331,-4.283,-7.392,-8.462
-1.0,200000001.99681082,3.6406302452,17579.23613958693,3728.2068494295654,-2.308,-4.302,-7.499,-8.589
-1.0,200000001.99681082,3.6406373978,18706.821403658018,3703.39469397536,-2.29,-4.311,-7.572,-8.675
-1.0,200000001.99681082,3.6406459808,19364.219639466068,3688.926481189961,-2.276,-4.313,-7.612,-8.724
-1.0,200000001.99681082,3.6406569481,19678.86289706843,3681.289736425313,-2.266,-4.311,-7.632,-8.747
-1.0,200000001.99681082,3.6406700611,19860.949173573717,3676.2073582940866,-2.257,-4.307,-7.642,-8.76
-1.0,200000001.99681082,3.6406853199,19998.61869632745,3671.977403587995,-2.248,-4.302,-7.65,-8.771
-1.0,200000001.99681082,3.6406855583,33806.483620598156,3481.769367055342,-2.063,-4.247,-8.273,-9.492
-1.0,200000001.99681082,3.6406860352,29376.496519615306,3531.018557237582,-2.119,-4.286,-8.105,-9.3
-1.0,200000001.99681082,3.6406874657,25061.09253032114,3587.566830392618,-2.175,-4.305,-7.917,-9.084
-1.0,200000001.99681082,3.6406900883,19054.607179632483,3688.0771722615455,-2.257,-4.294,-7.595,-8.706
-1.0,200000001.99681082,3.640693903,16443.717232149324,3743.6910398904515,-2.292,-4.266,-7.423,-8.504
-1.0,200000001.99681082,3.6406993866,17988.709151287872,3707.660840003112,-2.267,-4.282,-7.529,-8.63
-1.0,200000001.99681082,3.6407065392,19142.55925021086,3683.8335597906507,-2.245,-4.286,-7.601,-8.716
-1.0,200000001.99681082,3.6407153606,19815.27025805097,3669.4417673371618,-2.231,-4.286,-7.64,-8.763
-1.0,200000001.99681082,3.6407265663,20137.242498623895,3661.0022854654303,-2.219,-4.283,-7.659,-8.786
-1.0,200000001.99681082,3.6407399178,20276.827195212838,3655.9479161312506,-2.208,-4.277,-7.669,-8.799
-1.0,200000001.99681082,3.6407556534,20370.42077705719,3650.900524844982,-2.197,-4.27,-7.676,-8.809
-1.0,200000001.99681082,3.6407556534,34434.99307633384,3460.190424829487,-2.004,-4.186,-8.301,-9.531
-1.0,200000001.99681082,3.6407563686,29991.62518987653,3509.1343835855246,-2.056,-4.229,-8.134,-9.34
-1.0,200000001.99681082,3.6407577991,25644.840365177162,3566.1532304264047,-2.116,-4.26,-7.946,-9.124
-1.0,200000001.99681082,3.6407604218,19498.445997580457,3666.0636424947174,-2.205,-4.262,-7.623,-8.748
-1.0,200000001.99681082,3.6407642365,16788.040181225588,3721.3455600387106,-2.243,-4.241,-7.45,-8.544
-1.0,200000001.99681082,3.6407697201,18365.383433483476,3686.3791409739756,-2.214,-4.25,-7.556,-8.669
-1.0,200000001.99681082,3.6407766342,19543.394557753963,3661.845359452976,-2.191,-4.253,-7.627,-8.754
-1.0,200000001.99681082,3.6407856941,20183.663636815596,3646.699688942269,-2.174,-4.251,-7.665,-8.801
-1.0,200000001.99681082,3.6407966614,20511.621788255667,3638.3125123993877,-2.161,-4.245,-7.683,-8.823
-1.0,200000001.99681082,3.6408100128,20653.80155810531,3632.4529689937044,-2.147,-4.238,-7.692,-8.836
-1.0,200000001.99681082,3.6408257484,20749.13517454911,3627.4380147645793,-2.132,-4.227,-7.699,-8.845
-1.0,200000001.99681082,3.6408259869,35075.18739525679,3435.5794789987463,-1.948,-4.113,-8.325,-9.567
-1.0,200000001.99681082,3.6408264637,30549.211132155153,3484.9776724044846,-1.98,-4.157,-8.161,-9.379
-1.0,200000001.99681082,3.6408278942,26121.61354399205,3540.788613684981,-2.044,-4.201,-7.972,-9.163
-1.0,200000001.99681082,3.6408305168,19860.949173573717,3641.665065732136,-2.141,-4.221,-7.649,-8.787
-1.0,200000001.99681082,3.6408343315,17100.15315090286,3697.4303349809716,-2.181,-4.203,-7.475,-8.582
-1.0,200000001.99681082,3.6408398151,18706.821403658018,3661.845359452976,-2.15,-4.209,-7.58,-8.707
-1.0,200000001.99681082,3.6408469677,19860.949173573717,3636.6373933084765,-2.124,-4.209,-7.65,-8.791
-1.0,200000001.99681082,3.6408560276,20511.621788255667,3622.4299841669877,-2.104,-4.201,-7.689,-8.837
-1.0,200000001.99681082,3.6408672333,20796.966871036937,3613.2665452345186,-2.087,-4.19,-7.707,-8.86
-1.0,200000001.99681082,3.6408805847,20941.124558508913,3607.447338641916,-2.07,-4.178,-7.715,-8.872
-1.0,200000001.99681082,3.6408965588,21037.784397664775,3600.8082917348274,-2.052,-4.164,-7.721,-8.881
-1.0,200000001.99681082,3.6408967972,35563.131856898544,3408.0032480036516,-1.881,-4.026,-8.348,-9.603
-1.0,200000001.99681082,3.640897274,30974.19299216578,3457.0049388687194,-1.887,-4.064,-8.186,-9.418
-1.0,200000001.99681082,3.6408987045,26546.055619755418,3513.985782353995,-1.956,-4.121,-7.998,-9.202
-1.0,200000001.99681082,3.6409013271,20230.191786782718,3614.0986263961313,-2.061,-4.162,-7.674,-8.827
-1.0,200000001.99681082,3.6409051418,17378.00828749376,3670.2867848109704,-2.105,-4.153,-7.498,-8.62
-1.0,200000001.99681082,3.6409106255,19010.782799232995,3634.1261606422304,-2.071,-4.156,-7.602,-8.745
-1.0,200000001.99681082,3.640917778,20137.242498623895,3609.1090121201505,-2.039,-4.144,-7.673,-8.828
-1.0,200000001.99681082,3.6409265995,20796.966871036937,3594.181463147148,-2.015,-4.131,-7.711,-8.874
-1.0,200000001.99681082,3.6409378052,21086.281499332887,3584.2640804371426,-1.995,-4.117,-7.728,-8.897
-1.0,200000001.99681082,3.6409511566,21232.444620002192,3577.6676993611068,-1.975,-4.101,-7.736,-8.909
-1.0,200000001.99681082,3.6409668922,21281.390459827133,3570.2612803901543,-1.952,-4.083,-7.742,-8.919
-1.0,200000001.99681082,3.6409671307,35974.93351557424,3377.5361033186905,-1.797,-3.917,-8.37,-9.638
-1.0,200000001.99681082,3.6409676075,31405.086938762164,3426.099724881373,-1.802,-3.96,-8.209,-9.455
-1.0,200000001.99681082,3.640969038,26915.348039269138,3482.571166386543,-1.848,-4.019,-8.022,-9.242
-1.0,200000001.99681082,3.6409716606,20511.621788255667,3582.613845838672,-1.958,-4.081,-7.698,-8.868
-1.0,200000001.99681082,3.6409754753,17619.76046411631,3638.3125123993877,-2.008,-4.086,-7.519,-8.66
-1.0,200000001.99681082,3.6409809589,19275.249131909368,3601.6375039472773,-1.966,-4.074,-7.625,-8.784
-1.0,200000001.99681082,3.6409881115,20417.379446695275,3576.0205018090237,-1.931,-4.057,-7.694,-8.868
-1.0,200000001.99681082,3.640996933,21037.784397664775,3560.4099003595707,-1.903,-4.039,-7.732,-8.914
-1.0,200000001.99681082,3.6410081387,21330.44913146575,3549.7682446720896,-1.877,-4.021,-7.749,-8.936
-1.0,200000001.99681082,3.6410214901,21428.906011200605,3540.788613684981,-1.85,-3.998,-7.757,-8.949
-1.0,200000001.99681082,3.6410372257,21527.817347243737,3532.645025855673,-1.819,-3.97,-7.764,-8.96
-1.0,200000001.99681082,3.6410372257,36391.503612720706,3343.489779723791,-1.691,-3.771,-8.393,-9.674
-1.0,200000001.99681082,3.641037941,31768.74070649769,3390.783022519265,-1.705,-3.839,-8.23,-9.493
-1.0,200000001.99681082,3.6410393715,27227.0130807791,3445.08546286579,-1.707,-3.877,-8.048,-9.285
-1.0,200000001.99681082,3.6410419941,20796.966871036937,3542.4195826164946,-1.822,-3.968,-7.722,-8.914
-1.0,200000001.99681082,3.6410458088,17823.787674480907,3596.665093461474,-1.87,-3.978,-7.542,-8.705
-1.0,200000001.99681082,3.6410512924,19453.600816226615,3560.4099003595707,-1.824,-3.958,-7.647,-8.829
-1.0,200000001.99681082,3.6410582066,20606.299132700005,3534.2722436627364,-1.785,-3.933,-7.717,-8.912
-1.0,200000001.99681082,3.6410672665,21232.444620002192,3518.0337377370256,-1.751,-3.906,-7.755,-8.957
-1.0,200000001.99681082,3.6410782337,21527.817347243737,3507.5187395256794,-1.719,-3.878,-7.772,-8.98
-1.0,200000001.99681082,3.6410915852,21627.1852372702,3497.840484251412,-1.686,-3.848,-7.781,-8.993
-1.0,200000001.99681082,3.6411073208,21677.041048196963,3488.188934073285,-1.65,-3.815,-7.787,-9.004
-1.0,200000001.99681082,3.6411073208,36643.75746478333,3309.0246319221333,-2.6,-4.693,-8.309,-9.616
-1.0,200000001.99681082,3.6411077976,32062.693245054674,3350.425766809598,-2.559,-4.625,-8.168,-9.444
-1.0,200000001.99681082,3.6411087513,27478.941531023975,3397.8171182708334,-2.511,-4.544,-8.003,-9.246
-1.0,200000001.99681082,3.6411106586,20989.398836235243,3485.7802105603496,-2.465,-4.42,-7.702,-8.891
-1.0,200000001.99681082,3.6411132812,18030.1774085957,3535.0861336199705,-2.42,-4.339,-7.535,-8.692
-1.0,200000001.99681082,3.6411168575,19678.86289706843,3488.188934073285,-2.399,-4.353,-7.631,-8.818
-1.0,200000001.99681082,3.6411218643,20796.966871036937,3448.2599655262325,-2.353,-4.34,-7.695,-8.908
-1.0,200000001.99681082,3.6411280632,21428.906011200605,3414.286807579689,-2.288,-4.306,-7.731,-8.964
-1.0,200000001.99681082,3.6411354542,21677.041048196963,3383.763488617649,-2.217,-4.262,-7.747,-8.999
-1.0,200000001.99681082,3.6411447525,21777.09772353159,3356.603166999334,-2.154,-4.216,-7.75,-9.022
-1.0,200000001.99681082,3.6411554813,21827.299118430037,3329.660852068807,-2.09,-4.169,-7.749,-9.041
-1.0,200000001.99681082,3.6411554813,36897.759857015044,3019.256430871959,-1.758,-4.108,-8.324,-9.796
-1.0,200000001.99681082,3.6411559582,32284.94121712638,3093.855315451652,-1.829,-4.117,-8.179,-9.618
-1.0,200000001.99681082,3.6411569118,27669.416454115126,3180.5336883295204,-1.92,-4.128,-8.006,-9.395
-1.0,200000001.99681082,3.6411588192,21183.611352485,3341.1809763304277,-2.086,-4.158,-7.716,-8.999
-1.0,200000001.99681082,3.6411614418,18155.15662773137,3437.953513094916,-2.178,-4.173,-7.549,-8.767
-1.0,200000001.99681082,3.6411650181,19815.27025805097,3374.4267097541338,-2.093,-4.144,-7.647,-8.906
-1.0,200000001.99681082,3.6411697865,20941.124558508913,3327.3615980616237,-2.039,-4.119,-7.702,-8.996
-1.0,200000001.99681082,3.6411759853,21527.817347243737,3296.097121774576,-1.987,-4.091,-7.732,-9.047
-1.0,200000001.99681082,3.6411833763,21827.299118430037,3275.668919368471,-1.941,-4.062,-7.744,-9.073
-1.0,200000001.99681082,3.6411924362,21877.616239495517,3259.8678890446836,-1.901,-4.036,-7.749,-9.088
-1.0,200000001.99681082,3.6412031651,21928.049353504495,3247.8801876353714,-1.867,-4.013,-7.751,-9.098
-1.0,200000001.99681082,3.6412031651,37068.0721782576,2817.7340493202273,-1.267,-3.759,-8.367,-9.867
-1.0,200000001.99681082,3.6412036419,32433.961734934932,2919.4429974027034,-1.407,-3.809,-8.199,-9.688
-1.0,200000001.99681082,3.6412045956,27797.132677592883,3040.88502567628,-1.597,-3.891,-8.019,-9.473
-1.0,200000001.99681082,3.6412062645,21281.390459827133,3271.1465401826636,-1.95,-4.05,-7.718,-9.048
-1.0,200000001.99681082,3.6412088871,18238.957023196384,3416.6461281382244,-2.156,-4.152,-7.555,-8.786
-1.0,200000001.99681082,3.6412127018,19860.949173573717,3334.2641276323507,-2.04,-4.095,-7.646,-8.933
-1.0,200000001.99681082,3.6412174702,20989.398836235243,3280.9529311311903,-1.961,-4.054,-7.703,-9.027
-1.0,200000001.99681082,3.6412234306,21627.1852372702,3254.61783498046,-1.918,-4.033,-7.733,-9.075
-1.0,200000001.99681082,3.64123106,21827.299118430037,3246.384827880331,-1.911,-4.031,-7.746,-9.092
-1.0,200000001.99681082,3.6412398815,21928.049353504495,3250.872973854344,-1.935,-4.048,-7.749,-9.093
-1.0,200000001.99681082,3.6412506104,21928.049353504495,3265.126412019571,-1.988,-4.082,-7.75,-9.083
