FeH,Age,Mini,L,Te,Bmag,Vmag,Jmag,Kmag
0.2,549996593.976403,0.093007721,0.0005357966575133417,2324.877101501645,19.414,17.664,10.857,9.931
0.2,549996593.976403,0.0955063179,0.0005701642722807472,2346.929262686464,19.345,17.595,10.788,9.861
0.2,549996593.976403,0.1029621437,0.0006966265141107687,2414.3487297141514,19.125,17.377,10.572,9.646
0.2,549996593.976403,0.1115838662,0.0008394599865193973,2477.9925708234186,18.921,17.173,10.369,9.442
0.2,549996593.976403,0.122871004,0.0010964781961431851,2563.3033198658977,18.619,16.876,10.08,9.152
0.2,549996593.976403,0.1427798569,0.0015995580286146695,2679.7852971525067,17.782,16.085,9.694,8.769
0.2,549996593.976403,0.1604269445,0.002027682719521282,2755.4973646268027,17.097,15.451,9.46,8.541
0.2,549996593.976403,0.1626887172,0.0020989398836235244,2765.03096983568,17.009,15.37,9.426,8.508
0.2,549996593.976403,0.1690294147,0.00228559880337543,2786.762770601109,16.804,15.18,9.342,8.425
0.2,549996593.976403,0.202506423,0.0034593937782612205,2889.348981559081,15.845,14.274,8.929,8.019
0.2,549996593.976403,0.2297358513,0.004395416154378243,2951.8888459446066,15.321,13.779,8.688,7.784
0.2,549996593.976403,0.2522785664,0.0053333489548762075,2998.4720157970514,14.927,13.405,8.493,7.594
0.2,549996593.976403,0.3020507097,0.007673614893618186,3085.3184768063825,14.22,12.718,8.129,7.237
0.2,549996593.976403,0.3518228829,0.010764652136298349,3165.920463432239,13.607,12.138,7.786,6.899
0.2,549996593.976403,0.4015950263,0.015100801541641486,3251.621601204828,13.009,11.568,7.445,6.56
0.2,549996593.976403,0.4513671398,0.02123244462000219,3343.489779723791,12.429,11.012,7.106,6.219
0.2,549996593.976403,0.5011392832,0.02992264636608189,3448.2599655262325,11.85,10.463,6.767,5.878
0.2,549996593.976403,0.5509114265,0.042461956394631274,3584.2640804371426,11.234,9.867,6.429,5.538
0.2,549996593.976403,0.6006835699,0.060813500127871796,3766.1706971416666,10.565,9.201,6.101,5.214
0.2,549996593.976403,0.6504557133,0.0868960429286302,3993.006342231626,9.874,8.534,5.779,4.916
0.2,549996593.976403,0.6839065552,0.10990058394325211,4158.148545615802,9.407,8.105,5.566,4.737
0.2,549996593.976403,0.7002279162,0.12274392311584072,4239.357093413646,9.184,7.908,5.467,4.655
0.2,549996593.976403,0.7093502283,0.13121998990192033,4295.364267648873,9.041,7.785,5.411,4.613
0.2,549996593.976403,0.7494562864,0.17298163592151014,4562.469770768501,8.396,7.25,5.184,4.47
0.2,549996593.976403,0.75,0.17378008287493754,4567.725533088667,8.386,7.242,5.182,4.47
0.2,549996593.976403,0.8000000119,0.23280912576650079,4766.504419105543,7.835,6.782,4.921,4.28
0.2,549996593.976403,0.8500000238,0.3083187950249354,4971.643737252428,7.329,6.36,4.675,4.099
0.2,549996593.976403,0.8999999762,0.4027170343254591,5172.494052829933,6.877,5.98,4.445,3.926
0.2,549996593.976403,0.9500000477,0.5211947111050804,5361.66900594989,6.469,5.634,4.224,3.753
0.2,549996593.976403,1.0,0.6714288529259523,5544.980203697426,6.083,5.308,4.008,3.58
0.2,549996593.976403,1.0499999523,0.8531001140175895,5716.102396416138,5.731,5.01,3.807,3.416
0.2,549996593.976403,1.0764062405,0.9638290236239705,5800.961725227041,5.555,4.861,3.702,3.328
0.2,549996593.976403,1.1000000238,1.0739894123412448,5874.893525297769,5.403,4.733,3.612,3.252
0.2,549996593.976403,1.1499999762,1.3427649611378638,6025.595860743575,5.092,4.47,3.425,3.094
0.2,549996593.976403,1.1853387356,1.566751070108149,6124.914068474841,4.882,4.291,3.292,2.98
0.2,549996593.976403,1.2000000477,1.6634126503701694,6165.9500186148225,4.801,4.222,3.242,2.937
0.2,549996593.976403,1.2044533491,1.6982436524617444,6178.741129854402,4.774,4.199,3.225,2.922
0.2,549996593.976403,1.230894208,1.8923436186449756,6253.166606822608,4.627,4.075,3.134,2.843
0.2,549996593.976403,1.25,2.041737944669529,6305.2164509004215,4.525,3.989,3.071,2.789
0.2,549996593.976403,1.2999999523,2.4774220576332855,6437.244428047446,4.268,3.77,2.908,2.647
0.2,549996593.976403,1.3500000238,2.9785164294291895,6565.9867197835665,4.027,3.564,2.753,2.512
0.2,549996593.976403,1.3999999762,3.548133892335755,6694.220293097285,3.8,3.368,2.608,2.385
0.2,549996593.976403,1.4500000477,4.187935651179184,6824.958265220593,3.583,3.18,2.471,2.266
0.2,549996593.976403,1.4603264332,4.335108783875289,6854.882264526614,3.539,3.143,2.445,2.243
0.2,549996593.976403,1.5,4.920395356814509,6966.265141107687,3.374,3.001,2.345,2.158
0.2,549996593.976403,1.5274463892,5.357966575133416,7055.048440506529,3.261,2.905,2.282,2.106
0.2,549996593.976403,1.5499999523,5.741164622073276,7125.248247522667,3.17,2.827,2.23,2.063
0.2,549996593.976403,1.6000000238,6.652731562017413,7292.895657917227,2.975,2.662,2.125,1.977
0.2,549996593.976403,1.6359342337,7.379042301291009,7414.809539452729,2.841,2.548,2.054,1.92
0.2,549996593.976403,1.6499999762,7.67361489361819,7462.769020181442,2.79,2.505,2.027,1.898
0.2,549996593.976403,1.651778698,7.709034690644301,7467.925899308835,2.783,2.499,2.024,1.895
0.2,549996593.976403,1.6749999523,8.222426499470712,7543.970821979903,2.7,2.429,1.979,1.858
0.2,549996593.976403,1.7000000477,8.81048873008014,7622.545054061056,2.614,2.355,1.931,1.819
0.2,549996593.976403,1.7250001431,9.418895965228414,7698.391619294355,2.529,2.282,1.884,1.779
0.2,549996593.976403,1.75,10.046157902783952,7769.623959921389,2.446,2.211,1.836,1.739
0.2,549996593.976403,1.7629445791,10.39920165829059,7807.284401379069,2.404,2.175,1.812,1.718
0.2,549996593.976403,1.7750000954,10.715193052376065,7841.515405281219,2.365,2.141,1.79,1.698
0.2,549996593.976403,1.7999999523,11.428783347897719,7908.607094441395,2.286,2.073,1.743,1.657
0.2,549996593.976403,1.8231905699,12.133888504649775,7970.764905902968,2.214,2.01,1.7,1.619
0.2,549996593.976403,1.8250000477,12.189895989248667,7974.436424126813,2.208,2.005,1.696,1.616
0.2,549996593.976403,1.8499999046,12.971792709839558,8037.1116221539805,2.131,1.94,1.649,1.574
0.2,549996593.976403,1.875,13.803842646028846,8100.279416803507,2.055,1.874,1.602,1.532
0.2,549996593.976403,1.8761337996,13.83566378971781,8102.1447898176875,2.052,1.871,1.6,1.53
0.2,549996593.976403,1.9000000954,14.68926277643867,8160.184910197368,1.981,1.81,1.555,1.49
0.2,549996593.976403,1.9249999523,15.631476426409538,8218.640803889055,1.907,1.746,1.508,1.447
0.2,549996593.976403,1.9484374523,16.51961798229015,8269.895085679318,1.839,1.687,1.464,1.406
0.2,549996593.976403,1.9661124945,17.25837891990204,8309.98041044432,1.788,1.643,1.43,1.375
0.2,549996593.976403,1.9953123331,18.535316234148116,8371.436744351555,1.705,1.57,1.374,1.322
0.2,549996593.976403,2.0377283096,20.511621788255656,8454.7350021675,1.587,1.466,1.291,1.245
0.2,549996593.976403,2.0421872139,20.749135174549096,8462.525688072697,1.575,1.455,1.282,1.237
0.2,549996593.976403,2.0847537518,22.961486481123618,8534.930716135486,1.459,1.352,1.196,1.155
0.2,549996593.976403,2.0890622139,23.173946499684785,8542.795299048483,1.448,1.341,1.188,1.147
0.2,549996593.976403,2.1359374523,25.88212915153092,8615.887110661422,1.324,1.228,1.091,1.055
0.2,549996593.976403,2.1475598812,26.6072505979881,8631.772787998145,1.293,1.2,1.067,1.031
0.2,549996593.976403,2.1828124523,28.90679882365476,8677.607449911466,1.2,1.115,0.992,0.959
0.2,549996593.976403,2.2062878609,30.54921113215514,8703.621573738194,1.139,1.058,0.941,0.909
0.2,549996593.976403,2.2296872139,32.284941217126345,8725.694427701159,1.079,1.001,0.889,0.859
0.2,549996593.976403,2.2426257133,33.265955329400455,8737.757751180196,1.046,0.97,0.86,0.831
0.2,549996593.976403,2.2765622139,35.974933515574236,8755.884014131148,0.958,0.886,0.78,0.752
0.2,549996593.976403,2.2850253582,36.72823004980846,8761.93445404055,0.936,0.865,0.76,0.732
0.2,549996593.976403,2.3367302418,41.39996748197304,8774.047879567535,0.804,0.737,0.635,0.608
0.2,549996593.976403,2.3703122139,44.6683592150963,8767.989074889641,0.718,0.653,0.55,0.523
0.2,549996593.976403,2.3976252079,47.533522594280534,8757.900363063685,0.649,0.583,0.48,0.452
0.2,549996593.976403,2.4378013611,52.11947111050805,8711.641598245316,0.544,0.477,0.366,0.336
0.2,549996593.976403,2.4746112823,56.623928903825316,8643.70626426206,0.451,0.378,0.254,0.221
0.2,549996593.976403,2.5124704838,61.65950018614822,8548.698491636665,0.355,0.275,0.132,0.094
0.2,549996593.976403,2.5447497368,66.22165037017619,8437.232172118302,0.276,0.185,0.019,-0.026
0.2,549996593.976403,2.5578119755,68.07693586937414,8381.080267271636,0.246,0.148,-0.03,-0.078
0.2,549996593.976403,2.5811774731,71.6143410212902,8258.47769206449,0.194,0.082,-0.125,-0.181
0.2,549996593.976403,2.6034395695,75.16228940182053,8128.305161640995,0.148,0.02,-0.219,-0.284
0.2,549996593.976403,2.6257922649,78.70457896950985,7985.461129030739,0.107,-0.041,-0.319,-0.393
0.2,549996593.976403,2.6428220272,81.846478813479,7852.356346100718,0.082,-0.089,-0.404,-0.488
0.2,549996593.976403,2.6628177166,86.09937521846008,7728.585218603322,0.042,-0.151,-0.502,-0.597
0.2,549996593.976403,2.6717815399,88.51156098308356,7700.164443568718,0.015,-0.182,-0.543,-0.64
0.2,549996593.976403,2.6812319756,94.84184633008974,7868.64586567395,-0.087,-0.251,-0.558,-0.641
0.2,549996593.976403,2.6846692562,99.3116048420934,8040.813701206137,-0.158,-0.291,-0.55,-0.62
0.2,549996593.976403,2.6861283779,103.5142166679344,8224.320001128368,-0.218,-0.324,-0.534,-0.591
0.2,549996593.976403,2.6869194508,108.14339512979376,8417.827076608122,-0.275,-0.354,-0.519,-0.564
0.2,549996593.976403,2.6873445511,112.71974561755106,8590.13521505396,-0.321,-0.38,-0.508,-0.543
0.2,549996593.976403,2.6876380444,119.1242008027375,8788.201377171692,-0.373,-0.41,-0.502,-0.527
0.2,549996593.976403,2.6878311634,125.02590302177201,8959.834752883487,-0.415,-0.436,-0.499,-0.517
0.2,549996593.976403,2.6879475117,127.93813041575252,9051.071590275196,-0.432,-0.445,-0.494,-0.508
0.2,549996593.976403,2.6880254745,121.05981335504829,8957.771912192142,-0.381,-0.403,-0.466,-0.484
0.2,549996593.976403,2.688097477,113.50108156723155,8796.299338442333,-0.32,-0.359,-0.449,-0.474
0.2,549996593.976403,2.688164711,108.89300933334333,8615.887110661422,-0.281,-0.339,-0.462,-0.495
0.2,549996593.976403,2.6882555485,107.3989412341245,8388.803083408608,-0.265,-0.349,-0.52,-0.566
0.2,549996593.976403,2.68836236,109.1440336448756,8163.9436796456475,-0.273,-0.385,-0.61,-0.671
0.2,549996593.976403,2.6884863377,111.42945335917304,7943.282347242814,-0.279,-0.424,-0.707,-0.784
0.2,549996593.976403,2.6886236668,112.97959146727976,7726.805850957021,-0.265,-0.448,-0.796,-0.89
0.2,549996593.976403,2.6887719631,113.50108156723155,7516.228940182053,-0.234,-0.457,-0.873,-0.987
0.2,549996593.976403,2.6889293194,113.50108156723155,7311.390834834172,-0.191,-0.456,-0.943,-1.077
0.2,549996593.976403,2.6890933514,112.71974561755106,7110.497695423427,-0.139,-0.445,-1.005,-1.161
0.2,549996593.976403,2.6892609596,111.42945335917304,6915.124443319208,-0.079,-0.426,-1.06,-1.241
0.2,549996593.976403,2.6894292831,109.90058394325209,6726.668104310991,-0.01,-0.401,-1.11,-1.316
0.2,549996593.976403,2.6895959377,108.14339512979376,6546.361740672747,0.066,-0.37,-1.154,-1.386
0.2,549996593.976403,2.689759016,106.16955571987242,6373.823014383464,0.152,-0.335,-1.194,-1.453
0.2,549996593.976403,2.6899189949,103.75284158180126,6214.411391668482,0.244,-0.295,-1.228,-1.514
0.2,549996593.976403,2.6900832653,100.92528860766845,6061.777620466953,0.343,-0.248,-1.253,-1.568
0.2,549996593.976403,2.690256834,97.72372209558107,5919.704116460876,0.449,-0.191,-1.268,-1.611
0.2,549996593.976403,2.6904642582,93.3254300796991,5774.3087271398535,0.574,-0.115,-1.269,-1.642
0.2,549996593.976403,2.6906478405,88.92011178579486,5663.696854647211,0.686,-0.04,-1.255,-1.652
0.2,549996593.976403,2.6908452511,83.75292821268826,5557.762703204188,0.81,0.05,-1.225,-1.647
0.2,549996593.976403,2.6910471916,78.16278045883297,5457.57861091271,0.943,0.151,-1.181,-1.627
0.2,549996593.976403,2.6912281513,73.11390834834177,5375.266487867444,1.065,0.246,-1.134,-1.599
0.2,549996593.976403,2.6914565563,67.14288529259522,5279.587597837324,1.219,0.364,-1.073,-1.562
0.2,549996593.976403,2.6917066574,62.8058358813318,5182.030920072273,1.359,0.469,-1.031,-1.546
0.2,549996593.976403,2.6919667721,60.25595860743578,5085.1058793510465,1.473,0.548,-1.016,-1.557
0.2,549996593.976403,2.6920585632,60.953689724016904,5054.753713597985,1.484,0.548,-1.037,-1.586
0.2,549996593.976403,2.6924161911,66.06934480075961,4946.522626750653,1.481,0.504,-1.157,-1.738
0.2,549996593.976403,2.69267416,72.44359600749902,4883.149268098355,1.435,0.433,-1.275,-1.875
0.2,549996593.976403,2.6929097176,79.06786279998249,4835.039205916214,1.383,0.361,-1.384,-1.998
0.2,549996593.976403,2.6931421757,85.90135215053957,4795.1257408135025,1.328,0.291,-1.485,-2.113
0.2,549996593.976403,2.6933743954,93.11078754678306,4758.827909888171,1.275,0.223,-1.582,-2.222
0.2,549996593.976403,2.6936035156,100.69316688518045,4724.980276801948,1.222,0.155,-1.677,-2.328
0.2,549996593.976403,2.6938281059,108.89300933334333,4693.534343171951,1.172,0.088,-1.771,-2.432
0.2,549996593.976403,2.694047451,117.48975549395291,4663.37134746993,1.123,0.022,-1.864,-2.534
0.2,549996593.976403,2.6941020489,119.94993031493793,4655.860935229591,1.111,0.006,-1.887,-2.56
0.2,549996593.976403,2.6941614151,122.4616199265049,4648.362618593011,1.098,-0.012,-1.912,-2.588
0.2,549996593.976403,2.6943984032,133.3521432163324,4616.363515404673,1.044,-0.085,-2.015,-2.701
0.2,549996593.976403,2.694457531,136.4583136588924,4607.867686902717,1.03,-0.103,-2.04,-2.729
0.2,549996593.976403,2.694517374,139.31568029453035,4600.446663934778,1.016,-0.122,-2.066,-2.757
0.2,549996593.976403,2.6947572231,152.05475297324955,4570.881896148751,0.959,-0.197,-2.169,-2.87
0.2,549996593.976403,2.6949961185,165.95869074375614,4541.507126325547,0.903,-0.271,-2.272,-2.983
0.2,549996593.976403,2.6952278614,180.71741260109275,4512.321133443373,0.848,-0.344,-2.374,-3.094
0.2,549996593.976403,2.6954534054,196.7886289706845,4484.35514638966,0.794,-0.417,-2.474,-3.204
0.2,549996593.976403,2.6956725121,214.28906011200584,4456.562483975033,0.742,-0.487,-2.573,-3.313
0.2,549996593.976403,2.695889473,233.3458062281002,4427.922387787075,0.69,-0.557,-2.673,-3.424
0.2,549996593.976403,2.6960992813,253.51286304979072,4399.466347160466,0.641,-0.626,-2.771,-3.532
0.2,549996593.976403,2.6963057518,276.0577856220345,4372.199799574554,0.591,-0.698,-2.869,-3.637
0.2,549996593.976403,2.6965041161,299.916251898765,4344.101860128392,0.544,-0.766,-2.965,-3.741
0.2,549996593.976403,2.6967232227,328.85163087598295,4312.210969401274,0.492,-0.842,-3.072,-3.858
0.2,549996593.976403,2.6969459057,361.40986263961315,4279.568675300529,0.437,-0.92,-3.182,-3.978
0.2,549996593.976403,2.6971678734,398.1071705534973,4247.173474714387,0.381,-0.997,-3.292,-4.099
0.2,549996593.976403,2.6973843575,434.51022417157145,4216.965034285822,0.33,-1.067,-3.394,-4.211
0.2,549996593.976403,2.6975498199,457.0881896148752,4199.52334664066,0.3,-1.107,-3.452,-4.275
0.2,549996593.976403,2.697658062,444.6312674691088,4209.2042477683635,0.317,-1.084,-3.419,-4.238
0.2,549996593.976403,2.6977987289,425.59841313374307,4224.740129875454,0.341,-1.051,-3.369,-4.184
0.2,549996593.976403,2.6979932785,401.79081084894,4245.2180293408355,0.374,-1.006,-3.302,-4.109
0.2,549996593.976403,2.6982040405,379.3149849736821,4265.795188015925,0.406,-0.961,-3.236,-4.037
0.2,549996593.976403,2.6984531879,355.6313185689855,4288.446534968204,0.443,-0.908,-3.161,-3.954
0.2,549996593.976403,2.6987259388,331.1311214825911,4313.204006994161,0.482,-0.851,-3.08,-3.865
0.2,549996593.976403,2.699025631,307.6096814740708,4340.10263644744,0.523,-0.791,-2.993,-3.77
0.2,549996593.976403,2.6993572712,282.48799749157075,4369.180633852881,0.569,-0.723,-2.896,-3.664
0.2,549996593.976403,2.6997203827,256.4484036517716,4403.520272026519,0.624,-0.642,-2.783,-3.542
0.2,549996593.976403,2.7000906467,231.20647901755942,4441.1966136558885,0.682,-0.559,-2.661,-3.406
0.2,549996593.976403,2.700453043,208.44908830972886,4478.164058439384,0.742,-0.475,-2.539,-3.271
0.2,549996593.976403,2.7008194923,188.36490894898,4514.399612669502,0.803,-0.391,-2.418,-3.137
0.2,549996593.976403,2.70119977,170.60823890031244,4550.928370849554,0.863,-0.308,-2.3,-3.007
0.2,549996593.976403,2.7016119957,154.5254439538414,4586.696457982016,0.924,-0.226,-2.183,-2.878
0.2,549996593.976403,2.7020742893,140.28137045619576,4622.74566491089,0.985,-0.143,-2.066,-2.749
0.2,549996593.976403,2.7026004791,127.35030810166616,4658.005532200294,1.046,-0.061,-1.952,-2.623
0.2,549996593.976403,2.7032096386,116.14486138403426,4693.534343171951,1.105,0.018,-1.841,-2.501
0.2,549996593.976403,2.7041339874,103.9920165829059,4738.053933388255,1.176,0.114,-1.708,-2.354
0.2,549996593.976403,2.7053513527,93.5405674147552,4781.894606659083,1.246,0.203,-1.582,-2.213
0.2,549996593.976403,2.7068686485,86.09937521846008,4822.808303816475,1.3,0.273,-1.48,-2.099
0.2,549996593.976403,2.7097914219,79.61593504173187,4870.796664925371,1.343,0.335,-1.382,-1.985
0.2,549996593.976403,2.7114388943,77.26805850957021,4893.279240819371,1.357,0.358,-1.342,-1.939
0.2,549996593.976403,2.7409825325,84.527884516029,4886.523593428336,1.265,0.263,-1.442,-2.04
0.2,549996593.976403,2.7453117371,85.70378452303697,4885.398559319364,1.252,0.249,-1.457,-2.055
0.2,549996593.976403,2.7750470638,93.9723310564638,4880.901012475759,1.154,0.149,-1.56,-2.159
0.2,549996593.976403,2.8102676868,105.92537251772886,4868.554096577112,1.036,0.025,-1.692,-2.296
0.2,549996593.976403,2.8385674953,116.94993910198711,4849.5339049834165,0.945,-0.074,-1.806,-2.416
0.2,549996593.976403,2.8423609734,118.57687481671597,4845.069375499792,0.933,-0.087,-1.822,-2.433
0.2,549996593.976403,2.850779295,122.4616199265049,4832.813100695309,0.91,-0.117,-1.861,-2.475
0.2,549996593.976403,2.8715457916,135.51894123510365,4782.995805358158,0.85,-0.201,-1.985,-2.614
0.2,549996593.976403,2.8789024353,144.5439770745928,4743.511960856962,0.823,-0.249,-2.067,-2.709
0.2,549996593.976403,2.8814058304,156.67510701081486,4696.777641902296,0.786,-0.31,-2.168,-2.825
0.2,549996593.976403,2.8824744225,171.79083871575875,4650.503761666063,0.741,-0.381,-2.28,-2.952
0.2,549996593.976403,2.8829681873,190.54607179632464,4602.565735813559,0.686,-0.464,-2.407,-3.095
0.2,549996593.976403,2.8831448555,208.92961308540387,4563.520439214676,0.633,-0.539,-2.519,-3.22
0.2,549996593.976403,2.8832190037,222.8435149270303,4536.281531692419,0.598,-0.59,-2.596,-3.307
0.2,549996593.976403,2.8832304478,226.46443075930597,4531.0619497855805,0.59,-0.603,-2.614,-3.327
0.2,549996593.976403,2.8833007812,249.45947269429536,4492.623246702932,0.535,-0.681,-2.73,-3.456
0.2,549996593.976403,2.8833677769,264.8500138606701,4468.89344919767,0.5,-0.73,-2.803,-3.537
0.2,549996593.976403,2.8835585117,274.15741719278833,4457.58876355946,0.48,-0.757,-2.842,-3.58
0.2,549996593.976403,2.88382411,254.0972705549304,4486.420743836898,0.522,-0.697,-2.753,-3.481
0.2,549996593.976403,2.8856129646,246.03676041476274,4498.834324565384,0.542,-0.67,-2.714,-3.438
0.2,549996593.976403,2.8865945339,267.30064086633115,4465.8075129335175,0.495,-0.737,-2.814,-3.549
0.2,549996593.976403,2.8874342442,291.7427014001166,4433.02315750427,0.449,-0.807,-2.916,-3.662
0.2,549996593.976403,2.8882591724,320.6269324505464,4397.440784473689,0.399,-0.883,-3.025,-3.781
0.2,549996593.976403,2.8889904022,350.75187395256796,4364.153323262729,0.349,-0.958,-3.132,-3.897
0.2,549996593.976403,2.8896589279,384.5917820453535,4330.1206773800395,0.298,-1.032,-3.239,-4.015
0.2,549996593.976403,2.8902623653,422.66861426560286,4295.364267648873,0.247,-1.107,-3.347,-4.134
0.2,549996593.976403,2.8908045292,464.5152752227492,4261.868054241604,0.195,-1.182,-3.456,-4.254
0.2,549996593.976403,2.8912911415,510.50499997540646,4227.659485162412,0.141,-1.255,-3.565,-4.375
0.2,549996593.976403,2.8917248249,561.0479760324706,4193.72549666233,0.088,-1.328,-3.674,-4.496
0.2,549996593.976403,2.8921141624,616.5950018614822,4160.063884776209,0.034,-1.4,-3.782,-4.617
0.2,549996593.976403,2.892465353,676.0829753919819,4127.622774083493,-0.016,-1.467,-3.89,-4.739
0.2,549996593.976403,2.8927855492,741.3102413009177,4094.4917463268844,-0.059,-1.529,-4.0,-4.862
0.2,549996593.976403,2.8930795193,812.8305161640995,4061.626650090735,-0.1,-1.589,-4.109,-4.986
0.2,549996593.976403,2.8933501244,893.3054837332954,4029.025350832952,-0.138,-1.644,-4.217,-5.109
0.2,549996593.976403,2.8935990334,977.2372209558112,3995.765566188054,-0.176,-1.7,-4.325,-5.231
0.2,549996593.976403,2.8938281536,1071.519305237606,3963.6929115081043,-0.21,-1.749,-4.433,-5.353
0.2,549996593.976403,2.8940401077,1172.1953655481304,3930.972449074674,-0.242,-1.794,-4.54,-5.475
0.2,549996593.976403,2.8942372799,1282.3305826560218,3898.5220955234804,-0.272,-1.838,-4.647,-5.596
0.2,549996593.976403,2.8944211006,1402.8137045619576,3867.2299811937696,-0.297,-1.874,-4.752,-5.716
0.2,549996593.976403,2.8945934772,1531.0874616820304,3834.4228144309195,-0.319,-1.906,-4.857,-5.835
0.2,549996593.976403,2.8947565556,1671.090614310707,3802.769482436101,-0.337,-1.935,-4.961,-5.953
0.2,549996593.976403,2.8949115276,1819.7008586099826,3771.3774501139746,-0.343,-1.944,-5.064,-6.07
0.2,549996593.976403,2.8950612545,1976.96964011186,3740.244560424048,-0.347,-1.951,-5.165,-6.185
0.2,549996593.976403,2.8952083588,2142.8906011200584,3709.3686741322836,-0.347,-1.952,-5.265,-6.298
0.2,549996593.976403,2.8953568935,2322.7367963571073,3678.7476696641274,-0.334,-1.935,-5.362,-6.407
0.2,549996593.976403,2.8955073357,2494.5947269429535,3650.059970708618,-0.321,-1.918,-5.451,-6.509
0.2,549996593.976403,2.8957698345,2999.16251898765,3580.1399184306892,-0.255,-1.831,-5.676,-6.763
0.2,549996593.976403,2.8958470821,3250.872973854344,3547.316998366914,-0.217,-1.779,-5.777,-6.878
0.2,549996593.976403,2.8958997726,3459.3937782612206,3522.897439914557,-0.171,-1.719,-5.854,-6.965
0.2,549996593.976403,2.895960331,3758.374042884443,3489.7956743787454,-0.102,-1.631,-5.959,-7.083
0.2,549996593.976403,2.8960359097,4111.497211045221,3453.822385498232,-0.013,-1.519,-6.072,-7.211
0.2,549996593.976403,2.8960900307,4365.158322401661,3429.2567329756016,0.059,-1.428,-6.147,-7.297
0.2,549996593.976403,2.8961615562,4753.352259428054,3393.907487744292,0.166,-1.294,-6.256,-7.419
0.2,549996593.976403,2.8961927891,5333.348954876208,3346.5706661967974,0.349,-1.069,-6.401,-7.584
0.2,549996593.976403,2.8962008953,5649.369748123023,3322.0028446165034,0.451,-0.945,-6.475,-7.669
0.2,549996593.976403,2.8962099552,5929.2532458,3301.4140864591145,0.548,-0.823,-6.536,-7.739
0.2,549996593.976403,2.8962130547,5997.910762555094,3296.856163568906,0.573,-0.791,-6.549,-7.754
0.2,549996593.976403,2.896214962,6151.7687270986835,3238.918349968776,0.989,-0.269,-6.599,-7.833
0.2,549996593.976403,2.8962161541,5260.172663907063,3334.2641276323507,0.439,-0.964,-6.39,-7.578
0.2,549996593.976403,2.8962161541,5272.298614228227,3332.728995761379,0.446,-0.955,-6.395,-7.585
0.2,549996593.976403,2.896217823,3749.730022454834,3476.161938153812,-0.039,-1.557,-5.962,-7.093
0.2,549996593.976403,2.8962209225,2978.5164294291912,3577.6676993611068,-0.239,-1.813,-5.669,-6.758
0.2,549996593.976403,2.8962254524,3250.872973854344,3537.5289282243193,-0.172,-1.726,-5.779,-6.885
0.2,549996593.976403,2.8962314129,4017.9081084894,3443.4993076333844,0.061,-1.432,-6.051,-7.194
0.2,549996593.976403,2.8962390423,5023.4258952238715,3348.1121738605384,0.396,-1.017,-6.334,-7.518
0.2,549996593.976403,2.8962483406,5915.616341754737,3278.687311745482,0.725,-0.603,-6.54,-7.754
0.2,549996593.976403,2.8962595463,6486.344335482381,3238.1726473132535,0.944,-0.319,-6.656,-7.89
0.2,549996593.976403,2.8962728977,6807.693586937417,3216.6217928790406,1.048,-0.19,-6.717,-7.96
0.2,549996593.976403,2.8962883949,7030.723198838334,3200.368594586517,1.13,-0.087,-6.758,-8.009
0.2,549996593.976403,2.8962886333,8072.350302488382,3145.5746774318936,1.391,0.228,-6.93,-8.208
0.2,549996593.976403,2.896289587,6067.363295885053,3259.1173631348456,0.847,-0.448,-6.577,-7.8
0.2,549996593.976403,2.8962917328,4325.138310350088,3400.1650580407095,0.222,-1.235,-6.148,-7.31
0.2,549996593.976403,2.8962950706,3419.794425137087,3501.063598465195,-0.059,-1.588,-5.849,-6.97
0.2,549996593.976403,2.896299839,3715.352290971724,3464.1764103524893,0.03,-1.475,-5.956,-7.092
0.2,549996593.976403,2.8963065147,4570.881896148751,3375.2037896792626,0.315,-1.119,-6.219,-7.391
0.2,549996593.976403,2.8963148594,5649.369748123023,3284.7324430306794,0.717,-0.618,-6.489,-7.7
0.2,549996593.976403,2.8963253498,6591.738952443213,3221.0687912834346,1.043,-0.198,-6.68,-7.921
0.2,549996593.976403,2.896337986,7144.963260755135,3187.1316270228012,1.206,0.005,-6.782,-8.039
0.2,549996593.976403,2.8963525295,7413.102413009177,3171.027438947892,1.289,0.108,-6.828,-8.093
0.2,549996593.976403,2.8963696957,7568.328950209744,3162.2776601683795,1.338,0.169,-6.853,-8.123
0.2,549996593.976403,2.8963699341,8770.008211436349,3103.844819159537,1.578,0.435,-7.035,-8.333
0.2,549996593.976403,2.8963711262,6606.934480075957,3217.3625326955976,1.066,-0.169,-6.684,-7.927
0.2,549996593.976403,2.8963732719,4709.77326396953,3357.3761424295453,0.395,-1.023,-6.26,-7.44
0.2,549996593.976403,2.8963770866,3723.917062545687,3458.597315106485,0.056,-1.444,-5.959,-7.097
0.2,549996593.976403,2.8963823318,4036.4539296760486,3422.1575515373916,0.17,-1.302,-6.064,-7.217
0.2,549996593.976403,2.8963897228,4943.106869868354,3334.2641276323507,0.496,-0.901,-6.322,-7.511
0.2,549996593.976403,2.8963990211,6081.350012787177,3246.384827880331,0.941,-0.331,-6.583,-7.812
0.2,549996593.976403,2.8964104652,7046.930689671467,3184.9307947187244,1.236,0.04,-6.766,-8.024
0.2,549996593.976403,2.8964240551,7603.262769401815,3151.374380204506,1.399,0.237,-6.862,-8.136
0.2,549996593.976403,2.8964402676,7852.356346100718,3136.8951301583775,1.465,0.31,-6.902,-8.184
0.2,549996593.976403,2.8964591026,7979.946872679769,3128.2395322577386,1.504,0.353,-6.922,-8.208
0.2,549996593.976403,2.896459341,9332.543007969914,3066.1966160107386,1.718,0.556,-7.115,-8.431
0.2,549996593.976403,2.8964605331,7030.723198838334,3179.069335643364,1.278,0.091,-6.767,-8.029
0.2,549996593.976403,2.8964626789,5035.006087879047,3318.180448272474,0.585,-0.794,-6.35,-7.546
0.2,549996593.976403,2.896466732,3971.915494694405,3419.794425137087,0.196,-1.272,-6.047,-7.201
0.2,549996593.976403,2.8964722157,4305.266104917106,3384.542718663093,0.311,-1.129,-6.151,-7.319
0.2,549996593.976403,2.8964796066,5248.074602497728,3299.8940791083483,0.677,-0.678,-6.402,-7.607
0.2,549996593.976403,2.8964891434,6426.877173170194,3214.400596524381,1.11,-0.119,-6.654,-7.898
0.2,549996593.976403,2.8965008259,7396.052750582382,3155.7311736800216,1.396,0.233,-6.83,-8.103
0.2,549996593.976403,2.8965148926,7961.593504173184,3126.0793671239558,1.522,0.373,-6.921,-8.208
0.2,549996593.976403,2.8965315819,8203.515443298185,3113.149665447022,1.575,0.432,-6.957,-8.25
0.2,549996593.976403,2.8965508938,8298.507675144225,3107.420310388586,1.601,0.46,-6.973,-8.269
0.2,549996593.976403,2.8965511322,9817.479430199845,3040.1849166294414,1.786,0.594,-7.18,-8.508
0.2,549996593.976403,2.8965523243,7430.191378967013,3152.825975955186,1.411,0.25,-6.835,-8.109
0.2,549996593.976403,2.8965549469,5333.348954876208,3291.546539470676,0.724,-0.618,-6.422,-7.631
0.2,549996593.976403,2.8965592384,4197.589839910078,3394.6890538007865,0.281,-1.169,-6.12,-7.284
0.2,549996593.976403,2.8965651989,4549.880601500485,3358.9226273449517,0.421,-0.996,-6.222,-7.401
0.2,549996593.976403,2.8965733051,5520.774392807573,3274.1607653757505,0.819,-0.496,-6.468,-7.684
0.2,549996593.976403,2.8965837955,6729.766562843175,3190.8030609514212,1.233,0.032,-6.713,-7.969
0.2,549996593.976403,2.8965966702,7709.034690644301,3133.2857243155854,1.503,0.352,-6.884,-8.167
0.2,549996593.976403,2.8966121674,8279.421637123345,3103.1302147534125,1.633,0.495,-6.971,-8.269
0.2,549996593.976403,2.8966302872,8511.380382023768,3090.295432513592,1.69,0.559,-7.006,-8.31
0.2,549996593.976403,2.8966515064,8609.937521846008,3084.6081377571413,1.707,0.569,-7.021,-8.328
0.2,549996593.976403,2.8966517448,10303.861204416158,3011.6188030788244,1.864,0.639,-7.242,-8.583
0.2,549996593.976403,2.8966529369,7798.3011052325855,3123.920693664115,1.548,0.4,-6.9,-8.188
0.2,549996593.976403,2.8966553211,5623.413251903491,3262.1205039426677,0.896,-0.397,-6.492,-7.715
0.2,549996593.976403,2.8966593742,4425.883723626264,3365.8906294925205,0.4,-1.023,-6.19,-7.365
0.2,549996593.976403,2.8966650963,4797.334486366892,3331.194570682003,0.548,-0.842,-6.291,-7.482
0.2,549996593.976403,2.8966729641,5794.286964268809,3247.8801876353714,0.974,-0.297,-6.53,-7.759
0.2,549996593.976403,2.8966827393,7014.552984199714,3166.6495274920885,1.371,0.2,-6.768,-8.036
0.2,549996593.976403,2.8966948986,8016.78063387679,3110.999920424558,1.611,0.471,-6.933,-8.228
0.2,549996593.976403,2.8967096806,8570.378452303692,3082.4781017155096,1.719,0.579,-7.017,-8.326
0.2,549996593.976403,2.8967270851,8810.488730080138,3070.4356507300654,1.748,0.594,-7.05,-8.364
0.2,549996593.976403,2.8967471123,8912.509381337459,3064.7849053700324,1.762,0.602,-7.064,-8.381
0.2,549996593.976403,2.8967473507,10789.467222298297,2987.4455606053048,1.915,0.662,-7.299,-8.65
0.2,549996593.976403,2.8967485428,8184.647881347895,3099.559659837377,1.665,0.53,-6.96,-8.26
0.2,549996593.976403,2.8967511654,5915.616341754737,3236.6817570165304,1.046,-0.206,-6.558,-7.792
0.2,549996593.976403,2.8967552185,4655.860935229591,3341.1809763304277,0.51,-0.89,-6.255,-7.441
0.2,549996593.976403,2.896761179,5046.612975635282,3305.9783107043236,0.669,-0.694,-6.356,-7.558
0.2,549996593.976403,2.8967690468,6067.363295885053,3224.0368719181865,1.103,-0.135,-6.59,-7.831
0.2,549996593.976403,2.8967792988,7311.390834834172,3143.4025417390094,1.484,0.328,-6.823,-8.101
0.2,549996593.976403,2.896791935,8336.81184619634,3088.1614691845125,1.718,0.586,-6.983,-8.289
0.2,549996593.976403,2.8968071938,8892.011178579482,3059.849034654997,1.785,0.62,-7.065,-8.383
0.2,549996593.976403,2.8968250751,9141.132414702499,3047.193266663114,1.817,0.637,-7.098,-8.422
0.2,549996593.976403,2.8968458176,9246.98173938223,3040.88502567628,1.836,0.648,-7.113,-8.44
0.2,549996593.976403,2.896846056,11324.003632355578,2959.3749953433894,1.974,0.688,-7.36,-8.724
0.2,549996593.976403,2.8968472481,8609.937521846008,3070.4356507300654,1.766,0.615,-7.024,-8.338
0.2,549996593.976403,2.8968493938,6237.348354824191,3207.007680303629,1.192,-0.026,-6.627,-7.875
0.2,549996593.976403,2.8968532085,4909.078761526029,3312.8364811728147,0.646,-0.727,-6.324,-7.522
0.2,549996593.976403,2.8968584538,5308.8444423098845,3277.932453002282,0.834,-0.484,-6.422,-7.637
0.2,549996593.976403,2.8968658447,6367.955209079156,3197.422303204927,1.238,0.032,-6.651,-7.903
0.2,549996593.976403,2.8968751431,7620.790100254122,3118.8895840939385,1.602,0.459,-6.876,-8.166
0.2,549996593.976403,2.8968865871,8629.785477669702,3066.1966160107386,1.784,0.627,-7.03,-8.346
0.2,549996593.976403,2.8969004154,9183.32596483581,3038.785182061179,1.85,0.66,-7.107,-8.436
0.2,549996593.976403,2.8969166279,9418.895965228417,3027.610480923131,1.879,0.676,-7.137,-8.471
0.2,549996593.976403,2.896935463,9506.04793656282,3022.0385498282735,1.895,0.685,-7.15,-8.486
0.2,549996593.976403,2.8969357014,11748.975549395303,2936.2971257566924,2.013,0.704,-7.407,-8.78
0.2,549996593.976403,2.8969368935,8933.054837332953,3047.8949896279833,1.835,0.656,-7.074,-8.399
0.2,549996593.976403,2.8969390392,6516.283940608428,3182.7314821707823,1.319,0.13,-6.681,-7.94
0.2,549996593.976403,2.8969428539,5116.818355403078,3290.031075247056,0.777,-0.561,-6.377,-7.586
0.2,549996593.976403,2.8969480991,5520.774392807573,3255.3673247163633,0.97,-0.312,-6.474,-7.7
0.2,549996593.976403,2.8969554901,6606.934480075957,3175.411402891837,1.361,0.181,-6.698,-7.962
0.2,549996593.976403,2.8969647884,7870.457896950985,3098.846042012061,1.705,0.572,-6.918,-8.219
0.2,549996593.976403,2.8969762325,8871.560120379609,3046.491705257325,1.846,0.666,-7.067,-8.392
0.2,549996593.976403,2.8969900608,9418.895965228417,3020.64717004684,1.912,0.7,-7.141,-8.479
0.2,549996593.976403,2.8970062733,9638.290236239705,3009.539168873201,1.932,0.709,-7.169,-8.511
0.2,549996593.976403,2.8970251083,9727.47223776965,3004.0004957242286,1.944,0.715,-7.18,-8.524
0.2,549996593.976403,2.8970253468,12105.981335504828,2914.070134770806,2.055,0.724,-7.447,-8.829
0.2,549996593.976403,2.8970263004,9246.98173938223,3025.519803872306,1.907,0.702,-7.117,-8.452
0.2,549996593.976403,2.8970284462,6745.280276979222,3160.0939904479483,1.454,0.293,-6.727,-7.999
0.2,549996593.976403,2.8970317841,5296.634438916581,3268.1350899154786,0.913,-0.388,-6.424,-7.643
0.2,549996593.976403,2.8970365524,5714.786366718672,3232.9575336809407,1.105,-0.141,-6.52,-7.757
0.2,549996593.976403,2.8970429897,6807.693586937417,3154.278240344361,1.481,0.323,-6.741,-8.014
0.2,549996593.976403,2.8970513344,8090.958991783821,3078.93130974161,1.786,0.645,-6.956,-8.266
0.2,549996593.976403,2.8970618248,9099.132726322518,3027.610480923131,1.909,0.707,-7.101,-8.435
0.2,549996593.976403,2.8970742226,9660.508789898131,3001.9261222416912,1.959,0.727,-7.174,-8.519
0.2,549996593.976403,2.8970887661,9885.53094656939,2990.8869650638235,1.979,0.735,-7.202,-8.551
0.2,549996593.976403,2.8971056938,9977.000638225536,2985.3826189179604,1.992,0.742,-7.213,-8.565
0.2,549996593.976403,2.8971059322,12502.590302177214,2892.6773831200917,2.095,0.742,-7.487,-8.879
0.2,549996593.976403,2.8971068859,9549.92586021436,3003.308878676558,1.964,0.734,-7.161,-8.505
0.2,549996593.976403,2.8971090317,6982.324040771711,3136.8951301583775,1.567,0.418,-6.774,-8.056
0.2,549996593.976403,2.8971123695,5482.769649208536,3245.6374062026525,1.054,-0.21,-6.47,-7.701
0.2,549996593.976403,2.8971171379,5915.616341754737,3209.96280421069,1.22,0.0,-6.566,-7.812
0.2,549996593.976403,2.8971235752,7030.723198838334,3132.5643416709277,1.592,0.444,-6.783,-8.067
0.2,549996593.976403,2.8971319199,8336.81184619634,3057.736095690077,1.854,0.69,-6.993,-8.313
0.2,549996593.976403,2.8971424103,9332.543007969914,3007.460970731941,1.968,0.744,-7.136,-8.478
0.2,549996593.976403,2.897154808,9885.53094656939,2981.261008172248,2.013,0.759,-7.206,-8.559
0.2,549996593.976403,2.8971693516,10115.794542598982,2970.297844017863,2.035,0.769,-7.233,-8.591
0.2,549996593.976403,2.8971862793,10185.91388054117,2964.8313895243423,2.05,0.776,-7.244,-8.605
0.2,549996593.976403,2.8971865177,12852.866599436155,2868.798201821356,2.146,0.778,-7.525,-8.924
0.2,549996593.976403,2.8971874714,9840.111057611335,2979.2023371471673,2.026,0.77,-7.201,-8.556
0.2,549996593.976403,2.8971891403,7211.074791828998,3112.4329187675094,1.696,0.559,-6.818,-8.112
0.2,549996593.976403,2.8971922398,5662.3928903825345,3221.0687912834346,1.19,-0.041,-6.514,-7.755
0.2,549996593.976403,2.8971967697,6095.368972401694,3186.3978473281713,1.356,0.165,-6.609,-7.866
0.2,549996593.976403,2.8972027302,7227.698036021702,3109.5675818498016,1.712,0.577,-6.822,-8.117
0.2,549996593.976403,2.897210598,8531.001140175895,3035.9876459875045,1.928,0.739,-7.028,-8.357
0.2,549996593.976403,2.8972198963,9549.92586021436,2986.75775503349,2.024,0.777,-7.166,-8.517
0.2,549996593.976403,2.8972313404,10092.528860766834,2962.1019360527644,2.068,0.792,-7.235,-8.596
0.2,549996593.976403,2.8972449303,10303.861204416158,2951.8888459446066,2.087,0.799,-7.26,-8.627
0.2,549996593.976403,2.8972604275,10375.284158180126,2946.4562708650446,2.096,0.803,-7.27,-8.638
0.2,549996593.976403,2.8972606659,13152.248321922376,2847.7378001737457,2.197,0.818,-7.556,-8.963
0.2,549996593.976403,2.8972616196,10092.528860766834,2958.0124665515464,2.083,0.803,-7.236,-8.599
0.2,549996593.976403,2.8972635269,7413.102413009177,3091.0070812616214,1.812,0.687,-6.856,-8.161
0.2,549996593.976403,2.8972666264,5807.644175213118,3200.368594586517,1.307,0.1,-6.551,-7.802
0.2,549996593.976403,2.8972709179,6266.138646723356,3165.191567226265,1.487,0.323,-6.645,-7.914
0.2,549996593.976403,2.8972771168,7413.102413009177,3088.8726265127525,1.822,0.695,-6.857,-8.163
0.2,549996593.976403,2.8972847462,8729.713683881113,3015.7823836531966,1.997,0.785,-7.059,-8.398
0.2,549996593.976403,2.8972942829,9749.896377173867,2966.880130021004,2.08,0.812,-7.195,-8.555
0.2,549996593.976403,2.8973059654,10303.861204416158,2942.388401724649,2.116,0.82,-7.262,-8.632
0.2,549996593.976403,2.8973193169,10495.42428652322,2931.568186062337,2.131,0.824,-7.287,-8.661
0.2,549996593.976403,2.8973350525,10592.537251772897,2925.499309897072,2.142,0.829,-7.297,-8.674
0.2,549996593.976403,2.8973352909,13489.628825916532,2824.229597144114,2.254,0.863,-7.59,-9.005
0.2,549996593.976403,2.8973360062,10375.284158180126,2934.269503955967,2.134,0.831,-7.272,-8.645
0.2,549996593.976403,2.8973379135,7638.357835776907,3066.1966160107386,1.893,0.743,-6.896,-8.211
0.2,549996593.976403,2.897341013,5984.115950603199,3176.8740706497692,1.447,0.269,-6.59,-7.852
0.2,549996593.976403,2.8973453045,6441.692655151775,3141.9552846410716,1.614,0.464,-6.684,-7.964
0.2,549996593.976403,2.897351265,7620.790100254122,3065.490679425787,1.9,0.749,-6.893,-8.208
0.2,549996593.976403,2.8973586559,8933.054837332953,2993.642942739855,2.058,0.823,-7.091,-8.439
0.2,549996593.976403,2.8973679543,9954.054173515275,2945.7779023394583,2.137,0.845,-7.224,-8.592
0.2,549996593.976403,2.8973789215,10495.42428652322,2921.4603738773317,2.163,0.847,-7.289,-8.667
0.2,549996593.976403,2.8973920345,10690.548792226577,2910.717118066605,2.179,0.852,-7.313,-8.695
0.2,549996593.976403,2.8974072933,10764.65213629835,2905.3603143031482,2.19,0.858,-7.322,-8.707
0.2,549996593.976403,2.8974075317,13803.842646028837,2801.5604642568937,2.296,0.904,-7.621,-9.042
0.2,549996593.976403,2.897408247,10616.955571987242,2911.3874126187557,2.184,0.859,-7.305,-8.687
0.2,549996593.976403,2.8974099159,7834.29642766212,3042.986320313067,1.975,0.798,-6.932,-8.259
0.2,549996593.976403,2.8974127769,6137.620051647939,3154.278240344361,1.583,0.428,-6.626,-7.9
0.2,549996593.976403,2.8974170685,6606.934480075957,3118.8895840939385,1.736,0.598,-6.72,-8.011
0.2,549996593.976403,2.8974225521,7798.3011052325855,3043.6870744812113,1.979,0.803,-6.926,-8.252
0.2,549996593.976403,2.8974294662,9120.108393559096,2973.0348496770193,2.12,0.861,-7.121,-8.478
0.2,549996593.976403,2.8974382877,10139.1138573668,2925.499309897072,2.183,0.872,-7.251,-8.627
0.2,549996593.976403,2.8974487782,10690.548792226577,2901.3491821234015,2.212,0.876,-7.314,-8.7
0.2,549996593.976403,2.8974611759,10889.300933334333,2891.3455626423843,2.229,0.882,-7.338,-8.729
0.2,549996593.976403,2.897475481,10964.78196143185,2886.0244097569725,2.24,0.888,-7.347,-8.74
0.2,549996593.976403,2.8974757195,14125.375446227554,2779.7132677592886,2.337,0.948,-7.652,-9.078
0.2,549996593.976403,2.8974764347,10864.256236170644,2888.683760959034,2.237,0.888,-7.337,-8.729
0.2,549996593.976403,2.8974781036,8035.261221856169,3020.64717004684,2.058,0.854,-6.968,-8.305
0.2,549996593.976403,2.8974809647,6295.061828571975,3131.843125111643,1.702,0.559,-6.661,-7.946
0.2,549996593.976403,2.8974852562,6776.41507610675,3096.7061741707726,1.86,0.734,-6.755,-8.056
0.2,549996593.976403,2.8974907398,7979.946872679769,3022.0385498282735,2.061,0.858,-6.958,-8.295
0.2,549996593.976403,2.897497654,9311.078754678301,2951.209226666387,2.185,0.901,-7.15,-8.517
0.2,549996593.976403,2.8975064754,10327.61405761398,2904.6914073819084,2.235,0.903,-7.277,-8.662
0.2,549996593.976403,2.8975167274,10864.256236170644,2880.713049775041,2.266,0.911,-7.339,-8.734
0.2,549996593.976403,2.8975291252,11066.237839776653,2870.119636464438,2.283,0.923,-7.362,-8.76
0.2,549996593.976403,2.8975434303,11142.945335917293,2864.1779699065796,2.296,0.933,-7.371,-8.771
0.2,549996593.976403,2.8975436687,14421.153515248681,2755.4973646268027,2.387,1.0,-7.682,-9.115
0.2,549996593.976403,2.897544384,11117.317272815919,2864.8375471900267,2.296,0.934,-7.368,-8.768
0.2,549996593.976403,2.8975460529,8241.38115013002,2995.711592427998,2.13,0.899,-7.003,-8.35
0.2,549996593.976403,2.897548914,6441.692655151775,3108.1359027394765,1.837,0.705,-6.696,-7.992
0.2,549996593.976403,2.8975527287,6934.258060165695,3072.557365267445,1.962,0.82,-6.789,-8.102
0.2,549996593.976403,2.8975582123,8147.042840208396,2997.091486307045,2.136,0.906,-6.99,-8.336
0.2,549996593.976403,2.897564888,9506.04793656282,2926.846862378789,2.242,0.936,-7.179,-8.554
0.2,549996593.976403,2.8975734711,10519.618738232235,2880.0498174428562,2.299,0.946,-7.303,-8.698
0.2,549996593.976403,2.8975834846,11066.237839776653,2855.617271381299,2.334,0.968,-7.364,-8.767
0.2,549996593.976403,2.8975954056,11246.049739669268,2844.4611074479167,2.356,0.984,-7.387,-8.793
0.2,549996593.976403,2.8976092339,11324.003632355578,2837.265648662569,2.375,0.999,-7.396,-8.805
0.2,549996593.976403,2.8976094723,14723.125024327193,2726.4654585290064,2.444,1.069,-7.714,-9.154
0.2,549996593.976403,2.8976101875,11376.27285823431,2835.3064117606855,2.379,1.002,-7.401,-8.81
0.2,549996593.976403,2.8976118565,8452.788451602899,2966.1970592694383,2.223,0.959,-7.039,-8.398
0.2,549996593.976403,2.8976144791,6591.738952443213,3078.2224412226315,1.984,0.85,-6.732,-8.042
0.2,549996593.976403,2.8976182938,7095.777679633888,3042.986320313067,2.075,0.9,-6.825,-8.151
0.2,549996593.976403,2.897623539,8336.81184619634,2968.246743463243,2.228,0.966,-7.023,-8.381
0.2,549996593.976403,2.8976302147,9682.778562612497,2898.6781710077653,2.317,0.983,-7.208,-8.594
0.2,549996593.976403,2.8976383209,10690.548792226577,2852.331512299011,2.377,1.011,-7.329,-8.732
0.2,549996593.976403,2.8976480961,11220.18454301963,2828.7853879701315,2.419,1.038,-7.388,-8.8
0.2,549996593.976403,2.8976597786,11428.783347897712,2817.0853167693913,2.444,1.057,-7.41,-8.826
0.2,549996593.976403,2.89767313,11481.536214968817,2810.6062003343977,2.456,1.07,-7.418,-8.836
0.2,549996593.976403,2.8976733685,14996.84835502374,2697.7394324449206,2.517,1.152,-7.742,-9.19
0.2,549996593.976403,2.8976740837,11614.486138403438,2806.079687295453,2.458,1.073,-7.431,-8.849
0.2,549996593.976403,2.8976755142,8629.785477669702,2934.945222269793,2.313,1.017,-7.072,-8.444
0.2,549996593.976403,2.8976781368,6745.280276979222,3047.193266663114,2.109,0.94,-6.766,-8.09
0.2,549996593.976403,2.8976819515,7244.359600749898,3011.6188030788244,2.197,0.986,-6.858,-8.198
0.2,549996593.976403,2.8976869583,8491.804750363135,2937.6496519615307,2.322,1.028,-7.054,-8.425
0.2,549996593.976403,2.8976931572,9840.111057611335,2870.119636464438,2.401,1.044,-7.234,-8.632
0.2,549996593.976403,2.897701025,10864.256236170644,2824.8799749157074,2.469,1.086,-7.353,-8.766
0.2,549996593.976403,2.8977105618,11376.27285823431,2801.5604642568937,2.492,1.107,-7.411,-8.831
0.2,549996593.976403,2.8977217674,11587.773561551261,2790.6154863980737,2.506,1.122,-7.433,-8.855
0.2,549996593.976403,2.897734642,11668.09617060963,2784.1972488835645,2.52,1.136,-7.442,-8.866
0.2,549996593.976403,2.8977348804,15275.660582380731,2672.3909970469035,2.566,1.224,-7.77,-9.223
0.2,549996593.976403,2.8977355957,11830.41555725166,2776.514846105508,2.525,1.142,-7.461,-8.887
0.2,549996593.976403,2.8977370262,8830.799004185632,2902.017319380225,2.405,1.075,-7.106,-8.492
0.2,549996593.976403,2.8977394104,6886.522963442762,3010.925432053001,2.256,1.044,-6.802,-8.143
0.2,549996593.976403,2.8977432251,7413.102413009177,2975.7743773728107,2.322,1.069,-6.893,-8.249
0.2,549996593.976403,2.8977479935,8669.61875758217,2904.022654464451,2.417,1.089,-7.086,-8.47
0.2,549996593.976403,2.8977541924,10023.052380779005,2838.5725586841204,2.501,1.126,-7.263,-8.671
0.2,549996593.976403,2.8977618217,11040.786199020735,2795.76072758083,2.545,1.159,-7.379,-8.801
0.2,549996593.976403,2.8977708817,11561.122421920982,2773.320104651841,2.565,1.18,-7.437,-8.864
0.2,549996593.976403,2.8977816105,11776.059735208066,2763.7579191703653,2.582,1.197,-7.458,-8.889
0.2,549996593.976403,2.8977942467,11857.687481671597,2758.0364405972355,2.595,1.208,-7.467,-8.9
0.2,549996593.976403,2.8977944851,15595.525028269523,2650.3302897271124,2.616,1.293,-7.798,-9.257
0.2,549996593.976403,2.8977952003,12105.981335504828,2748.526951964667,2.598,1.213,-7.494,-8.929
0.2,549996593.976403,2.8977966309,9036.494737223014,2865.4972763642395,2.517,1.156,-7.143,-8.542
0.2,549996593.976403,2.8977987766,7046.930689671467,2967.563358073529,2.413,1.15,-6.842,-8.201
0.2,549996593.976403,2.8978023529,7585.775750291836,2933.593941214125,2.462,1.163,-6.933,-8.305
0.2,549996593.976403,2.8978068829,8851.156098308356,2866.8171905248937,2.536,1.175,-7.12,-8.52
0.2,549996593.976403,2.8978128433,10232.929922807536,2806.079687295453,2.607,1.216,-7.294,-8.713
0.2,549996593.976403,2.8978199959,11246.049739669268,2766.9416454115126,2.63,1.239,-7.409,-8.84
0.2,549996593.976403,2.8978288174,11776.059735208066,2747.8941531023975,2.643,1.25,-7.465,-8.903
0.2,549996593.976403,2.8978390694,11967.405313072442,2741.5741719278835,2.65,1.255,-7.487,-8.926
0.2,549996593.976403,2.8978509903,12050.359403717986,2741.5741719278835,2.653,1.252,-7.495,-8.936
0.2,549996593.976403,2.8978509903,15958.791472367337,2639.36832236573,2.662,1.346,-7.828,-9.295
0.2,549996593.976403,2.8978514671,12387.965865303691,2730.863545120826,2.655,1.258,-7.528,-8.972
0.2,549996593.976403,2.8978526592,9268.298233793494,2841.1881849832444,2.612,1.225,-7.179,-8.588
0.2,549996593.976403,2.8978543282,7227.698036021702,2942.388401724649,2.513,1.212,-6.878,-8.249
0.2,549996593.976403,2.8978567123,7762.4711662869195,2916.0837985212315,2.531,1.202,-6.965,-8.346
0.2,549996593.976403,2.8978598118,9036.494737223014,2856.932634583698,2.586,1.206,-7.147,-8.551
0.2,549996593.976403,2.8978638649,10399.2016582906,2803.4963822309305,2.625,1.221,-7.315,-8.738
0.2,549996593.976403,2.8978688717,11402.497875611696,2771.4050245139165,2.624,1.217,-7.425,-8.858
0.2,549996593.976403,2.8978750706,11912.420080273738,2761.849442075292,2.614,1.202,-7.476,-8.913
0.2,549996593.976403,2.8978822231,12078.138351067797,2769.491266809683,2.58,1.164,-7.491,-8.926
0.2,549996593.976403,2.8978905678,12133.888504649762,2789.9729974082666,2.521,1.099,-7.49,-8.92
0.2,549996593.976403,2.8978905678,16106.4563517827,2656.4399320300045,0.347,-2.291,-7.46,-9.065
0.2,549996593.976403,2.8978910446,12531.411749414156,2775.2365081372714,0.188,-2.317,-7.164,-8.747
0.2,549996593.976403,2.8978919983,9397.233105646375,2920.1153013941557,-0.005,-2.36,-6.836,-8.368
0.2,549996593.976403,2.8978934288,7311.390834834172,3054.9211132155124,-0.179,-2.407,-6.56,-8.018
0.2,549996593.976403,2.8978955746,7870.457896950985,3020.64717004684,-0.136,-2.4,-6.64,-8.119
0.2,549996593.976403,2.8978984356,9141.132414702499,2945.099689996018,-0.029,-2.373,-6.804,-8.326
0.2,549996593.976403,2.8979022503,10519.618738232235,2876.7359455385426,0.08,-2.345,-6.966,-8.523
0.2,549996593.976403,2.8979067802,11508.003889444357,2835.9593403567637,0.161,-2.322,-7.068,-8.645
0.2,549996593.976403,2.8979122639,12022.644346174131,2821.629583090804,0.205,-2.31,-7.117,-8.703
0.2,549996593.976403,2.8979187012,12217.99660164871,2826.181179810158,0.186,-2.331,-7.134,-8.719
0.2,549996593.976403,2.8979263306,12274.392311584084,2841.8424680635885,0.132,-2.373,-7.139,-8.716
0.2,549996593.976403,2.8979263306,16368.165214278102,2675.469472656105,-0.228,-2.704,-7.514,-9.011
0.2,549996593.976403,2.8979268074,12735.030810166629,2816.4367335775464,-0.315,-2.681,-7.205,-8.707
0.2,549996593.976403,2.8979277611,9549.92586021436,2982.634245778771,-0.458,-2.691,-6.861,-8.325
0.2,549996593.976403,2.8979291916,7430.191378967013,3127.519311407983,-0.572,-2.698,-6.577,-7.974
0.2,549996593.976403,2.8979315758,7979.946872679769,3055.6246157876885,-0.462,-2.641,-6.662,-8.096
0.2,549996593.976403,2.8979344368,9289.663867799363,2927.520871369441,-0.284,-2.555,-6.835,-8.317
0.2,549996593.976403,2.8979382515,10641.430182243164,2800.2705950106356,-0.098,-2.468,-7.011,-8.514
0.2,549996593.976403,2.8979427814,11641.260294104908,2691.5348039269165,0.075,-2.376,-7.135,-8.637
0.2,549996593.976403,2.8979485035,12161.86000646368,2597.1677414020096,0.233,-2.281,-7.207,-8.687
0.2,549996593.976403,2.8979549408,12331.048332289096,2500.921153780118,0.262,-2.272,-7.228,-8.711
0.2,549996593.976403,2.8979625702,12387.965865303691,2390.5619353446305,0.289,-2.259,-7.236,-8.722
0.2,549996593.976403,2.8979625702,16557.699634695295,2249.0546058357804,-0.291,-2.734,-7.543,-9.0
0.2,549996593.976403,2.897963047,12882.495516931349,2369.190595277639,-0.02,-2.463,-7.273,-8.729
0.2,549996593.976403,2.8979640007,9682.778562612497,2515.938378692713,0.249,-2.175,-6.954,-8.407
0.2,549996593.976403,2.8979654312,7533.55563733717,2652.161705507881,0.386,-1.989,-6.664,-8.119
0.2,549996593.976403,2.8979678154,8090.958991783821,2609.1557230141357,0.386,-2.015,-6.753,-8.199
0.2,549996593.976403,2.8979706764,9397.233105646375,2522.899786450713,0.283,-2.141,-6.921,-8.373
0.2,549996593.976403,2.8979744911,10764.65213629835,2442.8679967864605,0.183,-2.262,-7.076,-8.533
0.2,549996593.976403,2.8979790211,11748.975549395303,2387.8112829131783,0.097,-2.353,-7.172,-8.63
0.2,549996593.976403,2.8979847431,12246.16199265049,2357.2193636510065,0.122,-2.348,-7.215,-8.68
0.2,549996593.976403,2.8979911804,12416.523075924119,2340.45340832852,0.112,-2.361,-7.23,-8.696
0.2,549996593.976403,2.8979988098,12445.146117713844,2329.1636302139664,0.113,-2.362,-7.235,-8.701
0.2,549996593.976403,2.8979988098,16672.472125510645,2165.2098793079285,-0.384,-2.789,-7.548,-8.995
0.2,549996593.976403,2.8979992867,13001.695780332899,2302.501914610407,-0.114,-2.519,-7.278,-8.725
0.2,549996593.976403,2.8980002403,9794.89985408699,2470.5861360384306,0.178,-2.219,-6.966,-8.411
0.2,549996593.976403,2.8980016708,7620.790100254122,2627.846540838493,0.35,-2.007,-6.679,-8.117
0.2,549996593.976403,2.8980035782,8184.647881347895,2576.3211570025755,0.328,-2.05,-6.764,-8.203
0.2,549996593.976403,2.8980062008,9484.184633008968,2476.851675793545,0.213,-2.185,-6.931,-8.376
0.2,549996593.976403,2.8980097771,10839.269140212038,2386.7119083399743,0.092,-2.317,-7.081,-8.528
0.2,549996593.976403,2.8980140686,11830.41555725166,2325.412485873378,0.0,-2.41,-7.175,-8.623
0.2,549996593.976403,2.8980193138,12331.048332289096,2289.812912107968,-0.042,-2.453,-7.22,-8.668
0.2,549996593.976403,2.8980252743,12502.590302177214,2267.775191567259,-0.055,-2.467,-7.235,-8.684
0.2,549996593.976403,2.8980324268,12560.299636948754,2248.536801491625,-0.057,-2.471,-7.24,-8.689
0.2,549996593.976403,2.8980324268,16865.530253887424,2084.4908830972886,-0.454,-2.833,-7.556,-8.997
0.2,549996593.976403,2.8980329037,13182.567385564074,2220.7516834507533,-0.185,-2.564,-7.288,-8.729
0.2,549996593.976403,2.8980336189,9908.319448927676,2388.361160084188,0.124,-2.256,-6.98,-8.421
0.2,549996593.976403,2.8980350494,7709.034690644301,2548.590148373727,0.347,-2.011,-6.699,-8.133
0.2,549996593.976403,2.8980369568,8279.421637123345,2501.4970784600987,0.291,-2.076,-6.78,-8.218
0.2,549996593.976403,2.8980395794,9594.006315159337,2407.1325190501684,0.17,-2.214,-6.945,-8.386
0.2,549996593.976403,2.8980429173,10964.78196143185,2323.271687848626,0.03,-2.356,-7.089,-8.531
0.2,549996593.976403,2.8980472088,11939.88104464273,2268.8197811445098,-0.06,-2.448,-7.182,-8.625
0.2,549996593.976403,2.8980522156,12416.523075924119,2242.3324402965736,-0.103,-2.491,-7.226,-8.669
0.2,549996593.976403,2.8980579376,12618.275345906706,2232.02985857428,-0.12,-2.507,-7.241,-8.684
0.2,549996593.976403,2.8980648518,12647.363474711523,2227.9220921849096,-0.132,-2.516,-7.246,-8.687
0.2,549996593.976403,2.8980648518,17060.823890031243,2046.444636724674,-0.469,-2.847,-7.569,-9.009
0.2,549996593.976403,2.8980653286,13335.21432163324,2194.8255137007213,-0.203,-2.58,-7.302,-8.742
0.2,549996593.976403,2.8980660439,10069.316688518044,2379.0304458806236,0.103,-2.274,-6.995,-8.435
0.2,549996593.976403,2.8980674744,7816.278045883293,2556.2304271125454,0.335,-2.024,-6.715,-8.151
0.2,549996593.976403,2.8980691433,8394.599865193974,2505.5322664819487,0.276,-2.091,-6.796,-8.234
0.2,549996593.976403,2.8980717659,9705.099672454899,2404.916488744403,0.136,-2.239,-6.956,-8.396
0.2,549996593.976403,2.8980748653,11066.237839776653,2317.39464996848,-0.01,-2.383,-7.098,-8.537
0.2,549996593.976403,2.8980789185,12050.359403717986,2263.6016404497495,-0.105,-2.477,-7.189,-8.628
0.2,549996593.976403,2.8980836868,12531.411749414156,2240.2681265938704,-0.154,-2.523,-7.232,-8.67
0.2,549996593.976403,2.8980894089,12705.74105208542,2234.6010577312236,-0.176,-2.541,-7.246,-8.683
0.2,549996593.976403,2.8980958462,12735.030810166629,2236.145198722521,-0.189,-2.551,-7.25,-8.686
0.2,549996593.976403,2.8980958462,17218.685749860062,2049.2738583802447,-0.518,-2.879,-7.577,-9.013
0.2,549996593.976403,2.898096323,13489.628825916532,2200.3917096373975,-0.253,-2.614,-7.312,-8.747
0.2,549996593.976403,2.8980970383,10185.91388054117,2388.361160084188,0.051,-2.309,-7.007,-8.443
0.2,549996593.976403,2.8980982304,7925.013304804718,2572.76429534678,0.298,-2.05,-6.729,-8.162
0.2,549996593.976403,2.8981001377,8491.804750363135,2524.6431459482487,0.237,-2.119,-6.809,-8.244
0.2,549996593.976403,2.8981025219,9817.479430199845,2427.168907038695,0.087,-2.271,-6.966,-8.401
0.2,549996593.976403,2.8981056213,11168.632477805611,2345.308621200276,-0.056,-2.413,-7.106,-8.541
0.2,549996593.976403,2.8981091976,12133.888504649762,2299.8525866862005,-0.149,-2.504,-7.196,-8.63
0.2,549996593.976403,2.8981137276,12618.275345906706,2288.2317115750116,-0.195,-2.549,-7.237,-8.671
0.2,549996593.976403,2.8981192112,12764.388088113436,2297.735319360636,-0.214,-2.566,-7.251,-8.685
0.2,549996593.976403,2.8981254101,12823.305826560205,2319.5300325477847,-0.224,-2.573,-7.255,-8.688
0.2,549996593.976403,2.8981254101,17378.00828749376,2117.3858184864025,-0.555,-2.904,-7.587,-9.02
0.2,549996593.976403,2.8981258869,13645.831365889238,2276.6695553309037,-0.291,-2.64,-7.322,-8.755
0.2,549996593.976403,2.8981266022,10303.861204416158,2476.851675793545,0.013,-2.336,-7.019,-8.451
0.2,549996593.976403,2.8981277943,7998.342550070284,2678.5514945323343,0.157,-2.148,-6.723,-8.179
0.2,549996593.976403,2.8981294632,8570.378452303692,2630.2679918953813,0.161,-2.169,-6.808,-8.239
0.2,549996593.976403,2.898131609,9840.111057611335,2528.133479834113,0.063,-2.285,-6.968,-8.4
0.2,549996593.976403,2.89813447,11117.317272815919,2443.430552693971,-0.07,-2.419,-7.101,-8.534
0.2,549996593.976403,2.8981380463,11994.993031493781,2401.596267885697,-0.153,-2.501,-7.183,-8.616
0.2,549996593.976403,2.8981423378,12387.965865303691,2403.8092387463303,-0.187,-2.536,-7.218,-8.65
0.2,549996593.976403,2.8981473446,12445.146117713844,2441.1811060548894,-0.194,-2.542,-7.224,-8.657
0.2,549996593.976403,2.8981533051,12387.965865303691,2508.9961794654014,-0.189,-2.538,-7.219,-8.652
0.2,549996593.976403,2.8981533051,16904.409316432633,2230.4885593776094,-0.525,-2.873,-7.554,-8.987
0.2,549996593.976403,2.8981537819,13273.944577297401,2443.9932381496833,-0.262,-2.61,-7.292,-8.725
0.2,549996593.976403,2.8981542587,10046.157902783947,2710.1916318908416,-0.129,-2.425,-6.968,-8.429
0.2,549996593.976403,2.8981554508,7798.3011052325855,2970.297844017863,-0.454,-2.575,-6.655,-8.105
0.2,549996593.976403,2.8981568813,8356.030182312483,2880.0498174428562,-0.317,-2.504,-6.756,-8.229
0.2,549996593.976403,2.8981590271,9594.006315159337,2725.2101638491986,-0.116,-2.4,-6.913,-8.373
0.2,549996593.976403,2.8981616497,10839.269140212038,2601.3572566531325,-0.047,-2.394,-7.073,-8.506
0.2,549996593.976403,2.8981649876,11721.953655481304,2533.9614293978393,-0.128,-2.476,-7.157,-8.59
0.2,549996593.976403,2.8981690407,12105.981335504828,2517.097277959783,-0.165,-2.512,-7.193,-8.626
0.2,549996593.976403,2.8981735706,12217.99660164871,2537.4646458649645,-0.174,-2.522,-7.203,-8.635
0.2,549996593.976403,2.8981790543,12217.99660164871,2587.021273464604,-0.174,-2.521,-7.202,-8.635
0.2,549996593.976403,2.8981790543,16672.472125510645,2371.373705661655,-0.513,-2.86,-7.541,-8.973
0.2,549996593.976403,2.8981795311,13121.998990192042,2536.8804402999413,-0.251,-2.599,-7.28,-8.712
0.2,549996593.976403,2.8981800079,9954.054173515275,2739.6810135310225,-0.19,-2.463,-6.948,-8.406
0.2,549996593.976403,2.8981812,7709.034690644301,2941.033693747309,-0.375,-2.514,-6.647,-8.106
0.2,549996593.976403,2.8981826305,8260.379495771784,2889.348981559081,-0.327,-2.508,-6.744,-8.216
0.2,549996593.976403,2.8981847763,9462.37161365793,2793.1869222539713,-0.243,-2.486,-6.89,-8.359
0.2,549996593.976403,2.8981873989,10665.961212302567,2724.58273325773,-0.23,-2.514,-7.028,-8.488
0.2,549996593.976403,2.8981907368,11481.536214968817,2707.6966023304954,-0.27,-2.567,-7.114,-8.575
0.2,549996593.976403,2.8981947899,11857.687481671597,2744.100418256573,-0.391,-2.66,-7.136,-8.594
0.2,549996593.976403,2.8981993198,11912.420080273738,2831.391995799379,-0.577,-2.798,-7.143,-8.618
0.2,549996593.976403,2.8982048035,11885.022274370189,2972.3503619120297,-0.919,-3.04,-7.118,-8.567
