FeH,Age,Mini,L,Te,Bmag,Vmag,Jmag,Kmag
-0.4,149999565.138204,0.0899999961,0.0014757065332758946,2737.789162430076,17.467,15.673,9.793,8.965
-0.4,149999565.138204,0.0905438662,0.001492794409578996,2741.5741719278835,17.438,15.647,9.784,8.956
-0.4,149999565.138204,0.0969263539,0.0016749428760264382,2783.556237577426,17.105,15.338,9.673,8.842
-0.4,149999565.138204,0.0992661342,0.001745822152920504,2798.981319634363,16.985,15.226,9.635,8.802
-0.4,149999565.138204,0.1072125584,0.001995262314968879,2847.7378001737457,16.608,14.871,9.51,8.673
-0.4,149999565.138204,0.117075637,0.002338837238659356,2910.046977837714,16.157,14.443,9.362,8.522
-0.4,149999565.138204,0.1177984104,0.002360478233180578,2914.741201472475,16.125,14.413,9.352,8.512
-0.4,149999565.138204,0.1216924116,0.0024945947269429535,2934.269503955967,15.984,14.28,9.301,8.461
-0.4,149999565.138204,0.136330694,0.0030338911841942717,3007.460970731941,15.478,13.801,9.116,8.275
-0.4,149999565.138204,0.1367478669,0.003047894989627983,3008.846276645727,15.465,13.79,9.111,8.27
-0.4,149999565.138204,0.1548629701,0.00377572190925416,3081.768416611512,14.958,13.304,8.909,8.068
-0.4,149999565.138204,0.1581275016,0.003899419866765436,3092.430870441563,14.883,13.233,8.877,8.036
-0.4,149999565.138204,0.1919275075,0.005407543229455809,3195.9501748147595,14.204,12.593,8.558,7.721
-0.4,149999565.138204,0.228363812,0.007211074791828998,3285.4888677097247,13.648,12.065,8.279,7.443
-0.4,149999565.138204,0.2382582128,0.007780365510398041,3307.5011205925434,13.507,11.932,8.204,7.368
-0.4,149999565.138204,0.2446707636,0.008165823713585922,3320.4733579750687,13.425,11.855,8.157,7.321
-0.4,149999565.138204,0.2845888734,0.010789467222298286,3393.1261016293192,12.955,11.417,7.878,7.044
-0.4,149999565.138204,0.3309195936,0.01452111617587742,3473.761519726527,12.466,10.961,7.582,6.748
-0.4,149999565.138204,0.377250284,0.01981527025805098,3563.6906696823603,11.959,10.488,7.274,6.439
-0.4,149999565.138204,0.4235809743,0.027605778562203462,3679.594830147843,11.405,9.971,6.957,6.119
-0.4,149999565.138204,0.4307390749,0.029241523778433354,3706.80721782576,11.301,9.873,6.904,6.065
-0.4,149999565.138204,0.4699116945,0.03881503659906482,3826.484865951097,10.82,9.433,6.634,5.798
-0.4,149999565.138204,0.4760306478,0.040644332916521274,3850.3481467861507,10.738,9.358,6.593,5.758
-0.4,149999565.138204,0.5061569214,0.05011872336272722,3950.026415978837,10.38,9.036,6.394,5.564
-0.4,149999565.138204,0.5162423849,0.053579665751334174,3979.2387763422494,10.274,8.941,6.332,5.503
-0.4,149999565.138204,0.5439806581,0.06412095765851615,4071.927154442865,9.962,8.668,6.16,5.338
-0.4,149999565.138204,0.5625730157,0.07396052750582378,4155.277190204325,9.706,8.449,6.025,5.213
-0.4,149999565.138204,0.6089037657,0.10616955571987247,4397.440784473689,9.006,7.873,5.693,4.927
-0.4,149999565.138204,0.6552344561,0.14962356560944334,4664.445252037798,8.297,7.305,5.396,4.708
-0.4,149999565.138204,0.7015650868,0.20796966871036954,4927.19783211614,7.685,6.8,5.116,4.514
-0.4,149999565.138204,0.7215074301,0.23768402866248767,5036.16557436085,7.453,6.606,5.005,4.435
-0.4,149999565.138204,0.7514939904,0.2877398414735669,5205.950088015483,7.129,6.336,4.852,4.328
-0.4,149999565.138204,0.8014228344,0.3881503659906483,5452.554309382917,6.663,5.943,4.608,4.146
-0.4,149999565.138204,0.8769251108,0.5942921586155726,5784.955199650903,6.05,5.422,4.259,3.867
-0.4,149999565.138204,0.8863561749,0.6223002851691595,5825.054593417401,5.983,5.366,4.223,3.839
-0.4,149999565.138204,0.9012805223,0.6698846094165264,5887.080847020434,5.878,5.279,4.164,3.791
-0.4,149999565.138204,0.9124256968,0.7128530301265196,5926.523352402157,5.797,5.209,4.113,3.748
-0.4,149999565.138204,0.9201888442,0.744731973905989,5953.878941276854,5.739,5.159,4.076,3.716
-0.4,149999565.138204,0.9376363158,0.8090958991783823,6018.662628995737,5.623,5.062,4.008,3.661
-0.4,149999565.138204,0.9512093663,0.8629785477669702,6068.760518768,5.535,4.989,3.958,3.619
-0.4,149999565.138204,1.0011382103,1.101539309541415,6237.348354824191,5.216,4.716,3.755,3.446
-0.4,149999565.138204,1.0510671139,1.3931568029453032,6395.875480508257,4.912,4.452,3.554,3.269
-0.4,149999565.138204,1.0747784376,1.5488166189124815,6469.9362280868145,4.777,4.335,3.466,3.192
-0.4,149999565.138204,1.1009960175,1.733803997754138,6550.885369386104,4.633,4.209,3.371,3.108
-0.4,149999565.138204,1.1509248018,2.1428906011200586,6708.107287992274,4.365,3.974,3.196,2.957
-0.4,149999565.138204,1.2008537054,2.6061535499988953,6870.684400142324,4.115,3.754,3.036,2.819
-0.4,149999565.138204,1.2507824898,3.1405086938762174,7051.800218620772,3.874,3.544,2.892,2.7
-0.4,149999565.138204,1.3007112741,3.749730022454835,7262.731687606836,3.643,3.345,2.769,2.603
-0.4,149999565.138204,1.3506404161,4.436086439314326,7517.95981512007,3.419,3.157,2.669,2.532
-0.4,149999565.138204,1.4005692005,5.211947111050804,7796.505686758154,3.205,2.979,2.583,2.476
-0.4,149999565.138204,1.4504979849,6.095368972401692,8079.78863683088,3.001,2.811,2.503,2.422
-0.4,149999565.138204,1.5004268885,7.06317554262962,8354.106356756141,2.814,2.66,2.43,2.37
-0.4,149999565.138204,1.5503555536,8.147042840208396,8619.85578705759,2.646,2.527,2.363,2.319
-0.4,149999565.138204,1.5656565428,8.511380382023766,8699.614330652674,2.599,2.489,2.343,2.304
-0.4,149999565.138204,1.6002845764,9.35405674147552,8879.734893257664,2.499,2.409,2.299,2.269
-0.4,149999565.138204,1.6502133608,10.665961212302578,9128.51219331122,2.369,2.303,2.237,2.218
-0.4,149999565.138204,1.7001422644,12.078138351067803,9366.988779521162,2.253,2.206,2.176,2.167
-0.4,149999565.138204,1.7500711679,13.645831365889245,9591.797467879695,2.145,2.115,2.115,2.115
-0.4,149999565.138204,1.7999999523,15.346169827992941,9803.925446044208,2.045,2.029,2.054,2.061
-0.4,149999565.138204,1.8474507332,17.060823890031234,9995.395890030879,1.955,1.951,1.997,2.01
-0.4,149999565.138204,1.8949013948,18.92343618644975,10178.880130154219,1.868,1.876,1.938,1.957
-0.4,149999565.138204,1.9423522949,20.941124558508925,10356.189770449864,1.786,1.803,1.881,1.904
-0.4,149999565.138204,1.9898030758,23.12064790175595,10526.88794382504,1.706,1.732,1.824,1.852
-0.4,149999565.138204,2.0372538567,25.468302525850405,10697.936112908474,1.628,1.662,1.768,1.799
-0.4,149999565.138204,2.0847046375,27.98981319634363,10861.754936708858,1.553,1.593,1.712,1.747
-0.4,149999565.138204,2.1321556568,30.69021988391158,11023.004888112024,1.479,1.526,1.655,1.694
-0.4,149999565.138204,2.1796064377,33.57376142429547,11181.498245842185,1.408,1.459,1.6,1.642
-0.4,149999565.138204,2.2255544662,36.643757464783334,11331.828679306933,1.339,1.396,1.546,1.591
-0.4,149999565.138204,2.2270572186,36.72823004980846,11337.048381054106,1.337,1.394,1.545,1.59
-0.4,149999565.138204,2.2308754921,36.982817978026624,11347.494998601087,1.332,1.389,1.54,1.586
-0.4,149999565.138204,2.274507761,40.08667176273028,11486.824875461094,1.268,1.33,1.489,1.538
-0.4,149999565.138204,2.3219587803,43.752210515825205,11635.900529847599,1.201,1.266,1.435,1.486
-0.4,149999565.138204,2.3694093227,47.533522594280534,11781.484060029261,1.134,1.204,1.381,1.435
-0.4,149999565.138204,2.4738862514,56.88529308438413,12094.836447839445,0.994,1.072,1.266,1.325
-0.4,149999565.138204,2.5592126846,65.61452663029053,12342.410879360523,0.882,0.965,1.172,1.235
-0.4,149999565.138204,2.6652755737,78.16278045883297,12638.630002312535,0.744,0.833,1.055,1.123
-0.4,149999565.138204,2.7490158081,89.53647655495938,12858.786926344006,0.634,0.728,0.961,1.032
-0.4,149999565.138204,2.824160099,100.69316688518045,13049.68414130222,0.538,0.636,0.877,0.951
-0.4,149999565.138204,2.93881917,120.50359403717974,13322.937789769398,0.39,0.493,0.746,0.824
-0.4,149999565.138204,3.0296111107,138.3566378971781,13523.83925252649,0.274,0.381,0.642,0.723
-0.4,149999565.138204,3.1286220551,160.69412530128773,13727.770182085485,0.145,0.256,0.526,0.609
-0.4,149999565.138204,3.1582460403,167.88040181225605,13787.959529688575,0.106,0.218,0.491,0.575
-0.4,149999565.138204,3.2546517849,194.08858775927774,13954.041170406164,-0.025,0.091,0.37,0.456
-0.4,149999565.138204,3.3184256554,213.79620895022325,14050.765962943866,-0.114,0.004,0.287,0.374
-0.4,149999565.138204,3.3448500633,222.3309890651403,14086.399463612548,-0.15,-0.032,0.253,0.34
-0.4,149999565.138204,3.4253752232,250.6109253032114,14184.041720008547,-0.265,-0.144,0.144,0.233
-0.4,149999565.138204,3.4986371994,279.2543841237339,14256.075936021878,-0.372,-0.25,0.041,0.13
-0.4,149999565.138204,3.5082285404,283.7919028441555,14259.358896765678,-0.388,-0.265,0.026,0.115
-0.4,149999565.138204,3.5662124157,309.7419299216581,14282.360800191824,-0.48,-0.356,-0.065,0.025
-0.4,149999565.138204,3.6456208229,349.1403154785863,14285.649813946115,-0.612,-0.488,-0.196,-0.106
-0.4,149999565.138204,3.6980316639,378.44258471709315,14265.927086477452,-0.703,-0.578,-0.288,-0.198
-0.4,149999565.138204,3.7580111027,414.95404263436285,14210.19376996005,-0.813,-0.688,-0.401,-0.312
-0.4,149999565.138204,3.8140377998,453.94161665020323,14112.371484118521,-0.926,-0.802,-0.518,-0.43
-0.4,149999565.138204,3.8829367161,505.82466200311427,13944.40538871461,-1.074,-0.951,-0.675,-0.589
-0.4,149999565.138204,3.8878350258,510.50499997540646,13925.153782328032,-1.086,-0.963,-0.688,-0.602
-0.4,149999565.138204,3.9358799458,550.8076964054036,13753.080974214517,-1.2,-1.079,-0.811,-0.728
-0.4,149999565.138204,3.9791119099,592.9253245799999,13548.774043797532,-1.313,-1.195,-0.936,-0.855
-0.4,149999565.138204,4.0221447945,636.7955209079155,13310.672559803745,-1.434,-1.319,-1.07,-0.993
-0.4,149999565.138204,4.0569076538,679.2036326171843,13097.849623996874,-1.54,-1.427,-1.189,-1.114
-0.4,149999565.138204,4.0776381493,707.945784384138,12995.709656617142,-1.603,-1.492,-1.258,-1.185
-0.4,149999565.138204,4.0979328156,736.2070974947361,12894.366199598717,-1.665,-1.555,-1.326,-1.255
-0.4,149999565.138204,4.1002416611,739.6052750582381,12885.462162679734,-1.672,-1.562,-1.333,-1.262
-0.4,149999565.138204,4.1070761681,756.8328950209744,12983.745676148234,-1.679,-1.567,-1.334,-1.261
-0.4,149999565.138204,4.1195878983,794.3282347242813,13304.5441797809,-1.677,-1.56,-1.313,-1.235
-0.4,149999565.138204,4.1230950356,818.4647881347895,13608.178583624549,-1.657,-1.536,-1.276,-1.195
-0.4,149999565.138204,4.124756813,845.27884516029,13931.568029453036,-1.637,-1.512,-1.237,-1.152
-0.4,149999565.138204,4.1256246567,874.9837752274364,14252.793731120704,-1.622,-1.492,-1.204,-1.115
-0.4,149999565.138204,4.1261334419,907.8205301781861,14544.54032238608,-1.613,-1.479,-1.18,-1.087
-0.4,149999565.138204,4.1264362335,928.9663867799363,14740.08540973811,-1.608,-1.471,-1.165,-1.07
-0.4,149999565.138204,4.1265630722,899.4975815300355,14598.223215980566,-1.593,-1.459,-1.157,-1.064
-0.4,149999565.138204,4.1267399788,849.1804750363135,14292.23011386095,-1.583,-1.452,-1.163,-1.073
-0.4,149999565.138204,4.1268701553,827.9421637123345,13992.65092781588,-1.604,-1.478,-1.201,-1.114
-0.4,149999565.138204,4.1270365715,827.9421637123345,13623.854600308337,-1.667,-1.545,-1.284,-1.202
-0.4,149999565.138204,4.1272201538,851.1380382023768,13270.888490464991,-1.759,-1.642,-1.396,-1.32
-0.4,149999565.138204,4.1274232864,881.0488730080137,12924.090783552398,-1.857,-1.745,-1.515,-1.443
-0.4,149999565.138204,4.1276421547,905.7326008981998,12583.457886902854,-1.946,-1.839,-1.627,-1.56
-0.4,149999565.138204,4.1278700829,922.5714271547629,12248.982100319983,-2.026,-1.924,-1.729,-1.667
-0.4,149999565.138204,4.1281046867,935.4056741475521,11926.14265855822,-2.098,-2.002,-1.824,-1.768
-0.4,149999565.138204,4.1283421516,944.0608762859235,11611.812112009393,-2.164,-2.073,-1.914,-1.863
-0.4,149999565.138204,4.1285791397,948.4184633008969,11305.766196570781,-2.226,-2.14,-2.0,-1.954
-0.4,149999565.138204,4.1288127899,952.7961640236521,11007.786558940741,-2.283,-2.203,-2.082,-2.042
-0.4,149999565.138204,4.1290416718,952.7961640236521,10715.193052376071,-2.336,-2.262,-2.161,-2.128
-0.4,149999565.138204,4.1292629242,950.6047936562819,10432.778814599651,-2.386,-2.318,-2.238,-2.211
-0.4,149999565.138204,4.1294755936,948.4184633008969,10155.469355496996,-2.432,-2.37,-2.312,-2.292
-0.4,149999565.138204,4.1296787262,944.0608762859235,9885.53094656939,-2.474,-2.419,-2.385,-2.372
-0.4,149999565.138204,4.1298723221,937.5620069258802,9622.767660923992,-2.51,-2.465,-2.456,-2.451
-0.4,149999565.138204,4.1300563812,931.10787546783,9364.832198943204,-2.542,-2.507,-2.526,-2.53
-0.4,149999565.138204,4.1302304268,922.5714271547629,9115.909395361672,-2.567,-2.545,-2.594,-2.607
-0.4,149999565.138204,4.1303949356,914.1132414702499,8871.560120379609,-2.586,-2.578,-2.661,-2.684
-0.4,149999565.138204,4.1305499077,905.7326008981998,8635.74878170381,-2.597,-2.606,-2.726,-2.76
-0.4,149999565.138204,4.1306962967,895.3647655495937,8404.270070999399,-2.597,-2.626,-2.789,-2.835
-0.4,149999565.138204,4.1308336258,885.1156098308356,8178.996079175055,-2.585,-2.638,-2.85,-2.91
-0.4,149999565.138204,4.1309628487,872.9713683881113,7959.760490562859,-2.563,-2.642,-2.908,-2.984
-0.4,149999565.138204,4.1310839653,860.9937521846008,7744.617978025183,-2.529,-2.639,-2.965,-3.059
-0.4,149999565.138204,4.1311984062,849.1804750363135,7537.025766884261,-2.482,-2.628,-3.02,-3.133
-0.4,149999565.138204,4.1313056946,837.5292821268827,7334.998004015493,-2.426,-2.614,-3.075,-3.208
-0.4,149999565.138204,4.1314063072,824.1381150130021,7136.742051224741,-2.363,-2.594,-3.127,-3.283
-0.4,149999565.138204,4.1315021515,810.9610578538404,6945.443775834018,-2.296,-2.57,-3.177,-3.357
-0.4,149999565.138204,4.1315917969,797.9946872679768,6757.716993552864,-2.227,-2.542,-3.224,-3.43
-0.4,149999565.138204,4.1316766739,785.2356346100718,6576.578373554205,-2.153,-2.509,-3.268,-3.501
-0.4,149999565.138204,4.1317572594,772.6805850957021,6398.821568325593,-2.073,-2.475,-3.311,-3.572
-0.4,149999565.138204,4.1318335533,758.5775750291835,6227.303034831227,-1.987,-2.437,-3.351,-3.642
-0.4,149999565.138204,4.1319065094,744.7319739059889,6060.382005270666,-1.897,-2.396,-3.389,-3.71
-0.4,149999565.138204,4.1319770813,731.1390834834173,5904.729404069866,-1.8,-2.352,-3.426,-3.78
-0.4,149999565.138204,4.1320495605,716.143410212902,5753.074526484432,-1.704,-2.304,-3.454,-3.841
-0.4,149999565.138204,4.1321306229,696.6265141107687,5605.314696465377,-1.597,-2.248,-3.475,-3.895
-0.4,149999565.138204,4.1322240829,674.5280276979222,5470.159628939716,-1.486,-2.182,-3.483,-3.935
-0.4,149999565.138204,4.1323580742,639.7348354826482,5329.666080102771,-1.342,-2.09,-3.471,-3.957
-0.4,149999565.138204,4.1324858665,606.7363295885053,5223.9618899911975,-1.217,-2.004,-3.449,-3.961
-0.4,149999565.138204,4.132625103,578.0960474057181,5121.53329024499,-1.096,-1.922,-3.429,-3.969
-0.4,149999565.138204,4.1327753067,559.7576014951104,5019.957033789469,-0.987,-1.853,-3.426,-3.994
-0.4,149999565.138204,4.1328320503,567.5446054085471,4983.104559705293,-0.973,-1.854,-3.452,-4.031
-0.4,149999565.138204,4.1329917908,606.7363295885053,4883.149268098355,-0.96,-1.886,-3.554,-4.162
-0.4,149999565.138204,4.1330981255,648.6344335482381,4820.587829837399,-0.974,-1.934,-3.647,-4.271
-0.4,149999565.138204,4.1332111359,706.3175542629623,4763.212971455834,-1.004,-2.003,-3.756,-4.395
-0.4,149999565.138204,4.1333298683,765.5966069112561,4716.284552998378,-1.038,-2.069,-3.857,-4.509
-0.4,149999565.138204,4.1334886551,835.6030182312483,4668.743343920188,-1.079,-2.143,-3.968,-4.633
-0.4,149999565.138204,4.1335473061,855.0667128846832,4656.933110262015,-1.09,-2.162,-3.997,-4.665
-0.4,149999565.138204,4.1335763931,864.967918775693,4650.503761666063,-1.096,-2.172,-4.011,-4.681
-0.4,149999565.138204,4.1336097717,874.9837752274364,4645.152752227492,-1.1,-2.18,-4.024,-4.695
-0.4,149999565.138204,4.1340084076,974.9896377173867,4589.865930219982,-1.151,-2.271,-4.159,-4.846
-0.4,149999565.138204,4.1344065666,1073.989412341245,4545.6919358492405,-1.199,-2.352,-4.276,-4.976
-0.4,149999565.138204,4.1348371506,1188.502227437019,4500.906591456169,-1.25,-2.436,-4.397,-5.112
-0.4,149999565.138204,4.1352353096,1306.1708881318418,4463.75140604447,-1.299,-2.514,-4.508,-5.235
-0.4,149999565.138204,4.13560009,1419.0575216890927,4430.982144892989,-1.343,-2.58,-4.608,-5.348
-0.4,149999565.138204,4.1360311508,1566.7510701081485,4393.3924564447625,-1.396,-2.658,-4.725,-5.479
-0.4,149999565.138204,4.1367959976,1778.2794100389228,4349.106072324534,-1.465,-2.759,-4.874,-5.645
-0.4,149999565.138204,4.1374435425,1832.314422371211,4337.105635004415,-1.481,-2.783,-4.91,-5.687
-0.4,149999565.138204,4.1476421356,1671.090614310707,4380.261111703606,-1.445,-2.718,-4.799,-5.558
-0.4,149999565.138204,4.1540369987,1548.816618912481,4414.687837052633,-1.411,-2.661,-4.707,-5.452
-0.4,149999565.138204,4.1587891579,1442.1153515248682,4446.312674691088,-1.379,-2.609,-4.622,-5.355
-0.4,149999565.138204,4.1634216309,1336.5955165464418,4480.226804128664,-1.343,-2.55,-4.529,-5.249
-0.4,149999565.138204,4.1677913666,1235.9474334445108,4515.439211278319,-1.306,-2.488,-4.437,-5.145
-0.4,149999565.138204,4.1729245186,1132.4003632355566,4557.220055886471,-1.266,-2.416,-4.329,-5.025
-0.4,149999565.138204,4.1786007881,1039.920165829059,4602.565735813559,-1.229,-2.347,-4.224,-4.905
-0.4,149999565.138204,4.1867017746,950.6047936562819,4663.37134746993,-1.206,-2.283,-4.111,-4.774
-0.4,149999565.138204,4.197640419,895.3647655495937,4739.145036236972,-1.226,-2.252,-4.024,-4.667
-0.4,149999565.138204,4.2002372742,893.3054837332954,4757.732275412047,-1.242,-2.256,-4.015,-4.652
-0.4,149999565.138204,4.2066688538,920.4495717531712,4819.477976251272,-1.339,-2.314,-4.031,-4.652
-0.4,149999565.138204,4.2126870155,981.7479430199844,4905.6888610179985,-1.484,-2.419,-4.075,-4.672
-0.4,149999565.138204,4.2159194946,1044.7202192208003,4993.441887213498,-1.623,-2.522,-4.117,-4.687
-0.4,149999565.138204,4.2184472084,1104.0786199020736,5099.175975748702,-1.764,-2.619,-4.145,-4.685
-0.4,149999565.138204,4.2205681801,1153.4532578210917,5219.152658354482,-1.9,-2.705,-4.154,-4.663
-0.4,149999565.138204,4.2224793434,1193.9881044642732,5380.219571891122,-2.045,-2.787,-4.14,-4.609
-0.4,149999565.138204,4.2239294052,1224.6161992650489,5536.049950434,-2.169,-2.85,-4.114,-4.547
-0.4,149999565.138204,4.2252030373,1247.3835142429432,5692.460162787103,-2.28,-2.903,-4.082,-4.478
-0.4,149999565.138204,4.2263565063,1270.5741052085418,5846.554467527501,-2.378,-2.948,-4.047,-4.41
-0.4,149999565.138204,4.2275266647,1288.2495516931335,6003.437587325644,-2.475,-2.99,-4.007,-4.336
-0.4,149999565.138204,4.2287688255,1309.181922999407,6168.790197459376,-2.567,-3.03,-3.964,-4.261
-0.4,149999565.138204,4.2301158905,1330.4544179780914,6337.237741643961,-2.653,-3.066,-3.922,-4.19
-0.4,149999565.138204,4.2316398621,1348.9628825916532,6511.784205461806,-2.735,-3.1,-3.878,-4.118
-0.4,149999565.138204,4.2333779335,1370.8817661648536,6688.057526849241,-2.81,-3.132,-3.834,-4.046
-0.4,149999565.138204,4.2354097366,1393.1568029453035,6854.882264526614,-2.877,-3.159,-3.792,-3.981
-0.4,149999565.138204,4.2388606071,1419.0575216890927,7042.064523312069,-2.951,-3.188,-3.747,-3.912
-0.4,149999565.138204,4.2422680855,1438.798578255845,7113.772954721317,-2.984,-3.204,-3.736,-3.892
-0.4,149999565.138204,4.2461929321,1448.7718535447616,7063.175542629623,-2.98,-3.212,-3.762,-3.924
-0.4,149999565.138204,4.263282299,1510.0801541641476,6910.349294049405,-2.984,-3.251,-3.861,-4.042
-0.4,149999565.138204,4.2674422264,1524.0527537972907,6867.521061488186,-2.983,-3.26,-3.886,-4.073
-0.4,149999565.138204,4.2773079872,1559.552502826954,6743.727297598055,-2.97,-3.277,-3.953,-4.157
-0.4,149999565.138204,4.284558773,1577.6112696993484,6594.775259494848,-2.937,-3.28,-4.019,-4.245
-0.4,149999565.138204,4.289973259,1588.546748597779,6431.3182363545175,-2.887,-3.273,-4.083,-4.334
-0.4,149999565.138204,4.2939658165,1592.20872705117,6277.691938382178,-2.83,-3.259,-4.14,-4.417
-0.4,149999565.138204,4.2972717285,1595.879147236732,6120.684588704598,-2.765,-3.241,-4.196,-4.5
-0.4,149999565.138204,4.2999753952,1592.20872705117,5964.856499193778,-2.687,-3.216,-4.251,-4.587
-0.4,149999565.138204,4.3020539284,1588.546748597779,5827.7377479636825,-2.614,-3.192,-4.299,-4.664
-0.4,149999565.138204,4.3042969704,1584.893192461114,5676.753024298228,-2.529,-3.161,-4.347,-4.746
-0.4,149999565.138204,4.3063836098,1573.9828644662198,5523.317388872846,-2.432,-3.123,-4.394,-4.828
-0.4,149999565.138204,4.3086204529,1559.552502826954,5344.412855743935,-2.305,-3.068,-4.443,-4.919
-0.4,149999565.138204,4.3103790283,1534.6169827992942,5204.751511705225,-2.192,-3.012,-4.472,-4.982
-0.4,149999565.138204,4.3116617203,1506.6070661867418,5096.828259054277,-2.091,-2.958,-4.486,-5.025
-0.4,149999565.138204,4.3131713867,1455.4590805819653,4976.224899734694,-1.958,-2.877,-4.487,-5.059
-0.4,149999565.138204,4.3145670891,1396.3683610559376,4870.796664925371,-1.822,-2.788,-4.472,-5.075
-0.4,149999565.138204,4.3160710335,1333.521432163324,4765.407017251339,-1.671,-2.696,-4.452,-5.084
-0.4,149999565.138204,4.3178129196,1315.224832192239,4652.645890999017,-1.532,-2.632,-4.469,-5.132
-0.4,149999565.138204,4.3188037872,1389.9526312133526,4559.319216592223,-1.48,-2.645,-4.554,-5.244
-0.4,149999565.138204,4.3188867569,1412.537544622754,4544.645372095089,-1.479,-2.654,-4.574,-5.269
-0.4,149999565.138204,4.3189496994,1458.814260275349,4524.806378555487,-1.489,-2.676,-4.615,-5.317
-0.4,149999565.138204,4.3190698624,1584.893192461114,4480.226804128664,-1.519,-2.734,-4.716,-5.435
-0.4,149999565.138204,4.3192920685,1674.9428760264382,4456.562483975033,-1.546,-2.777,-4.783,-5.51
-0.4,149999565.138204,4.3197793961,1621.8100973589299,4468.89344919767,-1.528,-2.751,-4.744,-5.467
-0.4,149999565.138204,4.3200688362,1721.8685749860078,4435.065110253052,-1.548,-2.792,-4.819,-5.555
-0.4,149999565.138204,4.3203134537,1883.6490894898002,4394.404188918088,-1.586,-2.858,-4.927,-5.679
-0.4,149999565.138204,4.3205909729,2055.8905959841427,4355.118736855684,-1.625,-2.923,-5.033,-5.801
-0.4,149999565.138204,4.3209443092,2249.0546058357804,4318.172626237272,-1.665,-2.987,-5.138,-5.922
-0.4,149999565.138204,4.3213839531,2460.3676041476274,4281.539943374177,-1.704,-3.052,-5.244,-6.043
-0.4,149999565.138204,4.3219184875,2691.5348039269165,4245.2180293408355,-1.743,-3.116,-5.351,-6.165
-0.4,149999565.138204,4.3225355148,2951.209226666387,4209.2042477683635,-1.782,-3.181,-5.458,-6.288
-0.4,149999565.138204,4.3231835365,3235.936569296281,4173.495984653169,-1.82,-3.246,-5.567,-6.413
-0.4,149999565.138204,4.3238010406,3548.133892335753,4139.996748197304,-1.855,-3.308,-5.676,-6.537
-0.4,149999565.138204,4.3243618011,3890.4514499428046,4107.712125533876,-1.89,-3.37,-5.783,-6.659
-0.4,149999565.138204,4.3248672485,4265.795188015925,4075.6792655948925,-1.925,-3.432,-5.889,-6.781
-0.4,149999565.138204,4.3253245354,4677.351412871981,4045.7589169744288,-1.96,-3.492,-5.996,-6.902
-0.4,149999565.138204,4.32573843,5116.818355403078,4012.360995991895,-1.989,-3.549,-6.102,-7.024
-0.4,149999565.138204,4.3261208534,5610.479760324706,3979.2387763422494,-2.017,-3.604,-6.208,-7.146
-0.4,149999565.138204,4.3264784813,6137.620051647939,3946.3899820986467,-2.04,-3.653,-6.312,-7.267
-0.4,149999565.138204,4.326813221,6714.288529259523,3913.812356122119,-2.062,-3.702,-6.417,-7.389
-0.4,149999565.138204,4.3271260262,7345.138681571151,3881.5036599064824,-2.082,-3.749,-6.521,-7.51
-0.4,149999565.138204,4.3274173737,8035.261221856169,3848.57540415743,-2.094,-3.788,-6.626,-7.632
-0.4,149999565.138204,4.3276906013,8770.008211436349,3815.926491189337,-2.103,-3.824,-6.729,-7.752
-0.4,149999565.138204,4.3279542923,9594.006315159337,3783.5545512323115,-2.108,-3.853,-6.832,-7.871
-0.4,149999565.138204,4.3282079697,10471.285480508985,3749.730022454834,-2.107,-3.875,-6.937,-7.993
-0.4,149999565.138204,4.3284482956,11508.003889444357,3711.07729492926,-2.097,-3.89,-7.049,-8.125
-0.4,149999565.138204,4.328649044,12676.518658578449,3667.7523159949515,-2.065,-3.876,-7.166,-8.264
-0.4,149999565.138204,4.3288211823,13931.568029453036,3625.7679024119648,-2.033,-3.86,-7.279,-8.399
-0.4,149999565.138204,4.3289914131,15346.16982799294,3582.613845838672,-1.985,-3.816,-7.399,-8.538
-0.4,149999565.138204,4.3291478157,16788.040181225588,3542.4195826164946,-1.933,-3.767,-7.509,-8.668
-0.4,149999565.138204,4.3293085098,18365.383433483476,3501.063598465195,-1.854,-3.68,-7.622,-8.799
-0.4,149999565.138204,4.3294763565,19678.86289706843,3466.5702053333894,-1.777,-3.594,-7.709,-8.902
-0.4,149999565.138204,4.3296809196,18836.49089489802,3476.161938153812,-1.772,-3.591,-7.658,-8.847
-0.4,149999565.138204,4.3297171593,16710.90614310707,3524.5201677586315,-1.852,-3.681,-7.509,-8.676
-0.4,149999565.138204,4.3297286034,15452.54439538414,3557.132151345879,-1.901,-3.733,-7.413,-8.565
-0.4,149999565.138204,4.3297371864,14321.878992735425,3587.566830392618,-1.932,-3.76,-7.322,-8.459
-0.4,149999565.138204,4.329744339,13645.831365889238,3607.447338641916,-1.95,-3.776,-7.262,-8.39
-0.4,149999565.138204,4.3297595978,14288.939585111037,3589.2193464500533,-1.933,-3.76,-7.317,-8.454
-0.4,149999565.138204,4.3297710419,15275.660582380731,3561.2298094276216,-1.905,-3.736,-7.399,-8.549
-0.4,149999565.138204,4.3297905922,16255.48755750485,3535.0861336199705,-1.869,-3.7,-7.476,-8.638
-0.4,149999565.138204,4.3298158646,16481.62391525507,3528.5802582852702,-1.857,-3.686,-7.492,-8.658
-0.4,149999565.138204,4.3298358917,17498.466886246584,3503.482883015712,-1.813,-3.637,-7.567,-8.743
-0.4,149999565.138204,4.3298397064,17619.76046411631,3501.063598465195,-1.809,-3.633,-7.574,-8.752
-0.4,149999565.138204,4.3298516273,17619.76046411631,3501.063598465195,-1.809,-3.633,-7.574,-8.752
-0.4,149999565.138204,4.329852581,23988.329190194898,3373.6498087376713,-1.501,-3.254,-7.961,-9.194
-0.4,149999565.138204,4.3298521042,25644.840365177162,3346.5706661967974,-1.407,-3.133,-8.047,-9.29
-0.4,149999565.138204,4.3298535347,22233.098906514053,3403.2981684204196,-1.588,-3.366,-7.867,-9.088
-0.4,149999565.138204,4.329855442,17619.76046411631,3497.0351694345923,-1.796,-3.618,-7.578,-8.757
-0.4,149999565.138204,4.3298587799,14554.59080581967,3577.6676993611068,-1.912,-3.74,-7.341,-8.483
-0.4,149999565.138204,4.3298635483,16032.453906900417,3535.90021100387,-1.86,-3.69,-7.46,-8.623
-0.4,149999565.138204,4.329870224,17258.37891990204,3505.9038393261267,-1.808,-3.632,-7.55,-8.726
-0.4,149999565.138204,4.3298788071,18071.74126010926,3485.7802105603496,-1.773,-3.593,-7.608,-8.792
-0.4,149999565.138204,4.3298892975,18620.871366628657,3472.9617486579155,-1.749,-3.566,-7.646,-8.837
-0.4,149999565.138204,4.3299026489,19098.532585662368,3461.784268375584,-1.724,-3.536,-7.678,-8.873
-0.4,149999565.138204,4.3299183846,19633.602768360473,3449.848313627505,-1.694,-3.499,-7.712,-8.912
-0.4,149999565.138204,4.3299183846,31768.74070649769,3259.1173631348456,-1.024,-2.62,-8.323,-9.598
-0.4,149999565.138204,4.3299188614,28641.7796990658,3299.8940791083483,-1.218,-2.886,-8.188,-9.449
-0.4,149999565.138204,4.3299202919,24774.22057633286,3355.8303695328004,-1.432,-3.167,-8.005,-9.245
-0.4,149999565.138204,4.3299226761,19633.602768360473,3449.848313627505,-1.692,-3.497,-7.712,-8.912
-0.4,149999565.138204,4.3299260139,16143.585568264869,3530.2056037666052,-1.841,-3.669,-7.468,-8.633
-0.4,149999565.138204,4.3299312592,17701.08958317422,3491.4031547858626,-1.775,-3.595,-7.584,-8.766
-0.4,149999565.138204,4.3299388885,18923.43618644976,3464.1764103524893,-1.724,-3.537,-7.665,-8.86
-0.4,149999565.138204,4.3299479485,19633.602768360473,3447.4660657314944,-1.684,-3.488,-7.713,-8.915
-0.4,149999565.138204,4.3299598694,20044.720273651594,3438.7452222912716,-1.661,-3.458,-7.739,-8.944
-0.4,149999565.138204,4.3299741745,20323.57010936221,3432.416650121203,-1.643,-3.437,-7.756,-8.964
-0.4,149999565.138204,4.3299913406,20558.905959841406,3426.888704327863,-1.627,-3.417,-7.771,-8.981
-0.4,149999565.138204,4.3299913406,33265.95532940047,3235.936569296281,-0.896,-2.448,-8.385,-9.668
-0.4,149999565.138204,4.3299918175,29991.62518987653,3276.4232568537846,-1.094,-2.72,-8.25,-9.519
-0.4,149999565.138204,4.329993248,26001.595631652723,3332.728995761379,-1.335,-3.045,-8.067,-9.316
-0.4,149999565.138204,4.329996109,20558.905959841406,3426.099724881373,-1.624,-3.414,-7.772,-8.983
-0.4,149999565.138204,4.3299999237,16904.409316432633,3506.711196464777,-1.792,-3.614,-7.527,-8.703
-0.4,149999565.138204,4.3300056458,18535.316234148104,3468.1669875535863,-1.724,-3.539,-7.642,-8.834
-0.4,149999565.138204,4.3300132751,19769.69640111862,3441.1214439609093,-1.659,-3.458,-7.722,-8.926
-0.4,149999565.138204,4.3300237656,20511.621788255667,3426.099724881373,-1.62,-3.409,-7.768,-8.979
-0.4,149999565.138204,4.3300366402,20892.96130854041,3417.4329305629954,-1.597,-3.381,-7.792,-9.007
-0.4,149999565.138204,4.330051899,21134.890398366475,3411.9291162192844,-1.581,-3.361,-7.807,-9.024
-0.4,149999565.138204,4.3300709724,21330.44913146575,3406.4341658307585,-1.566,-3.343,-7.819,-9.039
-0.4,149999565.138204,4.3300709724,34593.93778261217,3215.140824832692,-0.794,-2.311,-8.436,-9.726
-0.4,149999565.138204,4.3300714493,31117.1633710602,3255.3673247163633,-0.98,-2.569,-8.302,-9.578
-0.4,149999565.138204,4.3300733566,26977.394324449207,3312.0737601979727,-1.246,-2.933,-8.118,-9.375
-0.4,149999565.138204,4.3300762177,21379.620895022323,3404.865806080549,-1.561,-3.337,-7.823,-9.043
-0.4,149999565.138204,4.3300805092,17579.23613958693,3486.582933528731,-1.746,-3.564,-7.577,-8.761
-0.4,149999565.138204,4.3300867081,19230.917289101577,3447.4660657314944,-1.664,-3.467,-7.691,-8.893
-0.4,149999565.138204,4.3300952911,20511.621788255667,3421.369661353676,-1.598,-3.384,-7.771,-8.984
-0.4,149999565.138204,4.3301067352,21281.390459827133,3405.6498956736095,-1.557,-3.334,-7.816,-9.036
-0.4,149999565.138204,4.3301210403,21677.041048196963,3397.0348320337944,-1.534,-3.305,-7.84,-9.063
-0.4,149999565.138204,4.3301382065,21877.616239495517,3391.5638690582196,-1.517,-3.285,-7.853,-9.079
-0.4,149999565.138204,4.3301591873,22080.047330189012,3386.881485634765,-1.5,-3.264,-7.865,-9.093
-0.4,149999565.138204,4.3301591873,35809.64371026363,3195.2143648082215,-0.688,-2.167,-8.484,-9.78
-0.4,149999565.138204,4.330160141,32284.94121712638,3235.1915531420955,-0.863,-2.412,-8.351,-9.635
-0.4,149999565.138204,4.3301615715,27989.813196343628,3291.546539470676,-1.136,-2.787,-8.167,-9.432
-0.4,149999565.138204,4.3301644325,22181.964198002195,3384.542718663093,-1.491,-3.252,-7.872,-9.101
-0.4,149999565.138204,4.3301692009,18197.008586099826,3465.7720899354867,-1.697,-3.509,-7.623,-8.817
-0.4,149999565.138204,4.3301758766,19952.62314968879,3427.6778654645045,-1.601,-3.39,-7.738,-8.948
-0.4,149999565.138204,4.3301849365,21232.444620002192,3400.9480651219096,-1.532,-3.305,-7.817,-9.039
-0.4,149999565.138204,4.3301973343,21978.59872784823,3385.3221281535407,-1.487,-3.249,-7.862,-9.09
-0.4,149999565.138204,4.3302121162,22387.21138568338,3376.758486420327,-1.454,-3.207,-7.885,-9.117
-0.4,149999565.138204,4.3302307129,22646.44307593062,3371.3201787284347,-1.431,-3.178,-7.898,-9.132
-0.4,149999565.138204,4.3302526474,22803.420720004164,3365.8906294925205,-1.408,-3.15,-7.91,-9.146
-0.4,149999565.138204,4.3302526474,36982.817978026585,3173.218663836144,-0.564,-2.002,-8.53,-9.833
-0.4,149999565.138204,4.3302536011,33342.64127632347,3212.9206511412604,-0.745,-2.256,-8.399,-9.689
-0.4,149999565.138204,4.3302550316,28973.435877013213,3268.8876924727197,-1.009,-2.62,-8.215,-9.487
-0.4,149999565.138204,4.3302583694,22961.486481123608,3362.017734543793,-1.394,-3.133,-7.919,-9.156
-0.4,149999565.138204,4.3302631378,18836.49089489802,3444.292293943154,-1.625,-3.425,-7.668,-8.871
-0.4,149999565.138204,4.3302702904,20606.299132700005,3405.6498956736095,-1.527,-3.302,-7.782,-9.002
-0.4,149999565.138204,4.330280304,21928.049353504495,3379.09187437723,-1.448,-3.203,-7.861,-9.092
-0.4,149999565.138204,4.3302927017,22698.648518838214,3363.566357483622,-1.39,-3.13,-7.905,-9.142
-0.4,149999565.138204,4.3303084373,23067.471887200714,3355.057749988978,-1.356,-3.086,-7.928,-9.168
-0.4,149999565.138204,4.3303279877,23334.580622810045,3348.883193942221,-1.33,-3.054,-7.941,-9.183
-0.4,149999565.138204,4.3303513527,23496.328208483097,3343.489779723791,-1.305,-3.023,-7.952,-9.196
-0.4,149999565.138204,4.3303513527,38018.93963205613,3150.648832972395,-0.444,-1.846,-8.574,-9.883
-0.4,149999565.138204,4.3303523064,34355.79478998743,3190.0684359752117,-0.616,-2.084,-8.443,-9.741
-0.4,149999565.138204,4.3303537369,29853.82618917957,3246.384827880331,-0.87,-2.438,-8.259,-9.539
-0.4,149999565.138204,4.3303570747,23713.737056616552,3338.8737672512307,-1.286,-3.0,-7.963,-9.21
-0.4,149999565.138204,4.3303623199,19408.858775927794,3422.1575515373916,-1.545,-3.329,-7.71,-8.923
-0.4,149999565.138204,4.3303699493,21232.444620002192,3382.9844379759015,-1.439,-3.197,-7.824,-9.053
-0.4,149999565.138204,4.3303799629,22542.39212152428,3356.603166999334,-1.343,-3.075,-7.902,-9.141
-0.4,149999565.138204,4.3303928375,23334.580622810045,3341.1809763304277,-1.284,-3.0,-7.945,-9.19
-0.4,149999565.138204,4.3304095268,23713.737056616552,3332.728995761379,-1.248,-2.955,-7.966,-9.215
-0.4,149999565.138204,4.330429554,23878.112829131784,3327.3615980616237,-1.221,-2.922,-7.977,-9.229
-0.4,149999565.138204,4.3304538727,24043.628000069348,3322.0028446165034,-1.194,-2.889,-7.987,-9.24
-0.4,149999565.138204,4.3304538727,38904.51449942805,3128.959918963571,-0.342,-1.713,-8.61,-9.926
-0.4,149999565.138204,4.3304548264,35237.08710424869,3167.3787594444734,-0.475,-1.902,-8.481,-9.786
-0.4,149999565.138204,4.3304567337,30549.211132155153,3223.2945954551496,-0.732,-2.26,-8.297,-9.585
-0.4,149999565.138204,4.3304600716,24322.04009073816,3316.6527215043507,-1.171,-2.86,-8.001,-9.257
-0.4,149999565.138204,4.3304653168,19860.949173573717,3399.3822312328007,-1.459,-3.228,-7.745,-8.968
-0.4,149999565.138204,4.3304729462,21727.011788637432,3361.243690470534,-1.331,-3.066,-7.859,-9.097
-0.4,149999565.138204,4.3304829597,23067.471887200714,3335.031958716416,-1.232,-2.94,-7.936,-9.184
-0.4,149999565.138204,4.3304963112,23823.19469358689,3319.708878746796,-1.172,-2.863,-7.977,-9.231
-0.4,149999565.138204,4.3305134773,24154.608344449403,3311.311214825911,-1.134,-2.816,-7.997,-9.254
-0.4,149999565.138204,4.3305339813,24322.04009073816,3305.9783107043236,-1.1,-2.773,-8.007,-9.267
-0.4,149999565.138204,4.3305587769,24434.305526939712,3299.8940791083483,-1.067,-2.729,-8.015,-9.276
-0.4,149999565.138204,4.3305587769,39536.66200681283,3106.704882789958,-0.228,-1.569,-8.639,-9.962
-0.4,149999565.138204,4.3305597305,35809.64371026363,3144.850465476959,-0.352,-1.745,-8.512,-9.823
-0.4,149999565.138204,4.3305616379,31117.1633710602,3201.10559153497,-0.595,-2.082,-8.328,-9.623
-0.4,149999565.138204,4.3305649757,24774.22057633286,3293.821044764936,-1.032,-2.684,-8.033,-9.296
-0.4,149999565.138204,4.3305702209,20230.191786782718,3377.5361033186905,-1.355,-3.105,-7.774,-9.006
-0.4,149999565.138204,4.3305778503,22130.947096056363,3338.8737672512307,-1.213,-2.924,-7.888,-9.135
-0.4,149999565.138204,4.3305878639,23442.288153199228,3312.8364811728147,-1.112,-2.794,-7.963,-9.22
-0.4,149999565.138204,4.3306012154,24154.608344449403,3297.6153801591913,-1.036,-2.694,-8.004,-9.266
-0.4,149999565.138204,4.3306183815,24490.63241844747,3289.2736048064767,-0.989,-2.631,-8.023,-9.288
-0.4,149999565.138204,4.3306388855,24603.676041476272,3283.2201160919944,-0.951,-2.583,-8.032,-9.299
-0.4,149999565.138204,4.330663681,24717.24145016129,3277.177768051718,-0.913,-2.533,-8.038,-9.307
-0.4,149999565.138204,4.330663681,39994.47497610978,3083.1879502493534,-0.105,-1.424,-8.663,-9.993
-0.4,149999565.138204,4.3306646347,36307.8054770101,3121.763510848167,-0.23,-1.59,-8.537,-9.855
-0.4,149999565.138204,4.3306665421,31477.483141013174,3177.6056571612876,-0.439,-1.882,-8.354,-9.656
-0.4,149999565.138204,4.3306698799,25118.864315095823,3269.640468343053,-0.871,-2.478,-8.059,-9.331
-0.4,149999565.138204,4.3306751251,20511.621788255667,3353.5130445056075,-1.226,-2.951,-7.798,-9.039
-0.4,149999565.138204,4.3306827545,22387.21138568338,3315.125698118432,-1.079,-2.762,-7.911,-9.167
-0.4,149999565.138204,4.3306927681,23659.196974857565,3288.51630875983,-0.954,-2.595,-7.986,-9.251
-0.4,149999565.138204,4.3307065964,24378.108183687502,3273.406948788383,-0.874,-2.488,-8.025,-9.296
-0.4,149999565.138204,4.3307232857,24717.24145016129,3265.126412019571,-0.823,-2.421,-8.043,-9.317
-0.4,149999565.138204,4.3307442665,24831.331052955677,3259.1173631348456,-0.783,-2.369,-8.051,-9.327
-0.4,149999565.138204,4.330769062,24888.573182823904,3253.1193731384888,-0.741,-2.316,-8.057,-9.335
-0.4,149999565.138204,4.330769062,40179.081084894,3058.4402465105513,-0.017,-1.326,-8.682,-10.018
-0.4,149999565.138204,4.3307700157,36559.47916131247,3095.993213309174,-0.086,-1.412,-8.557,-9.884
-0.4,149999565.138204,4.3307719231,31768.74070649769,3152.1000945192795,-0.276,-1.677,-8.375,-9.685
-0.4,149999565.138204,4.3307752609,25292.97996446142,3244.1430790488475,-0.693,-2.252,-8.08,-9.361
-0.4,149999565.138204,4.3307805061,20653.80155810531,3328.894257585374,-1.084,-2.781,-7.817,-9.068
-0.4,149999565.138204,4.3307881355,22542.39212152428,3290.031075247056,-0.913,-2.554,-7.931,-9.196
-0.4,149999565.138204,4.3307981491,23823.19469358689,3264.3746754294584,-0.781,-2.376,-8.004,-9.278
-0.4,149999565.138204,4.3308119774,24490.63241844747,3249.376236187617,-0.698,-2.266,-8.043,-9.322
-0.4,149999565.138204,4.3308286667,24774.22057633286,3240.4102704918173,-0.646,-2.197,-8.06,-9.342
-0.4,149999565.138204,4.3308496475,24888.573182823904,3234.446708514467,-0.605,-2.145,-8.067,-9.352
-0.4,149999565.138204,4.3308744431,24945.947269429562,3228.4941217126348,-0.566,-2.096,-8.072,-9.358
-0.4,149999565.138204,4.3308744431,40271.703432545946,3033.1926853535583,0.082,-1.219,-8.697,-10.039
-0.4,149999565.138204,4.3308753967,36643.75746478333,3071.142726067833,0.036,-1.278,-8.575,-9.907
-0.4,149999565.138204,4.3308773041,31841.975217261253,3126.799256376112,-0.129,-1.494,-8.392,-9.709
-0.4,149999565.138204,4.3308806419,25409.727055493066,3218.844524111849,-0.517,-2.03,-8.098,-9.388
-0.4,149999565.138204,4.3308858871,20701.413487910413,3303.6954103681487,-0.925,-2.589,-7.833,-9.093
-0.4,149999565.138204,4.3308935165,22594.35770220978,3264.3746754294584,-0.73,-2.325,-7.947,-9.221
-0.4,149999565.138204,4.3309035301,23878.112829131784,3238.1726473132535,-0.592,-2.139,-8.019,-9.303
-0.4,149999565.138204,4.3309168816,24547.089156850285,3222.5524898879053,-0.513,-2.033,-8.058,-9.346
-0.4,149999565.138204,4.3309340477,24831.331052955677,3213.660538640318,-0.46,-1.964,-8.074,-9.365
-0.4,149999565.138204,4.3309545517,24888.573182823904,3206.2693245054643,-0.413,-1.905,-8.082,-9.375
-0.4,149999565.138204,4.3309793472,24888.573182823904,3198.895109691397,-0.364,-1.842,-8.086,-9.382
-0.4,149999565.138204,4.3309793472,40271.703432545946,3004.692272040942,0.199,-1.094,-8.711,-10.059
-0.4,149999565.138204,4.3309803009,36643.75746478333,3041.585295947742,0.149,-1.153,-8.59,-9.929
-0.4,149999565.138204,4.3309817314,31841.975217261253,3096.7061741707726,0.046,-1.278,-8.408,-9.734
-0.4,149999565.138204,4.3309850693,25468.30252585039,3187.8655756958997,-0.307,-1.766,-8.115,-9.415
-0.4,149999565.138204,4.3309903145,20749.13517454911,3272.6533057537135,-0.705,-2.313,-7.849,-9.12
-0.4,149999565.138204,4.3309979439,22594.35770220978,3233.7020353739117,-0.503,-2.039,-7.962,-9.247
-0.4,149999565.138204,4.3310079575,23878.112829131784,3207.007680303629,-0.376,-1.867,-8.035,-9.328
-0.4,149999565.138204,4.3310213089,24490.63241844747,3190.8030609514212,-0.291,-1.754,-8.072,-9.371
-0.4,149999565.138204,4.3310375214,24774.22057633286,3180.5336883295204,-0.228,-1.673,-8.089,-9.391
-0.4,149999565.138204,4.3310580254,24831.331052955677,3172.488087350881,-0.171,-1.599,-8.096,-9.401
-0.4,149999565.138204,4.3310823441,24831.331052955677,3163.0058853452065,-0.106,-1.518,-8.101,-9.408
-0.4,149999565.138204,4.3310823441,40086.67176273026,2970.297844017863,0.324,-0.958,-8.725,-10.079
-0.4,149999565.138204,4.3310832977,36559.47916131247,3006.768556972182,0.293,-0.999,-8.605,-9.952
-0.4,149999565.138204,4.3310847282,31841.975217261253,3061.2584717197674,0.221,-1.087,-8.426,-9.761
-0.4,149999565.138204,4.3310880661,25409.727055493066,3150.648832972395,-0.052,-1.446,-8.134,-9.444
-0.4,149999565.138204,4.3310933113,20701.413487910413,3234.446708514467,-0.422,-1.957,-7.866,-9.151
-0.4,149999565.138204,4.3311009407,22542.39212152428,3194.4787242086913,-0.234,-1.702,-7.98,-9.277
-0.4,149999565.138204,4.3311109543,23768.402866248784,3167.3787594444734,-0.096,-1.515,-8.052,-9.358
-0.4,149999565.138204,4.3311243057,24434.305526939712,3150.648832972395,-0.011,-1.404,-8.09,-9.4
-0.4,149999565.138204,4.3311405182,24660.393372343413,3138.340056432409,0.052,-1.325,-8.107,-9.421
-0.4,149999565.138204,4.3311610222,24717.24145016129,3128.2395322577386,0.114,-1.249,-8.115,-9.432
-0.4,149999565.138204,4.3311853409,24717.24145016129,3116.7358754452835,0.183,-1.164,-8.12,-9.44
-0.4,149999565.138204,4.3311853409,39902.4902362142,2926.173008566573,0.483,-0.787,-8.743,-10.105
-0.4,149999565.138204,4.3311862946,36391.503612720706,2961.419965394361,0.462,-0.818,-8.624,-9.98
-0.4,149999565.138204,4.3311877251,31695.674630434933,3014.3938842794687,0.412,-0.881,-8.446,-9.791
-0.4,149999565.138204,4.3311910629,25351.286304979072,3101.7014994776896,0.247,-1.079,-8.156,-9.481
-0.4,149999565.138204,4.3311963081,20606.299132700005,3182.7314821707823,-0.064,-1.51,-7.888,-9.189
-0.4,149999565.138204,4.3312034607,22490.546058357828,3141.9552846410716,0.125,-1.255,-8.003,-9.316
-0.4,149999565.138204,4.3312134743,23659.196974857565,3112.4329187675094,0.254,-1.086,-8.076,-9.397
-0.4,149999565.138204,4.3312268257,24322.04009073816,3091.7188938917006,0.351,-0.961,-8.115,-9.443
-0.4,149999565.138204,4.3312430382,24547.089156850285,3075.3885988131847,0.419,-0.888,-8.134,-9.466
-0.4,149999565.138204,4.3312630653,24547.089156850285,3059.1445594864085,0.49,-0.812,-8.145,-9.48
-0.4,149999565.138204,4.331287384,24547.089156850285,3041.585295947742,0.573,-0.726,-8.154,-9.493
-0.4,149999565.138204,4.331287384,39627.803425543934,2852.9883615207186,0.744,-0.497,-8.775,-10.149
-0.4,149999565.138204,4.3312883377,36224.299841669876,2886.0244097569725,0.726,-0.53,-8.658,-10.027
-0.4,149999565.138204,4.3312897682,31550.04623374624,2936.9733110014463,0.703,-0.568,-8.481,-9.841
-0.4,149999565.138204,4.3312931061,25234.807724805756,3019.256430871959,0.633,-0.659,-8.196,-9.541
-0.4,149999565.138204,4.3312983513,20511.621788255667,3097.419299216581,0.491,-0.827,-7.928,-9.254
-0.4,149999565.138204,4.3313055038,22335.722228305327,3050.7034978225156,0.63,-0.67,-8.046,-9.383
-0.4,149999565.138204,4.3313155174,23496.328208483097,3014.3938842794687,0.729,-0.562,-8.121,-9.466
-0.4,149999565.138204,4.331328392,24099.054286865932,2987.4455606053048,0.809,-0.475,-8.162,-9.512
-0.4,149999565.138204,4.3313446045,24322.04009073816,2966.1970592694383,0.883,-0.397,-8.183,-9.537
-0.4,149999565.138204,4.3313646317,24322.04009073816,2949.171307508275,0.943,-0.334,-8.194,-9.552
-0.4,149999565.138204,4.3313884735,24322.04009073816,2935.621096191421,0.99,-0.284,-8.199,-9.56
