FeH,Age,Mini,L,Te,Bmag,Vmag,Jmag,Kmag
0.4,1050001694.6500367,0.1000000015,0.0005571857489319299,2338.2987634799124,19.342,17.648,10.804,9.873
0.4,1050001694.6500367,0.118466273,0.0008689604292863019,2466.0393372343387,18.839,17.154,10.323,9.391
0.4,1050001694.6500367,0.1199999973,0.000901571137605957,2476.851675793545,18.796,17.112,10.283,9.351
0.4,1050001694.6500367,0.1400000006,0.0013304544179780914,2578.101431424051,18.347,16.675,9.861,8.928
0.4,1050001694.6500367,0.1547563523,0.0016826740610704674,2637.545740889343,17.934,16.283,9.612,8.682
0.4,1050001694.6500367,0.1599999964,0.0018197008586099826,2657.05167035507,17.718,16.082,9.534,8.606
0.4,1050001694.6500367,0.1616954803,0.0018663796908346695,2663.7900967669893,17.651,16.02,9.51,8.583
0.4,1050001694.6500367,0.200000003,0.003026913428101305,2793.1869222539713,16.393,14.854,9.024,8.113
0.4,1050001694.6500367,0.25,0.004819477976251272,2904.022654464451,15.377,13.887,8.557,7.659
0.4,1050001694.6500367,0.2872766256,0.0063826348619054896,2969.6139863991652,14.809,13.347,8.271,7.38
0.4,1050001694.6500367,0.3000000417,0.006966265141107686,2990.198367170568,14.636,13.182,8.182,7.293
0.4,1050001694.6500367,0.3008561134,0.007030723198838334,2991.575721530859,14.623,13.17,8.175,7.286
0.4,1050001694.6500367,0.349999994,0.01,3071.8499642344627,13.963,12.531,7.817,6.934
0.4,1050001694.6500367,0.400000006,0.013963683610559377,3155.7311736800216,13.358,11.957,7.481,6.601
0.4,1050001694.6500367,0.4136894941,0.01538154640303035,3182.7314821707823,13.184,11.792,7.386,6.506
0.4,1050001694.6500367,0.4500000179,0.019498445997580455,3253.1193731384888,12.756,11.383,7.151,6.269
0.4,1050001694.6500367,0.5000000596,0.027289777828080404,3356.603166999334,12.174,10.825,6.821,5.932
0.4,1050001694.6500367,0.5500000715,0.03837072454922788,3480.166322150038,11.58,10.262,6.488,5.592
0.4,1050001694.6500367,0.5817700624,0.04808393484497285,3586.740857699508,11.155,9.845,6.277,5.378
0.4,1050001694.6500367,0.6000000238,0.05445026528424212,3646.699688942269,10.925,9.613,6.163,5.263
0.4,1050001694.6500367,0.6499999762,0.07780365510398041,3863.669770540693,10.208,8.884,5.845,4.961
0.4,1050001694.6500367,0.6655317545,0.0868960429286302,3939.1271544686583,9.982,8.66,5.748,4.875
0.4,1050001694.6500367,0.7000000477,0.11015393095414151,4106.76639874822,9.499,8.195,5.537,4.7
0.4,1050001694.6500367,0.7089179754,0.11776059735208072,4169.653822449889,9.344,8.05,5.482,4.658
0.4,1050001694.6500367,0.75,0.15848931924611134,4464.779341129965,8.65,7.439,5.244,4.502
0.4,1050001694.6500367,0.7995219231,0.21086281499332893,4643.01407281803,8.12,6.984,4.985,4.305
0.4,1050001694.6500367,0.8490439653,0.27797132677592884,4837.266336532547,7.603,6.553,4.739,4.126
0.4,1050001694.6500367,0.8985658288,0.3647539469256078,5030.370810846251,7.127,6.154,4.501,3.947
0.4,1050001694.6500367,0.9480878115,0.4720630412635905,5217.95104239002,6.699,5.792,4.275,3.773
0.4,1050001694.6500367,0.9502247572,0.4775292736576909,5225.164890163825,6.681,5.777,4.266,3.765
0.4,1050001694.6500367,0.9976097345,0.6067363295885054,5395.1062251512785,6.308,5.459,4.058,3.601
0.4,1050001694.6500367,1.0315878391,0.7177942912713617,5510.614111390659,6.056,5.244,3.913,3.482
0.4,1050001694.6500367,1.0471316576,0.7726805850957024,5561.603195975926,5.944,5.149,3.85,3.43
0.4,1050001694.6500367,1.0786031485,0.8974287945007484,5662.3928903825345,5.725,4.962,3.721,3.323
0.4,1050001694.6500367,1.0966536999,0.9772372209558107,5718.735365066645,5.603,4.858,3.649,3.263
0.4,1050001694.6500367,1.1461756229,1.2274392311584073,5864.081532764765,5.283,4.585,3.453,3.096
0.4,1050001694.6500367,1.1589261293,1.297179270983956,5899.293451041436,5.203,4.516,3.403,3.053
0.4,1050001694.6500367,1.195697546,1.5275660582380726,5999.291991559951,4.979,4.325,3.263,2.933
0.4,1050001694.6500367,1.2141318321,1.651961798229015,6046.4435134475925,4.872,4.233,3.195,2.874
0.4,1050001694.6500367,1.2452194691,1.8793168168032686,6126.324544438646,4.696,4.082,3.083,2.776
0.4,1050001694.6500367,1.2947413921,2.290867652767773,6244.533502805022,4.432,3.856,2.911,2.626
0.4,1050001694.6500367,1.3107384443,2.4378108183687526,6280.58358813318,4.351,3.786,2.858,2.579
0.4,1050001694.6500367,1.3442634344,2.760577856220346,6354.77239048616,4.184,3.642,2.748,2.482
0.4,1050001694.6500367,1.3783457279,3.126079367123955,6428.357186713859,4.021,3.502,2.641,2.386
0.4,1050001694.6500367,1.3937852383,3.303695410368148,6461.003852547145,3.949,3.44,2.592,2.343
0.4,1050001694.6500367,1.4433073997,3.926449353995998,6561.452663029057,3.728,3.246,2.441,2.207
0.4,1050001694.6500367,1.4912090302,4.6025657358135605,6652.731562017413,3.525,3.066,2.298,2.077
0.4,1050001694.6500367,1.4928293228,4.634469197362881,6655.795963672291,3.518,3.06,2.293,2.073
0.4,1050001694.6500367,1.5079205036,4.864072056914616,6683.439175686149,3.456,3.005,2.249,2.033
0.4,1050001694.6500367,1.5423511267,5.432503314924332,6740.622411390064,3.318,2.881,2.149,1.94
0.4,1050001694.6500367,1.5776498318,6.0673632958850545,6798.294904549553,3.182,2.759,2.049,1.848
0.4,1050001694.6500367,1.5918731689,6.33869711256927,6817.105263058537,3.128,2.71,2.008,1.81
0.4,1050001694.6500367,1.6282396317,7.06317554262962,6870.684400142324,2.994,2.589,1.907,1.716
0.4,1050001694.6500367,1.641395092,7.345138681571149,6888.108826526805,2.947,2.545,1.871,1.681
0.4,1050001694.6500367,1.6442089081,7.413102413009175,6891.281648380538,2.936,2.536,1.863,1.674
0.4,1050001694.6500367,1.6661560535,7.906786279998252,6919.902892284818,2.858,2.464,1.802,1.617
0.4,1050001694.6500367,1.6670708656,7.925013304804718,6921.49644226647,2.855,2.461,1.8,1.615
0.4,1050001694.6500367,1.6909170151,8.491804750363139,6950.243175887969,2.772,2.384,1.734,1.554
0.4,1050001694.6500367,1.708276391,8.933054837332952,6971.078929020044,2.711,2.328,1.687,1.509
0.4,1050001694.6500367,1.7156780958,9.120108393559097,6979.109301999337,2.685,2.304,1.666,1.489
0.4,1050001694.6500367,1.7263257504,9.418895965228414,6991.9771445145925,2.649,2.271,1.638,1.462
0.4,1050001694.6500367,1.7404389381,9.794899854086989,7004.8687123168265,2.602,2.227,1.599,1.425
0.4,1050001694.6500367,1.7632051706,10.447202192207998,7025.868224350984,2.524,2.154,1.535,1.364
0.4,1050001694.6500367,1.7651998997,10.519618738232229,7027.486176561344,2.517,2.148,1.529,1.359
0.4,1050001694.6500367,1.783700943,11.091748152624008,7046.930689671467,2.454,2.09,1.479,1.311
0.4,1050001694.6500367,1.7899608612,11.271974561755105,7053.424142580965,2.433,2.07,1.461,1.294
0.4,1050001694.6500367,1.8147218227,12.105981335504822,7064.802086156543,2.353,1.992,1.389,1.223
0.4,1050001694.6500367,1.8241524696,12.416523075924113,7071.312006813009,2.322,1.963,1.362,1.197
0.4,1050001694.6500367,1.8394829035,12.971792709839558,7077.8279260900235,2.272,1.915,1.318,1.154
0.4,1050001694.6500367,1.8526805639,13.458603540559483,7081.088136938373,2.23,1.874,1.279,1.115
0.4,1050001694.6500367,1.8642437458,13.899526312133533,7082.718805467454,2.194,1.839,1.244,1.081
0.4,1050001694.6500367,1.8809195757,14.588142602753482,7084.349849515063,2.142,1.788,1.194,1.031
0.4,1050001694.6500367,1.8890048265,14.893610777109155,7084.349849515063,2.117,1.763,1.17,1.007
0.4,1050001694.6500367,1.9073138237,15.667510701081493,7077.8279260900235,2.062,1.708,1.113,0.949
0.4,1050001694.6500367,1.9137656689,15.958791472367329,7072.94042404576,2.044,1.688,1.092,0.928
0.4,1050001694.6500367,1.9355695248,16.94337800447329,7058.2981585982325,1.982,1.624,1.023,0.858
0.4,1050001694.6500367,1.938326478,17.060823890031234,7056.673112483567,1.974,1.616,1.014,0.848
0.4,1050001694.6500367,1.9647006989,18.323144223712113,7019.400139695796,1.903,1.539,0.924,0.755
0.4,1050001694.6500367,1.9874477386,19.453600816226626,6977.502487693657,1.846,1.474,0.844,0.67
0.4,1050001694.6500367,2.0073215961,20.511621788255656,6935.85491592748,1.798,1.417,0.773,0.594
0.4,1050001694.6500367,2.0349297523,22.02926463053456,6861.198752817055,1.738,1.342,0.67,0.481
0.4,1050001694.6500367,2.0365691185,22.130947096056374,6854.882264526614,1.735,1.337,0.663,0.474
0.4,1050001694.6500367,2.0627977848,23.60478233180577,6756.1611508415435,1.689,1.27,0.559,0.357
0.4,1050001694.6500367,2.0856904984,24.94594726942955,6652.731562017413,1.66,1.216,0.464,0.249
0.4,1050001694.6500367,2.0876104832,25.06109253032114,6643.546819760057,1.658,1.212,0.456,0.239
0.4,1050001694.6500367,2.1133358479,26.6072505979881,6523.790409982088,1.63,1.153,0.349,0.115
0.4,1050001694.6500367,2.1348118782,28.05433637951713,6407.667976494362,1.616,1.105,0.251,-0.001
0.4,1050001694.6500367,2.1385967731,28.31391995799379,6387.045353025886,1.614,1.096,0.233,-0.022
0.4,1050001694.6500367,2.158747673,30.269134281013063,6325.574863525833,1.564,1.028,0.137,-0.129
0.4,1050001694.6500367,2.1645371914,31.915378551007617,6394.402945292843,1.478,0.964,0.105,-0.149
0.4,1050001694.6500367,2.1697101593,34.43499307633384,6540.335094488948,1.341,0.871,0.076,-0.154
0.4,1050001694.6500367,2.1711266041,36.30780547701014,6686.517721976395,1.234,0.802,0.068,-0.142
0.4,1050001694.6500367,2.1717879772,38.282474331682266,6839.116472814293,1.131,0.736,0.063,-0.126
0.4,1050001694.6500367,2.1721506119,40.364539296760505,6988.7579613471,1.033,0.672,0.056,-0.114
0.4,1050001694.6500367,2.1723701954,42.65795188015925,7133.456216702232,0.936,0.605,0.045,-0.107
0.4,1050001694.6500367,2.1725263596,44.977985489328795,7267.750338103239,0.847,0.544,0.033,-0.104
0.4,1050001694.6500367,2.1726286411,46.451527522274944,7351.906920715666,0.795,0.509,0.029,-0.099
0.4,1050001694.6500367,2.1726748943,44.6683592150963,7299.615757292979,0.848,0.551,0.052,-0.082
0.4,1050001694.6500367,2.1727352142,41.97589839910075,7196.146563265814,0.939,0.621,0.084,-0.062
0.4,1050001694.6500367,2.172794342,39.902490236214206,7051.800218620772,1.031,0.683,0.091,-0.071
0.4,1050001694.6500367,2.172873497,38.99419866765434,6870.684400142324,1.102,0.715,0.054,-0.131
0.4,1050001694.6500367,2.1729671955,39.44573020752785,6698.846094165266,1.139,0.711,-0.017,-0.224
0.4,1050001694.6500367,2.1730806828,40.08667176273028,6532.809588303903,1.174,0.703,-0.092,-0.323
0.4,1050001694.6500367,2.1732161045,40.45758916974427,6375.290810349068,1.224,0.706,-0.159,-0.415
0.4,1050001694.6500367,2.1733813286,40.45758916974427,6225.869310387436,1.289,0.722,-0.213,-0.494
0.4,1050001694.6500367,2.1735956669,39.99447497610976,6084.151222917084,1.368,0.753,-0.251,-0.559
0.4,1050001694.6500367,2.1738843918,38.90451449942807,5934.716805530554,1.471,0.805,-0.275,-0.612
0.4,1050001694.6500367,2.174236536,37.15352290971726,5783.623317834709,1.599,0.882,-0.279,-0.647
0.4,1050001694.6500367,2.174539566,35.399734108343466,5670.221181605434,1.714,0.96,-0.265,-0.658
0.4,1050001694.6500367,2.17486763,33.11311214825911,5557.762703204188,1.85,1.06,-0.23,-0.649
0.4,1050001694.6500367,2.1751666069,30.83187950249355,5462.607542126947,1.983,1.163,-0.183,-0.626
0.4,1050001694.6500367,2.1754267216,28.773984147356696,5383.937379843645,2.105,1.259,-0.133,-0.594
0.4,1050001694.6500367,2.1757543087,26.3633138582538,5291.758304203465,2.259,1.382,-0.067,-0.551
0.4,1050001694.6500367,2.1760807037,24.434305526939713,5203.553211345586,2.403,1.495,-0.01,-0.516
0.4,1050001694.6500367,2.1761653423,24.154608344449404,5183.224264170613,2.429,1.514,-0.005,-0.517
0.4,1050001694.6500367,2.1766734123,23.71373705661655,5064.073495238508,2.536,1.579,-0.019,-0.563
0.4,1050001694.6500367,2.1771812439,25.29297996446145,4964.779900060685,2.546,1.55,-0.12,-0.692
0.4,1050001694.6500367,2.1775193214,27.542287033381662,4909.078761526029,2.502,1.484,-0.227,-0.816
0.4,1050001694.6500367,2.1778342724,30.269134281013063,4862.952191867843,2.441,1.404,-0.343,-0.945
0.4,1050001694.6500367,2.1781191826,33.18944575526103,4825.029800597099,2.375,1.322,-0.454,-1.068
0.4,1050001694.6500367,2.1783881187,36.391503612720705,4790.711300030745,2.308,1.24,-0.563,-1.189
0.4,1050001694.6500367,2.1786427498,39.810717055349734,4757.732275412047,2.241,1.16,-0.67,-1.306
0.4,1050001694.6500367,2.178889513,43.55118736855686,4727.156711736158,2.174,1.08,-0.777,-1.423
0.4,1050001694.6500367,2.179131031,47.533522594280534,4697.859239439367,2.108,1.001,-0.88,-1.536
0.4,1050001694.6500367,2.1793723106,51.999599653351595,4670.893874825567,2.041,0.921,-0.984,-1.649
0.4,1050001694.6500367,2.1795535088,55.46257129579107,4649.433066875436,1.992,0.863,-1.061,-1.733
0.4,1050001694.6500367,2.1796159744,56.88529308438413,4641.945102393461,1.975,0.842,-1.088,-1.763
0.4,1050001694.6500367,2.1798622608,62.373483548241914,4614.238090876438,1.905,0.759,-1.196,-1.88
0.4,1050001694.6500367,2.1799235344,63.82634861905486,4606.806808300934,1.888,0.739,-1.222,-1.91
0.4,1050001694.6500367,2.1800420284,66.68067692136222,4593.037592608176,1.854,0.699,-1.276,-1.968
0.4,1050001694.6500367,2.1802721024,72.94575102545687,4564.571349614057,1.788,0.619,-1.38,-2.083
0.4,1050001694.6500367,2.1804997921,79.98342550070285,4536.281531692419,1.729,0.542,-1.487,-2.199
0.4,1050001694.6500367,2.1807210445,87.4983775227436,4507.129121091093,1.671,0.466,-1.593,-2.315
0.4,1050001694.6500367,2.1809396744,95.71940712948447,4478.164058439384,1.613,0.388,-1.7,-2.431
0.4,1050001694.6500367,2.1811525822,104.9542428652322,4448.360748898113,1.558,0.314,-1.806,-2.548
0.4,1050001694.6500367,2.1813623905,114.81536214968828,4419.773361155814,1.502,0.239,-1.913,-2.665
0.4,1050001694.6500367,2.1815593243,125.31411749414156,4391.369690244064,1.451,0.168,-2.015,-2.777
0.4,1050001694.6500367,2.1817712784,137.72094688939458,4360.1356400039895,1.395,0.091,-2.126,-2.899
0.4,1050001694.6500367,2.1819911003,152.40527537972906,4327.130568849061,1.338,0.013,-2.244,-3.029
0.4,1050001694.6500367,2.1821830273,166.34126503701697,4297.342811536805,1.288,-0.056,-2.348,-3.144
0.4,1050001694.6500367,2.1823768616,182.38957023196383,4267.7601117035365,1.238,-0.128,-2.453,-3.26
0.4,1050001694.6500367,2.1825687885,199.52623149688787,4238.381057743502,1.187,-0.199,-2.558,-3.373
0.4,1050001694.6500367,2.1827793121,219.78598727848254,4205.3292121804225,1.132,-0.276,-2.672,-3.496
0.4,1050001694.6500367,2.1829781532,240.43628000069322,4176.379929509739,1.081,-0.344,-2.774,-3.607
0.4,1050001694.6500367,2.183242321,264.8500138606701,4143.811582642788,1.026,-0.417,-2.887,-3.73
0.4,1050001694.6500367,2.1834447384,280.54336379517133,4125.7223711671995,0.992,-0.461,-2.954,-3.804
0.4,1050001694.6500367,2.1835188866,255.85858869056452,4156.2340882986055,1.045,-0.392,-2.846,-3.686
0.4,1050001694.6500367,2.1835434437,238.2319469358689,4180.228289540325,1.085,-0.339,-2.764,-3.596
0.4,1050001694.6500367,2.183565855,219.78598727848254,4207.266283844442,1.13,-0.276,-2.671,-3.494
0.4,1050001694.6500367,2.1835980415,196.7886289706845,4244.240644295681,1.191,-0.19,-2.543,-3.356
0.4,1050001694.6500367,2.1836390495,174.98466886246564,4284.498548137013,1.257,-0.097,-2.405,-3.206
0.4,1050001694.6500367,2.1836810112,158.8546748597779,4316.1844920735875,1.311,-0.022,-2.291,-3.081
0.4,1050001694.6500367,2.1837439537,141.5793779957081,4354.116049150633,1.374,0.066,-2.158,-2.933
0.4,1050001694.6500367,2.1838028431,129.41958414499862,4384.297339745673,1.426,0.138,-2.052,-2.816
0.4,1050001694.6500367,2.1838693619,118.30415557251646,4414.687837052633,1.478,0.21,-1.947,-2.701
0.4,1050001694.6500367,2.1839332581,109.90058394325209,4439.1518378955125,1.522,0.271,-1.859,-2.604
0.4,1050001694.6500367,2.1839504242,107.64652136298349,4446.312674691088,1.534,0.287,-1.835,-2.577
0.4,1050001694.6500367,2.1840379238,98.62794856312105,4476.102262460901,1.587,0.359,-1.731,-2.464
0.4,1050001694.6500367,2.1841397285,90.57326008982002,4504.016781680873,1.639,0.431,-1.631,-2.353
0.4,1050001694.6500367,2.1842982769,81.65823713585922,4539.416166502032,1.704,0.518,-1.508,-2.219
0.4,1050001694.6500367,2.1845245361,73.6207097494736,4574.040440300427,1.769,0.605,-1.386,-2.085
0.4,1050001694.6500367,2.1847763062,67.60829753919819,4603.625637759879,1.829,0.678,-1.286,-1.975
0.4,1050001694.6500367,2.185046196,62.08690342300634,4632.335436779563,1.89,0.752,-1.186,-1.865
0.4,1050001694.6500367,2.1853148937,57.14786366718669,4660.151117021843,1.948,0.823,-1.091,-1.759
0.4,1050001694.6500367,2.185700655,51.760683195056764,4694.615193825913,2.02,0.91,-0.973,-1.63
0.4,1050001694.6500367,2.186218977,46.665938031428865,4730.423243999551,2.096,1.002,-0.851,-1.496
0.4,1050001694.6500367,2.1869285107,42.46195639463128,4765.407017251339,2.164,1.085,-0.739,-1.373
0.4,1050001694.6500367,2.1877515316,39.99447497610976,4788.50560386518,2.207,1.138,-0.667,-1.293
0.4,1050001694.6500367,2.2006874084,41.495404263436306,4788.50560386518,2.166,1.097,-0.707,-1.333
0.4,1050001694.6500367,2.2330546379,45.498806015004845,4791.814529082236,2.065,0.996,-0.806,-1.431
0.4,1050001694.6500367,2.2372770309,46.025657358135604,4791.814529082236,2.052,0.983,-0.819,-1.443
0.4,1050001694.6500367,2.2660729885,50.81594425605605,4788.50560386518,1.947,0.876,-0.928,-1.553
0.4,1050001694.6500367,2.2821760178,54.0754322945581,4782.995805358158,1.884,0.81,-0.998,-1.625
0.4,1050001694.6500367,2.2895655632,55.84701947368309,4779.692969796099,1.855,0.78,-1.032,-1.66
0.4,1050001694.6500367,2.3122067451,62.23002851691595,4757.732275412047,1.759,0.673,-1.156,-1.792
0.4,1050001694.6500367,2.3249967098,66.83439175686145,4739.145036236972,1.7,0.606,-1.239,-1.88
0.4,1050001694.6500367,2.3255257607,67.14288529259522,4736.963081746328,1.696,0.602,-1.244,-1.886
0.4,1050001694.6500367,2.3300993443,70.46930689671471,4719.543572446043,1.662,0.56,-1.301,-1.949
0.4,1050001694.6500367,2.3328163624,71.94489780036994,4711.94269420276,1.646,0.54,-1.327,-1.978
0.4,1050001694.6500367,2.3381752968,79.79946872679764,4668.743343920188,1.578,0.453,-1.451,-2.116
0.4,1050001694.6500367,2.3401930332,88.30799004185627,4625.940047661603,1.516,0.371,-1.572,-2.252
0.4,1050001694.6500367,2.3410069942,97.72372209558107,4585.640453674645,1.457,0.288,-1.693,-2.386
0.4,1050001694.6500367,2.3413643837,106.90548792226576,4550.928370849554,1.406,0.215,-1.801,-2.505
0.4,1050001694.6500367,2.3415818214,119.1242008027375,4509.205208756537,1.345,0.128,-1.929,-2.648
0.4,1050001694.6500367,2.3416814804,131.5224832192239,4473.0113482444785,1.288,0.048,-2.046,-2.777
0.4,1050001694.6500367,2.3417372704,143.21878992735438,4441.1966136558885,1.241,-0.02,-2.149,-2.891
0.4,1050001694.6500367,2.3417387009,143.5489433353656,4440.174108068949,1.239,-0.022,-2.152,-2.895
0.4,1050001694.6500367,2.341748476,146.21771744567184,4434.04401633441,1.229,-0.036,-2.173,-2.917
0.4,1050001694.6500367,2.3417925835,158.12480392703827,4406.563166924702,1.186,-0.098,-2.264,-3.019
0.4,1050001694.6500367,2.3418292999,167.88040181225605,4384.297339745673,1.152,-0.146,-2.337,-3.099
0.4,1050001694.6500367,2.3418679237,171.79083871575875,4377.236379347656,1.14,-0.164,-2.362,-3.127
0.4,1050001694.6500367,2.3419697285,168.26740610704672,4384.297339745673,1.15,-0.149,-2.34,-3.102
0.4,1050001694.6500367,2.342048645,160.32453906900417,4402.50644073913,1.178,-0.109,-2.28,-3.036
0.4,1050001694.6500367,2.3422725201,149.2794409578996,4427.922387787075,1.216,-0.054,-2.197,-2.944
0.4,1050001694.6500367,2.3440225124,146.89262776438662,4434.04401633441,1.225,-0.041,-2.177,-2.922
0.4,1050001694.6500367,2.3461999893,162.18100973589299,4398.453449216315,1.169,-0.121,-2.296,-3.053
0.4,1050001694.6500367,2.3474502563,183.65383433483456,4355.118736855684,1.101,-0.217,-2.441,-3.214
0.4,1050001694.6500367,2.3483328819,206.53801558105292,4313.204006994161,1.04,-0.307,-2.578,-3.366
0.4,1050001694.6500367,2.3490006924,230.14418174085088,4275.62886151586,0.981,-0.394,-2.704,-3.503
0.4,1050001694.6500367,2.3495333195,254.6830252585042,4239.357093413646,0.925,-0.474,-2.824,-3.632
0.4,1050001694.6500367,2.3499789238,281.1900830398939,4204.36101081749,0.87,-0.549,-2.939,-3.758
0.4,1050001694.6500367,2.3503644466,309.7419299216581,4170.614031267226,0.815,-0.625,-3.051,-3.881
0.4,1050001694.6500367,2.3507070541,341.1929116219285,4138.090648167254,0.761,-0.694,-3.162,-4.003
0.4,1050001694.6500367,2.3510196209,375.8374042884443,4103.930524610162,0.708,-0.763,-3.274,-4.127
0.4,1050001694.6500367,2.3513076305,413.04750199016144,4070.989666502739,0.654,-0.832,-3.384,-4.249
0.4,1050001694.6500367,2.3515765667,453.94161665020323,4038.313213488514,0.602,-0.894,-3.493,-4.37
0.4,1050001694.6500367,2.3518309593,497.7370849789361,4005.8990432775086,0.557,-0.951,-3.602,-4.492
0.4,1050001694.6500367,2.3520672321,543.250331492433,3974.660144576364,0.521,-1.0,-3.707,-4.611
0.4,1050001694.6500367,2.3522827625,591.5616341754737,3945.481396833012,0.49,-1.04,-3.807,-4.723
0.4,1050001694.6500367,2.3524563313,636.7955209079155,3919.2232245497667,0.464,-1.073,-3.896,-4.822
0.4,1050001694.6500367,2.3525772095,676.0829753919819,3897.6245309771994,0.444,-1.1,-3.967,-4.903
0.4,1050001694.6500367,2.352666378,714.4963260755135,3877.0374851038273,0.429,-1.119,-4.035,-4.979
0.4,1050001694.6500367,2.352735281,751.6228940182053,3858.335599053513,0.417,-1.134,-4.096,-5.048
0.4,1050001694.6500367,2.3527989388,796.1593504173184,3837.0724549227884,0.404,-1.151,-4.166,-5.127
0.4,1050001694.6500367,2.3528673649,859.013521505396,3809.7808984641915,0.388,-1.172,-4.256,-5.229
0.4,1050001694.6500367,2.352930069,924.698173938223,3782.683455893896,0.38,-1.18,-4.346,-5.33
0.4,1050001694.6500367,2.3529965878,1002.3052380778994,3751.4572346200985,0.376,-1.181,-4.445,-5.442
0.4,1050001694.6500367,2.3530547619,1086.4256236170656,3721.3455600387106,0.374,-1.181,-4.543,-5.552
0.4,1050001694.6500367,2.3531296253,1210.598133550483,3680.4421857199322,0.393,-1.152,-4.675,-5.701
0.4,1050001694.6500367,2.3532090187,1348.9628825916532,3639.1503612720708,0.416,-1.117,-4.811,-5.853
0.4,1050001694.6500367,2.3532967567,1520.5475297324954,3593.3539675538973,0.466,-1.047,-4.958,-6.018
0.4,1050001694.6500367,2.3533699512,1674.9428760264382,3556.3131856898544,0.516,-0.979,-5.078,-6.153
0.4,1050001694.6500367,2.3534045219,1745.8221529205039,3539.9734108343464,0.545,-0.941,-5.131,-6.213
0.4,1050001694.6500367,2.3534216881,1770.108958317422,3534.2722436627364,0.556,-0.927,-5.148,-6.232
0.4,1050001694.6500367,2.3534338474,1807.1741260109275,3526.9556611308685,0.572,-0.905,-5.173,-6.26
0.4,1050001694.6500367,2.3534502983,1845.0154191794736,3518.0337377370256,0.591,-0.881,-5.2,-6.291
0.4,1050001694.6500367,2.3534543514,1836.5383433483455,3520.4647488942164,0.585,-0.889,-5.193,-6.282
0.4,1050001694.6500367,2.3534598351,1845.0154191794736,3518.8438882095843,0.589,-0.884,-5.2,-6.29
0.4,1050001694.6500367,2.3534648418,1870.6821403657998,3512.3679046568063,0.601,-0.867,-5.218,-6.31
0.4,1050001694.6500367,2.3534722328,1905.4607179632462,3505.9038393261267,0.617,-0.847,-5.239,-6.334
0.4,1050001694.6500367,2.3534843922,1918.668740670289,3502.6762691381296,0.622,-0.84,-5.249,-6.345
0.4,1050001694.6500367,2.3534855843,1905.4607179632462,3505.9038393261267,0.616,-0.849,-5.24,-6.335
0.4,1050001694.6500367,2.3538589478,3349.654391578276,3272.6533057537135,1.468,0.217,-5.948,-7.146
0.4,1050001694.6500367,2.353859663,3349.654391578276,3227.007687515532,1.808,0.638,-5.963,-7.185
0.4,1050001694.6500367,2.3538603783,1995.2623149688789,3465.7720899354867,0.758,-0.675,-5.307,-6.419
0.4,1050001694.6500367,2.3538606167,1883.6490894898002,3489.7956743787454,0.703,-0.746,-5.235,-6.337
0.4,1050001694.6500367,2.3538620472,1166.8096170609629,3693.175960479867,0.389,-1.159,-4.632,-5.653
0.4,1050001694.6500367,2.353864193,1081.4339512979375,3725.632384666039,0.369,-1.188,-4.535,-5.542
0.4,1050001694.6500367,2.3538672924,1282.3305826560218,3649.2196100947112,0.436,-1.097,-4.75,-5.788
0.4,1050001694.6500367,2.3538713455,1766.037820686164,3509.942484670127,0.674,-0.786,-5.156,-6.25
0.4,1050001694.6500367,2.3538763523,2426.6100950824143,3375.981048554255,1.064,-0.298,-5.556,-6.707
0.4,1050001694.6500367,2.3538823128,3033.891184194272,3283.976192504799,1.474,0.214,-5.837,-7.03
0.4,1050001694.6500367,2.3538897038,3419.794425137087,3232.9575336809407,1.754,0.576,-5.986,-7.205
0.4,1050001694.6500367,2.3538980484,3614.0986263961313,3207.746206134075,1.867,0.711,-6.052,-7.283
0.4,1050001694.6500367,2.3539075851,3715.352290971724,3191.5378551007616,1.945,0.804,-6.087,-7.327
0.4,1050001694.6500367,2.3539078236,2703.9583641088434,3311.311214825911,1.377,0.078,-5.701,-6.88
0.4,1050001694.6500367,2.3539085388,2113.489039836648,3409.5730529319967,1.004,-0.379,-5.393,-6.529
0.4,1050001694.6500367,2.3539099693,1312.1998990192028,3608.278079727421,0.555,-0.955,-4.793,-5.847
0.4,1050001694.6500367,2.3539121151,1213.3888504649774,3642.503686647633,0.511,-1.014,-4.693,-5.734
0.4,1050001694.6500367,2.3539152145,1435.489433353656,3570.2612803901543,0.616,-0.874,-4.906,-5.976
0.4,1050001694.6500367,2.3539192677,1972.4227361148535,3436.370641490611,0.927,-0.475,-5.306,-6.431
0.4,1050001694.6500367,2.3539245129,2697.7394324449206,3309.786650728407,1.392,0.097,-5.699,-6.88
0.4,1050001694.6500367,2.3539307117,3365.115693754908,3222.5524898879053,1.832,0.666,-5.97,-7.194
0.4,1050001694.6500367,2.3539381027,3784.425847170932,3176.1426525728807,2.023,0.896,-6.114,-7.361
0.4,1050001694.6500367,2.3539464474,3990.2490236214207,3156.4578912990714,2.11,0.996,-6.177,-7.435
0.4,1050001694.6500367,2.3539562225,4092.6065973001096,3146.2990561619904,2.151,1.038,-6.208,-7.472
0.4,1050001694.6500367,2.353956461,3026.913428101305,3262.1205039426677,1.64,0.419,-5.84,-7.044
0.4,1050001694.6500367,2.3539571762,2360.478233180578,3361.243690470534,1.184,-0.158,-5.533,-6.69
0.4,1050001694.6500367,2.3539586067,1468.9262776438661,3560.4099003595707,0.63,-0.855,-4.935,-6.008
0.4,1050001694.6500367,2.3539609909,1355.1894123510365,3595.837026057048,0.574,-0.93,-4.832,-5.892
0.4,1050001694.6500367,2.3539643288,1599.5580286146694,3523.7087104248726,0.706,-0.757,-5.042,-6.131
0.4,1050001694.6500367,2.3539686203,2187.761623949552,3392.3448954144324,1.068,-0.302,-5.436,-6.58
0.4,1050001694.6500367,2.3539741039,2971.666031738025,3267.3826606314346,1.616,0.387,-5.82,-7.021
0.4,1050001694.6500367,2.3539807796,3689.775985701505,3181.9987155303106,2.007,0.876,-6.083,-7.327
0.4,1050001694.6500367,2.353988409,4130.475019901614,3137.6175101187496,2.196,1.084,-6.22,-7.489
0.4,1050001694.6500367,2.3539974689,4335.108783875289,3118.8895840939385,2.276,1.164,-6.277,-7.557
0.4,1050001694.6500367,2.3540077209,4436.086439314323,3109.5675818498016,2.314,1.203,-6.304,-7.589
0.4,1050001694.6500367,2.3540079594,3318.944575526103,3220.3271981675407,1.858,0.696,-5.957,-7.182
0.4,1050001694.6500367,2.3540086746,2588.2129151530903,3320.4733579750687,1.362,0.058,-5.651,-6.826
0.4,1050001694.6500367,2.3540103436,1614.3585568264868,3518.0337377370256,0.722,-0.737,-5.055,-6.146
0.4,1050001694.6500367,2.3540127277,1489.3610777109154,3553.857419860757,0.643,-0.839,-4.951,-6.027
0.4,1050001694.6500367,2.3540160656,1753.880501841762,3483.3731503601166,0.805,-0.631,-5.158,-6.264
0.4,1050001694.6500367,2.3540205956,2382.319469358689,3354.2853083268956,1.224,-0.112,-5.546,-6.706
0.4,1050001694.6500367,2.3540263176,3221.0687912834346,3231.4690444798844,1.816,0.645,-5.921,-7.141
0.4,1050001694.6500367,2.3540329933,3981.0717055349733,3147.748314101317,2.163,1.051,-6.177,-7.44
0.4,1050001694.6500367,2.3540410995,4446.312674691088,3105.274521697761,2.343,1.233,-6.309,-7.597
0.4,1050001694.6500367,2.3540503979,4655.860935229591,3087.450475587445,2.413,1.298,-6.363,-7.663
0.4,1050001694.6500367,2.3540611267,4753.352259428054,3079.6403415023933,2.429,1.302,-6.387,-7.692
0.4,1050001694.6500367,2.3540613651,3622.4299841669877,3184.1975217261256,2.013,0.882,-6.063,-7.306
0.4,1050001694.6500367,2.3540620804,2818.382931264455,3284.7324430306794,1.537,0.282,-5.756,-6.949
0.4,1050001694.6500367,2.3540637493,1761.976046411629,3481.769367055342,0.806,-0.629,-5.165,-6.271
0.4,1050001694.6500367,2.3540663719,1618.0800376430661,3518.8438882095843,0.718,-0.742,-5.057,-6.148
0.4,1050001694.6500367,2.3540699482,1901.0782799232995,3449.0540481442044,0.897,-0.516,-5.26,-6.38
0.4,1050001694.6500367,2.3540747166,2564.484036517716,3322.7678521107573,1.357,0.051,-5.639,-6.814
0.4,1050001694.6500367,2.354080677,3443.4993076333844,3202.5800946290287,1.941,0.794,-6.003,-7.237
0.4,1050001694.6500367,2.3540878296,4226.686142656029,3121.044780985781,2.282,1.171,-6.249,-7.527
0.4,1050001694.6500367,2.3540961742,4698.941086052156,3080.3495365425674,2.436,1.311,-6.373,-7.677
0.4,1050001694.6500367,2.3541059494,4886.523593428336,3064.7849053700324,2.47,1.321,-6.42,-7.733
0.4,1050001694.6500367,2.3541171551,4965.923214503363,3058.4402465105513,2.483,1.325,-6.438,-7.755
0.4,1050001694.6500367,2.3541173935,3845.9178204535356,3157.1847762703,2.136,1.025,-6.136,-7.393
0.4,1050001694.6500367,2.3541181087,2985.3826189179604,3258.367010020087,1.681,0.468,-5.828,-7.034
0.4,1050001694.6500367,2.3541197777,1874.9945080674192,3455.413295778485,0.879,-0.538,-5.243,-6.36
0.4,1050001694.6500367,2.3541224003,1721.8685749860078,3492.2071726340682,0.781,-0.662,-5.134,-6.235
0.4,1050001694.6500367,2.3541259766,2018.3663636815618,3422.9456231604145,0.979,-0.413,-5.336,-6.466
0.4,1050001694.6500367,2.3541305065,2710.1916318908416,3297.6153801591913,1.478,0.203,-5.709,-6.896
0.4,1050001694.6500367,2.354136467,3630.780547701014,3178.3374121462216,2.048,0.922,-6.067,-7.313
0.4,1050001694.6500367,2.3541433811,4436.086439314323,3097.419299216581,2.392,1.283,-6.308,-7.601
0.4,1050001694.6500367,2.3541517258,4931.738039549359,3056.3282803659663,2.498,1.337,-6.43,-7.749
0.4,1050001694.6500367,2.3541615009,5128.613839913648,3040.1849166294414,2.534,1.348,-6.479,-7.807
0.4,1050001694.6500367,2.3541724682,5223.9618899911975,3033.1926853535583,2.55,1.354,-6.499,-7.831
0.4,1050001694.6500367,2.3541727066,4111.497211045221,3125.35964361334,2.278,1.169,-6.217,-7.493
0.4,1050001694.6500367,2.3541736603,3191.5378551007616,3227.750819048055,1.85,0.682,-5.911,-7.132
0.4,1050001694.6500367,2.3541753292,2009.0928126087279,3423.733876264524,0.983,-0.41,-5.331,-6.461
0.4,1050001694.6500367,2.3541781902,1840.7720014689564,3461.784268375584,0.863,-0.559,-5.22,-6.334
0.4,1050001694.6500367,2.3541820049,2152.781734724374,3393.1261016293192,1.078,-0.292,-5.419,-6.562
0.4,1050001694.6500367,2.3541870117,2877.3984147356696,3269.640468343053,1.628,0.398,-5.784,-6.984
0.4,1050001694.6500367,2.3541932106,3828.2474331682283,3152.825975955186,2.165,1.055,-6.133,-7.393
0.4,1050001694.6500367,2.35420084,4666.593803142887,3073.972656082513,2.467,1.334,-6.367,-7.674
0.4,1050001694.6500367,2.3542098999,5164.163692720711,3034.5898438888025,2.553,1.36,-6.487,-7.817
0.4,1050001694.6500367,2.3542203903,5370.317963702527,3019.256430871959,2.587,1.369,-6.533,-7.872
0.4,1050001694.6500367,2.3542323112,5445.026528424214,3013.006024186122,2.595,1.369,-6.551,-7.893
0.4,1050001694.6500367,2.3542325497,4365.158322401661,3099.559659837377,2.395,1.287,-6.288,-7.58
0.4,1050001694.6500367,2.3542332649,3380.6483620598156,3202.5800946290287,1.957,0.811,-5.982,-7.216
0.4,1050001694.6500367,2.3542351723,2133.0449131465775,3397.8171182708334,1.063,-0.311,-5.409,-6.55
0.4,1050001694.6500367,2.3542377949,1954.3394557753943,3436.370641490611,0.938,-0.466,-5.296,-6.42
0.4,1050001694.6500367,2.3542413712,2280.3420720004187,3368.992157414906,1.173,-0.177,-5.491,-6.646
0.4,1050001694.6500367,2.3542463779,3033.891184194272,3246.384827880331,1.759,0.567,-5.85,-7.062
0.4,1050001694.6500367,2.3542523384,4017.9081084894,3131.1220745994874,2.264,1.155,-6.191,-7.463
0.4,1050001694.6500367,2.3542597294,4875.284901033865,3053.514593940289,2.521,1.357,-6.419,-7.74
0.4,1050001694.6500367,2.3542683125,5382.697825162882,3013.699874341145,2.604,1.379,-6.537,-7.879
0.4,1050001694.6500367,2.3542785645,5584.701947368307,2998.4720157970514,2.628,1.379,-6.582,-7.932
0.4,1050001694.6500367,2.3542900085,5675.446054085472,2992.264636608189,2.638,1.38,-6.598,-7.952
0.4,1050001694.6500367,2.354290247,4613.175745603796,3073.264929204293,2.483,1.349,-6.355,-7.663
0.4,1050001694.6500367,2.3542912006,3572.7283815192886,3176.8740706497692,2.072,0.949,-6.05,-7.297
0.4,1050001694.6500367,2.3542928696,2259.435770220978,3371.3201787284347,1.165,-0.187,-5.481,-6.634
0.4,1050001694.6500367,2.3542957306,2065.3801558105292,3411.9291162192844,1.021,-0.364,-5.366,-6.501
0.4,1050001694.6500367,2.3542997837,2404.362800006932,3345.0298682601374,1.279,-0.048,-5.558,-6.723
0.4,1050001694.6500367,2.3543050289,3176.8740706497692,3224.0368719181865,1.876,0.712,-5.908,-7.131
0.4,1050001694.6500367,2.3543114662,4178.303666466218,3110.999920424558,2.36,1.253,-6.238,-7.523
0.4,1050001694.6500367,2.354319334,5035.006087879047,3034.5898438888025,2.573,1.382,-6.46,-7.79
0.4,1050001694.6500367,2.3543283939,5533.501092157366,2996.4014599344437,2.642,1.392,-6.571,-7.922
0.4,1050001694.6500367,2.3543391228,5727.960309858292,2982.634245778771,2.666,1.394,-6.61,-7.969
0.4,1050001694.6500367,2.3543515205,5780.960474057181,2977.8306796291185,2.676,1.396,-6.622,-7.984
0.4,1050001694.6500367,2.354351759,4786.300923226385,3052.1087222420074,2.543,1.378,-6.399,-7.719
0.4,1050001694.6500367,2.3543527126,3698.281797802663,3156.4578912990714,2.174,1.064,-6.094,-7.352
0.4,1050001694.6500367,2.3543543816,2349.6328208483073,3350.425766809598,1.26,-0.072,-5.532,-6.694
0.4,1050001694.6500367,2.3543570042,2142.8906011200584,3391.5638690582196,1.094,-0.275,-5.416,-6.56
0.4,1050001694.6500367,2.3543608189,2494.5947269429535,3324.298395649131,1.372,0.064,-5.607,-6.781
0.4,1050001694.6500367,2.3543658257,3288.51630875983,3205.531138700436,1.967,0.819,-5.951,-7.184
0.4,1050001694.6500367,2.3543720245,4305.266104917106,3092.430870441563,2.451,1.345,-6.276,-7.572
0.4,1050001694.6500367,2.3543794155,5188.000389289609,3017.1715226017723,2.623,1.405,-6.496,-7.836
0.4,1050001694.6500367,2.354388237,5701.642722807472,2979.2023371471673,2.682,1.406,-6.606,-7.967
0.4,1050001694.6500367,2.3543987274,5902.010801718442,2964.1487904584055,2.707,1.406,-6.648,-8.017
0.4,1050001694.6500367,2.3544104099,5984.115950603199,2958.6936525140045,2.718,1.408,-6.663,-8.035
0.4,1050001694.6500367,2.3544106483,5023.4258952238715,3027.610480923131,2.608,1.406,-6.458,-7.793
0.4,1050001694.6500367,2.354411602,3881.5036599064824,3133.2857243155854,2.282,1.174,-6.153,-7.425
0.4,1050001694.6500367,2.354413271,2477.4220576332864,3326.5955329400435,1.368,0.057,-5.598,-6.771
0.4,1050001694.6500367,2.354416132,2254.2392121524304,3368.2165076063116,1.19,-0.159,-5.48,-6.635
0.4,1050001694.6500367,2.3544201851,2618.1830082189863,3301.4140864591145,1.483,0.202,-5.669,-6.854
0.4,1050001694.6500367,2.3544254303,3435.5794789987463,3183.464417556432,2.065,0.936,-6.006,-7.25
0.4,1050001694.6500367,2.3544318676,4477.133041763624,3072.557365267445,2.509,1.377,-6.323,-7.631
0.4,1050001694.6500367,2.3544397354,5370.317963702527,2998.4720157970514,2.662,1.416,-6.538,-7.888
0.4,1050001694.6500367,2.3544492722,5888.43655355589,2960.738151747431,2.722,1.417,-6.646,-8.017
0.4,1050001694.6500367,2.354460001,6095.368972401694,2946.4562708650446,2.744,1.416,-6.687,-8.066
0.4,1050001694.6500367,2.3544723988,6180.164001384158,2941.033693747309,2.751,1.416,-6.701,-8.083
0.4,1050001694.6500367,2.3544726372,5272.298614228227,3003.308878676558,2.659,1.422,-6.516,-7.863
0.4,1050001694.6500367,2.3544735909,4073.802778041126,3110.283668685142,2.389,1.282,-6.21,-7.496
0.4,1050001694.6500367,2.3544752598,2606.153549998895,3302.934793960337,1.481,0.198,-5.663,-6.847
0.4,1050001694.6500367,2.3544778824,2371.373705661655,3345.0298682601374,1.291,-0.036,-5.543,-6.708
0.4,1050001694.6500367,2.3544816971,2741.5741719278835,3279.4423443213464,1.607,0.361,-5.728,-6.924
0.4,1050001694.6500367,2.3544864655,3580.9643710263585,3162.2776601683795,2.167,1.058,-6.059,-7.313
0.4,1050001694.6500367,2.3544926643,4645.152752227492,3052.8115771626694,2.565,1.403,-6.367,-7.687
0.4,1050001694.6500367,2.3545000553,5546.25712957911,2979.2023371471673,2.705,1.43,-6.577,-7.938
0.4,1050001694.6500367,2.3545088768,6067.363295885053,2942.388401724649,2.762,1.43,-6.682,-8.063
0.4,1050001694.6500367,2.3545191288,6280.58358813318,2927.520871369441,2.78,1.428,-6.721,-8.109
0.4,1050001694.6500367,2.3545308113,6338.69711256927,2922.13314244037,2.789,1.429,-6.734,-8.125
0.4,1050001694.6500367,2.3545310497,5495.408738576249,2978.5164294291912,2.714,1.439,-6.567,-7.928
0.4,1050001694.6500367,2.3545320034,4246.19563946313,3086.0289794360633,2.499,1.388,-6.261,-7.561
0.4,1050001694.6500367,2.3545336723,2722.701308077913,3277.932453002282,1.621,0.378,-5.72,-6.916
0.4,1050001694.6500367,2.3545365334,2471.724145016129,3321.2380132514595,1.403,0.098,-5.6,-6.775
0.4,1050001694.6500367,2.3545403481,2857.5905433749467,3256.1169870485296,1.744,0.537,-5.781,-6.989
0.4,1050001694.6500367,2.3545453548,3715.352290971724,3141.2319059861875,2.27,1.162,-6.104,-7.37
0.4,1050001694.6500367,2.3545517921,4786.300923226385,3033.1926853535583,2.623,1.432,-6.405,-7.736
0.4,1050001694.6500367,2.3545594215,5701.642722807472,2961.419965394361,2.748,1.446,-6.609,-7.98
0.4,1050001694.6500367,2.3545684814,6208.690342300638,2925.499309897072,2.795,1.442,-6.71,-8.099
0.4,1050001694.6500367,2.3545789719,6412.095765851615,2912.0578615296977,2.811,1.439,-6.747,-8.143
0.4,1050001694.6500367,2.3545911312,6471.426157485831,2907.3679594442274,2.817,1.439,-6.758,-8.157
0.4,1050001694.6500367,2.3545913696,5701.642722807472,2957.331437419893,2.762,1.455,-6.61,-7.983
0.4,1050001694.6500367,2.3545923233,4395.416154378243,3065.490679425787,2.556,1.416,-6.304,-7.615
0.4,1050001694.6500367,2.3545939922,2831.391995799379,3257.616829660631,1.744,0.534,-5.77,-6.977
0.4,1050001694.6500367,2.3545966148,2570.3957827688646,3301.4140864591145,1.504,0.223,-5.648,-6.833
0.4,1050001694.6500367,2.3546004295,2964.8313895243423,3236.6817570165304,1.861,0.686,-5.827,-7.045
0.4,1050001694.6500367,2.3546054363,3837.0724549227884,3123.2014671492143,2.354,1.248,-6.143,-7.42
0.4,1050001694.6500367,2.3546116352,4920.395356814511,3017.866332008685,2.667,1.453,-6.439,-7.779
0.4,1050001694.6500367,2.3546190262,5834.451042737448,2947.134795608739,2.78,1.456,-6.638,-8.017
0.4,1050001694.6500367,2.3546278477,6353.309318517436,2912.0578615296977,2.818,1.447,-6.738,-8.134
0.4,1050001694.6500367,2.3546383381,6561.452663029057,2899.3456931707387,2.828,1.441,-6.775,-8.178
0.4,1050001694.6500367,2.3546500206,6622.165037017622,2895.3428647598066,2.832,1.439,-6.787,-8.192
0.4,1050001694.6500367,2.354650259,5929.2532458,2939.6796094924184,2.791,1.458,-6.657,-8.039
0.4,1050001694.6500367,2.3546509743,4570.881896148751,3048.5968741891425,2.6,1.433,-6.35,-7.672
0.4,1050001694.6500367,2.3546526432,2958.0124665515464,3239.664224348446,1.847,0.667,-5.823,-7.039
0.4,1050001694.6500367,2.3546550274,2679.1683248190316,3283.976192504799,1.596,0.342,-5.701,-6.894
0.4,1050001694.6500367,2.3546586037,3090.295432513592,3218.844524111849,1.94,0.781,-5.879,-7.105
0.4,1050001694.6500367,2.3546631336,3990.2490236214207,3105.989619905655,2.435,1.329,-6.189,-7.477
0.4,1050001694.6500367,2.3546690941,5093.308710571952,3000.5440024430936,2.7,1.461,-6.481,-7.829
0.4,1050001694.6500367,2.3546760082,6039.4862937638,2930.2184598312765,2.807,1.461,-6.677,-8.064
0.4,1050001694.6500367,2.3546841145,6576.578373554205,2894.6762641760283,2.842,1.449,-6.778,-8.183
0.4,1050001694.6500367,2.3546936512,6792.036326171843,2880.713049775041,2.852,1.443,-6.817,-8.229
0.4,1050001694.6500367,2.3547046185,6886.522963442762,2874.7494529363703,2.854,1.442,-6.832,-8.247
0.4,1050001694.6500367,2.3547048569,6251.726927756856,2913.399222570164,2.832,1.462,-6.719,-8.114
0.4,1050001694.6500367,2.3547055721,4808.393484497285,3022.7344800386522,2.668,1.462,-6.412,-7.749
0.4,1050001694.6500367,2.3547072411,3118.8895840939385,3212.9206511412604,1.969,0.815,-5.892,-7.121
0.4,1050001694.6500367,2.3547098637,2824.8799749157074,3258.367010020087,1.74,0.527,-5.768,-6.974
0.4,1050001694.6500367,2.3547134399,3250.872973854344,3193.7432529771722,2.054,0.917,-5.943,-7.181
0.4,1050001694.6500367,2.3547179699,4178.303666466218,3081.768416611512,2.533,1.416,-6.246,-7.548
0.4,1050001694.6500367,2.3547239304,5321.082592667942,2977.8306796291185,2.749,1.475,-6.53,-7.891
0.4,1050001694.6500367,2.3547310829,6266.138646723356,2908.707160207584,2.845,1.47,-6.722,-8.12
0.4,1050001694.6500367,2.3547394276,6807.693586937417,2873.4258866748714,2.868,1.456,-6.82,-8.235
0.4,1050001694.6500367,2.3547489643,7014.552984199714,2859.565178927503,2.873,1.453,-6.856,-8.276
0.4,1050001694.6500367,2.35476017,7095.777679633888,2853.6453620049656,2.877,1.453,-6.87,-8.292
0.4,1050001694.6500367,2.3547604084,6546.361740672747,2886.0244097569725,2.871,1.468,-6.775,-8.185
0.4,1050001694.6500367,2.3547611237,5035.006087879047,2997.091486307045,2.726,1.482,-6.468,-7.818
0.4,1050001694.6500367,2.3547627926,3280.9529311311903,3187.1316270228012,2.092,0.961,-5.954,-7.196
0.4,1050001694.6500367,2.3547651768,2964.8313895243423,3233.7020353739117,1.889,0.716,-5.828,-7.047
0.4,1050001694.6500367,2.3547687531,3404.081897010009,3169.56746304349,2.171,1.055,-6.0,-7.25
0.4,1050001694.6500367,2.354773283,4345.102241715715,3059.1445594864085,2.598,1.448,-6.293,-7.608
0.4,1050001694.6500367,2.3547790051,5495.408738576249,2957.331437419893,2.8,1.493,-6.57,-7.942
0.4,1050001694.6500367,2.3547856808,6441.692655151775,2889.348981559081,2.879,1.48,-6.756,-8.164
0.4,1050001694.6500367,2.354793787,6966.265141107687,2855.617271381299,2.891,1.469,-6.848,-8.269
0.4,1050001694.6500367,2.3548033237,7161.43410212902,2842.496901815529,2.899,1.469,-6.88,-8.307
0.4,1050001694.6500367,2.3548140526,7227.698036021702,2837.9190284415554,2.906,1.472,-6.89,-8.319
0.4,1050001694.6500367,2.354814291,6760.829753919818,2864.1779699065796,2.896,1.48,-6.814,-8.233
0.4,1050001694.6500367,2.3548150063,5199.959965335162,2975.7743773728107,2.777,1.501,-6.506,-7.868
0.4,1050001694.6500367,2.3548164368,3396.2527259040853,3165.920463432239,2.198,1.086,-6.0,-7.252
0.4,1050001694.6500367,2.354818821,3069.021988391158,3213.660538640318,1.988,0.834,-5.872,-7.101
0.4,1050001694.6500367,2.3548221588,3515.6044052829798,3149.1982396022863,2.275,1.167,-6.041,-7.303
0.4,1050001694.6500367,2.3548266888,4466.835921509631,3039.484968770113,2.661,1.482,-6.328,-7.656
0.4,1050001694.6500367,2.354831934,5623.413251903491,2938.3261486728097,2.844,1.512,-6.599,-7.982
0.4,1050001694.6500367,2.3548386097,6561.452663029057,2870.780582024692,2.907,1.495,-6.782,-8.197
0.4,1050001694.6500367,2.3548464775,7095.777679633888,2837.265648662569,2.923,1.49,-6.87,-8.3
0.4,1050001694.6500367,2.3548555374,7294.575102545687,2823.5793691102995,2.94,1.496,-6.902,-8.338
0.4,1050001694.6500367,2.3548657894,7362.070974947361,2818.382931264455,2.951,1.502,-6.912,-8.351
0.4,1050001694.6500367,2.3548660278,6998.419960022738,2839.226239424908,2.93,1.499,-6.855,-8.283
0.4,1050001694.6500367,2.3548667431,5382.697825162882,2951.209226666387,2.841,1.527,-6.548,-7.924
0.4,1050001694.6500367,2.3548681736,3531.83169791957,3140.5086938762165,2.328,1.221,-6.048,-7.315
0.4,1050001694.6500367,2.3548703194,3184.1975217261256,3188.5996933863867,2.114,0.982,-5.921,-7.162
0.4,1050001694.6500367,2.3548736572,3647.5394692560767,3123.920693664115,2.404,1.298,-6.087,-7.364
0.4,1050001694.6500367,2.3548777103,4623.810213992603,3015.0880540378826,2.736,1.521,-6.371,-7.712
0.4,1050001694.6500367,2.3548829556,5794.286964268809,2914.741201472475,2.895,1.532,-6.637,-8.031
0.4,1050001694.6500367,2.3548891544,6760.829753919818,2847.7378001737457,2.938,1.514,-6.817,-8.241
0.4,1050001694.6500367,2.3548965454,7311.390834834172,2813.19605679996,2.971,1.522,-6.905,-8.345
0.4,1050001694.6500367,2.3549051285,7533.55563733717,2799.6258831058417,2.985,1.532,-6.94,-8.386
0.4,1050001694.6500367,2.3549149036,7620.790100254122,2793.1869222539713,2.994,1.538,-6.954,-8.402
0.4,1050001694.6500367,2.3549151421,7345.138681571151,2808.018728116636,2.983,1.532,-6.912,-8.354
0.4,1050001694.6500367,2.3549158573,5649.369748123023,2920.1153013941557,2.902,1.547,-6.606,-7.997
0.4,1050001694.6500367,2.3549170494,3715.352290971724,3107.420310388586,2.496,1.392,-6.113,-7.399
0.4,1050001694.6500367,2.3549191952,3349.654391578276,3155.0046233746275,2.284,1.176,-5.986,-7.244
0.4,1050001694.6500367,2.3549222946,3828.2474331682283,3090.295432513592,2.581,1.478,-6.149,-7.446
0.4,1050001694.6500367,2.3549263477,4830.5880203977285,2981.947547925597,2.823,1.559,-6.425,-7.784
0.4,1050001694.6500367,2.3549311161,6025.595860743575,2881.3764348397,2.964,1.561,-6.685,-8.096
0.4,1050001694.6500367,2.354937315,6998.419960022738,2813.19605679996,3.007,1.562,-6.858,-8.297
0.4,1050001694.6500367,2.3549442291,7533.55563733717,2777.7937729057107,3.046,1.589,-6.945,-8.399
0.4,1050001694.6500367,2.3549525738,7744.617978025183,2761.213575949454,3.067,1.606,-6.978,-8.439
0.4,1050001694.6500367,2.3549618721,7834.29642766212,2752.3268065191837,3.082,1.62,-6.991,-8.455
0.4,1050001694.6500367,2.3549621105,7655.966069112562,2761.213575949454,3.078,1.617,-6.966,-8.427
0.4,1050001694.6500367,2.3549628258,5888.43655355589,2873.4258866748714,3.005,1.6,-6.661,-8.075
0.4,1050001694.6500367,2.3549640179,3890.4514499428046,3058.4402465105513,2.705,1.559,-6.174,-7.489
0.4,1050001694.6500367,2.3549661636,3499.451670283573,3105.989619905655,2.562,1.461,-6.046,-7.334
0.4,1050001694.6500367,2.3549692631,3990.2490236214207,3039.484968770113,2.763,1.59,-6.205,-7.532
0.4,1050001694.6500367,2.3549730778,5011.872336272725,2930.8932452503213,2.969,1.637,-6.475,-7.86
0.4,1050001694.6500367,2.3549778461,6223.002851691595,2830.740118752184,3.057,1.631,-6.728,-8.157
0.4,1050001694.6500367,2.3549838066,7194.489780036998,2762.4854546315764,3.128,1.673,-6.896,-8.354
0.4,1050001694.6500367,2.3549907207,7726.805850957021,2725.837738928534,3.153,1.701,-6.98,-8.451
0.4,1050001694.6500367,2.354998827,7925.013304804718,2707.6966023304954,3.172,1.724,-7.012,-8.489
0.4,1050001694.6500367,2.3550081253,7998.342550070284,2697.1183264949354,3.19,1.745,-7.023,-8.505
0.4,1050001694.6500367,2.3550083637,7943.282347242814,2698.9820734720156,3.19,1.745,-7.016,-8.497
0.4,1050001694.6500367,2.3550088406,6095.368972401694,2809.9591088425027,3.13,1.698,-6.71,-8.147
0.4,1050001694.6500367,2.3550102711,4055.085354483839,2990.8869650638235,2.948,1.707,-6.232,-7.584
0.4,1050001694.6500367,2.3550121784,3630.780547701014,3038.0855564655426,2.857,1.685,-6.104,-7.43
0.4,1050001694.6500367,2.3550150394,4139.996748197304,2973.0348496770193,2.995,1.728,-6.26,-7.622
0.4,1050001694.6500367,2.3550186157,5176.068319505676,2866.8171905248937,3.143,1.742,-6.522,-7.938
0.4,1050001694.6500367,2.3550233841,6397.348354826482,2768.8536412912363,3.209,1.766,-6.768,-8.221
0.4,1050001694.6500367,2.3550288677,7362.070974947361,2702.713431942815,3.253,1.811,-6.932,-8.411
0.4,1050001694.6500367,2.355035305,7888.601176185541,2666.8586645214805,3.272,1.853,-7.015,-8.503
0.4,1050001694.6500367,2.3550429344,8090.958991783821,2649.7200988789637,3.29,1.886,-7.046,-8.538
0.4,1050001694.6500367,2.3550517559,8165.823713585923,2639.9761293548113,3.308,1.911,-7.057,-8.552
0.4,1050001694.6500367,2.3550519943,8241.38115013002,2635.724417972899,3.31,1.917,-7.068,-8.564
0.4,1050001694.6500367,2.3550524712,6338.69711256927,2744.732343478535,3.298,1.85,-6.762,-8.225
0.4,1050001694.6500367,2.3550536633,4226.686142656029,2921.4603738773317,3.171,1.832,-6.291,-7.68
0.4,1050001694.6500367,2.3550555706,3784.425847170932,2968.246743463243,3.109,1.836,-6.162,-7.527
0.4,1050001694.6500367,2.3550584316,4305.266104917106,2902.685610499054,3.218,1.854,-6.315,-7.714
0.4,1050001694.6500367,2.3550617695,5370.317963702527,2797.692637854652,3.293,1.864,-6.573,-8.013
0.4,1050001694.6500367,2.3550662994,6591.738952443213,2700.225286888239,3.371,1.933,-6.813,-8.291
0.4,1050001694.6500367,2.3550715446,7568.328950209744,2633.9043527473104,3.399,2.01,-6.974,-8.47
0.4,1050001694.6500367,2.3550777435,8090.958991783821,2597.765830229425,3.403,2.019,-7.052,-8.557
0.4,1050001694.6500367,2.3550851345,8298.507675144225,2579.2889644274874,3.404,2.008,-7.081,-8.59
0.4,1050001694.6500367,2.3550934792,8394.599865193974,2569.212344284061,3.413,2.009,-7.092,-8.604
0.4,1050001694.6500367,2.3550937176,8609.937521846008,2557.996818555016,3.4,1.99,-7.121,-8.634
0.4,1050001694.6500367,2.3550941944,6606.934480075957,2666.8586645214805,3.467,2.047,-6.823,-8.311
0.4,1050001694.6500367,2.3550953865,4425.883723626264,2840.5340525398005,3.387,1.971,-6.358,-7.783
0.4,1050001694.6500367,2.3550970554,3962.7803425543934,2886.689017948273,3.377,1.989,-6.227,-7.634
0.4,1050001694.6500367,2.355099678,4508.167045414601,2819.6811434706947,3.427,1.999,-6.379,-7.812
0.4,1050001694.6500367,2.3551030159,5584.701947368307,2712.688960516933,3.521,2.079,-6.631,-8.105
0.4,1050001694.6500367,2.355107069,6823.3869414166975,2613.3645761890234,3.556,2.172,-6.865,-8.366
0.4,1050001694.6500367,2.3551120758,7798.3011052325855,2543.899793129798,3.514,2.101,-7.015,-8.529
0.4,1050001694.6500367,2.3551180363,8336.81184619634,2502.64932573108,3.495,2.063,-7.091,-8.612
0.4,1050001694.6500367,2.3551249504,8550.667128846831,2480.275937692957,3.507,2.065,-7.123,-8.648
0.4,1050001694.6500367,2.3551328182,8649.67918775693,2465.471576061104,3.526,2.077,-7.136,-8.666
0.4,1050001694.6500367,2.3551328182,9015.711376059571,2447.372073067255,3.498,2.045,-7.183,-8.714
0.4,1050001694.6500367,2.3551332951,6918.309709189362,2561.533264087948,3.635,2.226,-6.884,-8.397
0.4,1050001694.6500367,2.3551340103,4645.152752227492,2742.205515393157,3.661,2.205,-6.427,-7.893
0.4,1050001694.6500367,2.355134964,4139.996748197304,2793.830151362531,3.621,2.178,-6.291,-7.736
0.4,1050001694.6500367,2.3551363945,4677.351412871981,2725.837738928534,3.691,2.241,-6.437,-7.908
0.4,1050001694.6500367,2.3551383018,5754.399373371566,2616.977567970074,3.735,2.351,-6.68,-8.18
0.4,1050001694.6500367,2.355140686,6966.265141107687,2515.938378692713,3.664,2.241,-6.893,-8.41
0.4,1050001694.6500367,2.3551435471,7888.601176185541,2443.430552693971,3.624,2.176,-7.036,-8.565
0.4,1050001694.6500367,2.3551468849,8356.030182312483,2398.83291901949,3.588,2.134,-7.101,-8.633
0.4,1050001694.6500367,2.355150938,8491.804750363135,2370.2818991297804,3.579,2.122,-7.12,-8.653
0.4,1050001694.6500367,2.355155468,8491.804750363135,2347.469725340597,3.582,2.125,-7.121,-8.655
0.4,1050001694.6500367,2.355155468,8933.054837332953,2324.3418403925252,3.529,2.071,-7.174,-8.708
0.4,1050001694.6500367,2.3551559448,6854.882264526614,2446.808609695616,3.743,2.302,-6.881,-8.406
0.4,1050001694.6500367,2.3551564217,4623.810213992603,2641.8003902640594,3.888,2.502,-6.437,-7.927
0.4,1050001694.6500367,2.3551573753,4111.497211045221,2700.847108324663,3.869,2.436,-6.299,-7.776
0.4,1050001694.6500367,2.3551588058,4645.152752227492,2633.2979436755145,3.906,2.527,-6.445,-7.938
0.4,1050001694.6500367,2.3551604748,5701.642722807472,2524.6431459482487,3.848,2.438,-6.674,-8.187
0.4,1050001694.6500367,2.355162859,6886.522963442762,2426.6100950824143,3.773,2.324,-6.888,-8.418
0.4,1050001694.6500367,2.3551654816,7780.365510398041,2361.5655239177186,3.676,2.219,-7.025,-8.559
0.4,1050001694.6500367,2.355168581,8241.38115013002,2327.5552565542803,3.615,2.158,-7.087,-8.621
0.4,1050001694.6500367,2.3551721573,8375.292821268826,2312.064790175594,3.597,2.14,-7.106,-8.64
0.4,1050001694.6500367,2.3551764488,8394.599865193974,2304.623574154819,3.595,2.138,-7.108,-8.642
0.4,1050001694.6500367,2.3551764488,8892.011178579482,2277.193838226865,3.533,2.076,-7.17,-8.704
0.4,1050001694.6500367,2.3551769257,6823.3869414166975,2406.5783201116064,3.806,2.351,-6.882,-8.414
0.4,1050001694.6500367,2.3551774025,4602.565735813559,2613.3645761890234,3.991,2.603,-6.439,-7.941
0.4,1050001694.6500367,2.3551783562,4083.1938633269233,2681.63706676073,3.97,2.531,-6.298,-7.785
0.4,1050001694.6500367,2.3551795483,4602.565735813559,2616.3750559858195,3.996,2.604,-6.439,-7.942
0.4,1050001694.6500367,2.3551812172,5623.413251903491,2510.7299313735184,3.92,2.488,-6.662,-8.182
0.4,1050001694.6500367,2.355183363,6729.766562843175,2417.686580925773,3.824,2.369,-6.868,-8.401
0.4,1050001694.6500367,2.3551859856,7568.328950209744,2361.5655239177186,3.708,2.251,-6.995,-8.529
0.4,1050001694.6500367,2.355189085,7961.593504173184,2339.9145610551004,3.653,2.196,-7.05,-8.584
0.4,1050001694.6500367,2.3551924229,8035.261221856169,2340.9923796903972,3.641,2.184,-7.062,-8.595
0.4,1050001694.6500367,2.355196476,7998.342550070284,2352.8812019381685,3.648,2.19,-7.055,-8.589
