FeH,Age,Mini,L,Te,Bmag,Vmag,Jmag,Kmag
-0.4,1700004222.1563632,0.0899999961,0.0004528975799036209,2496.3185272433366,19.72,17.771,11.002,10.255
-0.4,1700004222.1563632,0.0944799483,0.0005610479760324706,2575.728005425206,19.473,17.528,10.77,10.02
-0.4,1700004222.1563632,0.0967615619,0.0006237348354824192,2616.3750559858195,19.299,17.361,10.659,9.905
-0.4,1700004222.1563632,0.0992661342,0.0006998419960022738,2660.7250597988086,18.936,17.02,10.553,9.785
-0.4,1700004222.1563632,0.1055569649,0.0008609937521846007,2727.721331426507,18.313,16.445,10.361,9.572
-0.4,1700004222.1563632,0.1177984104,0.0012445146117713857,2852.331512299011,17.256,15.47,10.014,9.201
-0.4,1700004222.1563632,0.136330694,0.0018836490894898002,2982.634245778771,16.196,14.475,9.618,8.79
-0.4,1700004222.1563632,0.1548629701,0.002594179362118815,3076.096814740708,15.458,13.774,9.309,8.475
-0.4,1700004222.1563632,0.1919275075,0.004187935651179182,3204.7931228494,14.495,12.867,8.837,8.003
-0.4,1700004222.1563632,0.2382582128,0.006591738952443213,3318.180448272474,13.679,12.096,8.389,7.555
-0.4,1700004222.1563632,0.2845888734,0.009418895965228418,3400.9480651219096,13.095,11.551,8.029,7.197
-0.4,1700004222.1563632,0.3124741018,0.011614486138403426,3441.1214439609093,12.78,11.256,7.815,6.982
-0.4,1700004222.1563632,0.3309195936,0.013182567385564075,3465.7720899354867,12.588,11.076,7.683,6.851
-0.4,1700004222.1563632,0.3560042381,0.015848931924611134,3507.5187395256794,12.309,10.814,7.499,6.665
-0.4,1700004222.1563632,0.377250284,0.018281002161427428,3541.6040042646177,12.088,10.607,7.354,6.52
-0.4,1700004222.1563632,0.3859744072,0.019543394557753942,3559.59018006083,11.983,10.509,7.288,6.454
-0.4,1700004222.1563632,0.4235809743,0.025468302525850407,3637.4748564263245,11.561,10.114,7.029,6.191
-0.4,1700004222.1563632,0.4613137245,0.03404081897010009,3738.522510697288,11.088,9.671,6.749,5.91
-0.4,1700004222.1563632,0.4699116945,0.03630780547701014,3760.10523668496,10.988,9.579,6.688,5.849
-0.4,1700004222.1563632,0.515881896,0.05236004365857504,3919.2232245497667,10.374,9.019,6.34,5.506
-0.4,1700004222.1563632,0.5162423849,0.05248074602497726,3920.125762951651,10.37,9.015,6.337,5.503
-0.4,1700004222.1563632,0.5222933888,0.05520774392807573,3948.207780378827,10.28,8.935,6.289,5.457
-0.4,1700004222.1563632,0.5625730157,0.07638357835776907,4126.6724632293635,9.707,8.438,5.985,5.166
-0.4,1700004222.1563632,0.6031401753,0.10568175092136585,4348.1047689272755,9.076,7.918,5.687,4.906
-0.4,1700004222.1563632,0.6089037657,0.11040786199020733,4380.261111703606,8.987,7.845,5.646,4.874
-0.4,1700004222.1563632,0.6552344561,0.15739828644662193,4660.151117021843,8.244,7.252,5.339,4.65
-0.4,1700004222.1563632,0.658136487,0.16106456351782703,4677.351412871981,8.201,7.217,5.321,4.637
-0.4,1700004222.1563632,0.7015650868,0.21978598727848248,4936.28243059449,7.616,6.735,5.06,4.46
-0.4,1700004222.1563632,0.7514939904,0.30690219883911574,5226.368167369365,7.044,6.258,4.788,4.269
-0.4,1700004222.1563632,0.763109982,0.3311311214825911,5285.669448009903,6.927,6.158,4.726,4.223
-0.4,1700004222.1563632,0.8014228344,0.4207266283844441,5481.507340176555,6.56,5.849,4.53,4.075
-0.4,1700004222.1563632,0.8453484178,0.5470159628939716,5689.839291528672,6.179,5.525,4.316,3.905
-0.4,1700004222.1563632,0.8513516784,0.5662392890382533,5717.418729175535,6.129,5.482,4.287,3.882
-0.4,1700004222.1563632,0.8935533166,0.7211074791828996,5895.219770654917,5.794,5.198,4.088,3.716
-0.4,1700004222.1563632,0.9012805223,0.7533555637337174,5927.88814195578,5.735,5.148,4.053,3.688
-0.4,1700004222.1563632,0.9281048179,0.8749837752274361,6029.759632855554,5.534,4.977,3.929,3.583
-0.4,1700004222.1563632,0.9512093663,0.9908319448927676,6115.0498251702875,5.368,4.836,3.825,3.495
-0.4,1700004222.1563632,0.9765406251,1.135010815672315,6200.118642087248,5.191,4.683,3.708,3.393
-0.4,1700004222.1563632,1.0011382103,1.2941958414499861,6282.029912455561,5.024,4.537,3.595,3.293
-0.4,1700004222.1563632,1.034414649,1.5417004529495595,6389.987373482767,4.803,4.343,3.444,3.159
-0.4,1700004222.1563632,1.0510671139,1.6788040181225603,6443.17608047901,4.695,4.248,3.37,3.092
-0.4,1700004222.1563632,1.0682756901,1.8323144223712116,6498.303634842379,4.585,4.151,3.294,3.025
-0.4,1700004222.1563632,1.0994353294,2.137962089502232,6596.293937452819,4.389,3.977,3.158,2.903
-0.4,1700004222.1563632,1.1009960175,2.1577444091526665,6600.852070021596,4.379,3.968,3.151,2.897
-0.4,1700004222.1563632,1.1034914255,2.1827299118430017,6609.977786538225,4.364,3.954,3.14,2.888
-0.4,1700004222.1563632,1.1271439791,2.4490632418447453,6684.978271615899,4.219,3.825,3.041,2.799
-0.4,1700004222.1563632,1.1476743221,2.7039583641088436,6749.941361219489,4.096,3.715,2.955,2.723
-0.4,1700004222.1563632,1.1509248018,2.747894153102397,6759.273194551448,4.076,3.698,2.941,2.71
-0.4,1700004222.1563632,1.2008537054,3.451437393358563,6921.49644226647,3.79,3.441,2.746,2.538
-0.4,1700004222.1563632,1.2455912828,4.207266283844441,7077.8279260900235,3.542,3.22,2.583,2.396
-0.4,1700004222.1563632,1.2507824898,4.305266104917107,7095.777679633888,3.514,3.195,2.564,2.379
-0.4,1700004222.1563632,1.2567253113,4.4157044735331255,7120.327999992026,3.481,3.166,2.544,2.362
-0.4,1700004222.1563632,1.3007112741,5.3088444423098835,7281.150367067411,3.247,2.958,2.395,2.233
-0.4,1700004222.1563632,1.3208197355,5.767664633922507,7353.5999547540005,3.144,2.866,2.33,2.177
-0.4,1700004222.1563632,1.3506404161,6.501296903430906,7449.03474524109,2.995,2.732,2.23,2.088
-0.4,1700004222.1563632,1.3560847044,6.652731562017413,7466.206543779415,2.968,2.708,2.211,2.072
-0.4,1700004222.1563632,1.3876274824,7.550922276654339,7554.400405676191,2.813,2.566,2.101,1.971
-0.4,1700004222.1563632,1.4005692005,7.961593504173188,7585.775750291836,2.75,2.508,2.054,1.928
-0.4,1700004222.1563632,1.4020478725,8.016780633876792,7587.522640818467,2.743,2.501,2.048,1.923
-0.4,1700004222.1563632,1.4224404097,8.689604292863017,7610.2688591344795,2.648,2.41,1.966,1.843
-0.4,1700004222.1563632,1.4463307858,9.571940712948445,7619.035550493709,2.538,2.303,1.864,1.743
-0.4,1700004222.1563632,1.4504979849,9.749896377173869,7617.281404686806,2.519,2.285,1.846,1.724
-0.4,1700004222.1563632,1.4680165052,10.447202192207998,7612.021390057183,2.442,2.207,1.767,1.645
-0.4,1700004222.1563632,1.4865162373,11.246049739669262,7585.775750291836,2.362,2.125,1.679,1.554
-0.4,1700004222.1563632,1.5004268885,11.885022274370183,7550.922276654342,2.305,2.065,1.607,1.48
-0.4,1700004222.1563632,1.5138423443,12.531411749414161,7505.852055902369,2.252,2.007,1.535,1.403
-0.4,1700004222.1563632,1.5320806503,13.458603540559483,7421.641977388851,2.185,1.93,1.431,1.29
-0.4,1700004222.1563632,1.5497046709,14.387985782558452,7308.024590091092,2.128,1.857,1.32,1.167
-0.4,1700004222.1563632,1.5503555536,14.421153515248688,7302.978128733656,2.126,1.854,1.316,1.162
-0.4,1700004222.1563632,1.5537698269,14.621771744567184,7279.474013242674,2.115,1.84,1.294,1.137
-0.4,1700004222.1563632,1.5692352057,15.488166189124811,7149.900531600002,2.073,1.78,1.189,1.016
-0.4,1700004222.1563632,1.5849840641,16.443717232149314,7000.031591308969,2.037,1.72,1.075,0.884
-0.4,1700004222.1563632,1.6002845764,17.538805018417612,6858.039781459258,1.995,1.655,0.958,0.749
-0.4,1700004222.1563632,1.6048345566,17.906058540352937,6818.675140286001,1.981,1.634,0.923,0.708
-0.4,1700004222.1563632,1.6105605364,18.407720014689556,6776.41507610675,1.96,1.606,0.879,0.659
-0.4,1700004222.1563632,1.6165757179,19.81527025805098,6937.452139421235,1.842,1.517,0.852,0.654
-0.4,1700004222.1563632,1.6182483435,20.701413487910425,7097.411730944613,1.759,1.461,0.856,0.679
-0.4,1700004222.1563632,1.6189097166,21.6271852372702,7269.4239921411945,1.677,1.408,0.866,0.71
-0.4,1700004222.1563632,1.6192535162,22.646443075930595,7442.177089248529,1.596,1.353,0.872,0.736
-0.4,1700004222.1563632,1.6194597483,23.823194693586903,7612.021390057183,1.512,1.295,0.873,0.755
-0.4,1700004222.1563632,1.6196064949,25.06109253032114,7769.623959921389,1.433,1.24,0.869,0.767
-0.4,1700004222.1563632,1.6196475029,25.35128630497907,7807.284401379069,1.414,1.228,0.869,0.771
-0.4,1700004222.1563632,1.6197071075,23.9883291901949,7696.619203180867,1.492,1.288,0.893,0.783
-0.4,1700004222.1563632,1.6197607517,22.908676527677734,7545.70808545774,1.567,1.339,0.894,0.769
-0.4,1700004222.1563632,1.6198284626,22.54239212152429,7348.522021921094,1.617,1.36,0.847,0.7
-0.4,1700004222.1563632,1.6199098825,22.961486481123618,7159.7853108196205,1.63,1.344,0.765,0.596
-0.4,1700004222.1563632,1.6200131178,23.550492838960103,6977.502487693657,1.639,1.324,0.677,0.485
-0.4,1700004222.1563632,1.6201393604,23.933157564053875,6804.559249946384,1.659,1.313,0.602,0.387
-0.4,1700004222.1563632,1.6202949286,24.099054286865943,6646.606990710733,1.69,1.313,0.54,0.302
-0.4,1700004222.1563632,1.620498538,24.154608344449404,6495.311744387624,1.729,1.321,0.488,0.228
-0.4,1700004222.1563632,1.6207809448,24.043628000069333,6351.846583394707,1.78,1.337,0.446,0.163
-0.4,1700004222.1563632,1.6211975813,23.550492838960103,6205.831792990621,1.85,1.37,0.417,0.11
-0.4,1700004222.1563632,1.6217471361,22.646443075930595,6050.6216915829655,1.951,1.429,0.406,0.07
-0.4,1700004222.1563632,1.6222137213,21.57744409152667,5927.88814195578,2.055,1.496,0.416,0.055
-0.4,1700004222.1563632,1.622684598,20.044720273651613,5806.307069668667,2.185,1.591,0.452,0.066
-0.4,1700004222.1563632,1.6230657101,18.620871366628677,5704.269030998695,2.31,1.686,0.498,0.09
-0.4,1700004222.1563632,1.6233929396,17.498466886246575,5615.649583575098,2.421,1.771,0.538,0.111
-0.4,1700004222.1563632,1.6238213778,16.481623915255085,5503.006173234572,2.539,1.857,0.566,0.113
-0.4,1700004222.1563632,1.6242487431,16.218100973589298,5403.809120790774,2.607,1.896,0.551,0.074
-0.4,1700004222.1563632,1.6243525743,16.368165214278086,5383.937379843645,2.606,1.889,0.534,0.053
-0.4,1700004222.1563632,1.6248713732,17.660378206861647,5301.515066784589,2.569,1.826,0.424,-0.077
-0.4,1700004222.1563632,1.6252857447,19.230917289101587,5251.701096404131,2.506,1.747,0.315,-0.199
-0.4,1700004222.1563632,1.6256855726,21.086281499332898,5211.947111050806,2.429,1.658,0.202,-0.322
-0.4,1700004222.1563632,1.6260638237,23.12064790175595,5179.645056050334,2.35,1.567,0.091,-0.441
-0.4,1700004222.1563632,1.6264294386,25.35128630497907,5151.100224595073,2.268,1.475,-0.017,-0.558
-0.4,1700004222.1563632,1.6267887354,27.797132677592884,5122.712702645385,2.186,1.385,-0.125,-0.673
-0.4,1700004222.1563632,1.627145052,30.47894989627983,5096.828259054277,2.103,1.294,-0.232,-0.787
-0.4,1700004222.1563632,1.6275002956,33.34264127632349,5069.907082747044,2.021,1.204,-0.338,-0.901
-0.4,1700004222.1563632,1.6278547049,36.47539469256078,5043.128102663999,1.94,1.114,-0.445,-1.014
-0.4,1700004222.1563632,1.628208518,39.902490236214206,5017.645790367086,1.86,1.025,-0.549,-1.126
-0.4,1700004222.1563632,1.6286503077,44.56562483975033,4985.3998926398735,1.765,0.917,-0.68,-1.266
-0.4,1700004222.1563632,1.6290822029,49.659232145033606,4954.5019080479005,1.673,0.812,-0.806,-1.402
-0.4,1700004222.1563632,1.6294579506,54.450265284242114,4927.19783211614,1.592,0.721,-0.916,-1.52
-0.4,1700004222.1563632,1.6299117804,61.09420249055721,4893.279240819371,1.494,0.609,-1.051,-1.665
-0.4,1700004222.1563632,1.6302980185,67.45280276979219,4864.072056914614,1.41,0.514,-1.168,-1.791
-0.4,1700004222.1563632,1.6306368113,73.79042301291011,4836.152643020435,1.338,0.43,-1.272,-1.904
-0.4,1700004222.1563632,1.6309760809,80.90958991783822,4808.393484497285,1.265,0.343,-1.381,-2.021
-0.4,1700004222.1563632,1.6313108206,88.51156098308356,4779.692969796099,1.192,0.256,-1.489,-2.138
-0.4,1700004222.1563632,1.6316962242,98.4011105761134,4746.789794829222,1.11,0.158,-1.614,-2.273
-0.4,1700004222.1563632,1.6320792437,109.1440336448756,4714.113123725611,1.032,0.062,-1.736,-2.406
-0.4,1700004222.1563632,1.6324304342,119.3988104464273,4684.8964916001305,0.964,-0.021,-1.842,-2.521
-0.4,1700004222.1563632,1.6328866482,132.43415351946643,4651.574703021666,0.886,-0.116,-1.964,-2.654
-0.4,1700004222.1563632,1.633476615,144.5439770745928,4623.810213992603,0.823,-0.195,-2.067,-2.766
-0.4,1700004222.1563632,1.6337985992,136.77288255958496,4643.01407281803,0.862,-0.146,-2.002,-2.694
-0.4,1700004222.1563632,1.6340321302,125.89254117941675,4671.969511718804,0.921,-0.071,-1.903,-2.586
-0.4,1700004222.1563632,1.6341650486,115.87773561551262,4700.023181798009,0.982,0.005,-1.804,-2.478
-0.4,1700004222.1563632,1.6342890263,105.43868963912593,4730.423243999551,1.052,0.091,-1.694,-2.358
-0.4,1700004222.1563632,1.6344047785,96.16122783836649,4761.019935823142,1.122,0.175,-1.584,-2.239
-0.4,1700004222.1563632,1.6345301867,87.29713683881117,4792.918012190856,1.196,0.266,-1.468,-2.113
-0.4,1700004222.1563632,1.6346672773,79.61593504173187,4823.918924327151,1.268,0.353,-1.359,-1.994
-0.4,1700004222.1563632,1.634839654,72.77798045368242,4852.88500162121,1.338,0.436,-1.253,-1.88
-0.4,1700004222.1563632,1.6348559856,72.27698036021702,4855.120352422797,1.343,0.443,-1.245,-1.87
-0.4,1700004222.1563632,1.6349667311,74.30191378967014,4847.301126243664,1.322,0.418,-1.277,-1.905
-0.4,1700004222.1563632,1.6353741884,82.41381150130022,4813.932540001449,1.239,0.319,-1.4,-2.038
-0.4,1700004222.1563632,1.6357921362,90.57326008982002,4784.097257646801,1.164,0.229,-1.512,-2.159
-0.4,1700004222.1563632,1.6362258196,99.08319448927675,4755.541763152083,1.094,0.145,-1.619,-2.275
-0.4,1700004222.1563632,1.6366784573,108.89300933334333,4726.06836898339,1.023,0.059,-1.729,-2.394
-0.4,1700004222.1563632,1.6371167898,119.1242008027375,4697.859239439367,0.954,-0.025,-1.836,-2.511
-0.4,1700004222.1563632,1.637553215,130.61708881318418,4667.668449794021,0.886,-0.109,-1.944,-2.628
-0.4,1700004222.1563632,1.6379693747,142.8893958511102,4639.807899821257,0.82,-0.19,-2.049,-2.743
-0.4,1700004222.1563632,1.6383662224,155.59656316050751,4611.051788759832,0.757,-0.269,-2.152,-2.855
-0.4,1700004222.1563632,1.6387597322,170.215850839495,4582.47389928456,0.692,-0.349,-2.257,-2.97
-0.4,1700004222.1563632,1.6391257048,185.7804455091699,4554.07312683254,0.636,-0.426,-2.359,-3.08
-0.4,1700004222.1563632,1.6394770145,202.30191786782717,4525.848373686597,0.583,-0.504,-2.46,-3.189
-0.4,1700004222.1563632,1.6398147345,220.2926463053456,4497.798548932879,0.529,-0.581,-2.561,-3.298
-0.4,1700004222.1563632,1.6401325464,239.88329190194898,4469.922568418684,0.477,-0.657,-2.661,-3.406
-0.4,1700004222.1563632,1.640429616,260.6153549998895,4442.2193547105535,0.428,-0.73,-2.758,-3.511
-0.4,1700004222.1563632,1.6407105923,283.1391995799379,4414.687837052633,0.379,-0.802,-2.854,-3.615
-0.4,1700004222.1563632,1.6409773827,306.90219883911584,4388.337287003648,0.33,-0.873,-2.949,-3.719
-0.4,1700004222.1563632,1.6412295103,333.4264127632351,4361.139713930648,0.284,-0.943,-3.044,-3.823
-0.4,1700004222.1563632,1.6414642334,360.57864302164234,4334.110703101766,0.239,-1.01,-3.137,-3.924
-0.4,1700004222.1563632,1.6416862011,390.8408957924021,4308.24110479373,0.194,-1.078,-3.228,-4.025
-0.4,1700004222.1563632,1.6418975592,422.66861426560286,4283.512119459382,0.148,-1.145,-3.32,-4.125
-0.4,1700004222.1563632,1.6421400309,464.5152752227492,4251.087068046156,0.097,-1.22,-3.432,-4.251
-0.4,1700004222.1563632,1.6423640251,510.50499997540646,4218.907465677975,0.048,-1.291,-3.541,-4.374
-0.4,1700004222.1563632,1.642534852,550.8076964054036,4194.691248825665,0.008,-1.35,-3.63,-4.474
-0.4,1700004222.1563632,1.6427295208,603.94862937638,4164.856093407415,-0.039,-1.419,-3.736,-4.593
-0.4,1700004222.1563632,1.6429102421,660.6934480075957,4135.233143476055,-0.083,-1.484,-3.84,-4.711
-0.4,1700004222.1563632,1.6430486441,709.5777679633887,4110.55061281175,-0.117,-1.536,-3.923,-4.805
-0.4,1700004222.1563632,1.6432074308,774.4617978025184,4082.2537814298526,-0.158,-1.599,-4.024,-4.92
-0.4,1700004222.1563632,1.6433544159,843.3347577642757,4055.085354483839,-0.197,-1.658,-4.122,-5.031
-0.4,1700004222.1563632,1.6434905529,916.2204901220001,4028.0977402609537,-0.233,-1.715,-4.218,-5.14
-0.4,1700004222.1563632,1.6436171532,995.4054173515275,3999.4474976109736,-0.265,-1.768,-4.312,-5.248
-0.4,1700004222.1563632,1.6437368393,1078.9467222298285,3972.830167336813,-0.295,-1.819,-4.406,-5.355
-0.4,1700004222.1563632,1.6438463926,1164.126029410491,3947.298776597855,-0.321,-1.866,-4.496,-5.458
-0.4,1700004222.1563632,1.6439479589,1256.0299636948755,3922.8346253952054,-0.346,-1.912,-4.583,-5.558
-0.4,1700004222.1563632,1.6440441608,1352.0725631942764,3898.5220955234804,-0.37,-1.956,-4.668,-5.655
-0.4,1700004222.1563632,1.6441358328,1452.111617587742,3873.468245564424,-0.39,-1.994,-4.751,-5.751
-0.4,1700004222.1563632,1.6441727877,1496.235656094433,3863.669770540693,-0.396,-2.008,-4.785,-5.79
-0.4,1700004222.1563632,1.6441727877,57.14786366718669,5076.916258882489,1.432,0.614,-0.922,-1.482
-0.4,1700004222.1563632,1.64536798,59.1561634175474,5059.411458459371,1.406,0.582,-0.965,-1.53
-0.4,1700004222.1563632,1.6466118097,60.11737374832779,5055.917747662187,1.393,0.567,-0.983,-1.549
-0.4,1700004222.1563632,1.6477252245,60.25595860743578,5057.082049785993,1.387,0.562,-0.987,-1.552
-0.4,1700004222.1563632,1.6488770247,60.53408747539136,5060.5765651324455,1.382,0.558,-0.989,-1.553
-0.4,1700004222.1563632,1.6500064135,60.673632958850526,5064.073495238508,1.377,0.554,-0.991,-1.554
-0.4,1700004222.1563632,1.6511633396,60.81350012787179,5066.406124332974,1.372,0.55,-0.993,-1.556
-0.4,1700004222.1563632,1.6523356438,61.09420249055721,5068.739827890221,1.367,0.545,-0.996,-1.558
-0.4,1700004222.1563632,1.6534785032,61.235039172477336,5072.242398926514,1.361,0.541,-0.999,-1.56
-0.4,1700004222.1563632,1.6546490192,61.517687270986805,5074.578790806499,1.355,0.535,-1.003,-1.563
-0.4,1700004222.1563632,1.6559140682,61.80164001384158,5076.916258882489,1.348,0.529,-1.008,-1.567
-0.4,1700004222.1563632,1.6572384834,62.08690342300634,5079.2548036502085,1.341,0.523,-1.013,-1.572
-0.4,1700004222.1563632,1.6584821939,62.51726927756859,5080.424479948444,1.334,0.516,-1.018,-1.576
-0.4,1700004222.1563632,1.658867836,62.51726927756859,5081.594425605605,1.332,0.514,-1.019,-1.577
-0.4,1700004222.1563632,1.6592986584,62.66138646723353,5082.764640683731,1.329,0.512,-1.021,-1.579
-0.4,1700004222.1563632,1.6605353355,62.95061828571975,5083.935125244855,1.322,0.506,-1.026,-1.584
-0.4,1700004222.1563632,1.661811471,63.3869711256927,5086.276903064366,1.315,0.499,-1.032,-1.589
-0.4,1700004222.1563632,1.662489295,63.53309318517436,5086.276903064366,1.311,0.495,-1.035,-1.592
-0.4,1700004222.1563632,1.6628162861,63.67955209079159,5087.448196446911,1.309,0.493,-1.037,-1.593
-0.4,1700004222.1563632,1.6640892029,63.973483548264824,5088.619759560772,1.302,0.486,-1.043,-1.599
-0.4,1700004222.1563632,1.6654080153,64.41692655151772,5089.791592468075,1.294,0.479,-1.049,-1.605
-0.4,1700004222.1563632,1.6666646004,64.86344335482384,5090.9636952309365,1.287,0.472,-1.056,-1.611
-0.4,1700004222.1563632,1.6680662632,65.31305526474723,5090.9636952309365,1.278,0.464,-1.063,-1.618
-0.4,1700004222.1563632,1.6694072485,65.76578373554206,5092.136067911513,1.271,0.456,-1.07,-1.626
-0.4,1700004222.1563632,1.6706823111,66.22165037017619,5092.136067911513,1.263,0.449,-1.078,-1.633
-0.4,1700004222.1563632,1.6720439196,66.68067692136222,5092.136067911513,1.255,0.441,-1.086,-1.641
-0.4,1700004222.1563632,1.6721434593,66.68067692136222,5092.136067911513,1.255,0.44,-1.087,-1.642
-0.4,1700004222.1563632,1.6723195314,66.83439175686145,5090.9636952309365,1.254,0.439,-1.088,-1.643
-0.4,1700004222.1563632,1.6735552549,67.29766562843179,5090.9636952309365,1.246,0.432,-1.096,-1.651
-0.4,1700004222.1563632,1.6747550964,67.7641507610675,5089.791592468075,1.239,0.424,-1.104,-1.66
-0.4,1700004222.1563632,1.6759674549,68.39116472814293,5087.448196446911,1.232,0.416,-1.114,-1.67
-0.4,1700004222.1563632,1.6771752834,68.86522963442762,5085.1058793510465,1.224,0.408,-1.124,-1.681
-0.4,1700004222.1563632,1.6784034967,69.66265141107687,5081.594425605605,1.216,0.398,-1.135,-1.693
-0.4,1700004222.1563632,1.6796251535,70.30723198838334,5076.916258882489,1.208,0.388,-1.149,-1.708
-0.4,1700004222.1563632,1.6808214188,71.28530301265195,5069.907082747044,1.198,0.377,-1.164,-1.725
-0.4,1700004222.1563632,1.682030201,72.27698036021702,5064.073495238508,1.188,0.364,-1.181,-1.744
-0.4,1700004222.1563632,1.6832399368,72.77798045368242,5061.74194011213,1.181,0.356,-1.19,-1.754
-0.4,1700004222.1563632,1.684450388,74.64487584100665,5045.4510838273745,1.163,0.333,-1.223,-1.791
-0.4,1700004222.1563632,1.6856863499,78.52356346100719,5016.490567732232,1.129,0.288,-1.287,-1.863
-0.4,1700004222.1563632,1.6865795851,84.91804750363139,4973.933791067749,1.077,0.218,-1.386,-1.974
-0.4,1700004222.1563632,1.6869821548,92.68298233793494,4931.738039549359,1.018,0.141,-1.492,-2.093
-0.4,1700004222.1563632,1.6871581078,100.69316688518045,4893.279240819371,0.959,0.065,-1.596,-2.208
-0.4,1700004222.1563632,1.6872391701,109.90058394325209,4855.120352422797,0.898,-0.013,-1.702,-2.325
-0.4,1700004222.1563632,1.687277317,118.85022274370189,4821.697939006178,0.842,-0.085,-1.798,-2.431
-0.4,1700004222.1563632,1.6873004436,127.35030810166616,4794.021749415102,0.792,-0.148,-1.882,-2.524
-0.4,1700004222.1563632,1.6873012781,127.93813041575252,4792.918012190856,0.79,-0.151,-1.886,-2.527
-0.4,1700004222.1563632,1.6873015165,127.93813041575252,4791.814529082236,0.79,-0.152,-1.887,-2.529
-0.4,1700004222.1563632,1.6873223782,140.60475241299144,4755.541763152083,0.723,-0.236,-2.001,-2.654
-0.4,1700004222.1563632,1.6873438358,155.23870099580816,4718.456982481569,0.653,-0.325,-2.119,-2.785
-0.4,1700004222.1563632,1.6874024868,173.78008287493762,4675.197908845073,0.574,-0.426,-2.255,-2.934
-0.4,1700004222.1563632,1.6875715256,151.70503674593368,4728.2453051179655,0.669,-0.304,-2.091,-2.753
-0.4,1700004222.1563632,1.6886181831,151.35612484362088,4728.2453051179655,0.672,-0.302,-2.087,-2.75
-0.4,1700004222.1563632,1.6891641617,165.19617982290148,4694.615193825913,0.61,-0.38,-2.192,-2.865
-0.4,1700004222.1563632,1.6895778179,180.3017740859568,4661.22428001887,0.549,-0.459,-2.299,-2.983
-0.4,1700004222.1563632,1.6899209023,197.24227361148533,4628.0708623811315,0.491,-0.537,-2.405,-3.099
-0.4,1700004222.1563632,1.6902149916,215.77444091526667,4595.153251697754,0.437,-0.617,-2.512,-3.215
-0.4,1700004222.1563632,1.6904741526,236.04782331805782,4560.369159512959,0.383,-0.698,-2.62,-3.333
-0.4,1700004222.1563632,1.6907017231,258.82129151530904,4526.890608773584,0.331,-0.778,-2.728,-3.45
-0.4,1700004222.1563632,1.6909028292,283.1391995799379,4493.657830540859,0.279,-0.857,-2.835,-3.567
-0.4,1700004222.1563632,1.6910843849,309.7419299216581,4460.669020551353,0.227,-0.935,-2.943,-3.684
-0.4,1700004222.1563632,1.6912492514,339.62527259040854,4427.922387787075,0.177,-1.013,-3.049,-3.802
-0.4,1700004222.1563632,1.6913969517,369.8281797802663,4390.358656409448,0.137,-1.082,-3.153,-3.917
-0.4,1700004222.1563632,1.6915359497,402.71703432545905,4347.103696062099,0.108,-1.143,-3.254,-4.034
-0.4,1700004222.1563632,1.6916719675,438.5306977749856,4307.249209819747,0.075,-1.206,-3.356,-4.151
-0.4,1700004222.1563632,1.691806078,478.6300923226385,4276.613474797276,0.028,-1.275,-3.459,-4.266
-0.4,1700004222.1563632,1.6919387579,524.8074602497728,4244.240644295681,-0.018,-1.344,-3.566,-4.387
-0.4,1700004222.1563632,1.6920648813,579.428696426881,4209.2042477683635,-0.067,-1.418,-3.681,-4.518
-0.4,1700004222.1563632,1.6921679974,645.6542290346556,4171.574461206266,-0.121,-1.499,-3.809,-4.662
-0.4,1700004222.1563632,1.6922353506,712.8530301265198,4139.043588458339,-0.167,-1.569,-3.921,-4.79
-0.4,1700004222.1563632,1.6922850609,778.0365510398041,4108.6580701062485,-0.207,-1.632,-4.023,-4.906
-0.4,1700004222.1563632,1.6923297644,849.1804750363135,4078.4956177127,-0.246,-1.693,-4.125,-5.022
-0.4,1700004222.1563632,1.6923708916,922.5714271547629,4050.419451364931,-0.28,-1.749,-4.221,-5.132
-0.4,1700004222.1563632,1.6924086809,1000.0,4022.5365599868255,-0.312,-1.801,-4.313,-5.238
-0.4,1700004222.1563632,1.6924436092,1078.9467222298285,3995.765566188054,-0.341,-1.851,-4.403,-5.341
-0.4,1700004222.1563632,1.6924819946,1174.897554939529,3966.431879468582,-0.369,-1.903,-4.5,-5.453
-0.4,1700004222.1563632,1.69252491,1282.3305826560218,3935.5007545577764,-0.394,-1.952,-4.602,-5.57
-0.4,1700004222.1563632,1.692565918,1383.566378971781,3907.5091171056138,-0.414,-1.995,-4.692,-5.674
-0.4,1700004222.1563632,1.6925749779,1419.0575216890927,3898.5220955234804,-0.42,-2.009,-4.722,-5.709
-0.4,1700004222.1563632,1.6925797462,1442.1153515248682,3892.2434816444134,-0.424,-2.017,-4.741,-5.731
-0.4,1700004222.1563632,1.6925853491,1472.3125024327194,3885.974979543936,-0.428,-2.026,-4.763,-5.756
-0.4,1700004222.1563632,1.6925945282,1506.6070661867418,3877.0374851038273,-0.433,-2.037,-4.79,-5.787
-0.4,1700004222.1563632,1.6925952435,1506.6070661867418,3877.0374851038273,-0.433,-2.038,-4.791,-5.789
-0.4,1700004222.1563632,1.6925953627,1503.1419660900224,3877.9303087618246,-0.433,-2.037,-4.788,-5.786
-0.4,1700004222.1563632,1.6925954819,1510.0801541641476,3876.144867002412,-0.433,-2.038,-4.793,-5.791
-0.4,1700004222.1563632,1.6925956011,1517.050367459337,3874.3602472800194,-0.434,-2.04,-4.798,-5.797
-0.4,1700004222.1563632,1.6925958395,1517.050367459337,3874.3602472800194,-0.434,-2.041,-4.799,-5.798
-0.4,1700004222.1563632,1.6925959587,1517.050367459337,3874.3602472800194,-0.434,-2.041,-4.799,-5.798
-0.4,1700004222.1563632,1.6925960779,1517.050367459337,3874.3602472800194,-0.434,-2.041,-4.798,-5.798
-0.4,1700004222.1563632,1.6925961971,1517.050367459337,3874.3602472800194,-0.434,-2.041,-4.798,-5.797
-0.4,1700004222.1563632,1.6925963163,1517.050367459337,3874.3602472800194,-0.434,-2.04,-4.798,-5.797
-0.4,1700004222.1563632,1.6925964355,1517.050367459337,3874.3602472800194,-0.434,-2.04,-4.798,-5.797
-0.4,1700004222.1563632,1.692596674,1517.050367459337,3874.3602472800194,-0.434,-2.04,-4.798,-5.797
-0.4,1700004222.1563632,1.6925967932,1513.5612484362086,3874.3602472800194,-0.434,-2.04,-4.797,-5.796
-0.4,1700004222.1563632,1.6925969124,1513.5612484362086,3875.252454410245,-0.434,-2.04,-4.796,-5.795
-0.4,1700004222.1563632,1.6925971508,1520.5475297324954,3873.468245564424,-0.435,-2.042,-4.801,-5.8
-0.4,1700004222.1563632,1.69259727,1520.5475297324954,3873.468245564424,-0.435,-2.042,-4.803,-5.802
-0.4,1700004222.1563632,1.6925973892,1524.0527537972907,3872.576449216173,-0.435,-2.043,-4.804,-5.804
-0.4,1700004222.1563632,1.6925977468,1524.0527537972907,3872.576449216173,-0.436,-2.043,-4.805,-5.805
-0.4,1700004222.1563632,1.6925979853,1524.0527537972907,3872.576449216173,-0.436,-2.043,-4.805,-5.805
-0.4,1700004222.1563632,1.6925981045,1524.0527537972907,3872.576449216173,-0.436,-2.043,-4.805,-5.805
-0.4,1700004222.1563632,1.6925983429,1524.0527537972907,3872.576449216173,-0.436,-2.043,-4.805,-5.805
-0.4,1700004222.1563632,1.6925987005,1527.5660582380733,3871.6848581879763,-0.436,-2.044,-4.806,-5.806
-0.4,1700004222.1563632,1.6925992966,1527.5660582380733,3871.6848581879763,-0.436,-2.045,-4.808,-5.809
-0.4,1700004222.1563632,1.6926031113,1614.3585568264868,3851.2348242893136,-0.446,-2.069,-4.871,-5.882
-0.4,1700004222.1563632,1.6926056147,1678.8040181225606,3836.1890380502714,-0.453,-2.086,-4.918,-5.937
-0.4,1700004222.1563632,1.6926081181,1757.923613958693,3819.442708400464,-0.461,-2.107,-4.972,-5.999
-0.4,1700004222.1563632,1.6926106215,1836.5383433483455,3802.769482436101,-0.468,-2.127,-5.023,-6.059
-0.4,1700004222.1563632,1.6926134825,1940.8858775927772,3782.683455893896,-0.474,-2.144,-5.087,-6.133
-0.4,1700004222.1563632,1.6926170588,2070.1413487910413,3758.374042884443,-0.48,-2.164,-5.163,-6.222
-0.4,1700004222.1563632,1.6926215887,2192.80493535045,3736.801253821156,-0.483,-2.18,-5.23,-6.3
-0.4,1700004222.1563632,1.6926269531,2322.7367963571073,3714.496897976222,-0.486,-2.196,-5.299,-6.38
-0.4,1700004222.1563632,1.6926348209,2449.0632418447444,3694.0264435828335,-0.482,-2.198,-5.361,-6.452
-0.4,1700004222.1563632,1.6926407814,2540.972705549304,3679.594830147843,-0.476,-2.198,-5.405,-6.504
-0.4,1700004222.1563632,1.692641139,2540.972705549304,3679.594830147843,-0.476,-2.198,-5.405,-6.504
-0.4,1700004222.1563632,1.6926417351,1352.0725631942764,3904.8108374925373,-0.385,-1.966,-4.666,-5.65
-0.4,1700004222.1563632,1.6926419735,1145.5129414455362,3966.431879468582,-0.343,-1.875,-4.473,-5.426
-0.4,1700004222.1563632,1.6926432848,666.8067692136219,4172.53511231794,-0.151,-1.532,-3.842,-4.695
-0.4,1700004222.1563632,1.6926450729,669.8846094165265,4168.693834703355,-0.153,-1.536,-3.849,-4.703
-0.4,1700004222.1563632,1.6926475763,831.7637711026708,4085.0746766312514,-0.234,-1.677,-4.101,-4.994
-0.4,1700004222.1563632,1.6926506758,1224.6161992650489,3938.2202413383675,-0.354,-1.908,-4.553,-5.52
-0.4,1700004222.1563632,1.6926544905,1753.880501841762,3806.273576012056,-0.431,-2.083,-4.971,-6.005
-0.4,1700004222.1563632,1.6926590204,2233.5722228305326,3720.488787200874,-0.46,-2.164,-5.253,-6.331
-0.4,1700004222.1563632,1.6926642656,2529.2979964461447,3675.360977714797,-0.459,-2.182,-5.4,-6.501
-0.4,1700004222.1563632,1.6926702261,2654.605561975539,3655.9479161312506,-0.452,-2.183,-5.46,-6.57
-0.4,1700004222.1563632,1.6926769018,2710.1916318908416,3646.699688942269,-0.446,-2.18,-5.486,-6.6
-0.4,1700004222.1563632,1.6926771402,1725.837891990204,3803.6452032855573,-0.41,-2.062,-4.954,-5.99
-0.4,1700004222.1563632,1.6926779747,1238.796586530369,3923.737995448608,-0.338,-1.9,-4.568,-5.543
-0.4,1700004222.1563632,1.6926794052,722.7698036021702,4127.622774083493,-0.161,-1.571,-3.939,-4.813
-0.4,1700004222.1563632,1.692681551,726.1059574351551,4123.822843217308,-0.162,-1.575,-3.946,-4.821
-0.4,1700004222.1563632,1.692684412,899.4975815300355,4042.034350795005,-0.239,-1.712,-4.195,-5.11
-0.4,1700004222.1563632,1.6926881075,1321.2956341865752,3897.6245309771994,-0.348,-1.931,-4.642,-5.63
-0.4,1700004222.1563632,1.6926925182,1883.6490894898002,3769.641066462436,-0.414,-2.085,-5.056,-6.11
-0.4,1700004222.1563632,1.6926977634,2387.8112829131783,3684.6818914786804,-0.434,-2.148,-5.336,-6.432
-0.4,1700004222.1563632,1.6927038431,2697.7394324449206,3640.8266378940075,-0.426,-2.161,-5.482,-6.6
-0.4,1700004222.1563632,1.6927108765,2837.9190284415554,3622.4299841669877,-0.417,-2.157,-5.542,-6.668
-0.4,1700004222.1563632,1.6927186251,2897.3435877013244,3613.2665452345186,-0.408,-2.15,-5.568,-6.698
-0.4,1700004222.1563632,1.6927188635,1874.9945080674192,3764.436710736454,-0.398,-2.07,-5.053,-6.109
-0.4,1700004222.1563632,1.6927198172,1348.9628825916532,3882.397512057637,-0.338,-1.93,-4.669,-5.665
-0.4,1700004222.1563632,1.6927214861,787.0457896950985,4085.0746766312514,-0.178,-1.617,-4.04,-4.935
-0.4,1700004222.1563632,1.6927238703,790.6786279998254,4082.2537814298526,-0.18,-1.621,-4.048,-4.943
-0.4,1700004222.1563632,1.6927272081,977.2372209558112,4001.2897354069864,-0.251,-1.752,-4.292,-5.228
-0.4,1700004222.1563632,1.6927312613,1425.607593602188,3861.0017636183584,-0.346,-1.953,-4.733,-5.74
-0.4,1700004222.1563632,1.6927363873,2023.0191786782718,3735.0807894306217,-0.401,-2.091,-5.141,-6.213
-0.4,1700004222.1563632,1.6927423477,2552.701302661247,3652.5822138633744,-0.407,-2.134,-5.418,-6.53
-0.4,1700004222.1563632,1.6927492619,2884.031503126606,3610.7714510035285,-0.393,-2.134,-5.562,-6.694
-0.4,1700004222.1563632,1.6927571297,3026.913428101305,3593.3539675538973,-0.383,-2.126,-5.621,-6.76
-0.4,1700004222.1563632,1.6927659512,3083.1879502493534,3585.0894827655493,-0.376,-2.121,-5.646,-6.788
-0.4,1700004222.1563632,1.6927661896,2037.042077705719,3729.065399621527,-0.394,-2.086,-5.152,-6.227
-0.4,1700004222.1563632,1.6927672625,1472.3125024327194,3845.9178204535356,-0.345,-1.962,-4.771,-5.785
-0.4,1700004222.1563632,1.6927690506,859.013521505396,4047.6224868787363,-0.202,-1.668,-4.143,-5.055
-0.4,1700004222.1563632,1.6927716732,864.967918775693,4044.827453799996,-0.204,-1.672,-4.151,-5.065
-0.4,1700004222.1563632,1.6927752495,1064.1430182243164,3965.518679916798,-0.269,-1.796,-4.393,-5.346
-0.4,1700004222.1563632,1.6927797794,1541.70045294956,3827.366048098136,-0.351,-1.981,-4.826,-5.85
-0.4,1700004222.1563632,1.6927853823,2172.7011788637456,3703.39469397536,-0.393,-2.097,-5.228,-6.315
-0.4,1700004222.1563632,1.6927918196,2735.268726306711,3622.4299841669877,-0.382,-2.119,-5.502,-6.628
-0.4,1700004222.1563632,1.692799449,3083.1879502493534,3580.9643710263585,-0.36,-2.104,-5.645,-6.79
-0.4,1700004222.1563632,1.692808032,3235.936569296281,3562.8701940455303,-0.348,-2.095,-5.704,-6.857
-0.4,1700004222.1563632,1.692817688,3303.6954103681487,3554.6758199906994,-0.341,-2.09,-5.73,-6.886
-0.4,1700004222.1563632,1.6928179264,2233.5722228305326,3690.6256858412085,-0.384,-2.093,-5.262,-6.355
-0.4,1700004222.1563632,1.6928188801,1618.0800376430661,3807.150103801774,-0.353,-1.998,-4.881,-5.916
-0.4,1700004222.1563632,1.6928206682,944.0608762859235,4009.5903122771956,-0.23,-1.724,-4.254,-5.186
-0.4,1700004222.1563632,1.6928231716,950.6047936562819,4006.8215418221093,-0.232,-1.728,-4.262,-5.195
-0.4,1700004222.1563632,1.6928266287,1166.8096170609629,3928.2579671627864,-0.285,-1.841,-4.5,-5.472
-0.4,1700004222.1563632,1.6928309202,1674.9428760264382,3793.1498497368207,-0.355,-2.008,-4.924,-5.966
-0.4,1700004222.1563632,1.6928362846,2344.228815319923,3671.131996879641,-0.378,-2.093,-5.318,-6.421
-0.4,1700004222.1563632,1.6928424835,2930.8932452503213,3591.6995478714375,-0.349,-2.089,-5.588,-6.728
-0.4,1700004222.1563632,1.6928497553,3288.51630875983,3550.5857031262385,-0.325,-2.072,-5.728,-6.886
-0.4,1700004222.1563632,1.6928579807,3451.437393358561,3533.4585410890204,-0.304,-2.05,-5.785,-6.951
-0.4,1700004222.1563632,1.6928672791,3515.6044052829798,3526.1436430685917,-0.293,-2.037,-5.809,-6.979
-0.4,1700004222.1563632,1.6928675175,2437.8108183687523,3654.264677506526,-0.366,-2.088,-5.366,-6.478
-0.4,1700004222.1563632,1.6928684711,1770.108958317422,3770.5091583339295,-0.353,-2.019,-4.987,-6.041
-0.4,1700004222.1563632,1.6928702593,1032.7614057613969,3972.830167336813,-0.254,-1.775,-4.359,-5.309
-0.4,1700004222.1563632,1.6928728819,1039.920165829059,3971.001032638907,-0.255,-1.778,-4.366,-5.317
-0.4,1700004222.1563632,1.692876339,1270.5741052085418,3894.0363387971706,-0.299,-1.882,-4.599,-5.59
-0.4,1700004222.1563632,1.6928807497,1807.1741260109275,3760.971132597691,-0.352,-2.024,-5.014,-6.072
-0.4,1700004222.1563632,1.6928861141,2506.109253032114,3641.665065732136,-0.356,-2.084,-5.4,-6.518
-0.4,1700004222.1563632,1.6928924322,3118.8895840939385,3563.6906696823603,-0.315,-2.058,-5.663,-6.816
-0.4,1700004222.1563632,1.692899704,3483.3731503601166,3523.7087104248726,-0.275,-2.018,-5.798,-6.969
-0.4,1700004222.1563632,1.6929080486,3639.1503612720708,3507.5187395256794,-0.254,-1.993,-5.851,-7.029
-0.4,1700004222.1563632,1.6929174662,3698.281797802663,3500.2575415843376,-0.242,-1.98,-5.872,-7.054
-0.4,1700004222.1563632,1.6929177046,2624.218543384442,3622.4299841669877,-0.339,-2.073,-5.455,-6.582
-0.4,1700004222.1563632,1.692918539,1909.8532585662388,3737.6617831757117,-0.349,-2.034,-5.077,-6.147
-0.4,1700004222.1563632,1.6929200888,1116.863247780561,3941.849147142968,-0.269,-1.814,-4.449,-5.415
-0.4,1700004222.1563632,1.692922473,1122.018454301963,3940.0342764474544,-0.27,-1.817,-4.456,-5.422
-0.4,1700004222.1563632,1.6929255724,1364.583136588924,3864.55951581426,-0.307,-1.911,-4.684,-5.689
-0.4,1700004222.1563632,1.6929295063,1927.5249131909366,3733.3611171608127,-0.347,-2.035,-5.089,-6.161
-0.4,1700004222.1563632,1.6929342747,2648.500138606701,3616.5960197524582,-0.33,-2.064,-5.467,-6.597
-0.4,1700004222.1563632,1.6929398775,3273.406948788383,3539.9734108343464,-0.277,-2.021,-5.724,-6.888
-0.4,1700004222.1563632,1.692946434,3639.1503612720708,3501.063598465195,-0.229,-1.966,-5.854,-7.035
-0.4,1700004222.1563632,1.6929539442,3793.1498497368207,3485.7802105603496,-0.207,-1.941,-5.904,-7.092
-0.4,1700004222.1563632,1.6929622889,3854.783576657717,3479.3650764909435,-0.196,-1.929,-5.922,-7.114
-0.4,1700004222.1563632,1.6929625273,2786.1211686297693,3595.0091493002346,-0.308,-2.045,-5.529,-6.668
-0.4,1700004222.1563632,1.6929633617,2027.6827195212818,3711.07729492926,-0.343,-2.043,-5.151,-6.235
-0.4,1700004222.1563632,1.6929647923,1188.502227437019,3917.4187710778306,-0.28,-1.845,-4.524,-5.502
-0.4,1700004222.1563632,1.692966938,1193.9881044642732,3914.713648482051,-0.281,-1.848,-4.53,-5.509
-0.4,1700004222.1563632,1.692969799,1448.7718535447616,3839.723926353774,-0.312,-1.934,-4.755,-5.773
-0.4,1700004222.1563632,1.6929734945,2032.3570109362208,3710.2228861746507,-0.34,-2.04,-5.152,-6.236
-0.4,1700004222.1563632,1.6929780245,2773.320104651841,3594.181463147148,-0.301,-2.038,-5.525,-6.664
-0.4,1700004222.1563632,1.6929832697,3404.081897010009,3518.8438882095843,-0.234,-1.973,-5.776,-6.949
-0.4,1700004222.1563632,1.6929894686,3784.425847170932,3480.96775232401,-0.184,-1.916,-5.902,-7.093
-0.4,1700004222.1563632,1.6929963827,3935.5007545577764,3465.7720899354867,-0.161,-1.89,-5.951,-7.149
-0.4,1700004222.1563632,1.6930042505,3990.2490236214207,3459.3937782612206,-0.148,-1.874,-5.969,-7.169
-0.4,1700004222.1563632,1.6930044889,2937.6496519615307,3569.4392919884644,-0.277,-2.017,-5.597,-6.747
-0.4,1700004222.1563632,1.6930052042,2147.8304741305333,3686.3791409739756,-0.331,-2.038,-5.219,-6.316
-0.4,1700004222.1563632,1.6930065155,1258.9254117941675,3894.0363387971706,-0.289,-1.873,-4.591,-5.582
-0.4,1700004222.1563632,1.6930084229,1264.736347471151,3891.3473626359746,-0.29,-1.875,-4.597,-5.588
-0.4,1700004222.1563632,1.6930110455,1531.0874616820304,3816.8052419008277,-0.315,-1.953,-4.819,-5.849
-0.4,1700004222.1563632,1.6930143833,2128.139045982711,3688.0771722615455,-0.329,-2.035,-5.21,-6.305
-0.4,1700004222.1563632,1.6930183172,2890.6798823654744,3574.3740626448075,-0.274,-2.013,-5.577,-6.725
-0.4,1700004222.1563632,1.6930230856,3539.9734108343464,3499.451670283573,-0.194,-1.928,-5.823,-7.005
-0.4,1700004222.1563632,1.6930285692,3917.4187710778306,3461.784268375584,-0.141,-1.868,-5.947,-7.146
-0.4,1700004222.1563632,1.6930348873,4073.802778041126,3447.4660657314944,-0.114,-1.833,-5.995,-7.2
-0.4,1700004222.1563632,1.6930419207,4120.975190973304,3441.9138826842905,-0.101,-1.818,-6.012,-7.219
-0.4,1700004222.1563632,1.6930421591,3083.1879502493534,3547.316998366914,-0.248,-1.99,-5.658,-6.818
-0.4,1700004222.1563632,1.6930427551,2259.435770220978,3663.532089914713,-0.318,-2.033,-5.281,-6.388
-0.4,1700004222.1563632,1.6930440664,1327.3944577297402,3871.6848581879763,-0.294,-1.894,-4.653,-5.654
-0.4,1700004222.1563632,1.6930458546,1333.521432163324,3869.9022919026884,-0.295,-1.896,-4.659,-5.661
-0.4,1700004222.1563632,1.6930482388,1606.9412530128773,3795.7709700253163,-0.316,-1.968,-4.878,-5.918
-0.4,1700004222.1563632,1.6930513382,2228.435149270303,3668.5969444134184,-0.316,-2.03,-5.263,-6.368
-0.4,1700004222.1563632,1.6930550337,3006.076302628232,3555.4944085859292,-0.249,-1.99,-5.625,-6.782
-0.4,1700004222.1563632,1.6930595636,3664.3757464783334,3481.769367055342,-0.156,-1.887,-5.867,-7.058
-0.4,1700004222.1563632,1.6930646896,4045.7589169744288,3445.08546286579,-0.096,-1.813,-5.99,-7.196
-0.4,1700004222.1563632,1.6930705309,4207.266283844442,3430.0464394337664,-0.068,-1.779,-6.037,-7.248
-0.4,1700004222.1563632,1.6930770874,4255.984131337431,3425.3109270831965,-0.056,-1.763,-6.053,-7.267
-0.4,1700004222.1563632,1.6930773258,3235.936569296281,3525.3318119588625,-0.208,-1.946,-5.716,-6.886
-0.4,1700004222.1563632,1.6930779219,2371.373705661655,3641.665065732136,-0.3,-2.025,-5.341,-6.459
-0.4,1700004222.1563632,1.693079114,1396.3683610559376,3850.3481467861507,-0.296,-1.911,-4.712,-5.724
-0.4,1700004222.1563632,1.6930807829,1402.8137045619576,3847.689338937884,-0.296,-1.913,-4.718,-5.731
-0.4,1700004222.1563632,1.6930830479,1686.5530253887407,3773.9835253658575,-0.311,-1.975,-4.935,-5.987
-0.4,1700004222.1563632,1.6930859089,2322.7367963571073,3648.379442958715,-0.299,-2.021,-5.316,-6.431
-0.4,1700004222.1563632,1.6930894852,3118.8895840939385,3536.7144758575937,-0.217,-1.956,-5.674,-6.839
-0.4,1700004222.1563632,1.6930936575,3793.1498497368207,3464.1764103524893,-0.118,-1.843,-5.912,-7.111
-0.4,1700004222.1563632,1.6930985451,4187.935651179182,3427.6778654645045,-0.051,-1.76,-6.034,-7.247
-0.4,1700004222.1563632,1.6931040287,4345.102241715715,3413.5007294931106,-0.022,-1.723,-6.081,-7.299
-0.4,1700004222.1563632,1.6931102276,4405.548635065535,3408.0032480036516,-0.009,-1.708,-6.097,-7.318
-0.4,1700004222.1563632,1.6931103468,3388.441561392024,3503.482883015712,-0.633,-2.505,-5.714,-6.889
-0.4,1700004222.1563632,1.6931109428,2494.5947269429535,3618.2619073242986,-0.62,-2.38,-5.376,-6.478
-0.4,1700004222.1563632,1.6931120157,1468.9262776438661,3826.484865951097,-0.5,-2.103,-4.777,-5.764
-0.4,1700004222.1563632,1.6931136847,1475.7065332758946,3823.8425365811263,-0.293,-1.927,-4.778,-5.804
-0.4,1700004222.1563632,1.6931157112,1770.108958317422,3751.4572346200985,-0.303,-1.981,-4.993,-6.056
-0.4,1700004222.1563632,1.693118453,2426.6100950824143,3628.273359403348,-0.28,-2.01,-5.369,-6.494
-0.4,1700004222.1563632,1.6931217909,3243.3961734934933,3518.0337377370256,-0.182,-1.919,-5.723,-6.896
-0.4,1700004222.1563632,1.6931256056,3935.5007545577764,3447.4660657314944,-0.078,-1.796,-5.958,-7.163
-0.4,1700004222.1563632,1.6931301355,4335.108783875289,3411.9291162192844,-0.011,-1.711,-6.077,-7.296
-0.4,1700004222.1563632,1.6931352615,4497.798548932879,3398.599584656671,0.018,-1.676,-6.122,-7.347
-0.4,1700004222.1563632,1.6931409836,4549.880601500485,3393.1261016293192,0.029,-1.662,-6.138,-7.365
-0.4,1700004222.1563632,1.6931413412,3548.133892335753,3483.3731503601166,-0.684,-2.541,-5.759,-6.946
-0.4,1700004222.1563632,1.6931427717,2618.1830082189863,3595.837026057048,-0.652,-2.408,-5.425,-6.54
-0.4,1700004222.1563632,1.6931451559,1545.254439538414,3801.8939632056126,-0.538,-2.138,-4.833,-5.832
-0.4,1700004222.1563632,1.6931488514,1555.965631605075,3795.7709700253163,-0.535,-2.14,-4.842,-5.844
-0.4,1700004222.1563632,1.693153739,1870.6821403657998,3717.0636679606755,-0.577,-2.235,-5.052,-6.096
-0.4,1700004222.1563632,1.6931599379,2564.484036517716,3585.0894827655493,-0.608,-2.369,-5.403,-6.526
-0.4,1700004222.1563632,1.693167448,3419.794425137087,3462.5814654379196,-0.603,-2.469,-5.719,-6.921
-0.4,1700004222.1563632,1.6931762695,4149.5404263436285,3375.981048554255,-0.57,-2.515,-5.928,-7.188
-0.4,1700004222.1563632,1.6931866407,4591.980128368686,3323.533035774775,-0.531,-2.521,-6.035,-7.33
-0.4,1700004222.1563632,1.6931983232,4786.300923226385,3291.546539470676,-0.499,-2.508,-6.08,-7.396
-0.4,1700004222.1563632,1.6932115555,4875.284901033865,3267.3826606314346,-0.462,-2.486,-6.101,-7.433
-0.4,1700004222.1563632,1.6932119131,3908.4089579240213,3358.9226273449517,-0.472,-2.422,-5.861,-7.133
-0.4,1700004222.1563632,1.6932131052,2897.3435877013244,3486.582933528731,-0.502,-2.336,-5.535,-6.721
-0.4,1700004222.1563632,1.6932153702,1713.9573075084252,3723.917062545687,-0.499,-2.148,-4.954,-5.996
-0.4,1700004222.1563632,1.693218708,1725.837891990204,3718.7758332493545,-0.496,-2.149,-4.963,-6.007
-0.4,1700004222.1563632,1.6932231188,2065.3801558105292,3631.616662075049,-0.507,-2.219,-5.165,-6.26
-0.4,1700004222.1563632,1.6932288408,2798.981319634363,3486.582933528731,-0.471,-2.302,-5.498,-6.685
-0.4,1700004222.1563632,1.6932356358,3698.281797802663,3355.057749988978,-0.411,-2.359,-5.8,-7.075
-0.4,1700004222.1563632,1.693243742,4456.562483975033,3264.3746754294584,-0.36,-2.384,-6.001,-7.335
-0.4,1700004222.1563632,1.6932531595,4897.7881936844615,3211.441387141269,-0.33,-2.388,-6.106,-7.473
-0.4,1700004222.1563632,1.6932638884,5093.308710571952,3179.8014276915274,-0.295,-2.374,-6.15,-7.535
-0.4,1700004222.1563632,1.6932759285,5188.000389289609,3156.4578912990714,-0.256,-2.35,-6.17,-7.569
-0.4,1700004222.1563632,1.6932762861,4265.795188015925,3244.8901566053664,-0.268,-2.303,-5.954,-7.301
-0.4,1700004222.1563632,1.6932774782,3169.56746304349,3382.9844379759015,-0.337,-2.251,-5.632,-6.888
-0.4,1700004222.1563632,1.693279624,1883.6490894898002,3642.503686647633,-0.435,-2.135,-5.062,-6.151
-0.4,1700004222.1563632,1.6932828426,1896.7059212111465,3636.6373933084765,-0.43,-2.135,-5.071,-6.163
-0.4,1700004222.1563632,1.6932871342,2259.435770220978,3542.4195826164946,-0.389,-2.169,-5.264,-6.416
-0.4,1700004222.1563632,1.6932924986,3033.891184194272,3390.002355756172,-0.314,-2.218,-5.584,-6.836
-0.4,1700004222.1563632,1.6932991743,3971.915494694405,3253.8685178010755,-0.217,-2.244,-5.876,-7.218
-0.4,1700004222.1563632,1.6933069229,4753.352259428054,3160.8217127583484,-0.176,-2.265,-6.074,-7.471
-0.4,1700004222.1563632,1.6933159828,5211.947111050806,3107.420310388586,-0.137,-2.265,-6.178,-7.604
-0.4,1700004222.1563632,1.693326354,5407.5432294558095,3076.096814740708,-0.089,-2.244,-6.222,-7.663
-0.4,1700004222.1563632,1.6933379173,5508.076964054036,3052.8115771626694,-0.04,-2.215,-6.242,-7.694
-0.4,1700004222.1563632,1.693338275,4645.152752227492,3131.843125111643,-0.081,-2.189,-6.05,-7.463
-0.4,1700004222.1563632,1.6933393478,3467.368504525317,3273.406948788383,-0.14,-2.14,-5.726,-7.056
-0.4,1700004222.1563632,1.6933413744,2060.6299132700005,3541.6040042646177,-0.299,-2.071,-5.162,-6.316
-0.4,1700004222.1563632,1.6933443546,2079.696687103696,3535.0861336199705,-0.293,-2.069,-5.17,-6.328
-0.4,1700004222.1563632,1.6933484077,2471.724145016129,3440.329187682278,-0.24,-2.092,-5.358,-6.577
-0.4,1700004222.1563632,1.6933535337,3288.51630875983,3287.7591870669708,-0.125,-2.111,-5.668,-6.988
-0.4,1700004222.1563632,1.6933597326,4265.795188015925,3152.1000945192795,-0.043,-2.135,-5.955,-7.357
-0.4,1700004222.1563632,1.6933670044,5069.907082747044,3061.2584717197674,0.013,-2.148,-6.15,-7.599
-0.4,1700004222.1563632,1.6933755875,5533.501092157366,3009.539168873201,0.073,-2.136,-6.25,-7.72
-0.4,1700004222.1563632,1.6933852434,5741.164622073275,2980.574626482317,0.118,-2.117,-6.293,-7.772
-0.4,1700004222.1563632,1.6933960915,5834.451042737448,2958.6936525140045,0.162,-2.091,-6.313,-7.799
-0.4,1700004222.1563632,1.6933964491,5046.612975635282,3026.913428101305,0.11,-2.078,-6.148,-7.612
-0.4,1700004222.1563632,1.6933974028,3784.425847170932,3168.10815932805,0.042,-2.037,-5.823,-7.218
-0.4,1700004222.1563632,1.6933993101,2259.435770220978,3437.1619861753497,-0.149,-1.995,-5.259,-6.481
-0.4,1700004222.1563632,1.6934021711,2275.0974307720717,3430.8363277495027,-0.14,-1.991,-5.267,-6.494
-0.4,1700004222.1563632,1.6934059858,2697.7394324449206,3335.031958716416,-0.06,-1.994,-5.45,-6.741
-0.4,1700004222.1563632,1.6934108734,3556.3131856898544,3184.9307947187244,0.065,-2.002,-5.754,-7.139
-0.4,1700004222.1563632,1.6934167147,4570.881896148751,3052.1087222420074,0.136,-2.025,-6.038,-7.491
-0.4,1700004222.1563632,1.693423748,5407.5432294558095,2962.1019360527644,0.223,-2.021,-6.227,-7.713
-0.4,1700004222.1563632,1.693431735,5888.43655355589,2911.3874126187557,0.283,-2.009,-6.329,-7.828
-0.4,1700004222.1563632,1.6934409142,6095.368972401694,2881.3764348397,0.331,-1.989,-6.373,-7.88
-0.4,1700004222.1563632,1.6934512854,6208.690342300638,2858.2486036727378,0.376,-1.963,-6.395,-7.905
-0.4,1700004222.1563632,1.6934515238,5495.408738576249,2916.0837985212315,0.332,-1.95,-6.252,-7.75
-0.4,1700004222.1563632,1.6934524775,4130.475019901614,3054.9211132155124,0.232,-1.923,-5.926,-7.378
-0.4,1700004222.1563632,1.6934542656,2471.724145016129,3323.533035774775,0.051,-1.884,-5.354,-6.654
-0.4,1700004222.1563632,1.693456769,2488.85731828239,3316.6527215043507,0.063,-1.878,-5.361,-6.666
-0.4,1700004222.1563632,1.6934602261,2937.6496519615307,3222.5524898879053,0.148,-1.875,-5.543,-6.905
-0.4,1700004222.1563632,1.6934645176,3837.0724549227884,3076.805193759751,0.253,-1.885,-5.843,-7.286
-0.4,1700004222.1563632,1.6934697628,4886.523593428336,2949.171307508275,0.354,-1.893,-6.118,-7.608
-0.4,1700004222.1563632,1.6934760809,5727.960309858292,2864.1779699065796,0.436,-1.893,-6.307,-7.816
-0.4,1700004222.1563632,1.6934832335,6208.690342300638,2817.7340493202273,0.49,-1.884,-6.402,-7.917
-0.4,1700004222.1563632,1.6934914589,6412.095765851615,2793.830151362531,0.522,-1.874,-6.442,-7.957
-0.4,1700004222.1563632,1.6935007572,6501.296903430909,2777.7937729057107,0.55,-1.86,-6.461,-7.974
-0.4,1700004222.1563632,1.6935009956,5888.43655355589,2822.929290779784,0.525,-1.842,-6.344,-7.859
-0.4,1700004222.1563632,1.6935019493,4456.562483975033,2956.650565082943,0.422,-1.812,-6.015,-7.503
-0.4,1700004222.1563632,1.6935037374,2679.1683248190316,3218.844524111849,0.25,-1.77,-5.441,-6.807
-0.4,1700004222.1563632,1.6935063601,2685.344445658506,3204.7931228494,0.281,-1.75,-5.447,-6.82
-0.4,1700004222.1563632,1.6935098171,3162.2776601683795,3100.9873885323427,0.394,-1.724,-5.63,-7.062
-0.4,1700004222.1563632,1.6935141087,4102.041029866068,2944.4216337987605,0.535,-1.704,-5.927,-7.418
-0.4,1700004222.1563632,1.6935194731,5176.068319505676,2802.8509276466875,0.699,-1.675,-6.206,-7.72
-0.4,1700004222.1563632,1.6935257912,6039.4862937638,2701.4690729572467,0.823,-1.645,-6.396,-7.908
-0.4,1700004222.1563632,1.6935331821,6516.283940608428,2636.3313858253787,0.911,-1.613,-6.497,-7.994
-0.4,1700004222.1563632,1.6935414076,6729.766562843175,2592.9849734125332,0.964,-1.59,-6.542,-8.031
-0.4,1700004222.1563632,1.6935508251,6823.3869414166975,2557.40788582677,0.97,-1.593,-6.559,-8.049
-0.4,1700004222.1563632,1.6935510635,6338.69711256927,2587.021273464604,1.023,-1.529,-6.477,-7.966
-0.4,1700004222.1563632,1.693551898,4808.393484497285,2707.6966023304954,1.019,-1.429,-6.147,-7.657
-0.4,1700004222.1563632,1.6935535669,2917.427014001166,2959.3749953433894,0.842,-1.374,-5.552,-7.039
-0.4,1700004222.1563632,1.6935558319,2917.427014001166,2912.0578615296977,0.96,-1.29,-5.558,-7.056
-0.4,1700004222.1563632,1.6935590506,3419.794425137087,2756.7666102901003,1.206,-1.176,-5.762,-7.27
-0.4,1700004222.1563632,1.6935629845,4405.548635065535,2540.972705549304,1.373,-1.159,-6.078,-7.563
-0.4,1700004222.1563632,1.693567872,5508.076964054036,2345.308621200276,1.262,-1.327,-6.332,-7.825
-0.4,1700004222.1563632,1.6935735941,6382.634861905489,2208.513203434825,1.138,-1.467,-6.495,-7.989
-0.4,1700004222.1563632,1.6935801506,6886.522963442762,2136.48574758037,1.057,-1.548,-6.576,-8.07
-0.4,1700004222.1563632,1.69358778,7095.777679633888,2123.2444620002193,1.023,-1.582,-6.61,-8.104
-0.4,1700004222.1563632,1.6935962439,7211.074791828998,2164.7113787030034,1.007,-1.598,-6.627,-8.121
