FeH,Age,Mini,L,Te,Bmag,Vmag,Jmag,Kmag
0.4,1549993939.2303696,0.1000000015,0.0005370317963702527,2333.9954227194694,19.392,17.693,10.844,9.913
0.4,1549993939.2303696,0.1028883606,0.0005780960474057181,2354.507076184939,19.31,17.612,10.765,9.833
0.4,1549993939.2303696,0.1169264987,0.000833681184619634,2455.274198378797,18.888,17.201,10.368,9.436
0.4,1549993939.2303696,0.1199999973,0.0008974287945007481,2476.281425273959,18.802,17.117,10.287,9.355
0.4,1549993939.2303696,0.1400000006,0.0013273944577297401,2578.101431424051,18.35,16.678,9.863,8.93
0.4,1549993939.2303696,0.1599999964,0.0018197008586099826,2657.6635495543114,17.717,16.082,9.534,8.606
0.4,1549993939.2303696,0.200000003,0.0030338911841942717,2793.1869222539713,16.391,14.852,9.024,8.113
0.4,1549993939.2303696,0.25,0.004819477976251272,2904.022654464451,15.374,13.884,8.555,7.657
0.4,1549993939.2303696,0.2989352643,0.006950243175887969,2988.821646959374,14.645,13.191,8.186,7.296
0.4,1549993939.2303696,0.31458655,0.007852356346100719,3013.006024186122,14.421,12.978,8.06,7.173
0.4,1549993939.2303696,0.3235965967,0.008413951416451947,3026.913428101305,14.297,12.859,7.991,7.105
0.4,1549993939.2303696,0.349999994,0.010115794542598982,3067.608976917938,13.963,12.532,7.805,6.921
0.4,1549993939.2303696,0.400000006,0.014028137045619582,3153.5520245507173,13.358,11.957,7.475,6.595
0.4,1549993939.2303696,0.4500000179,0.019543394557753942,3248.6281257920155,12.761,11.388,7.145,6.263
0.4,1549993939.2303696,0.5000000596,0.027352687263067124,3353.5130445056075,12.177,10.827,6.817,5.927
0.4,1549993939.2303696,0.509634614,0.029308932452503215,3377.5361033186905,12.055,10.714,6.75,5.859
0.4,1549993939.2303696,0.5369449258,0.0353183169791957,3446.6723487178924,11.728,10.403,6.567,5.672
0.4,1549993939.2303696,0.5500000715,0.038547835766577186,3478.5640153042373,11.578,10.26,6.483,5.586
0.4,1549993939.2303696,0.5900231004,0.051168183554030786,3610.7714510035285,11.051,9.741,6.218,5.318
0.4,1549993939.2303696,0.6000000238,0.05470159628939716,3643.342500684969,10.925,9.613,6.156,5.256
0.4,1549993939.2303696,0.6106867194,0.0591561634175474,3689.775985701505,10.764,9.446,6.087,5.188
0.4,1549993939.2303696,0.6423299313,0.07430191378967013,3830.010812264487,10.307,8.984,5.885,4.996
0.4,1549993939.2303696,0.6499999762,0.07834296427662116,3863.669770540693,10.2,8.876,5.837,4.953
0.4,1549993939.2303696,0.7000000477,0.11117317272815914,4109.604232515482,9.485,8.181,5.527,4.69
0.4,1549993939.2303696,0.75,0.16032453906900412,4465.8075129335175,8.636,7.425,5.23,4.488
0.4,1549993939.2303696,0.762268424,0.17258378919902034,4510.243611171937,8.499,7.307,5.164,4.438
0.4,1549993939.2303696,0.7995219231,0.2137962089502232,4648.362618593011,8.096,6.963,4.97,4.293
0.4,1549993939.2303696,0.8258821368,0.2488857318282391,4753.352259428054,7.811,6.725,4.835,4.195
0.4,1549993939.2303696,0.8490439653,0.2831391995799379,4845.069375499792,7.573,6.527,4.72,4.11
0.4,1549993939.2303696,0.889700532,0.35481338923357547,5006.10552528821,7.175,6.194,4.522,3.961
0.4,1549993939.2303696,0.8985658288,0.3723917062545685,5040.806191026696,7.094,6.125,4.48,3.93
0.4,1549993939.2303696,0.9480878115,0.48528850016212105,5229.979661821558,6.662,5.76,4.251,3.752
0.4,1549993939.2303696,0.9976097345,0.6251726927756859,5408.788505661013,6.267,5.423,4.03,3.575
0.4,1549993939.2303696,1.003226161,0.6441692655151773,5427.502097963167,6.224,5.386,4.005,3.555
0.4,1549993939.2303696,1.0471316576,0.8016780633876791,5575.7077217879405,5.898,5.108,3.816,3.399
0.4,1549993939.2303696,1.0930335522,1.0,5720.052304159283,5.576,4.832,3.623,3.238
0.4,1549993939.2303696,1.0966536999,1.0185913880541169,5730.598740537326,5.551,4.811,3.608,3.225
0.4,1549993939.2303696,1.1066521406,1.069054879222658,5759.701812546716,5.484,4.753,3.567,3.19
0.4,1549993939.2303696,1.1461756229,1.2852866599436155,5873.5409368008195,5.226,4.531,3.405,3.05
0.4,1549993939.2303696,1.195697546,1.6106456351782703,6004.820089075465,4.918,4.266,3.208,2.879
0.4,1549993939.2303696,1.2452194691,1.9906733389871867,6124.914068474841,4.633,4.02,3.019,2.712
0.4,1549993939.2303696,1.2477836609,2.0137242498623884,6130.557921498208,4.619,4.007,3.01,2.704
0.4,1549993939.2303696,1.2947413921,2.4378108183687526,6230.171474290644,4.37,3.79,2.839,2.551
0.4,1549993939.2303696,1.3442634344,2.9512092266663856,6327.0315486650115,4.122,3.572,2.667,2.395
0.4,1549993939.2303696,1.3604767323,3.1332857243155856,6356.235799378436,4.045,3.504,2.611,2.345
0.4,1549993939.2303696,1.3937852383,3.548133892335755,6413.572375458588,3.889,3.366,2.499,2.242
0.4,1549993939.2303696,1.3996258974,3.6224299841669865,6422.4391767043135,3.862,3.342,2.479,2.224
0.4,1549993939.2303696,1.4433073997,4.2364296604954115,6487.838043422757,3.667,3.167,2.333,2.089
0.4,1549993939.2303696,1.4871674776,4.920395356814509,6538.8293000474205,3.485,2.999,2.187,1.95
0.4,1549993939.2303696,1.4928293228,5.023425895223871,6543.347723737576,3.462,2.978,2.168,1.932
0.4,1549993939.2303696,1.5130068064,5.370317963702527,6561.452663029057,3.383,2.904,2.101,1.868
0.4,1549993939.2303696,1.5423511267,5.902010801718443,6578.092861041911,3.272,2.798,2.003,1.772
0.4,1549993939.2303696,1.5528378487,6.109420249055721,6584.154299433819,3.233,2.761,1.968,1.739
0.4,1549993939.2303696,1.5820794106,6.714288529259523,6593.25693118515,3.127,2.658,1.869,1.641
0.4,1549993939.2303696,1.5918731689,6.918309709189364,6593.25693118515,3.092,2.623,1.836,1.608
0.4,1549993939.2303696,1.5962407589,7.014552984199712,6594.775259494848,3.077,2.608,1.821,1.593
0.4,1549993939.2303696,1.6211341619,7.603262769401819,6594.775259494848,2.99,2.522,1.736,1.508
0.4,1549993939.2303696,1.641395092,8.090958991783824,6588.704043340734,2.922,2.453,1.665,1.437
0.4,1549993939.2303696,1.6440167427,8.165823713585924,6588.704043340734,2.913,2.444,1.656,1.428
0.4,1549993939.2303696,1.6661560535,8.729713683881116,6576.578373554205,2.841,2.37,1.578,1.348
0.4,1549993939.2303696,1.6749778986,8.974287945007484,6572.037002870897,2.813,2.341,1.547,1.317
0.4,1549993939.2303696,1.6909170151,9.418895965228414,6558.43169806728,2.764,2.289,1.49,1.258
0.4,1549993939.2303696,1.7038726807,9.794899854086989,6546.361740672747,2.724,2.246,1.443,1.209
0.4,1549993939.2303696,1.7156780958,10.162486928706954,6531.305526474723,2.689,2.207,1.398,1.163
0.4,1549993939.2303696,1.7177762985,10.232929922807541,6529.801810928715,2.683,2.201,1.391,1.155
0.4,1549993939.2303696,1.7374396324,10.839269140212034,6498.303634842379,2.63,2.14,1.318,1.078
0.4,1549993939.2303696,1.7404389381,10.914403364487566,6493.816315762113,2.622,2.131,1.307,1.066
0.4,1549993939.2303696,1.7476058006,11.168632477805613,6481.865274740793,2.603,2.108,1.279,1.036
0.4,1549993939.2303696,1.7651998997,11.748975549395297,6447.628406439211,2.559,2.055,1.211,0.964
0.4,1549993939.2303696,1.7673748732,11.803206356517299,6443.17608047901,2.553,2.048,1.203,0.955
0.4,1549993939.2303696,1.7895681858,12.589254117941675,6395.875480508257,2.503,1.983,1.117,0.861
0.4,1549993939.2303696,1.7899608612,12.589254117941675,6394.402945292843,2.502,1.982,1.116,0.859
0.4,1549993939.2303696,1.8038822412,13.061708881318419,6351.846583394707,2.477,1.944,1.06,0.797
0.4,1549993939.2303696,1.8147218227,13.458603540559483,6316.841792875155,2.46,1.916,1.016,0.747
0.4,1549993939.2303696,1.8335918188,14.12537544622754,6256.046959640024,2.431,1.868,0.941,0.661
0.4,1549993939.2303696,1.8394829035,14.35489433353656,6237.348354824191,2.423,1.854,0.917,0.635
0.4,1549993939.2303696,1.853579998,14.859356422870068,6188.708114190298,2.404,1.82,0.86,0.569
0.4,1549993939.2303696,1.8642437458,15.275660582380723,6147.520703193109,2.391,1.794,0.815,0.516
0.4,1549993939.2303696,1.8749438524,15.703628043335524,6103.795855585308,2.38,1.769,0.77,0.463
0.4,1549993939.2303696,1.8890048265,16.51961798229015,6067.363295885053,2.343,1.72,0.703,0.389
0.4,1549993939.2303696,1.89316082,16.749428760264372,6056.1970872775855,2.332,1.705,0.682,0.366
0.4,1549993939.2303696,1.89460814,16.865530253887414,6054.802756898621,2.325,1.697,0.674,0.358
0.4,1549993939.2303696,1.9031385183,18.706821403658008,6137.620051647939,2.173,1.574,0.592,0.292
0.4,1549993939.2303696,1.9049128294,20.183663636815606,6240.221421389766,2.046,1.48,0.547,0.265
0.4,1549993939.2303696,1.9055945873,21.67704104819695,6343.077242082354,1.925,1.393,0.508,0.245
0.4,1549993939.2303696,1.9059551954,23.49632820848307,6466.957398298083,1.787,1.294,0.465,0.223
0.4,1549993939.2303696,1.9061102867,25.118864315095795,6576.578373554205,1.675,1.212,0.43,0.204
0.4,1549993939.2303696,1.9062154293,26.001595631652723,6645.076729077792,1.614,1.169,0.416,0.2
0.4,1549993939.2303696,1.9062620401,25.003453616964308,6609.977786538225,1.668,1.214,0.446,0.225
0.4,1549993939.2303696,1.9063247442,23.12064790175595,6507.287577548787,1.789,1.307,0.496,0.26
0.4,1549993939.2303696,1.90640378,22.080047330189004,6376.758944326096,1.889,1.368,0.498,0.241
0.4,1549993939.2303696,1.9065164328,22.181964198002195,6241.658450909745,1.941,1.376,0.445,0.164
0.4,1549993939.2303696,1.9066804647,22.59435770220978,6105.201468341019,1.983,1.373,0.377,0.071
0.4,1549993939.2303696,1.906914115,22.54239212152429,5968.978299546356,2.048,1.393,0.328,-0.003
0.4,1549993939.2303696,1.9072434902,22.02926463053456,5833.107765394218,2.144,1.443,0.306,-0.054
0.4,1549993939.2303696,1.9076802731,20.941124558508925,5692.460162787103,2.272,1.526,0.313,-0.076
0.4,1549993939.2303696,1.9080541134,19.81527025805098,5591.135275705602,2.388,1.61,0.338,-0.074
0.4,1549993939.2303696,1.9084275961,18.535316234148116,5496.674248892049,2.515,1.707,0.38,-0.055
0.4,1549993939.2303696,1.9087857008,17.25837891990204,5411.279918442833,2.643,1.808,0.431,-0.024
0.4,1549993939.2303696,1.9092280865,15.812480392703835,5311.289818550133,2.802,1.934,0.497,0.017
0.4,1549993939.2303696,1.9096642733,14.723125024327187,5216.749703076012,2.941,2.042,0.546,0.042
0.4,1549993939.2303696,1.9099910259,14.190575216890918,5149.914276478671,3.025,2.104,0.564,0.043
0.4,1549993939.2303696,1.910679698,14.68926277643867,5032.687915706669,3.079,2.115,0.493,-0.061
0.4,1549993939.2303696,1.9111381769,15.88546748597779,4967.066792234226,3.046,2.057,0.388,-0.185
0.4,1549993939.2303696,1.911544323,17.579236139586932,4918.129952683078,2.98,1.97,0.264,-0.323
0.4,1549993939.2303696,1.9118819237,19.31968317016924,4879.77727286486,2.909,1.883,0.148,-0.45
0.4,1549993939.2303696,1.9121894836,21.281390459827122,4846.185122401829,2.837,1.797,0.036,-0.573
0.4,1549993939.2303696,1.9124768972,23.334580622810034,4815.041116556669,2.765,1.711,-0.074,-0.692
0.4,1549993939.2303696,1.912754178,25.644840365177174,4786.300923226385,2.691,1.624,-0.184,-0.811
0.4,1549993939.2303696,1.9130221605,28.05433637951713,4757.732275412047,2.621,1.542,-0.29,-0.926
0.4,1549993939.2303696,1.9132891893,30.69021988391158,4731.512589614803,2.55,1.459,-0.395,-1.04
0.4,1549993939.2303696,1.9135562181,33.57376142429547,4705.437399531806,2.478,1.376,-0.5,-1.154
0.4,1549993939.2303696,1.9137656689,36.05786430216423,4684.8964916001305,2.421,1.31,-0.584,-1.244
0.4,1549993939.2303696,1.9138212204,36.72823004980846,4679.505908852532,2.406,1.293,-0.605,-1.267
0.4,1549993939.2303696,1.9140734673,39.99447497610976,4655.860935229591,2.341,1.216,-0.704,-1.375
0.4,1549993939.2303696,1.9143201113,43.55118736855686,4630.202658603084,2.276,1.139,-0.802,-1.482
0.4,1549993939.2303696,1.9145605564,47.424198526024455,4605.746173947351,2.212,1.064,-0.9,-1.588
0.4,1549993939.2303696,1.9147956371,51.52286445817565,4580.364077908267,2.148,0.989,-0.998,-1.695
0.4,1549993939.2303696,1.9150232077,55.97576014951102,4555.121861657392,2.087,0.916,-1.094,-1.801
0.4,1549993939.2303696,1.9152398109,60.673632958850526,4531.0619497855805,2.029,0.847,-1.187,-1.903
0.4,1549993939.2303696,1.9154732227,66.22165037017619,4502.9798128808925,1.971,0.772,-1.29,-2.014
0.4,1549993939.2303696,1.9157073498,72.44359600749902,4475.071720476557,1.912,0.694,-1.396,-2.131
0.4,1549993939.2303696,1.9159128666,78.52356346100719,4448.360748898113,1.862,0.627,-1.492,-2.235
0.4,1549993939.2303696,1.9161182642,85.31001140175896,4422.827487168868,1.812,0.56,-1.588,-2.34
0.4,1549993939.2303696,1.9163205624,92.46981739382225,4397.440784473689,1.762,0.492,-1.683,-2.445
0.4,1549993939.2303696,1.9165188074,100.23052380778994,4371.193179262241,1.716,0.429,-1.776,-2.547
0.4,1549993939.2303696,1.9167271852,108.39269140212039,4347.103696062099,1.669,0.366,-1.867,-2.647
0.4,1549993939.2303696,1.9169696569,117.48975549395291,4320.161676181425,1.624,0.303,-1.961,-2.751
0.4,1549993939.2303696,1.9173542261,125.60299636948754,4298.3324252156535,1.584,0.249,-2.042,-2.839
0.4,1549993939.2303696,1.91750741,121.33888504649774,4310.225580049957,1.604,0.277,-2.0,-2.793
0.4,1549993939.2303696,1.9176697731,112.71974561755106,4335.108783875289,1.646,0.335,-1.913,-2.697
0.4,1549993939.2303696,1.9177770615,102.80162981264735,4365.158322401661,1.697,0.405,-1.805,-2.578
0.4,1549993939.2303696,1.9178661108,93.75620069258802,4395.416154378243,1.752,0.481,-1.697,-2.459
0.4,1549993939.2303696,1.917948246,85.50667128846833,4425.883723626264,1.807,0.556,-1.588,-2.34
0.4,1549993939.2303696,1.9180214405,78.88601176185544,4452.459727917414,1.855,0.621,-1.494,-2.236
0.4,1549993939.2303696,1.9181002378,72.61059574351547,4479.195312542835,1.904,0.688,-1.398,-2.131
0.4,1549993939.2303696,1.918184042,67.29766562843179,4504.016781680873,1.953,0.753,-1.308,-2.032
0.4,1549993939.2303696,1.9183263779,61.80164001384158,4532.1053854810425,2.007,0.824,-1.207,-1.922
0.4,1549993939.2303696,1.9183791876,63.24118513762193,4524.806378555487,1.991,0.805,-1.235,-1.953
0.4,1549993939.2303696,1.918481946,67.29766562843179,4505.053989279239,1.951,0.752,-1.307,-2.032
0.4,1549993939.2303696,1.9186825752,72.61059574351547,4480.226804128664,1.903,0.688,-1.397,-2.13
0.4,1549993939.2303696,1.9189037085,78.52356346100719,4456.562483975033,1.854,0.622,-1.488,-2.229
0.4,1549993939.2303696,1.9191215038,84.33347577642752,4434.04401633441,1.809,0.562,-1.573,-2.322
0.4,1549993939.2303696,1.9193468094,90.78205301781857,4410.623631214367,1.765,0.502,-1.659,-2.416
0.4,1549993939.2303696,1.9195817709,97.94899854086991,4386.316848258552,1.718,0.44,-1.748,-2.513
0.4,1549993939.2303696,1.919801712,105.19618738232224,4363.148555506765,1.676,0.382,-1.831,-2.605
0.4,1549993939.2303696,1.9200313091,113.24003632355566,4340.10263644744,1.632,0.322,-1.919,-2.701
0.4,1549993939.2303696,1.920263052,122.4616199265049,4315.19076827765,1.587,0.262,-2.008,-2.799
0.4,1549993939.2303696,1.9204804897,131.82567385564073,4291.409912283691,1.546,0.205,-2.094,-2.894
0.4,1549993939.2303696,1.9207004309,141.90575216890926,4267.7601117035365,1.503,0.145,-2.182,-2.991
0.4,1549993939.2303696,1.9209091663,152.75660582380732,4244.240644295681,1.463,0.091,-2.268,-3.086
0.4,1549993939.2303696,1.9211133718,164.05897731995387,4219.879016871569,1.422,0.034,-2.351,-3.176
0.4,1549993939.2303696,1.9213122129,176.1976046411629,4198.556481973773,1.381,-0.022,-2.433,-3.263
0.4,1549993939.2303696,1.9214998484,187.93168168032685,4176.379929509739,1.346,-0.072,-2.507,-3.344
0.4,1549993939.2303696,1.9216785431,199.06733389871863,4157.19120675218,1.313,-0.115,-2.574,-3.417
0.4,1549993939.2303696,1.9218600988,210.3778439766475,4139.043588458339,1.281,-0.157,-2.64,-3.488
0.4,1549993939.2303696,1.921872735,211.34890398366477,4138.090648167254,1.28,-0.159,-2.643,-3.492
0.4,1549993939.2303696,1.9219011068,200.90928126087277,4155.277190204325,1.306,-0.124,-2.585,-3.429
0.4,1549993939.2303696,1.9219019413,194.08858775927774,4168.693834703355,1.324,-0.099,-2.544,-3.383
0.4,1549993939.2303696,1.9219027758,187.49945080674192,4181.190933499036,1.342,-0.073,-2.503,-3.338
0.4,1549993939.2303696,1.9219036102,181.13400926196024,4192.759966846054,1.361,-0.047,-2.464,-3.296
0.4,1549993939.2303696,1.9219045639,174.98466886246564,4204.36101081749,1.38,-0.02,-2.424,-3.252
0.4,1549993939.2303696,1.9219056368,169.04409316432648,4215.994153984273,1.397,0.005,-2.385,-3.21
0.4,1549993939.2303696,1.9219069481,163.30519478943347,4227.659485162412,1.416,0.032,-2.345,-3.166
0.4,1549993939.2303696,1.9219083786,158.12480392703827,4239.357093413646,1.435,0.059,-2.305,-3.123
0.4,1549993939.2303696,1.9219101667,152.75660582380732,4251.087068046156,1.453,0.084,-2.265,-3.08
0.4,1549993939.2303696,1.9219119549,147.57065332758947,4261.868054241604,1.472,0.11,-2.225,-3.036
0.4,1549993939.2303696,1.9219141006,142.56075936021878,4273.660314969303,1.49,0.136,-2.184,-2.99
0.4,1549993939.2303696,1.921916604,137.72094688939458,4284.498548137013,1.511,0.164,-2.143,-2.946
0.4,1549993939.2303696,1.9219202995,131.82567385564073,4298.3324252156535,1.534,0.197,-2.094,-2.892
0.4,1549993939.2303696,1.9219255447,124.16523075924107,4318.172626237272,1.57,0.245,-2.022,-2.812
0.4,1549993939.2303696,1.9219323397,115.08003889444356,4342.1017878602825,1.613,0.304,-1.934,-2.715
0.4,1549993939.2303696,1.9219413996,105.68175092136585,4369.180633852881,1.664,0.373,-1.834,-2.605
0.4,1549993939.2303696,1.9219540358,95.2796164023652,4402.50644073913,1.725,0.456,-1.714,-2.473
0.4,1549993939.2303696,1.9219763279,81.2830516164099,4453.485062698576,1.82,0.586,-1.528,-2.269
0.4,1549993939.2303696,1.922005415,67.7641507610675,4513.360253409558,1.935,0.739,-1.312,-2.034
0.4,1549993939.2303696,1.922052145,59.84115950603196,4554.07312683254,2.017,0.845,-1.166,-1.873
0.4,1549993939.2303696,1.9221298695,52.11947111050805,4598.328567699996,2.115,0.963,-1.007,-1.697
0.4,1549993939.2303696,1.9222630262,44.6683592150963,4650.503761666063,2.228,1.099,-0.824,-1.497
0.4,1549993939.2303696,1.9225070477,35.80964371026361,4723.892435134152,2.392,1.297,-0.564,-1.211
0.4,1549993939.2303696,1.9226875305,32.06269324505466,4758.827909888171,2.475,1.395,-0.436,-1.072
0.4,1549993939.2303696,1.9228665829,32.88516308759829,4750.069893831193,2.457,1.373,-0.465,-1.104
0.4,1549993939.2303696,1.9232196808,35.974933515574236,4720.630412635905,2.388,1.292,-0.571,-1.22
0.4,1549993939.2303696,1.9235657454,37.32501577957206,4708.688923442734,2.36,1.258,-0.615,-1.267
0.4,1549993939.2303696,1.9240118265,36.391503612720705,4717.370642684883,2.379,1.281,-0.584,-1.234
0.4,1549993939.2303696,1.938326478,35.56313185689853,4740.236390350336,2.382,1.294,-0.552,-1.194
0.4,1549993939.2303696,1.9564530849,35.56313185689853,4762.116327398207,2.36,1.281,-0.546,-1.181
0.4,1549993939.2303696,1.9805670977,37.93149849736819,4770.896554256487,2.283,1.206,-0.614,-1.245
0.4,1549993939.2303696,1.9874477386,38.815036599064825,4770.896554256487,2.257,1.181,-0.639,-1.27
0.4,1549993939.2303696,2.0026774406,41.20975190973302,4770.896554256487,2.192,1.115,-0.705,-1.337
0.4,1549993939.2303696,2.0259432793,46.665938031428865,4753.352259428054,2.075,0.99,-0.844,-1.482
0.4,1549993939.2303696,2.0365691185,50.003453497697855,4736.963081746328,2.015,0.922,-0.925,-1.568
0.4,1549993939.2303696,2.0377550125,50.46612975635284,4735.872481253356,2.008,0.914,-0.934,-1.577
0.4,1549993939.2303696,2.0410535336,52.84452517751805,4719.543572446043,1.974,0.873,-0.988,-1.636
0.4,1549993939.2303696,2.0436306,53.08844442309885,4720.630412635905,1.966,0.866,-0.995,-1.642
0.4,1549993939.2303696,2.0473442078,58.8843655355589,4680.583528968204,1.895,0.778,-1.117,-1.779
0.4,1549993939.2303696,2.048861742,65.16283940608427,4639.807899821257,1.827,0.692,-1.239,-1.914
0.4,1549993939.2303696,2.0494806767,71.28530301265195,4606.806808300934,1.769,0.618,-1.343,-2.03
0.4,1549993939.2303696,2.0498435497,77.98301105232585,4571.934501781391,1.714,0.542,-1.451,-2.15
0.4,1549993939.2303696,2.0500833988,86.8960429286302,4532.1053854810425,1.65,0.454,-1.58,-2.292
0.4,1549993939.2303696,2.0502033234,96.60508789898135,4493.657830540859,1.588,0.368,-1.705,-2.43
0.4,1549993939.2303696,2.0502605438,105.19618738232224,4462.723707622523,1.538,0.297,-1.808,-2.544
0.4,1549993939.2303696,2.0503005981,115.34532578210919,4430.982144892989,1.487,0.225,-1.915,-2.662
0.4,1549993939.2303696,2.0503094196,118.03206356517298,4422.827487168868,1.474,0.207,-1.942,-2.692
0.4,1549993939.2303696,2.050331831,126.18275345906706,4398.453449216315,1.435,0.152,-2.022,-2.78
0.4,1549993939.2303696,2.050358057,136.4583136588924,4371.193179262241,1.391,0.09,-2.115,-2.883
0.4,1549993939.2303696,2.0503849983,145.8814260275349,4348.1047689272755,1.355,0.039,-2.193,-2.969
0.4,1549993939.2303696,2.050424099,151.35612484362088,4336.107094491863,1.336,0.012,-2.235,-3.016
0.4,1549993939.2303696,2.0504889488,143.5489433353656,4354.116049150633,1.363,0.051,-2.174,-2.948
0.4,1549993939.2303696,2.0505473614,134.89628825916532,4376.228599453495,1.398,0.1,-2.099,-2.866
0.4,1549993939.2303696,2.0506823063,126.18275345906706,4399.466347160466,1.435,0.153,-2.02,-2.778
0.4,1549993939.2303696,2.0517790318,122.17996601648723,4412.655266224519,1.452,0.178,-1.982,-2.736
0.4,1549993939.2303696,2.0535745621,130.31667784523,4390.358656409448,1.413,0.125,-2.059,-2.821
0.4,1549993939.2303696,2.0547201633,141.5793779957081,4362.144019080488,1.366,0.058,-2.157,-2.928
0.4,1549993939.2303696,2.0555713177,156.3147642640954,4328.127042202217,1.312,-0.017,-2.272,-3.056
0.4,1549993939.2303696,2.0561778545,171.79083871575875,4295.364267648873,1.262,-0.089,-2.383,-3.179
0.4,1549993939.2303696,2.0566470623,187.93168168032685,4263.831169000789,1.212,-0.162,-2.489,-3.294
0.4,1549993939.2303696,2.0570290089,205.58905959841425,4234.479161692072,1.162,-0.232,-2.593,-3.406
0.4,1549993939.2303696,2.0573549271,224.90546058357805,4202.4252767731205,1.114,-0.3,-2.696,-3.519
0.4,1549993939.2303696,2.0576415062,245.4708915685031,4172.53511231794,1.065,-0.368,-2.798,-3.63
0.4,1549993939.2303696,2.0578973293,267.91683248190316,4142.857544606856,1.016,-0.432,-2.899,-3.741
0.4,1549993939.2303696,2.0581264496,292.41523778433367,4112.4440272660895,0.968,-0.494,-3.0,-3.852
0.4,1549993939.2303696,2.058327198,318.41975217261256,4082.2537814298526,0.92,-0.556,-3.1,-3.963
0.4,1549993939.2303696,2.0584945679,345.93937782612204,4054.1517440650287,0.873,-0.613,-3.196,-4.069
0.4,1549993939.2303696,2.058627367,374.97300224548337,4026.243159764701,0.828,-0.668,-3.291,-4.174
0.4,1549993939.2303696,2.0587291718,404.57589169744284,4000.3685104612505,0.787,-0.716,-3.377,-4.271
0.4,1549993939.2303696,2.0588138103,435.51187368556833,3973.745050614633,0.757,-0.758,-3.465,-4.37
0.4,1549993939.2303696,2.0588831902,466.6593803142887,3949.1169934897503,0.731,-0.79,-3.549,-4.464
0.4,1549993939.2303696,2.0589427948,498.88448746001217,3925.545359701092,0.709,-0.819,-3.628,-4.553
0.4,1549993939.2303696,2.0590009689,535.7966575133418,3899.419866765436,0.686,-0.85,-3.713,-4.649
0.4,1549993939.2303696,2.0590565205,575.4399373371566,3874.3602472800194,0.666,-0.875,-3.798,-4.744
0.4,1549993939.2303696,2.0591232777,629.5061828571975,3841.4925917875894,0.642,-0.904,-3.908,-4.868
0.4,1549993939.2303696,2.0591790676,682.3386941416697,3813.2914527677754,0.623,-0.928,-4.003,-4.975
0.4,1549993939.2303696,2.059235096,737.9042301291007,3783.5545512323115,0.614,-0.938,-4.1,-5.084
0.4,1549993939.2303696,2.0593070984,818.4647881347895,3746.277983440598,0.607,-0.942,-4.225,-5.225
0.4,1549993939.2303696,2.0593812466,907.8205301781861,3707.660840003112,0.607,-0.938,-4.352,-5.367
0.4,1549993939.2303696,2.0594587326,1006.9316688518045,3668.5969444134184,0.625,-0.909,-4.481,-5.512
0.4,1549993939.2303696,2.0595395565,1119.4378834671513,3629.108896409478,0.648,-0.874,-4.611,-5.658
0.4,1549993939.2303696,2.0596206188,1238.796586530369,3589.2193464500533,0.698,-0.805,-4.738,-5.799
0.4,1549993939.2303696,2.0597038269,1370.8817661648536,3550.5857031262385,0.75,-0.733,-4.863,-5.94
0.4,1549993939.2303696,2.0597856045,1506.6070661867418,3513.176750372876,0.827,-0.634,-4.983,-6.076
0.4,1549993939.2303696,2.059848547,1614.3585568264868,3485.7802105603496,0.885,-0.558,-5.068,-6.172
0.4,1549993939.2303696,2.0598599911,1655.7699634695275,3475.3616144320576,0.909,-0.528,-5.1,-6.209
0.4,1549993939.2303696,2.0598695278,1713.9573075084252,3460.190424829487,0.949,-0.476,-5.145,-6.259
0.4,1549993939.2303696,2.0598714352,1678.8040181225606,3470.5635400798756,0.921,-0.512,-5.116,-6.226
0.4,1549993939.2303696,2.0598716736,1671.090614310707,3472.1621617221945,0.916,-0.518,-5.111,-6.221
0.4,1549993939.2303696,2.0600838661,2529.2979964461447,3297.6153801591913,1.557,0.276,-5.635,-6.821
0.4,1549993939.2303696,2.060084343,2529.2979964461447,3253.8685178010755,1.885,0.686,-5.65,-6.859
0.4,1549993939.2303696,2.0600848198,1291.2192736135348,3526.9556611308685,0.918,-0.539,-4.807,-5.895
0.4,1549993939.2303696,2.0600850582,1164.126029410491,3568.617492834813,0.841,-0.64,-4.677,-5.748
0.4,1549993939.2303696,2.0600860119,682.3386941416697,3795.7709700253163,0.664,-0.884,-4.01,-4.989
0.4,1549993939.2303696,2.0600874424,693.4258060165695,3787.040939050054,0.671,-0.876,-4.031,-5.014
0.4,1549993939.2303696,2.0600895882,866.9618757582169,3687.228058871221,0.716,-0.813,-4.31,-5.334
0.4,1549993939.2303696,2.0600922108,1261.8275345906707,3526.9556611308685,0.938,-0.516,-4.784,-5.872
0.4,1549993939.2303696,2.0600955486,1798.8709151287874,3382.20556669654,1.332,-0.019,-5.227,-6.376
0.4,1549993939.2303696,2.0600993633,2290.8676527677726,3284.7324430306794,1.746,0.5,-5.53,-6.723
0.4,1549993939.2303696,2.0601041317,2606.153549998895,3230.7250568928803,2.029,0.866,-5.69,-6.911
0.4,1549993939.2303696,2.0601093769,2766.9416454115126,3204.0552769132337,2.147,1.007,-5.762,-6.996
0.4,1549993939.2303696,2.0601153374,2851.0182675039096,3186.3978473281713,2.231,1.108,-5.801,-7.044
0.4,1549993939.2303696,2.0601155758,1766.037820686164,3365.8906294925205,1.453,0.123,-5.215,-6.371
0.4,1549993939.2303696,2.0601160526,1324.3415351946644,3479.3650764909435,1.111,-0.306,-4.856,-5.963
0.4,1549993939.2303696,2.0601170063,776.247116628692,3702.5420540013483,0.781,-0.746,-4.184,-5.202
0.4,1549993939.2303696,2.0601186752,788.860117618554,3696.5790681932745,0.785,-0.74,-4.203,-5.223
0.4,1549993939.2303696,2.0601205826,981.7479430199844,3603.296501281602,0.877,-0.613,-4.479,-5.537
0.4,1549993939.2303696,2.0601234436,1422.32878712282,3452.2322076905675,1.181,-0.217,-4.944,-6.063
0.4,1549993939.2303696,2.0601267815,2009.0928126087279,3315.8891219088578,1.647,0.361,-5.376,-6.555
0.4,1549993939.2303696,2.0601308346,2546.8302525850418,3225.52193768908,2.081,0.925,-5.666,-6.889
0.4,1549993939.2303696,2.060135603,2884.031503126606,3179.069335643364,2.264,1.147,-5.817,-7.063
0.4,1549993939.2303696,2.0601410866,3040.88502567628,3160.0939904479483,2.34,1.238,-5.88,-7.136
0.4,1549993939.2303696,2.0601472855,3118.8895840939385,3151.374380204506,2.369,1.266,-5.91,-7.17
0.4,1549993939.2303696,2.0601475239,1958.844673505989,3328.1278395965264,1.594,0.297,-5.342,-6.516
0.4,1549993939.2303696,2.0601480007,1472.3125024327194,3441.9138826842905,1.201,-0.19,-4.985,-6.108
0.4,1549993939.2303696,2.0601489544,862.9785477669702,3666.0636424947174,0.789,-0.728,-4.312,-5.345
0.4,1549993939.2303696,2.0601506233,874.9837752274364,3659.3167197534817,0.795,-0.72,-4.33,-5.366
0.4,1549993939.2303696,2.0601527691,1086.4256236170656,3566.9744620973356,0.917,-0.555,-4.604,-5.676
0.4,1549993939.2303696,2.0601556301,1563.1476426409538,3415.8595068605546,1.279,-0.092,-5.063,-6.197
0.4,1549993939.2303696,2.0601592064,2197.8598727848253,3280.9529311311903,1.811,0.576,-5.486,-6.682
0.4,1549993939.2303696,2.0601634979,2773.320104651841,3190.8030609514212,2.223,1.097,-5.77,-7.011
0.4,1549993939.2303696,2.0601685047,3133.2857243155854,3144.850465476959,2.405,1.303,-5.916,-7.18
0.4,1549993939.2303696,2.0601742268,3288.51630875983,3126.0793671239558,2.481,1.38,-5.975,-7.25
0.4,1549993939.2303696,2.0601806641,3365.115693754908,3118.1715159014625,2.514,1.413,-6.001,-7.281
0.4,1549993939.2303696,2.0601809025,2147.8304741305333,3290.031075247056,1.768,0.519,-5.457,-6.648
0.4,1549993939.2303696,2.0601813793,1614.3585568264868,3403.2981684204196,1.316,-0.046,-5.103,-6.242
0.4,1549993939.2303696,2.0601825714,948.4184633008969,3628.273359403348,0.816,-0.69,-4.43,-5.477
0.4,1549993939.2303696,2.0601840019,961.6122783836648,3622.4299841669877,0.825,-0.677,-4.448,-5.498
0.4,1549993939.2303696,2.0601863861,1191.242008027375,3530.2056037666052,0.982,-0.47,-4.719,-5.806
0.4,1549993939.2303696,2.0601892471,1706.0823890031243,3381.4268747382753,1.39,0.045,-5.171,-6.32
0.4,1549993939.2303696,2.0601928234,2387.8112829131783,3247.1324216780226,1.987,0.805,-5.587,-6.799
0.4,1549993939.2303696,2.0601973534,2999.16251898765,3158.6390484234703,2.36,1.259,-5.865,-7.122
0.4,1549993939.2303696,2.0602023602,3380.6483620598156,3113.8665771825613,2.54,1.44,-6.006,-7.289
0.4,1549993939.2303696,2.0602080822,3548.133892335753,3095.2804165939788,2.617,1.518,-6.064,-7.358
0.4,1549993939.2303696,2.0602147579,3622.4299841669877,3087.450475587445,2.643,1.54,-6.09,-7.388
0.4,1549993939.2303696,2.0602149963,2355.049283896009,3252.370400952974,1.961,0.77,-5.57,-6.78
0.4,1549993939.2303696,2.0602154732,1774.1894808901661,3365.8906294925205,1.45,0.119,-5.22,-6.376
0.4,1549993939.2303696,2.0602166653,1042.3174293933037,3590.872623694513,0.867,-0.62,-4.549,-5.611
0.4,1549993939.2303696,2.0602183342,1056.8175092136585,3584.2640804371426,0.877,-0.607,-4.567,-5.632
0.4,1549993939.2303696,2.0602207184,1306.1708881318418,3493.8157638329217,1.061,-0.368,-4.834,-5.936
0.4,1549993939.2303696,2.0602238178,1857.8044550916989,3347.341331292356,1.524,0.209,-5.277,-6.442
0.4,1549993939.2303696,2.0602276325,2582.260190634596,3215.140824832692,2.136,0.99,-5.685,-6.914
0.4,1549993939.2303696,2.0602321625,3235.936569296281,3128.2395322577386,2.486,1.385,-5.956,-7.23
0.4,1549993939.2303696,2.0602374077,3630.780547701014,3083.8979622506845,2.656,1.547,-6.094,-7.394
0.4,1549993939.2303696,2.0602436066,3810.65823393773,3065.490679425787,2.692,1.556,-6.15,-7.46
0.4,1549993939.2303696,2.0602505207,3890.4514499428046,3057.736095690077,2.708,1.561,-6.174,-7.49
0.4,1549993939.2303696,2.0602507591,2582.260190634596,3215.8812236044914,2.131,0.984,-5.683,-6.911
0.4,1549993939.2303696,2.060251236,1949.8445997580454,3328.894257585374,1.594,0.295,-5.338,-6.511
0.4,1549993939.2303696,2.0602524281,1148.1536214968828,3553.0392081527184,0.918,-0.55,-4.67,-5.747
0.4,1549993939.2303696,2.0602543354,1166.8096170609629,3546.5002924732053,0.93,-0.535,-4.689,-5.769
0.4,1549993939.2303696,2.0602567196,1438.798578255845,3456.209025701263,1.148,-0.256,-4.953,-6.07
0.4,1549993939.2303696,2.060259819,2032.3570109362208,3311.311214825911,1.667,0.384,-5.39,-6.571
0.4,1549993939.2303696,2.0602638721,2818.382931264455,3180.5336883295204,2.277,1.161,-5.79,-7.035
0.4,1549993939.2303696,2.0602684021,3515.6044052829798,3094.567783987401,2.63,1.531,-6.056,-7.35
0.4,1549993939.2303696,2.0602738857,3953.666200681279,3050.001128249183,2.731,1.571,-6.193,-7.513
0.4,1549993939.2303696,2.060280323,4159.106104940223,3031.098153584047,2.771,1.582,-6.251,-7.583
0.4,1549993939.2303696,2.0602874756,4255.984131337431,3022.0385498282735,2.79,1.586,-6.28,-7.617
0.4,1549993939.2303696,2.060287714,2884.031503126606,3172.488087350881,2.309,1.199,-5.818,-7.068
0.4,1549993939.2303696,2.0602881908,2182.7299118430014,3284.7324430306794,1.791,0.548,-5.477,-6.671
0.4,1549993939.2303696,2.0602893829,1288.2495516931335,3508.326468551656,1.005,-0.436,-4.812,-5.908
0.4,1549993939.2303696,2.0602910519,1303.1667784523,3503.482883015712,1.018,-0.419,-4.828,-5.926
0.4,1549993939.2303696,2.0602934361,1595.879147236732,3415.0730666882723,1.265,-0.109,-5.085,-6.219
0.4,1549993939.2303696,2.0602967739,2233.5722228305326,3274.1607653757505,1.846,0.62,-5.507,-6.706
0.4,1549993939.2303696,2.0603005886,3061.963433690679,3147.023601705661,2.413,1.312,-5.891,-7.154
0.4,1549993939.2303696,2.0603051186,3793.1498497368207,3064.079293806048,2.707,1.569,-6.144,-7.456
0.4,1549993939.2303696,2.0603103638,4226.686142656029,3021.3427798432967,2.799,1.595,-6.271,-7.609
0.4,1549993939.2303696,2.0603165627,4405.548635065535,3005.3842076633828,2.824,1.596,-6.321,-7.667
0.4,1549993939.2303696,2.0603237152,4487.453899331323,2998.4720157970514,2.834,1.596,-6.341,-7.69
0.4,1549993939.2303696,2.0603239536,3104.5595881283557,3141.2319059861875,2.438,1.336,-5.907,-7.173
0.4,1549993939.2303696,2.0603244305,2355.049283896009,3253.1193731384888,1.957,0.765,-5.571,-6.781
0.4,1549993939.2303696,2.060325861,1396.3683610559376,3476.161938153812,1.076,-0.345,-4.913,-6.022
0.4,1549993939.2303696,2.0603275299,1409.2887984218748,3472.1621617221945,1.087,-0.331,-4.925,-6.036
0.4,1549993939.2303696,2.0603301525,1717.9083871575876,3385.3221281535407,1.358,0.006,-5.177,-6.324
0.4,1549993939.2303696,2.0603334904,2387.8112829131783,3246.384827880331,1.994,0.812,-5.588,-6.801
0.4,1549993939.2303696,2.0603377819,3243.3961734934933,3121.763510848167,2.524,1.424,-5.961,-7.239
0.4,1549993939.2303696,2.0603425503,3990.2490236214207,3039.484968770113,2.767,1.593,-6.205,-7.532
0.4,1549993939.2303696,2.0603482723,4436.086439314323,2998.4720157970514,2.842,1.605,-6.329,-7.678
0.4,1549993939.2303696,2.060354948,4623.810213992603,2982.634245778771,2.868,1.605,-6.377,-7.735
0.4,1549993939.2303696,2.0603625774,4688.13382145265,2975.7743773728107,2.879,1.606,-6.395,-7.756
0.4,1549993939.2303696,2.0603628159,3326.5955329400435,3110.283668685142,2.575,1.476,-5.991,-7.275
0.4,1549993939.2303696,2.0603632927,2535.128630497907,3221.810555177115,2.116,0.964,-5.661,-6.886
0.4,1549993939.2303696,2.0603644848,1510.0801541641476,3443.4993076333844,1.169,-0.229,-5.012,-6.134
0.4,1549993939.2303696,2.0603663921,1520.5475297324954,3440.329187682278,1.179,-0.216,-5.021,-6.144
0.4,1549993939.2303696,2.0603687763,1845.0154191794736,3355.057749988978,1.481,0.156,-5.267,-6.428
0.4,1549993939.2303696,2.0603718758,2546.8302525850418,3218.844524111849,2.13,0.98,-5.667,-6.894
0.4,1549993939.2303696,2.0603759289,3435.5794789987463,3095.993213309174,2.642,1.543,-6.029,-7.322
0.4,1549993939.2303696,2.0603804588,4207.266283844442,3015.0880540378826,2.827,1.615,-6.267,-7.608
0.4,1549993939.2303696,2.0603859425,4666.593803142887,2974.404298125139,2.888,1.614,-6.388,-7.75
0.4,1549993939.2303696,2.0603923798,4852.88500162121,2958.6936525140045,2.914,1.614,-6.435,-7.807
0.4,1549993939.2303696,2.0603995323,4931.738039549359,2951.8888459446066,2.925,1.615,-6.454,-7.83
0.4,1549993939.2303696,2.0603997707,3580.9643710263585,3078.93130974161,2.693,1.577,-6.079,-7.382
0.4,1549993939.2303696,2.0604002476,2735.268726306711,3189.333980133178,2.254,1.13,-5.755,-6.996
0.4,1549993939.2303696,2.0604016781,1636.8165214278085,3410.3582265334926,1.27,-0.103,-5.115,-6.251
0.4,1549993939.2303696,2.060403347,1644.3717232149324,3408.7880601025868,1.275,-0.096,-5.119,-6.256
0.4,1549993939.2303696,2.0604059696,1986.0949173573717,3324.298395649131,1.607,0.31,-5.359,-6.534
0.4,1549993939.2303696,2.0604093075,2716.4392688390835,3190.8030609514212,2.251,1.125,-5.746,-6.987
0.4,1549993939.2303696,2.060413599,3630.780547701014,3070.4356507300654,2.716,1.589,-6.095,-7.403
0.4,1549993939.2303696,2.0604183674,4415.704473533126,2991.575721530859,2.873,1.627,-6.325,-7.678
0.4,1549993939.2303696,2.0604240894,4875.284901033865,2951.8888459446066,2.937,1.627,-6.44,-7.815
0.4,1549993939.2303696,2.0604307652,5058.246620031143,2935.621096191421,2.956,1.625,-6.484,-7.867
0.4,1549993939.2303696,2.0604383945,5128.613839913648,2928.8693550290154,2.966,1.626,-6.5,-7.886
0.4,1549993939.2303696,2.060438633,3810.65823393773,3046.491705257325,2.777,1.615,-6.154,-7.476
0.4,1549993939.2303696,2.0604391098,2917.427014001166,3156.4578912990714,2.403,1.302,-5.837,-7.095
0.4,1549993939.2303696,2.0604403019,1761.976046411629,3375.981048554255,1.397,0.052,-5.207,-6.359
0.4,1549993939.2303696,2.0604419708,1761.976046411629,3375.2037896792626,1.399,0.055,-5.208,-6.359
0.4,1549993939.2303696,2.060444355,2123.2444620002193,3292.3045333340656,1.766,0.51,-5.443,-6.633
0.4,1549993939.2303696,2.0604476929,2877.3984147356696,3160.8217127583484,2.389,1.289,-5.82,-7.075
0.4,1549993939.2303696,2.0604515076,3819.442708400464,3042.2857274809608,2.793,1.625,-6.157,-7.481
0.4,1549993939.2303696,2.0604560375,4623.810213992603,2964.8313895243423,2.932,1.644,-6.381,-7.749
0.4,1549993939.2303696,2.0604612827,5093.308710571952,2925.499309897072,2.983,1.639,-6.494,-7.882
0.4,1549993939.2303696,2.0604674816,5296.634438916581,2908.707160207584,3.003,1.637,-6.538,-7.935
0.4,1549993939.2303696,2.0604746342,5370.317963702527,2902.017319380225,3.014,1.637,-6.556,-7.957
0.4,1549993939.2303696,2.0604748726,4092.6065973001096,3010.925432053001,2.867,1.651,-6.238,-7.581
0.4,1549993939.2303696,2.0604753494,3140.5086938762165,3119.60781764676,2.567,1.469,-5.927,-7.206
0.4,1549993939.2303696,2.0604765415,1905.4607179632462,3338.1050516598925,1.561,0.251,-5.308,-6.477
0.4,1549993939.2303696,2.0604782104,1901.0782799232995,3338.8737672512307,1.556,0.245,-5.305,-6.473
0.4,1549993939.2303696,2.0604805946,2280.3420720004187,3257.616829660631,1.959,0.759,-5.534,-6.741
0.4,1549993939.2303696,2.0604834557,3061.963433690679,3128.959918963571,2.533,1.434,-5.897,-7.17
0.4,1549993939.2303696,2.0604872704,4036.4539296760486,3013.006024186122,2.87,1.659,-6.222,-7.564
0.4,1549993939.2303696,2.0604915619,4852.88500162121,2936.9733110014463,2.985,1.66,-6.438,-7.82
0.4,1549993939.2303696,2.0604968071,5321.082592667942,2898.6781710077653,3.03,1.652,-6.546,-7.949
0.4,1549993939.2303696,2.0605027676,5520.774392807573,2883.367506780263,3.046,1.647,-6.589,-7.999
0.4,1549993939.2303696,2.0605096817,5597.576014951104,2876.7359455385426,3.05,1.647,-6.605,-8.018
0.4,1549993939.2303696,2.0605099201,4355.118736855684,2977.1450877105985,2.935,1.67,-6.314,-7.674
0.4,1549993939.2303696,2.060510397,3357.3761424295453,3086.0289794360633,2.718,1.616,-6.007,-7.306
0.4,1549993939.2303696,2.0605115891,2046.444636724674,3302.934793960337,1.725,0.452,-5.4,-6.585
0.4,1549993939.2303696,2.060513258,2032.3570109362208,3305.217168699801,1.713,0.437,-5.392,-6.576
0.4,1549993939.2303696,2.0605156422,2426.6100950824143,3224.779319316378,2.137,0.983,-5.614,-6.838
0.4,1549993939.2303696,2.0605187416,3235.936569296281,3098.1325884844023,2.678,1.582,-5.964,-7.256
0.4,1549993939.2303696,2.0605225563,4226.686142656029,2985.3826189179604,2.932,1.681,-6.278,-7.634
0.4,1549993939.2303696,2.0605270863,5046.612975635282,2910.717118066605,3.036,1.677,-6.485,-7.88
0.4,1549993939.2303696,2.0605325699,5508.076964054036,2873.4258866748714,3.071,1.668,-6.589,-8.002
0.4,1549993939.2303696,2.0605387688,5688.529308438413,2858.9068155119553,3.076,1.666,-6.627,-8.046
0.4,1549993939.2303696,2.0605456829,5754.399373371566,2852.331512299011,3.082,1.667,-6.641,-8.062
0.4,1549993939.2303696,2.0605459213,4591.980128368686,2943.7437337117412,3.01,1.697,-6.377,-7.755
0.4,1549993939.2303696,2.0605463982,3548.133892335753,3052.1087222420074,2.815,1.664,-6.075,-7.393
0.4,1549993939.2303696,2.0605473518,2177.709772353159,3268.1350899154786,1.922,0.706,-5.48,-6.682
0.4,1549993939.2303696,2.0605490208,2157.744409152667,3271.899836231792,1.9,0.678,-5.468,-6.668
0.4,1549993939.2303696,2.0605511665,2564.484036517716,3192.272818462188,2.293,1.168,-5.685,-6.924
0.4,1549993939.2303696,2.0605540276,3396.2527259040853,3068.315401315068,2.781,1.656,-6.022,-7.331
0.4,1549993939.2303696,2.0605576038,4395.416154378243,2958.0124665515464,2.999,1.707,-6.326,-7.697
0.4,1549993939.2303696,2.060561657,5223.9618899911975,2885.359954579744,3.09,1.697,-6.527,-7.936
0.4,1549993939.2303696,2.0605666637,5688.529308438413,2849.049533909905,3.1,1.685,-6.628,-8.05
0.4,1549993939.2303696,2.0605721474,5874.893525297769,2834.653633489668,3.106,1.683,-6.665,-8.093
0.4,1549993939.2303696,2.0605785847,5942.921586155727,2828.7853879701315,3.11,1.683,-6.679,-8.11
0.4,1549993939.2303696,2.0605788231,4841.7236758409945,2912.0578615296977,3.066,1.712,-6.441,-7.834
0.4,1549993939.2303696,2.0605792999,3758.374042884443,3019.9517204020162,2.907,1.708,-6.143,-7.481
0.4,1549993939.2303696,2.0605802536,2317.39464996848,3235.1915531420955,2.114,0.952,-5.56,-6.779
0.4,1549993939.2303696,2.0605819225,2290.8676527677726,3241.1564884384366,2.084,0.913,-5.544,-6.76
0.4,1549993939.2303696,2.0605840683,2716.4392688390835,3161.5496026522924,2.439,1.341,-5.756,-7.011
0.4,1549993939.2303696,2.0605869293,3564.5113342624427,3040.1849166294414,2.863,1.696,-6.082,-7.407
0.4,1549993939.2303696,2.0605905056,4581.418867145335,2930.8932452503213,3.053,1.725,-6.377,-7.761
0.4,1549993939.2303696,2.0605945587,5420.008904016238,2860.2236939542804,3.119,1.712,-6.572,-7.99
0.4,1549993939.2303696,2.0605995655,5888.43655355589,2824.229597144114,3.129,1.702,-6.668,-8.1
0.4,1549993939.2303696,2.0606050491,6067.363295885053,2809.9591088425027,3.139,1.706,-6.705,-8.142
0.4,1549993939.2303696,2.0606114864,6151.7687270986835,2804.141985453693,3.145,1.71,-6.719,-8.159
0.4,1549993939.2303696,2.0606117249,5116.818355403078,2880.0498174428562,3.124,1.729,-6.506,-7.917
0.4,1549993939.2303696,2.0606122017,3981.0717055349733,2986.75775503349,2.978,1.733,-6.213,-7.568
0.4,1549993939.2303696,2.0606131554,2471.724145016129,3201.842758202777,2.27,1.137,-5.641,-6.876
0.4,1549993939.2303696,2.0606145859,2432.204009073816,3208.484902035953,2.241,1.102,-5.621,-6.853
0.4,1549993939.2303696,2.0606164932,2877.3984147356696,3129.6804715636677,2.583,1.487,-5.827,-7.1
0.4,1549993939.2303696,2.0606191158,3749.730022454834,3009.539168873201,2.948,1.737,-6.142,-7.485
0.4,1549993939.2303696,2.0606222153,4775.2927365769065,2902.017319380225,3.112,1.747,-6.427,-7.826
0.4,1549993939.2303696,2.06062603,5610.479760324706,2831.391995799379,3.155,1.733,-6.616,-8.044
0.4,1549993939.2303696,2.0606303215,6081.350012787177,2795.76072758083,3.174,1.74,-6.709,-8.151
0.4,1549993939.2303696,2.0606355667,6266.138646723356,2780.9936678262984,3.191,1.752,-6.744,-8.192
0.4,1549993939.2303696,2.0606412888,6338.69711256927,2773.320104651841,3.203,1.762,-6.758,-8.209
0.4,1549993939.2303696,2.0606415272,5382.697825162882,2841.1881849832444,3.17,1.756,-6.568,-7.993
0.4,1549993939.2303696,2.060642004,4197.589839910078,2947.81347660652,3.076,1.773,-6.279,-7.655
0.4,1549993939.2303696,2.0606429577,2624.218543384442,3160.8217127583484,2.48,1.384,-5.72,-6.975
0.4,1549993939.2303696,2.0606443882,2576.3211570025755,3168.10815932805,2.451,1.35,-5.697,-6.949
0.4,1549993939.2303696,2.0606462955,3040.88502567628,3088.8726265127525,2.796,1.702,-5.898,-7.195
0.4,1549993939.2303696,2.0606489182,3935.5007545577764,2968.9302862263726,3.054,1.785,-6.204,-7.568
0.4,1549993939.2303696,2.0606520176,4988.844874600121,2862.2001490511943,3.189,1.788,-6.482,-7.898
0.4,1549993939.2303696,2.0606558323,5847.900841444806,2791.2581233434744,3.216,1.787,-6.666,-8.108
0.4,1549993939.2303696,2.0606603622,6324.118513762197,2754.2287033381663,3.258,1.814,-6.758,-8.216
0.4,1549993939.2303696,2.0606656075,6531.305526474723,2737.789162430076,3.274,1.831,-6.795,-8.26
0.4,1549993939.2303696,2.0606713295,6606.934480075957,2728.9777828080405,3.283,1.842,-6.811,-8.279
0.4,1549993939.2303696,2.0606715679,5727.960309858292,2788.6884631591693,3.239,1.812,-6.644,-8.087
0.4,1549993939.2303696,2.0606718063,4487.453899331323,2894.6762641760283,3.192,1.823,-6.36,-7.762
0.4,1549993939.2303696,2.06067276,2818.382931264455,3105.989619905655,2.756,1.665,-5.811,-7.097
0.4,1549993939.2303696,2.0606741905,2754.2287033381663,3115.300895973758,2.72,1.627,-5.784,-7.066
0.4,1549993939.2303696,2.0606758595,3235.936569296281,3036.686788465786,2.965,1.799,-5.977,-7.303
0.4,1549993939.2303696,2.0606782436,4159.106104940223,2919.4429974027034,3.177,1.843,-6.272,-7.661
0.4,1549993939.2303696,2.0606813431,5223.9618899911975,2815.1400151333,3.261,1.839,-6.539,-7.972
0.4,1549993939.2303696,2.0606846809,6067.363295885053,2746.6289924159587,3.311,1.874,-6.714,-8.174
0.4,1549993939.2303696,2.0606889725,6531.305526474723,2711.4400086883093,3.333,1.899,-6.801,-8.273
0.4,1549993939.2303696,2.0606935024,6714.288529259523,2696.4973635434194,3.344,1.914,-6.834,-8.311
0.4,1549993939.2303696,2.0606989861,6776.41507610675,2689.056950029252,3.353,1.925,-6.845,-8.326
0.4,1549993939.2303696,2.0606989861,5984.115950603199,2742.205515393157,3.338,1.902,-6.7,-8.16
0.4,1549993939.2303696,2.0606994629,4698.941086052156,2847.082159799288,3.285,1.88,-6.419,-7.84
0.4,1549993939.2303696,2.0607004166,2971.666031738025,3057.736095690077,2.955,1.82,-5.88,-7.193
0.4,1549993939.2303696,2.0607016087,2897.3435877013244,3067.608976917938,2.938,1.817,-5.85,-7.158
0.4,1549993939.2303696,2.060703516,3388.441561392024,2988.133524568443,3.122,1.887,-6.038,-7.391
0.4,1549993939.2303696,2.0607059002,4325.138310350088,2870.780582024692,3.299,1.911,-6.325,-7.737
0.4,1549993939.2303696,2.0607087612,5395.1062251512785,2766.3046068975045,3.355,1.929,-6.584,-8.033
0.4,1549993939.2303696,2.0607120991,6251.726927756856,2697.1183264949354,3.409,1.983,-6.754,-8.23
0.4,1549993939.2303696,2.0607161522,6714.288529259523,2660.7250597988086,3.428,2.028,-6.839,-8.324
0.4,1549993939.2303696,2.0607206821,6886.522963442762,2644.234699211587,3.443,2.057,-6.871,-8.36
0.4,1549993939.2303696,2.0607259274,6950.243175887969,2635.724417972899,3.456,2.077,-6.883,-8.374
0.4,1549993939.2303696,2.0607259274,6251.726927756856,2681.63706676073,3.451,2.034,-6.758,-8.238
0.4,1549993939.2303696,2.0607264042,4920.395356814511,2786.1211686297693,3.389,1.97,-6.481,-7.922
0.4,1549993939.2303696,2.0607273579,3126.0793671239558,2996.4014599344437,3.176,1.952,-5.949,-7.298
0.4,1549993939.2303696,2.06072855,3040.88502567628,3005.3842076633828,3.167,1.957,-5.917,-7.261
0.4,1549993939.2303696,2.0607302189,3548.133892335753,2924.1523778433366,3.319,1.995,-6.101,-7.487
0.4,1549993939.2303696,2.0607323647,4508.167045414601,2805.433637951713,3.433,2.016,-6.38,-7.815
0.4,1549993939.2303696,2.0607349873,5584.701947368307,2698.9820734720156,3.515,2.093,-6.632,-8.106
0.4,1549993939.2303696,2.0607383251,6426.877173170194,2626.636651392894,3.549,2.18,-6.797,-8.289
0.4,1549993939.2303696,2.0607421398,6886.522963442762,2585.234839562191,3.549,2.177,-6.875,-8.376
0.4,1549993939.2303696,2.0607464314,7063.175542629623,2562.7131654112345,3.552,2.167,-6.904,-8.409
0.4,1549993939.2303696,2.0607514381,7128.530301265198,2546.2438907576325,3.563,2.17,-6.915,-8.422
0.4,1549993939.2303696,2.0607514381,6546.361740672747,2582.854846476372,3.603,2.232,-6.82,-8.32
0.4,1549993939.2303696,2.060751915,5152.286445817567,2687.818878638133,3.625,2.21,-6.546,-8.023
0.4,1549993939.2303696,2.0607526302,3288.51630875983,2894.6762641760283,3.502,2.142,-6.023,-7.423
0.4,1549993939.2303696,2.0607538223,3191.5378551007616,2902.017319380225,3.509,2.159,-5.988,-7.384
0.4,1549993939.2303696,2.0607554913,3715.352290971724,2815.1400151333,3.609,2.195,-6.169,-7.601
0.4,1549993939.2303696,2.060757637,4677.351412871981,2689.676199564987,3.708,2.296,-6.443,-7.917
0.4,1549993939.2303696,2.0607600212,5767.664633922509,2576.3211570025755,3.729,2.362,-6.683,-8.182
0.4,1549993939.2303696,2.0607631207,6606.934480075957,2495.169194741598,3.687,2.277,-6.835,-8.348
0.4,1549993939.2303696,2.0607666969,7063.175542629623,2443.430552693971,3.675,2.242,-6.912,-8.432
0.4,1549993939.2303696,2.06077075,7244.359600749898,2408.241299827827,3.697,2.252,-6.943,-8.47
0.4,1549993939.2303696,2.0607755184,7311.390834834172,2378.4827169386235,3.722,2.27,-6.957,-8.488
0.4,1549993939.2303696,2.0607755184,6854.882264526614,2406.024248767373,3.755,2.311,-6.883,-8.41
0.4,1549993939.2303696,2.0607759953,5382.697825162882,2511.88643150958,3.875,2.479,-6.611,-8.12
0.4,1549993939.2303696,2.0607767105,3467.368504525317,2720.821182091787,3.923,2.516,-6.11,-7.57
0.4,1549993939.2303696,2.0607779026,3349.654391578276,2730.863545120826,3.931,2.524,-6.071,-7.527
0.4,1549993939.2303696,2.0607793331,3890.4514499428046,2645.452694724049,4.011,2.642,-6.249,-7.73
0.4,1549993939.2303696,2.0607814789,4864.072056914614,2521.7382156449235,3.975,2.583,-6.501,-8.008
0.4,1549993939.2303696,2.0607838631,5956.621435290103,2410.460393808425,3.904,2.461,-6.73,-8.256
0.4,1549993939.2303696,2.0607867241,6792.036326171843,2332.383712528295,3.823,2.366,-6.878,-8.411
0.4,1549993939.2303696,2.0607903004,7244.359600749898,2285.59880337543,3.755,2.298,-6.948,-8.481
0.4,1549993939.2303696,2.0607941151,7413.102413009177,2257.875546228368,3.73,2.272,-6.973,-8.507
0.4,1549993939.2303696,2.060798645,7481.6950051115455,2239.236682512355,3.72,2.263,-6.983,-8.516
