FeH,Age,Mini,L,Te,Bmag,Vmag,Jmag,Kmag
-0.0,1299989965.3754528,0.0900000036,0.0003971915494694405,2317.39464996848,19.924,18.086,11.183,10.28
-0.0,1299989965.3754528,0.1000000015,0.0005861381645140284,2453.5787407060316,19.479,17.648,10.76,9.854
-0.0,1299989965.3754528,0.1064499915,0.0007128530301265198,2519.9968621092394,19.257,17.43,10.547,9.641
-0.0,1299989965.3754528,0.1200000048,0.0010641430182243164,2657.05167035507,18.525,16.731,10.132,9.22
-0.0,1299989965.3754528,0.1224905103,0.0011246049739669268,2673.0064086633115,18.356,16.572,10.078,9.165
-0.0,1299989965.3754528,0.1295715868,0.0013121998990192028,2718.316366861065,17.913,16.161,9.929,9.014
-0.0,1299989965.3754528,0.1400000006,0.0016180800376430662,2781.6340890110087,17.33,15.622,9.723,8.807
-0.0,1299989965.3754528,0.1557211429,0.0020989398836235244,2851.674814305012,16.678,15.008,9.468,8.553
-0.0,1299989965.3754528,0.1599999964,0.00223872113856834,2869.4588430750064,16.513,14.851,9.403,8.489
-0.0,1299989965.3754528,0.200000003,0.003681289736425313,2995.711592427998,15.402,13.798,8.91,8.002
-0.0,1299989965.3754528,0.25,0.005861381645140285,3110.999920424558,14.456,12.887,8.446,7.546
-0.0,1299989965.3754528,0.3222017586,0.009954054173515275,3218.844524111849,13.545,12.021,7.904,7.013
-0.0,1299989965.3754528,0.3297913671,0.01049542428652322,3229.9812405956245,13.456,11.937,7.851,6.96
-0.0,1299989965.3754528,0.3500000238,0.011967405313072436,3259.1173631348456,13.234,11.726,7.719,6.829
-0.0,1299989965.3754528,0.3678975701,0.013583134465871541,3289.2736048064767,13.017,11.519,7.589,6.701
-0.0,1299989965.3754528,0.4000000358,0.016788040181225608,3341.1809763304277,12.664,11.184,7.377,6.49
-0.0,1299989965.3754528,0.4500000179,0.023659196974857587,3435.5794789987463,12.089,10.638,7.034,6.148
-0.0,1299989965.3754528,0.5,0.033884415613920256,3554.6758199906994,11.484,10.059,6.682,5.797
-0.0,1299989965.3754528,0.5339227915,0.04375221051582521,3660.1594055804926,11.038,9.627,6.439,5.555
-0.0,1299989965.3754528,0.5500000119,0.04909078761526031,3710.2228861746507,10.837,9.431,6.329,5.447
-0.0,1299989965.3754528,0.5955471396,0.06918309709189366,3892.2434816444134,10.218,8.839,6.015,5.144
-0.0,1299989965.3754528,0.6000000238,0.07144963260755134,3910.2092612681363,10.161,8.787,5.985,5.116
-0.0,1299989965.3754528,0.6018561125,0.07244359600749903,3919.2232245497667,10.134,8.762,5.972,5.104
-0.0,1299989965.3754528,0.6499999762,0.10351421666793438,4161.021885174549,9.449,8.146,5.642,4.81
-0.0,1299989965.3754528,0.6534684896,0.10616955571987247,4180.228289540325,9.397,8.101,5.619,4.791
-0.0,1299989965.3754528,0.7000000477,0.14791083881682077,4439.1518378955125,8.696,7.513,5.326,4.566
-0.0,1299989965.3754528,0.7459480166,0.2023019178678272,4711.94269420276,8.015,6.963,5.063,4.397
-0.0,1299989965.3754528,0.75,0.20796966871036954,4739.145036236972,7.956,6.916,5.042,4.386
-0.0,1299989965.3754528,0.8000000119,0.28248799749157066,4968.210633313916,7.4,6.454,4.776,4.193
-0.0,1299989965.3754528,0.8500000238,0.37757219092541605,5192.78091540883,6.907,6.039,4.527,4.009
-0.0,1299989965.3754528,0.8999999762,0.49888448746001224,5407.5432294558095,6.468,5.669,4.292,3.827
-0.0,1299989965.3754528,0.9303942919,0.5874893525297767,5529.680004928025,6.219,5.458,4.155,3.719
-0.0,1299989965.3754528,0.9500000477,0.6516283940608427,5606.60551647698,6.064,5.329,4.071,3.652
-0.0,1299989965.3754528,0.9975051284,0.831763771102671,5782.291742660339,5.712,5.032,3.866,3.483
-0.0,1299989965.3754528,1.0,0.8433347577642754,5791.619210831195,5.694,5.017,3.856,3.474
-0.0,1299989965.3754528,1.0184013844,0.9246981739382225,5854.637363205773,5.564,4.907,3.778,3.409
-0.0,1299989965.3754528,1.0499999523,1.081433951297938,5962.110213666547,5.346,4.724,3.648,3.3
-0.0,1299989965.3754528,1.1000000238,1.3772094688939465,6119.275411239092,5.019,4.446,3.443,3.123
-0.0,1299989965.3754528,1.1143494844,1.4723125024327188,6161.692202002784,4.929,4.369,3.385,3.072
-0.0,1299989965.3754528,1.1499999762,1.7378008287493754,6264.695981078889,4.711,4.182,3.243,2.948
-0.0,1299989965.3754528,1.1930025816,2.113489039836647,6385.574850788397,4.457,3.964,3.075,2.799
-0.0,1299989965.3754528,1.2000000477,2.177709772353159,6404.717815693422,4.417,3.929,3.048,2.775
-0.0,1299989965.3754528,1.25,2.69773943244492,6537.323852287956,4.142,3.689,2.862,2.61
-0.0,1299989965.3754528,1.2899159193,3.1768740706497707,6637.43070401909,3.936,3.507,2.72,2.482
-0.0,1299989965.3754528,1.2999999523,3.311311214825911,6663.463144693567,3.885,3.462,2.685,2.45
-0.0,1299989965.3754528,1.3180125952,3.548133892335755,6709.652064618787,3.796,3.383,2.624,2.396
-0.0,1299989965.3754528,1.3500000238,4.017908108489399,6788.909197955847,3.641,3.246,2.517,2.3
-0.0,1299989965.3754528,1.3757925034,4.4157044735331255,6854.882264526614,3.52,3.138,2.435,2.227
-0.0,1299989965.3754528,1.3999999762,4.830588020397728,6913.53236037563,3.409,3.039,2.358,2.158
-0.0,1299989965.3754528,1.4150186777,5.093308710571954,6953.4446182566335,3.341,2.979,2.313,2.119
-0.0,1299989965.3754528,1.4500000477,5.767664633922507,7040.443214699752,3.186,2.841,2.208,2.025
-0.0,1299989965.3754528,1.4640320539,6.0534087475391365,7077.8279260900235,3.124,2.787,2.167,1.989
-0.0,1299989965.3754528,1.5,6.839116472814292,7156.488866926982,2.973,2.65,2.06,1.892
-0.0,1299989965.3754528,1.5251860619,7.447319739059891,7204.436204152846,2.871,2.557,1.985,1.823
-0.0,1299989965.3754528,1.5499999523,8.072350302488383,7242.691717336948,2.773,2.466,1.909,1.752
-0.0,1299989965.3754528,1.5792248249,8.892011178579484,7289.53792855699,2.659,2.36,1.82,1.669
-0.0,1299989965.3754528,1.6000000238,9.506047936562814,7314.75863014725,2.579,2.285,1.756,1.607
-0.0,1299989965.3754528,1.6124585867,9.908319448927676,7329.932916517789,2.532,2.241,1.717,1.57
-0.0,1299989965.3754528,1.6385910511,10.76465213629835,7346.830156985394,2.436,2.148,1.632,1.488
-0.0,1299989965.3754528,1.6499999762,11.168632477805613,7350.214276467939,2.394,2.108,1.593,1.45
-0.0,1299989965.3754528,1.675999999,12.133888504649775,7351.906920715666,2.301,2.016,1.503,1.36
-0.0,1299989965.3754528,1.7000000477,13.09181922999407,7341.756898948312,2.218,1.932,1.417,1.273
-0.0,1299989965.3754528,1.7183581591,13.867558288718882,7328.245331389045,2.155,1.869,1.349,1.204
-0.0,1299989965.3754528,1.7408621311,14.893610777109155,7297.935152144486,2.081,1.791,1.263,1.114
-0.0,1299989965.3754528,1.75,15.310874616820303,7276.122463355241,2.053,1.76,1.224,1.074
-0.0,1299989965.3754528,1.7634915113,15.995580286146687,7244.359600749898,2.011,1.714,1.168,1.014
-0.0,1299989965.3754528,1.7837604284,17.02158508394951,7182.9029729652575,1.954,1.647,1.08,0.919
-0.0,1299989965.3754528,1.7999998331,17.864875748520507,7121.967704873779,1.912,1.595,1.007,0.839
-0.0,1299989965.3754528,1.8062938452,18.197008586099834,7099.046158552872,1.896,1.575,0.979,0.808
-0.0,1299989965.3754528,1.8265457153,19.31968317016924,7003.255967370536,1.85,1.513,0.883,0.7
-0.0,1299989965.3754528,1.847708106,20.511621788255656,6872.266615842488,1.814,1.452,0.774,0.575
-0.0,1299989965.3754528,1.8500001431,20.606299132700006,6856.460841231655,1.81,1.446,0.762,0.561
-0.0,1299989965.3754528,1.8651758432,21.478304741305344,6756.1611508415435,1.789,1.405,0.683,0.469
-0.0,1299989965.3754528,1.8847661018,22.646443075930595,6616.068605559997,1.769,1.355,0.579,0.344
-0.0,1299989965.3754528,1.9000000954,23.76840286624876,6517.7845431913875,1.746,1.308,0.493,0.245
-0.0,1299989965.3754528,1.9023280144,23.933157564053875,6502.7940547237,1.742,1.301,0.48,0.229
-0.0,1299989965.3754528,1.911636591,24.831331052955704,6463.9799399953445,1.714,1.264,0.427,0.17
-0.0,1299989965.3754528,1.918918252,26.977394324449207,6596.293937452819,1.582,1.165,0.383,0.146
-0.0,1299989965.3754528,1.9208979607,28.379190284415568,6729.766562843175,1.488,1.101,0.373,0.156
-0.0,1299989965.3754528,1.9217045307,29.716660317380267,6872.266615842488,1.401,1.044,0.371,0.174
-0.0,1299989965.3754528,1.9221217632,31.045595881283557,7017.784049149896,1.316,0.988,0.371,0.192
-0.0,1299989965.3754528,1.9223753214,32.58367010020087,7163.083273130367,1.231,0.93,0.367,0.207
-0.0,1299989965.3754528,1.92253685,34.27677865464503,7299.615757292979,1.148,0.872,0.359,0.215
-0.0,1299989965.3754528,1.9226815701,35.80964371026361,7430.191378967013,1.074,0.821,0.354,0.225
-0.0,1299989965.3754528,1.9226999283,36.05786430216423,7445.605127728001,1.066,0.815,0.354,0.226
-0.0,1299989965.3754528,1.9227420092,34.673685045253166,7387.542629936365,1.12,0.859,0.377,0.243
-0.0,1299989965.3754528,1.9227957726,32.734069487883815,7284.504232923301,1.203,0.924,0.405,0.259
-0.0,1299989965.3754528,1.9228488207,31.117163371060183,7138.385536016632,1.289,0.983,0.411,0.247
-0.0,1299989965.3754528,1.9229192734,30.47894989627983,6953.4446182566335,1.353,1.013,0.371,0.185
-0.0,1299989965.3754528,1.9230027199,30.83187950249355,6779.536449241948,1.382,1.007,0.299,0.089
-0.0,1299989965.3754528,1.923104167,31.40508693876218,6616.068605559997,1.407,0.996,0.224,-0.009
-0.0,1299989965.3754528,1.9232299328,31.6956746304349,6463.9799399953445,1.442,0.994,0.161,-0.095
-0.0,1299989965.3754528,1.9233914614,31.6956746304349,6325.574863525833,1.491,1.004,0.111,-0.167
-0.0,1299989965.3754528,1.9236235619,31.332857243155857,6181.58720057992,1.559,1.028,0.072,-0.23
-0.0,1299989965.3754528,1.923948288,30.47894989627983,6032.537079266128,1.654,1.075,0.05,-0.278
-0.0,1299989965.3754528,1.924364686,28.90679882365476,5878.953159960759,1.784,1.154,0.052,-0.307
-0.0,1299989965.3754528,1.924716115,27.227013080779127,5763.681848104129,1.904,1.236,0.076,-0.307
-0.0,1299989965.3754528,1.9250648022,25.35128630497907,5655.877570891539,2.036,1.334,0.118,-0.288
-0.0,1299989965.3754528,1.9253568649,23.71373705661655,5569.292144857989,2.155,1.426,0.163,-0.263
-0.0,1299989965.3754528,1.9257159233,21.77709772353159,5467.641107291687,2.301,1.541,0.221,-0.229
-0.0,1299989965.3754528,1.9260721207,20.37042077705718,5370.317963702527,2.43,1.639,0.264,-0.209
-0.0,1299989965.3754528,1.9263390303,19.633602768360465,5302.735926292144,2.51,1.696,0.281,-0.209
-0.0,1299989965.3754528,1.9269069433,20.417379446695296,5185.611776858396,2.545,1.691,0.203,-0.317
-0.0,1299989965.3754528,1.9273792505,22.23309890651403,5108.5776616335625,2.507,1.625,0.087,-0.454
-0.0,1299989965.3754528,1.927755475,24.322040090738145,5058.246620031143,2.444,1.543,-0.028,-0.582
-0.0,1299989965.3754528,1.9281119108,26.791683248190314,5017.645790367086,2.371,1.453,-0.145,-0.71
-0.0,1299989965.3754528,1.9284464121,29.44421633798762,4983.104559705293,2.296,1.364,-0.259,-0.834
-0.0,1299989965.3754528,1.9287674427,32.359365692962825,4949.940743969349,2.22,1.275,-0.371,-0.955
-0.0,1299989965.3754528,1.9290782213,35.56313185689853,4920.395356814511,2.143,1.186,-0.481,-1.075
-0.0,1299989965.3754528,1.9293813705,38.99419866765434,4889.900250464924,2.067,1.099,-0.59,-1.193
-0.0,1299989965.3754528,1.9296810627,42.65795188015925,4862.952191867843,1.993,1.013,-0.697,-1.308
-0.0,1299989965.3754528,1.9297559261,43.65158322401658,4855.120352422797,1.974,0.992,-0.723,-1.337
-0.0,1299989965.3754528,1.9299814701,46.665938031428865,4835.039205916214,1.919,0.929,-0.802,-1.422
-0.0,1299989965.3754528,1.9302068949,50.003453497697855,4815.041116556669,1.863,0.864,-0.881,-1.508
-0.0,1299989965.3754528,1.9302816391,51.16818355403078,4808.393484497285,1.845,0.843,-0.908,-1.537
-0.0,1299989965.3754528,1.930580616,55.97576014951102,4781.894606659083,1.77,0.757,-1.015,-1.652
-0.0,1299989965.3754528,1.9308791161,61.37620051647942,4754.4468852521,1.696,0.672,-1.122,-1.768
-0.0,1299989965.3754528,1.9311739206,67.29766562843179,4726.06836898339,1.623,0.586,-1.23,-1.886
-0.0,1299989965.3754528,1.9314644337,73.96052750582378,4697.859239439367,1.55,0.501,-1.339,-2.004
-0.0,1299989965.3754528,1.9317470789,80.90958991783822,4668.743343920188,1.483,0.417,-1.447,-2.121
-0.0,1299989965.3754528,1.9320696592,89.94975815300351,4635.536446198508,1.409,0.323,-1.571,-2.257
-0.0,1299989965.3754528,1.9323436022,98.62794856312105,4605.746173947351,1.344,0.241,-1.679,-2.374
-0.0,1299989965.3754528,1.9326301813,108.89300933334333,4574.040440300427,1.276,0.154,-1.795,-2.5
-0.0,1299989965.3754528,1.9329122305,119.94993031493793,4542.552967388711,1.211,0.069,-1.911,-2.627
-0.0,1299989965.3754528,1.9331623316,131.2199899019203,4513.360253409558,1.153,-0.006,-2.015,-2.741
-0.0,1299989965.3754528,1.933439374,144.5439770745928,4481.258533251555,1.089,-0.09,-2.131,-2.868
-0.0,1299989965.3754528,1.9337538481,161.4358556826487,4444.265543439951,1.02,-0.182,-2.26,-3.011
-0.0,1299989965.3754528,1.9340672493,178.64875748520498,4411.6393317691345,0.957,-0.267,-2.379,-3.143
-0.0,1299989965.3754528,1.934445858,196.33602768360475,4380.261111703606,0.901,-0.348,-2.489,-3.261
-0.0,1299989965.3754528,1.9347873926,209.89398836235245,4359.131797247284,0.861,-0.403,-2.563,-3.343
-0.0,1299989965.3754528,1.9351524115,190.98532585662386,4391.369690244064,0.916,-0.324,-2.455,-3.224
-0.0,1299989965.3754528,1.9352606535,176.6037820686164,4417.738448896479,0.962,-0.258,-2.364,-3.125
-0.0,1299989965.3754528,1.935361743,159.95580286146696,4451.434629201126,1.023,-0.176,-2.247,-2.995
-0.0,1299989965.3754528,1.9354395866,145.2111617587742,4483.322704327333,1.083,-0.096,-2.134,-2.87
-0.0,1299989965.3754528,1.9355225563,126.18275345906706,4528.975799036209,1.175,0.025,-1.969,-2.69
-0.0,1299989965.3754528,1.9356130362,108.14339512979376,4579.3095315174405,1.278,0.159,-1.786,-2.49
-0.0,1299989965.3754528,1.9357116222,91.20108393559097,4635.536446198508,1.395,0.308,-1.586,-2.271
-0.0,1299989965.3754528,1.9358397722,73.2824533138904,4707.604832565835,1.547,0.503,-1.328,-1.99
-0.0,1299989965.3754528,1.936126709,55.08076964054035,4805.073110898136,1.767,0.763,-0.99,-1.619
-0.0,1299989965.3754528,1.9364726543,48.19477976251274,4851.7677121925735,1.87,0.885,-0.832,-1.447
-0.0,1299989965.3754528,1.9367432594,43.35108783875289,4888.774438941448,1.954,0.984,-0.706,-1.309
-0.0,1299989965.3754528,1.9367492199,42.95364267648873,4891.026321245936,1.961,0.992,-0.696,-1.298
-0.0,1299989965.3754528,1.9367541075,42.65795188015925,4894.4060897312465,1.967,0.999,-0.686,-1.287
-0.0,1299989965.3754528,1.9367605448,42.169650342858226,4897.7881936844615,1.975,1.009,-0.674,-1.275
-0.0,1299989965.3754528,1.9367682934,41.78303666466218,4901.172634719431,1.983,1.018,-0.662,-1.262
-0.0,1299989965.3754528,1.936778307,41.30475019901615,4904.559414451102,1.991,1.028,-0.65,-1.248
-0.0,1299989965.3754528,1.9367918968,40.83193863326921,4909.078761526029,2.001,1.04,-0.635,-1.232
-0.0,1299989965.3754528,1.9368114471,40.271703432545905,4913.6022729909155,2.013,1.053,-0.619,-1.214
-0.0,1299989965.3754528,1.9368489981,39.35500754557774,4921.528450161719,2.03,1.074,-0.592,-1.186
-0.0,1299989965.3754528,1.936904192,38.37072454922788,4930.6025956279445,2.053,1.1,-0.56,-1.15
-0.0,1299989965.3754528,1.936999321,36.812897364253146,4944.245193336823,2.085,1.138,-0.512,-1.098
-0.0,1299989965.3754528,1.9372627735,33.72873086588689,4975.0792135144075,2.156,1.22,-0.408,-0.985
-0.0,1299989965.3754528,1.9375839233,34.197944251370885,4970.499105762351,2.145,1.208,-0.424,-1.002
-0.0,1299989965.3754528,1.9380248785,35.3183169791957,4959.067275049038,2.118,1.176,-0.463,-1.045
-0.0,1299989965.3754528,1.9432663918,35.23708710424871,4967.066792234226,2.114,1.176,-0.457,-1.037
-0.0,1299989965.3754528,1.9500000477,35.56313185689853,4973.933791067749,2.1,1.164,-0.465,-1.043
-0.0,1299989965.3754528,1.9631761312,36.30780547701014,4984.252094042598,2.067,1.135,-0.486,-1.06
-0.0,1299989965.3754528,1.9869022369,38.90451449942807,4995.741981759636,1.984,1.056,-0.556,-1.127
-0.0,1299989965.3754528,2.0,40.83193863326921,4998.043135782391,1.929,1.002,-0.608,-1.178
-0.0,1299989965.3754528,2.0139601231,43.151907682776525,5000.345349769783,1.868,0.941,-0.668,-1.237
-0.0,1299989965.3754528,2.0391306877,48.30588020397726,4994.591802082485,1.749,0.819,-0.793,-1.363
-0.0,1299989965.3754528,2.0499999523,51.16818355403078,4986.547955557967,1.695,0.762,-0.856,-1.429
-0.0,1299989965.3754528,2.0599350929,53.826978251628844,4978.517063739154,1.645,0.708,-0.915,-1.49
-0.0,1299989965.3754528,2.0751869678,59.02010801718442,4954.5019080479005,1.563,0.617,-1.023,-1.605
-0.0,1299989965.3754528,2.0781855583,60.673632958850526,4945.38377894413,1.542,0.592,-1.054,-1.639
-0.0,1299989965.3754528,2.0829591751,63.53309318517436,4928.332491971514,1.506,0.55,-1.109,-1.699
-0.0,1299989965.3754528,2.0854320526,64.56542290346556,4921.528450161719,1.493,0.534,-1.13,-1.722
-0.0,1299989965.3754528,2.0897758007,70.6317554262962,4879.77727286486,1.43,0.455,-1.239,-1.844
-0.0,1299989965.3754528,2.0911352634,77.26805850957021,4838.380286511588,1.37,0.378,-1.347,-1.965
-0.0,1299989965.3754528,2.0918049812,85.11380382023764,4796.22998644458,1.301,0.291,-1.466,-2.098
-0.0,1299989965.3754528,2.092113018,93.5405674147552,4757.732275412047,1.239,0.209,-1.58,-2.223
-0.0,1299989965.3754528,2.0922644138,102.09394837076798,4722.804843922316,1.183,0.134,-1.684,-2.338
-0.0,1299989965.3754528,2.0923466682,110.9174815262401,4690.293284059374,1.127,0.06,-1.786,-2.45
-0.0,1299989965.3754528,2.0923907757,118.85022274370189,4664.445252037798,1.083,0.002,-1.866,-2.539
-0.0,1299989965.3754528,2.0924100876,123.02687708123811,4651.574703021666,1.061,-0.029,-1.908,-2.585
-0.0,1299989965.3754528,2.0924122334,123.59474334445108,4649.433066875436,1.057,-0.033,-1.914,-2.592
-0.0,1299989965.3754528,2.092466116,139.31568029453035,4604.685783785738,0.98,-0.136,-2.058,-2.75
-0.0,1299989965.3754528,2.092571497,149.2794409578996,4580.364077908267,0.934,-0.196,-2.14,-2.84
-0.0,1299989965.3754528,2.0930933952,138.03842646028852,4611.051788759832,0.985,-0.128,-2.044,-2.735
-0.0,1299989965.3754528,2.0942709446,137.08817661648536,4613.175745603796,0.988,-0.124,-2.038,-2.727
-0.0,1299989965.3754528,2.0958948135,142.8893958511102,4599.38749388997,0.961,-0.158,-2.085,-2.779
-0.0,1299989965.3754528,2.0972714424,157.76112696993485,4563.520439214676,0.897,-0.243,-2.203,-2.909
-0.0,1299989965.3754528,2.0980894566,173.38039977541374,4528.975799036209,0.84,-0.322,-2.315,-3.033
-0.0,1299989965.3754528,2.0987298489,190.54607179632464,4494.692652627942,0.782,-0.401,-2.427,-3.158
-0.0,1299989965.3754528,2.0992646217,209.89398836235245,4460.669020551353,0.724,-0.481,-2.541,-3.283
-0.0,1299989965.3754528,2.0997264385,231.20647901755942,4424.86474355665,0.669,-0.562,-2.655,-3.408
-0.0,1299989965.3754528,2.0999999046,246.60393372343387,4401.492842868152,0.632,-0.617,-2.731,-3.49
-0.0,1299989965.3754528,2.1002027988,261.21613543992055,4381.26982022493,0.598,-0.665,-2.797,-3.564
-0.0,1299989965.3754528,2.1004867554,285.75905433749466,4350.10760630697,0.547,-0.739,-2.9,-3.676
-0.0,1299989965.3754528,2.1007509232,311.88895840939387,4319.1670367104325,0.497,-0.81,-3.001,-3.788
-0.0,1299989965.3754528,2.1009998322,340.4081897010009,4288.446534968204,0.446,-0.883,-3.103,-3.9
-0.0,1299989965.3754528,2.1012341976,372.39170625456865,4248.15153514646,0.405,-0.948,-3.208,-4.02
-0.0,1299989965.3754528,2.1013987064,399.94474976109734,4221.8227905113345,0.365,-1.004,-3.29,-4.112
-0.0,1299989965.3754528,2.1015906334,442.58837236262644,4163.897210251638,0.34,-1.06,-3.409,-4.255
-0.0,1299989965.3754528,2.1017355919,490.9078761526029,4128.573303779981,0.282,-1.139,-3.528,-4.388
-0.0,1299989965.3754528,2.1018373966,540.754322945581,4096.377763696796,0.235,-1.207,-3.641,-4.516
-0.0,1299989965.3754528,2.1019179821,594.2921586155727,4064.4332916521275,0.191,-1.271,-3.751,-4.64
-0.0,1299989965.3754528,2.1019816399,644.1692655151775,4035.5246088074728,0.155,-1.324,-3.847,-4.75
-0.0,1299989965.3754528,2.1020424366,701.4552984199714,4007.7442528043107,0.119,-1.378,-3.945,-4.861
-0.0,1299989965.3754528,2.1021001339,760.3262769401815,3979.2387763422494,0.085,-1.429,-4.04,-4.969
-0.0,1299989965.3754528,2.1021580696,826.0379495771783,3950.936047894297,0.054,-1.475,-4.136,-5.078
-0.0,1299989965.3754528,2.1022176743,897.4287945007482,3922.8346253952054,0.023,-1.521,-4.233,-5.189
-0.0,1299989965.3754528,2.1022789478,972.747223776965,3894.0363387971706,-0.006,-1.565,-4.329,-5.298
-0.0,1299989965.3754528,2.1023449898,1056.8175092136585,3863.669770540693,-0.029,-1.601,-4.428,-5.411
-0.0,1299989965.3754528,2.1024160385,1150.8003889444356,3833.540007590441,-0.051,-1.635,-4.527,-5.525
-0.0,1299989965.3754528,2.1024899483,1250.25903021772,3803.6452032855573,-0.07,-1.668,-4.624,-5.636
-0.0,1299989965.3754528,2.1025724411,1352.0725631942764,3774.8526172405905,-0.079,-1.685,-4.721,-5.745
-0.0,1299989965.3754528,2.1025919914,1374.041975012515,3769.641066462436,-0.081,-1.687,-4.738,-5.765
-0.0,1299989965.3754528,2.1026000977,1370.8817661648536,3769.641066462436,-0.08,-1.687,-4.736,-5.763
-0.0,1299989965.3754528,2.1026008129,1367.7288255958495,3770.5091583339295,-0.08,-1.687,-4.733,-5.76
-0.0,1299989965.3754528,2.1026010513,1367.7288255958495,3771.3774501139746,-0.08,-1.687,-4.732,-5.758
-0.0,1299989965.3754528,2.1026012897,1367.7288255958495,3771.3774501139746,-0.08,-1.687,-4.732,-5.758
-0.0,1299989965.3754528,2.1026015282,1367.7288255958495,3771.3774501139746,-0.08,-1.687,-4.732,-5.758
-0.0,1299989965.3754528,2.1026017666,1367.7288255958495,3771.3774501139746,-0.08,-1.687,-4.732,-5.758
-0.0,1299989965.3754528,2.102602005,1367.7288255958495,3771.3774501139746,-0.08,-1.687,-4.732,-5.758
-0.0,1299989965.3754528,2.1026027203,1364.583136588924,3771.3774501139746,-0.08,-1.686,-4.732,-5.758
-0.0,1299989965.3754528,2.1026031971,1364.583136588924,3771.3774501139746,-0.08,-1.686,-4.732,-5.758
-0.0,1299989965.3754528,2.1026053429,1367.7288255958495,3770.5091583339295,-0.08,-1.687,-4.734,-5.761
-0.0,1299989965.3754528,2.1026072502,1370.8817661648536,3769.641066462436,-0.081,-1.688,-4.737,-5.764
-0.0,1299989965.3754528,2.1026096344,1377.2094688939458,3768.773174453475,-0.081,-1.688,-4.74,-5.767
-0.0,1299989965.3754528,2.1026124954,1380.3842646028852,3767.905482261025,-0.082,-1.689,-4.744,-5.771
-0.0,1299989965.3754528,2.1026172638,1399.5873225726177,3762.7035226776516,-0.082,-1.691,-4.76,-5.79
-0.0,1299989965.3754528,2.102622509,1432.187899273544,3753.185242379138,-0.083,-1.694,-4.788,-5.823
-0.0,1299989965.3754528,2.1026296616,1499.684835502374,3735.9409225879995,-0.086,-1.701,-4.843,-5.886
-0.0,1299989965.3754528,2.1026396751,1573.9828644662198,3717.0636679606755,-0.088,-1.708,-4.903,-5.954
-0.0,1299989965.3754528,2.102650404,1621.8100973589299,3705.953792179554,-0.086,-1.706,-4.939,-5.995
-0.0,1299989965.3754528,2.1026506424,1625.5487557504835,3705.1005630192394,-0.085,-1.705,-4.942,-5.998
-0.0,1299989965.3754528,2.1026508808,1629.296032639723,3704.2475302995863,-0.085,-1.705,-4.944,-6.001
-0.0,1299989965.3754528,2.1026511192,1625.5487557504835,3704.2475302995863,-0.085,-1.705,-4.942,-5.999
-0.0,1299989965.3754528,2.1026513577,1621.8100973589299,3705.953792179554,-0.086,-1.706,-4.937,-5.993
-0.0,1299989965.3754528,2.1026515961,1603.2453906900419,3711.07729492926,-0.087,-1.708,-4.924,-5.977
-0.0,1299989965.3754528,2.1026518345,1588.546748597779,3713.6417019195583,-0.089,-1.709,-4.914,-5.966
-0.0,1299989965.3754528,2.1026520729,1506.6070661867418,3735.0807894306217,-0.088,-1.704,-4.85,-5.893
-0.0,1299989965.3754528,2.1026523113,1468.9262776438661,3744.553155859532,-0.087,-1.7,-4.82,-5.858
-0.0,1299989965.3754528,2.1026525497,1538.154640303034,3727.348496903337,-0.088,-1.706,-4.873,-5.919
-0.0,1299989965.3754528,2.1026527882,1640.5897731995387,3700.8373629231564,-0.082,-1.702,-4.953,-6.011
-0.0,1299989965.3754528,2.1026530266,1659.5869074375614,3696.5790681932745,-0.08,-1.699,-4.966,-6.026
-0.0,1299989965.3754528,2.102653265,1618.0800376430661,3706.80721782576,-0.085,-1.705,-4.936,-5.991
-0.0,1299989965.3754528,2.1026537418,1559.552502826954,3721.3455600387106,-0.089,-1.708,-4.892,-5.941
-0.0,1299989965.3754528,2.1026539803,1517.050367459337,3732.5015779572063,-0.088,-1.704,-4.856,-5.9
-0.0,1299989965.3754528,2.1026542187,1485.9356422870076,3741.105882720533,-0.088,-1.702,-4.831,-5.872
-0.0,1299989965.3754528,2.1026544571,1452.111617587742,3748.8667146053936,-0.086,-1.698,-4.805,-5.842
-0.0,1299989965.3754528,2.1026546955,1432.187899273544,3754.0495447208405,-0.085,-1.696,-4.788,-5.822
-0.0,1299989965.3754528,2.1026549339,1399.5873225726177,3762.7035226776516,-0.082,-1.691,-4.76,-5.79
-0.0,1299989965.3754528,2.1026551723,1358.3134465871542,3773.1146335838903,-0.078,-1.684,-4.724,-5.749
-0.0,1299989965.3754528,2.1026554108,1352.0725631942764,3774.8526172405905,-0.078,-1.684,-4.72,-5.745
-0.0,1299989965.3754528,2.1026558876,1548.816618912481,3723.917062545687,-0.089,-1.707,-4.883,-5.93
-0.0,1299989965.3754528,2.1026566029,1524.0527537972907,3730.783093184723,-0.088,-1.705,-4.862,-5.907
-0.0,1299989965.3754528,2.1026570797,1468.9262776438661,3744.553155859532,-0.087,-1.7,-4.818,-5.856
-0.0,1299989965.3754528,2.102657795,1383.566378971781,3767.0379898390893,-0.082,-1.689,-4.746,-5.774
-0.0,1299989965.3754528,2.1026639938,1066.596121230258,3861.8908944898994,-0.033,-1.606,-4.436,-5.42
-0.0,1299989965.3754528,2.1026675701,1078.9467222298285,3857.447286724761,-0.036,-1.611,-4.45,-5.436
-0.0,1299989965.3754528,2.1026706696,1153.4532578210917,3832.6574040003447,-0.053,-1.639,-4.531,-5.529
-0.0,1299989965.3754528,2.102673769,1261.8275345906707,3801.0186455476655,-0.071,-1.671,-4.635,-5.649
-0.0,1299989965.3754528,2.1026775837,1389.9526312133526,3765.3036041227815,-0.082,-1.69,-4.751,-5.78
-0.0,1299989965.3754528,2.1026825905,1531.0874616820304,3728.2068494295654,-0.089,-1.706,-4.869,-5.915
-0.0,1299989965.3754528,2.1026892662,1678.8040181225606,3694.0264435828335,-0.084,-1.704,-4.979,-6.04
-0.0,1299989965.3754528,2.1027004719,1828.1002161427427,3660.1594055804926,-0.072,-1.691,-5.085,-6.161
-0.0,1299989965.3754528,2.1027011871,1828.1002161427427,3660.1594055804926,-0.072,-1.691,-5.085,-6.161
-0.0,1299989965.3754528,2.1027021408,853.1001140175895,3933.688806732022,0.052,-1.485,-4.177,-5.127
-0.0,1299989965.3754528,2.1027026176,772.6805850957021,3971.915494694405,0.084,-1.434,-4.059,-4.991
-0.0,1299989965.3754528,2.1027047634,441.57044735331255,4188.900070027829,0.304,-1.085,-3.404,-4.238
-0.0,1299989965.3754528,2.1027078629,437.5221051582521,4191.7946593256365,0.311,-1.077,-3.393,-4.226
-0.0,1299989965.3754528,2.1027121544,542.0008904016238,4105.820889699131,0.217,-1.221,-3.642,-4.512
-0.0,1299989965.3754528,2.1027178764,824.1381150130021,3942.7568959559076,0.072,-1.459,-4.135,-5.081
-0.0,1299989965.3754528,2.102725029,1233.1048332289097,3791.4034418330666,-0.027,-1.624,-4.614,-5.631
-0.0,1299989965.3754528,2.1027333736,1636.8165214278085,3688.0771722615455,-0.043,-1.658,-4.953,-6.017
-0.0,1299989965.3754528,2.1027433872,1909.8532585662388,3630.780547701014,-0.031,-1.646,-5.14,-6.229
-0.0,1299989965.3754528,2.1027548313,2046.444636724674,3603.296501281602,-0.006,-1.614,-5.227,-6.328
-0.0,1299989965.3754528,2.1027677059,2128.139045982711,3586.740857699508,0.014,-1.589,-5.275,-6.384
-0.0,1299989965.3754528,2.1027679443,1224.6161992650489,3780.0713730181124,0.007,-1.59,-4.608,-5.631
-0.0,1299989965.3754528,2.1027691364,914.1132414702499,3886.8698613730226,0.07,-1.486,-4.263,-5.236
-0.0,1299989965.3754528,2.1027712822,524.8074602497728,4100.152405066133,0.26,-1.179,-3.607,-4.481
-0.0,1299989965.3754528,2.1027746201,517.6068319505677,4104.875598336487,0.266,-1.17,-3.592,-4.463
-0.0,1299989965.3754528,2.10277915,638.263486190549,4022.5365599868255,0.188,-1.296,-3.838,-4.747
-0.0,1299989965.3754528,2.1027851105,961.6122783836648,3867.2299811937696,0.059,-1.504,-4.323,-5.305
-0.0,1299989965.3754528,2.102792263,1428.8939585111023,3722.202530178502,-0.006,-1.616,-4.795,-5.844
-0.0,1299989965.3754528,2.1028010845,1883.6490894898002,3624.0985589974434,0.005,-1.605,-5.128,-6.22
-0.0,1299989965.3754528,2.1028113365,2182.7299118430014,3571.9058251119704,0.041,-1.557,-5.308,-6.423
-0.0,1299989965.3754528,2.1028232574,2333.458062281002,3547.316998366914,0.06,-1.532,-5.388,-6.514
-0.0,1299989965.3754528,2.1028366089,2409.9054286865953,3534.2722436627364,0.083,-1.502,-5.43,-6.561
-0.0,1299989965.3754528,2.1028368473,1412.537544622754,3719.632211619559,0.014,-1.595,-4.783,-5.834
-0.0,1299989965.3754528,2.1028382778,1056.8175092136585,3824.7231102392916,0.052,-1.527,-4.436,-5.439
-0.0,1299989965.3754528,2.1028409004,608.1350012787176,4033.6666088992683,0.219,-1.258,-3.783,-4.687
-0.0,1299989965.3754528,2.1028447151,597.0352865838366,4040.1733537300024,0.225,-1.248,-3.763,-4.664
-0.0,1299989965.3754528,2.1028499603,734.5138681571151,3961.8679837032632,0.154,-1.363,-4.005,-4.943
-0.0,1299989965.3754528,2.1028568745,1096.4781961431852,3810.65823393773,0.043,-1.542,-4.48,-5.49
-0.0,1299989965.3754528,2.1028654575,1618.0800376430661,3671.131996879641,0.017,-1.593,-4.947,-6.018
-0.0,1299989965.3754528,2.1028757095,2113.489039836648,3576.844005764754,0.055,-1.543,-5.272,-6.385
-0.0,1299989965.3754528,2.1028876305,2437.8108183687523,3526.9556611308685,0.1,-1.481,-5.445,-6.58
-0.0,1299989965.3754528,2.1029014587,2594.179362118815,3506.711196464777,0.128,-1.443,-5.52,-6.663
-0.0,1299989965.3754528,2.1029171944,2666.8586645214805,3497.0351694345923,0.143,-1.424,-5.555,-6.702
-0.0,1299989965.3754528,2.1029174328,1603.2453906900419,3672.8230049808462,0.018,-1.591,-4.938,-6.008
-0.0,1299989965.3754528,2.1029188633,1202.2644346174131,3777.461093882191,0.03,-1.565,-4.591,-5.615
-0.0,1299989965.3754528,2.1029212475,695.0243175887969,3985.6577231340093,0.167,-1.339,-3.939,-4.866
-0.0,1299989965.3754528,2.1029250622,679.2036326171843,3993.925871780298,0.174,-1.327,-3.914,-4.836
-0.0,1299989965.3754528,2.1029303074,829.8507675144226,3916.5168559121084,0.112,-1.427,-4.15,-5.109
-0.0,1299989965.3754528,2.1029369831,1227.4392311584072,3769.641066462436,0.03,-1.567,-4.615,-5.642
-0.0,1299989965.3754528,2.1029453278,1790.6058540352947,3632.4529689937044,0.029,-1.58,-5.07,-6.158
-0.0,1299989965.3754528,2.1029551029,2317.39464996848,3539.9734108343464,0.096,-1.49,-5.385,-6.514
-0.0,1299989965.3754528,2.1029667854,2654.605561975539,3493.011375635544,0.164,-1.399,-5.552,-6.7
-0.0,1299989965.3754528,2.1029803753,2805.433637951713,3473.761519726527,0.194,-1.361,-5.62,-6.776
-0.0,1299989965.3754528,2.1029956341,2870.780582024692,3465.7720899354867,0.206,-1.344,-5.648,-6.807
-0.0,1299989965.3754528,2.1029961109,1778.2794100389228,3634.1261606422304,0.029,-1.58,-5.063,-6.15
-0.0,1299989965.3754528,2.1029975414,1336.5955165464418,3738.522510697288,0.02,-1.584,-4.718,-5.76
-0.0,1299989965.3754528,2.103000164,776.247116628692,3946.3899820986467,0.125,-1.401,-4.07,-5.015
-0.0,1299989965.3754528,2.1030044556,756.8328950209744,3956.398240042518,0.132,-1.389,-4.04,-4.98
-0.0,1299989965.3754528,2.1030101776,920.4495717531712,3879.7165729369067,0.077,-1.48,-4.272,-5.248
-0.0,1299989965.3754528,2.1030175686,1348.9628825916532,3735.0807894306217,0.021,-1.584,-4.728,-5.772
-0.0,1299989965.3754528,2.1030266285,1949.8445997580454,3599.15043999954,0.056,-1.545,-5.175,-6.278
-0.0,1299989965.3754528,2.1030378342,2511.88643150958,3508.326468551656,0.15,-1.42,-5.485,-6.627
-0.0,1299989965.3754528,2.1030507088,2870.780582024692,3461.784268375584,0.229,-1.318,-5.649,-6.81
-0.0,1299989965.3754528,2.1030657291,3033.891184194272,3442.7065038944434,0.272,-1.261,-5.716,-6.885
-0.0,1299989965.3754528,2.1030826569,3104.5595881283557,3434.788498657803,0.289,-1.239,-5.745,-6.917
-0.0,1299989965.3754528,2.1030831337,1990.6733389871863,3592.5266624766173,0.061,-1.539,-5.199,-6.305
-0.0,1299989965.3754528,2.1030845642,1499.684835502374,3696.5790681932745,0.016,-1.593,-4.857,-5.917
-0.0,1299989965.3754528,2.1030874252,877.0008211436349,3904.8108374925373,0.079,-1.469,-4.213,-5.178
-0.0,1299989965.3754528,2.1030917168,851.1380382023768,3916.5168559121084,0.087,-1.455,-4.178,-5.137
-0.0,1299989965.3754528,2.1030976772,1030.386120441616,3840.6081572581174,0.044,-1.531,-4.405,-5.4
-0.0,1299989965.3754528,2.1031053066,1492.794409578996,3698.281797802663,0.018,-1.592,-4.851,-5.91
-0.0,1299989965.3754528,2.1031146049,2133.0449131465775,3565.3321878292813,0.087,-1.506,-5.286,-6.404
-0.0,1299989965.3754528,2.103126049,2728.9777828080405,3475.3616144320576,0.212,-1.341,-5.589,-6.744
-0.0,1299989965.3754528,2.1031394005,3104.5595881283557,3429.2567329756016,0.315,-1.208,-5.749,-6.923
-0.0,1299989965.3754528,2.1031548977,3273.406948788383,3410.3582265334926,0.361,-1.149,-5.815,-6.997
-0.0,1299989965.3754528,2.1031723022,3349.654391578276,3401.731252517908,0.381,-1.123,-5.844,-7.029
-0.0,1299989965.3754528,2.1031727791,2233.5722228305326,3548.133892335753,0.102,-1.487,-5.341,-6.466
-0.0,1299989965.3754528,2.1031742096,1690.440931643265,3652.5822138633744,0.026,-1.583,-5.002,-6.082
-0.0,1299989965.3754528,2.1031770706,995.4054173515275,3860.1128374531977,0.04,-1.529,-4.363,-5.348
-0.0,1299989965.3754528,2.1031813622,961.6122783836648,3873.468245564424,0.046,-1.517,-4.322,-5.301
-0.0,1299989965.3754528,2.103187561,1158.7773561551262,3799.2686147637874,0.015,-1.578,-4.543,-5.557
-0.0,1299989965.3754528,2.1031951904,1655.7699634695275,3660.1594055804926,0.025,-1.584,-4.976,-6.052
-0.0,1299989965.3754528,2.1032049656,2338.837238659356,3529.3928374635293,0.133,-1.446,-5.397,-6.531
-0.0,1299989965.3754528,2.1032164097,2964.8313895243423,3441.9138826842905,0.296,-1.235,-5.691,-6.861
-0.0,1299989965.3754528,2.1032299995,3349.654391578276,3397.0348320337944,0.405,-1.094,-5.846,-7.033
-0.0,1299989965.3754528,2.1032457352,3523.7087104248726,3378.313899290581,0.459,-1.025,-5.909,-7.103
-0.0,1299989965.3754528,2.1032633781,3605.7864302164235,3371.3201787284347,0.484,-0.993,-5.936,-7.133
-0.0,1299989965.3754528,2.103263855,2500.345361696432,3505.09666806693,0.169,-1.398,-5.481,-6.624
-0.0,1299989965.3754528,2.1032650471,1905.4607179632462,3609.1090121201505,0.047,-1.558,-5.146,-6.244
-0.0,1299989965.3754528,2.1032676697,1132.4003632355566,3816.8052419008277,0.002,-1.586,-4.513,-5.519
-0.0,1299989965.3754528,2.1032719612,1088.9300933334332,3832.6574040003447,0.006,-1.575,-4.468,-5.466
-0.0,1299989965.3754528,2.1032774448,1306.1708881318418,3758.374042884443,-0.004,-1.607,-4.687,-5.72
-0.0,1299989965.3754528,2.1032845974,1849.2686189780777,3620.762177566733,0.036,-1.572,-5.109,-6.203
-0.0,1299989965.3754528,2.1032936573,2582.260190634596,3492.2071726340682,0.193,-1.368,-5.522,-6.67
-0.0,1299989965.3754528,2.1033043861,3258.367010020087,3404.865806080549,0.39,-1.115,-5.812,-6.995
-0.0,1299989965.3754528,2.1033170223,3689.775985701505,3358.9226273449517,0.533,-0.933,-5.967,-7.169
-0.0,1299989965.3754528,2.1033315659,3899.419866765436,3338.1050516598925,0.608,-0.838,-6.036,-7.246
-0.0,1299989965.3754528,2.1033480167,4008.6671762730302,3327.3615980616237,0.651,-0.785,-6.071,-7.286
-0.0,1299989965.3754528,2.1033484936,2890.6798823654744,3448.2599655262325,0.289,-1.246,-5.663,-6.829
-0.0,1299989965.3754528,2.1033496857,2213.094709605639,3551.4033498288213,0.101,-1.489,-5.329,-6.453
-0.0,1299989965.3754528,2.1033525467,1324.3415351946644,3756.64364614459,-0.013,-1.617,-4.701,-5.734
-0.0,1299989965.3754528,2.1033565998,1267.6518658578461,3774.8526172405905,-0.014,-1.615,-4.648,-5.673
-0.0,1299989965.3754528,2.1033623219,1510.0801541641476,3703.39469397536,-0.007,-1.62,-4.861,-5.918
-0.0,1299989965.3754528,2.1033697128,2098.9398836235246,3571.083458083457,0.084,-1.511,-5.266,-6.381
-0.0,1299989965.3754528,2.1033790112,2890.6798823654744,3446.6723487178924,0.297,-1.237,-5.661,-6.829
-0.0,1299989965.3754528,2.1033899784,3597.4933515574235,3363.566357483622,0.531,-0.938,-5.936,-7.136
-0.0,1299989965.3754528,2.103402853,4027.170343254591,3320.4733579750687,0.689,-0.739,-6.079,-7.297
-0.0,1299989965.3754528,2.103417635,4226.686142656029,3302.1743526707673,0.767,-0.64,-6.139,-7.364
-0.0,1299989965.3754528,2.1034345627,4315.19076827765,3293.821044764936,0.808,-0.587,-6.165,-7.395
-0.0,1299989965.3754528,2.1034348011,3243.3961734934933,3401.731252517908,0.414,-1.086,-5.808,-6.993
-0.0,1299989965.3754528,2.1034362316,2494.5947269429535,3504.2896826443844,0.178,-1.389,-5.478,-6.621
-0.0,1299989965.3754528,2.1034386158,1506.6070661867418,3709.3686741322836,-0.021,-1.636,-4.857,-5.912
-0.0,1299989965.3754528,2.1034424305,1435.489433353656,3729.9241475247336,-0.026,-1.638,-4.798,-5.844
-0.0,1299989965.3754528,2.1034476757,1702.15850839495,3658.474227939712,0.003,-1.61,-5.007,-6.084
-0.0,1299989965.3754528,2.1034543514,2338.837238659356,3529.3928374635293,0.134,-1.445,-5.399,-6.532
-0.0,1299989965.3754528,2.1034626961,3176.8740706497692,3408.7880601025868,0.398,-1.107,-5.782,-6.964
-0.0,1299989965.3754528,2.1034724712,3917.4187710778306,3327.3615980616237,0.672,-0.762,-6.047,-7.262
-0.0,1299989965.3754528,2.1034841537,4385.306977749856,3284.7324430306794,0.858,-0.522,-6.186,-7.419
-0.0,1299989965.3754528,2.1034977436,4602.565735813559,3266.6304045806874,0.948,-0.405,-6.246,-7.487
-0.0,1299989965.3754528,2.1035130024,4709.77326396953,3256.8668220166983,0.994,-0.344,-6.276,-7.521
-0.0,1299989965.3754528,2.1035132408,3672.8230049808462,3351.1973196770778,0.586,-0.871,-5.966,-7.171
-0.0,1299989965.3754528,2.1035144329,2837.9190284415554,3453.027205056406,0.284,-1.255,-5.64,-6.804
-0.0,1299989965.3754528,2.1035168171,1729.8163592151016,3656.789826173249,-0.007,-1.622,-5.026,-6.103
-0.0,1299989965.3754528,2.1035203934,1640.5897731995387,3678.7476696641274,-0.02,-1.635,-4.961,-6.029
-0.0,1299989965.3754528,2.1035251617,1936.4219639466069,3609.1090121201505,0.03,-1.577,-5.165,-6.263
-0.0,1299989965.3754528,2.103531599,2624.218543384442,3484.175319018589,0.216,-1.341,-5.543,-6.695
-0.0,1299989965.3754528,2.1035392284,3515.6044052829798,3366.665743686229,0.532,-0.939,-5.912,-7.111
-0.0,1299989965.3754528,2.1035487652,4305.266104917106,3288.51630875983,0.851,-0.534,-6.165,-7.396
-0.0,1299989965.3754528,2.1035597324,4786.300923226385,3247.1324216780226,1.05,-0.272,-6.297,-7.546
-0.0,1299989965.3754528,2.1035723686,5011.872336272725,3229.2375955486873,1.133,-0.164,-6.355,-7.611
-0.0,1299989965.3754528,2.1035866737,5128.613839913648,3219.585775790117,1.173,-0.112,-6.384,-7.644
-0.0,1299989965.3754528,2.1035869122,4149.5404263436285,3301.4140864591145,0.794,-0.61,-6.119,-7.345
-0.0,1299989965.3754528,2.1035881042,3213.660538640318,3401.731252517908,0.422,-1.079,-5.798,-6.983
-0.0,1299989965.3754528,2.1035904884,1976.96964011186,3603.296501281602,0.032,-1.575,-5.19,-6.291
-0.0,1299989965.3754528,2.1035940647,1866.3796908346694,3627.4380147645793,0.004,-1.61,-5.118,-6.208
-0.0,1299989965.3754528,2.1035988331,2187.761623949552,3559.59018006083,0.083,-1.512,-5.315,-6.435
-0.0,1299989965.3754528,2.1036052704,2924.1523778433366,3438.7452222912716,0.326,-1.202,-5.679,-6.85
-0.0,1299989965.3754528,2.1036128998,3863.669770540693,3326.5955329400435,0.692,-0.741,-6.03,-7.245
-0.0,1299989965.3754528,2.1036224365,4666.593803142887,3251.621601204828,1.041,-0.287,-6.267,-7.514
-0.0,1299989965.3754528,2.1036334038,5140.436515824259,3212.9206511412604,1.214,-0.061,-6.389,-7.652
-0.0,1299989965.3754528,2.10364604,5345.643593969719,3197.422303204927,1.289,0.035,-6.44,-7.709
-0.0,1299989965.3754528,2.1036603451,5445.026528424214,3189.333980133178,1.326,0.082,-6.462,-7.735
-0.0,1299989965.3754528,2.1036605835,4570.881896148751,3257.616829660631,1.015,-0.323,-6.243,-7.488
-0.0,1299989965.3754528,2.1036617756,3564.5113342624427,3357.3761424295453,0.577,-0.885,-5.929,-7.132
-0.0,1299989965.3754528,2.1036636829,2213.094709605639,3557.132151345879,0.081,-1.515,-5.329,-6.45
-0.0,1299989965.3754528,2.1036667824,2079.696687103696,3584.2640804371426,0.048,-1.555,-5.251,-6.36
-0.0,1299989965.3754528,2.1036710739,2426.6100950824143,3517.223773787032,0.149,-1.428,-5.444,-6.582
-0.0,1299989965.3754528,2.103676796,3206.2693245054643,3400.1650580407095,0.434,-1.066,-5.796,-6.981
-0.0,1299989965.3754528,2.1036837101,4178.303666466218,3291.546539470676,0.855,-0.534,-6.13,-7.36
-0.0,1299989965.3754528,2.1036918163,5000.345349769783,3219.585775790117,1.2,-0.083,-6.357,-7.617
-0.0,1299989965.3754528,2.1037015915,5482.769649208536,3181.9987155303106,1.375,0.144,-6.475,-7.75
-0.0,1299989965.3754528,2.1037127972,5701.642722807472,3165.191567226265,1.46,0.251,-6.524,-7.807
-0.0,1299989965.3754528,2.1037254333,5807.644175213118,3157.1847762703,1.498,0.299,-6.548,-7.834
-0.0,1299989965.3754528,2.1037256718,5046.612975635282,3213.660538640318,1.231,-0.043,-6.369,-7.632
-0.0,1299989965.3754528,2.1037268639,3953.666200681279,3312.0737601979727,0.763,-0.657,-6.061,-7.283
-0.0,1299989965.3754528,2.1037287712,2477.4220576332864,3509.942484670127,0.163,-1.41,-5.469,-6.61
-0.0,1299989965.3754528,2.1037318707,2317.39464996848,3539.1583956694994,0.107,-1.483,-5.384,-6.513
-0.0,1299989965.3754528,2.1037361622,2691.5348039269165,3472.9617486579155,0.242,-1.312,-5.574,-6.731
-0.0,1299989965.3754528,2.1037416458,3515.6044052829798,3358.9226273449517,0.584,-0.879,-5.913,-7.115
-0.0,1299989965.3754528,2.10374856,4518.559443749222,3254.61783498046,1.055,-0.276,-6.231,-7.477
-0.0,1299989965.3754528,2.1037566662,5357.966575133417,3184.1975217261256,1.379,0.145,-6.447,-7.721
-0.0,1299989965.3754528,2.1037662029,5847.900841444806,3148.4731933873795,1.548,0.357,-6.557,-7.847
-0.0,1299989965.3754528,2.1037771702,6053.408747539136,3132.5643416709277,1.612,0.435,-6.603,-7.899
-0.0,1299989965.3754528,2.1037898064,6165.9500186148225,3125.35964361334,1.646,0.475,-6.625,-7.923
-0.0,1299989965.3754528,2.1037900448,5520.774392807573,3168.8377271814975,1.465,0.253,-6.487,-7.768
-0.0,1299989965.3754528,2.1037909985,4345.102241715715,3266.6304045806874,1.001,-0.349,-6.184,-7.425
-0.0,1299989965.3754528,2.1037929058,2754.2287033381663,3462.5814654379196,0.272,-1.276,-5.602,-6.763
-0.0,1299989965.3754528,2.1037955284,2558.585886905645,3494.6203372688556,0.2,-1.366,-5.511,-6.659
-0.0,1299989965.3754528,2.1037993431,2964.8313895243423,3429.2567329756016,0.366,-1.157,-5.697,-6.871
-0.0,1299989965.3754528,2.1038043499,3819.442708400464,3318.944575526103,0.755,-0.67,-6.023,-7.241
-0.0,1299989965.3754528,2.1038105488,4852.88500162121,3217.3625326955976,1.24,-0.039,-6.326,-7.587
-0.0,1299989965.3754528,2.1038177013,5701.642722807472,3150.648832972395,1.557,0.365,-6.531,-7.819
-0.0,1299989965.3754528,2.1038262844,6194.410750767812,3116.0183031054607,1.699,0.537,-6.636,-7.938
-0.0,1299989965.3754528,2.103836298,6412.095765851615,3100.2734419981916,1.767,0.618,-6.68,-7.988
-0.0,1299989965.3754528,2.1038475037,6516.283940608428,3091.7188938917006,1.806,0.664,-6.701,-8.013
-0.0,1299989965.3754528,2.1038477421,6053.408747539136,3121.763510848167,1.682,0.514,-6.607,-7.907
-0.0,1299989965.3754528,2.1038486958,4753.352259428054,3221.0687912834346,1.237,-0.046,-6.302,-7.562
-0.0,1299989965.3754528,2.1038503647,3040.88502567628,3414.286807579689,0.418,-1.094,-5.731,-6.911
-0.0,1299989965.3754528,2.1038532257,2811.9008303989394,3448.2599655262325,0.322,-1.216,-5.633,-6.8
-0.0,1299989965.3754528,2.103856802,3243.3961734934933,3383.763488617649,0.513,-0.976,-5.816,-7.008
-0.0,1299989965.3754528,2.1038615704,4139.996748197304,3276.4232568537846,0.976,-0.39,-6.128,-7.365
-0.0,1299989965.3754528,2.1038675308,5199.959965335162,3179.069335643364,1.446,0.22,-6.418,-7.694
-0.0,1299989965.3754528,2.1038746834,6067.363295885053,3113.8665771825613,1.73,0.569,-6.612,-7.915
-0.0,1299989965.3754528,2.103883028,6546.361740672747,3080.3495365425674,1.857,0.711,-6.711,-8.027
-0.0,1299989965.3754528,2.1038925648,6760.829753919818,3065.490679425787,1.897,0.739,-6.753,-8.073
-0.0,1299989965.3754528,2.103903532,6870.684400142324,3057.032106987659,1.921,0.758,-6.773,-8.096
-0.0,1299989965.3754528,2.1039037704,6606.934480075957,3072.557365267445,1.887,0.734,-6.724,-8.042
-0.0,1299989965.3754528,2.1039044857,5176.068319505676,3173.218663836144,1.491,0.274,-6.415,-7.694
-0.0,1299989965.3754528,2.1039061546,3341.950400261143,3365.115693754908,0.604,-0.866,-5.856,-7.055
-0.0,1299989965.3754528,2.1039085388,3076.096814740708,3400.9480651219096,0.476,-1.026,-5.751,-6.937
-0.0,1299989965.3754528,2.1039121151,3539.9734108343464,3337.3365130514867,0.717,-0.726,-5.931,-7.142
-0.0,1299989965.3754528,2.1039164066,4477.133041763624,3232.9575336809407,1.222,-0.075,-6.23,-7.485
-0.0,1299989965.3754528,2.1039216518,5559.042572704037,3138.340056432409,1.658,0.478,-6.507,-7.8
-0.0,1299989965.3754528,2.1039283276,6426.877173170194,3076.096814740708,1.897,0.748,-6.692,-8.009
-0.0,1299989965.3754528,2.103935957,6918.309709189362,3042.986320313067,1.978,0.805,-6.786,-8.114
-0.0,1299989965.3754528,2.10394454,7128.530301265198,3027.610480923131,2.021,0.837,-6.826,-8.16
-0.0,1299989965.3754528,2.1039545536,7227.698036021702,3018.5613014197993,2.049,0.858,-6.846,-8.183
-0.0,1299989965.3754528,2.103954792,7194.489780036998,3020.64717004684,2.046,0.856,-6.839,-8.175
-0.0,1299989965.3754528,2.1039555073,5623.413251903491,3123.920693664115,1.741,0.575,-6.527,-7.825
-0.0,1299989965.3754528,2.1039571762,3655.9479161312506,3312.8364811728147,0.843,-0.576,-5.977,-7.198
-0.0,1299989965.3754528,2.103959322,3357.3761424295453,3351.1973196770778,0.686,-0.77,-5.867,-7.072
-0.0,1299989965.3754528,2.1039626598,3845.9178204535356,3287.7591870669708,0.972,-0.41,-6.042,-7.274
-0.0,1299989965.3754528,2.103966713,4819.477976251272,3186.3978473281713,1.472,0.238,-6.33,-7.604
-0.0,1299989965.3754528,2.1039719582,5915.616341754737,3094.567783987401,1.881,0.74,-6.595,-7.905
-0.0,1299989965.3754528,2.103978157,6792.036326171843,3033.891184194272,2.039,0.861,-6.77,-8.101
-0.0,1299989965.3754528,2.1039853096,7277.798045368242,3001.234982781183,2.111,0.908,-6.858,-8.2
-0.0,1299989965.3754528,2.1039936543,7481.6950051115455,2986.070107816526,2.146,0.93,-6.896,-8.242
-0.0,1299989965.3754528,2.104003191,7585.775750291836,2976.459653637275,2.172,0.948,-6.915,-8.264
-0.0,1299989965.3754528,2.1040034294,7762.4711662869195,2965.514145782622,2.192,0.958,-6.946,-8.299
-0.0,1299989965.3754528,2.1040041447,6067.363295885053,3070.4356507300654,1.977,0.827,-6.632,-7.951
-0.0,1299989965.3754528,2.1040055752,3981.0717055349733,3257.616829660631,1.162,-0.173,-6.092,-7.336
-0.0,1299989965.3754528,2.1040077209,3630.780547701014,3298.3747715856816,0.954,-0.444,-5.976,-7.204
-0.0,1299989965.3754528,2.104010582,4149.5404263436285,3235.1915531420955,1.286,-0.013,-6.148,-7.402
-0.0,1299989965.3754528,2.1040143967,5152.286445817567,3135.4508691442925,1.753,0.578,-6.426,-7.72
-0.0,1299989965.3754528,2.104019165,6266.138646723356,3045.7903053734226,2.058,0.89,-6.678,-8.005
-0.0,1299989965.3754528,2.1040248871,7128.530301265198,2986.75775503349,2.188,0.975,-6.844,-8.19
-0.0,1299989965.3754528,2.1040315628,7603.262769401815,2954.6088884793385,2.256,1.014,-6.928,-8.284
-0.0,1299989965.3754528,2.1040391922,7816.278045883293,2938.3261486728097,2.291,1.037,-6.964,-8.324
-0.0,1299989965.3754528,2.1040480137,7906.786279998253,2927.520871369441,2.318,1.058,-6.982,-8.345
-0.0,1299989965.3754528,2.1040482521,8336.81184619634,2904.6914073819084,2.35,1.073,-7.049,-8.418
-0.0,1299989965.3754528,2.1040489674,6501.296903430909,3010.925432053001,2.179,0.987,-6.734,-8.073
-0.0,1299989965.3754528,2.1040501595,4305.266104917106,3197.422303204927,1.508,0.261,-6.203,-7.472
-0.0,1299989965.3754528,2.1040523052,3908.4089579240213,3239.664224348446,1.315,0.01,-6.081,-7.334
-0.0,1299989965.3754528,2.1040551662,4456.562483975033,3176.1426525728807,1.626,0.408,-6.251,-7.529
-0.0,1299989965.3754528,2.1040587425,5482.769649208536,3076.805193759751,2.044,0.901,-6.52,-7.836
-0.0,1299989965.3754528,2.1040632725,6622.165037017622,2988.821646959374,2.251,1.043,-6.761,-8.106
-0.0,1299989965.3754528,2.1040685177,7481.6950051115455,2929.5438297694327,2.364,1.108,-6.919,-8.282
-0.0,1299989965.3754528,2.104074955,7943.282347242814,2896.6765264870983,2.427,1.146,-7.0,-8.371
-0.0,1299989965.3754528,2.1040821075,8147.042840208396,2878.0610364895265,2.47,1.18,-7.035,-8.411
-0.0,1299989965.3754528,2.1040904522,8260.379495771784,2864.1779699065796,2.504,1.213,-7.053,-8.432
-0.0,1299989965.3754528,2.1040906906,8933.054837332953,2830.0883917879437,2.538,1.243,-7.153,-8.538
-0.0,1299989965.3754528,2.1040911674,6966.265141107687,2937.6496519615307,2.404,1.155,-6.838,-8.198
-0.0,1299989965.3754528,2.104092598,4634.46919736288,3121.763510848167,1.947,0.787,-6.317,-7.617
-0.0,1299989965.3754528,2.1040945053,4197.589839910078,3165.920463432239,1.764,0.563,-6.19,-7.473
-0.0,1299989965.3754528,2.1040971279,4775.2927365769065,3099.559659837377,2.061,0.921,-6.358,-7.667
-0.0,1299989965.3754528,2.1041004658,5834.451042737448,2999.8531811907933,2.33,1.134,-6.619,-7.96
-0.0,1299989965.3754528,2.1041047573,6966.265141107687,2910.717118066605,2.501,1.235,-6.85,-8.218
-0.0,1299989965.3754528,2.1041097641,7834.29642766212,2849.049533909905,2.604,1.316,-7.002,-8.382
-0.0,1299989965.3754528,2.1041157246,8298.507675144225,2811.9008303989394,2.666,1.377,-7.08,-8.467
-0.0,1299989965.3754528,2.1041226387,8491.804750363135,2788.6884631591693,2.715,1.435,-7.115,-8.505
-0.0,1299989965.3754528,2.1041305065,8609.937521846008,2768.216162574592,2.761,1.489,-7.135,-8.529
-0.0,1299989965.3754528,2.1041307449,9527.96164023652,2722.701308077913,2.794,1.546,-7.265,-8.665
-0.0,1299989965.3754528,2.1041312218,7430.191378967013,2828.1341110474723,2.723,1.437,-6.953,-8.337
-0.0,1299989965.3754528,2.1041324139,4988.844874600121,3006.076302628232,2.46,1.272,-6.446,-7.786
-0.0,1299989965.3754528,2.1041343212,4497.798548932879,3046.491705257325,2.387,1.228,-6.317,-7.643
-0.0,1299989965.3754528,2.1041367054,5105.049999754065,2970.9818591187295,2.581,1.367,-6.485,-7.835
-0.0,1299989965.3754528,2.1041400433,6194.410750767812,2860.8823606272076,2.798,1.518,-6.741,-8.118
-0.0,1299989965.3754528,2.1041440964,7345.138681571151,2759.9422828542642,2.949,1.686,-6.965,-8.359
-0.0,1299989965.3754528,2.1041488647,8184.647881347895,2687.200056717113,3.059,1.844,-7.112,-8.516
-0.0,1299989965.3754528,2.1041545868,8649.67918775693,2640.5840763127353,3.141,1.989,-7.186,-8.594
-0.0,1299989965.3754528,2.1041610241,8851.156098308356,2611.5599512614453,3.197,2.07,-7.218,-8.63
-0.0,1299989965.3754528,2.1041684151,8953.647655495937,2591.7911346159462,3.238,2.11,-7.234,-8.651
