FeH,Age,Mini,L,Te,Bmag,Vmag,Jmag,Kmag
0.4,1649985014.9526088,0.1000000015,0.0005333348954876208,2332.9208255601066,19.403,17.702,10.852,9.921
0.4,1649985014.9526088,0.100585945,0.0005407543229455809,2337.2221850151404,19.386,17.686,10.836,9.904
0.4,1649985014.9526088,0.1144103557,0.0007816278045883292,2437.8108183687523,18.96,17.271,10.436,9.504
0.4,1649985014.9526088,0.1182300672,0.000859013521505396,2464.336445834911,18.851,17.165,10.333,9.401
0.4,1649985014.9526088,0.1199999973,0.0008974287945007481,2476.281425273959,18.802,17.117,10.287,9.355
0.4,1649985014.9526088,0.1400000006,0.0013273944577297401,2578.101431424051,18.35,16.678,9.863,8.93
0.4,1649985014.9526088,0.1599999964,0.0018197008586099826,2657.6635495543114,17.717,16.081,9.534,8.606
0.4,1649985014.9526088,0.200000003,0.0030338911841942717,2793.1869222539713,16.391,14.852,9.024,8.113
0.4,1649985014.9526088,0.25,0.004830588020397728,2904.022654464451,15.374,13.884,8.555,7.657
0.4,1649985014.9526088,0.3035235703,0.007211074791828998,2996.4014599344437,14.578,13.128,8.148,7.26
0.4,1649985014.9526088,0.3179242611,0.008072350302488382,3017.866332008685,14.373,12.932,8.032,7.146
0.4,1649985014.9526088,0.3274039328,0.00864967918775693,3033.1926853535583,14.247,12.809,7.961,7.076
0.4,1649985014.9526088,0.349999994,0.010115794542598982,3067.608976917938,13.962,12.532,7.803,6.92
0.4,1649985014.9526088,0.400000006,0.014060475241299136,3152.825975955186,13.358,11.957,7.474,6.594
0.4,1649985014.9526088,0.4419638813,0.018620871366628676,3233.7020353739117,12.85,11.474,7.194,6.313
0.4,1649985014.9526088,0.4500000179,0.0195884467350599,3247.8801876353714,12.762,11.389,7.144,6.262
0.4,1649985014.9526088,0.5000000596,0.027352687263067124,3353.5130445056075,12.177,10.828,6.816,5.926
0.4,1649985014.9526088,0.5022269487,0.027797132677592883,3358.9226273449517,12.149,10.801,6.8,5.91
0.4,1649985014.9526088,0.5273016691,0.03311311214825911,3422.1575515373916,11.84,10.51,6.63,5.736
0.4,1649985014.9526088,0.5500000715,0.038547835766577186,3478.5640153042373,11.577,10.259,6.482,5.585
0.4,1649985014.9526088,0.5980382562,0.0540754322945581,3636.6373933084765,10.95,9.639,6.166,5.266
0.4,1649985014.9526088,0.6000000238,0.05482769649208539,3642.503686647633,10.925,9.614,6.154,5.254
0.4,1649985014.9526088,0.6020724773,0.05559042572704037,3651.741272548377,10.894,9.581,6.141,5.241
0.4,1649985014.9526088,0.6311989427,0.06886522963442762,3780.941866832965,10.463,9.141,5.953,5.06
0.4,1649985014.9526088,0.6499999762,0.07852356346100718,3864.55951581426,10.198,8.874,5.836,4.951
0.4,1649985014.9526088,0.7000000477,0.11142945335917301,4110.55061281175,9.481,8.178,5.525,4.688
0.4,1649985014.9526088,0.7437173724,0.1538154640303035,4420.79116875633,8.737,7.512,5.263,4.507
0.4,1649985014.9526088,0.75,0.1606941253012877,4465.8075129335175,8.632,7.422,5.227,4.485
0.4,1649985014.9526088,0.7995219231,0.21478304741305337,4649.433066875436,8.091,6.959,4.967,4.29
0.4,1649985014.9526088,0.8120927215,0.2306747188720069,4700.023181798009,7.953,6.844,4.902,4.243
0.4,1649985014.9526088,0.8490439653,0.28444611074479154,4846.185122401829,7.568,6.522,4.717,4.107
0.4,1649985014.9526088,0.8754612803,0.32960971217745777,4951.080641176657,7.305,6.302,4.586,4.009
0.4,1649985014.9526088,0.8985658288,0.37411058827205335,5043.128102663999,7.088,6.12,4.476,3.926
0.4,1649985014.9526088,0.9480878115,0.48752849010338634,5232.388711124278,6.655,5.753,4.247,3.748
0.4,1649985014.9526088,0.9886950254,0.6011737374832781,5378.980873168731,6.327,5.474,4.063,3.602
0.4,1649985014.9526088,0.9976097345,0.6295061828571975,5411.279918442833,6.258,5.415,4.024,3.57
0.4,1649985014.9526088,1.0399247408,0.7780365510398041,5553.924862434803,5.941,5.144,3.84,3.418
0.4,1649985014.9526088,1.0471316576,0.8072350302488381,5578.27602141201,5.889,5.099,3.809,3.393
0.4,1649985014.9526088,1.0773545504,0.9354056741475519,5672.833016309789,5.674,4.915,3.681,3.285
0.4,1649985014.9526088,1.0966536999,1.0280162981264735,5733.238386538407,5.541,4.801,3.6,3.217
0.4,1649985014.9526088,1.1362529993,1.2387965865303692,5847.900841444806,5.279,4.576,3.436,3.076
0.4,1649985014.9526088,1.1461756229,1.297179270983956,5876.246425275582,5.215,4.521,3.395,3.041
0.4,1649985014.9526088,1.1538468599,1.3458603540559484,5896.577351462565,5.166,4.479,3.364,3.014
0.4,1649985014.9526088,1.195697546,1.625548755750484,6006.202909194723,4.906,4.255,3.197,2.868
0.4,1649985014.9526088,1.2452194691,2.0137242498623884,6122.094090682573,4.621,4.007,3.006,2.699
0.4,1649985014.9526088,1.2841370106,2.3659196974857584,6204.403011913813,4.413,3.825,2.863,2.571
0.4,1649985014.9526088,1.2947413921,2.4660393372343394,6225.869310387436,4.358,3.777,2.825,2.536
0.4,1649985014.9526088,1.3083212376,2.600159563165272,6251.726927756856,4.289,3.716,2.776,2.492
0.4,1649985014.9526088,1.3442634344,2.9853826189179595,6318.296466918977,4.111,3.559,2.649,2.377
0.4,1649985014.9526088,1.3746415377,3.3496543915782766,6369.421653777093,3.967,3.431,2.545,2.281
0.4,1649985014.9526088,1.3937852383,3.5974933515574232,6398.821568325593,3.879,3.352,2.479,2.22
0.4,1649985014.9526088,1.4068270922,3.767037989839088,6419.482215080359,3.819,3.299,2.434,2.179
0.4,1649985014.9526088,1.4433073997,4.295364267648873,6468.44664171722,3.657,3.152,2.31,2.063
0.4,1649985014.9526088,1.4553220272,4.477133041763626,6481.865274740793,3.607,3.106,2.27,2.024
0.4,1649985014.9526088,1.4928293228,5.093308710571954,6514.783683512198,3.455,2.964,2.142,1.902
0.4,1649985014.9526088,1.5163377523,5.508076964054034,6529.801810928715,3.364,2.877,2.062,1.824
0.4,1649985014.9526088,1.5423511267,5.997910762555095,6537.323852287956,3.267,2.783,1.972,1.736
0.4,1649985014.9526088,1.5502461195,6.151768727098682,6540.335094488948,3.238,2.755,1.945,1.709
0.4,1649985014.9526088,1.5763683319,6.698846094165264,6541.841235692386,3.145,2.663,1.854,1.618
0.4,1649985014.9526088,1.5918731689,7.046930689671469,6538.8293000474205,3.091,2.608,1.799,1.563
0.4,1649985014.9526088,1.6212140322,7.726805850957024,6531.305526474723,2.991,2.507,1.695,1.459
0.4,1649985014.9526088,1.641395092,8.241381150130023,6517.7845431913875,2.925,2.438,1.622,1.384
0.4,1649985014.9526088,1.6638309956,8.830799004185627,6499.80009683025,2.854,2.363,1.54,1.299
0.4,1649985014.9526088,1.6661560535,8.892011178579484,6496.80751738794,2.847,2.356,1.531,1.29
0.4,1649985014.9526088,1.6861791611,9.440608762859233,6469.9362280868145,2.79,2.291,1.456,1.211
0.4,1649985014.9526088,1.6909170151,9.571940712948445,6463.9799399953445,2.777,2.276,1.438,1.192
0.4,1649985014.9526088,1.714318037,10.280162981264736,6426.877173170194,2.712,2.201,1.347,1.096
0.4,1649985014.9526088,1.7156780958,10.327614057613975,6423.918168243863,2.709,2.197,1.342,1.09
0.4,1649985014.9526088,1.7222909927,10.519618738232229,6412.095765851615,2.692,2.177,1.317,1.063
0.4,1649985014.9526088,1.7404389381,11.091748152624008,6373.823014383464,2.65,2.123,1.247,0.987
0.4,1649985014.9526088,1.7564649582,11.587773561551263,6334.320007697662,2.616,2.077,1.184,0.917
0.4,1649985014.9526088,1.7651998997,11.885022274370183,6309.57344480193,2.599,2.053,1.148,0.878
0.4,1649985014.9526088,1.7702627182,12.050359403717973,6295.061828571975,2.59,2.039,1.128,0.855
0.4,1649985014.9526088,1.7899608612,12.705741052085418,6235.912317626269,2.557,1.987,1.049,0.766
0.4,1649985014.9526088,1.8102258444,13.365955165464419,6165.9500186148225,2.53,1.938,0.968,0.672
0.4,1649985014.9526088,1.8147218227,13.520725631942772,6148.936385126267,2.525,1.928,0.949,0.651
0.4,1649985014.9526088,1.814851284,13.520725631942772,6148.936385126267,2.525,1.928,0.949,0.65
0.4,1649985014.9526088,1.8361709118,14.288939585111029,6068.760518768,2.5,1.877,0.86,0.547
0.4,1649985014.9526088,1.8394829035,14.454397707459272,6060.382005270666,2.491,1.865,0.844,0.529
0.4,1649985014.9526088,1.8538417816,15.275660582380723,6025.595860743575,2.448,1.811,0.773,0.451
0.4,1649985014.9526088,1.8552803993,15.381546403030349,6022.82161014634,2.442,1.804,0.765,0.443
0.4,1649985014.9526088,1.863727212,17.139573075084254,6110.827157024998,2.282,1.674,0.678,0.372
0.4,1649985014.9526088,1.8642437458,17.458221529205037,6131.969697156825,2.253,1.652,0.666,0.365
0.4,1649985014.9526088,1.8656562567,18.450154191794738,6200.118642087248,2.162,1.583,0.631,0.342
0.4,1649985014.9526088,1.8663567305,19.76969640111861,6295.061828571975,2.044,1.496,0.589,0.317
0.4,1649985014.9526088,1.8667272329,21.478304741305344,6407.667976494362,1.907,1.395,0.539,0.287
0.4,1649985014.9526088,1.866886735,22.908676527677734,6496.80751738794,1.801,1.318,0.502,0.265
0.4,1649985014.9526088,1.8669947386,23.71373705661655,6555.412123990993,1.744,1.276,0.485,0.256
0.4,1649985014.9526088,1.8670375347,22.803420720004187,6520.786785135783,1.8,1.323,0.517,0.282
0.4,1649985014.9526088,1.8671129942,21.086281499332898,6426.877173170194,1.921,1.415,0.568,0.318
0.4,1649985014.9526088,1.8672128916,20.37042077705718,6297.961479295171,2.012,1.465,0.559,0.288
0.4,1649985014.9526088,1.8673653603,20.417379446695296,6151.7687270986835,2.071,1.476,0.502,0.205
0.4,1649985014.9526088,1.8675909042,20.606299132700006,6010.353280502418,2.127,1.486,0.442,0.119
0.4,1649985014.9526088,1.8679238558,20.32357010936222,5865.431942902653,2.216,1.526,0.405,0.052
0.4,1649985014.9526088,1.8683657646,19.498445997580454,5725.323093941757,2.334,1.598,0.403,0.021
0.4,1649985014.9526088,1.868881464,18.238957023196374,5592.422830408998,2.48,1.702,0.431,0.019
0.4,1649985014.9526088,1.8692712784,17.139573075084254,5501.739205107149,2.599,1.793,0.468,0.034
0.4,1649985014.9526088,1.8696534634,15.995580286146687,5418.761044516261,2.721,1.889,0.516,0.063
0.4,1649985014.9526088,1.8701300621,14.68926277643867,5318.632707726801,2.876,2.012,0.579,0.101
0.4,1649985014.9526088,1.8706023693,13.708817661648537,5223.9618899911975,3.013,2.117,0.625,0.123
0.4,1649985014.9526088,1.8710737228,13.121998990192035,5135.704178483554,3.121,2.196,0.647,0.121
0.4,1649985014.9526088,1.8717956543,13.772094688939466,5024.582714960762,3.153,2.187,0.561,0.005
0.4,1649985014.9526088,1.8722761869,14.92794409578996,4963.636848845585,3.117,2.126,0.454,-0.12
0.4,1649985014.9526088,1.8727018833,16.51961798229015,4914.733801992678,3.049,2.038,0.33,-0.258
0.4,1649985014.9526088,1.8730556965,18.197008586099834,4878.653791974776,2.977,1.951,0.215,-0.384
0.4,1649985014.9526088,1.8733779192,19.998618696327437,4846.185122401829,2.904,1.864,0.103,-0.506
0.4,1649985014.9526088,1.8736790419,21.928049353504484,4816.14994840047,2.831,1.779,-0.006,-0.624
0.4,1649985014.9526088,1.8739696741,24.043628000069333,4788.50560386518,2.758,1.692,-0.114,-0.741
0.4,1649985014.9526088,1.8742502928,26.302679918953814,4761.019935823142,2.688,1.611,-0.219,-0.854
0.4,1649985014.9526088,1.8745301962,28.773984147356696,4735.872481253356,2.617,1.529,-0.322,-0.966
0.4,1649985014.9526088,1.8748098612,31.40508693876218,4709.77326396953,2.546,1.446,-0.426,-1.079
0.4,1649985014.9526088,1.8750892878,34.35579478998746,4684.8964916001305,2.474,1.363,-0.531,-1.192
0.4,1649985014.9526088,1.8753632307,37.583740428844415,4659.078201101275,2.405,1.281,-0.635,-1.305
0.4,1649985014.9526088,1.8756334782,41.114972110452236,4632.335436779563,2.335,1.2,-0.74,-1.419
0.4,1649985014.9526088,1.8758989573,44.977985489328795,4606.806808300934,2.267,1.12,-0.844,-1.532
0.4,1649985014.9526088,1.8761609793,49.31738039549359,4580.364077908267,2.198,1.038,-0.949,-1.646
0.4,1649985014.9526088,1.8764164448,53.95106225151276,4553.024633460011,2.131,0.959,-1.053,-1.761
0.4,1649985014.9526088,1.8766616583,58.8843655355589,4525.848373686597,2.068,0.883,-1.155,-1.872
0.4,1649985014.9526088,1.8769277334,64.86344335482384,4496.763011769069,2.002,0.8,-1.268,-1.995
0.4,1649985014.9526088,1.8771970272,71.6143410212902,4465.8075129335175,1.937,0.714,-1.385,-2.123
0.4,1649985014.9526088,1.8774352074,78.34296427662116,4438.12980308139,1.881,0.64,-1.491,-2.239
0.4,1649985014.9526088,1.8776749372,85.90135215053957,4409.608164506378,1.825,0.564,-1.599,-2.356
0.4,1649985014.9526088,1.8779127598,93.9723310564638,4380.261111703606,1.77,0.489,-1.704,-2.472
0.4,1649985014.9526088,1.8781476021,102.5651926251408,4353.113592296378,1.717,0.418,-1.807,-2.585
0.4,1649985014.9526088,1.8783960342,112.2018454301963,4325.138310350088,1.664,0.347,-1.912,-2.7
0.4,1649985014.9526088,1.8786877394,123.59474334445108,4294.375337334884,1.609,0.272,-2.023,-2.823
0.4,1649985014.9526088,1.8791552782,135.8313446587154,4264.813065450337,1.554,0.197,-2.134,-2.945
0.4,1649985014.9526088,1.8793877363,128.82495516931337,4281.539943374177,1.583,0.237,-2.073,-2.877
0.4,1649985014.9526088,1.879578352,118.85022274370189,4308.24110479373,1.629,0.301,-1.978,-2.772
0.4,1649985014.9526088,1.8797160387,107.1519305237606,4342.1017878602825,1.688,0.382,-1.857,-2.638
0.4,1649985014.9526088,1.8798158169,97.94899854086991,4371.193179262241,1.74,0.453,-1.751,-2.522
0.4,1649985014.9526088,1.8799039125,89.94975815300351,4399.466347160466,1.791,0.522,-1.651,-2.412
0.4,1649985014.9526088,1.8799983263,82.22426499470713,4427.922387787075,1.845,0.596,-1.545,-2.296
0.4,1649985014.9526088,1.8800994158,74.98942093324558,4457.58876355946,1.9,0.67,-1.438,-2.179
0.4,1649985014.9526088,1.8802069426,68.86522963442762,4485.387826207934,1.953,0.742,-1.338,-2.069
0.4,1649985014.9526088,1.8803738356,62.23002851691595,4518.559443749222,2.017,0.828,-1.218,-1.938
0.4,1649985014.9526088,1.8805435896,66.83439175686145,4494.692652627942,1.971,0.766,-1.304,-2.031
0.4,1649985014.9526088,1.8807845116,72.94575102545687,4467.864566912838,1.915,0.693,-1.405,-2.142
0.4,1649985014.9526088,1.8811087608,80.35261221856173,4437.1080035723835,1.855,0.612,-1.519,-2.267
0.4,1649985014.9526088,1.8814663887,88.92011178579486,4405.548635065535,1.794,0.529,-1.637,-2.395
0.4,1649985014.9526088,1.8818194866,97.72372209558107,4376.228599453495,1.735,0.45,-1.749,-2.518
0.4,1649985014.9526088,1.8821942806,108.14339512979376,4344.101860128392,1.676,0.37,-1.866,-2.647
0.4,1649985014.9526088,1.882547617,118.85022274370189,4314.197273268735,1.621,0.295,-1.977,-2.768
0.4,1649985014.9526088,1.8829032183,130.61708881318418,4284.498548137013,1.566,0.22,-2.087,-2.89
0.4,1649985014.9526088,1.8832597733,143.8798578255845,4254.02462944068,1.512,0.146,-2.199,-3.014
0.4,1649985014.9526088,1.8836013079,157.76112696993485,4223.767459498086,1.459,0.074,-2.308,-3.131
0.4,1649985014.9526088,1.8839256763,172.98163592151016,4195.657223387252,1.407,0.002,-2.413,-3.244
0.4,1649985014.9526088,1.8842443228,189.2343618644976,4165.815197379616,1.353,-0.071,-2.519,-3.359
0.4,1649985014.9526088,1.8845506907,207.49135174549107,4136.185425726619,1.301,-0.138,-2.624,-3.474
0.4,1649985014.9526088,1.884832859,226.46443075930597,4108.6580701062485,1.251,-0.203,-2.725,-3.583
0.4,1649985014.9526088,1.885103941,246.60393372343387,4080.3742668966966,1.2,-0.268,-2.825,-3.693
0.4,1649985014.9526088,1.8853645325,269.1534803926917,4052.2851680189106,1.15,-0.328,-2.926,-3.803
0.4,1649985014.9526088,1.8856053352,292.41523778433367,4024.389433137699,1.103,-0.385,-3.023,-3.91
0.4,1649985014.9526088,1.8858323097,317.6874070649769,3997.606108001501,1.056,-0.442,-3.118,-4.016
0.4,1649985014.9526088,1.8860472441,345.1437393358561,3971.001032638907,1.01,-0.495,-3.213,-4.121
0.4,1649985014.9526088,1.8862484694,374.1105882720533,3944.573020752785,0.973,-0.538,-3.307,-4.226
0.4,1649985014.9526088,1.8864345551,403.64539296760483,3917.4187710778306,0.944,-0.576,-3.4,-4.329
0.4,1649985014.9526088,1.8866108656,436.5158322401661,3891.3473626359746,0.916,-0.612,-3.491,-4.432
0.4,1649985014.9526088,1.8867772818,469.8941086052156,3865.44946598284,0.893,-0.638,-3.582,-4.533
0.4,1649985014.9526088,1.8869322538,505.82466200311427,3840.6081572581174,0.873,-0.663,-3.671,-4.632
0.4,1649985014.9526088,1.8870770931,544.5026528424214,3815.926491189337,0.853,-0.686,-3.757,-4.728
0.4,1649985014.9526088,1.8872122765,582.1032177708715,3792.276545253622,0.84,-0.701,-3.839,-4.82
0.4,1649985014.9526088,1.8872773647,601.1737374832779,3780.0713730181124,0.837,-0.703,-3.879,-4.865
0.4,1649985014.9526088,1.8872773647,59.1561634175474,4558.269515401941,2.023,0.853,-1.153,-1.858
0.4,1649985014.9526088,1.8883054256,60.953689724016904,4549.880601500485,2.002,0.827,-1.187,-1.895
0.4,1649985014.9526088,1.8883346319,59.70352865838369,4558.269515401941,2.014,0.843,-1.164,-1.869
0.4,1649985014.9526088,1.888363719,58.613816451402876,4565.622502022357,2.025,0.858,-1.141,-1.844
0.4,1649985014.9526088,1.8883965015,57.543993733715695,4571.934501781391,2.037,0.873,-1.12,-1.819
0.4,1649985014.9526088,1.8884292841,56.49369748123026,4579.3095315174405,2.05,0.889,-1.098,-1.795
0.4,1649985014.9526088,1.8884694576,55.46257129579107,4586.696457982016,2.062,0.904,-1.076,-1.771
0.4,1649985014.9526088,1.8885167837,54.450265284242114,4593.037592608176,2.074,0.919,-1.055,-1.748
0.4,1649985014.9526088,1.8885676861,53.57966575133417,4599.38749388997,2.086,0.935,-1.034,-1.724
0.4,1649985014.9526088,1.8886295557,52.60172663907063,4605.746173947351,2.098,0.949,-1.014,-1.702
0.4,1649985014.9526088,1.8886948824,51.760683195056764,4612.113644917027,2.11,0.964,-0.993,-1.679
0.4,1649985014.9526088,1.8887747526,50.81594425605605,4618.489918952487,2.121,0.978,-0.973,-1.656
0.4,1649985014.9526088,1.8888581991,50.003453497697855,4624.875008224019,2.134,0.993,-0.953,-1.634
0.4,1649985014.9526088,1.8889535666,49.31738039549359,4629.136637776056,2.143,1.005,-0.936,-1.616
0.4,1649985014.9526088,1.8889834881,49.09078761526032,4631.268924918746,2.146,1.009,-0.931,-1.61
0.4,1649985014.9526088,1.8891426325,48.19477976251274,4637.671681240619,2.158,1.024,-0.911,-1.588
0.4,1649985014.9526088,1.8893448114,47.315125896148054,4644.083289410481,2.172,1.041,-0.888,-1.562
0.4,1649985014.9526088,1.889608264,46.238102139926035,4651.574703021666,2.188,1.059,-0.863,-1.534
0.4,1649985014.9526088,1.8899627924,45.28975799036207,4660.151117021843,2.203,1.078,-0.836,-1.505
0.4,1649985014.9526088,1.8905662298,44.05548635065532,4669.818485578366,2.222,1.102,-0.803,-1.469
0.4,1649985014.9526088,1.8913027048,42.95364267648873,4678.428536839501,2.24,1.124,-0.774,-1.437
0.4,1649985014.9526088,1.8923916817,41.78303666466218,4688.13382145265,2.26,1.149,-0.741,-1.4
0.4,1649985014.9526088,1.8939721584,40.364539296760505,4701.105526734309,2.283,1.177,-0.702,-1.357
0.4,1649985014.9526088,1.8961726427,38.63669770540692,4716.284552998378,2.315,1.216,-0.65,-1.3
0.4,1649985014.9526088,1.8990888596,36.643757464783334,4736.963081746328,2.353,1.263,-0.585,-1.228
0.4,1649985014.9526088,1.9006537199,35.80964371026361,4745.696931912426,2.369,1.282,-0.559,-1.199
0.4,1649985014.9526088,1.9031502008,37.67037989839089,4729.334149186516,2.331,1.237,-0.618,-1.263
0.4,1649985014.9526088,1.9093331099,36.72823004980846,4739.145036236972,2.347,1.258,-0.589,-1.231
0.4,1649985014.9526088,1.9137656689,36.224299841669854,4745.696931912426,2.356,1.27,-0.571,-1.211
0.4,1649985014.9526088,1.9147778749,36.14098626396133,4747.882909415973,2.356,1.27,-0.569,-1.209
0.4,1649985014.9526088,1.9367213249,37.23917062545685,4762.116327398207,2.311,1.231,-0.596,-1.231
0.4,1649985014.9526088,1.938326478,37.32501577957206,4762.116327398207,2.307,1.227,-0.6,-1.234
0.4,1649985014.9526088,1.9632310867,40.926065973001094,4762.116327398207,2.208,1.127,-0.7,-1.334
0.4,1649985014.9526088,1.9874477386,46.238102139926035,4743.511960856962,2.093,1.004,-0.839,-1.479
0.4,1649985014.9526088,1.9941251278,48.5288500162121,4732.602186090037,2.053,0.958,-0.893,-1.537
0.4,1649985014.9526088,1.9979103804,51.16818355403078,4715.198713364481,2.014,0.911,-0.955,-1.604
0.4,1649985014.9526088,2.0007884502,52.36004365857503,4710.8578542037,1.993,0.889,-0.98,-1.631
0.4,1649985014.9526088,2.0048196316,56.36376558259543,4682.739513736003,1.941,0.825,-1.068,-1.729
0.4,1649985014.9526088,2.0064291954,62.51726927756859,4641.945102393461,1.871,0.736,-1.193,-1.868
0.4,1649985014.9526088,2.0070796013,68.54882264526617,4606.806808300934,1.809,0.659,-1.302,-1.989
0.4,1649985014.9526088,2.0074591637,75.16228940182053,4570.881896148751,1.752,0.581,-1.412,-2.111
0.4,1649985014.9526088,2.0077095032,83.94599865193973,4531.0619497855805,1.688,0.492,-1.542,-2.255
0.4,1649985014.9526088,2.0078344345,93.75620069258802,4491.588901059318,1.623,0.402,-1.673,-2.399
0.4,1649985014.9526088,2.0078940392,102.5651926251408,4458.615279480707,1.57,0.328,-1.781,-2.519
0.4,1649985014.9526088,2.0079357624,113.24003632355566,4423.845998088853,1.514,0.249,-1.898,-2.648
0.4,1649985014.9526088,2.0079450607,116.41260294104909,4414.687837052633,1.5,0.228,-1.929,-2.682
0.4,1649985014.9526088,2.0079715252,125.60299636948754,4388.337287003648,1.456,0.167,-2.019,-2.782
0.4,1649985014.9526088,2.0079958439,132.1295634186575,4370.186790706132,1.428,0.127,-2.079,-2.848
0.4,1649985014.9526088,2.008020401,137.4041975012515,4356.121655464697,1.406,0.096,-2.125,-2.899
0.4,1649985014.9526088,2.0080721378,138.3566378971781,4355.118736855684,1.403,0.092,-2.132,-2.907
0.4,1649985014.9526088,2.0081169605,132.1295634186575,4370.186790706132,1.427,0.126,-2.079,-2.848
0.4,1649985014.9526088,2.008202076,123.8796586530369,4393.3924564447625,1.464,0.178,-2.002,-2.762
0.4,1649985014.9526088,2.0084376335,118.30415557251646,4409.608164506378,1.488,0.213,-1.949,-2.704
0.4,1649985014.9526088,2.0103394985,126.4736347471151,4388.337287003648,1.449,0.16,-2.026,-2.788
0.4,1649985014.9526088,2.0117185116,139.31568029453035,4356.121655464697,1.394,0.084,-2.139,-2.913
0.4,1649985014.9526088,2.0126655102,154.88166189124811,4319.1670367104325,1.336,0.002,-2.264,-3.051
0.4,1649985014.9526088,2.0132791996,171.0015315090288,4285.485203974396,1.282,-0.075,-2.381,-3.18
0.4,1649985014.9526088,2.0137395859,187.93168168032685,4252.06602972015,1.23,-0.151,-2.491,-3.3
0.4,1649985014.9526088,2.0141091347,206.53801558105292,4220.8507917988445,1.179,-0.223,-2.599,-3.417
0.4,1649985014.9526088,2.0144205093,225.94357702209783,4188.900070027829,1.129,-0.293,-2.705,-3.532
0.4,1649985014.9526088,2.0146903992,247.1724145016129,4158.148545615802,1.079,-0.361,-2.809,-3.647
0.4,1649985014.9526088,2.0149273872,270.3958364108843,4128.573303779981,1.029,-0.425,-2.912,-3.759
0.4,1649985014.9526088,2.0151343346,295.1209226666387,4098.264649809825,0.98,-0.488,-3.013,-3.871
0.4,1649985014.9526088,2.0153100491,321.3660538640318,4068.178497521943,0.933,-0.549,-3.112,-3.981
0.4,1649985014.9526088,2.015453577,348.33731503601166,4040.1733537300024,0.887,-0.603,-3.208,-4.086
0.4,1649985014.9526088,2.0155682564,377.572190925416,4012.360995991895,0.842,-0.657,-3.302,-4.191
0.4,1649985014.9526088,2.0156517029,405.5085354483839,3986.5755604057836,0.806,-0.702,-3.385,-4.284
0.4,1649985014.9526088,2.0157239437,435.51187368556833,3961.8679837032632,0.78,-0.737,-3.47,-4.379
0.4,1649985014.9526088,2.0157868862,467.73514128719813,3937.313537008506,0.754,-0.77,-3.554,-4.474
0.4,1649985014.9526088,2.0158495903,504.6612975635282,3910.2092612681363,0.728,-0.805,-3.646,-4.578
0.4,1649985014.9526088,2.0159044266,543.250331492433,3883.291570049549,0.706,-0.834,-3.734,-4.677
0.4,1649985014.9526088,2.0159618855,588.843655355589,3853.8960821181918,0.686,-0.857,-3.831,-4.786
0.4,1649985014.9526088,2.0160286427,648.6344335482381,3819.442708400464,0.662,-0.887,-3.948,-4.918
0.4,1649985014.9526088,2.0160844326,706.3175542629623,3788.785337484371,0.648,-0.903,-4.049,-5.031
0.4,1649985014.9526088,2.0161421299,769.1304402866099,3757.508744904872,0.643,-0.906,-4.154,-5.148
0.4,1649985014.9526088,2.0162119865,851.1380382023768,3719.632211619559,0.637,-0.91,-4.278,-5.289
0.4,1649985014.9526088,2.0162703991,924.698173938223,3688.0771722615455,0.648,-0.89,-4.381,-5.404
0.4,1649985014.9526088,2.016330719,1006.9316688518045,3656.789826173249,0.665,-0.864,-4.484,-5.519
0.4,1649985014.9526088,2.0164072514,1114.2945335917304,3618.2619073242986,0.696,-0.82,-4.611,-5.662
0.4,1649985014.9526088,2.0164854527,1233.1048332289097,3578.49158264176,0.747,-0.75,-4.737,-5.804
0.4,1649985014.9526088,2.0165634155,1361.4446824659497,3540.788613684981,0.803,-0.673,-4.859,-5.941
0.4,1649985014.9526088,2.0166416168,1499.684835502374,3502.6762691381296,0.883,-0.57,-4.98,-6.077
0.4,1649985014.9526088,2.0167155266,1667.2472125510626,3459.3937782612206,0.985,-0.438,-5.114,-6.229
0.4,1649985014.9526088,2.0167393684,1717.9083871575876,3446.6723487178924,1.024,-0.39,-5.153,-6.273
0.4,1649985014.9526088,2.0167491436,1741.8068733916145,3441.1214439609093,1.04,-0.371,-5.168,-6.291
0.4,1649985014.9526088,2.0167500973,1729.8163592151016,3444.292293943154,1.031,-0.382,-5.16,-6.281
0.4,1649985014.9526088,2.0167510509,1713.9573075084252,3447.4660657314944,1.021,-0.394,-5.15,-6.27
0.4,1649985014.9526088,2.0167534351,1733.8039977541375,3442.7065038944434,1.035,-0.377,-5.163,-6.285
0.4,1649985014.9526088,2.0167551041,1753.880501841762,3437.953513094916,1.051,-0.357,-5.178,-6.302
0.4,1649985014.9526088,2.0167572498,1778.2794100389228,3432.416650121203,1.068,-0.335,-5.195,-6.321
0.4,1649985014.9526088,2.0167605877,1803.017740859568,3425.3109270831965,1.09,-0.309,-5.214,-6.343
0.4,1649985014.9526088,2.0167655945,1840.7720014689564,3417.4329305629954,1.116,-0.276,-5.239,-6.371
0.4,1649985014.9526088,2.0167725086,1853.5316234148106,3413.5007294931106,1.127,-0.263,-5.249,-6.383
0.4,1649985014.9526088,2.016916275,2466.0393372343387,3294.579562412821,1.612,0.337,-5.607,-6.795
0.4,1649985014.9526088,2.0169167519,2466.0393372343387,3250.124518861833,1.94,0.748,-5.622,-6.833
0.4,1649985014.9526088,2.0169172287,1244.5146117713857,3539.9734108343464,0.893,-0.574,-4.763,-5.846
0.4,1649985014.9526088,2.0169174671,1114.2945335917304,3585.9150751717484,0.819,-0.672,-4.624,-5.688
0.4,1649985014.9526088,2.0169181824,657.6578373554206,3810.65823393773,0.666,-0.884,-3.966,-4.938
0.4,1649985014.9526088,2.0169196129,669.8846094165265,3801.0186455476655,0.67,-0.88,-3.989,-4.966
0.4,1649985014.9526088,2.0169215202,843.3347577642757,3698.281797802663,0.712,-0.823,-4.276,-5.296
0.4,1649985014.9526088,2.0169239044,1233.1048332289097,3535.90021100387,0.924,-0.538,-4.754,-5.839
0.4,1649985014.9526088,2.0169270039,1757.923613958693,3389.221868727554,1.313,-0.046,-5.2,-6.345
0.4,1649985014.9526088,2.0169305801,2238.72113856834,3290.788720121735,1.723,0.465,-5.503,-6.693
0.4,1649985014.9526088,2.0169346333,2552.701302661247,3236.6817570165304,2.013,0.843,-5.664,-6.882
0.4,1649985014.9526088,2.0169394016,2703.9583641088434,3209.223768048436,2.135,0.989,-5.737,-6.968
0.4,1649985014.9526088,2.0169448853,2792.543841237339,3191.5378551007616,2.221,1.093,-5.778,-7.018
0.4,1649985014.9526088,2.0169451237,1713.9573075084252,3377.5361033186905,1.411,0.068,-5.177,-6.327
0.4,1649985014.9526088,2.0169456005,1276.4388088113435,3494.6203372688556,1.081,-0.347,-4.81,-5.911
0.4,1649985014.9526088,2.0169465542,753.355563733717,3714.496897976222,0.775,-0.759,-4.147,-5.16
0.4,1649985014.9526088,2.0169477463,765.5966069112561,3706.80721782576,0.782,-0.749,-4.168,-5.184
0.4,1649985014.9526088,2.016949892,961.6122783836648,3609.940135864167,0.875,-0.619,-4.452,-5.507
0.4,1649985014.9526088,2.0169522762,1396.3683610559376,3455.413295778485,1.183,-0.218,-4.922,-6.039
0.4,1649985014.9526088,2.0169553757,1972.4227361148535,3317.416496945389,1.659,0.372,-5.355,-6.534
0.4,1649985014.9526088,2.0169591904,2500.345361696432,3225.52193768908,2.104,0.949,-5.646,-6.869
0.4,1649985014.9526088,2.0169634819,2831.391995799379,3176.8740706497692,2.301,1.187,-5.797,-7.044
0.4,1649985014.9526088,2.0169682503,2985.3826189179604,3155.0046233746275,2.39,1.288,-5.861,-7.119
0.4,1649985014.9526088,2.0169739723,3061.963433690679,3144.126420258796,2.436,1.335,-5.891,-7.156
0.4,1649985014.9526088,2.0169742107,1901.0782799232995,3326.5955329400435,1.637,0.343,-5.309,-6.484
0.4,1649985014.9526088,2.0169746876,1419.0575216890927,3442.7065038944434,1.233,-0.158,-4.945,-6.067
0.4,1649985014.9526088,2.0169756413,835.6030182312483,3665.219597323419,0.825,-0.69,-4.279,-5.312
0.4,1649985014.9526088,2.0169770718,849.1804750363135,3658.474227939712,0.83,-0.684,-4.298,-5.334
0.4,1649985014.9526088,2.0169789791,1061.6955571987241,3563.6906696823603,0.955,-0.514,-4.579,-5.652
0.4,1649985014.9526088,2.0169816017,1531.0874616820304,3412.7148323868673,1.321,-0.047,-5.041,-6.176
0.4,1649985014.9526088,2.0169847012,2152.781734724374,3277.932453002282,1.856,0.626,-5.464,-6.661
0.4,1649985014.9526088,2.0169885159,2710.1916318908416,3190.0684359752117,2.256,1.132,-5.746,-6.987
0.4,1649985014.9526088,2.0169930458,3054.9211132155124,3145.5746774318936,2.429,1.328,-5.889,-7.153
0.4,1649985014.9526088,2.016998291,3206.2693245054643,3128.2395322577386,2.498,1.396,-5.945,-7.22
0.4,1649985014.9526088,2.0170040131,3273.406948788383,3121.763510848167,2.521,1.42,-5.969,-7.247
0.4,1649985014.9526088,2.0170042515,2060.6299132700005,3299.8940791083483,1.738,0.472,-5.409,-6.595
0.4,1649985014.9526088,2.0170047283,1541.70045294956,3416.6461281382244,1.293,-0.079,-5.047,-6.181
0.4,1649985014.9526088,2.017005682,909.9132726322517,3639.9884030888024,0.82,-0.69,-4.382,-5.425
0.4,1649985014.9526088,2.0170071125,926.8298233793495,3632.4529689937044,0.827,-0.681,-4.402,-5.448
0.4,1649985014.9526088,2.0170092583,1156.1122421920993,3536.7144758575937,0.983,-0.474,-4.682,-5.766
0.4,1649985014.9526088,2.0170118809,1659.5869074375614,3386.101717130323,1.39,0.04,-5.14,-6.287
0.4,1649985014.9526088,2.0170152187,2328.091257665008,3250.872973854344,1.986,0.798,-5.559,-6.769
0.4,1649985014.9526088,2.0170190334,2930.8932452503213,3162.2776601683795,2.366,1.265,-5.838,-7.093
0.4,1649985014.9526088,2.0170238018,3303.6954103681487,3116.7358754452835,2.547,1.446,-5.981,-7.262
0.4,1649985014.9526088,2.017029047,3467.368504525317,3097.419299216581,2.625,1.525,-6.04,-7.332
0.4,1649985014.9526088,2.0170350075,3548.133892335753,3088.8726265127525,2.658,1.557,-6.067,-7.365
0.4,1649985014.9526088,2.0170352459,2280.3420720004187,3260.6185877894,1.931,0.727,-5.532,-6.737
0.4,1649985014.9526088,2.0170357227,1706.0823890031243,3376.758486420327,1.419,0.077,-5.174,-6.324
0.4,1649985014.9526088,2.0170366764,1009.2528860766844,3599.979270433565,0.864,-0.629,-4.509,-5.568
0.4,1649985014.9526088,2.0170383453,1025.651926251408,3593.3539675538973,0.876,-0.613,-4.529,-5.591
0.4,1649985014.9526088,2.0170404911,1273.5030810166616,3498.6459845201675,1.063,-0.37,-4.804,-5.904
0.4,1649985014.9526088,2.0170433521,1819.7008586099826,3349.654391578276,1.529,0.211,-5.253,-6.416
0.4,1649985014.9526088,2.01704669,2535.128630497907,3216.6217928790406,2.148,1.0,-5.662,-6.89
0.4,1649985014.9526088,2.0170507431,3169.56746304349,3128.959918963571,2.501,1.401,-5.934,-7.207
0.4,1649985014.9526088,2.0170557499,3556.3131856898544,3083.8979622506845,2.676,1.568,-6.071,-7.371
0.4,1649985014.9526088,2.0170612335,3732.5015779572063,3065.490679425787,2.716,1.58,-6.127,-7.438
0.4,1649985014.9526088,2.0170674324,3810.65823393773,3057.032106987659,2.734,1.585,-6.151,-7.467
0.4,1649985014.9526088,2.0170676708,2494.5947269429535,3221.810555177115,2.131,0.979,-5.643,-6.869
0.4,1649985014.9526088,2.0170681477,1870.6821403657998,3337.3365130514867,1.582,0.276,-5.29,-6.459
0.4,1649985014.9526088,2.0170691013,1109.174815262401,3559.59018006083,0.928,-0.544,-4.628,-5.703
0.4,1649985014.9526088,2.0170707703,1127.1974561755105,3553.0392081527184,0.939,-0.529,-4.648,-5.726
0.4,1649985014.9526088,2.017072916,1396.3683610559376,3460.190424829487,1.159,-0.248,-4.92,-6.035
0.4,1649985014.9526088,2.0170755386,1981.527025805099,3313.599377790872,1.68,0.395,-5.36,-6.54
0.4,1649985014.9526088,2.0170788765,2741.5741719278835,3182.7314821707823,2.292,1.173,-5.76,-7.004
0.4,1649985014.9526088,2.0170829296,3419.794425137087,3096.7061741707726,2.644,1.545,-6.024,-7.317
0.4,1649985014.9526088,2.017087698,3837.0724549227884,3052.8115771626694,2.749,1.594,-6.159,-7.478
0.4,1649985014.9526088,2.0170931816,4017.9081084894,3034.5898438888025,2.789,1.605,-6.214,-7.545
0.4,1649985014.9526088,2.0170993805,4111.497211045221,3026.216535763348,2.807,1.61,-6.24,-7.575
0.4,1649985014.9526088,2.0170996189,2741.5741719278835,3182.7314821707823,2.292,1.173,-5.76,-7.005
0.4,1649985014.9526088,2.0171000957,2065.3801558105292,3297.6153801591913,1.752,0.489,-5.411,-6.599
0.4,1649985014.9526088,2.0171012878,1221.7996601648722,3520.4647488942164,1.003,-0.446,-4.751,-5.842
0.4,1649985014.9526088,2.0171029568,1241.6523075924106,3514.7950006430638,1.018,-0.427,-4.769,-5.863
0.4,1649985014.9526088,2.0171051025,1527.5660582380733,3424.5223108915197,1.262,-0.118,-5.034,-6.164
0.4,1649985014.9526088,2.017108202,2147.8304741305333,3280.9529311311903,1.835,0.598,-5.461,-6.656
0.4,1649985014.9526088,2.0171117783,2944.4216337987605,3153.5520245507173,2.411,1.31,-5.848,-7.107
0.4,1649985014.9526088,2.0171160698,3647.5394692560767,3070.4356507300654,2.715,1.587,-6.1,-7.408
0.4,1649985014.9526088,2.017121315,4055.085354483839,3029.0050681662174,2.804,1.612,-6.226,-7.559
0.4,1649985014.9526088,2.017127037,4226.686142656029,3013.699874341145,2.832,1.617,-6.274,-7.616
0.4,1649985014.9526088,2.0171337128,4295.364267648873,3008.153543944214,2.839,1.615,-6.292,-7.637
0.4,1649985014.9526088,2.0171339512,2930.8932452503213,3157.1847762703,2.394,1.292,-5.842,-7.099
0.4,1649985014.9526088,2.017134428,2213.094709605639,3271.899836231792,1.876,0.652,-5.497,-6.697
0.4,1649985014.9526088,2.0171353817,1315.224832192239,3495.425095985996,1.049,-0.385,-4.84,-5.941
0.4,1649985014.9526088,2.0171370506,1333.521432163324,3488.9922117346073,1.066,-0.364,-4.859,-5.963
0.4,1649985014.9526088,2.0171394348,1636.8165214278085,3398.599584656671,1.334,-0.028,-5.12,-6.261
0.4,1649985014.9526088,2.0171422958,2285.59880337543,3256.8668220166983,1.961,0.763,-5.538,-6.745
0.4,1649985014.9526088,2.0171458721,3118.8895840939385,3129.6804715636677,2.512,1.412,-5.915,-7.188
0.4,1649985014.9526088,2.0171499252,3845.9178204535356,3046.491705257325,2.775,1.611,-6.162,-7.484
0.4,1649985014.9526088,2.017154932,4275.62886151586,3004.0004957242286,2.858,1.63,-6.287,-7.634
0.4,1649985014.9526088,2.0171606541,4456.562483975033,2986.75775503349,2.887,1.631,-6.337,-7.692
0.4,1649985014.9526088,2.0171670914,4539.416166502032,2978.5164294291912,2.902,1.634,-6.357,-7.717
0.4,1649985014.9526088,2.0171673298,3169.56746304349,3118.8895840939385,2.567,1.468,-5.935,-7.214
0.4,1649985014.9526088,2.0171678066,2398.83291901949,3232.9575336809407,2.098,0.937,-5.597,-6.817
0.4,1649985014.9526088,2.0171689987,1425.607593602188,3456.209025701263,1.162,-0.244,-4.945,-6.063
0.4,1649985014.9526088,2.0171706676,1448.7718535447616,3449.0540481442044,1.183,-0.218,-4.964,-6.084
0.4,1649985014.9526088,2.0171730518,1770.108958317422,3360.4698246069956,1.489,0.16,-5.219,-6.377
0.4,1649985014.9526088,2.0171759129,2449.0632418447444,3221.810555177115,2.147,0.996,-5.625,-6.85
0.4,1649985014.9526088,2.0171797276,3318.944575526103,3097.419299216581,2.664,1.566,-5.991,-7.283
0.4,1649985014.9526088,2.0171842575,4064.4332916521275,3016.4768731622175,2.856,1.647,-6.23,-7.57
0.4,1649985014.9526088,2.0171895027,4508.167045414601,2975.089258880875,2.918,1.646,-6.351,-7.713
0.4,1649985014.9526088,2.0171954632,4698.941086052156,2958.6936525140045,2.945,1.647,-6.399,-7.77
0.4,1649985014.9526088,2.0172021389,4775.2927365769065,2951.8888459446066,2.958,1.648,-6.418,-7.794
0.4,1649985014.9526088,2.0172023773,3411.9291162192844,3083.1879502493534,2.716,1.609,-6.026,-7.326
0.4,1649985014.9526088,2.0172028542,2594.179362118815,3196.686154267323,2.258,1.129,-5.694,-6.932
0.4,1649985014.9526088,2.0172038078,1545.254439538414,3419.794425137087,1.276,-0.103,-5.048,-6.18
0.4,1649985014.9526088,2.0172054768,1566.7510701081485,3413.5007294931106,1.297,-0.077,-5.066,-6.201
0.4,1649985014.9526088,2.0172078609,1905.4607179632462,3326.5955329400435,1.634,0.336,-5.313,-6.487
0.4,1649985014.9526088,2.017210722,2618.1830082189863,3190.8030609514212,2.285,1.16,-5.706,-6.947
0.4,1649985014.9526088,2.0172142982,3507.5187395256794,3069.728738183665,2.751,1.625,-6.058,-7.366
0.4,1649985014.9526088,2.0172183514,4265.795188015925,2990.198367170568,2.908,1.661,-6.289,-7.642
0.4,1649985014.9526088,2.0172233582,4709.77326396953,2950.5297638582715,2.971,1.662,-6.404,-7.78
0.4,1649985014.9526088,2.0172290802,4886.523593428336,2934.945222269793,2.99,1.659,-6.448,-7.831
0.4,1649985014.9526088,2.0172355175,4954.5019080479005,2928.195035574271,2.999,1.66,-6.464,-7.851
0.4,1649985014.9526088,2.0172357559,3630.780547701014,3051.4060291410433,2.8,1.646,-6.1,-7.419
0.4,1649985014.9526088,2.0172362328,2766.9416454115126,3163.73427822138,2.409,1.309,-5.776,-7.03
0.4,1649985014.9526088,2.0172374249,1655.7699634695275,3386.881485634765,1.39,0.037,-5.136,-6.283
0.4,1649985014.9526088,2.0172390938,1678.8040181225606,3379.8700286198914,1.418,0.071,-5.155,-6.305
0.4,1649985014.9526088,2.017241478,2041.7379446695295,3293.821044764936,1.792,0.536,-5.399,-6.589
0.4,1649985014.9526088,2.017244339,2786.1211686297693,3160.0939904479483,2.425,1.327,-5.784,-7.039
0.4,1649985014.9526088,2.0172479153,3715.352290971724,3040.88502567628,2.828,1.659,-6.126,-7.451
0.4,1649985014.9526088,2.0172524452,4508.167045414601,2962.1019360527644,2.966,1.676,-6.354,-7.723
0.4,1649985014.9526088,2.017257452,4977.37084978936,2922.13314244037,3.016,1.669,-6.47,-7.86
0.4,1649985014.9526088,2.0172634125,5188.000389289609,2905.3603143031482,3.035,1.665,-6.518,-7.916
0.4,1649985014.9526088,2.0172700882,5284.452517751803,2897.3435877013244,3.045,1.664,-6.539,-7.942
0.4,1649985014.9526088,2.0172703266,3962.7803425543934,3011.6188030788244,2.894,1.68,-6.204,-7.547
0.4,1649985014.9526088,2.0172708035,3026.913428101305,3123.2014671492143,2.58,1.482,-5.885,-7.162
0.4,1649985014.9526088,2.0172717571,1819.7008586099826,3345.8001785330107,1.559,0.243,-5.255,-6.42
0.4,1649985014.9526088,2.0172734261,1840.7720014689564,3339.6426598662515,1.584,0.273,-5.27,-6.438
0.4,1649985014.9526088,2.0172755718,2223.309890651403,3255.3673247163633,1.998,0.803,-5.506,-6.714
0.4,1649985014.9526088,2.0172781944,2999.16251898765,3124.640085806112,2.578,1.48,-5.874,-7.15
0.4,1649985014.9526088,2.0172817707,3953.666200681279,3008.153543944214,2.907,1.69,-6.202,-7.546
0.4,1649985014.9526088,2.0172858238,4764.309868054156,2932.2432823031154,3.021,1.69,-6.419,-7.803
0.4,1649985014.9526088,2.0172905922,5223.9618899911975,2893.343523391501,3.068,1.682,-6.527,-7.932
0.4,1649985014.9526088,2.0172960758,5407.5432294558095,2878.0610364895265,3.08,1.679,-6.569,-7.981
0.4,1649985014.9526088,2.0173022747,5482.769649208536,2870.780582024692,3.084,1.68,-6.584,-7.999
0.4,1649985014.9526088,2.0173025131,4207.266283844442,2976.459653637275,2.97,1.706,-6.276,-7.636
0.4,1649985014.9526088,2.01730299,3221.0687912834346,3087.450475587445,2.749,1.65,-5.962,-7.26
0.4,1649985014.9526088,2.0173039436,1945.3600816226633,3309.0246319221333,1.733,0.454,-5.344,-6.526
0.4,1649985014.9526088,2.0173053741,1963.3602768360474,3304.4562019345226,1.755,0.482,-5.354,-6.538
0.4,1649985014.9526088,2.0173075199,2355.049283896009,3221.810555177115,2.185,1.036,-5.582,-6.807
0.4,1649985014.9526088,2.0173101425,3155.0046233746275,3093.855315451652,2.733,1.639,-5.937,-7.231
0.4,1649985014.9526088,2.0173134804,4120.975190973304,2979.8884028194198,2.974,1.717,-6.253,-7.611
0.4,1649985014.9526088,2.0173172951,4931.738039549359,2906.0293752636294,3.075,1.711,-6.461,-7.859
0.4,1649985014.9526088,2.0173220634,5382.697825162882,2868.798201821356,3.106,1.702,-6.564,-7.98
0.4,1649985014.9526088,2.0173273087,5559.042572704037,2854.3025137865798,3.111,1.699,-6.602,-8.023
0.4,1649985014.9526088,2.0173332691,5623.413251903491,2848.3935915323636,3.116,1.7,-6.615,-8.037
0.4,1649985014.9526088,2.0173335075,4405.548635065535,2945.7779023394583,3.041,1.732,-6.332,-7.709
0.4,1649985014.9526088,2.0173339844,3388.441561392024,3056.3282803659663,2.837,1.695,-6.023,-7.338
0.4,1649985014.9526088,2.017334938,2060.6299132700005,3277.177768051718,1.909,0.68,-5.416,-6.614
0.4,1649985014.9526088,2.0173363686,2070.1413487910413,3274.1607653757505,1.924,0.7,-5.423,-6.622
0.4,1649985014.9526088,2.0173385143,2477.4220576332864,3192.272818462188,2.329,1.206,-5.647,-6.887
0.4,1649985014.9526088,2.0173413754,3296.097121774576,3066.1966160107386,2.819,1.692,-5.992,-7.301
0.4,1649985014.9526088,2.0173447132,4285.485203974396,2953.928642960281,3.037,1.741,-6.299,-7.672
0.4,1649985014.9526088,2.0173485279,5105.049999754065,2881.3764348397,3.125,1.729,-6.502,-7.913
0.4,1649985014.9526088,2.0173532963,5571.857489319298,2844.4611074479167,3.133,1.717,-6.605,-8.029
0.4,1649985014.9526088,2.0173585415,5754.399373371566,2830.0883917879437,3.138,1.713,-6.643,-8.073
0.4,1649985014.9526088,2.0173647404,5834.451042737448,2824.229597144114,3.14,1.713,-6.658,-8.09
0.4,1649985014.9526088,2.0173649788,4677.351412871981,2914.070134770806,3.093,1.743,-6.403,-7.795
0.4,1649985014.9526088,2.0173654556,3605.7864302164235,3024.126821283228,2.925,1.735,-6.098,-7.433
0.4,1649985014.9526088,2.0173661709,2202.9264630534562,3244.8901566053664,2.092,0.915,-5.502,-6.716
0.4,1649985014.9526088,2.0173676014,2208.004733018899,3243.3961734934933,2.099,0.924,-5.504,-6.719
0.4,1649985014.9526088,2.0173695087,2630.2679918953813,3162.2776601683795,2.468,1.371,-5.722,-6.977
0.4,1649985014.9526088,2.0173721313,3467.368504525317,3038.785182061179,2.896,1.728,-6.053,-7.378
0.4,1649985014.9526088,2.0173749924,4466.835921509631,2928.8693550290154,3.086,1.756,-6.349,-7.734
0.4,1649985014.9526088,2.0173788071,5284.452517751803,2857.5905433749467,3.151,1.743,-6.545,-7.964
0.4,1649985014.9526088,2.0173828602,5741.164622073275,2821.629583090804,3.162,1.734,-6.641,-8.073
0.4,1649985014.9526088,2.017387867,5915.616341754737,2807.3722323436496,3.17,1.738,-6.676,-8.114
0.4,1649985014.9526088,2.0173933506,5970.352865838366,2801.5604642568937,3.177,1.744,-6.688,-8.128
0.4,1649985014.9526088,2.017393589,4897.7881936844615,2883.367506780263,3.154,1.764,-6.457,-7.866
0.4,1649985014.9526088,2.0173940659,3784.425847170932,2993.642942739855,3.001,1.767,-6.157,-7.508
0.4,1649985014.9526088,2.0173947811,2328.091257665008,3212.1809339879856,2.259,1.118,-5.573,-6.803
0.4,1649985014.9526088,2.0173962116,2328.091257665008,3212.1809339879856,2.263,1.122,-5.572,-6.802
0.4,1649985014.9526088,2.017398119,2766.9416454115126,3130.401190096238,2.616,1.521,-5.786,-7.058
0.4,1649985014.9526088,2.0174007416,3630.780547701014,3007.460970731941,2.986,1.773,-6.108,-7.452
0.4,1649985014.9526088,2.017403841,4645.152752227492,2898.010802529753,3.151,1.782,-6.398,-7.798
0.4,1649985014.9526088,2.0174074173,5482.769649208536,2826.181179810158,3.192,1.769,-6.59,-8.02
0.4,1649985014.9526088,2.0174117088,5956.621435290103,2789.330656339983,3.211,1.778,-6.686,-8.13
0.4,1649985014.9526088,2.0174167156,6151.7687270986835,2773.320104651841,3.23,1.791,-6.724,-8.174
0.4,1649985014.9526088,2.0174221992,6223.002851691595,2765.03096983568,3.243,1.802,-6.74,-8.194
0.4,1649985014.9526088,2.0174221992,5211.947111050806,2838.5725586841204,3.207,1.793,-6.534,-7.959
0.4,1649985014.9526088,2.0174226761,4045.7589169744288,2947.81347660652,3.111,1.811,-6.237,-7.613
0.4,1649985014.9526088,2.0174236298,2500.345361696432,3165.191567226265,2.5,1.403,-5.666,-6.92
0.4,1649985014.9526088,2.0174248219,2488.85731828239,3165.191567226265,2.5,1.403,-5.661,-6.915
0.4,1649985014.9526088,2.0174264908,2951.209226666387,3084.6081377571413,2.842,1.744,-5.867,-7.166
0.4,1649985014.9526088,2.017428875,3837.0724549227884,2962.7840637587915,3.1,1.824,-6.178,-7.544
0.4,1649985014.9526088,2.0174314976,4875.284901033865,2855.617271381299,3.228,1.825,-6.458,-7.876
0.4,1649985014.9526088,2.0174348354,5714.786366718672,2784.8384078050026,3.254,1.826,-6.642,-8.086
0.4,1649985014.9526088,2.0174386501,6180.164001384158,2747.8941531023975,3.294,1.854,-6.734,-8.194
0.4,1649985014.9526088,2.0174431801,6367.955209079156,2731.492422089182,3.31,1.871,-6.77,-8.236
0.4,1649985014.9526088,2.0174481869,6441.692655151775,2723.328305405342,3.32,1.883,-6.784,-8.253
0.4,1649985014.9526088,2.0174481869,5495.408738576249,2789.330656339983,3.273,1.849,-6.599,-8.04
0.4,1649985014.9526088,2.0174486637,4275.62886151586,2897.3435877013244,3.225,1.863,-6.307,-7.707
0.4,1649985014.9526088,2.0174496174,2660.7250597988086,3113.8665771825613,2.762,1.671,-5.746,-7.029
0.4,1649985014.9526088,2.0174508095,2636.3313858253787,3115.300895973758,2.759,1.668,-5.737,-7.018
0.4,1649985014.9526088,2.0174524784,3111.716337106017,3034.5898438888025,3.01,1.842,-5.936,-7.263
0.4,1649985014.9526088,2.0174546242,4017.9081084894,2914.741201472475,3.223,1.885,-6.236,-7.627
0.4,1649985014.9526088,2.0174574852,5058.246620031143,2808.665372767918,3.303,1.884,-6.506,-7.941
0.4,1649985014.9526088,2.0174605846,5888.43655355589,2739.050251286866,3.353,1.921,-6.684,-8.144
0.4,1649985014.9526088,2.0174643993,6353.309318517436,2703.3358263617747,3.376,1.948,-6.771,-8.245
0.4,1649985014.9526088,2.0174686909,6516.283940608428,2687.200056717113,3.389,1.967,-6.803,-8.282
0.4,1649985014.9526088,2.0174736977,6576.578373554205,2679.1683248190316,3.4,1.985,-6.815,-8.295
0.4,1649985014.9526088,2.0174736977,5714.786366718672,2738.4196342643613,3.382,1.953,-6.651,-8.111
0.4,1649985014.9526088,2.0174741745,4456.562483975033,2845.7713318638043,3.337,1.934,-6.362,-7.784
0.4,1649985014.9526088,2.0174751282,2792.543841237339,3060.5536720536616,2.998,1.87,-5.812,-7.124
0.4,1649985014.9526088,2.0174763203,2760.577856220345,3062.6685580037692,2.998,1.873,-5.8,-7.11
0.4,1649985014.9526088,2.0174779892,3250.872973854344,2981.947547925597,3.181,1.94,-5.993,-7.349
0.4,1649985014.9526088,2.017480135,4168.693834703355,2862.859270872121,3.351,1.962,-6.286,-7.7
0.4,1649985014.9526088,2.0174827576,5223.9618899911975,2757.401452346361,3.404,1.982,-6.549,-8.0
0.4,1649985014.9526088,2.017485857,6053.408747539136,2688.4378430645747,3.454,2.036,-6.722,-8.2
0.4,1649985014.9526088,2.0174894333,6516.283940608428,2652.161705507881,3.471,2.082,-6.808,-8.293
0.4,1649985014.9526088,2.0174937248,6698.846094165266,2636.3313858253787,3.484,2.109,-6.84,-8.33
0.4,1649985014.9526088,2.0174984932,6760.829753919818,2628.451694533876,3.495,2.124,-6.853,-8.344
0.4,1649985014.9526088,2.0174984932,5984.115950603199,2681.0196680906333,3.49,2.076,-6.71,-8.189
0.4,1649985014.9526088,2.01749897,4677.351412871981,2788.04641783178,3.429,2.014,-6.425,-7.864
0.4,1649985014.9526088,2.0174996853,2944.4216337987605,3002.6174208612674,3.205,1.993,-5.882,-7.227
0.4,1649985014.9526088,2.0175008774,2904.022654464451,3005.3842076633828,3.209,2.001,-5.867,-7.21
0.4,1649985014.9526088,2.0175025463,3411.9291162192844,2922.13314244037,3.361,2.038,-6.056,-7.442
0.4,1649985014.9526088,2.0175044537,4345.102241715715,2801.5604642568937,3.474,2.06,-6.341,-7.776
0.4,1649985014.9526088,2.0175068378,5395.1062251512785,2694.6353323504727,3.552,2.134,-6.597,-8.071
0.4,1649985014.9526088,2.0175099373,6223.002851691595,2622.4064233909444,3.581,2.217,-6.764,-8.255
0.4,1649985014.9526088,2.0175132751,6683.439175686149,2582.260190634596,3.577,2.207,-6.842,-8.342
0.4,1649985014.9526088,2.0175173283,6854.882264526614,2560.353906004206,3.579,2.197,-6.871,-8.375
0.4,1649985014.9526088,2.0175218582,6918.309709189362,2546.2438907576325,3.59,2.199,-6.882,-8.388
0.4,1649985014.9526088,2.0175218582,6223.002851691595,2591.7911346159462,3.639,2.275,-6.765,-8.263
0.4,1649985014.9526088,2.0175223351,4886.523593428336,2697.1183264949354,3.648,2.232,-6.487,-7.96
0.4,1649985014.9526088,2.0175230503,3090.295432513592,2910.046977837714,3.506,2.169,-5.953,-7.345
0.4,1649985014.9526088,2.0175242424,3040.88502567628,2911.3874126187557,3.52,2.184,-5.934,-7.325
0.4,1649985014.9526088,2.0175256729,3556.3131856898544,2823.5793691102995,3.628,2.219,-6.121,-7.549
0.4,1649985014.9526088,2.0175275803,4508.167045414601,2698.9820734720156,3.721,2.308,-6.399,-7.871
0.4,1649985014.9526088,2.0175299644,5571.857489319298,2586.4256583780043,3.748,2.388,-6.645,-8.142
0.4,1649985014.9526088,2.0175325871,6397.348354826482,2507.263624777119,3.706,2.302,-6.799,-8.31
0.4,1649985014.9526088,2.0175359249,6854.882264526614,2458.1025650893434,3.69,2.263,-6.876,-8.395
0.4,1649985014.9526088,2.0175397396,7030.723198838334,2426.0514117825314,3.704,2.266,-6.907,-8.431
0.4,1649985014.9526088,2.0175440311,7095.777679633888,2399.937876809879,3.731,2.284,-6.921,-8.449
0.4,1649985014.9526088,2.0175440311,6486.344335482381,2438.3722096838287,3.769,2.336,-6.819,-8.339
0.4,1649985014.9526088,2.017544508,5105.049999754065,2543.899793129798,3.89,2.511,-6.552,-8.055
0.4,1649985014.9526088,2.0175452232,3250.872973854344,2758.0364405972355,3.875,2.469,-6.035,-7.481
0.4,1649985014.9526088,2.0175461769,3184.1975217261256,2761.213575949454,3.89,2.484,-6.012,-7.458
0.4,1649985014.9526088,2.0175476074,3723.917062545687,2673.0064086633115,3.986,2.595,-6.196,-7.671
0.4,1649985014.9526088,2.0175495148,4677.351412871981,2546.8302525850418,3.981,2.603,-6.457,-7.96
0.4,1649985014.9526088,2.0175516605,5754.399373371566,2433.32433835825,3.904,2.47,-6.688,-8.21
0.4,1649985014.9526088,2.0175542831,6576.578373554205,2353.9649933074334,3.848,2.393,-6.842,-8.374
0.4,1649985014.9526088,2.017557621,7014.552984199714,2304.623574154819,3.789,2.332,-6.914,-8.447
0.4,1649985014.9526088,2.0175611973,7194.489780036998,2274.573630536195,3.763,2.306,-6.94,-8.474
0.4,1649985014.9526088,2.0175652504,7261.0595743515505,2251.645416744618,3.754,2.296,-6.949,-8.483
