FeH,Age,Mini,L,Te,Bmag,Vmag,Jmag,Kmag
-0.0,249999995.00797403,0.0900000036,0.000866961875758217,2446.808609695616,18.883,17.116,10.342,9.419
-0.0,249999995.00797403,0.0968116447,0.0010069316688518044,2507.263624777119,18.728,16.958,10.181,9.258
-0.0,249999995.00797403,0.1000000015,0.0010789467222298286,2537.4646458649645,18.656,16.884,10.106,9.184
-0.0,249999995.00797403,0.1074762642,0.0012445146117713857,2593.5820990111324,18.505,16.731,9.951,9.029
-0.0,249999995.00797403,0.1185088083,0.0015346169827992941,2682.2546076084946,17.852,16.111,9.75,8.827
-0.0,249999995.00797403,0.1200000048,0.0015739828644662198,2694.014941063669,17.75,16.015,9.726,8.802
-0.0,249999995.00797403,0.1242689937,0.0016749428760264382,2714.5634670227314,17.572,15.85,9.667,8.743
-0.0,249999995.00797403,0.1400000006,0.0020941124558508935,2789.9729974082666,16.93,15.253,9.45,8.529
-0.0,249999995.00797403,0.1549833268,0.0025176769277588545,2849.7056273411536,16.431,14.78,9.272,8.353
-0.0,249999995.00797403,0.1599999964,0.0026853444456585063,2868.798201821356,16.268,14.624,9.21,8.292
-0.0,249999995.00797403,0.1723393947,0.0030831879502493534,2908.707160207584,15.935,14.307,9.072,8.157
-0.0,249999995.00797403,0.200000003,0.004139996748197304,2990.198367170568,15.271,13.677,8.78,7.871
-0.0,249999995.00797403,0.25,0.006295061828571974,3105.989619905655,14.39,12.824,8.368,7.467
-0.0,249999995.00797403,0.3000000119,0.008974287945007481,3186.3978473281713,13.75,12.217,8.008,7.114
-0.0,249999995.00797403,0.3500000238,0.012416523075924113,3269.640468343053,13.165,11.662,7.68,6.791
-0.0,249999995.00797403,0.4000000358,0.017498466886246573,3359.69613691214,12.577,11.103,7.338,6.452
-0.0,249999995.00797403,0.4500000179,0.024717241450161305,3470.5635400798756,11.975,10.531,6.999,6.113
-0.0,249999995.00797403,0.5,0.03483373150360118,3593.3539675538973,11.39,9.969,6.665,5.781
-0.0,249999995.00797403,0.548713088,0.04830588020397726,3730.783093184723,10.823,9.419,6.353,5.474
-0.0,249999995.00797403,0.5500000119,0.04875284901033863,3735.0807894306217,10.807,9.404,6.345,5.465
-0.0,249999995.00797403,0.5949043036,0.06807693586937413,3918.3208939411097,10.2,8.827,6.038,5.172
-0.0,249999995.00797403,0.6000000238,0.0706317554262962,3939.1271544686583,10.135,8.767,6.004,5.14
-0.0,249999995.00797403,0.6499999762,0.10162486928706957,4185.043726669273,9.439,8.145,5.67,4.844
-0.0,249999995.00797403,0.6976687312,0.14190575216890922,4440.174108068949,8.741,7.557,5.371,4.611
-0.0,249999995.00797403,0.7000000477,0.14421153515248689,4452.459727917414,8.707,7.529,5.357,4.601
-0.0,249999995.00797403,0.733294487,0.1807174126010927,4635.536446198508,8.229,7.14,5.163,4.47
-0.0,249999995.00797403,0.75,0.20137242498623883,4735.872481253356,7.995,6.953,5.075,4.418
-0.0,249999995.00797403,0.8000000119,0.2710191631890843,4959.067275049038,7.453,6.502,4.817,4.232
-0.0,249999995.00797403,0.8500000238,0.3589219346450052,5178.452536000238,6.973,6.1,4.577,4.055
-0.0,249999995.00797403,0.8999999762,0.4688133821452652,5385.177219975279,6.551,5.744,4.353,3.883
-0.0,249999995.00797403,0.9500000477,0.6039486293763798,5575.7077217879405,6.164,5.418,4.142,3.716
-0.0,249999995.00797403,1.0,0.7744617978025188,5758.375744868389,5.8,5.112,3.933,3.545
-0.0,249999995.00797403,1.0499999523,0.9840111057611337,5927.88814195578,5.463,4.83,3.737,3.382
-0.0,249999995.00797403,1.1000000238,1.2359474334445104,6085.552311808156,5.15,4.566,3.548,3.223
-0.0,249999995.00797403,1.126388669,1.3867558288718884,6164.530419598767,4.995,4.435,3.452,3.139
-0.0,249999995.00797403,1.1499999762,1.53108746168203,6233.041235019454,4.86,4.321,3.368,3.067
-0.0,249999995.00797403,1.2000000477,1.8879913490962936,6376.758944326096,4.583,4.086,3.193,2.916
-0.0,249999995.00797403,1.25,2.3014418174085085,6519.285491340651,4.323,3.864,3.029,2.773
-0.0,249999995.00797403,1.2999999523,2.7797132677592886,6657.328693784393,4.08,3.654,2.872,2.636
-0.0,249999995.00797403,1.3500000238,3.318944575526104,6802.992622648603,3.849,3.455,2.729,2.513
-0.0,249999995.00797403,1.3999999762,3.926449353995998,6956.64753528352,3.63,3.266,2.597,2.402
-0.0,249999995.00797403,1.418538332,4.168693834703354,7021.016602403146,3.551,3.198,2.554,2.367
-0.0,249999995.00797403,1.4500000477,4.613175745603794,7130.171895014071,3.419,3.086,2.481,2.308
-0.0,249999995.00797403,1.5,5.382697825162883,7338.3766733353805,3.211,2.912,2.381,2.232
-0.0,249999995.00797403,1.5147974491,5.636376558259545,7406.277836681551,3.151,2.863,2.355,2.214
-0.0,249999995.00797403,1.5499999523,6.251726927756859,7568.328950209744,3.011,2.747,2.294,2.17
-0.0,249999995.00797403,1.6000000238,7.211074791828996,7796.505686758154,2.823,2.591,2.213,2.113
-0.0,249999995.00797403,1.6499999762,8.279421637123342,8016.78063387679,2.646,2.447,2.137,2.056
-0.0,249999995.00797403,1.7000000477,9.440608762859233,8226.2139388311,2.481,2.312,2.063,1.999
-0.0,249999995.00797403,1.7043370008,9.549925860214358,8243.279016759807,2.468,2.301,2.057,1.994
-0.0,249999995.00797403,1.75,10.715193052376065,8423.643914384016,2.328,2.188,1.991,1.94
-0.0,249999995.00797403,1.7999998331,12.078138351067803,8607.955238694602,2.188,2.073,1.92,1.88
-0.0,249999995.00797403,1.8273973465,12.882495516931343,8703.621573738194,2.115,2.013,1.881,1.846
-0.0,249999995.00797403,1.8500001431,13.583134465871542,8782.132798980061,2.059,1.965,1.85,1.819
-0.0,249999995.00797403,1.9000000954,15.240527537972914,8947.464830528048,1.939,1.864,1.78,1.757
-0.0,249999995.00797403,1.9500000477,17.02158508394951,9107.517197871564,1.826,1.767,1.71,1.695
-0.0,249999995.00797403,1.9792394638,18.113400926196025,9196.021966586175,1.763,1.713,1.67,1.658
-0.0,249999995.00797403,2.0,18.967059212111465,9259.765745612469,1.72,1.675,1.642,1.632
-0.0,249999995.00797403,2.0499999523,21.086281499332898,9410.224835267507,1.618,1.586,1.574,1.57
-0.0,249999995.00797403,2.0999999046,23.442288153199225,9558.725718846912,1.52,1.5,1.507,1.509
-0.0,249999995.00797403,2.1080980301,23.823194693586903,9580.760857350193,1.504,1.487,1.496,1.499
-0.0,249999995.00797403,2.1500000954,25.941793621188136,9698.397942067511,1.425,1.417,1.44,1.446
-0.0,249999995.00797403,2.2000000477,28.707805820246907,9835.580562269573,1.333,1.334,1.373,1.383
-0.0,249999995.00797403,2.2480676174,31.622776601683793,9965.520801347682,1.247,1.257,1.308,1.323
-0.0,249999995.00797403,2.25,31.6956746304349,9970.111150161652,1.244,1.254,1.306,1.321
-0.0,249999995.00797403,2.2999999523,34.99451670283573,10099.50294120319,1.156,1.174,1.238,1.257
-0.0,249999995.00797403,2.3285722733,36.982817978026624,10171.85123683214,1.106,1.128,1.2,1.22
-0.0,249999995.00797403,2.4000000954,42.36429660495411,10346.655758424375,0.983,1.015,1.102,1.128
-0.0,249999995.00797403,2.4216039181,44.157044735331255,10399.2016582906,0.947,0.982,1.073,1.1
-0.0,249999995.00797403,2.5242395401,53.456435939697165,10638.980184469834,0.777,0.823,0.934,0.967
-0.0,249999995.00797403,2.5999999046,61.517687270986805,10806.871811443105,0.652,0.706,0.829,0.867
-0.0,249999995.00797403,2.6158797741,63.24118513762193,10839.269140212038,0.626,0.681,0.807,0.845
-0.0,249999995.00797403,2.6980793476,73.45138681571152,10990.05839432522,0.489,0.55,0.687,0.729
-0.0,249999995.00797403,2.7642974854,82.7942163712334,11101.968736234778,0.376,0.442,0.586,0.631
-0.0,249999995.00797403,2.7999999523,88.30799004185627,11153.213095598532,0.315,0.383,0.53,0.576
-0.0,249999995.00797403,2.8302333355,93.3254300796991,11196.95673243458,0.263,0.333,0.483,0.53
-0.0,249999995.00797403,2.8937995434,104.47202192208003,11277.166693314717,0.152,0.225,0.381,0.429
-0.0,249999995.00797403,2.9521241188,115.87773561551262,11337.048381054106,0.048,0.124,0.283,0.332
-0.0,249999995.00797403,3.0,126.4736347471151,11368.417120933062,-0.042,0.035,0.196,0.247
-0.0,249999995.00797403,3.0055687428,127.64388088113435,11371.035097106495,-0.052,0.025,0.186,0.237
-0.0,249999995.00797403,3.0661351681,142.56075936021878,11381.513031995728,-0.17,-0.091,0.07,0.121
-0.0,249999995.00797403,3.1257989407,158.48931924611142,11368.417120933062,-0.29,-0.21,-0.05,0.001
-0.0,249999995.00797403,3.1752710342,173.38039977541374,11329.219729705555,-0.395,-0.315,-0.158,-0.108
-0.0,249999995.00797403,3.2000000477,181.5515662773135,11292.757442094171,-0.45,-0.371,-0.216,-0.167
-0.0,249999995.00797403,3.2449653149,196.7886289706845,11212.436590474901,-0.555,-0.477,-0.327,-0.28
-0.0,249999995.00797403,3.2948150635,215.77444091526667,11081.536978184877,-0.678,-0.602,-0.461,-0.416
-0.0,249999995.00797403,3.336517334,232.80912576650078,10932.009489276317,-0.789,-0.715,-0.584,-0.543
-0.0,249999995.00797403,3.3714318275,248.31331052955704,10767.131074439721,-0.888,-0.818,-0.699,-0.661
-0.0,249999995.00797403,3.4000000954,261.8183008218986,10609.624171364921,-0.974,-0.907,-0.8,-0.766
-0.0,249999995.00797403,3.4246895313,274.15741719278833,10464.054670474268,-1.05,-0.986,-0.891,-0.86
-0.0,249999995.00797403,3.4507577419,288.40315031266056,10284.898261526465,-1.136,-1.077,-0.996,-0.97
-0.0,249999995.00797403,3.4775936604,306.19634336906785,10122.78469995112,-1.228,-1.173,-1.106,-1.084
-0.0,249999995.00797403,3.4911556244,316.22776601683796,10066.998409579657,-1.273,-1.22,-1.158,-1.138
-0.0,249999995.00797403,3.5031664371,335.7376142429545,10289.635722967549,-1.302,-1.241,-1.16,-1.134
-0.0,249999995.00797403,3.5077004433,349.1403154785863,10497.841225523602,-1.307,-1.239,-1.142,-1.11
-0.0,249999995.00797403,3.5096275806,360.57864302164234,10730.006869316607,-1.304,-1.23,-1.115,-1.077
-0.0,249999995.00797403,3.510623455,373.2501577957206,10959.733655238053,-1.301,-1.222,-1.09,-1.047
-0.0,249999995.00797403,3.5112447739,388.15036599064825,11204.693988178082,-1.301,-1.217,-1.069,-1.021
-0.0,249999995.00797403,3.5116460323,406.44332916521273,11449.855346901883,-1.306,-1.217,-1.054,-1.001
-0.0,249999995.00797403,3.5119390488,421.6965034285823,11657.354404412705,-1.309,-1.216,-1.04,-0.984
-0.0,249999995.00797403,3.5119888783,423.6429660495409,11692.301348339213,-1.309,-1.215,-1.038,-0.981
-0.0,249999995.00797403,3.5121107101,400.866717627303,11539.84565005087,-1.276,-1.185,-1.016,-0.962
-0.0,249999995.00797403,3.5122132301,377.572190925416,11318.789936554156,-1.25,-1.164,-1.008,-0.958
-0.0,249999995.00797403,3.5123026371,365.59479161312504,11084.088890158662,-1.255,-1.173,-1.033,-0.988
-0.0,249999995.00797403,3.5124218464,363.0780547701014,10791.951874982266,-1.299,-1.224,-1.104,-1.065
-0.0,249999995.00797403,3.5125572681,371.5352290971724,10507.514548655507,-1.374,-1.306,-1.207,-1.175
-0.0,249999995.00797403,3.5127089024,381.94427084004644,10228.218569340455,-1.453,-1.392,-1.317,-1.292
-0.0,249999995.00797403,3.5128748417,389.9419866765436,9954.054173515275,-1.521,-1.469,-1.418,-1.401
-0.0,249999995.00797403,3.5130503178,395.3666200681279,9687.238673827638,-1.577,-1.536,-1.511,-1.503
-0.0,249999995.00797403,3.5132336617,397.19154946944053,9427.575085274158,-1.623,-1.594,-1.597,-1.597
-0.0,249999995.00797403,3.5134224892,398.1071705534973,9172.759353897794,-1.658,-1.644,-1.678,-1.687
-0.0,249999995.00797403,3.5136137009,397.19154946944053,8924.830977580354,-1.684,-1.686,-1.755,-1.774
-0.0,249999995.00797403,3.5138044357,395.3666200681279,8683.60379960594,-1.698,-1.719,-1.827,-1.857
-0.0,249999995.00797403,3.5139923096,392.6449353995997,8446.951488445784,-1.699,-1.743,-1.895,-1.938
-0.0,249999995.00797403,3.5141751766,388.15036599064825,8216.74860976434,-1.685,-1.757,-1.96,-2.016
-0.0,249999995.00797403,3.5143516064,383.70724549227884,7990.9791958109845,-1.659,-1.761,-2.021,-2.093
-0.0,249999995.00797403,3.5145201683,378.44258471709315,7773.202827984621,-1.623,-1.758,-2.079,-2.169
-0.0,249999995.00797403,3.5146803856,372.39170625456865,7559.620603389211,-1.569,-1.747,-2.135,-2.244
-0.0,249999995.00797403,3.5148322582,366.43757464783334,7353.5999547540005,-1.509,-1.73,-2.189,-2.319
-0.0,249999995.00797403,3.5149757862,359.74933515574236,7151.54704659282,-1.442,-1.708,-2.24,-2.391
-0.0,249999995.00797403,3.515111208,353.18316979195697,6955.045892395349,-1.371,-1.68,-2.287,-2.463
-0.0,249999995.00797403,3.5152387619,345.93937782612204,6765.501583068961,-1.295,-1.648,-2.331,-2.532
-0.0,249999995.00797403,3.5153594017,338.84415613920237,6581.122882388993,-1.213,-1.611,-2.371,-2.6
-0.0,249999995.00797403,3.5154728889,331.1311214825911,6401.769013178951,-1.124,-1.573,-2.411,-2.666
-0.0,249999995.00797403,3.5155801773,323.5936569296281,6230.171474290644,-1.028,-1.531,-2.447,-2.732
-0.0,249999995.00797403,3.5156822205,316.22776601683796,6067.363295885053,-0.928,-1.485,-2.48,-2.794
-0.0,249999995.00797403,3.5157799721,308.31879502493535,5916.978619587192,-0.824,-1.435,-2.506,-2.85
-0.0,249999995.00797403,3.5158786774,299.2264636608189,5776.968506969277,-0.72,-1.38,-2.525,-2.898
-0.0,249999995.00797403,3.5159847736,289.7343587701324,5645.468649299897,-0.612,-1.318,-2.533,-2.935
-0.0,249999995.00797403,3.5161058903,277.97132677592884,5524.589326132767,-0.5,-1.245,-2.527,-2.957
-0.0,249999995.00797403,3.516273737,260.0159563165272,5392.622258915705,-0.35,-1.141,-2.498,-2.96
-0.0,249999995.00797403,3.5164194107,244.9063241844744,5292.97691687475,-0.22,-1.047,-2.463,-2.949
-0.0,249999995.00797403,3.5165736675,229.61486481123632,5199.959965335162,-0.087,-0.949,-2.422,-2.932
-0.0,249999995.00797403,3.5167410374,216.7704104819694,5106.225616299567,0.041,-0.856,-2.39,-2.925
-0.0,249999995.00797403,3.5169277191,209.41124558508935,5007.258356403354,0.153,-0.784,-2.384,-2.946
-0.0,249999995.00797403,3.5171346664,219.78598727848254,4905.6888610179985,0.187,-0.794,-2.467,-3.059
-0.0,249999995.00797403,3.5172979832,235.5049283896009,4831.700432460599,0.18,-0.835,-2.565,-3.18
-0.0,249999995.00797403,3.5174591541,257.63211570025754,4769.798141192216,0.147,-0.9,-2.679,-3.313
-0.0,249999995.00797403,3.5176651478,286.41779699065796,4706.520991281343,0.098,-0.981,-2.813,-3.468
-0.0,249999995.00797403,3.5178763866,312.6079367123956,4660.151117021843,0.054,-1.05,-2.921,-3.591
-0.0,249999995.00797403,3.5182142258,350.75187395256796,4603.625637759879,-0.005,-1.141,-3.063,-3.751
-0.0,249999995.00797403,3.5182566643,355.6313185689855,4597.269885308723,-0.013,-1.152,-3.08,-3.771
-0.0,249999995.00797403,3.5184323788,374.97300224548337,4572.987349813346,-0.041,-1.194,-3.144,-3.843
-0.0,249999995.00797403,3.5185198784,384.5917820453535,4561.419344219829,-0.054,-1.214,-3.175,-3.878
-0.0,249999995.00797403,3.5188441277,423.6429660495409,4519.600000304826,-0.103,-1.292,-3.289,-4.004
-0.0,249999995.00797403,3.5191273689,461.31757456037957,4484.35514638966,-0.148,-1.362,-3.39,-4.115
-0.0,249999995.00797403,3.5194516182,508.1594425605605,4446.312674691088,-0.201,-1.442,-3.503,-4.24
-0.0,249999995.00797403,3.5198159218,566.2392890382534,4405.548635065535,-0.264,-1.533,-3.631,-4.381
-0.0,249999995.00797403,3.5201804638,632.4118513762197,4366.163552976836,-0.331,-1.626,-3.759,-4.521
-0.0,249999995.00797403,3.5205042362,698.2324040771712,4333.112852118383,-0.391,-1.709,-3.873,-4.647
-0.0,249999995.00797403,3.5207872391,762.0790100254122,4302.2931593879675,-0.445,-1.782,-3.974,-4.758
-0.0,249999995.00797403,3.5210707188,833.681184619634,4271.692674763224,-0.5,-1.856,-4.077,-4.872
-0.0,249999995.00797403,3.5213513374,912.0108393559096,4241.309839104882,-0.552,-1.927,-4.179,-4.986
-0.0,249999995.00797403,3.5216751099,968.2778562612496,4220.8507917988445,-0.584,-1.973,-4.251,-5.067
-0.0,249999995.00797403,3.5220112801,1018.5913880541169,4203.393032365499,-0.61,-2.01,-4.308,-5.132
-0.0,249999995.00797403,3.5228483677,993.1160484209336,4213.082854040085,-0.599,-1.992,-4.279,-5.098
-0.0,249999995.00797403,3.5248484612,924.698173938223,4241.309839104882,-0.567,-1.942,-4.194,-5.001
-0.0,249999995.00797403,3.5266501904,851.1380382023768,4272.676381599791,-0.524,-1.881,-4.099,-4.894
-0.0,249999995.00797403,3.5279114246,792.5013304804718,4300.312336305446,-0.483,-1.823,-4.016,-4.801
-0.0,249999995.00797403,3.5289525986,737.9042301291007,4327.130568849061,-0.443,-1.766,-3.934,-4.709
-0.0,249999995.00797403,3.5300629139,679.2036326171843,4358.128185607303,-0.396,-1.699,-3.838,-4.602
-0.0,249999995.00797403,3.5309934616,630.957344480193,4387.326951325295,-0.354,-1.639,-3.752,-4.506
-0.0,249999995.00797403,3.5319638252,582.1032177708715,4417.738448896479,-0.309,-1.573,-3.658,-4.403
-0.0,249999995.00797403,3.5329625607,535.7966575133418,4449.385139745807,-0.263,-1.505,-3.562,-4.296
-0.0,249999995.00797403,3.5340206623,492.0395356814511,4483.322704327333,-0.216,-1.435,-3.462,-4.185
-0.0,249999995.00797403,3.5352017879,450.81670454146007,4519.600000304826,-0.166,-1.361,-3.356,-4.069
-0.0,249999995.00797403,3.5365562439,411.14972110452214,4558.269515401941,-0.119,-1.286,-3.248,-3.949
-0.0,249999995.00797403,3.5386238098,366.43757464783334,4608.928809808955,-0.057,-1.192,-3.11,-3.796
-0.0,249999995.00797403,3.5407583714,334.9654391578276,4652.645890999017,-0.01,-1.121,-2.999,-3.671
-0.0,249999995.00797403,3.5440490246,304.7894989627983,4706.520991281343,0.031,-1.051,-2.883,-3.537
-0.0,249999995.00797403,3.5493967533,284.44611074479167,4773.094139287512,0.038,-1.011,-2.787,-3.42
-0.0,249999995.00797403,3.553504467,277.97132677592884,4818.368378188961,0.02,-1.008,-2.748,-3.366
-0.0,249999995.00797403,3.5720803738,299.916251898765,4879.77727286486,-0.116,-1.121,-2.814,-3.412
-0.0,249999995.00797403,3.5999999046,331.89445755261033,4893.279240819371,-0.236,-1.238,-2.921,-3.514
-0.0,249999995.00797403,3.6293153763,369.8281797802663,4897.7881936844615,-0.353,-1.357,-3.037,-3.628
-0.0,249999995.00797403,3.6425585747,387.25764492161727,4896.660566104027,-0.402,-1.408,-3.089,-3.68
-0.0,249999995.00797403,3.6839671135,419.75898399100777,4800.649512466846,-0.398,-1.45,-3.204,-3.824
-0.0,249999995.00797403,3.693775177,425.59841313374307,4768.699981017778,-0.382,-1.448,-3.228,-3.858
-0.0,249999995.00797403,3.7056612968,440.55486350655343,4677.351412871981,-0.326,-1.436,-3.291,-3.951
-0.0,249999995.00797403,3.7087790966,470.97732639695295,4609.990177075899,-0.321,-1.47,-3.383,-4.064
-0.0,249999995.00797403,3.709706068,514.0436515824259,4554.07312683254,-0.346,-1.53,-3.491,-4.189
-0.0,249999995.00797403,3.7100143433,561.0479760324706,4507.129121091093,-0.381,-1.595,-3.597,-4.31
-0.0,249999995.00797403,3.7100548744,570.1642722807472,4498.834324565384,-0.389,-1.607,-3.617,-4.332
-0.0,249999995.00797403,3.7101397514,610.9420249055721,4466.835921509631,-0.423,-1.662,-3.699,-4.425
-0.0,249999995.00797403,3.7102355957,659.1738952443212,4433.02315750427,-0.461,-1.722,-3.79,-4.526
-0.0,249999995.00797403,3.7105610371,687.0684400142325,4418.755787887183,-0.486,-1.756,-3.836,-4.577
-0.0,249999995.00797403,3.7112996578,645.6542290346556,4443.242331287159,-0.451,-1.705,-3.763,-4.496
-0.0,249999995.00797403,3.7120184898,707.945784384138,4402.50644073913,-0.498,-1.778,-3.873,-4.62
-0.0,249999995.00797403,3.7125835419,778.0365510398041,4362.144019080488,-0.548,-1.854,-3.984,-4.744
-0.0,249999995.00797403,3.7132267952,855.0667128846832,4326.1343249159545,-0.6,-1.928,-4.092,-4.865
-0.0,249999995.00797403,3.7139286995,937.5620069258802,4289.434099967818,-0.651,-2.002,-4.201,-4.987
-0.0,249999995.00797403,3.714631319,1030.386120441616,4254.02462944068,-0.698,-2.071,-4.31,-5.111
-0.0,249999995.00797403,3.7153038979,1127.1974561755105,4218.907465677975,-0.742,-2.137,-4.418,-5.234
-0.0,249999995.00797403,3.715941906,1238.796586530369,4185.043726669273,-0.786,-2.204,-4.527,-5.357
-0.0,249999995.00797403,3.716545105,1358.3134465871542,4150.496003347124,-0.829,-2.269,-4.637,-5.482
-0.0,249999995.00797403,3.7171051502,1496.235656094433,4115.2857843551,-0.87,-2.332,-4.749,-5.61
-0.0,249999995.00797403,3.717615366,1644.3717232149324,4081.3139159697193,-0.912,-2.397,-4.86,-5.737
-0.0,249999995.00797403,3.7180771828,1811.3400926196025,4045.7589169744288,-0.949,-2.456,-4.972,-5.864
-0.0,249999995.00797403,3.7184932232,1986.0949173573717,4011.437222087667,-0.985,-2.513,-5.082,-5.991
-0.0,249999995.00797403,3.718873024,2182.7299118430014,3974.660144576364,-1.016,-2.566,-5.192,-6.118
-0.0,249999995.00797403,3.7192232609,2398.83291901949,3938.2202413383675,-1.039,-2.61,-5.302,-6.246
-0.0,249999995.00797403,3.7195467949,2630.2679918953813,3901.21602952676,-1.06,-2.653,-5.412,-6.374
-0.0,249999995.00797403,3.7198455334,2884.031503126606,3859.2241159472915,-1.067,-2.678,-5.524,-6.505
-0.0,249999995.00797403,3.720054388,3090.295432513592,3826.484865951097,-1.066,-2.691,-5.608,-6.605
-0.0,249999995.00797403,3.7203145027,3388.441561392024,3791.4034418330666,-1.08,-2.72,-5.718,-6.731
-0.0,249999995.00797403,3.7205564976,3715.352290971724,3757.508744904872,-1.088,-2.736,-5.828,-6.857
-0.0,249999995.00797403,3.7207808495,4073.802778041126,3723.059697665676,-1.092,-2.75,-5.937,-6.982
-0.0,249999995.00797403,3.7209887505,4456.562483975033,3688.0771722615455,-1.085,-2.744,-6.046,-7.107
-0.0,249999995.00797403,3.7211833,4875.284901033865,3653.423348834556,-1.072,-2.732,-6.154,-7.231
-0.0,249999995.00797403,3.7213654518,5321.082592667942,3619.0951388429776,-1.05,-2.708,-6.262,-7.354
-0.0,249999995.00797403,3.72153759,5807.644175213118,3584.2640804371426,-1.012,-2.662,-6.37,-7.477
-0.0,249999995.00797403,3.7217001915,6324.118513762197,3549.7682446720896,-0.972,-2.614,-6.477,-7.598
-0.0,249999995.00797403,3.721855402,6886.522963442762,3515.6044052829798,-0.908,-2.533,-6.582,-7.718
-0.0,249999995.00797403,3.7220048904,7481.6950051115455,3480.96775232401,-0.837,-2.444,-6.687,-7.837
-0.0,249999995.00797403,3.7221484184,8147.042840208396,3445.08546286579,-0.749,-2.332,-6.793,-7.958
-0.0,249999995.00797403,3.7222869396,8851.156098308356,3408.7880601025868,-0.646,-2.201,-6.899,-8.079
-0.0,249999995.00797403,3.7224309444,9682.778562612497,3369.7679858440365,-0.511,-2.033,-7.013,-8.209
-0.0,249999995.00797403,3.7225494385,10447.202192208004,3335.7999666204814,-0.367,-1.858,-7.11,-8.321
-0.0,249999995.00797403,3.7226676941,11271.974561755094,3301.4140864591145,-0.21,-1.661,-7.208,-8.433
-0.0,249999995.00797403,3.7227818966,12105.981335504828,3268.1350899154786,-0.035,-1.435,-7.301,-8.539
-0.0,249999995.00797403,3.7229139805,12676.518658578449,3244.8901566053664,0.098,-1.263,-7.362,-8.61
-0.0,249999995.00797403,3.7230865955,12105.981335504828,3259.1173631348456,0.035,-1.35,-7.304,-8.547
-0.0,249999995.00797403,3.723120451,10280.162981264724,3328.1278395965264,-0.302,-1.784,-7.095,-8.309
-0.0,249999995.00797403,3.7231314182,9616.122783836649,3356.603166999334,-0.416,-1.924,-7.012,-8.214
-0.0,249999995.00797403,3.7231395245,9268.298233793494,3372.873086588689,-0.484,-2.007,-6.964,-8.159
-0.0,249999995.00797403,3.7231462002,9204.495717531712,3374.4267097541338,-0.489,-2.014,-6.957,-8.151
-0.0,249999995.00797403,3.7231583595,9727.47223776965,3351.969050221629,-0.398,-1.901,-7.026,-8.23
-0.0,249999995.00797403,3.7231647968,10256.519262514079,3328.894257585374,-0.303,-1.786,-7.093,-8.307
-0.0,249999995.00797403,3.7231740952,10964.78196143185,3300.6539952850767,-0.174,-1.623,-7.178,-8.404
-0.0,249999995.00797403,3.723187685,11587.773561551261,3276.4232568537846,-0.05,-1.461,-7.25,-8.485
-0.0,249999995.00797403,3.7232120037,12161.86000646368,3255.3673247163633,0.06,-1.318,-7.311,-8.555
-0.0,249999995.00797403,3.7232289314,12531.411749414156,3242.649439899697,0.13,-1.227,-7.349,-8.598
-0.0,249999995.00797403,3.7232306004,11994.993031493781,3260.6185877894,0.036,-1.35,-7.294,-8.536
-0.0,249999995.00797403,3.7232308388,11721.953655481304,3270.3934175663962,-0.017,-1.418,-7.264,-8.502
-0.0,249999995.00797403,3.7232339382,11803.206356517298,3266.6304045806874,0.002,-1.394,-7.275,-8.514
-0.0,249999995.00797403,3.7232365608,12161.86000646368,3253.8685178010755,0.07,-1.306,-7.313,-8.558
-0.0,249999995.00797403,3.7232406139,12676.518658578449,3235.936569296281,0.166,-1.18,-7.366,-8.618
-0.0,249999995.00797403,3.7232472897,13273.944577297401,3216.6217928790406,0.269,-1.049,-7.424,-8.684
-0.0,249999995.00797403,3.7232654095,14028.13704561959,3190.0684359752117,0.407,-0.872,-7.496,-8.767
-0.0,249999995.00797403,3.7232675552,14092.887984218747,3189.333980133178,0.414,-0.863,-7.5,-8.772
-0.0,249999995.00797403,3.7232728004,14092.887984218747,3189.333980133178,0.414,-0.863,-7.5,-8.772
-0.0,249999995.00797403,3.7232735157,17100.15315090286,3104.5595881283557,0.809,-0.38,-7.75,-9.057
-0.0,249999995.00797403,3.7232732773,17864.8757485205,3086.73964568386,0.879,-0.302,-7.805,-9.118
-0.0,249999995.00797403,3.7232744694,14859.35642287006,3163.73427822138,0.551,-0.688,-7.569,-8.851
-0.0,249999995.00797403,3.7232763767,10739.89412341244,3303.6954103681487,-0.18,-1.634,-7.154,-8.379
-0.0,249999995.00797403,3.7232792377,10641.430182243164,3307.5011205925434,-0.199,-1.659,-7.142,-8.365
-0.0,249999995.00797403,3.7232830524,11912.420080273738,3257.616829660631,0.062,-1.319,-7.288,-8.53
-0.0,249999995.00797403,3.7232882977,13152.248321922376,3214.400596524381,0.292,-1.022,-7.414,-8.675
-0.0,249999995.00797403,3.7232952118,14028.13704561959,3185.664236573113,0.441,-0.831,-7.497,-8.77
-0.0,249999995.00797403,3.723303318,14521.11617587742,3169.56746304349,0.528,-0.719,-7.543,-8.823
-0.0,249999995.00797403,3.7233133316,14859.35642287006,3159.3664356825157,0.582,-0.651,-7.57,-8.854
-0.0,249999995.00797403,3.7233252525,15100.801541641493,3150.648832972395,0.623,-0.603,-7.593,-8.881
-0.0,249999995.00797403,3.7233252525,23067.471887200714,2976.459653637275,1.087,-0.181,-8.131,-9.485
-0.0,249999995.00797403,3.7233257294,19186.68740670291,3050.7034978225156,0.977,-0.234,-7.898,-9.225
-0.0,249999995.00797403,3.7233269215,15958.791472367337,3127.519311407983,0.724,-0.482,-7.663,-8.96
-0.0,249999995.00797403,3.7233290672,11534.53257821093,3265.8783217233567,0.033,-1.36,-7.249,-8.489
-0.0,249999995.00797403,3.7233321667,11402.497875611696,3270.3934175663962,0.006,-1.394,-7.234,-8.471
-0.0,249999995.00797403,3.7233364582,12735.030810166629,3222.5524898879053,0.261,-1.063,-7.375,-8.632
-0.0,249999995.00797403,3.7233421803,13995.873225726178,3181.2661175961725,0.475,-0.789,-7.496,-8.771
-0.0,249999995.00797403,3.7233495712,14859.35642287006,3155.0046233746275,0.608,-0.621,-7.573,-8.859
-0.0,249999995.00797403,3.7233586311,15310.874616820287,3141.9552846410716,0.667,-0.55,-7.612,-8.904
-0.0,249999995.00797403,3.7233695984,15559.65631605075,3134.7289880140065,0.7,-0.511,-7.632,-8.926
-0.0,249999995.00797403,3.723382473,15703.628043335515,3128.959918963571,0.725,-0.481,-7.646,-8.942
-0.0,249999995.00797403,3.723382473,24043.628000069348,2954.6088884793385,1.127,-0.159,-8.185,-9.546
-0.0,249999995.00797403,3.7233831882,19998.61869632745,3029.0050681662174,1.029,-0.197,-7.953,-9.288
-0.0,249999995.00797403,3.7233843803,16634.126503701696,3104.5595881283557,0.833,-0.354,-7.719,-9.025
-0.0,249999995.00797403,3.7233867645,12050.359403717986,3242.649439899697,0.165,-1.19,-7.307,-8.556
-0.0,249999995.00797403,3.7233901024,11885.022274370189,3248.6281257920155,0.134,-1.231,-7.289,-8.536
-0.0,249999995.00797403,3.7233948708,13243.415351946644,3200.368594586517,0.384,-0.909,-7.428,-8.695
-0.0,249999995.00797403,3.7234013081,14554.59080581967,3160.0939904479483,0.596,-0.637,-7.547,-8.831
-0.0,249999995.00797403,3.7234091759,15417.004529495583,3134.7289880140065,0.706,-0.505,-7.622,-8.916
-0.0,249999995.00797403,3.7234191895,15848.93192461114,3121.763510848167,0.765,-0.436,-7.659,-8.958
-0.0,249999995.00797403,3.7234311104,16069.412530128788,3115.300895973758,0.796,-0.399,-7.676,-8.978
-0.0,249999995.00797403,3.7234454155,16218.100973589299,3110.283668685142,0.819,-0.372,-7.688,-8.992
-0.0,249999995.00797403,3.7234454155,24831.331052955677,2935.621096191421,1.163,-0.138,-8.229,-9.595
-0.0,249999995.00797403,3.7234461308,20653.80155810531,3009.539168873201,1.075,-0.166,-7.997,-9.339
-0.0,249999995.00797403,3.7234475613,17218.685749860062,3085.3184768063825,0.922,-0.259,-7.765,-9.079
-0.0,249999995.00797403,3.7234499454,12473.835142429432,3222.5524898879053,0.282,-1.043,-7.354,-8.612
-0.0,249999995.00797403,3.7234535217,12274.392311584084,3229.2375955486873,0.249,-1.085,-7.334,-8.589
-0.0,249999995.00797403,3.7234587669,13677.288255958494,3181.2661175961725,0.496,-0.768,-7.472,-8.746
-0.0,249999995.00797403,3.7234654427,14996.84835502374,3141.2319059861875,0.689,-0.527,-7.589,-8.88
-0.0,249999995.00797403,3.7234740257,15848.93192461114,3116.7358754452835,0.801,-0.395,-7.661,-8.963
-0.0,249999995.00797403,3.7234847546,16292.960326397215,3103.844819159537,0.86,-0.326,-7.697,-9.004
-0.0,249999995.00797403,3.7234973907,16519.61798229015,3097.419299216581,0.891,-0.289,-7.713,-9.023
-0.0,249999995.00797403,3.7235126495,16634.126503701696,3092.430870441563,0.915,-0.262,-7.723,-9.034
-0.0,249999995.00797403,3.7235126495,25468.30252585039,2916.0837985212315,1.203,-0.113,-8.265,-9.638
-0.0,249999995.00797403,3.7235133648,21232.444620002192,2990.198367170568,1.123,-0.133,-8.035,-9.383
-0.0,249999995.00797403,3.7235147953,17701.08958317422,3065.490679425787,0.985,-0.211,-7.804,-9.125
-0.0,249999995.00797403,3.7235174179,12852.866599436155,3202.5800946290287,0.399,-0.896,-7.394,-8.66
-0.0,249999995.00797403,3.723521471,12618.275345906706,3209.96280421069,0.362,-0.944,-7.372,-8.635
-0.0,249999995.00797403,3.7235269547,14060.47524129913,3163.0058853452065,0.613,-0.622,-7.509,-8.792
-0.0,249999995.00797403,3.7235343456,15381.546403030357,3123.2014671492143,0.787,-0.413,-7.624,-8.923
-0.0,249999995.00797403,3.723543644,16255.48755750485,3098.1325884844023,0.9,-0.281,-7.696,-9.005
-0.0,249999995.00797403,3.7235553265,16672.472125510645,3085.3184768063825,0.949,-0.23,-7.73,-9.044
-0.0,249999995.00797403,3.7235691547,16865.530253887424,3078.93130974161,0.968,-0.216,-7.745,-9.061
-0.0,249999995.00797403,3.7235856056,16982.43652461746,3074.680545939635,0.983,-0.205,-7.754,-9.072
-0.0,249999995.00797403,3.723585844,26061.53549998898,2896.6765264870983,1.245,-0.084,-8.298,-9.676
-0.0,249999995.00797403,3.7235863209,21727.011788637432,2970.297844017863,1.172,-0.099,-8.069,-9.424
-0.0,249999995.00797403,3.7235879898,18155.15662773137,3045.7903053734226,1.054,-0.158,-7.839,-9.168
-0.0,249999995.00797403,3.7235906124,13182.567385564074,3182.7314821707823,0.521,-0.745,-7.431,-8.706
-0.0,249999995.00797403,3.7235949039,12941.958414499863,3190.8030609514212,0.48,-0.798,-7.407,-8.678
-0.0,249999995.00797403,3.723600626,14387.985782558466,3144.126420258796,0.714,-0.504,-7.543,-8.833
-0.0,249999995.00797403,3.7236082554,15703.628043335515,3104.5595881283557,0.89,-0.295,-7.656,-8.963
-0.0,249999995.00797403,3.7236180305,16595.869074375598,3079.6403415023933,0.98,-0.202,-7.726,-9.042
-0.0,249999995.00797403,3.7236299515,17021.5850839495,3067.608976917938,1.014,-0.179,-7.759,-9.079
-0.0,249999995.00797403,3.723644495,17179.083871575895,3061.2584717197674,1.034,-0.164,-7.773,-9.096
-0.0,249999995.00797403,3.7236616611,17258.37891990204,3056.3282803659663,1.05,-0.152,-7.781,-9.106
-0.0,249999995.00797403,3.7236618996,26546.055619755418,2878.0610364895265,1.289,-0.05,-8.326,-9.71
-0.0,249999995.00797403,3.7236623764,22181.964198002195,2950.5297638582715,1.225,-0.063,-8.099,-9.461
-0.0,249999995.00797403,3.7236640453,18535.316234148104,3026.216535763348,1.118,-0.108,-7.87,-9.206
-0.0,249999995.00797403,3.7236669064,13489.628825916532,3163.73427822138,0.647,-0.588,-7.465,-8.747
-0.0,249999995.00797403,3.7236711979,13212.956341865765,3172.488087350881,0.601,-0.648,-7.438,-8.717
-0.0,249999995.00797403,3.7236771584,14689.262776438662,3124.640085806112,0.819,-0.381,-7.573,-8.871
-0.0,249999995.00797403,3.7236850262,15995.580286146678,3086.0289794360633,0.988,-0.189,-7.685,-8.999
-0.0,249999995.00797403,3.7236950397,16865.530253887424,3061.2584717197674,1.05,-0.147,-7.752,-9.075
-0.0,249999995.00797403,3.7237074375,17298.16359215103,3049.2989203838,1.085,-0.123,-7.784,-9.112
-0.0,249999995.00797403,3.7237224579,17458.22152920504,3042.986320313067,1.107,-0.107,-7.798,-9.128
-0.0,249999995.00797403,3.7237401009,17538.805018417603,3038.0855564655426,1.123,-0.094,-7.805,-9.137
-0.0,249999995.00797403,3.7237403393,26977.394324449207,2858.2486036727378,1.334,-0.009,-8.351,-9.739
-0.0,249999995.00797403,3.7237410545,22594.35770220978,2930.8932452503213,1.277,-0.025,-8.127,-9.494
-0.0,249999995.00797403,3.723742485,18879.913490962925,3006.076302628232,1.179,-0.062,-7.898,-9.241
-0.0,249999995.00797403,3.7237455845,13772.094688939473,3142.678829879227,0.763,-0.453,-7.495,-8.786
-0.0,249999995.00797403,3.723749876,13458.60354055947,3152.1000945192795,0.724,-0.501,-7.466,-8.753
-0.0,249999995.00797403,3.7237560749,14927.944095789975,3105.274521697761,0.935,-0.249,-7.6,-8.906
-0.0,249999995.00797403,3.7237641811,16255.48755750485,3066.1966160107386,1.063,-0.129,-7.71,-9.031
-0.0,249999995.00797403,3.7237744331,17100.15315090286,3042.2857274809608,1.128,-0.085,-7.777,-9.107
-0.0,249999995.00797403,3.7237873077,17498.466886246584,3029.7026026614167,1.16,-0.062,-7.808,-9.143
-0.0,249999995.00797403,3.7238028049,17660.37820686164,3022.7344800386522,1.18,-0.047,-7.82,-9.158
-0.0,249999995.00797403,3.7238209248,17741.894808901645,3017.866332008685,1.196,-0.034,-7.827,-9.167
-0.0,249999995.00797403,3.7238211632,27289.777828080405,2836.6124193125147,1.385,0.039,-8.374,-9.768
-0.0,249999995.00797403,3.72382164,22908.676527677748,2909.3769918965468,1.34,0.021,-8.153,-9.527
-0.0,249999995.00797403,3.7238233089,19186.68740670291,2984.0081159302204,1.247,-0.01,-7.925,-9.275
-0.0,249999995.00797403,3.72382617,14028.13704561959,3121.044780985781,0.892,-0.304,-7.524,-8.824
-0.0,249999995.00797403,3.7238306999,13677.288255958494,3131.1220745994874,0.849,-0.356,-7.493,-8.788
-0.0,249999995.00797403,3.7238366604,15135.612484362071,3083.8979622506845,1.05,-0.126,-7.626,-8.941
-0.0,249999995.00797403,3.7238447666,16481.62391525507,3045.089066974223,1.15,-0.059,-7.734,-9.063
-0.0,249999995.00797403,3.7238550186,17338.039977541375,3021.3427798432967,1.209,-0.019,-7.799,-9.137
-0.0,249999995.00797403,3.7238678932,17741.894808901645,3008.153543944214,1.233,-0.004,-7.829,-9.172
-0.0,249999995.00797403,3.723883152,17864.8757485205,3001.234982781183,1.25,0.008,-7.842,-9.186
-0.0,249999995.00797403,3.7239012718,17947.336268325245,2995.711592427998,1.268,0.021,-7.848,-9.194
-0.0,249999995.00797403,3.7239015102,27605.778562203446,2813.8438937124856,1.442,0.096,-8.395,-9.794
-0.0,249999995.00797403,3.7239022255,23227.36796357105,2885.359954579744,1.407,0.072,-8.178,-9.559
-0.0,249999995.00797403,3.723903656,19453.600816226615,2960.738151747431,1.325,0.049,-7.95,-9.308
-0.0,249999995.00797403,3.7239067554,14223.287871228184,3096.7061741707726,1.038,-0.138,-7.552,-8.862
-0.0,249999995.00797403,3.723911047,13867.558288718896,3107.420310388586,0.991,-0.193,-7.518,-8.824
-0.0,249999995.00797403,3.7239172459,15346.16982799294,3060.5536720536616,1.147,-0.047,-7.65,-8.974
-0.0,249999995.00797403,3.7239253521,16672.472125510645,3021.3427798432967,1.246,0.019,-7.757,-9.095
-0.0,249999995.00797403,3.7239358425,17498.466886246584,2997.091486307045,1.287,0.042,-7.821,-9.167
-0.0,249999995.00797403,3.7239487171,17906.058540352948,2984.0081159302204,1.315,0.06,-7.851,-9.201
-0.0,249999995.00797403,3.7239639759,18071.74126010926,2976.459653637275,1.338,0.076,-7.863,-9.216
-0.0,249999995.00797403,3.7239823341,18113.400926196027,2970.297844017863,1.361,0.093,-7.87,-9.224
-0.0,249999995.00797403,3.7239825726,27925.43841237336,2786.762770601109,1.508,0.176,-8.416,-9.818
-0.0,249999995.00797403,3.7239830494,23496.328208483097,2858.2486036727378,1.476,0.137,-8.201,-9.588
-0.0,249999995.00797403,3.7239847183,19678.86289706843,2933.593941214125,1.408,0.112,-7.976,-9.342
-0.0,249999995.00797403,3.7239875793,14454.39770745928,3069.021988391158,1.166,-0.02,-7.58,-8.9
-0.0,249999995.00797403,3.7239918709,14060.47524129913,3080.3495365425674,1.141,-0.036,-7.544,-8.861
-0.0,249999995.00797403,3.7239980698,15523.870099580816,3033.1926853535583,1.266,0.049,-7.676,-9.009
-0.0,249999995.00797403,3.7240059376,16865.530253887424,2994.3323338672667,1.337,0.091,-7.781,-9.127
-0.0,249999995.00797403,3.7240161896,17701.08958317422,2969.6139863991652,1.387,0.12,-7.843,-9.198
-0.0,249999995.00797403,3.7240285873,18071.74126010926,2955.969849504591,1.419,0.14,-7.873,-9.233
-0.0,249999995.00797403,3.7240438461,18238.957023196384,2947.134795608739,1.44,0.155,-7.885,-9.248
-0.0,249999995.00797403,3.7240617275,18281.00216142741,2940.356573672507,1.461,0.172,-7.892,-9.257
-0.0,249999995.00797403,3.7240619659,28183.82931264455,2756.1319143947994,1.589,0.273,-8.437,-9.845
-0.0,249999995.00797403,3.7240624428,23768.402866248784,2827.4829840696057,1.564,0.217,-8.226,-9.622
-0.0,249999995.00797403,3.7240641117,19906.733389871883,2902.017319380225,1.511,0.191,-8.004,-9.38
-0.0,249999995.00797403,3.7240669727,14621.771744567182,3037.3860919461044,1.305,0.093,-7.609,-8.94
-0.0,249999995.00797403,3.7240712643,14223.287871228184,3048.5968741891425,1.278,0.077,-7.571,-8.899
-0.0,249999995.00797403,3.7240774632,15703.628043335515,3000.5440024430936,1.383,0.144,-7.701,-9.046
-0.0,249999995.00797403,3.7240855694,17021.5850839495,2961.419965394361,1.458,0.185,-7.805,-9.163
-0.0,249999995.00797403,3.7240958214,17864.8757485205,2936.2971257566924,1.498,0.207,-7.868,-9.233
-0.0,249999995.00797403,3.7241084576,18238.957023196384,2922.13314244037,1.527,0.225,-7.897,-9.267
-0.0,249999995.00797403,3.7241234779,18365.383433483476,2912.0578615296977,1.554,0.245,-7.91,-9.282
-0.0,249999995.00797403,3.7241415977,18450.154191794736,2903.3540555153136,1.585,0.268,-7.918,-9.293
-0.0,249999995.00797403,3.7241418362,28444.61107447914,2718.942354402217,1.686,0.406,-8.459,-9.87
-0.0,249999995.00797403,3.724142313,23988.329190194898,2789.330656339983,1.661,0.33,-8.25,-9.651
-0.0,249999995.00797403,3.7241439819,20137.242498623895,2863.518544478934,1.623,0.289,-8.031,-9.417
-0.0,249999995.00797403,3.724146843,14825.180851459545,2997.7816715823815,1.455,0.215,-7.639,-8.984
-0.0,249999995.00797403,3.7241511345,14354.89433353656,3009.539168873201,1.444,0.212,-7.6,-8.942
-0.0,249999995.00797403,3.724157095,15885.467485977775,2960.738151747431,1.532,0.26,-7.729,-9.087
-0.0,249999995.00797403,3.7241649628,17179.083871575895,2920.787760207149,1.592,0.291,-7.833,-9.202
-0.0,249999995.00797403,3.7241752148,17988.709151287872,2894.6762641760283,1.642,0.319,-7.896,-9.273
-0.0,249999995.00797403,3.7241876125,18365.383433483476,2878.723810835251,1.677,0.345,-7.925,-9.307
-0.0,249999995.00797403,3.7242026329,18492.686189780798,2866.8171905248937,1.703,0.372,-7.937,-9.322
-0.0,249999995.00797403,3.7242202759,18535.316234148104,2854.9598169004084,1.735,0.402,-7.945,-9.332
-0.0,249999995.00797403,3.7242205143,28641.7796990658,2670.5456121918987,1.826,0.604,-8.482,-9.898
-0.0,249999995.00797403,3.7242209911,24210.2904673618,2740.311921030278,1.798,0.498,-8.276,-9.685
-0.0,249999995.00797403,3.7242226601,20323.57010936221,2813.19605679996,1.772,0.429,-8.062,-9.46
-0.0,249999995.00797403,3.7242255211,14996.84835502374,2945.7779023394583,1.65,0.368,-7.673,-9.035
-0.0,249999995.00797403,3.7242295742,14521.11617587742,2956.650565082943,1.638,0.366,-7.633,-8.991
-0.0,249999995.00797403,3.7242355347,16032.453906900417,2907.3679594442274,1.714,0.405,-7.762,-9.136
-0.0,249999995.00797403,3.7242434025,17298.16359215103,2865.4972763642395,1.776,0.446,-7.865,-9.249
-0.0,249999995.00797403,3.7242531776,18113.400926196027,2837.265648662569,1.815,0.48,-7.926,-9.317
-0.0,249999995.00797403,3.7242655754,18492.686189780798,2818.382931264455,1.859,0.515,-7.956,-9.353
-0.0,249999995.00797403,3.7242803574,18620.871366628657,2802.8509276466875,1.894,0.558,-7.969,-9.368
-0.0,249999995.00797403,3.7242977619,18663.796908346696,2786.762770601109,1.934,0.609,-7.977,-9.378
-0.0,249999995.00797403,3.7242980003,28840.31503126606,2603.7542989387357,2.019,0.878,-8.508,-9.932
-0.0,249999995.00797403,3.7242984772,24378.108183687502,2671.7757271179466,1.991,0.768,-8.306,-9.722
-0.0,249999995.00797403,3.7243001461,20511.621788255667,2742.8370042473766,1.968,0.665,-8.096,-9.505
-0.0,249999995.00797403,3.7243027687,15135.612484362071,2872.1029297978343,1.898,0.571,-7.717,-9.099
-0.0,249999995.00797403,3.7243070602,14621.771744567182,2882.0399726720025,1.901,0.576,-7.676,-9.056
-0.0,249999995.00797403,3.7243127823,16143.585568264869,2830.0883917879437,1.959,0.625,-7.803,-9.195
-0.0,249999995.00797403,3.7243204117,17418.068733916127,2786.1211686297693,2.007,0.684,-7.903,-9.304
-0.0,249999995.00797403,3.7243301868,18238.957023196384,2754.2287033381663,2.057,0.748,-7.963,-9.369
-0.0,249999995.00797403,3.7243423462,18578.04455091699,2730.863545120826,2.108,0.818,-7.992,-9.402
-0.0,249999995.00797403,3.7243568897,18706.821403658018,2709.5676590460534,2.162,0.891,-8.006,-9.418
-0.0,249999995.00797403,3.7243740559,18749.945080674173,2687.200056717113,2.224,0.977,-8.016,-9.43
