FeH,Age,Mini,L,Te,Bmag,Vmag,Jmag,Kmag
-0.6,800000023.9617269,0.0900000036,0.0005495408738576248,2624.8228616063525,19.422,17.409,10.785,10.127
-0.6,800000023.9617269,0.0902417973,0.0005533501092157366,2627.846540838493,19.402,17.39,10.776,10.117
-0.6,800000023.9617269,0.0999553651,0.0008356030182312483,2784.1972488835645,18.08,16.176,10.402,9.679
-0.6,800000023.9617269,0.1126374081,0.0012217996601648724,2918.098853741841,16.999,15.168,10.051,9.288
-0.6,800000023.9617269,0.1198660806,0.0014962356560944327,2992.264636608189,16.446,14.652,9.863,9.084
-0.6,800000023.9617269,0.1236738637,0.001629296032639723,3019.256430871959,16.24,14.459,9.783,8.999
-0.6,800000023.9617269,0.139776811,0.0022803420720004185,3126.799256376112,15.452,13.72,9.462,8.665
-0.6,800000023.9617269,0.159687534,0.0031622776601683794,3221.810555177115,14.777,13.094,9.147,8.342
-0.6,800000023.9617269,0.1690731645,0.0035892193464500534,3255.3673247163633,14.536,12.87,9.023,8.217
-0.6,800000023.9617269,0.199508965,0.005176068319505676,3354.2853083268956,13.861,12.247,8.663,7.853
-0.6,800000023.9617269,0.2492858022,0.008109610578538404,3460.9872548535277,13.12,11.566,8.214,7.402
-0.6,800000023.9617269,0.3192311525,0.013427649611378635,3564.5113342624427,12.357,10.859,7.702,6.887
-0.6,800000023.9617269,0.3318654299,0.014689262776438668,3581.789013481115,12.227,10.738,7.611,6.796
-0.6,800000023.9617269,0.3488393724,0.016292960326397224,3608.278079727421,12.067,10.59,7.509,6.693
-0.6,800000023.9617269,0.3986161947,0.023227367963571076,3705.1005630192394,11.515,10.08,7.158,6.338
-0.6,800000023.9617269,0.436958909,0.031332857243155855,3794.8970620763503,11.053,9.658,6.863,6.042
-0.6,800000023.9617269,0.4456535876,0.03334264127632349,3814.169596669385,10.957,9.571,6.801,5.98
-0.6,800000023.9617269,0.4483930469,0.03404081897010009,3820.322268844109,10.927,9.543,6.782,5.961
-0.6,800000023.9617269,0.4981698394,0.050933087105719546,3992.087024388079,10.257,8.951,6.397,5.582
-0.6,800000023.9617269,0.5158900619,0.059292532457999966,4076.617833479447,9.98,8.718,6.253,5.444
-0.6,800000023.9617269,0.5479466915,0.07691304402866095,4235.4542988140065,9.501,8.319,6.011,5.22
-0.6,800000023.9617269,0.5613250732,0.08629785477669702,4305.266104917106,9.29,8.144,5.903,5.124
-0.6,800000023.9617269,0.5977234244,0.11534532578210924,4514.399612669502,8.703,7.675,5.645,4.917
-0.6,800000023.9617269,0.647500217,0.16865530253887412,4818.368378188961,7.967,7.076,5.322,4.685
-0.6,800000023.9617269,0.6972770691,0.24043628000069334,5113.285003019643,7.355,6.563,5.031,4.485
-0.6,800000023.9617269,0.7209553123,0.28183829312644537,5250.491986747626,7.096,6.345,4.902,4.392
-0.6,800000023.9617269,0.7471474409,0.33496543915782767,5403.809120790774,6.829,6.122,4.767,4.294
-0.6,800000023.9617269,0.7970178127,0.45498806015004856,5659.785862426966,6.381,5.741,4.52,4.102
-0.6,800000023.9617269,0.8468881845,0.6081350012787179,5888.43655355589,5.978,5.4,4.285,3.91
-0.6,800000023.9617269,0.8745194077,0.7095777679633888,6000.673538641165,5.771,5.222,4.157,3.801
-0.6,800000023.9617269,0.8967584372,0.8016780633876791,6089.757514677301,5.609,5.084,4.057,3.718
-0.6,800000023.9617269,0.946628809,1.0423174293933042,6269.024974761653,5.269,4.79,3.836,3.526
-0.6,800000023.9617269,0.9821388125,1.247383514242943,6389.987373482767,5.039,4.589,3.683,3.392
-0.6,800000023.9617269,0.9964991212,1.3396766874259352,6438.726829014615,4.948,4.51,3.622,3.339
-0.6,800000023.9617269,1.0463694334,1.7060823890031236,6608.455958120293,4.643,4.24,3.418,3.16
-0.6,800000023.9617269,1.0481694937,1.721868574986007,6614.545374840603,4.632,4.231,3.41,3.153
-0.6,800000023.9617269,1.0962398052,2.147830474130534,6782.65926015363,4.351,3.983,3.225,2.992
-0.6,800000023.9617269,1.1085327864,2.269864851883822,6829.67440807964,4.282,3.921,3.181,2.955
-0.6,800000023.9617269,1.1426113844,2.63633138582538,6958.249547006049,4.092,3.753,3.061,2.853
-0.6,800000023.9617269,1.146110177,2.679168324819032,6971.078929020044,4.073,3.736,3.049,2.842
-0.6,800000023.9617269,1.1749798059,3.019951720402016,7094.144004534073,3.918,3.601,2.958,2.767
-0.6,800000023.9617269,1.1959805489,3.2885163087598306,7182.9029729652575,3.807,3.504,2.893,2.714
-0.6,800000023.9617269,1.2458508015,4.008667176273028,7442.177089248529,3.548,3.28,2.761,2.613
-0.6,800000023.9617269,1.2957211733,4.852885001621211,7739.270032780554,3.296,3.067,2.648,2.533
-0.6,800000023.9617269,1.3201686144,5.3088444423098835,7884.9691774537705,3.178,2.968,2.596,2.495
-0.6,800000023.9617269,1.3455916643,5.834451042737448,8035.261221856169,3.059,2.868,2.543,2.456
-0.6,800000023.9617269,1.3914374113,6.854882264526615,8298.507675144225,2.856,2.699,2.451,2.386
-0.6,800000023.9617269,1.3954619169,6.950243175887968,8321.469006867934,2.838,2.685,2.443,2.379
-0.6,800000023.9617269,1.415684104,7.464487584100665,8429.464771677229,2.755,2.615,2.402,2.346
-0.6,800000023.9617269,1.4453322887,8.260379495771788,8582.227050540156,2.637,2.517,2.341,2.295
-0.6,800000023.9617269,1.4569885731,8.590135215053959,8637.737465291839,2.593,2.48,2.317,2.274
-0.6,800000023.9617269,1.4952026606,9.749896377173869,8812.517653660825,2.455,2.363,2.237,2.203
-0.6,800000023.9617269,1.5112532377,10.280162981264736,8881.77976319248,2.4,2.315,2.202,2.172
-0.6,800000023.9617269,1.5450729132,11.455129414455355,9017.787559341552,2.286,2.215,2.128,2.104
-0.6,800000023.9617269,1.5589594841,11.994993031493788,9071.936465150893,2.241,2.175,2.097,2.075
-0.6,800000023.9617269,1.5949431658,13.427649611378635,9204.495717531712,2.125,2.072,2.015,1.999
-0.6,800000023.9617269,1.6071127653,13.963683610559377,9246.98173938223,2.087,2.038,1.988,1.974
-0.6,800000023.9617269,1.6448135376,15.739828644662197,9369.145856727315,1.967,1.929,1.897,1.888
-0.6,800000023.9617269,1.6495271921,15.958791472367329,9382.098755562878,1.952,1.915,1.885,1.877
-0.6,800000023.9617269,1.6853841543,17.864875748520507,9479.818010107187,1.839,1.811,1.794,1.789
-0.6,800000023.9617269,1.6946840286,18.407720014689556,9503.85934011676,1.809,1.783,1.769,1.766
-0.6,800000023.9617269,1.6992269754,18.663796908346693,9514.80736351759,1.795,1.77,1.758,1.754
-0.6,800000023.9617269,1.7363088131,20.941124558508925,9596.21567110341,1.677,1.659,1.657,1.657
-0.6,800000023.9617269,1.744554162,21.478304741305344,9611.695415159313,1.651,1.635,1.635,1.635
-0.6,800000023.9617269,1.7501164675,21.87761623949553,9622.767660923992,1.633,1.618,1.619,1.62
-0.6,800000023.9617269,1.7873456478,24.603676041476273,9669.410546091212,1.51,1.5,1.507,1.509
-0.6,800000023.9617269,1.7943303585,25.118864315095795,9676.09224577728,1.486,1.477,1.485,1.487
-0.6,800000023.9617269,1.8001058102,25.58585886905645,9680.549277120615,1.466,1.458,1.467,1.469
-0.6,800000023.9617269,1.8294639587,28.11900830398941,9687.238673827638,1.364,1.359,1.368,1.371
-0.6,800000023.9617269,1.8441066742,29.44421633798762,9682.778562612497,1.312,1.307,1.316,1.32
-0.6,800000023.9617269,1.8639962673,31.332857243155857,9667.184338344545,1.24,1.236,1.244,1.246
-0.6,800000023.9617269,1.8921405077,34.27677865464503,9616.122783836649,1.134,1.129,1.131,1.132
-0.6,800000023.9617269,1.8938828707,34.43499307633384,9611.695415159313,1.127,1.122,1.123,1.124
-0.6,800000023.9617269,1.9105629921,36.30780547701014,9569.736945876579,1.062,1.056,1.053,1.052
-0.6,800000023.9617269,1.9390361309,39.810717055349734,9464.550656102037,0.947,0.937,0.922,0.918
-0.6,800000023.9617269,1.9436590672,40.45758916974427,9442.782793644785,0.928,0.917,0.899,0.894
-0.6,800000023.9617269,1.9601523876,42.65795188015925,9360.520527214574,0.859,0.844,0.816,0.808
-0.6,800000023.9617269,1.9838762283,46.025657358135604,9193.904748039808,0.754,0.731,0.68,0.666
-0.6,800000023.9617269,1.9934352636,47.533522594280534,9113.81062129296,0.711,0.683,0.62,0.603
-0.6,800000023.9617269,2.0047879219,49.31738039549359,9015.711376059571,0.661,0.627,0.55,0.528
-0.6,800000023.9617269,2.0231688023,52.36004365857503,8830.799004185632,0.578,0.531,0.424,0.394
-0.6,800000023.9617269,2.0407347679,56.104797603247064,8679.605772923775,0.493,0.435,0.302,0.264
-0.6,800000023.9617269,2.0432114601,56.623928903825316,8661.637419723042,0.481,0.422,0.285,0.247
-0.6,800000023.9617269,2.0467195511,57.41164622073274,8635.74878170381,0.464,0.403,0.261,0.222
-0.6,800000023.9617269,2.0522975922,59.979107625550945,8763.952196298758,0.423,0.374,0.257,0.224
-0.6,800000023.9617269,2.0561423302,62.51726927756859,8949.52529765287,0.391,0.357,0.271,0.247
-0.6,800000023.9617269,2.05747509,64.86344335482384,9179.09786057337,0.373,0.356,0.305,0.291
-0.6,800000023.9617269,2.0581078529,67.45280276979219,9410.224835267507,0.358,0.357,0.336,0.33
-0.6,800000023.9617269,2.0584464073,70.30723198838334,9638.290236239705,0.342,0.354,0.359,0.362
-0.6,800000023.9617269,2.0586352348,73.2824533138904,9831.05215281769,0.326,0.347,0.374,0.382
-0.6,800000023.9617269,2.0587763786,75.50922276654337,9979.298192025273,0.317,0.345,0.386,0.399
-0.6,800000023.9617269,2.0588340759,72.77798045368242,9892.361988514227,0.343,0.367,0.399,0.41
-0.6,800000023.9617269,2.0588972569,69.02398038402418,9720.755058298188,0.375,0.391,0.405,0.411
-0.6,800000023.9617269,2.0589795113,66.68067692136222,9455.837495975453,0.375,0.376,0.361,0.357
-0.6,800000023.9617269,2.0590713024,68.07693586937414,9212.977276685555,0.324,0.311,0.264,0.251
-0.6,800000023.9617269,2.0591859818,70.6317554262962,8974.287945007482,0.257,0.229,0.148,0.126
-0.6,800000023.9617269,2.0593218803,72.61059574351547,8739.769925905892,0.206,0.161,0.042,0.008
-0.6,800000023.9617269,2.0594770908,73.96052750582378,8509.42078987996,0.175,0.111,-0.053,-0.098
-0.6,800000023.9617269,2.059650898,74.64487584100665,8285.142834779583,0.165,0.077,-0.137,-0.197
-0.6,800000023.9617269,2.0598402023,75.16228940182053,8063.062013547275,0.172,0.055,-0.216,-0.291
-0.6,800000023.9617269,2.0600404739,75.16228940182053,7846.934003526884,0.193,0.043,-0.289,-0.382
-0.6,800000023.9617269,2.060246706,74.98942093324558,7634.841051830966,0.225,0.041,-0.358,-0.47
-0.6,800000023.9617269,2.0604534149,74.81695005111546,7426.770437146976,0.264,0.047,-0.422,-0.556
-0.6,800000023.9617269,2.0606558323,74.30191378967014,7224.370324363558,0.31,0.059,-0.482,-0.64
-0.6,800000023.9617269,2.0608508587,73.6207097494736,7027.486176561344,0.361,0.077,-0.538,-0.721
-0.6,800000023.9617269,2.0610363483,72.94575102545687,6834.393809860222,0.416,0.098,-0.591,-0.8
-0.6,800000023.9617269,2.0612120628,71.94489780036994,6648.137604740006,0.477,0.124,-0.64,-0.876
-0.6,800000023.9617269,2.0613789558,70.95777679633888,6474.407045688151,0.542,0.152,-0.683,-0.946
-0.6,800000023.9617269,2.061548233,69.82324040771715,6312.479779910386,0.613,0.185,-0.718,-1.007
-0.6,800000023.9617269,2.0617368221,68.07693586937414,6165.9500186148225,0.692,0.227,-0.74,-1.055
-0.6,800000023.9617269,2.0619792938,65.46361740672751,6011.737374832779,0.793,0.288,-0.748,-1.091
-0.6,800000023.9617269,2.0622036457,62.373483548241914,5892.505546643294,0.897,0.357,-0.736,-1.104
-0.6,800000023.9617269,2.0624506474,58.21032177708713,5776.968506969277,1.02,0.447,-0.701,-1.092
-0.6,800000023.9617269,2.0626647472,54.32503314924333,5684.601168490088,1.137,0.538,-0.654,-1.065
-0.6,800000023.9617269,2.0629224777,50.11872336272722,5576.991723756762,1.273,0.645,-0.602,-1.038
-0.6,800000023.9617269,2.063179493,47.75292736576909,5473.939586745954,1.376,0.718,-0.584,-1.046
-0.6,800000023.9617269,2.0632436275,47.533522594280534,5448.789118901898,1.395,0.729,-0.587,-1.054
-0.6,800000023.9617269,2.0635063648,49.659232145033606,5362.9037180085825,1.39,0.698,-0.665,-1.154
-0.6,800000023.9617269,2.0637688637,53.57966575133417,5295.414984166674,1.343,0.63,-0.77,-1.273
-0.6,800000023.9617269,2.0640311241,58.34451042737448,5246.866327776169,1.279,0.549,-0.877,-1.393
-0.6,800000023.9617269,2.0643584728,64.56542290346556,5197.5658465836195,1.198,0.452,-1.004,-1.533
-0.6,800000023.9617269,2.0646851063,71.44963260755135,5158.221650723056,1.115,0.355,-1.126,-1.665
-0.6,800000023.9617269,2.0650117397,78.88601176185544,5119.175279997109,1.031,0.258,-1.246,-1.796
-0.6,800000023.9617269,2.0653376579,87.09635899560806,5083.935125244855,0.947,0.161,-1.365,-1.925
-0.6,800000023.9617269,2.0654678345,90.57326008982002,5069.907082747044,0.913,0.123,-1.413,-1.978
-0.6,800000023.9617269,2.0655527115,92.89663867799364,5060.5765651324455,0.891,0.097,-1.444,-2.011
-0.6,800000023.9617269,2.0656092167,94.6237161365793,5054.753713597985,0.876,0.081,-1.465,-2.033
-0.6,800000023.9617269,2.0656735897,96.60508789898135,5047.775135009473,0.859,0.061,-1.488,-2.059
-0.6,800000023.9617269,2.0659947395,106.41430182243164,5014.180920308942,0.776,-0.035,-1.607,-2.187
-0.6,800000023.9617269,2.0663156509,117.48975549395291,4983.104559705293,0.694,-0.13,-1.722,-2.311
-0.6,800000023.9617269,2.0666363239,129.12192736135347,4951.080641176657,0.614,-0.223,-1.837,-2.435
-0.6,800000023.9617269,2.0669565201,142.23287871228197,4921.528450161719,0.534,-0.317,-1.951,-2.557
-0.6,800000023.9617269,2.0672764778,156.67510701081486,4888.774438941448,0.457,-0.409,-2.066,-2.681
-0.6,800000023.9617269,2.0675959587,172.5837891990204,4857.356732878539,0.379,-0.501,-2.181,-2.806
-0.6,800000023.9617269,2.0679216385,190.54607179632464,4823.918924327151,0.301,-0.595,-2.3,-2.936
-0.6,800000023.9617269,2.0682387352,209.89398836235245,4790.711300030745,0.224,-0.687,-2.417,-3.064
-0.6,800000023.9617269,2.0685641766,232.80912576650078,4756.636893186042,0.145,-0.782,-2.539,-3.196
-0.6,800000023.9617269,2.0688862801,257.63211570025754,4720.630412635905,0.071,-0.876,-2.66,-3.329
-0.6,800000023.9617269,2.0691978931,285.10182675039096,4687.05446301803,0.004,-0.972,-2.781,-3.457
-0.6,800000023.9617269,2.0695037842,314.0508693876217,4653.717325654918,-0.059,-1.063,-2.897,-3.581
-0.6,800000023.9617269,2.0696206093,322.84941217126345,4643.01407281803,-0.076,-1.087,-2.929,-3.616
-0.6,800000023.9617269,2.069715023,298.538261891796,4670.893874825567,-0.028,-1.016,-2.837,-3.517
-0.6,800000023.9617269,2.0697693825,277.97132677592884,4696.777641902296,0.019,-0.948,-2.75,-3.424
-0.6,800000023.9617269,2.0698513985,253.51286304979072,4728.2453051179655,0.08,-0.861,-2.639,-3.306
-0.6,800000023.9617269,2.0699839592,229.61486481123632,4763.212971455834,0.153,-0.772,-2.523,-3.179
-0.6,800000023.9617269,2.0701861382,207.9696687103696,4798.439240638985,0.228,-0.679,-2.404,-3.048
-0.6,800000023.9617269,2.0705685616,185.7804455091699,4838.380286511588,0.315,-0.574,-2.269,-2.901
-0.6,800000023.9617269,2.0712451935,167.1090614310707,4876.407606118823,0.399,-0.474,-2.141,-2.76
-0.6,800000023.9617269,2.0717265606,152.75660582380732,4907.948534495558,0.467,-0.391,-2.035,-2.644
-0.6,800000023.9617269,2.0721156597,140.28137045619576,4937.419182496813,0.537,-0.308,-1.931,-2.532
-0.6,800000023.9617269,2.0725111961,128.52866599436155,4969.354737803068,0.607,-0.225,-1.827,-2.419
-0.6,800000023.9617269,2.0729269981,117.76059735208078,4999.1941102499995,0.678,-0.14,-1.722,-2.306
-0.6,800000023.9617269,2.0733716488,107.89467222298286,5030.370810846251,0.751,-0.054,-1.615,-2.191
-0.6,800000023.9617269,2.0738492012,98.8553094656939,5061.74194011213,0.825,0.032,-1.51,-2.076
-0.6,800000023.9617269,2.0743870735,90.36494737223013,5093.308710571952,0.899,0.117,-1.403,-1.961
-0.6,800000023.9617269,2.0751919746,80.90958991783822,5134.521775029668,0.992,0.224,-1.27,-1.816
-0.6,800000023.9617269,2.0763001442,72.44359600749902,5180.837850719928,1.084,0.332,-1.135,-1.668
-0.6,800000023.9617269,2.0777881145,65.76578373554206,5229.979661821558,1.16,0.425,-1.012,-1.533
-0.6,800000023.9617269,2.0814139843,59.979107625550945,5313.736321187098,1.212,0.505,-0.885,-1.384
-0.6,800000023.9617269,2.0823481083,59.1561634175474,5332.1210472698,1.216,0.514,-0.865,-1.361
-0.6,800000023.9617269,2.0832617283,59.42921586155727,5333.348954876208,1.21,0.509,-0.87,-1.365
-0.6,800000023.9617269,2.0929875374,62.66138646723353,5339.492735741766,1.15,0.451,-0.925,-1.418
-0.6,800000023.9617269,2.0988636017,64.71426157485831,5343.1824008734775,1.113,0.415,-0.959,-1.452
-0.6,800000023.9617269,2.115983963,71.6143410212902,5350.569381731372,1.0,0.304,-1.066,-1.557
-0.6,800000023.9617269,2.1308166981,78.52356346100719,5354.266700982399,0.896,0.201,-1.166,-1.657
-0.6,800000023.9617269,2.1427640915,85.11380382023764,5356.732999763011,0.808,0.114,-1.252,-1.742
-0.6,800000023.9617269,2.1574368477,94.18895965228413,5356.732999763011,0.697,0.003,-1.363,-1.853
-0.6,800000023.9617269,2.173491478,105.19618738232224,5351.801537712866,0.578,-0.116,-1.485,-1.976
-0.6,800000023.9617269,2.1871798038,115.34532578210919,5343.1824008734775,0.482,-0.215,-1.589,-2.082
-0.6,800000023.9617269,2.1925401688,118.85022274370189,5328.439020411989,0.459,-0.243,-1.625,-2.121
-0.6,800000023.9617269,2.2136850357,132.73944577297402,5233.59365186758,0.395,-0.34,-1.775,-2.295
-0.6,800000023.9617269,2.2190840244,139.95873225726177,5136.886854227248,0.398,-0.372,-1.865,-2.41
-0.6,800000023.9617269,2.2199409008,152.40527537972906,5065.239675508819,0.355,-0.442,-1.982,-2.546
-0.6,800000023.9617269,2.2201704979,168.65530253887405,5007.258356403354,0.287,-0.535,-2.112,-2.692
-0.6,800000023.9617269,2.220228672,179.06058540352947,4977.37084978936,0.245,-0.589,-2.185,-2.773
-0.6,800000023.9617269,2.2202737331,193.6421963946607,4943.106869868354,0.187,-0.662,-2.282,-2.88
-0.6,800000023.9617269,2.2203171253,209.89398836235245,4910.20924883086,0.127,-0.737,-2.379,-2.987
-0.6,800000023.9617269,2.2203609943,221.81964198002194,4888.774438941448,0.084,-0.789,-2.447,-3.061
-0.6,800000023.9617269,2.2204873562,222.3309890651403,4887.648886615807,0.081,-0.792,-2.45,-3.064
-0.6,800000023.9617269,2.220707655,211.34890398366477,4910.20924883086,0.12,-0.744,-2.387,-2.994
-0.6,800000023.9617269,2.22229743,210.86281499332887,4910.20924883086,0.123,-0.741,-2.384,-2.991
-0.6,800000023.9617269,2.2230594158,229.61486481123632,4874.162454431541,0.058,-0.821,-2.49,-3.108
-0.6,800000023.9617269,2.2237567902,254.6830252585042,4832.813100695309,-0.016,-0.914,-2.613,-3.245
-0.6,800000023.9617269,2.2243516445,281.1900830398939,4794.021749415102,-0.089,-1.005,-2.733,-3.378
-0.6,800000023.9617269,2.2248668671,309.7419299216581,4756.636893186042,-0.153,-1.095,-2.85,-3.504
-0.6,800000023.9617269,2.2253232002,340.4081897010009,4718.456982481569,-0.213,-1.184,-2.967,-3.63
-0.6,800000023.9617269,2.2257258892,374.1105882720533,4674.121528671508,-0.264,-1.268,-3.084,-3.758
-0.6,800000023.9617269,2.2260875702,412.0975190973304,4625.940047661603,-0.308,-1.349,-3.203,-3.89
-0.6,800000023.9617269,2.2263255119,442.58837236262644,4584.584692493264,-0.334,-1.405,-3.292,-3.991
-0.6,800000023.9617269,2.2266142368,486.4072056914614,4550.928370849554,-0.39,-1.49,-3.404,-4.112
-0.6,800000023.9617269,2.2268781662,534.5643593969719,4518.559443749222,-0.445,-1.574,-3.515,-4.233
-0.6,800000023.9617269,2.2271220684,587.4893525297769,4486.420743836898,-0.5,-1.658,-3.627,-4.354
-0.6,800000023.9617269,2.2273490429,645.6542290346556,4453.485062698576,-0.553,-1.741,-3.739,-4.476
-0.6,800000023.9617269,2.227560997,709.5777679633887,4418.755787887183,-0.604,-1.819,-3.851,-4.601
-0.6,800000023.9617269,2.2277605534,779.8301105232586,4384.297339745673,-0.655,-1.895,-3.963,-4.727
-0.6,800000023.9617269,2.2279496193,859.013521505396,4349.106072324534,-0.705,-1.971,-4.076,-4.854
-0.6,800000023.9617269,2.2281322479,946.237161365793,4314.197273268735,-0.755,-2.046,-4.19,-4.982
-0.6,800000023.9617269,2.228312254,1042.3174293933037,4279.568675300529,-0.806,-2.122,-4.305,-5.112
-0.6,800000023.9617269,2.2284948826,1150.8003889444356,4245.2180293408355,-0.855,-2.197,-4.421,-5.244
-0.6,800000023.9617269,2.2286832333,1273.5030810166616,4210.173564456214,-0.901,-2.271,-4.538,-5.376
-0.6,800000023.9617269,2.2288570404,1396.3683610559376,4177.341687248775,-0.943,-2.338,-4.645,-5.498
-0.6,800000023.9617269,2.228959322,1503.1419660900224,4150.496003347124,-0.975,-2.39,-4.731,-5.596
-0.6,800000023.9617269,2.2290258408,1592.20872705117,4129.524052369216,-0.998,-2.43,-4.799,-5.674
-0.6,800000023.9617269,2.2290875912,1682.6740610704674,4109.604232515482,-1.017,-2.467,-4.863,-5.747
-0.6,800000023.9617269,2.2291479111,1819.7008586099826,4081.3139159697193,-1.044,-2.519,-4.955,-5.853
-0.6,800000023.9617269,2.2292103767,1986.0949173573717,4050.419451364931,-1.073,-2.575,-5.057,-5.97
-0.6,800000023.9617269,2.2292773724,2187.761623949552,4016.058219411669,-1.102,-2.634,-5.168,-6.098
-0.6,800000023.9617269,2.2293450832,2393.3157564053877,3983.8226824883504,-1.129,-2.69,-5.273,-6.22
-0.6,800000023.9617269,2.2293689251,2449.0632418447444,3975.575449270531,-1.135,-2.703,-5.299,-6.249
-0.6,800000023.9617269,2.2293760777,2523.4807724805755,3965.518679916798,-1.143,-2.721,-5.334,-6.29
-0.6,800000023.9617269,2.2293822765,2588.2129151530903,3956.398240042518,-1.149,-2.734,-5.363,-6.324
-0.6,800000023.9617269,2.2293894291,2654.605561975539,3947.298776597855,-1.154,-2.748,-5.391,-6.357
-0.6,800000023.9617269,2.2293996811,2722.701308077913,3937.313537008506,-1.16,-2.762,-5.422,-6.392
-0.6,800000023.9617269,2.2294147015,2798.981319634363,3926.449353995997,-1.165,-2.777,-5.454,-6.431
-0.6,800000023.9617269,2.2294416428,2851.0182675039096,3920.125762951651,-1.169,-2.787,-5.475,-6.455
-0.6,800000023.9617269,2.2294418812,2792.543841237339,3928.2579671627864,-1.166,-2.776,-5.452,-6.427
-0.6,800000023.9617269,2.2294421196,2728.9777828080405,3936.4070414309936,-1.161,-2.764,-5.425,-6.396
-0.6,800000023.9617269,2.229442358,3126.0793671239558,3882.397512057637,-1.181,-2.83,-5.582,-6.582
-0.6,800000023.9617269,2.2294425964,3184.1975217261256,3874.3602472800194,-1.181,-2.837,-5.604,-6.608
-0.6,800000023.9617269,2.2294428349,2992.264636608189,3901.21602952676,-1.177,-2.811,-5.53,-6.52
-0.6,800000023.9617269,2.2294430733,2805.433637951713,3926.449353995997,-1.166,-2.777,-5.455,-6.431
-0.6,800000023.9617269,2.2294433117,2944.4216337987605,3908.4089579240213,-1.174,-2.802,-5.511,-6.497
-0.6,800000023.9617269,2.2294437885,2910.717118066605,3912.01039387351,-1.172,-2.797,-5.498,-6.482
-0.6,800000023.9617269,2.2294440269,2837.9190284415554,3921.931463326502,-1.168,-2.784,-5.469,-6.448
-0.6,800000023.9617269,2.2294442654,2773.320104651841,3930.0674134185306,-1.164,-2.772,-5.444,-6.418
-0.6,800000023.9617269,2.2294454575,2735.268726306711,3935.5007545577764,-1.161,-2.765,-5.428,-6.4
-0.6,800000023.9617269,2.2294461727,2679.1683248190316,3942.7568959559076,-1.157,-2.754,-5.404,-6.372
-0.6,800000023.9617269,2.2294476032,2618.1830082189863,3952.7559401972776,-1.151,-2.74,-5.375,-6.338
-0.6,800000023.9617269,2.2294490337,2558.585886905645,3960.0438961152527,-1.146,-2.728,-5.351,-6.31
-0.6,800000023.9617269,2.2294509411,2511.88643150958,3966.431879468582,-1.14,-2.716,-5.327,-6.282
-0.6,800000023.9617269,2.2294530869,2460.3676041476274,3973.745050614633,-1.135,-2.705,-5.304,-6.255
-0.6,800000023.9617269,2.2294566631,2404.362800006932,3981.988486715585,-1.129,-2.691,-5.277,-6.224
-0.6,800000023.9617269,2.2294666767,2421.0290467361774,3979.2387763422494,-1.131,-2.696,-5.287,-6.236
-0.6,800000023.9617269,2.2294716835,2466.0393372343387,3972.830167336813,-1.136,-2.706,-5.307,-6.26
-0.6,800000023.9617269,2.2294762135,2511.88643150958,3966.431879468582,-1.141,-2.717,-5.329,-6.284
-0.6,800000023.9617269,2.2294809818,2552.701302661247,3960.955834906334,-1.145,-2.726,-5.347,-6.306
-0.6,800000023.9617269,2.2294874191,2588.2129151530903,3955.4873505556216,-1.148,-2.734,-5.363,-6.325
-0.6,800000023.9617269,2.2294933796,2870.780582024692,3918.3208939411097,-1.173,-2.792,-5.483,-6.464
-0.6,800000023.9617269,2.2295000553,3221.0687912834346,3877.0374851038273,-1.197,-2.853,-5.616,-6.619
-0.6,800000023.9617269,2.2295074463,3548.133892335753,3841.4925917875894,-1.212,-2.898,-5.728,-6.749
-0.6,800000023.9617269,2.2295176983,3863.669770540693,3810.65823393773,-1.219,-2.934,-5.825,-6.864
-0.6,800000023.9617269,2.2295334339,4149.5404263436285,3783.5545512323115,-1.22,-2.958,-5.909,-6.961
-0.6,800000023.9617269,2.2295634747,4508.167045414601,3752.321139027498,-1.218,-2.982,-6.007,-7.076
-0.6,800000023.9617269,2.2295644283,4508.167045414601,3752.321139027498,-1.218,-2.982,-6.007,-7.076
-0.6,800000023.9617269,2.2295658588,3427.6778654645045,3845.032367094809,-1.187,-2.867,-5.689,-6.709
-0.6,800000023.9617269,2.2295663357,3198.895109691397,3869.9022919026884,-1.175,-2.834,-5.61,-6.617
-0.6,800000023.9617269,2.2295694351,2027.6827195212818,4037.3834645533043,-1.068,-2.58,-5.081,-6.001
-0.6,800000023.9617269,2.2295739651,1741.8068733916145,4093.5490632955944,-1.023,-2.486,-4.904,-5.797
-0.6,800000023.9617269,2.2295804024,1936.4219639466069,4054.1517440650287,-1.053,-2.55,-5.026,-5.938
-0.6,800000023.9617269,2.229588747,2535.128630497907,3952.7559401972776,-1.122,-2.708,-5.341,-6.304
-0.6,800000023.9617269,2.2295992374,3341.950400261143,3852.1217059810283,-1.176,-2.851,-5.66,-6.676
-0.6,800000023.9617269,2.2296116352,4055.085354483839,3781.8125611095074,-1.196,-2.932,-5.885,-6.938
-0.6,800000023.9617269,2.2296264172,4487.453899331323,3745.4154703610106,-1.197,-2.964,-6.004,-7.076
-0.6,800000023.9617269,2.2296433449,4677.351412871981,3729.9241475247336,-1.195,-2.975,-6.052,-7.133
-0.6,800000023.9617269,2.2296628952,4753.352259428054,3722.202530178502,-1.192,-2.978,-6.073,-7.157
-0.6,800000023.9617269,2.229663372,4405.548635065535,3748.8667146053936,-1.188,-2.951,-5.982,-7.053
-0.6,800000023.9617269,2.2296655178,3443.4993076333844,3835.3058245685934,-1.168,-2.855,-5.695,-6.72
-0.6,800000023.9617269,2.2296695709,2192.80493535045,3999.4474976109736,-1.072,-2.615,-5.173,-6.112
-0.6,800000023.9617269,2.2296757698,1887.9913490962927,4055.085354483839,-1.031,-2.525,-4.999,-5.91
-0.6,800000023.9617269,2.2296845913,2103.778439766475,4014.209182043213,-1.06,-2.59,-5.125,-6.057
-0.6,800000023.9617269,2.2296960354,2754.2287033381663,3913.812356122119,-1.123,-2.741,-5.439,-6.422
-0.6,800000023.9617269,2.2297101021,3630.780547701014,3813.2914527677754,-1.172,-2.877,-5.758,-6.795
-0.6,800000023.9617269,2.2297272682,4415.704473533126,3743.6910398904515,-1.179,-2.945,-5.987,-7.06
-0.6,800000023.9617269,2.2297472954,4920.395356814511,3705.1005630192394,-1.177,-2.974,-6.112,-7.206
-0.6,800000023.9617269,2.229770422,5164.163692720711,3686.3791409739756,-1.17,-2.979,-6.171,-7.274
-0.6,800000023.9617269,2.2297968864,5321.082592667942,3674.5147919993988,-1.163,-2.979,-6.205,-7.314
-0.6,800000023.9617269,2.2297973633,5058.246620031143,3691.4755816541306,-1.164,-2.968,-6.146,-7.247
-0.6,800000023.9617269,2.2297997475,3944.573020752785,3778.3309865888623,-1.16,-2.895,-5.854,-6.91
-0.6,800000023.9617269,2.2298042774,2523.4807724805755,3938.2202413383675,-1.088,-2.683,-5.337,-6.308
-0.6,800000023.9617269,2.2298111916,2162.71852372702,3995.765566188054,-1.052,-2.596,-5.159,-6.1
-0.6,800000023.9617269,2.2298207283,2398.83291901949,3956.398240042518,-1.077,-2.655,-5.279,-6.241
-0.6,800000023.9617269,2.2298331261,3111.716337106017,3861.8908944898994,-1.129,-2.791,-5.58,-6.591
-0.6,800000023.9617269,2.2298486233,4045.7589169744288,3767.905482261025,-1.157,-2.9,-5.884,-6.946
-0.6,800000023.9617269,2.2298672199,4852.88500162121,3703.39469397536,-1.158,-2.955,-6.099,-7.193
-0.6,800000023.9617269,2.2298891544,5345.643593969719,3669.4417673371618,-1.152,-2.971,-6.211,-7.323
-0.6,800000023.9617269,2.2299146652,5559.042572704037,3655.1061999238823,-1.149,-2.977,-6.259,-7.378
-0.6,800000023.9617269,2.2299435139,5662.3928903825345,3648.379442958715,-1.147,-2.98,-6.281,-7.404
-0.6,800000023.9617269,2.2299442291,5559.042572704037,3655.1061999238823,-1.147,-2.976,-6.258,-7.378
-0.6,800000023.9617269,2.2299466133,4325.138310350088,3742.8291224080526,-1.156,-2.921,-5.964,-7.038
-0.6,800000023.9617269,2.2299516201,2792.543841237339,3902.114421141359,-1.11,-2.738,-5.454,-6.444
-0.6,800000023.9617269,2.2299592495,2387.8112829131783,3960.955834906334,-1.078,-2.654,-5.272,-6.231
-0.6,800000023.9617269,2.2299697399,2648.500138606701,3921.0285091946057,-1.098,-2.709,-5.392,-6.372
-0.6,800000023.9617269,2.2299833298,3404.081897010009,3827.366048098136,-1.139,-2.831,-5.685,-6.715
-0.6,800000023.9617269,2.2300004959,4385.306977749856,3735.0807894306217,-1.149,-2.919,-5.981,-7.059
-0.6,800000023.9617269,2.2300209999,5236.0043658575005,3671.131996879641,-1.138,-2.954,-6.189,-7.301
-0.6,800000023.9617269,2.2300450802,5754.399373371566,3636.6373933084765,-1.127,-2.966,-6.3,-7.429
-0.6,800000023.9617269,2.2300729752,5997.910762555094,3620.762177566733,-1.117,-2.964,-6.349,-7.486
-0.6,800000023.9617269,2.2301049232,6123.503917247734,3612.434655644614,-1.109,-2.959,-6.375,-7.516
-0.6,800000023.9617269,2.2301054001,6180.164001384158,3609.1090121201505,-1.106,-2.957,-6.385,-7.528
-0.6,800000023.9617269,2.2301077843,4797.334486366892,3698.281797802663,-1.133,-2.931,-6.087,-7.184
-0.6,800000023.9617269,2.2301123142,3111.716337106017,3856.559178913931,-1.117,-2.783,-5.581,-6.595
-0.6,800000023.9617269,2.2301194668,2648.500138606701,3917.4187710778306,-1.091,-2.705,-5.395,-6.377
-0.6,800000023.9617269,2.2301290035,2930.8932452503213,3878.8233380237325,-1.107,-2.755,-5.512,-6.514
-0.6,800000023.9617269,2.2301418781,3741.105882720533,3787.913037851565,-1.133,-2.859,-5.794,-6.845
-0.6,800000023.9617269,2.2301576138,4753.352259428054,3699.1334567034833,-1.128,-2.925,-6.078,-7.174
-0.6,800000023.9617269,2.2301764488,5623.413251903491,3639.1503612720708,-1.113,-2.95,-6.275,-7.402
-0.6,800000023.9617269,2.2301988602,6137.620051647939,3609.1090121201505,-1.1,-2.951,-6.378,-7.52
-0.6,800000023.9617269,2.2302246094,6353.309318517436,3597.4933515574235,-1.097,-2.952,-6.42,-7.568
-0.6,800000023.9617269,2.2302541733,6456.542290346556,3594.181463147148,-1.1,-2.958,-6.439,-7.588
-0.6,800000023.9617269,2.2302548885,6683.439175686149,3581.789013481115,-1.55,-3.376,-6.45,-7.576
-0.6,800000023.9617269,2.2302572727,5176.068319505676,3671.977403587995,-1.513,-3.253,-6.169,-7.24
-0.6,800000023.9617269,2.2302618027,3380.6483620598156,3830.010812264487,-1.425,-3.026,-5.686,-6.671
-0.6,800000023.9617269,2.2302689552,2870.780582024692,3892.2434816444134,-1.362,-2.923,-5.499,-6.454
-0.6,800000023.9617269,2.2302789688,3176.8740706497692,3849.46167342452,-1.394,-2.981,-5.614,-6.59
-0.6,800000023.9617269,2.2302918434,4027.170343254591,3749.730022454834,-1.439,-3.103,-5.885,-6.913
-0.6,800000023.9617269,2.2303080559,5093.308710571952,3646.699688942269,-1.445,-3.199,-6.15,-7.236
-0.6,800000023.9617269,2.2303273678,5984.115950603199,3568.617492834813,-1.42,-3.242,-6.328,-7.464
-0.6,800000023.9617269,2.230350256,6501.296903430909,3518.0337377370256,-1.381,-3.246,-6.42,-7.588
-0.6,800000023.9617269,2.2303767204,6745.280276979222,3484.9776724044846,-1.337,-3.228,-6.458,-7.649
-0.6,800000023.9617269,2.2304069996,6854.882264526614,3458.597315106485,-1.289,-3.2,-6.476,-7.685
-0.6,800000023.9617269,2.2304074764,7244.359600749898,3432.416650121203,-1.28,-3.213,-6.535,-7.762
-0.6,800000023.9617269,2.2304098606,5623.413251903491,3550.5857031262385,-1.323,-3.15,-6.259,-7.407
-0.6,800000023.9617269,2.2304141521,3689.775985701505,3754.9140460984254,-1.369,-3.021,-5.789,-6.815
-0.6,800000023.9617269,2.2304208279,3126.0793671239558,3837.0724549227884,-1.356,-2.95,-5.598,-6.581
-0.6,800000023.9617269,2.2304301262,3451.437393358561,3781.8125611095074,-1.359,-2.988,-5.713,-6.724
-0.6,800000023.9617269,2.2304422855,4345.102241715715,3660.1594055804926,-1.328,-3.056,-5.976,-7.056
-0.6,800000023.9617269,2.2304573059,5457.57861091271,3540.788613684981,-1.272,-3.102,-6.225,-7.38
-0.6,800000023.9617269,2.2304754257,6367.955209079156,3455.413295778485,-1.214,-3.119,-6.394,-7.606
-0.6,800000023.9617269,2.2304968834,6902.398038402419,3403.2981684204196,-1.163,-3.111,-6.48,-7.727
-0.6,800000023.9617269,2.2305216789,7144.963260755135,3370.5439929348295,-1.128,-3.093,-6.516,-7.785
-0.6,800000023.9617269,2.2305498123,7277.798045368242,3341.950400261143,-1.082,-3.063,-6.532,-7.821
-0.6,800000023.9617269,2.2305502892,7834.29642766212,3306.739627988452,-1.083,-3.083,-6.613,-7.926
-0.6,800000023.9617269,2.2305524349,6067.363295885053,3427.6778654645045,-1.103,-3.022,-6.339,-7.57
-0.6,800000023.9617269,2.2305567265,4008.6671762730302,3634.9630454608155,-1.201,-2.936,-5.887,-6.983
-0.6,800000023.9617269,2.2305631638,3388.441561392024,3721.3455600387106,-1.223,-2.886,-5.696,-6.742
-0.6,800000023.9617269,2.2305722237,3732.5015779572063,3665.219597323419,-1.199,-2.908,-5.807,-6.885
-0.6,800000023.9617269,2.2305839062,4677.351412871981,3544.051302809929,-1.138,-2.95,-6.056,-7.21
-0.6,800000023.9617269,2.2305984497,5821.032177708716,3427.6778654645045,-1.063,-2.978,-6.293,-7.525
-0.6,800000023.9617269,2.2306160927,6760.829753919818,3345.0298682601374,-1.011,-2.99,-6.453,-7.741
-0.6,800000023.9617269,2.2306368351,7311.390834834172,3296.097121774576,-0.984,-2.991,-6.537,-7.856
-0.6,800000023.9617269,2.230660677,7550.922276654342,3267.3826606314346,-0.953,-2.976,-6.573,-7.91
-0.6,800000023.9617269,2.2306880951,7673.614893618185,3242.649439899697,-0.914,-2.951,-6.589,-7.942
-0.6,800000023.9617269,2.2306885719,8433.347577642757,3198.1586216666074,-0.906,-2.973,-6.695,-8.073
-0.6,800000023.9617269,2.2306907177,6531.305526474723,3320.4733579750687,-0.916,-2.909,-6.412,-7.717
-0.6,800000023.9617269,2.2306947708,4335.108783875289,3526.1436430685917,-1.024,-2.841,-5.971,-7.137
-0.6,800000023.9617269,2.2307009697,3647.5394692560767,3614.0986263961313,-1.066,-2.806,-5.783,-6.893
-0.6,800000023.9617269,2.2307095528,4017.9081084894,3558.7706484879304,-1.03,-2.817,-5.89,-7.035
-0.6,800000023.9617269,2.2307207584,5011.872336272725,3439.5371138063997,-0.951,-2.844,-6.127,-7.352
-0.6,800000023.9617269,2.2307348251,6194.410750767812,3325.0639317743994,-0.869,-2.859,-6.354,-7.656
-0.6,800000023.9617269,2.2307515144,7144.963260755135,3244.8901566053664,-0.842,-2.878,-6.512,-7.864
-0.6,800000023.9617269,2.2307713032,7709.034690644301,3197.422303204927,-0.814,-2.878,-6.595,-7.974
-0.6,800000023.9617269,2.2307941914,7943.282347242814,3169.56746304349,-0.773,-2.859,-6.631,-8.026
-0.6,800000023.9617269,2.2308204174,8053.784411990669,3146.2990561619904,-0.726,-2.831,-6.649,-8.056
-0.6,800000023.9617269,2.2308208942,9015.711376059571,3092.430870441563,-0.69,-2.847,-6.778,-8.212
-0.6,800000023.9617269,2.23082304,6982.324040771711,3215.140824832692,-0.748,-2.801,-6.486,-7.856
-0.6,800000023.9617269,2.2308268547,4655.860935229591,3419.794425137087,-0.832,-2.734,-6.047,-7.285
-0.6,800000023.9617269,2.2308328152,3917.4187710778306,3509.942484670127,-0.887,-2.708,-5.859,-7.037
-0.6,800000023.9617269,2.2308411598,4315.19076827765,3454.617749058203,-0.845,-2.715,-5.964,-7.179
-0.6,800000023.9617269,2.2308521271,5345.643593969719,3338.1050516598925,-0.752,-2.727,-6.193,-7.487
-0.6,800000023.9617269,2.2308654785,6561.452663029057,3228.4941217126348,-0.711,-2.756,-6.417,-7.78
-0.6,800000023.9617269,2.2308819294,7550.922276654342,3152.825975955186,-0.678,-2.775,-6.575,-7.979
-0.6,800000023.9617269,2.2309010029,8109.610578538404,3109.5675818498016,-0.632,-2.768,-6.659,-8.084
-0.6,800000023.9617269,2.2309231758,8356.030182312483,3084.6081377571413,-0.592,-2.752,-6.694,-8.132
-0.6,800000023.9617269,2.2309484482,8472.274141405964,3064.079293806048,-0.549,-2.727,-6.712,-8.157
-0.6,800000023.9617269,2.230948925,9660.508789898131,3003.308878676558,-0.506,-2.743,-6.86,-8.324
-0.6,800000023.9617269,2.2309508324,7481.6950051115455,3121.044780985781,-0.584,-2.706,-6.569,-7.989
-0.6,800000023.9617269,2.2309544086,5011.872336272725,3316.6527215043507,-0.633,-2.621,-6.123,-7.432
-0.6,800000023.9617269,2.2309598923,4207.266283844442,3406.4341658307585,-0.698,-2.603,-5.934,-7.182
-0.6,800000023.9617269,2.2309675217,4634.46919736288,3354.2853083268956,-0.655,-2.608,-6.037,-7.32
-0.6,800000023.9617269,2.2309775352,5701.642722807472,3241.902878227874,-0.592,-2.629,-6.264,-7.619
-0.6,800000023.9617269,2.230989933,6966.265141107687,3134.7289880140065,-0.552,-2.658,-6.489,-7.903
-0.6,800000023.9617269,2.231004715,7979.946872679769,3058.4402465105513,-0.477,-2.654,-6.645,-8.092
-0.6,800000023.9617269,2.2310223579,8550.667128846831,3013.699874341145,-0.421,-2.639,-6.723,-8.186
-0.6,800000023.9617269,2.2310428619,8810.488730080138,2988.133524568443,-0.381,-2.622,-6.759,-8.228
-0.6,800000023.9617269,2.2310659885,8933.054837332953,2969.6139863991652,-0.345,-2.603,-6.778,-8.252
-0.6,800000023.9617269,2.2310664654,10351.42166679343,2891.3455626423843,-0.274,-2.607,-6.954,-8.442
-0.6,800000023.9617269,2.2310681343,8016.78063387679,3027.610480923131,-0.398,-2.601,-6.653,-8.112
-0.6,800000023.9617269,2.2310717106,5407.5432294558095,3250.124518861833,-0.553,-2.585,-6.206,-7.556
-0.6,800000023.9617269,2.2310769558,4518.559443749222,3355.057749988978,-0.631,-2.584,-6.011,-7.294
-0.6,800000023.9617269,2.2310845852,4977.37084978936,3294.579562412821,-0.566,-2.572,-6.113,-7.436
-0.6,800000023.9617269,2.2310941219,6095.368972401694,3173.218663836144,-0.505,-2.583,-6.34,-7.734
-0.6,800000023.9617269,2.2311062813,7396.052750582382,3061.963433690679,-0.414,-2.583,-6.56,-8.007
-0.6,800000023.9617269,2.2311208248,8413.951416451948,2987.4455606053048,-0.335,-2.574,-6.708,-8.178
-0.6,800000023.9617269,2.2311377525,8974.287945007482,2946.4562708650446,-0.286,-2.563,-6.786,-8.264
-0.6,800000023.9617269,2.2311575413,9225.71427154763,2922.8060659319312,-0.25,-2.549,-6.82,-8.302
-0.6,800000023.9617269,2.231180191,9332.543007969914,2904.022654464451,-0.212,-2.527,-6.837,-8.323
-0.6,800000023.9617269,2.2311806679,11040.786199020735,2821.629583090804,-0.156,-2.55,-7.039,-8.53
-0.6,800000023.9617269,2.2311823368,8550.667128846831,2945.099689996018,-0.239,-2.513,-6.732,-8.212
-0.6,800000023.9617269,2.2311856747,5794.286964268809,3143.4025417390094,-0.383,-2.479,-6.286,-7.696
-0.6,800000023.9617269,2.2311906815,4830.5880203977285,3238.918349968776,-0.406,-2.444,-6.081,-7.439
-0.6,800000023.9617269,2.231197834,5308.8444423098845,3180.5336883295204,-0.374,-2.447,-6.187,-7.578
-0.6,800000023.9617269,2.2312071323,6471.426157485831,3064.7849053700324,-0.297,-2.453,-6.414,-7.859
-0.6,800000023.9617269,2.2312188148,7780.365510398041,2955.969849504591,-0.179,-2.438,-6.628,-8.105
-0.6,800000023.9617269,2.2312326431,8810.488730080138,2878.723810835251,-0.09,-2.422,-6.778,-8.267
-0.6,800000023.9617269,2.231249094,9375.620069258803,2832.044022964096,-0.03,-2.404,-6.857,-8.347
-0.6,800000023.9617269,2.2312679291,9616.122783836649,2803.4963822309305,0.017,-2.381,-6.892,-8.38
-0.6,800000023.9617269,2.2312896252,9727.47223776965,2781.6340890110087,0.059,-2.357,-6.91,-8.397
-0.6,800000023.9617269,2.231290102,11721.953655481304,2681.63706676073,0.127,-2.379,-7.14,-8.611
-0.6,800000023.9617269,2.2312915325,9078.205301781862,2809.9591088425027,0.055,-2.334,-6.828,-8.317
-0.6,800000023.9617269,2.231294632,6194.410750767812,3013.006024186122,-0.112,-2.309,-6.37,-7.834
-0.6,800000023.9617269,2.2312994003,5152.286445817567,3105.274521697761,-0.166,-2.285,-6.16,-7.59
-0.6,800000023.9617269,2.231306076,5662.3928903825345,3021.3427798432967,-0.047,-2.232,-6.27,-7.731
-0.6,800000023.9617269,2.2313144207,6870.684400142324,2874.0875936150214,0.156,-2.162,-6.505,-7.994
-0.6,800000023.9617269,2.2313251495,8203.515443298185,2732.121443878487,0.338,-2.105,-6.735,-8.214
-0.6,800000023.9617269,2.2313380241,9246.98173938223,2620.5955547333483,0.476,-2.056,-6.897,-8.345
-0.6,800000023.9617269,2.2313530445,9817.479430199845,2538.6334606273663,0.494,-2.07,-6.972,-8.415
-0.6,800000023.9617269,2.2313704491,10069.316688518044,2474.001735792561,0.504,-2.076,-7.002,-8.448
-0.6,800000023.9617269,2.2313904762,10185.91388054117,2415.4608344449402,0.507,-2.08,-7.018,-8.464
