FeH,Age,Mini,L,Te,Bmag,Vmag,Jmag,Kmag
-0.2,400000007.98724174,0.0900000036,0.000663743070401909,2506.686372453636,19.256,17.395,10.616,9.765
-0.2,400000007.98724174,0.0943644345,0.0007413102413009177,2553.877135779322,19.139,17.276,10.495,9.645
-0.2,400000007.98724174,0.0987108797,0.0008279421637123345,2603.154831374184,19.011,17.148,10.374,9.524
-0.2,400000007.98724174,0.1000000015,0.000859013521505396,2618.1830082189863,18.923,17.064,10.338,9.488
-0.2,400000007.98724174,0.103213273,0.0009225714271547629,2643.0172644776535,18.723,16.874,10.269,9.415
-0.2,400000007.98724174,0.1200000048,0.0013365955165464418,2780.9936678262984,17.532,15.769,9.922,9.052
-0.2,400000007.98724174,0.1226822436,0.0014092887984218747,2796.4045493982035,17.389,15.637,9.87,8.999
-0.2,400000007.98724174,0.1400000006,0.0020044720273651616,2897.3435877013244,16.491,14.79,9.53,8.652
-0.2,400000007.98724174,0.1599999964,0.0027039583641088436,2984.695288301337,15.777,14.116,9.237,8.359
-0.2,400000007.98724174,0.200000003,0.004295364267648873,3113.149665447022,14.771,13.154,8.782,7.909
-0.2,400000007.98724174,0.25,0.006561452663029057,3221.810555177115,13.968,12.393,8.36,7.493
-0.2,400000007.98724174,0.2696533203,0.007568328950209743,3255.3673247163633,13.719,12.156,8.217,7.351
-0.2,400000007.98724174,0.3000000119,0.009311078754678301,3302.934793960337,13.366,11.821,8.007,7.144
-0.2,400000007.98724174,0.3500000238,0.013061708881318418,3384.542718663093,12.803,11.29,7.667,6.805
-0.2,400000007.98724174,0.4000000358,0.018663796908346696,3473.761519726527,12.232,10.752,7.31,6.449
-0.2,400000007.98724174,0.4500000179,0.026977394324449205,3580.1399184306892,11.642,10.193,6.945,6.083
-0.2,400000007.98724174,0.5,0.03935500754557775,3715.352290971724,11.017,9.598,6.58,5.719
-0.2,400000007.98724174,0.506742537,0.04159106104940221,3741.105882720533,10.921,9.508,6.529,5.669
-0.2,400000007.98724174,0.5500000119,0.05794286964268809,3902.114421141359,10.341,8.968,6.216,5.364
-0.2,400000007.98724174,0.6000000238,0.0849180475036314,4135.233143476055,9.644,8.352,5.863,5.036
-0.2,400000007.98724174,0.6499999762,0.12302687708123815,4404.534336784062,8.893,7.726,5.525,4.755
-0.2,400000007.98724174,0.6747062206,0.14757065332758945,4536.281531692419,8.52,7.422,5.364,4.635
-0.2,400000007.98724174,0.7000000477,0.17579236139586926,4684.8964916001305,8.15,7.125,5.216,4.537
-0.2,400000007.98724174,0.75,0.24378108183687525,4965.923214503363,7.522,6.611,4.943,4.356
-0.2,400000007.98724174,0.7994467616,0.32885163087598307,5204.751511705225,7.018,6.188,4.693,4.173
-0.2,400000007.98724174,0.8488935232,0.4355118736855686,5430.002130657378,6.575,5.814,4.459,3.995
-0.2,400000007.98724174,0.8983402848,0.571478636671867,5637.674531352641,6.171,5.473,4.235,3.817
-0.2,400000007.98724174,0.9322422147,0.6823386941416696,5770.321353329298,5.919,5.26,4.089,3.698
-0.2,400000007.98724174,0.9477870464,0.737904230129101,5830.4221384328575,5.807,5.167,4.025,3.647
-0.2,400000007.98724174,0.9972338676,0.9418895965228413,6007.586047756748,5.467,4.882,3.826,3.481
-0.2,400000007.98724174,1.0466805696,1.191242008027375,6170.2107774384585,5.154,4.616,3.633,3.317
-0.2,400000007.98724174,1.0961273909,1.492794409578996,6324.118513762197,4.857,4.362,3.442,3.151
-0.2,400000007.98724174,1.1455740929,1.8535316234148114,6471.426157485831,4.578,4.121,3.26,2.992
-0.2,400000007.98724174,1.1706109047,2.055890595984142,6546.361740672747,4.443,4.004,3.172,2.915
-0.2,400000007.98724174,1.1950209141,2.2750974307720706,6617.5921870566035,4.314,3.892,3.087,2.841
-0.2,400000007.98724174,1.2444677353,2.760577856220346,6767.059576741911,4.065,3.674,2.926,2.701
-0.2,400000007.98724174,1.2915934324,3.2960971217745776,6918.309709189362,3.839,3.477,2.786,2.581
-0.2,400000007.98724174,1.2939143181,3.318944575526104,6926.279294373633,3.828,3.467,2.779,2.575
-0.2,400000007.98724174,1.3433612585,3.962780342554394,7105.587633694735,3.598,3.269,2.647,2.466
-0.2,400000007.98724174,1.3928079605,4.688133821452653,7318.127976744553,3.377,3.081,2.535,2.38
-0.2,400000007.98724174,1.4422547817,5.508076964054034,7563.102739061051,3.162,2.903,2.44,2.312
-0.2,400000007.98724174,1.4917014837,6.4268771731701975,7816.278045883293,2.957,2.732,2.353,2.251
-0.2,400000007.98724174,1.498282671,6.561452663029053,7848.741034887301,2.931,2.71,2.341,2.243
-0.2,400000007.98724174,1.5411483049,7.464487584100665,8059.349691127453,2.765,2.573,2.269,2.189
-0.2,400000007.98724174,1.5905948877,8.609937521846007,8288.959162731058,2.586,2.426,2.188,2.126
-0.2,400000007.98724174,1.5974136591,8.790225168308842,8319.55313840021,2.562,2.407,2.177,2.117
-0.2,400000007.98724174,1.6400417089,9.885530946569387,8499.629594496193,2.421,2.291,2.108,2.06
-0.2,400000007.98724174,1.6587164402,10.39920165829059,8574.326166361796,2.364,2.244,2.078,2.035
-0.2,400000007.98724174,1.6894886494,11.271974561755105,8695.608932545947,2.272,2.168,2.029,1.992
-0.2,400000007.98724174,1.6971014738,11.508003889444357,8723.6854936056,2.251,2.15,2.017,1.981
-0.2,400000007.98724174,1.7389353514,12.823305826560219,8875.646565663144,2.136,2.052,1.949,1.921
-0.2,400000007.98724174,1.7762107849,14.060475241299136,9003.26431059723,2.04,1.97,1.89,1.868
-0.2,400000007.98724174,1.7883820534,14.487718535447618,9044.8214904759,2.009,1.943,1.87,1.85
-0.2,400000007.98724174,1.8378289938,16.368165214278086,9204.495717531712,1.887,1.837,1.789,1.776
-0.2,400000007.98724174,1.8893222809,18.535316234148116,9366.988779521162,1.766,1.73,1.707,1.7
-0.2,400000007.98724174,1.9408154488,20.941124558508925,9519.190103322857,1.649,1.625,1.622,1.621
-0.2,400000007.98724174,1.9923086166,23.65919697485759,9664.958643142134,1.535,1.522,1.537,1.541
-0.2,400000007.98724174,2.0284919739,25.703957827688633,9763.375665826416,1.456,1.451,1.477,1.484
-0.2,400000007.98724174,2.0438017845,26.6072505979881,9803.925446044208,1.422,1.42,1.451,1.459
-0.2,400000007.98724174,2.0883171558,29.44421633798762,9917.44955231413,1.328,1.333,1.376,1.388
-0.2,400000007.98724174,2.0952951908,29.92264636608189,9933.44748170826,1.313,1.32,1.364,1.376
-0.2,400000007.98724174,2.1467883587,33.57376142429547,10055.415018560425,1.203,1.219,1.274,1.291
-0.2,400000007.98724174,2.1804056168,36.224299841669854,10132.11242412733,1.133,1.153,1.216,1.235
-0.2,400000007.98724174,2.198281765,37.67037989839089,10169.509351159437,1.095,1.117,1.184,1.204
-0.2,400000007.98724174,2.2341561317,40.83193863326921,10240.001022367001,1.018,1.045,1.118,1.139
-0.2,400000007.98724174,2.2497749329,42.26686142656028,10268.33431668086,0.984,1.013,1.088,1.111
-0.2,400000007.98724174,2.2918128967,46.451527522274944,10337.130523505844,0.893,0.926,1.008,1.032
-0.2,400000007.98724174,2.3012683392,47.424198526024455,10351.42166679343,0.873,0.907,0.989,1.014
-0.2,400000007.98724174,2.3102190495,48.30588020397726,10365.732567670051,0.853,0.888,0.972,0.997
-0.2,400000007.98724174,2.3527612686,53.08844442309885,10423.174293933036,0.759,0.798,0.887,0.913
-0.2,400000007.98724174,2.3795700073,56.23413251903491,10456.828853581379,0.7,0.741,0.833,0.86
-0.2,400000007.98724174,2.4042546749,59.42921586155727,10480.934333628742,0.645,0.688,0.781,0.809
-0.2,400000007.98724174,2.4311230183,62.95061828571975,10507.514548655507,0.587,0.631,0.727,0.756
-0.2,400000007.98724174,2.4557480812,66.3743070401909,10519.618738232235,0.53,0.577,0.673,0.702
-0.2,400000007.98724174,2.4823391438,70.30723198838334,10529.312128434398,0.467,0.515,0.612,0.641
-0.2,400000007.98724174,2.5312404633,78.34296427662116,10522.04124885243,0.348,0.397,0.493,0.523
-0.2,400000007.98724174,2.5719308853,85.70378452303697,10495.42428652322,0.245,0.294,0.388,0.417
-0.2,400000007.98724174,2.615901947,94.6237161365793,10427.975448505067,0.125,0.174,0.262,0.29
-0.2,400000007.98724174,2.6610376835,104.71285480508996,10313.355783043837,-0.006,0.04,0.119,0.144
-0.2,400000007.98724174,2.6617207527,104.71285480508996,10310.98131849619,-0.008,0.038,0.117,0.141
-0.2,400000007.98724174,2.6993379593,114.02497875611685,10176.536626205334,-0.122,-0.08,-0.013,0.008
-0.2,400000007.98724174,2.7311484814,122.17996601648723,10009.214583192957,-0.228,-0.191,-0.139,-0.123
-0.2,400000007.98724174,2.757550478,129.7179270983956,9840.111057611335,-0.32,-0.289,-0.253,-0.242
-0.2,400000007.98724174,2.7820489407,137.08817661648536,9664.958643142134,-0.407,-0.383,-0.366,-0.36
-0.2,400000007.98724174,2.803892374,144.21153515248682,9488.55326727801,-0.489,-0.473,-0.475,-0.475
-0.2,400000007.98724174,2.8258485794,152.75660582380732,9326.098541742987,-0.575,-0.567,-0.588,-0.593
-0.2,400000007.98724174,2.83644557,157.76112696993485,9272.567425805944,-0.617,-0.611,-0.639,-0.646
-0.2,400000007.98724174,2.8476982117,170.215850839495,9556.524994289595,-0.662,-0.638,-0.632,-0.629
-0.2,400000007.98724174,2.8503329754,176.6037820686164,9779.125057212412,-0.67,-0.636,-0.606,-0.596
-0.2,400000007.98724174,2.851524353,183.65383433483456,10020.744753364781,-0.674,-0.63,-0.577,-0.56
-0.2,400000007.98724174,2.852162838,191.4255925021086,10263.606662641501,-0.679,-0.626,-0.551,-0.528
-0.2,400000007.98724174,2.8525364399,200.44720273651615,10502.676773407102,-0.688,-0.627,-0.533,-0.503
-0.2,400000007.98724174,2.8527817726,208.92961308540387,10712.726072029467,-0.696,-0.629,-0.52,-0.485
-0.2,400000007.98724174,2.8528621197,211.34890398366477,10777.052536943213,-0.697,-0.628,-0.514,-0.478
-0.2,400000007.98724174,2.8529593945,200.90928126087277,10653.68863667563,-0.662,-0.597,-0.492,-0.459
-0.2,400000007.98724174,2.853041172,189.67059212111465,10461.645510220069,-0.633,-0.574,-0.484,-0.455
-0.2,400000007.98724174,2.85313797,182.38957023196383,10185.91388054117,-0.638,-0.588,-0.52,-0.499
-0.2,400000007.98724174,2.853243351,182.81002161427426,9917.44955231413,-0.685,-0.645,-0.601,-0.588
-0.2,400000007.98724174,2.8533682823,187.93168168032685,9649.393118055825,-0.757,-0.727,-0.711,-0.705
-0.2,400000007.98724174,2.8535103798,192.75249131909365,9388.581918730972,-0.824,-0.807,-0.821,-0.824
-0.2,400000007.98724174,2.8536663055,196.33602768360475,9132.716996648163,-0.876,-0.875,-0.921,-0.933
-0.2,400000007.98724174,2.8538339138,198.60949173573715,8881.77976319248,-0.912,-0.929,-1.011,-1.034
-0.2,400000007.98724174,2.8540108204,199.06733389871863,8637.737465291839,-0.934,-0.971,-1.095,-1.129
-0.2,400000007.98724174,2.8541936874,199.06733389871863,8398.466611579142,-0.939,-1.0,-1.172,-1.22
-0.2,400000007.98724174,2.8543784618,198.1527025805099,8165.823713585923,-0.929,-1.018,-1.243,-1.306
-0.2,400000007.98724174,2.854562521,196.7886289706845,7939.625172698565,-0.906,-1.026,-1.311,-1.39
-0.2,400000007.98724174,2.8547427654,194.98445997580455,7717.915155850127,-0.868,-1.024,-1.375,-1.473
-0.2,400000007.98724174,2.8549170494,192.75249131909365,7502.396279074636,-0.817,-1.015,-1.435,-1.554
-0.2,400000007.98724174,2.8550839424,190.10782799232996,7291.216599950674,-0.759,-0.999,-1.493,-1.633
-0.2,400000007.98724174,2.8552424908,187.06821403657997,7087.613064511822,-0.696,-0.976,-1.545,-1.71
-0.2,400000007.98724174,2.8553924561,184.07720014689562,6889.695054811368,-0.628,-0.948,-1.594,-1.785
-0.2,400000007.98724174,2.8555340767,180.3017740859568,6697.303805418961,-0.555,-0.916,-1.639,-1.857
-0.2,400000007.98724174,2.8556675911,177.0108958317422,6511.784205461806,-0.476,-0.88,-1.68,-1.926
-0.2,400000007.98724174,2.8557937145,172.98163592151016,6338.69711256927,-0.391,-0.842,-1.717,-1.991
-0.2,400000007.98724174,2.8559141159,169.04409316432648,6177.3185859152,-0.303,-0.8,-1.748,-2.049
-0.2,400000007.98724174,2.8560371399,164.81623915255085,6025.595860743575,-0.209,-0.753,-1.772,-2.101
-0.2,400000007.98724174,2.8561737537,159.220872705117,5881.661141430384,-0.1,-0.694,-1.788,-2.147
-0.2,400000007.98724174,2.8563461304,151.00801541641476,5738.521326746189,0.026,-0.615,-1.78,-2.17
-0.2,400000007.98724174,2.8565104008,142.8893958511102,5624.708239741314,0.145,-0.532,-1.757,-2.173
-0.2,400000007.98724174,2.8566884995,133.3521432163324,5516.9620938349835,0.276,-0.433,-1.717,-2.158
-0.2,400000007.98724174,2.8568577766,124.73835142429432,5423.754206961006,0.401,-0.338,-1.673,-2.136
-0.2,400000007.98724174,2.8570258617,117.48975549395291,5337.034374568299,0.517,-0.252,-1.636,-2.12
-0.2,400000007.98724174,2.8572280407,111.94378834671514,5238.416190277907,0.63,-0.173,-1.616,-2.125
-0.2,400000007.98724174,2.857303381,110.9174815262401,5202.355186873041,0.664,-0.152,-1.617,-2.135
-0.2,400000007.98724174,2.8573801517,111.94378834671514,5168.922254317574,0.677,-0.151,-1.638,-2.165
-0.2,400000007.98724174,2.857609272,119.1242008027375,5073.410460372977,0.675,-0.188,-1.734,-2.287
-0.2,400000007.98724174,2.8578207493,130.31667784523,5001.496854402788,0.628,-0.262,-1.856,-2.429
-0.2,400000007.98724174,2.8580198288,142.23287871228197,4947.661736816762,0.577,-0.336,-1.967,-2.555
-0.2,400000007.98724174,2.8582680225,156.3147642640954,4897.7881936844615,0.518,-0.418,-2.084,-2.687
-0.2,400000007.98724174,2.8585660458,172.18685749860077,4850.650679999713,0.456,-0.502,-2.205,-2.822
-0.2,400000007.98724174,2.8588635921,188.79913490962926,4809.500785490998,0.395,-0.584,-2.317,-2.947
-0.2,400000007.98724174,2.8589627743,194.53600816226634,4795.1257408135025,0.376,-0.61,-2.355,-2.989
-0.2,400000007.98724174,2.8591589928,207.01413487910415,4769.798141192216,0.335,-0.664,-2.429,-3.07
-0.2,400000007.98724174,2.8592572212,213.30449131465772,4757.732275412047,0.315,-0.69,-2.465,-3.111
-0.2,400000007.98724174,2.8594269753,224.90546058357805,4734.782131851524,0.28,-0.737,-2.531,-3.183
-0.2,400000007.98724174,2.8597099781,246.60393372343387,4698.941086052156,0.22,-0.816,-2.639,-3.303
-0.2,400000007.98724174,2.8599927425,269.77394324449205,4664.445252037798,0.159,-0.896,-2.748,-3.423
-0.2,400000007.98724174,2.8602752686,295.1209226666387,4631.268924918746,0.099,-0.975,-2.856,-3.542
-0.2,400000007.98724174,2.860558033,323.5936569296281,4598.328567699996,0.039,-1.055,-2.964,-3.661
-0.2,400000007.98724174,2.8608968258,361.40986263961315,4559.319216592223,-0.029,-1.153,-3.094,-3.801
-0.2,400000007.98724174,2.8611791134,396.2780342554393,4526.890608773584,-0.086,-1.235,-3.204,-3.921
-0.2,400000007.98724174,2.8614678383,437.5221051582521,4492.623246702932,-0.145,-1.32,-3.319,-4.045
-0.2,400000007.98724174,2.8617174625,476.4309868054156,4462.723707622523,-0.197,-1.395,-3.419,-4.154
-0.2,400000007.98724174,2.8620097637,524.8074602497728,4427.922387787075,-0.255,-1.479,-3.534,-4.28
-0.2,400000007.98724174,2.8622591496,564.9369748123022,4403.520272026519,-0.298,-1.54,-3.617,-4.371
-0.2,400000007.98724174,2.8624088764,583.4451042737447,4392.380956904633,-0.319,-1.57,-3.656,-4.414
-0.2,400000007.98724174,2.8628225327,559.7576014951104,4407.5779324153655,-0.295,-1.535,-3.607,-4.36
-0.2,400000007.98724174,2.8633379936,533.3348954876208,4425.883723626264,-0.268,-1.495,-3.551,-4.297
-0.2,400000007.98724174,2.8640475273,502.34258952238713,4449.385139745807,-0.235,-1.444,-3.48,-4.219
-0.2,400000007.98724174,2.8650243282,465.5860935229591,4477.133041763624,-0.192,-1.38,-3.391,-4.121
-0.2,400000007.98724174,2.8657877445,434.51022417157145,4504.016781680873,-0.153,-1.322,-3.31,-4.033
-0.2,400000007.98724174,2.8665196896,404.57589169744284,4531.0619497855805,-0.112,-1.261,-3.226,-3.94
-0.2,400000007.98724174,2.8671264648,379.3149849736821,4555.121861657392,-0.075,-1.205,-3.149,-3.856
-0.2,400000007.98724174,2.8676941395,355.6313185689855,4580.364077908267,-0.037,-1.149,-3.072,-3.773
-0.2,400000007.98724174,2.867795229,351.560440528298,4584.584692493264,-0.031,-1.139,-3.059,-3.758
-0.2,400000007.98724174,2.8684999943,323.5936569296281,4616.363515404673,0.019,-1.066,-2.96,-3.65
-0.2,400000007.98724174,2.8692064285,297.8516429429191,4648.362618593011,0.073,-0.994,-2.859,-3.539
-0.2,400000007.98724174,2.8700349331,269.77394324449205,4685.975353086258,0.136,-0.91,-2.743,-3.411
-0.2,400000007.98724174,2.8707969189,247.74220576332863,4719.543572446043,0.194,-0.834,-2.639,-3.296
-0.2,400000007.98724174,2.8716304302,226.98648518838212,4754.4468852521,0.253,-0.757,-2.534,-3.181
-0.2,400000007.98724174,2.8725793362,207.49135174549107,4790.711300030745,0.311,-0.679,-2.427,-3.062
-0.2,400000007.98724174,2.873705864,189.67059212111465,4829.475864447709,0.372,-0.598,-2.317,-2.94
-0.2,400000007.98724174,2.8755521774,169.04409316432648,4882.0250108670625,0.447,-0.497,-2.176,-2.784
-0.2,400000007.98724174,2.8779020309,153.4616982799294,4935.145940408827,0.505,-0.414,-2.054,-2.646
-0.2,400000007.98724174,2.8824477196,140.92887984218748,5013.026495398051,0.535,-0.352,-1.937,-2.506
-0.2,400000007.98724174,2.8850619793,138.99526312133526,5050.100256703167,0.523,-0.35,-1.911,-2.47
-0.2,400000007.98724174,2.8889226913,141.2537544622754,5069.907082747044,0.49,-0.375,-1.922,-2.476
-0.2,400000007.98724174,2.9147512913,157.76112696993485,5093.308710571952,0.357,-0.501,-2.033,-2.58
-0.2,400000007.98724174,2.9442293644,179.47336268325265,5099.175975748702,0.214,-0.645,-2.174,-2.718
-0.2,400000007.98724174,2.9759056568,206.53801558105292,5093.308710571952,0.069,-0.796,-2.329,-2.873
-0.2,400000007.98724174,2.9851634502,215.27817347243737,5089.791592468075,0.028,-0.839,-2.374,-2.919
-0.2,400000007.98724174,3.012288332,233.3458062281002,5023.4258952238715,-0.009,-0.905,-2.484,-3.047
-0.2,400000007.98724174,3.0221281052,239.88329190194898,4986.547955557967,-0.01,-0.922,-2.526,-3.1
-0.2,400000007.98724174,3.0326631069,248.88573182823905,4898.916080940641,0.024,-0.925,-2.591,-3.191
-0.2,400000007.98724174,3.0359640121,271.01916318908417,4807.286438439701,0.013,-0.977,-2.712,-3.34
-0.2,400000007.98724174,3.0364887714,295.80124665515467,4753.352259428054,-0.028,-1.045,-2.824,-3.468
-0.2,400000007.98724174,3.0366606712,320.6269324505464,4709.77326396953,-0.07,-1.109,-2.923,-3.581
-0.2,400000007.98724174,3.0366611481,320.6269324505464,4709.77326396953,-0.07,-1.11,-2.923,-3.582
-0.2,400000007.98724174,3.0367553234,356.45113342624427,4661.22428001887,-0.134,-1.2,-3.054,-3.728
-0.2,400000007.98724174,3.036822319,381.94427084004644,4632.335436779563,-0.171,-1.259,-3.137,-3.819
-0.2,400000007.98724174,3.0368905067,393.55007545577763,4619.553487999654,-0.188,-1.284,-3.172,-3.857
-0.2,400000007.98724174,3.0370883942,399.02490236214203,4615.300680791288,-0.198,-1.297,-3.188,-3.875
-0.2,400000007.98724174,3.0373005867,385.4783576657717,4630.202658603084,-0.178,-1.267,-3.146,-3.828
-0.2,400000007.98724174,3.0382707119,377.572190925416,4637.671681240619,-0.166,-1.249,-3.122,-3.802
-0.2,400000007.98724174,3.038847208,401.79081084894,4609.990177075899,-0.199,-1.302,-3.198,-3.886
-0.2,400000007.98724174,3.0394337177,441.57044735331255,4569.82953285961,-0.251,-1.383,-3.311,-4.01
-0.2,400000007.98724174,3.0400879383,489.77881936844614,4528.975799036209,-0.307,-1.469,-3.433,-4.144
-0.2,400000007.98724174,3.0407590866,540.754322945581,4488.487292745978,-0.363,-1.554,-3.552,-4.275
-0.2,400000007.98724174,3.0414066315,597.0352865838366,4447.3365938979705,-0.416,-1.635,-3.669,-4.406
-0.2,400000007.98724174,3.0420126915,659.1738952443212,4407.5779324153655,-0.469,-1.716,-3.786,-4.535
-0.2,400000007.98724174,3.0425636768,727.7798045368243,4368.174708649131,-0.522,-1.797,-3.901,-4.664
-0.2,400000007.98724174,3.0429415703,783.429642766212,4332.115230872224,-0.55,-1.849,-3.989,-4.765
-0.2,400000007.98724174,3.0433986187,862.9785477669702,4289.434099967818,-0.592,-1.919,-4.103,-4.897
-0.2,400000007.98724174,3.0438067913,950.6047936562819,4253.04521683435,-0.638,-1.99,-4.216,-5.024
-0.2,400000007.98724174,3.0441749096,1044.7202192208003,4216.965034285822,-0.682,-2.058,-4.328,-5.152
-0.2,400000007.98724174,3.044511795,1150.8003889444356,4175.418393198107,-0.719,-2.122,-4.442,-5.285
-0.2,400000007.98724174,3.0448198318,1267.6518658578461,4141.903726221008,-0.763,-2.189,-4.555,-5.412
-0.2,400000007.98724174,3.0451033115,1393.1568029453035,4108.6580701062485,-0.807,-2.256,-4.666,-5.539
-0.2,400000007.98724174,3.0453636646,1534.6169827992942,4074.740913798705,-0.849,-2.322,-4.778,-5.667
-0.2,400000007.98724174,3.0456032753,1686.5530253887407,4041.103745134904,-0.887,-2.384,-4.889,-5.794
-0.2,400000007.98724174,3.0458247662,1857.8044550916989,4007.7442528043107,-0.926,-2.445,-5.0,-5.921
-0.2,400000007.98724174,3.0460295677,2046.444636724674,3973.745050614633,-0.959,-2.503,-5.112,-6.05
-0.2,400000007.98724174,3.0462188721,2249.0546058357804,3939.1271544686583,-0.987,-2.555,-5.224,-6.178
-0.2,400000007.98724174,3.046394825,2477.4220576332864,3904.8108374925373,-1.014,-2.607,-5.336,-6.307
-0.2,400000007.98724174,3.046558857,2722.701308077913,3869.9022919026884,-1.037,-2.651,-5.448,-6.436
-0.2,400000007.98724174,3.0467131138,2999.16251898765,3834.4228144309195,-1.056,-2.691,-5.561,-6.566
-0.2,400000007.98724174,3.0468583107,3296.097121774576,3799.2686147637874,-1.073,-2.729,-5.673,-6.696
-0.2,400000007.98724174,3.0469958782,3630.780547701014,3762.7035226776516,-1.08,-2.752,-5.786,-6.827
-0.2,400000007.98724174,3.0471270084,3990.2490236214207,3726.490341997325,-1.085,-2.772,-5.9,-6.958
-0.2,400000007.98724174,3.0472533703,4395.416154378243,3688.926481189961,-1.079,-2.776,-6.015,-7.091
-0.2,400000007.98724174,3.0473766327,4830.5880203977285,3651.741272548377,-1.062,-2.768,-6.13,-7.224
-0.2,400000007.98724174,3.047498703,5308.8444423098845,3614.0986263961313,-1.033,-2.743,-6.244,-7.355
-0.2,400000007.98724174,3.0476307869,5821.032177708716,3576.0205018090237,-0.992,-2.699,-6.358,-7.485
-0.2,400000007.98724174,3.0478460789,6516.283940608428,3528.5802582852702,-0.926,-2.625,-6.499,-7.648
-0.2,400000007.98724174,3.0479216576,6683.439175686149,3518.8438882095843,-0.91,-2.605,-6.53,-7.683
-0.2,400000007.98724174,3.0480089188,6486.344335482381,3531.83169791957,-0.934,-2.634,-6.491,-7.638
-0.2,400000007.98724174,3.0480408669,5970.352865838366,3565.3321878292813,-0.982,-2.69,-6.391,-7.522
-0.2,400000007.98724174,3.0480585098,6441.692655151775,3534.2722436627364,-0.938,-2.639,-6.485,-7.63
-0.2,400000007.98724174,3.0480906963,7030.723198838334,3497.840484251412,-0.874,-2.562,-6.592,-7.754
-0.2,400000007.98724174,3.0481033325,7161.43410212902,3489.7956743787454,-0.858,-2.543,-6.616,-7.782
-0.2,400000007.98724174,3.0481104851,7311.390834834172,3481.769367055342,-0.843,-2.525,-6.641,-7.81
-0.2,400000007.98724174,3.0481162071,7533.55563733717,3469.764505288517,-0.821,-2.498,-6.678,-7.852
-0.2,400000007.98724174,3.0481243134,7961.593504173184,3445.8788144433506,-0.764,-2.427,-6.749,-7.933
-0.2,400000007.98724174,3.0481395721,8689.60429286302,3408.7880601025868,-0.671,-2.31,-6.857,-8.056
-0.2,400000007.98724174,3.0481443405,8851.156098308356,3400.9480651219096,-0.649,-2.283,-6.881,-8.084
-0.2,400000007.98724174,3.0481469631,8851.156098308356,3400.9480651219096,-0.649,-2.283,-6.881,-8.084
-0.2,400000007.98724174,3.0481479168,9616.122783836649,3373.6498087376713,-0.574,-2.186,-6.981,-8.196
-0.2,400000007.98724174,3.0481479168,9749.896377173867,3367.4410363771217,-0.553,-2.161,-6.999,-8.216
-0.2,400000007.98724174,3.0481493473,7447.319739059889,3478.5640153042373,-0.848,-2.53,-6.661,-7.832
-0.2,400000007.98724174,3.0481519699,5508.076964054036,3607.447338641916,-1.045,-2.758,-6.287,-7.4
-0.2,400000007.98724174,3.0481557846,5847.900841444806,3580.1399184306892,-1.012,-2.723,-6.363,-7.488
-0.2,400000007.98724174,3.0481610298,6839.116472814293,3513.176750372876,-0.908,-2.603,-6.558,-7.713
-0.2,400000007.98724174,3.0481677055,7961.593504173184,3448.2599655262325,-0.776,-2.441,-6.747,-7.93
-0.2,400000007.98724174,3.0481758118,8871.560120379609,3402.5146202702363,-0.659,-2.294,-6.882,-8.084
-0.2,400000007.98724174,3.0481858253,9440.608762859236,3375.981048554255,-0.573,-2.188,-6.962,-8.175
-0.2,400000007.98724174,3.0481977463,9817.479430199845,3358.9226273449517,-0.509,-2.107,-7.011,-8.231
-0.2,400000007.98724174,3.0482113361,10115.794542598982,3345.0298682601374,-0.453,-2.037,-7.052,-8.277
-0.2,400000007.98724174,3.0482115746,14256.075936021878,3208.484902035953,0.161,-1.229,-7.488,-8.766
-0.2,400000007.98724174,3.0482125282,11168.632477805611,3305.217168699801,-0.298,-1.842,-7.176,-8.418
-0.2,400000007.98724174,3.0482144356,8531.001140175895,3414.286807579689,-0.679,-2.321,-6.836,-8.033
-0.2,400000007.98724174,3.048217535,6280.58358813318,3542.4195826164946,-0.948,-2.653,-6.454,-7.596
-0.2,400000007.98724174,3.0482223034,6652.731562017413,3518.0337377370256,-0.903,-2.598,-6.525,-7.677
-0.2,400000007.98724174,3.0482287407,7709.034690644301,3455.413295778485,-0.778,-2.446,-6.71,-7.89
-0.2,400000007.98724174,3.0482370853,8892.011178579482,3396.2527259040853,-0.628,-2.258,-6.887,-8.092
-0.2,400000007.98724174,3.0482473373,9772.372209558112,3356.603166999334,-0.492,-2.087,-7.007,-8.228
-0.2,400000007.98724174,3.0482594967,10256.519262514079,3336.56815138526,-0.414,-1.99,-7.069,-8.299
-0.2,400000007.98724174,3.0482742786,10495.42428652322,3326.5955329400435,-0.376,-1.943,-7.098,-8.331
-0.2,400000007.98724174,3.0482912064,10616.955571987242,3321.2380132514595,-0.353,-1.915,-7.115,-8.35
-0.2,400000007.98724174,3.0482914448,15031.419660900208,3182.7314821707823,0.296,-1.052,-7.558,-8.844
-0.2,400000007.98724174,3.0482923985,11803.206356517298,3278.687311745482,-0.166,-1.668,-7.248,-8.499
-0.2,400000007.98724174,3.0482945442,9036.494737223014,3387.661433708217,-0.599,-2.222,-6.908,-8.117
-0.2,400000007.98724174,3.0482981205,6652.731562017413,3516.4139963166635,-0.893,-2.588,-6.526,-7.679
-0.2,400000007.98724174,3.0483031273,7046.930689671467,3491.4031547858626,-0.846,-2.531,-6.596,-7.761
-0.2,400000007.98724174,3.0483100414,8165.823713585923,3428.467208333132,-0.703,-2.354,-6.782,-7.973
-0.2,400000007.98724174,3.0483191013,9375.620069258803,3369.7679858440365,-0.529,-2.136,-6.957,-8.174
-0.2,400000007.98724174,3.048330307,10303.861204416158,3329.660852068807,-0.379,-1.948,-7.077,-8.309
-0.2,400000007.98724174,3.0483436584,10814.339512979375,3309.0246319221333,-0.293,-1.84,-7.14,-8.381
-0.2,400000007.98724174,3.0483593941,11091.748152624008,3297.6153801591913,-0.24,-1.771,-7.171,-8.415
-0.2,400000007.98724174,3.0483779907,11246.049739669268,3290.031075247056,-0.2,-1.719,-7.191,-8.438
-0.2,400000007.98724174,3.0483782291,15995.580286146678,3150.648832972395,0.462,-0.841,-7.64,-8.938
-0.2,400000007.98724174,3.0483791828,12560.299636948754,3245.6374062026525,0.018,-1.428,-7.332,-8.596
-0.2,400000007.98724174,3.048381567,9638.290236239705,3352.740958484161,-0.456,-2.046,-6.994,-8.216
-0.2,400000007.98724174,3.0483853817,7095.777679633888,3481.769367055342,-0.813,-2.494,-6.607,-7.777
-0.2,400000007.98724174,3.0483908653,7498.942093324558,3457.0049388687194,-0.76,-2.429,-6.678,-7.858
-0.2,400000007.98724174,3.0483982563,8669.61875758217,3395.4707998402328,-0.6,-2.228,-6.86,-8.066
-0.2,400000007.98724174,3.048407793,9931.160484209335,3338.1050516598925,-0.395,-1.971,-7.033,-8.261
-0.2,400000007.98724174,3.0484194756,10864.256236170644,3300.6539952850767,-0.238,-1.772,-7.148,-8.391
-0.2,400000007.98724174,3.0484337807,11376.27285823431,3280.1975507699003,-0.143,-1.645,-7.207,-8.458
-0.2,400000007.98724174,3.0484507084,11614.486138403438,3270.3934175663962,-0.093,-1.58,-7.234,-8.488
-0.2,400000007.98724174,3.0484704971,11748.975549395303,3264.3746754294584,-0.06,-1.537,-7.25,-8.506
-0.2,400000007.98724174,3.0484707355,16788.040181225588,3121.763510848167,0.596,-0.678,-7.706,-9.014
-0.2,400000007.98724174,3.0484719276,13212.956341865765,3216.6217928790406,0.175,-1.225,-7.4,-8.674
-0.2,400000007.98724174,3.0484745502,10139.1138573668,3324.298395649131,-0.329,-1.892,-7.063,-8.297
-0.2,400000007.98724174,3.0484788418,7464.487584100669,3454.617749058203,-0.74,-2.406,-6.674,-7.855
-0.2,400000007.98724174,3.0484850407,7888.601176185541,3430.0464394337664,-0.677,-2.327,-6.744,-7.935
-0.2,400000007.98724174,3.0484936237,9078.205301781862,3368.2165076063116,-0.492,-2.096,-6.923,-8.14
-0.2,400000007.98724174,3.048504591,10351.42166679343,3312.0737601979727,-0.275,-1.826,-7.091,-8.329
-0.2,400000007.98724174,3.0485181808,11271.974561755094,3275.668919368471,-0.1,-1.594,-7.201,-8.453
-0.2,400000007.98724174,3.0485346317,11776.059735208066,3256.1169870485296,-0.001,-1.464,-7.256,-8.516
-0.2,400000007.98724174,3.0485539436,11967.405313072442,3247.1324216780226,0.05,-1.397,-7.279,-8.542
-0.2,400000007.98724174,3.0485765934,12078.138351067797,3241.1564884384366,0.086,-1.351,-7.291,-8.557
-0.2,400000007.98724174,3.0485768318,17338.039977541375,3095.993213309174,0.722,-0.522,-7.755,-9.072
-0.2,400000007.98724174,3.0485780239,13677.288255958494,3190.0684359752117,0.331,-1.025,-7.452,-8.736
-0.2,400000007.98724174,3.0485806465,10543.86896391258,3296.856163568906,-0.187,-1.714,-7.118,-8.362
-0.2,400000007.98724174,3.0485846996,7744.617978025183,3427.6778654645045,-0.649,-2.298,-6.725,-7.917
-0.2,400000007.98724174,3.0485908985,8184.647881347895,3403.2981684204196,-0.582,-2.214,-6.795,-7.997
-0.2,400000007.98724174,3.0485992432,9418.895965228417,3342.7200013786605,-0.369,-1.948,-6.973,-8.2
-0.2,400000007.98724174,3.048609972,10690.548792226577,3287.7591870669708,-0.134,-1.646,-7.137,-8.385
-0.2,400000007.98724174,3.048623085,11614.486138403438,3251.621601204828,0.048,-1.406,-7.244,-8.505
-0.2,400000007.98724174,3.0486392975,12105.981335504828,3232.2132033960884,0.147,-1.275,-7.297,-8.566
-0.2,400000007.98724174,3.0486581326,12302.68770812381,3223.2945954551496,0.195,-1.213,-7.319,-8.591
-0.2,400000007.98724174,3.0486803055,12387.965865303691,3217.3625326955976,0.228,-1.171,-7.33,-8.605
-0.2,400000007.98724174,3.0486805439,17864.8757485205,3069.728738183665,0.816,-0.423,-7.8,-9.126
-0.2,400000007.98724174,3.048681736,14157.93779957081,3163.0058853452065,0.493,-0.819,-7.5,-8.794
-0.2,400000007.98724174,3.0486843586,10939.563662720931,3270.3934175663962,-0.03,-1.514,-7.168,-8.423
-0.2,400000007.98724174,3.0486884117,8016.78063387679,3402.5146202702363,-0.555,-2.186,-6.773,-7.976
-0.2,400000007.98724174,3.0486946106,8472.274141405964,3377.5361033186905,-0.475,-2.086,-6.843,-8.056
-0.2,400000007.98724174,3.0487029552,9727.47223776965,3317.416496945389,-0.242,-1.795,-7.019,-8.256
-0.2,400000007.98724174,3.0487136841,11015.393095414145,3262.871721430849,0.016,-1.456,-7.18,-8.437
-0.2,400000007.98724174,3.0487267971,11939.88104464273,3227.007687515532,0.199,-1.214,-7.284,-8.554
-0.2,400000007.98724174,3.0487430096,12416.523075924119,3208.484902035953,0.292,-1.092,-7.335,-8.612
-0.2,400000007.98724174,3.0487618446,12589.254117941662,3199.6317673183503,0.342,-1.027,-7.356,-8.637
-0.2,400000007.98724174,3.0487840176,12705.74105208542,3193.007951074664,0.379,-0.98,-7.367,-8.65
-0.2,400000007.98724174,3.048784256,18365.383433483476,3042.2857274809608,0.912,-0.333,-7.843,-9.177
-0.2,400000007.98724174,3.0487854481,14588.142602753474,3135.4508691442925,0.638,-0.645,-7.546,-8.849
-0.2,400000007.98724174,3.0487880707,11271.974561755094,3241.902878227874,0.145,-1.292,-7.216,-8.481
-0.2,400000007.98724174,3.0487921238,8279.421637123345,3375.2037896792626,-0.437,-2.045,-6.818,-8.032
-0.2,400000007.98724174,3.0487983227,8749.837752274363,3350.425766809598,-0.339,-1.923,-6.889,-8.113
-0.2,400000007.98724174,3.0488066673,10000.0,3290.031075247056,-0.084,-1.598,-7.063,-8.31
-0.2,400000007.98724174,3.0488173962,11297.959146727977,3235.936569296281,0.189,-1.237,-7.22,-8.488
-0.2,400000007.98724174,3.0488307476,12217.99660164871,3200.368594586517,0.363,-1.008,-7.322,-8.602
-0.2,400000007.98724174,3.0488469601,12676.518658578449,3181.9987155303106,0.461,-0.879,-7.372,-8.659
-0.2,400000007.98724174,3.0488660336,12882.495516931349,3172.488087350881,0.517,-0.807,-7.392,-8.683
-0.2,400000007.98724174,3.0488882065,12971.792709839572,3165.191567226265,0.56,-0.753,-7.403,-8.696
-0.2,400000007.98724174,3.0488884449,18836.49089489802,3012.312333777606,1.018,-0.232,-7.885,-9.227
-0.2,400000007.98724174,3.048889637,14962.356560944329,3105.274521697761,0.808,-0.442,-7.59,-8.904
-0.2,400000007.98724174,3.0488920212,11614.486138403438,3210.7020105619063,0.339,-1.047,-7.262,-8.539
-0.2,400000007.98724174,3.0488963127,8511.380382023768,3345.0298682601374,-0.28,-1.858,-6.863,-8.089
-0.2,400000007.98724174,3.0489022732,8994.975815300355,3318.944575526103,-0.176,-1.729,-6.934,-8.171
-0.2,400000007.98724174,3.0489103794,10280.162981264724,3259.1173631348456,0.11,-1.354,-7.107,-8.366
-0.2,400000007.98724174,3.0489208698,11587.773561551261,3205.531138700436,0.379,-0.999,-7.261,-8.54
-0.2,400000007.98724174,3.0489339828,12502.590302177214,3170.297366952724,0.559,-0.762,-7.361,-8.652
-0.2,400000007.98724174,3.0489497185,12971.792709839572,3151.374380204506,0.652,-0.644,-7.41,-8.708
-0.2,400000007.98724174,3.0489683151,13152.248321922376,3141.2319059861875,0.703,-0.582,-7.431,-8.732
-0.2,400000007.98724174,3.0489900112,13243.415351946644,3133.2857243155854,0.746,-0.531,-7.442,-8.746
-0.2,400000007.98724174,3.0489902496,19319.68317016922,2978.5164294291912,1.127,-0.131,-7.929,-9.279
-0.2,400000007.98724174,3.0489914417,15381.546403030357,3070.4356507300654,0.961,-0.275,-7.637,-8.962
-0.2,400000007.98724174,3.0489938259,11967.405313072442,3175.411402891837,0.568,-0.759,-7.312,-8.601
-0.2,400000007.98724174,3.048997879,8770.008211436349,3309.0246319221333,-0.083,-1.624,-6.911,-8.151
-0.2,400000007.98724174,3.0490038395,9268.298233793494,3283.2201160919944,0.044,-1.457,-6.983,-8.233
-0.2,400000007.98724174,3.0490119457,10568.175092136586,3223.2945954551496,0.348,-1.056,-7.153,-8.426
-0.2,400000007.98724174,3.0490224361,11857.687481671597,3169.56746304349,0.615,-0.704,-7.305,-8.597
-0.2,400000007.98724174,3.0490353107,12764.388088113436,3134.7289880140065,0.774,-0.504,-7.403,-8.706
-0.2,400000007.98724174,3.0490510464,13243.415351946644,3114.583654012132,0.865,-0.392,-7.451,-8.761
-0.2,400000007.98724174,3.0490694046,13427.649611378642,3103.1302147534125,0.926,-0.32,-7.472,-8.786
-0.2,400000007.98724174,3.0490908623,13520.72563194278,3093.855315451652,0.98,-0.256,-7.484,-8.802
-0.2,400000007.98724174,3.0490911007,19815.27025805097,2938.3261486728097,1.256,-0.014,-7.975,-9.334
-0.2,400000007.98724174,3.0490922928,15812.480392703827,3029.0050681662174,1.126,-0.118,-7.685,-9.022
-0.2,400000007.98724174,3.049094677,12302.68770812381,3131.843125111643,0.829,-0.444,-7.364,-8.668
-0.2,400000007.98724174,3.0490984917,9015.711376059571,3264.3746754294584,0.206,-1.263,-6.962,-8.219
-0.2,400000007.98724174,3.0491042137,9527.96164023652,3237.42711634235,0.347,-1.078,-7.034,-8.301
-0.2,400000007.98724174,3.0491120815,10839.269140212038,3178.3374121462216,0.643,-0.688,-7.203,-8.491
-0.2,400000007.98724174,3.0491220951,12161.86000646368,3126.0793671239558,0.881,-0.386,-7.352,-8.659
-0.2,400000007.98724174,3.0491344929,13061.708881318404,3090.295432513592,1.039,-0.192,-7.448,-8.767
-0.2,400000007.98724174,3.0491495132,13520.72563194278,3069.728738183665,1.097,-0.137,-7.495,-8.82
-0.2,400000007.98724174,3.0491671562,13708.817661648523,3057.032106987659,1.142,-0.094,-7.516,-8.845
-0.2,400000007.98724174,3.0491878986,13772.094688939473,3045.089066974223,1.189,-0.05,-7.528,-8.861
-0.2,400000007.98724174,3.0491881371,20276.827195212838,2891.3455626423843,1.405,0.124,-8.023,-9.392
-0.2,400000007.98724174,3.0491893291,16218.100973589299,2977.8306796291185,1.309,0.053,-7.737,-9.087
-0.2,400000007.98724174,3.0491914749,12647.363474711523,3076.096814740708,1.137,-0.095,-7.421,-8.744
-0.2,400000007.98724174,3.0491952896,9268.298233793494,3203.3176008528117,0.622,-0.747,-7.02,-8.299
-0.2,400000007.98724174,3.0492010117,9794.89985408699,3173.218663836144,0.785,-0.536,-7.094,-8.384
-0.2,400000007.98724174,3.0492086411,11117.317272815919,3110.283668685142,1.07,-0.179,-7.263,-8.575
-0.2,400000007.98724174,3.0492184162,12445.146117713844,3053.514593940289,1.258,0.022,-7.412,-8.741
-0.2,400000007.98724174,3.0492305756,13335.21432163324,3012.312333777606,1.375,0.129,-7.508,-8.85
-0.2,400000007.98724174,3.0492453575,13772.094688939473,2985.3826189179604,1.449,0.197,-7.558,-8.905
-0.2,400000007.98724174,3.0492627621,13963.683610559363,2965.514145782622,1.521,0.262,-7.582,-8.935
-0.2,400000007.98724174,3.0492830276,14060.47524129913,2947.81347660652,1.588,0.323,-7.598,-8.955
-0.2,400000007.98724174,3.0492832661,20749.13517454911,2795.76072758083,1.709,0.466,-8.09,-9.473
-0.2,400000007.98724174,3.0492839813,16634.126503701696,2898.010802529753,1.599,0.318,-7.805,-9.173
-0.2,400000007.98724174,3.0492854118,13001.695780332899,3034.5898438888025,1.332,0.084,-7.472,-8.808
-0.2,400000007.98724174,3.0492880344,9506.04793656282,3238.918349968776,0.431,-1.02,-7.036,-8.302
-0.2,400000007.98724174,3.0492918491,10046.157902783947,3311.311214825911,-0.125,-1.723,-7.065,-8.302
-0.2,400000007.98724174,3.0492968559,11376.27285823431,3382.9844379759015,-0.66,-2.365,-7.175,-8.38
-0.2,400000007.98724174,3.0493035316,12705.74105208542,3501.8698409688745,-1.317,-3.147,-7.252,-8.402
-0.2,400000007.98724174,3.0493116379,13583.134465871542,3693.175960479867,-2.028,-3.929,-7.273,-8.326
-0.2,400000007.98724174,3.0493216515,14028.13704561959,3974.660144576364,-2.761,-4.528,-7.248,-8.155
-0.2,400000007.98724174,3.049333334,14190.575216890926,4365.158322401661,-3.42,-4.973,-7.195,-7.916
-0.2,400000007.98724174,3.0493469238,14256.075936021878,4889.900250464924,-4.184,-5.321,-7.034,-7.589
-0.2,400000007.98724174,3.0493471622,21086.281499332887,4486.420743836898,-3.998,-5.498,-7.602,-8.273
-0.2,400000007.98724174,3.0493478775,16943.37800447329,4718.456982481569,-4.135,-5.419,-7.282,-7.883
-0.2,400000007.98724174,3.049349308,13243.415351946644,5001.496854402788,-4.227,-5.293,-6.917,-7.442
-0.2,400000007.98724174,3.0493519306,9682.778562612497,5403.809120790774,-4.253,-5.096,-6.442,-6.872
-0.2,400000007.98724174,3.0493555069,10232.929922807536,5390.139436325507,-4.302,-5.151,-6.505,-6.937
-0.2,400000007.98724174,3.0493605137,11587.773561551261,5305.178488808972,-4.367,-5.26,-6.668,-7.12
-0.2,400000007.98724174,3.049366951,12882.495516931349,5256.540320069867,-4.434,-5.359,-6.801,-7.263
-0.2,400000007.98724174,3.0493750572,13740.41975012515,5274.727156616845,-4.519,-5.437,-6.867,-7.323
-0.2,400000007.98724174,3.0493848324,14157.93779957081,5360.43457816143,-4.626,-5.498,-6.87,-7.306
-0.2,400000007.98724174,3.0493962765,14321.878992735425,5500.47252867634,-4.752,-5.55,-6.833,-7.236
-0.2,400000007.98724174,3.0494096279,14387.985782558466,5684.601168490088,-4.895,-5.6,-6.767,-7.128
-0.2,400000007.98724174,3.0494098663,21281.390459827133,5081.594425605605,-4.79,-5.839,-7.411,-7.908
-0.2,400000007.98724174,3.0494105816,17100.15315090286,5377.742459634421,-4.838,-5.709,-7.071,-7.5
-0.2,400000007.98724174,3.0494120121,13427.649611378642,5697.705527561363,-4.829,-5.528,-6.689,-7.047
-0.2,400000007.98724174,3.0494143963,9817.479430199845,6113.641945007669,-4.761,-5.263,-6.182,-6.46
-0.2,400000007.98724174,3.0494179726,10351.42166679343,5854.637363205773,-4.652,-5.275,-6.348,-6.677
-0.2,400000007.98724174,3.0494227409,11721.953655481304,5438.76131720408,-4.488,-5.313,-6.634,-7.054
-0.2,400000007.98724174,3.0494291782,13001.695780332899,5018.801279032415,-4.224,-5.28,-6.89,-7.411
-0.2,400000007.98724174,3.0494368076,13867.558288718896,4625.940047661603,-3.788,-5.149,-7.098,-7.726
-0.2,400000007.98724174,3.049446106,14288.939585111037,4248.15153514646,-3.208,-4.825,-7.247,-8.066
-0.2,400000007.98724174,3.0494573116,14454.39770745928,3863.669770540693,-2.842,-4.573,-7.294,-8.233
-0.2,400000007.98724174,3.0494701862,14487.718535447602,3464.1764103524893,-2.055,-3.99,-7.309,-8.491
-0.2,400000007.98724174,3.0494704247,21527.817347243737,3061.963433690679,-1.343,-3.607,-7.751,-9.187
-0.2,400000007.98724174,3.0494709015,17338.039977541375,3265.126412019571,-1.702,-3.794,-7.504,-8.818
-0.2,400000007.98724174,3.049472332,13614.44682465951,3495.425095985996,-2.067,-3.977,-7.238,-8.401
-0.2,400000007.98724174,3.0494747162,9931.160484209335,3812.4135110429906,-2.354,-4.106,-6.892,-7.859
-0.2,400000007.98724174,3.0494782925,10495.42428652322,3685.5304185247937,-2.191,-3.996,-6.957,-7.998
-0.2,400000007.98724174,3.0494828224,11857.687481671597,3464.974158289286,-1.845,-3.775,-7.09,-8.272
-0.2,400000007.98724174,3.0494887829,13152.248321922376,3252.370400952974,-1.374,-3.472,-7.202,-8.526
-0.2,400000007.98724174,3.0494964123,13995.873225726178,3066.9027151623077,-0.918,-3.163,-7.28,-8.716
-0.2,400000007.98724174,3.0495052338,14421.153515248681,2898.6781710077653,-0.46,-2.838,-7.317,-8.83
-0.2,400000007.98724174,3.0495159626,14554.59080581967,2731.492422089182,0.001,-2.51,-7.347,-8.891
-0.2,400000007.98724174,3.0495283604,14621.771744567182,2553.877135779322,0.347,-2.271,-7.379,-8.92
-0.2,400000007.98724174,3.0495285988,21777.09772353159,2228.9483245050606,-0.075,-2.696,-7.81,-9.352
-0.2,400000007.98724174,3.0495290756,17538.805018417603,2394.41817286338,0.159,-2.462,-7.577,-9.118
-0.2,400000007.98724174,3.0495305061,13803.842646028837,2589.405105739233,0.385,-2.221,-7.313,-8.854
-0.2,400000007.98724174,3.0495328903,10069.316688518044,2866.8171905248937,-0.052,-2.419,-6.923,-8.451
-0.2,400000007.98724174,3.0495359898,10641.430182243164,2786.1211686297693,0.124,-2.312,-6.99,-8.532
-0.2,400000007.98724174,3.0495405197,11994.993031493781,2636.3313858253787,0.426,-2.141,-7.15,-8.694
-0.2,400000007.98724174,3.0495462418,13273.944577297401,2499.194175195829,0.45,-2.167,-7.274,-8.815
-0.2,400000007.98724174,3.0495536327,14125.375446227554,2390.011551484727,0.393,-2.228,-7.343,-8.884
-0.2,400000007.98724174,3.0495622158,14554.59080581967,2301.971804985357,0.362,-2.259,-7.374,-8.915
-0.2,400000007.98724174,3.0495724678,14689.262776438662,2219.7292249542816,0.351,-2.271,-7.385,-8.926
-0.2,400000007.98724174,3.0495843887,14757.065332758932,2133.5361214388204,0.347,-2.275,-7.389,-8.931
-0.2,400000007.98724174,3.0495846272,21978.59872784823,1835.2701456751024,-0.086,-2.708,-7.822,-9.364
-0.2,400000007.98724174,3.049585104,17741.894808901645,1989.7568110906568,0.146,-2.476,-7.59,-9.131
-0.2,400000007.98724174,3.0495865345,13963.683610559363,2178.2112662934346,0.405,-2.216,-7.33,-8.872
-0.2,400000007.98724174,3.0495886803,10209.394837076808,2456.4051543247197,0.694,-1.904,-6.984,-8.525
-0.2,400000007.98724174,3.0495917797,10764.65213629835,2408.241299827827,0.666,-1.946,-7.045,-8.587
-0.2,400000007.98724174,3.0495960712,12133.888504649762,2302.501914610407,0.559,-2.063,-7.177,-8.719
-0.2,400000007.98724174,3.0496017933,13427.649611378642,2216.6646731048236,0.45,-2.172,-7.286,-8.828
-0.2,400000007.98724174,3.0496087074,14256.075936021878,2165.708494710074,0.383,-2.238,-7.352,-8.894
-0.2,400000007.98724174,3.0496170521,14655.478409559128,2143.8776659735067,0.353,-2.268,-7.383,-8.924
-0.2,400000007.98724174,3.0496268272,14825.180851459545,2138.454430146535,0.342,-2.279,-7.393,-8.935
-0.2,400000007.98724174,3.0496382713,14859.35642287006,2138.9468841695148,0.339,-2.283,-7.397,-8.939
-0.2,400000007.98724174,3.0496385098,22181.964198002195,1808.422908936511,-0.097,-2.718,-7.832,-9.374
-0.2,400000007.98724174,3.0496389866,17947.336268325245,1974.2402414542146,0.134,-2.487,-7.601,-9.143
-0.2,400000007.98724174,3.0496401787,14157.93779957081,2175.7049509257954,0.392,-2.229,-7.343,-8.885
-0.2,400000007.98724174,3.0496423244,10327.61405761398,2474.5714613338073,0.679,-1.918,-6.996,-8.538
-0.2,400000007.98724174,3.0496454239,10889.300933334333,2404.916488744403,0.659,-1.955,-7.058,-8.599
-0.2,400000007.98724174,3.0496497154,12274.392311584084,2268.8197811445098,0.547,-2.074,-7.188,-8.73
-0.2,400000007.98724174,3.0496549606,13551.89412351035,2152.2860954760554,0.44,-2.181,-7.296,-8.837
-0.2,400000007.98724174,3.0496616364,14387.985782558466,2069.1882329488953,0.375,-2.246,-7.361,-8.902
-0.2,400000007.98724174,3.0496697426,14757.065332758932,2010.9441078951434,0.346,-2.276,-7.39,-8.932
-0.2,400000007.98724174,3.0496792793,14893.610777109154,1963.3602768360474,0.335,-2.286,-7.4,-8.942
-0.2,400000007.98724174,3.0496902466,14962.356560944329,1915.1376754674718,0.332,-2.289,-7.404,-8.945
-0.2,400000007.98724174,3.049690485,22387.21138568338,1595.5117247859646,-0.105,-2.727,-7.841,-9.382
-0.2,400000007.98724174,3.0496909618,18113.400926196027,1752.2658618857076,0.124,-2.497,-7.611,-9.153
-0.2,400000007.98724174,3.0496921539,14288.939585111037,1942.2270572331686,0.381,-2.241,-7.355,-8.896
-0.2,400000007.98724174,3.0496942997,10423.174293933036,2226.3836295529077,0.723,-1.898,-7.012,-8.554
-0.2,400000007.98724174,3.0496971607,11015.393095414145,2150.3046793402564,0.665,-1.957,-7.071,-8.613
-0.2,400000007.98724174,3.0497012138,12387.965865303691,2010.018247113693,0.537,-2.084,-7.199,-8.74
-0.2,400000007.98724174,3.0497062206,13645.831365889238,1887.1220971170937,0.431,-2.19,-7.304,-8.846
-0.2,400000007.98724174,3.0497126579,14487.718535447602,1794.7336268325266,0.367,-2.254,-7.368,-8.91
-0.2,400000007.98724174,3.0497205257,14859.35642287006,1723.8520910269608,0.338,-2.283,-7.397,-8.939
-0.2,400000007.98724174,3.0497295856,14996.84835502374,1659.9690854431003,0.328,-2.293,-7.408,-8.949
-0.2,400000007.98724174,3.0497403145,15066.070661867418,1594.4099649101975,0.325,-2.297,-7.411,-8.953
-0.2,400000007.98724174,3.0497403145,22542.39212152428,1310.9918746497776,-0.114,-2.736,-7.85,-9.392
-0.2,400000007.98724174,3.0497410297,18281.00216142741,1450.7747890889113,0.113,-2.508,-7.622,-9.164
-0.2,400000007.98724174,3.0497422218,14454.39770745928,1624.800335227319,0.369,-2.253,-7.367,-8.909
-0.2,400000007.98724174,3.0497441292,10543.86896391258,1892.343618644976,0.712,-1.91,-7.024,-8.566
-0.2,400000007.98724174,3.0497469902,11142.945335917293,1840.7720014689564,0.653,-1.969,-7.083,-8.625
-0.2,400000007.98724174,3.0497508049,12502.590302177214,1735.8012628714503,0.526,-2.095,-7.21,-8.751
-0.2,400000007.98724174,3.0497558117,13772.094688939473,1650.821057489029,0.422,-2.2,-7.314,-8.856
-0.2,400000007.98724174,3.0497620106,14588.142602753474,1598.453474616406,0.359,-2.263,-7.377,-8.919
-0.2,400000007.98724174,3.04976964,14996.84835502374,1570.3628043335532,0.33,-2.291,-7.406,-8.947
-0.2,400000007.98724174,3.0497784615,15135.612484362071,1554.5331940607862,0.32,-2.302,-7.416,-8.958
-0.2,400000007.98724174,3.0497887135,15170.503674593368,1542.7657898057585,0.316,-2.306,-7.42,-8.961
-0.2,400000007.98724174,3.0497887135,22803.420720004164,1249.9711805783709,-0.125,-2.746,-7.861,-9.402
-0.2,400000007.98724174,3.0497894287,18492.686189780798,1390.2727164839778,0.102,-2.52,-7.634,-9.176
-0.2,400000007.98724174,3.0497903824,14621.771744567182,1564.2277998091001,0.356,-2.266,-7.38,-8.922
-0.2,400000007.98724174,3.0497922897,10665.961212302567,1833.1584286708533,0.699,-1.923,-7.037,-8.578
-0.2,400000007.98724174,3.0497951508,11271.974561755094,1768.4793782817994,0.64,-1.982,-7.096,-8.637
-0.2,400000007.98724174,3.049798727,12647.363474711523,1647.0242744164195,0.515,-2.107,-7.221,-8.763
-0.2,400000007.98724174,3.0498034954,13899.526312133527,1545.254439538414,0.412,-2.21,-7.324,-8.866
-0.2,400000007.98724174,3.0498094559,14723.125024327193,1472.6515539480017,0.35,-2.272,-7.386,-8.928
-0.2,400000007.98724174,3.0498166084,15100.801541641493,1421.3466164728295,0.322,-2.3,-7.414,-8.956
-0.2,400000007.98724174,3.0498251915,15240.527537972906,1377.8438433514539,0.312,-2.31,-7.424,-8.966
-0.2,400000007.98724174,3.0498349667,15275.660582380731,1334.1356829031054,0.308,-2.313,-7.428,-8.969
-0.2,400000007.98724174,3.0498349667,22961.486481123608,1068.3166572762934,-0.134,-2.756,-7.87,-9.412
-0.2,400000007.98724174,3.0498356819,18663.796908346696,1196.1895388061787,0.091,-2.531,-7.645,-9.187
-0.2,400000007.98724174,3.0498366356,14791.083881682072,1358.000719363215,0.343,-2.278,-7.392,-8.934
-0.2,400000007.98724174,3.0498385429,10789.467222298297,1615.1021676255984,0.687,-1.935,-7.049,-8.59
-0.2,400000007.98724174,3.0498411655,11376.27285823431,1568.9171126078552,0.628,-1.994,-7.108,-8.649
-0.2,400000007.98724174,3.0498447418,12764.388088113436,1473.6691770366892,0.504,-2.118,-7.232,-8.774
-0.2,400000007.98724174,3.0498495102,14028.13704561959,1399.9096265683431,0.402,-2.22,-7.334,-8.875
-0.2,400000007.98724174,3.0498552322,14825.180851459545,1357.062969623986,0.341,-2.28,-7.395,-8.936
-0.2,400000007.98724174,3.0498621464,15205.47529732497,1338.1352151540198,0.313,-2.308,-7.422,-8.964
-0.2,400000007.98724174,3.049870491,15346.16982799294,1331.6803762699813,0.304,-2.318,-7.432,-8.974
-0.2,400000007.98724174,3.0498800278,15417.004529495583,1330.1481047940783,0.3,-2.321,-7.436,-8.977
-0.2,400000007.98724174,3.0498800278,23173.946499684796,1048.334793581002,-0.144,-2.766,-7.88,-9.421
-0.2,400000007.98724174,3.0498805046,18879.913490962925,1181.136253934053,0.08,-2.542,-7.656,-9.198
-0.2,400000007.98724174,3.0498816967,14962.356560944329,1349.89503505598,0.331,-2.29,-7.405,-8.946
-0.2,400000007.98724174,3.0498833656,10914.40336448757,1620.3170427400003,0.675,-1.947,-7.061,-8.602
-0.2,400000007.98724174,3.0498859882,11508.003889444357,1565.3087033811519,0.616,-2.006,-7.12,-8.661
-0.2,400000007.98724174,3.0498893261,12912.192736135336,1458.814260275349,0.493,-2.129,-7.243,-8.785
-0.2,400000007.98724174,3.049893856,14157.93779957081,1374.3583962973455,0.392,-2.229,-7.343,-8.885
-0.2,400000007.98724174,3.0498993397,14962.356560944329,1320.9914296476888,0.333,-2.289,-7.403,-8.945
-0.2,400000007.98724174,3.0499060154,15310.874616820287,1290.624782060537,0.306,-2.316,-7.43,-8.972
-0.2,400000007.98724174,3.0499138832,15452.54439538414,1271.1593609571544,0.296,-2.325,-7.44,-8.981
-0.2,400000007.98724174,3.0499231815,15523.870099580816,1254.0071132481294,0.293,-2.329,-7.443,-8.985
-0.2,400000007.98724174,3.0499231815,23388.372386593535,977.0122296741541,-0.153,-2.775,-7.889,-9.43
-0.2,400000007.98724174,3.0499236584,19054.607179632483,1106.1142822180786,0.069,-2.552,-7.666,-9.208
-0.2,400000007.98724174,3.0499248505,15135.612484362071,1272.330681325459,0.319,-2.302,-7.416,-8.958
-0.2,400000007.98724174,3.0499265194,11015.393095414145,1543.4764233245317,0.664,-1.958,-7.072,-8.614
-0.2,400000007.98724174,3.0499289036,11641.260294104908,1492.794409578996,0.605,-2.017,-7.131,-8.673
-0.2,400000007.98724174,3.0499322414,13031.667784523,1392.1947766296757,0.482,-2.139,-7.253,-8.795
-0.2,400000007.98724174,3.0499367714,14256.075936021878,1314.6192882160844,0.384,-2.238,-7.352,-8.894
-0.2,400000007.98724174,3.0499420166,15066.070661867418,1269.1121444451903,0.325,-2.297,-7.411,-8.952
-0.2,400000007.98724174,3.0499484539,15417.004529495583,1247.3835142429432,0.298,-2.323,-7.437,-8.979
-0.2,400000007.98724174,3.0499563217,15559.65631605075,1237.941151655104,0.289,-2.332,-7.447,-8.988
-0.2,400000007.98724174,3.0499651432,15595.525028269523,1232.5370982033455,0.286,-2.336,-7.45,-8.992
-0.2,400000007.98724174,3.0499651432,23550.49283896009,945.1483924407291,-0.162,-2.783,-7.897,-9.439
-0.2,400000007.98724174,3.04996562,19230.917289101577,1077.4571314563666,0.059,-2.562,-7.676,-9.218
-0.2,400000007.98724174,3.0499668121,15275.660582380731,1249.1080292324846,0.308,-2.313,-7.427,-8.969
-0.2,400000007.98724174,3.0499684811,11117.317272815919,1533.5572729958183,0.653,-1.969,-7.083,-8.624
-0.2,400000007.98724174,3.0499708652,11748.975549395303,1481.1532641485512,0.594,-2.028,-7.142,-8.683
-0.2,400000007.98724174,3.0499742031,13152.248321922376,1378.1611401496127,0.473,-2.149,-7.263,-8.805
-0.2,400000007.98724174,3.0499787331,14387.985782558466,1300.16957803329,0.375,-2.246,-7.361,-8.902
-0.2,400000007.98724174,3.0499839783,15170.503674593368,1255.740785401958,0.318,-2.304,-7.418,-8.96
-0.2,400000007.98724174,3.0499904156,15523.870099580816,1236.232053624959,0.292,-2.33,-7.444,-8.986
-0.2,400000007.98724174,3.0499982834,15667.5107010815,1229.4192247093777,0.283,-2.339,-7.453,-8.995
-0.2,400000007.98724174,3.0500071049,15703.628043335515,1227.4392311584072,0.28,-2.342,-7.456,-8.998
-0.2,400000007.98724174,3.0500071049,23713.737056616552,928.324901120514,-0.169,-2.791,-7.905,-9.447
-0.2,400000007.98724174,3.0500075817,19408.858775927794,1064.3880744214282,0.05,-2.571,-7.686,-9.227
-0.2,400000007.98724174,3.0500085354,15452.54439538414,1242.7964384409145,0.298,-2.324,-7.438,-8.979
-0.2,400000007.98724174,3.0500102043,11246.049739669268,1543.4764233245317,0.643,-1.979,-7.093,-8.634
-0.2,400000007.98724174,3.0500123501,11857.687481671597,1490.7334618664074,0.584,-2.038,-7.152,-8.693
-0.2,400000007.98724174,3.0500154495,13243.415351946644,1386.4365533013397,0.464,-2.158,-7.272,-8.814
-0.2,400000007.98724174,3.0500195026,14487.718535447602,1309.483407985809,0.368,-2.254,-7.368,-8.91
-0.2,400000007.98724174,3.0500245094,15240.527537972906,1268.527831257573,0.311,-2.311,-7.425,-8.966
-0.2,400000007.98724174,3.0500304699,15595.525028269523,1254.2958923023175,0.286,-2.336,-7.45,-8.992
-0.2,400000007.98724174,3.0500376225,15739.828644662197,1254.2958923023175,0.277,-2.345,-7.459,-9.0
-0.2,400000007.98724174,3.0500457287,15776.112696993501,1260.3756378944245,0.274,-2.348,-7.462,-9.003
-0.2,400000007.98724174,3.0500457287,23878.112829131784,942.5404555789743,-0.177,-2.798,-7.912,-9.454
-0.2,400000007.98724174,3.0500462055,19543.394557753963,1085.925421312625,0.041,-2.58,-7.694,-9.236
-0.2,400000007.98724174,3.0500471592,15595.525028269523,1275.5573805889298,0.288,-2.334,-7.448,-8.989
-0.2,400000007.98724174,3.0500488281,11324.003632355578,1599.9263828685985,0.633,-1.988,-7.103,-8.644
-0.2,400000007.98724174,3.0500509739,11967.405313072442,1548.1035267089337,0.574,-2.047,-7.162,-8.703
-0.2,400000007.98724174,3.0500540733,13365.955165464433,1442.7796231294776,0.455,-2.167,-7.281,-8.822
-0.2,400000007.98724174,3.050057888,14588.142602753474,1367.7288255958495,0.36,-2.262,-7.376,-8.917
-0.2,400000007.98724174,3.0500628948,15346.16982799294,1332.6005862775753,0.304,-2.317,-7.432,-8.973
-0.2,400000007.98724174,3.0500688553,15703.628043335515,1327.7001367900805,0.279,-2.342,-7.457,-8.998
-0.2,400000007.98724174,3.0500757694,15812.480392703827,1340.2937734183104,0.27,-2.351,-7.465,-9.007
-0.2,400000007.98724174,3.0500838757,15885.467485977775,1361.7582027830038,0.267,-2.354,-7.468,-9.01
-0.2,400000007.98724174,3.0500838757,24099.054286865932,1004.6157902783947,-0.185,-2.806,-7.92,-9.462
-0.2,400000007.98724174,3.0500843525,19724.227361148533,1164.126029410491,0.032,-2.59,-7.704,-9.245
-0.2,400000007.98724174,3.0500853062,15739.828644662197,1377.526619605171,0.277,-2.345,-7.459,-9.0
-0.2,400000007.98724174,3.0500867367,11455.129414455361,1749.0410399663035,0.623,-1.999,-7.113,-8.655
-0.2,400000007.98724174,3.0500888824,12078.138351067797,1694.727981062988,0.563,-2.058,-7.172,-8.714
-0.2,400000007.98724174,3.0500917435,13489.628825916532,1581.976398601154,0.445,-2.176,-7.291,-8.832
-0.2,400000007.98724174,3.0500955582,14689.262776438662,1506.260197025903,0.352,-2.27,-7.384,-8.926
-0.2,400000007.98724174,3.0501000881,15452.54439538414,1477.0663353378209,0.297,-2.325,-7.439,-8.981
-0.2,400000007.98724174,3.0501058102,15812.480392703827,1484.567675052273,0.272,-2.349,-7.464,-9.005
-0.2,400000007.98724174,3.0501124859,15922.0872705117,1514.607140703405,0.263,-2.358,-7.472,-9.014
-0.2,400000007.98724174,3.0501201153,15995.580286146678,1558.8344677043906,0.26,-2.361,-7.476,-9.017
-0.2,400000007.98724174,3.0501201153,24266.100950824144,1137.1035097106505,-0.194,-2.815,-7.929,-9.471
-0.2,400000007.98724174,3.0501205921,19906.733389871883,1322.8177080099354,0.021,-2.6,-7.714,-9.256
-0.2,400000007.98724174,3.0501215458,15922.0872705117,1572.5338400769067,0.265,-2.356,-7.471,-9.012
-0.2,400000007.98724174,3.0501227379,11561.122421920982,2013.7242498623875,0.611,-2.011,-7.125,-8.666
-0.2,400000007.98724174,3.0501248837,12217.99660164871,1949.8445997580454,0.552,-2.07,-7.184,-8.726
-0.2,400000007.98724174,3.0501277447,13614.44682465951,1818.8630483235881,0.434,-2.187,-7.301,-8.843
-0.2,400000007.98724174,3.050131321,14825.180851459545,1733.8039977541375,0.342,-2.279,-7.394,-8.935
-0.2,400000007.98724174,3.0501358509,15559.65631605075,1706.4752742216037,0.288,-2.333,-7.448,-8.989
-0.2,400000007.98724174,3.0501410961,15922.0872705117,1725.440548877473,0.264,-2.357,-7.472,-9.013
-0.2,400000007.98724174,3.0501475334,16069.412530128788,1777.4606706429586,0.255,-2.366,-7.48,-9.022
-0.2,400000007.98724174,3.0501549244,16106.4563517827,1854.3854028467963,0.252,-2.37,-7.484,-9.025
-0.2,400000007.98724174,3.0501549244,24490.63241844747,1336.2877894850133,-0.204,-2.825,-7.939,-9.481
-0.2,400000007.98724174,3.0501554012,20137.242498623895,1559.911644407544,0.01,-2.612,-7.726,-9.268
-0.2,400000007.98724174,3.0501561165,16106.4563517827,1862.0871366628676,0.252,-2.37,-7.484,-9.026
-0.2,400000007.98724174,3.050157547,11694.9939101987,2402.1493195322587,0.598,-2.023,-7.138,-8.679
-0.2,400000007.98724174,3.0501594543,12359.474334445094,2320.064185569632,0.539,-2.083,-7.197,-8.739
-0.2,400000007.98724174,3.050162077,13772.094688939473,2160.230034774742,0.423,-2.199,-7.313,-8.855
-0.2,400000007.98724174,3.0501656532,14962.356560944329,2059.681176597365,0.332,-2.29,-7.404,-8.945
-0.2,400000007.98724174,3.0501697063,15703.628043335515,2033.2931614677068,0.279,-2.342,-7.457,-8.998
-0.2,400000007.98724174,3.0501749516,16032.453906900417,2071.094903660335,0.255,-2.366,-7.48,-9.022
-0.2,400000007.98724174,3.050180912,16180.800376430645,2161.722784335471,0.247,-2.375,-7.489,-9.03
-0.2,400000007.98724174,3.0501880646,16218.100973589299,2302.501914610407,0.243,-2.378,-7.492,-9.034
-0.2,400000007.98724174,3.0501880646,24717.24145016129,1643.614636390553,-0.214,-2.835,-7.95,-9.491
-0.2,400000007.98724174,3.0501885414,20370.42077705719,1923.5345881289984,-0.002,-2.624,-7.738,-9.28
-0.2,400000007.98724174,3.0501892567,16292.960326397215,2303.5625001175354,0.238,-2.384,-7.498,-9.039
-0.2,400000007.98724174,3.0501904488,11857.687481671597,2990.8869650638235,-0.479,-2.802,-7.103,-8.573
-0.2,400000007.98724174,3.0501923561,12502.590302177214,2886.689017948273,-0.215,-2.631,-7.173,-8.686
-0.2,400000007.98724174,3.0501949787,13899.526312133527,2687.200056717113,0.229,-2.343,-7.312,-8.861
-0.2,400000007.98724174,3.0501980782,15100.801541641493,2567.4382081061294,0.322,-2.299,-7.414,-8.955
-0.2,400000007.98724174,3.0502021313,15812.480392703827,2546.8302525850418,0.271,-2.351,-7.465,-9.007
-0.2,400000007.98724174,3.0502071381,16143.585568264869,2615.772682719108,0.22,-2.393,-7.485,-9.026
-0.2,400000007.98724174,3.0502128601,16292.960326397215,2765.667715050151,-0.161,-2.671,-7.469,-9.005
-0.2,400000007.98724174,3.0502195358,16330.519478943346,3005.3842076633828,-0.871,-3.183,-7.451,-8.915
