FeH,Age,Mini,L,Te,Bmag,Vmag,Jmag,Kmag
0.4,1150005718.6992373,0.1000000015,0.0005533501092157366,2337.2221850151404,19.352,17.657,10.812,9.881
0.4,1150005718.6992373,0.1146285757,0.0007888601176185541,2439.4953801837814,18.949,17.261,10.426,9.494
0.4,1150005718.6992373,0.1199999973,0.0008994975815300356,2476.851675793545,18.798,17.114,10.284,9.352
0.4,1150005718.6992373,0.1400000006,0.0013304544179780914,2578.101431424051,18.348,16.676,9.861,8.928
0.4,1150005718.6992373,0.1488098204,0.0015346169827992941,2613.966394904875,18.137,16.474,9.708,8.776
0.4,1150005718.6992373,0.1548315585,0.0016826740610704674,2637.545740889343,17.932,16.281,9.612,8.682
0.4,1150005718.6992373,0.1599999964,0.0018197008586099826,2657.05167035507,17.718,16.082,9.534,8.606
0.4,1150005718.6992373,0.200000003,0.003026913428101305,2793.1869222539713,16.393,14.854,9.024,8.113
0.4,1150005718.6992373,0.2517418563,0.004886523593428336,2907.3679594442274,15.348,13.859,8.542,7.644
0.4,1150005718.6992373,0.297935158,0.006870684400142325,2987.4455606053048,14.663,13.208,8.196,7.307
0.4,1150005718.6992373,0.3000000417,0.006982324040771711,2990.8869650638235,14.635,13.182,8.182,7.293
0.4,1150005718.6992373,0.3060205281,0.007328245331389044,2999.8531811907933,14.546,13.097,8.132,7.244
0.4,1150005718.6992373,0.349999994,0.010046157902783952,3070.4356507300654,13.964,12.532,7.813,6.93
0.4,1150005718.6992373,0.3923707604,0.01333521432163324,3141.9552846410716,13.445,12.039,7.527,6.646
0.4,1150005718.6992373,0.400000006,0.013995873225726178,3154.278240344361,13.359,11.958,7.479,6.599
0.4,1150005718.6992373,0.4500000179,0.019498445997580455,3252.370400952974,12.758,11.384,7.15,6.267
0.4,1150005718.6992373,0.5000000596,0.027289777828080404,3355.8303695328004,12.175,10.826,6.82,5.931
0.4,1150005718.6992373,0.5465356708,0.037497300224548356,3470.5635400798756,11.62,10.3,6.509,5.613
0.4,1150005718.6992373,0.5532121062,0.03926449353995999,3489.7956743787454,11.537,10.22,6.465,5.568
0.4,1150005718.6992373,0.5969846249,0.053456435939697164,3635.8001230014343,10.962,9.652,6.18,5.28
0.4,1150005718.6992373,0.6000000238,0.05445026528424212,3645.8601019727603,10.925,9.613,6.161,5.262
0.4,1150005718.6992373,0.6499999762,0.07798301105232586,3862.780230114958,10.208,8.883,5.844,4.959
0.4,1150005718.6992373,0.6532044411,0.07979946872679765,3878.8233380237325,10.16,8.835,5.824,4.941
0.4,1150005718.6992373,0.6971623302,0.1081433951297938,4093.5490632955944,9.536,8.229,5.552,4.711
0.4,1150005718.6992373,0.7000000477,0.11040786199020733,4106.76639874822,9.497,8.192,5.535,4.697
0.4,1150005718.6992373,0.7030546069,0.11297959146727979,4128.573303779981,9.443,8.142,5.516,4.683
0.4,1150005718.6992373,0.75,0.15885467485977786,4464.779341129965,8.647,7.437,5.241,4.499
0.4,1150005718.6992373,0.7995219231,0.21134890398366465,4644.083289410481,8.115,6.98,4.982,4.303
0.4,1150005718.6992373,0.8490439653,0.27925438412373377,4838.380286511588,7.597,6.548,4.735,4.123
0.4,1150005718.6992373,0.8985658288,0.3664375746478333,5032.687915706669,7.12,6.149,4.497,3.944
0.4,1150005718.6992373,0.9480878115,0.4753352259428053,5220.354551033096,6.691,5.786,4.271,3.769
0.4,1150005718.6992373,0.9976097345,0.610942024905572,5397.591335559007,6.299,5.452,4.053,3.595
0.4,1150005718.6992373,1.0100442171,0.6501296903430906,5440.013782467271,6.206,5.372,3.999,3.551
0.4,1150005718.6992373,1.0471316576,0.7780365510398041,5565.446342582577,5.935,5.141,3.843,3.424
0.4,1150005718.6992373,1.0551309586,0.8090958991783823,5589.848017438496,5.878,5.092,3.81,3.396
0.4,1150005718.6992373,1.0966536999,0.9862794856312105,5721.369546523262,5.593,4.849,3.641,3.255
0.4,1150005718.6992373,1.1270827055,1.135010815672315,5810.319310119074,5.393,4.678,3.519,3.151
0.4,1150005718.6992373,1.1461756229,1.2387965865303692,5865.431942902653,5.271,4.574,3.443,3.087
0.4,1150005718.6992373,1.195697546,1.5417004529495595,6000.673538641165,4.967,4.313,3.252,2.922
0.4,1150005718.6992373,1.2452194691,1.9010782799233001,6126.324544438646,4.683,4.07,3.07,2.763
0.4,1150005718.6992373,1.2947413921,2.3173946499684783,6241.658450909745,4.419,3.842,2.897,2.611
0.4,1150005718.6992373,1.3442634344,2.7989813196343625,6350.384185040406,4.171,3.628,2.732,2.465
0.4,1150005718.6992373,1.3937852383,3.3496543915782766,6453.569627274052,3.936,3.424,2.574,2.324
0.4,1150005718.6992373,1.3979158401,3.404081897010009,6462.491724953881,3.917,3.408,2.561,2.313
0.4,1150005718.6992373,1.4433073997,3.9902490236214203,6550.885369386104,3.715,3.23,2.421,2.185
0.4,1150005718.6992373,1.4449440241,4.008667176273028,6553.9028583347745,3.707,3.224,2.416,2.18
0.4,1150005718.6992373,1.4909209013,4.677351412871983,6634.374757931717,3.513,3.05,2.275,2.052
0.4,1150005718.6992373,1.4928293228,4.709773263969529,6638.959204886984,3.505,3.043,2.269,2.047
0.4,1150005718.6992373,1.5019339323,4.852885001621211,6654.263586443717,3.467,3.01,2.242,2.021
0.4,1150005718.6992373,1.5423511267,5.533501092157366,6714.288529259523,3.306,2.864,2.121,1.909
0.4,1150005718.6992373,1.5858540535,6.33869711256927,6771.735710786895,3.14,2.712,1.993,1.789
0.4,1150005718.6992373,1.5918731689,6.456542290346556,6777.975582993672,3.118,2.691,1.975,1.772
0.4,1150005718.6992373,1.6252727509,7.144963260755133,6818.675140286001,2.995,2.579,1.878,1.681
0.4,1150005718.6992373,1.641395092,7.498942093324558,6834.393809860222,2.938,2.525,1.831,1.635
0.4,1150005718.6992373,1.6617901325,7.961593504173188,6854.882264526614,2.865,2.458,1.772,1.579
0.4,1150005718.6992373,1.6661560535,8.072350302488383,6859.619085293151,2.85,2.443,1.759,1.567
0.4,1150005718.6992373,1.6792657375,8.394599865193975,6870.684400142324,2.804,2.401,1.722,1.531
0.4,1150005718.6992373,1.6909170151,8.669618757582166,6880.183161430384,2.764,2.363,1.688,1.499
0.4,1150005718.6992373,1.6989082098,8.892011178579484,6888.108826526805,2.736,2.337,1.665,1.476
0.4,1150005718.6992373,1.7156780958,9.33254300796991,6902.398038402419,2.678,2.282,1.615,1.429
0.4,1150005718.6992373,1.7404389381,10.023052380778994,6916.716892895647,2.596,2.203,1.543,1.358
0.4,1150005718.6992373,1.7461293936,10.18591388054117,6919.902892284818,2.576,2.185,1.526,1.342
0.4,1150005718.6992373,1.7651998997,10.789467222298287,6926.279294373633,2.513,2.123,1.468,1.285
0.4,1150005718.6992373,1.789789319,11.587773561551263,6935.85491592748,2.432,2.045,1.393,1.212
0.4,1150005718.6992373,1.7899608612,11.587773561551263,6935.85491592748,2.431,2.044,1.393,1.211
0.4,1150005718.6992373,1.8143419027,12.416523075924113,6932.6615720512,2.354,1.968,1.316,1.135
0.4,1150005718.6992373,1.8147218227,12.44514611771385,6932.6615720512,2.353,1.966,1.315,1.133
0.4,1150005718.6992373,1.8243265152,12.793813041575246,6934.258060165695,2.322,1.936,1.285,1.104
0.4,1150005718.6992373,1.8394829035,13.33521432163324,6931.065451499368,2.275,1.889,1.238,1.056
0.4,1150005718.6992373,1.8500472307,13.740419750125149,6927.874312745173,2.243,1.856,1.204,1.022
0.4,1150005718.6992373,1.8642437458,14.321878992735432,6918.309709189362,2.201,1.812,1.157,0.974
0.4,1150005718.6992373,1.8789082766,14.92794409578996,6908.758310497996,2.157,1.767,1.109,0.925
0.4,1150005718.6992373,1.8890048265,15.346169827992941,6896.043621637035,2.129,1.737,1.074,0.889
0.4,1150005718.6992373,1.9065659046,16.106456351782708,6869.102548718842,2.082,1.685,1.012,0.823
0.4,1150005718.6992373,1.9137656689,16.443717232149314,6854.882264526614,2.064,1.664,0.986,0.796
0.4,1150005718.6992373,1.9328187704,17.298163592151013,6820.245379032683,2.016,1.609,0.919,0.724
0.4,1150005718.6992373,1.938326478,17.538805018417612,6809.26129679685,2.003,1.593,0.899,0.703
0.4,1150005718.6992373,1.9600121975,18.57804455091698,6759.273194551448,1.953,1.533,0.819,0.617
0.4,1150005718.6992373,1.9874477386,19.952623149688797,6671.139157966478,1.902,1.46,0.713,0.499
0.4,1150005718.6992373,2.0004837513,20.606299132700006,6623.690022431073,1.879,1.426,0.661,0.441
0.4,1150005718.6992373,2.0254466534,21.928049353504484,6523.790409982088,1.844,1.365,0.56,0.325
0.4,1150005718.6992373,2.0365691185,22.54239212152429,6475.898004649498,1.83,1.339,0.514,0.272
0.4,1150005718.6992373,2.0503852367,23.280912576650078,6415.049325106628,1.817,1.308,0.455,0.204
0.4,1150005718.6992373,2.0779781342,25.003453616964308,6289.266531604159,1.79,1.241,0.332,0.06
0.4,1150005718.6992373,2.0856904984,25.703957827688633,6267.581644592105,1.77,1.214,0.295,0.019
0.4,1150005718.6992373,2.0936074257,26.42408757321946,6244.533502805022,1.75,1.186,0.257,-0.023
0.4,1150005718.6992373,2.0971670151,27.164392688390823,6266.138646723356,1.711,1.154,0.235,-0.041
0.4,1150005718.6992373,2.1034400463,29.512092266663856,6389.987373482767,1.567,1.051,0.189,-0.065
0.4,1150005718.6992373,2.1052803993,31.40508693876218,6528.298441586141,1.447,0.973,0.172,-0.06
0.4,1150005718.6992373,2.1059992313,33.18944575526103,6671.139157966478,1.339,0.903,0.161,-0.051
0.4,1150005718.6992373,2.1063756943,35.0751873952568,6815.535747267042,1.235,0.834,0.151,-0.041
0.4,1150005718.6992373,2.1065914631,36.982817978026624,6953.4446182566335,1.137,0.768,0.138,-0.036
0.4,1150005718.6992373,2.1067516804,39.44573020752785,7100.680962545333,1.031,0.693,0.12,-0.036
0.4,1150005718.6992373,2.1068511009,40.45758916974427,7176.290320547707,0.984,0.661,0.116,-0.032
0.4,1150005718.6992373,2.1069161892,38.37072454922788,7105.587633694735,1.061,0.723,0.151,-0.005
0.4,1150005718.6992373,2.1069762707,35.892193464500515,6977.502487693657,1.167,0.802,0.181,0.009
0.4,1150005718.6992373,2.1070351601,34.35579478998746,6834.393809860222,1.251,0.854,0.178,-0.011
0.4,1150005718.6992373,2.1071174145,34.04081897010009,6664.997640442605,1.312,0.874,0.131,-0.082
0.4,1150005718.6992373,2.1072182655,34.59393778261219,6507.287577548787,1.345,0.866,0.058,-0.177
0.4,1150005718.6992373,2.1073448658,35.15604405282981,6357.699545271866,1.387,0.862,-0.012,-0.271
0.4,1150005718.6992373,2.1075024605,35.23708710424871,6220.137712744861,1.442,0.872,-0.066,-0.349
0.4,1150005718.6992373,2.1077134609,34.99451670283573,6082.750456601517,1.514,0.898,-0.108,-0.416
0.4,1150005718.6992373,2.1080048084,34.197944251370885,5934.716805530554,1.612,0.946,-0.135,-0.473
0.4,1150005718.6992373,2.1083655357,32.734069487883815,5788.952685656601,1.734,1.019,-0.141,-0.508
0.4,1150005718.6992373,2.1086821556,31.260793671239558,5676.753024298228,1.846,1.094,-0.128,-0.52
0.4,1150005718.6992373,2.109028101,29.308932452503214,5565.446342582577,1.979,1.192,-0.094,-0.512
0.4,1150005718.6992373,2.1093497276,27.289777828080403,5468.900223137939,2.113,1.295,-0.048,-0.488
0.4,1150005718.6992373,2.1096274853,25.468302525850405,5391.380704697852,2.234,1.391,0.003,-0.456
0.4,1150005718.6992373,2.1099731922,23.38837238659355,5297.854174488645,2.386,1.512,0.067,-0.415
0.4,1150005718.6992373,2.1103169918,21.67704104819695,5211.947111050806,2.525,1.621,0.121,-0.383
0.4,1150005718.6992373,2.1104025841,21.330449131465762,5190.390101970821,2.558,1.647,0.133,-0.377
0.4,1150005718.6992373,2.1109476089,20.989398836235246,5071.074606405172,2.662,1.708,0.115,-0.428
0.4,1150005718.6992373,2.1114919186,22.490546058357815,4971.643737252428,2.667,1.675,0.01,-0.561
0.4,1150005718.6992373,2.1118543148,24.547089156850298,4915.86559156862,2.62,1.606,-0.1,-0.687
0.4,1150005718.6992373,2.1121845245,27.039583641088434,4870.796664925371,2.556,1.523,-0.218,-0.818
0.4,1150005718.6992373,2.1124820709,29.716660317380267,4832.813100695309,2.488,1.44,-0.33,-0.943
0.4,1150005718.6992373,2.1127619743,32.58367010020087,4798.439240638985,2.419,1.356,-0.442,-1.065
0.4,1150005718.6992373,2.1130256653,35.727283815192884,4766.504419105543,2.35,1.273,-0.55,-1.183
0.4,1150005718.6992373,2.1132817268,39.174187710778305,4735.872481253356,2.282,1.191,-0.658,-1.301
0.4,1150005718.6992373,2.11353302,42.756288615158624,4707.604832565835,2.213,1.111,-0.763,-1.415
0.4,1150005718.6992373,2.1137838364,46.77351412871981,4680.583528968204,2.144,1.029,-0.867,-1.529
0.4,1150005718.6992373,2.1139087677,48.97788193684461,4666.593803142887,2.11,0.989,-0.919,-1.586
0.4,1150005718.6992373,2.1140360832,51.28613839913648,4652.645890999017,2.076,0.948,-0.973,-1.645
0.4,1150005718.6992373,2.1142873764,56.23413251903491,4624.875008224019,2.006,0.866,-1.08,-1.762
0.4,1150005718.6992373,2.1144123077,58.8843655355589,4609.990177075899,1.971,0.824,-1.135,-1.821
0.4,1150005718.6992373,2.1146550179,64.56542290346556,4581.418867145335,1.902,0.742,-1.242,-1.939
0.4,1150005718.6992373,2.1148955822,70.79457843841381,4553.024633460011,1.834,0.661,-1.351,-2.057
0.4,1150005718.6992373,2.115128994,77.8036551039804,4523.764623324995,1.774,0.581,-1.46,-2.176
0.4,1150005718.6992373,2.1153600216,85.31001140175896,4493.657830540859,1.715,0.503,-1.569,-2.296
0.4,1150005718.6992373,2.1155848503,93.5405674147552,4463.75140604447,1.656,0.424,-1.678,-2.415
0.4,1150005718.6992373,2.1158065796,102.80162981264735,4434.04401633441,1.599,0.347,-1.788,-2.536
0.4,1150005718.6992373,2.116014719,112.46049739669269,4404.534336784062,1.545,0.274,-1.894,-2.652
0.4,1150005718.6992373,2.1162388325,124.16523075924107,4374.2137356813055,1.486,0.194,-2.008,-2.777
0.4,1150005718.6992373,2.1164712906,137.4041975012515,4340.10263644744,1.427,0.112,-2.129,-2.91
0.4,1150005718.6992373,2.1166741848,150.66070661867417,4310.225580049957,1.374,0.04,-2.237,-3.029
0.4,1150005718.6992373,2.1168792248,165.57699634695277,4279.568675300529,1.322,-0.033,-2.347,-3.15
0.4,1150005718.6992373,2.1170823574,181.5515662773135,4249.129820811196,1.271,-0.105,-2.454,-3.267
0.4,1150005718.6992373,2.1173052788,199.9861869632745,4216.965034285822,1.216,-0.181,-2.566,-3.388
0.4,1150005718.6992373,2.1175158024,218.27299118430014,4188.900070027829,1.167,-0.249,-2.667,-3.497
0.4,1150005718.6992373,2.1177954674,237.6840286624876,4160.063884776209,1.118,-0.315,-2.765,-3.605
0.4,1150005718.6992373,2.1180100441,248.31331052955704,4145.720317867256,1.092,-0.348,-2.818,-3.661
0.4,1150005718.6992373,2.118088007,237.6840286624876,4160.063884776209,1.116,-0.317,-2.767,-3.606
0.4,1150005718.6992373,2.1181066036,228.03420720004186,4174.457078262909,1.141,-0.285,-2.717,-3.552
0.4,1150005718.6992373,2.1181211472,218.27299118430014,4188.900070027829,1.165,-0.251,-2.667,-3.497
0.4,1150005718.6992373,2.1181342602,209.89398836235245,4202.4252767731205,1.187,-0.22,-2.622,-3.448
0.4,1150005718.6992373,2.1181490421,201.37242498623874,4215.994153984273,1.212,-0.187,-2.573,-3.395
0.4,1150005718.6992373,2.1181714535,190.54607179632464,4233.504249077914,1.242,-0.144,-2.51,-3.327
0.4,1150005718.6992373,2.1182003021,179.88709151287873,4252.06602972015,1.274,-0.099,-2.444,-3.256
0.4,1150005718.6992373,2.1182379723,169.04409316432648,4272.676381599791,1.31,-0.049,-2.37,-3.176
0.4,1150005718.6992373,2.1182866096,153.81546403030342,4305.266104917106,1.362,0.024,-2.259,-3.053
0.4,1150005718.6992373,2.1183462143,130.9181922999407,4359.131797247284,1.451,0.148,-2.071,-2.845
0.4,1150005718.6992373,2.1184029579,110.15393095414144,4416.721344129766,1.552,0.287,-1.868,-2.622
0.4,1150005718.6992373,2.1184689999,97.05099672454898,4458.615279480707,1.626,0.39,-1.719,-2.458
0.4,1150005718.6992373,2.1185688972,85.11380382023764,4501.94308282431,1.708,0.5,-1.563,-2.287
0.4,1150005718.6992373,2.1187028885,72.44359600749902,4555.121861657392,1.807,0.633,-1.375,-2.081
0.4,1150005718.6992373,2.1189188957,60.953689724016904,4614.238090876438,1.93,0.784,-1.171,-1.856
0.4,1150005718.6992373,2.1193187237,52.84452517751805,4661.22428001887,2.032,0.908,-1.005,-1.673
0.4,1150005718.6992373,2.1196186543,48.86523593428336,4688.13382145265,2.09,0.978,-0.911,-1.57
0.4,1150005718.6992373,2.1200113297,44.977985489328795,4717.370642684883,2.151,1.051,-0.814,-1.464
0.4,1150005718.6992373,2.1205787659,40.926065973001094,4750.069893831193,2.219,1.134,-0.704,-1.342
0.4,1150005718.6992373,2.1212852001,37.84425847170934,4778.592531515467,2.276,1.203,-0.61,-1.24
0.4,1150005718.6992373,2.1229572296,38.459178204535355,4775.2927365769065,2.263,1.189,-0.627,-1.258
0.4,1150005718.6992373,2.1348118782,39.44573020752785,4778.592531515467,2.231,1.159,-0.654,-1.283
0.4,1150005718.6992373,2.1618378162,41.97589839910075,4787.4031366341615,2.156,1.086,-0.72,-1.345
0.4,1150005718.6992373,2.1839332581,45.08167045414601,4787.4031366341615,2.078,1.008,-0.797,-1.423
0.4,1150005718.6992373,2.1918501854,46.238102139926035,4787.4031366341615,2.049,0.979,-0.827,-1.452
0.4,1150005718.6992373,2.2201721668,51.760683195056764,4778.592531515467,1.937,0.862,-0.95,-1.579
0.4,1150005718.6992373,2.2330546379,55.08076964054035,4767.60207367496,1.88,0.8,-1.021,-1.653
0.4,1150005718.6992373,2.2427082062,57.80960474057181,4758.827909888171,1.838,0.753,-1.075,-1.71
0.4,1150005718.6992373,2.2559556961,62.51726927756859,4738.053933388255,1.772,0.678,-1.168,-1.81
0.4,1150005718.6992373,2.2565069199,62.95061828571975,4735.872481253356,1.768,0.674,-1.174,-1.816
0.4,1150005718.6992373,2.2606859207,66.3743070401909,4715.198713364481,1.73,0.627,-1.239,-1.888
0.4,1150005718.6992373,2.2641866207,70.95777679633888,4688.13382145265,1.685,0.57,-1.318,-1.976
0.4,1150005718.6992373,2.2663395405,76.91304402866095,4654.789007046166,1.634,0.504,-1.413,-2.083
0.4,1150005718.6992373,2.2674059868,84.527884516029,4616.363515404673,1.575,0.426,-1.526,-2.209
0.4,1150005718.6992373,2.267875433,92.04495717531712,4582.47389928456,1.524,0.354,-1.629,-2.323
0.4,1150005718.6992373,2.2681655884,101.39113857366789,4546.738740611353,1.468,0.276,-1.743,-2.45
0.4,1150005718.6992373,2.2683141232,111.42945335917304,4510.243611171937,1.414,0.199,-1.857,-2.576
0.4,1150005718.6992373,2.2683813572,119.6740531307243,4484.35514638966,1.373,0.142,-1.941,-2.668
0.4,1150005718.6992373,2.2684259415,128.23305826560218,4458.615279480707,1.333,0.085,-2.024,-2.76
0.4,1150005718.6992373,2.2684495449,134.58603540559483,4442.2193547105535,1.307,0.048,-2.08,-2.822
0.4,1150005718.6992373,2.2684583664,137.4041975012515,4435.065110253052,1.295,0.031,-2.104,-2.849
0.4,1150005718.6992373,2.2684979439,151.00801541641476,4400.479478359837,1.243,-0.043,-2.216,-2.973
0.4,1150005718.6992373,2.2685306072,163.30519478943347,4372.199799574554,1.199,-0.106,-2.31,-3.077
0.4,1150005718.6992373,2.2685654163,173.38039977541374,4352.111366239774,1.166,-0.152,-2.379,-3.153
0.4,1150005718.6992373,2.2686564922,172.98163592151016,4353.113592296378,1.168,-0.15,-2.375,-3.149
0.4,1150005718.6992373,2.268727541,158.48931924611142,4384.297339745673,1.214,-0.083,-2.275,-3.037
0.4,1150005718.6992373,2.2689282894,145.2111617587742,4415.704473533126,1.263,-0.013,-2.169,-2.921
0.4,1150005718.6992373,2.2705056667,135.8313446587154,4440.174108068949,1.299,0.038,-2.091,-2.834
0.4,1150005718.6992373,2.2724843025,147.57065332758947,4411.6393317691345,1.252,-0.027,-2.188,-2.941
0.4,1150005718.6992373,2.2736289501,163.30519478943347,4375.221051582521,1.196,-0.108,-2.309,-3.075
0.4,1150005718.6992373,2.2744407654,180.71741260109275,4339.103405929243,1.141,-0.185,-2.428,-3.207
0.4,1150005718.6992373,2.2750566006,199.06733389871863,4305.266104917106,1.089,-0.261,-2.542,-3.332
0.4,1150005718.6992373,2.2755491734,218.77616239495518,4271.692674763224,1.038,-0.337,-2.652,-3.452
0.4,1150005718.6992373,2.2759623528,240.43628000069322,4239.357093413646,0.987,-0.409,-2.76,-3.57
0.4,1150005718.6992373,2.276320219,263.63313858253787,4208.23515424823,0.936,-0.48,-2.867,-3.686
0.4,1150005718.6992373,2.2766387463,288.40315031266056,4176.379929509739,0.885,-0.55,-2.972,-3.802
0.4,1150005718.6992373,2.2769298553,315.50046233746275,4144.765840379393,0.835,-0.616,-3.077,-3.917
0.4,1150005718.6992373,2.2771983147,345.1437393358561,4113.391061524547,0.785,-0.681,-3.181,-4.031
0.4,1150005718.6992373,2.2774493694,377.572190925416,4083.1938633269233,0.734,-0.745,-3.283,-4.144
0.4,1150005718.6992373,2.2776870728,412.0975190973304,4052.2851680189106,0.686,-0.805,-3.386,-4.259
0.4,1150005718.6992373,2.2779080868,449.77985489328796,4021.6104433421337,0.638,-0.862,-3.487,-4.372
0.4,1150005718.6992373,2.2781097889,489.77881936844614,3992.087024388079,0.598,-0.915,-3.589,-4.485
0.4,1150005718.6992373,2.2782723904,532.1082592667942,3963.6929115081043,0.567,-0.956,-3.686,-4.594
0.4,1150005718.6992373,2.2783858776,572.7960309858292,3936.4070414309936,0.541,-0.989,-3.776,-4.696
0.4,1150005718.6992373,2.2784698009,613.7620051647939,3911.1097238892944,0.519,-1.019,-3.858,-4.788
0.4,1150005718.6992373,2.2785339355,656.1452663029056,3886.8698613730226,0.498,-1.047,-3.938,-4.879
0.4,1150005718.6992373,2.278594017,703.0723198838334,3861.8908944898994,0.481,-1.068,-4.021,-4.972
0.4,1150005718.6992373,2.2786581516,765.5966069112561,3830.8928063841463,0.461,-1.093,-4.124,-5.087
0.4,1150005718.6992373,2.278717041,831.7637711026708,3801.0186455476655,0.441,-1.118,-4.225,-5.201
0.4,1150005718.6992373,2.2787795067,914.1132414702499,3766.1706971416666,0.435,-1.121,-4.339,-5.33
0.4,1150005718.6992373,2.2788341045,993.1160484209336,3735.0807894306217,0.432,-1.122,-4.441,-5.445
0.4,1150005718.6992373,2.2789046764,1106.6237839776663,3694.0264435828335,0.442,-1.105,-4.572,-5.593
0.4,1150005718.6992373,2.2789793015,1235.9474334445108,3652.5822138633744,0.463,-1.072,-4.708,-5.745
0.4,1150005718.6992373,2.2790615559,1380.3842646028852,3610.7714510035285,0.5,-1.019,-4.847,-5.9
0.4,1150005718.6992373,2.2791304588,1513.5612484362086,3574.3740626448075,0.548,-0.954,-4.961,-6.029
0.4,1150005718.6992373,2.2791631222,1581.2480392703826,3557.9513055974294,0.568,-0.925,-5.015,-6.089
0.4,1150005718.6992373,2.2791793346,1570.3628043335532,3561.2298094276216,0.563,-0.932,-5.008,-6.081
0.4,1150005718.6992373,2.2791905403,1621.8100973589299,3548.133892335753,0.582,-0.907,-5.048,-6.126
0.4,1150005718.6992373,2.2792062759,1663.4126503701698,3538.343568147222,0.602,-0.88,-5.079,-6.161
0.4,1150005718.6992373,2.2792098522,1610.64563517827,3552.2211848231955,0.574,-0.916,-5.039,-6.116
0.4,1150005718.6992373,2.2792153358,1614.3585568264868,3551.4033498288213,0.575,-0.915,-5.042,-6.119
0.4,1150005718.6992373,2.2792198658,1671.090614310707,3536.7144758575937,0.604,-0.877,-5.086,-6.168
0.4,1150005718.6992373,2.2792270184,1737.8008287493763,3520.4647488942164,0.642,-0.83,-5.134,-6.223
0.4,1150005718.6992373,2.2792384624,1721.8685749860078,3526.1436430685917,0.626,-0.849,-5.12,-6.208
0.4,1150005718.6992373,2.2792394161,1678.8040181225606,3536.7144758575937,0.603,-0.879,-5.089,-6.172
0.4,1150005718.6992373,2.2795910835,3040.88502567628,3290.788720121735,1.424,0.146,-5.837,-7.025
0.4,1150005718.6992373,2.2795917988,3040.88502567628,3245.6374062026525,1.768,0.576,-5.852,-7.065
0.4,1150005718.6992373,2.279592514,1698.2436524617442,3480.166322150038,0.851,-0.582,-5.126,-6.232
0.4,1150005718.6992373,2.279592514,1584.893192461114,3508.326468551656,0.789,-0.662,-5.039,-6.134
0.4,1150005718.6992373,2.2795937061,961.6122783836648,3718.7758332493545,0.509,-1.037,-4.41,-5.421
0.4,1150005718.6992373,2.2795956135,912.0108393559096,3739.3834364315157,0.507,-1.041,-4.346,-5.348
0.4,1150005718.6992373,2.2795982361,1096.4781961431852,3656.789826173249,0.568,-0.958,-4.578,-5.613
0.4,1150005718.6992373,2.2796015739,1541.70045294956,3511.5592451629086,0.802,-0.649,-5.007,-6.101
0.4,1150005718.6992373,2.2796058655,2147.8304741305333,3374.4267097541338,1.196,-0.154,-5.425,-6.576
0.4,1150005718.6992373,2.2796111107,2710.1916318908416,3280.1975507699003,1.61,0.365,-5.713,-6.909
0.4,1150005718.6992373,2.2796170712,3061.963433690679,3228.4941217126348,1.882,0.716,-5.864,-7.085
0.4,1150005718.6992373,2.2796239853,3221.0687912834346,3204.0552769132337,1.993,0.849,-5.927,-7.161
0.4,1150005718.6992373,2.2796320915,3296.097121774576,3188.5996933863867,2.07,0.94,-5.958,-7.199
0.4,1150005718.6992373,2.2796323299,2249.0546058357804,3331.194570682003,1.431,0.126,-5.491,-6.662
0.4,1150005718.6992373,2.2796328068,1741.8068733916145,3431.6263979646833,1.08,-0.308,-5.173,-6.3
0.4,1150005718.6992373,2.2796342373,1059.2537251772887,3637.4748564263245,0.667,-0.845,-4.546,-5.59
0.4,1150005718.6992373,2.2796361446,1004.6157902783947,3660.1594055804926,0.645,-0.873,-4.481,-5.516
0.4,1150005718.6992373,2.2796387672,1210.598133550483,3581.789013481115,0.741,-0.743,-4.715,-5.781
0.4,1150005718.6992373,2.2796423435,1702.15850839495,3442.7065038944434,1.041,-0.356,-5.143,-6.265
0.4,1150005718.6992373,2.2796466351,2371.373705661655,3312.0737601979727,1.499,0.211,-5.558,-6.738
0.4,1150005718.6992373,2.2796518803,2999.16251898765,3223.2945954551496,1.931,0.772,-5.844,-7.069
0.4,1150005718.6992373,2.2796580791,3404.081897010009,3176.8740706497692,2.113,0.992,-5.998,-7.245
0.4,1150005718.6992373,2.2796652317,3605.7864302164235,3157.9118286322528,2.187,1.078,-6.067,-7.324
0.4,1150005718.6992373,2.2796735764,3723.917062545687,3149.1982396022863,2.214,1.105,-6.104,-7.365
0.4,1150005718.6992373,2.2796738148,2570.3957827688646,3289.2736048064767,1.59,0.334,-5.654,-6.846
0.4,1150005718.6992373,2.2796742916,1995.2623149688789,3390.783022519265,1.171,-0.191,-5.338,-6.483
0.4,1150005718.6992373,2.2796757221,1216.1860006463678,3597.4933515574235,0.679,-0.817,-4.713,-5.772
0.4,1150005718.6992373,2.2796776295,1150.8003889444356,3620.762177566733,0.643,-0.865,-4.644,-5.694
0.4,1150005718.6992373,2.2796804905,1380.3842646028852,3542.4195826164946,0.771,-0.696,-4.873,-5.955
0.4,1150005718.6992373,2.2796843052,1923.0917289101576,3403.2981684204196,1.136,-0.234,-5.293,-6.432
0.4,1150005718.6992373,2.2796888351,2660.7250597988086,3272.6533057537135,1.681,0.451,-5.696,-6.896
0.4,1150005718.6992373,2.2796943188,3334.2641276323507,3184.1975217261256,2.089,0.963,-5.972,-7.216
0.4,1150005718.6992373,2.2797007561,3758.374042884443,3137.6175101187496,2.28,1.173,-6.115,-7.384
0.4,1150005718.6992373,2.2797083855,3944.573020752785,3117.453613031264,2.367,1.261,-6.175,-7.456
0.4,1150005718.6992373,2.2797169685,4036.4539296760486,3106.704882789958,2.412,1.307,-6.203,-7.49
0.4,1150005718.6992373,2.279717207,2831.391995799379,3241.1564884384366,1.865,0.688,-5.776,-6.992
0.4,1150005718.6992373,2.2797179222,2202.9264630534562,3341.1809763304277,1.383,0.067,-5.464,-6.631
0.4,1150005718.6992373,2.2797191143,1345.8603540559484,3547.316998366914,0.775,-0.694,-4.843,-5.923
0.4,1150005718.6992373,2.2797212601,1270.5741052085418,3571.083458083457,0.735,-0.746,-4.773,-5.843
0.4,1150005718.6992373,2.2797243595,1524.0527537972907,3494.6203372688556,0.895,-0.54,-5.0,-6.101
0.4,1150005718.6992373,2.2797281742,2113.489039836648,3358.9226273449517,1.313,-0.018,-5.413,-6.572
0.4,1150005718.6992373,2.2797329426,2910.717118066605,3231.4690444798844,1.911,0.746,-5.808,-7.029
0.4,1150005718.6992373,2.2797386646,3639.1503612720708,3144.850465476959,2.26,1.153,-6.078,-7.342
0.4,1150005718.6992373,2.2797453403,4092.6065973001096,3100.9873885323427,2.443,1.338,-6.218,-7.509
0.4,1150005718.6992373,2.2797532082,4305.266104917106,3082.4781017155096,2.503,1.386,-6.277,-7.579
0.4,1150005718.6992373,2.2797622681,4405.548635065535,3073.972656082513,2.518,1.389,-6.305,-7.612
0.4,1150005718.6992373,2.2797625065,3140.5086938762165,3201.842758202777,2.029,0.889,-5.902,-7.137
0.4,1150005718.6992373,2.2797632217,2443.430552693971,3301.4140864591145,1.547,0.273,-5.594,-6.779
0.4,1150005718.6992373,2.2797646523,1496.235656094433,3505.9038393261267,0.857,-0.586,-4.977,-6.073
0.4,1150005718.6992373,2.279766798,1409.2887984218748,3531.83169791957,0.797,-0.664,-4.902,-5.987
0.4,1150005718.6992373,2.2797698975,1678.8040181225606,3457.8010353230598,0.978,-0.433,-5.122,-6.239
0.4,1150005718.6992373,2.2797739506,2306.747188720069,3325.0639317743994,1.445,0.144,-5.523,-6.697
0.4,1150005718.6992373,2.2797789574,3147.748314101317,3201.10559153497,2.033,0.894,-5.903,-7.139
0.4,1150005718.6992373,2.2797849178,3890.4514499428046,3118.1715159014625,2.373,1.267,-6.159,-7.439
0.4,1150005718.6992373,2.2797920704,4335.108783875289,3076.805193759751,2.518,1.394,-6.288,-7.593
0.4,1150005718.6992373,2.279800415,4518.559443749222,3061.2584717197674,2.55,1.402,-6.336,-7.65
0.4,1150005718.6992373,2.2798097134,4591.980128368686,3056.3282803659663,2.56,1.404,-6.353,-7.671
0.4,1150005718.6992373,2.2798099518,3334.2641276323507,3177.6056571612876,2.128,1.008,-5.975,-7.222
0.4,1150005718.6992373,2.279810667,2600.159563165272,3277.177768051718,1.667,0.43,-5.671,-6.868
0.4,1150005718.6992373,2.2798120975,1603.2453906900419,3480.96775232401,0.909,-0.519,-5.062,-6.169
0.4,1150005718.6992373,2.2798142433,1510.0801541641476,3506.711196464777,0.848,-0.598,-4.987,-6.083
0.4,1150005718.6992373,2.2798171043,1798.8709151287874,3431.6263979646833,1.051,-0.341,-5.208,-6.336
0.4,1150005718.6992373,2.2798211575,2471.724145016129,3299.1343378886454,1.559,0.289,-5.606,-6.792
0.4,1150005718.6992373,2.2798261642,3357.3761424295453,3174.6803215678747,2.142,1.025,-5.983,-7.231
0.4,1150005718.6992373,2.2798321247,4159.106104940223,3091.0070812616214,2.492,1.388,-6.239,-7.536
0.4,1150005718.6992373,2.2798390388,4666.593803142887,3047.193266663114,2.585,1.416,-6.372,-7.695
0.4,1150005718.6992373,2.2798471451,4897.7881936844615,3029.0050681662174,2.624,1.426,-6.43,-7.764
0.4,1150005718.6992373,2.2798564434,5011.872336272725,3019.9517204020162,2.643,1.43,-6.459,-7.798
0.4,1150005718.6992373,2.2798566818,3715.352290971724,3134.7289880140065,2.308,1.202,-6.104,-7.375
0.4,1150005718.6992373,2.2798573971,2904.022654464451,3233.7020353739117,1.899,0.731,-5.805,-7.024
0.4,1150005718.6992373,2.2798588276,1790.6058540352947,3436.370641490611,1.03,-0.367,-5.201,-6.326
0.4,1150005718.6992373,2.2798612118,1678.8040181225606,3464.1764103524893,0.945,-0.473,-5.12,-6.233
0.4,1150005718.6992373,2.2798645496,1986.0949173573717,3391.5638690582196,1.172,-0.191,-5.332,-6.476
0.4,1150005718.6992373,2.2798688412,2691.5348039269165,3263.623111913169,1.742,0.527,-5.712,-6.916
0.4,1150005718.6992373,2.2798743248,3614.0986263961313,3144.126420258796,2.274,1.168,-6.071,-7.336
0.4,1150005718.6992373,2.2798807621,4415.704473533126,3064.7849053700324,2.557,1.415,-6.309,-7.622
0.4,1150005718.6992373,2.2798883915,4886.523593428336,3024.8232323912453,2.645,1.441,-6.428,-7.764
0.4,1150005718.6992373,2.279897213,5058.246620031143,3010.2322206633794,2.671,1.445,-6.471,-7.814
0.4,1150005718.6992373,2.2799072266,5116.818355403078,3005.3842076633828,2.68,1.447,-6.483,-7.829
0.4,1150005718.6992373,2.279907465,3863.669770540693,3113.149665447022,2.412,1.308,-6.152,-7.435
0.4,1150005718.6992373,2.2799081802,3019.9517204020162,3211.441387141269,2.002,0.853,-5.856,-7.086
0.4,1150005718.6992373,2.2799096107,1874.9945080674192,3412.7148323868673,1.109,-0.27,-5.261,-6.396
0.4,1150005718.6992373,2.2799119949,1757.923613958693,3441.9138826842905,1.019,-0.382,-5.178,-6.301
0.4,1150005718.6992373,2.2799150944,2074.9135174549106,3369.7679858440365,1.264,-0.079,-5.389,-6.543
0.4,1150005718.6992373,2.2799191475,2798.981319634363,3242.649439899697,1.863,0.682,-5.764,-6.978
0.4,1150005718.6992373,2.2799243927,3749.730022454834,3124.640085806112,2.364,1.26,-6.116,-7.392
0.4,1150005718.6992373,2.2799305916,4570.881896148751,3045.7903053734226,2.607,1.437,-6.352,-7.676
0.4,1150005718.6992373,2.2799379826,5069.907082747044,3006.076302628232,2.684,1.452,-6.473,-7.819
0.4,1150005718.6992373,2.2799463272,5272.298614228227,2990.8869650638235,2.706,1.451,-6.52,-7.873
0.4,1150005718.6992373,2.2799561024,5357.966575133417,2985.3826189179604,2.714,1.45,-6.538,-7.895
0.4,1150005718.6992373,2.2799563408,4111.497211045221,3087.450475587445,2.52,1.412,-6.228,-7.527
0.4,1150005718.6992373,2.279957056,3228.4941217126348,3185.664236573113,2.11,0.983,-5.936,-7.179
0.4,1150005718.6992373,2.279958725,2009.0928126087279,3386.881485634765,1.188,-0.173,-5.346,-6.493
0.4,1150005718.6992373,2.2799611092,1874.9945080674192,3416.6461281382244,1.091,-0.292,-5.26,-6.394
0.4,1150005718.6992373,2.279964447,2208.004733018899,3345.0298682601374,1.36,0.038,-5.466,-6.631
0.4,1150005718.6992373,2.2799687386,2958.0124665515464,3220.3271981675407,1.967,0.811,-5.83,-7.055
0.4,1150005718.6992373,2.2799742222,3917.4187710778306,3104.5595881283557,2.457,1.353,-6.17,-7.459
0.4,1150005718.6992373,2.2799808979,4753.352259428054,3026.913428101305,2.658,1.459,-6.397,-7.732
0.4,1150005718.6992373,2.2799887657,5236.0043658575005,2988.133524568443,2.723,1.465,-6.511,-7.866
0.4,1150005718.6992373,2.2799978256,5420.008904016238,2973.7194950692915,2.747,1.466,-6.551,-7.914
0.4,1150005718.6992373,2.2800080776,5470.159628939716,2968.9302862263726,2.757,1.468,-6.563,-7.93
0.4,1150005718.6992373,2.280008316,4295.364267648873,3063.37384469643,2.587,1.444,-6.279,-7.592
0.4,1150005718.6992373,2.2800090313,3357.3761424295453,3163.0058853452065,2.22,1.114,-5.988,-7.242
0.4,1150005718.6992373,2.2800104618,2103.778439766475,3362.791956867804,1.293,-0.045,-5.405,-6.562
0.4,1150005718.6992373,2.280012846,1963.3602768360474,3393.1261016293192,1.173,-0.192,-5.319,-6.463
0.4,1150005718.6992373,2.2800161839,2306.747188720069,3322.0028446165034,1.465,0.165,-5.524,-6.699
0.4,1150005718.6992373,2.280020237,3083.1879502493534,3198.895109691397,2.069,0.932,-5.882,-7.118
0.4,1150005718.6992373,2.2800254822,4073.802778041126,3083.8979622506845,2.544,1.432,-6.218,-7.518
0.4,1150005718.6992373,2.2800319195,4931.738039549359,3006.768556972182,2.706,1.476,-6.444,-7.789
0.4,1150005718.6992373,2.2800393105,5445.026528424214,2967.563358073529,2.766,1.475,-6.559,-7.926
0.4,1150005718.6992373,2.2800481319,5662.3928903825345,2951.8888459446066,2.791,1.475,-6.605,-7.98
0.4,1150005718.6992373,2.2800579071,5754.399373371566,2945.7779023394583,2.798,1.474,-6.624,-8.003
0.4,1150005718.6992373,2.2800581455,4602.565735813559,3033.1926853535583,2.66,1.471,-6.362,-7.693
0.4,1150005718.6992373,2.2800588608,3597.4933515574235,3134.007273083861,2.343,1.239,-6.069,-7.34
0.4,1150005718.6992373,2.2800605297,2254.2392121524304,3334.2641276323507,1.412,0.1,-5.494,-6.664
0.4,1150005718.6992373,2.2800629139,2098.9398836235246,3365.8906294925205,1.279,-0.062,-5.404,-6.559
0.4,1150005718.6992373,2.2800662518,2460.3676041476274,3295.3382547359615,1.59,0.323,-5.603,-6.791
0.4,1150005718.6992373,2.2800707817,3258.367010020087,3174.6803215678747,2.175,1.058,-5.95,-7.198
0.4,1150005718.6992373,2.2800762653,4265.795188015925,3061.963433690679,2.598,1.455,-6.271,-7.585
0.4,1150005718.6992373,2.2800829411,5116.818355403078,2987.4455606053048,2.744,1.487,-6.487,-7.842
0.4,1150005718.6992373,2.2800908089,5610.479760324706,2950.5297638582715,2.805,1.488,-6.593,-7.97
0.4,1150005718.6992373,2.2800998688,5780.960474057181,2936.9733110014463,2.822,1.487,-6.631,-8.014
0.4,1150005718.6992373,2.2801103592,5834.451042737448,2932.2432823031154,2.83,1.488,-6.641,-8.027
0.4,1150005718.6992373,2.2801105976,4764.309868054156,3011.6188030788244,2.717,1.497,-6.404,-7.747
0.4,1150005718.6992373,2.2801113129,3715.352290971724,3113.8665771825613,2.444,1.342,-6.11,-7.393
0.4,1150005718.6992373,2.2801127434,2344.228815319923,3312.0737601979727,1.517,0.225,-5.545,-6.725
0.4,1150005718.6992373,2.2801151276,2182.7299118430014,3344.2597353373435,1.377,0.055,-5.453,-6.618
0.4,1150005718.6992373,2.280118227,2552.701302661247,3274.9147555557906,1.708,0.475,-5.65,-6.848
0.4,1150005718.6992373,2.2801225185,3365.115693754908,3155.0046233746275,2.268,1.163,-5.992,-7.25
0.4,1150005718.6992373,2.2801277637,4395.416154378243,3043.6870744812113,2.652,1.481,-6.309,-7.633
0.4,1150005718.6992373,2.2801339626,5272.298614228227,2969.6139863991652,2.785,1.5,-6.523,-7.888
0.4,1150005718.6992373,2.280141592,5780.960474057181,2932.9185340084423,2.835,1.495,-6.631,-8.017
0.4,1150005718.6992373,2.2801501751,5997.910762555094,2918.098853741841,2.852,1.491,-6.673,-8.066
0.4,1150005718.6992373,2.2801599503,6081.350012787177,2912.7284648349846,2.858,1.49,-6.689,-8.085
0.4,1150005718.6992373,2.2801601887,5058.246620031143,2986.070107816526,2.762,1.503,-6.474,-7.831
0.4,1150005718.6992373,2.2801609039,3935.5007545577764,3088.8726265127525,2.552,1.449,-6.18,-7.477
0.4,1150005718.6992373,2.2801625729,2494.5947269429535,3287.0022396877516,1.639,0.385,-5.621,-6.813
0.4,1150005718.6992373,2.2801647186,2317.39464996848,3320.4733579750687,1.475,0.175,-5.528,-6.704
0.4,1150005718.6992373,2.2801680565,2703.9583641088434,3251.621601204828,1.837,0.641,-5.721,-6.931
0.4,1150005718.6992373,2.280172348,3548.133892335753,3133.2857243155854,2.365,1.261,-6.054,-7.325
0.4,1150005718.6992373,2.2801778316,4602.565735813559,3022.7344800386522,2.706,1.503,-6.363,-7.7
0.4,1150005718.6992373,2.280184269,5495.408738576249,2949.8504574842414,2.825,1.509,-6.571,-7.947
0.4,1150005718.6992373,2.2801918983,5997.910762555094,2913.399222570164,2.868,1.501,-6.675,-8.07
0.4,1150005718.6992373,2.2802009583,6208.690342300638,2899.3456931707387,2.882,1.496,-6.715,-8.118
0.4,1150005718.6992373,2.2802109718,6280.58358813318,2893.343523391501,2.887,1.495,-6.729,-8.135
0.4,1150005718.6992373,2.2802112103,5321.082592667942,2959.3749953433894,2.816,1.515,-6.536,-7.907
0.4,1150005718.6992373,2.2802119255,4139.996748197304,3064.079293806048,2.617,1.477,-6.24,-7.552
0.4,1150005718.6992373,2.280213356,2630.2679918953813,3262.1205039426677,1.777,0.563,-5.688,-6.893
0.4,1150005718.6992373,2.2802157402,2437.8108183687523,3296.856163568906,1.591,0.322,-5.593,-6.78
0.4,1150005718.6992373,2.2802190781,2837.9190284415554,3228.4941217126348,1.961,0.797,-5.782,-7.004
0.4,1150005718.6992373,2.2802231312,3698.281797802663,3111.716337106017,2.465,1.362,-6.105,-7.389
0.4,1150005718.6992373,2.2802283764,4764.309868054156,3004.0004957242286,2.748,1.518,-6.404,-7.751
0.4,1150005718.6992373,2.2802348137,5649.369748123023,2932.9185340084423,2.857,1.518,-6.605,-7.99
0.4,1150005718.6992373,2.2802422047,6151.7687270986835,2897.3435877013244,2.896,1.509,-6.704,-8.108
0.4,1150005718.6992373,2.2802510262,6338.69711256927,2883.367506780263,2.909,1.505,-6.74,-8.151
0.4,1150005718.6992373,2.2802608013,6397.348354826482,2878.0610364895265,2.914,1.507,-6.751,-8.164
0.4,1150005718.6992373,2.2802610397,5520.774392807573,2936.9733110014463,2.862,1.531,-6.58,-7.963
0.4,1150005718.6992373,2.280261755,4295.364267648873,3042.2857274809608,2.682,1.51,-6.283,-7.608
0.4,1150005718.6992373,2.2802631855,2741.5741719278835,3238.918349968776,1.923,0.748,-5.741,-6.957
0.4,1150005718.6992373,2.2802653313,2535.128630497907,3274.1607653757505,1.725,0.493,-5.644,-6.843
0.4,1150005718.6992373,2.2802681923,2951.209226666387,3205.531138700436,2.071,0.928,-5.832,-7.064
0.4,1150005718.6992373,2.2802722454,3828.2474331682283,3090.295432513592,2.574,1.473,-6.149,-7.446
0.4,1150005718.6992373,2.2802770138,4909.078761526029,2984.0081159302204,2.796,1.535,-6.443,-7.801
0.4,1150005718.6992373,2.2802829742,5821.032177708716,2912.7284648349846,2.895,1.53,-6.642,-8.037
0.4,1150005718.6992373,2.2802898884,6353.309318517436,2877.3984147356696,2.923,1.516,-6.743,-8.156
0.4,1150005718.6992373,2.2802979946,6561.452663029057,2863.518544478934,2.926,1.511,-6.782,-8.2
0.4,1150005718.6992373,2.2803070545,6652.731562017413,2858.2486036727378,2.927,1.509,-6.797,-8.218
0.4,1150005718.6992373,2.2803072929,5847.900841444806,2910.046977837714,2.903,1.534,-6.645,-8.042
0.4,1150005718.6992373,2.2803080082,4528.975799036209,3015.7823836531966,2.749,1.536,-6.349,-7.689
0.4,1150005718.6992373,2.2803094387,2904.022654464451,3211.441387141269,2.049,0.901,-5.814,-7.044
0.4,1150005718.6992373,2.2803115845,2685.344445658506,3247.1324216780226,1.877,0.688,-5.715,-6.928
0.4,1150005718.6992373,2.2803146839,3111.716337106017,3179.8014276915274,2.188,1.067,-5.9,-7.145
0.4,1150005718.6992373,2.280318737,4017.9081084894,3066.1966160107386,2.636,1.5,-6.208,-7.519
0.4,1150005718.6992373,2.2803235054,5128.613839913648,2961.419965394361,2.843,1.547,-6.495,-7.865
0.4,1150005718.6992373,2.2803297043,6053.408747539136,2892.0113962154874,2.927,1.535,-6.688,-8.095
0.4,1150005718.6992373,2.2803366184,6576.578373554205,2856.932634583698,2.939,1.521,-6.786,-8.207
0.4,1150005718.6992373,2.2803449631,6792.036326171843,2843.806221472982,2.943,1.518,-6.823,-8.248
0.4,1150005718.6992373,2.2803542614,6870.684400142324,2838.5725586841204,2.948,1.518,-6.836,-8.264
0.4,1150005718.6992373,2.2803544998,6151.7687270986835,2884.031503126606,2.938,1.536,-6.707,-8.118
0.4,1150005718.6992373,2.2803552151,4764.309868054156,2991.575721530859,2.797,1.548,-6.408,-7.761
0.4,1150005718.6992373,2.2803564072,3069.021988391158,3187.1316270228012,2.156,1.027,-5.88,-7.122
0.4,1150005718.6992373,2.2803585529,2824.8799749157074,3224.779319316378,1.992,0.831,-5.78,-7.003
0.4,1150005718.6992373,2.2803616524,3273.406948788383,3157.1847762703,2.288,1.182,-5.96,-7.217
0.4,1150005718.6992373,2.2803654671,4197.589839910078,3045.089066974223,2.693,1.525,-6.259,-7.583
0.4,1150005718.6992373,2.2803702354,5321.082592667942,2941.710969752718,2.881,1.557,-6.539,-7.919
0.4,1150005718.6992373,2.2803759575,6251.726927756856,2873.4258866748714,2.948,1.54,-6.726,-8.141
0.4,1150005718.6992373,2.2803828716,6760.829753919818,2839.880070698581,2.958,1.53,-6.819,-8.246
0.4,1150005718.6992373,2.2803907394,6966.265141107687,2826.8320070020036,2.972,1.533,-6.852,-8.285
0.4,1150005718.6992373,2.2803997993,7030.723198838334,2821.629583090804,2.98,1.537,-6.863,-8.299
0.4,1150005718.6992373,2.2804000378,6397.348354826482,2860.2236939542804,2.958,1.543,-6.756,-8.175
0.4,1150005718.6992373,2.280400753,4954.5019080479005,2969.6139863991652,2.846,1.563,-6.456,-7.821
0.4,1150005718.6992373,2.2804019451,3206.2693245054643,3165.191567226265,2.26,1.151,-5.936,-7.188
0.4,1150005718.6992373,2.2804040909,2944.4216337987605,3203.3176008528117,2.089,0.946,-5.832,-7.066
0.4,1150005718.6992373,2.2804069519,3404.081897010009,3136.8951301583775,2.387,1.282,-6.009,-7.278
0.4,1150005718.6992373,2.2804105282,4345.102241715715,3025.519803872306,2.752,1.553,-6.301,-7.636
0.4,1150005718.6992373,2.2804150581,5470.159628939716,2923.4791443876893,2.918,1.569,-6.572,-7.962
0.4,1150005718.6992373,2.2804207802,6397.348354826482,2856.274877264105,2.969,1.552,-6.755,-8.175
0.4,1150005718.6992373,2.2804274559,6902.398038402419,2822.929290779784,2.991,1.551,-6.842,-8.277
0.4,1150005718.6992373,2.2804348469,7095.777679633888,2810.6062003343977,3.005,1.558,-6.874,-8.315
0.4,1150005718.6992373,2.2804436684,7161.43410212902,2806.079687295453,3.011,1.562,-6.884,-8.326
0.4,1150005718.6992373,2.2804439068,6637.43070401909,2837.9190284415554,2.983,1.555,-6.797,-8.225
0.4,1150005718.6992373,2.2804443836,5128.613839913648,2948.4923138943664,2.896,1.581,-6.497,-7.874
0.4,1150005718.6992373,2.2804458141,3334.2641276323507,3143.4025417390094,2.362,1.257,-5.984,-7.249
0.4,1150005718.6992373,2.2804477215,3061.963433690679,3182.7314821707823,2.189,1.063,-5.881,-7.124
0.4,1150005718.6992373,2.2804503441,3531.83169791957,3115.300895973758,2.493,1.39,-6.055,-7.337
0.4,1150005718.6992373,2.2804539204,4497.798548932879,3004.0004957242286,2.806,1.577,-6.342,-7.689
0.4,1150005718.6992373,2.2804582119,5649.369748123023,2902.017319380225,2.964,1.586,-6.609,-8.01
0.4,1150005718.6992373,2.2804634571,6576.578373554205,2834.653633489668,2.999,1.57,-6.789,-8.218
0.4,1150005718.6992373,2.280469656,7112.1351365332885,2800.2705950106356,3.033,1.584,-6.878,-8.322
0.4,1150005718.6992373,2.2804768085,7328.245331389045,2786.1211686297693,3.05,1.595,-6.912,-8.363
0.4,1150005718.6992373,2.2804851532,7413.102413009177,2779.7132677592886,3.06,1.603,-6.926,-8.38
0.4,1150005718.6992373,2.2804853916,6982.324040771711,2804.141985453693,3.037,1.59,-6.858,-8.3
0.4,1150005718.6992373,2.2804858685,5395.1062251512785,2915.4124227107563,2.959,1.601,-6.558,-7.952
0.4,1150005718.6992373,2.2804870605,3523.7087104248726,3110.283668685142,2.528,1.425,-6.052,-7.337
0.4,1150005718.6992373,2.2804889679,3228.4941217126348,3150.648832972395,2.351,1.245,-5.948,-7.209
0.4,1150005718.6992373,2.2804915905,3715.352290971724,3081.768416611512,2.647,1.534,-6.118,-7.42
0.4,1150005718.6992373,2.2804949284,4709.77326396953,2970.9818591187295,2.891,1.612,-6.399,-7.763
0.4,1150005718.6992373,2.2804992199,5874.893525297769,2869.4588430750064,3.019,1.612,-6.659,-8.074
0.4,1150005718.6992373,2.2805042267,6807.693586937417,2801.5604642568937,3.064,1.619,-6.831,-8.274
0.4,1150005718.6992373,2.2805101871,7328.245331389045,2766.9416454115126,3.103,1.646,-6.917,-8.375
0.4,1150005718.6992373,2.2805171013,7533.55563733717,2751.6931328087903,3.119,1.659,-6.95,-8.414
0.4,1150005718.6992373,2.2805249691,7620.790100254122,2744.732343478535,3.127,1.668,-6.963,-8.429
0.4,1150005718.6992373,2.2805252075,7311.390834834172,2762.4854546315764,3.12,1.661,-6.914,-8.373
0.4,1150005718.6992373,2.2805256844,5649.369748123023,2875.4114646740045,3.044,1.641,-6.615,-8.028
0.4,1150005718.6992373,2.2805268764,3698.281797802663,3069.021988391158,2.711,1.58,-6.115,-7.424
0.4,1150005718.6992373,2.2805287838,3380.6483620598156,3108.8516598805636,2.578,1.476,-6.01,-7.295
0.4,1150005718.6992373,2.280531168,3890.4514499428046,3038.785182061179,2.799,1.623,-6.176,-7.503
0.4,1150005718.6992373,2.2805345058,4897.7881936844615,2927.520871369441,3.011,1.673,-6.45,-7.837
0.4,1150005718.6992373,2.280538559,6067.363295885053,2825.530502459557,3.098,1.669,-6.702,-8.134
0.4,1150005718.6992373,2.2805435658,7014.552984199714,2757.401452346361,3.172,1.716,-6.87,-8.331
0.4,1150005718.6992373,2.2805495262,7533.55563733717,2720.821182091787,3.194,1.743,-6.954,-8.427
0.4,1150005718.6992373,2.2805562019,7726.805850957021,2703.9583641088434,3.211,1.763,-6.986,-8.465
0.4,1150005718.6992373,2.2805640697,7798.3011052325855,2695.2558665040997,3.226,1.78,-6.998,-8.481
0.4,1150005718.6992373,2.2805643082,7620.790100254122,2705.203869719351,3.225,1.777,-6.969,-8.448
0.4,1150005718.6992373,2.280564785,5874.893525297769,2816.4367335775464,3.16,1.726,-6.668,-8.104
0.4,1150005718.6992373,2.2805659771,3872.576449216173,3005.3842076633828,2.947,1.725,-6.178,-7.524
0.4,1150005718.6992373,2.280567646,3531.83169791957,3045.089066974223,2.865,1.701,-6.072,-7.395
0.4,1150005718.6992373,2.2805700302,4055.085354483839,2974.404298125139,3.022,1.754,-6.236,-7.597
0.4,1150005718.6992373,2.2805731297,5081.594425605605,2863.518544478934,3.179,1.774,-6.502,-7.919
0.4,1150005718.6992373,2.2805771828,6266.138646723356,2761.213575949454,3.264,1.815,-6.748,-8.205
0.4,1150005718.6992373,2.2805819511,7211.074791828998,2690.915126480976,3.308,1.868,-6.912,-8.395
0.4,1150005718.6992373,2.2805874348,7726.805850957021,2651.551093009211,3.334,1.928,-6.995,-8.487
0.4,1150005718.6992373,2.2805938721,7925.013304804718,2630.2679918953813,3.361,1.974,-7.027,-8.524
0.4,1150005718.6992373,2.280601263,8016.78063387679,2615.772682719108,3.379,1.994,-7.039,-8.539
0.4,1150005718.6992373,2.2806015015,7961.593504173184,2617.5802187038103,3.382,1.997,-7.032,-8.532
0.4,1150005718.6992373,2.2806019783,6137.620051647939,2728.3494847901197,3.375,1.93,-6.732,-8.2
0.4,1150005718.6992373,2.280602932,4064.4332916521275,2914.070134770806,3.244,1.894,-6.25,-7.642
0.4,1150005718.6992373,2.2806046009,3706.80721782576,2950.5297638582715,3.209,1.907,-6.143,-7.517
0.4,1150005718.6992373,2.2806069851,4246.19563946313,2874.7494529363703,3.332,1.937,-6.303,-7.716
0.4,1150005718.6992373,2.2806098461,5296.634438916581,2758.0364405972355,3.433,1.993,-6.564,-8.02
0.4,1150005718.6992373,2.2806136608,6486.344335482381,2649.110048516273,3.507,2.112,-6.805,-8.294
0.4,1150005718.6992373,2.2806181908,7430.191378967013,2569.8039954022665,3.508,2.119,-6.96,-8.467
0.4,1150005718.6992373,2.280623436,7943.282347242814,2518.8366278417375,3.497,2.083,-7.036,-8.551
0.4,1150005718.6992373,2.2806296349,8165.823713585923,2483.704933654433,3.508,2.078,-7.066,-8.586
0.4,1150005718.6992373,2.280636549,8241.38115013002,2454.143763137429,3.536,2.097,-7.081,-8.605
0.4,1150005718.6992373,2.2806367874,8336.81184619634,2447.9356661960655,3.532,2.091,-7.095,-8.62
0.4,1150005718.6992373,2.2806372643,6441.692655151775,2557.996818555016,3.664,2.275,-6.804,-8.311
0.4,1150005718.6992373,2.2806382179,4285.485203974396,2741.5741719278835,3.683,2.254,-6.337,-7.796
0.4,1150005718.6992373,2.2806396484,3899.419866765436,2778.4334572025496,3.664,2.244,-6.228,-7.671
0.4,1150005718.6992373,2.2806417942,4456.562483975033,2700.847108324663,3.757,2.333,-6.386,-7.86
0.4,1150005718.6992373,2.2806446552,5520.774392807573,2582.260190634596,3.791,2.418,-6.636,-8.137
0.4,1150005718.6992373,2.2806482315,6729.766562843175,2471.724145016129,3.718,2.288,-6.858,-8.377
0.4,1150005718.6992373,2.280652523,7673.614893618185,2390.5619353446305,3.676,2.223,-7.009,-8.541
0.4,1150005718.6992373,2.2806575298,8184.647881347895,2337.7604122746875,3.623,2.165,-7.08,-8.614
0.4,1150005718.6992373,2.2806632519,8394.599865193974,2302.501914610407,3.596,2.139,-7.107,-8.641
0.4,1150005718.6992373,2.2806699276,8472.274141405964,2274.0499508958956,3.585,2.128,-7.117,-8.651
0.4,1150005718.6992373,2.2806699276,8749.837752274363,2258.9155758005627,3.55,2.093,-7.153,-8.687
0.4,1150005718.6992373,2.280670166,6745.280276979222,2381.2226232768385,3.825,2.369,-6.87,-8.403
0.4,1150005718.6992373,2.280670166,4508.167045414601,2585.8301804210555,4.043,2.657,-6.416,-7.921
0.4,1150005718.6992373,2.2806706429,4073.802778041126,2638.760655313271,4.057,2.664,-6.302,-7.797
0.4,1150005718.6992373,2.2806711197,4634.46919736288,2569.8039954022665,4.038,2.642,-6.447,-7.955
0.4,1150005718.6992373,2.2806715965,5688.529308438413,2461.5009062337667,3.949,2.507,-6.679,-8.204
0.4,1150005718.6992373,2.2806725502,6854.882264526614,2366.4645333525627,3.815,2.358,-6.888,-8.422
0.4,1150005718.6992373,2.2806732655,7744.617978025183,2305.154294442585,3.683,2.226,-7.02,-8.554
0.4,1150005718.6992373,2.2806744576,8184.647881347895,2277.718241857322,3.622,2.165,-7.081,-8.615
0.4,1150005718.6992373,2.2806756496,8317.63771102671,2270.387567758508,3.604,2.147,-7.099,-8.633
0.4,1150005718.6992373,2.2806770802,8336.81184619634,2273.52639182341,3.603,2.146,-7.1,-8.634
0.4,1150005718.6992373,2.2806770802,8649.67918775693,2255.2775667452493,3.563,2.106,-7.139,-8.673
0.4,1150005718.6992373,2.2806773186,6668.067692136218,2388.911163883676,3.846,2.388,-6.857,-8.391
0.4,1150005718.6992373,2.2806773186,4456.562483975033,2612.1613543992053,4.075,2.669,-6.404,-7.912
0.4,1150005718.6992373,2.2806777954,4027.170343254591,2674.237657088992,4.051,2.602,-6.286,-7.78
0.4,1150005718.6992373,2.2806782722,4570.881896148751,2603.154831374184,4.07,2.663,-6.434,-7.945
0.4,1150005718.6992373,2.2806787491,5610.479760324706,2491.724371253899,3.987,2.54,-6.667,-8.195
0.4,1150005718.6992373,2.2806797028,6760.829753919818,2394.969571502182,3.83,2.373,-6.872,-8.406
0.4,1150005718.6992373,2.280680418,7620.790100254122,2337.2221850151404,3.7,2.242,-7.003,-8.537
0.4,1150005718.6992373,2.2806816101,8053.784411990669,2315.261233243762,3.639,2.182,-7.064,-8.598
0.4,1150005718.6992373,2.2806828022,8203.515443298185,2317.39464996848,3.621,2.164,-7.082,-8.616
0.4,1150005718.6992373,2.2806842327,8203.515443298185,2330.7731152826386,3.62,2.163,-7.083,-8.617
0.4,1150005718.6992373,2.2806842327,8531.001140175895,2308.8727601076275,3.577,2.12,-7.126,-8.66
0.4,1150005718.6992373,2.2806842327,6576.578373554205,2456.4051543247197,3.859,2.402,-6.844,-8.378
0.4,1150005718.6992373,2.2806844711,4405.548635065535,2704.5810452170326,3.965,2.46,-6.382,-7.875
0.4,1150005718.6992373,2.2806847095,3981.0717055349733,2774.5975598804152,3.878,2.369,-6.258,-7.724
0.4,1150005718.6992373,2.2806851864,4518.559443749222,2698.9820734720156,3.965,2.455,-6.412,-7.908
0.4,1150005718.6992373,2.2806856632,5546.25712957911,2579.2889644274874,3.988,2.544,-6.652,-8.178
0.4,1150005718.6992373,2.2806863785,6668.067692136218,2476.851675793545,3.845,2.388,-6.858,-8.391
0.4,1150005718.6992373,2.2806870937,7516.228940182053,2417.1299521044175,3.715,2.258,-6.988,-8.522
0.4,1150005718.6992373,2.2806880474,7943.282347242814,2397.7284699638185,3.654,2.197,-7.049,-8.582
0.4,1150005718.6992373,2.2806892395,8090.958991783821,2404.362800006932,3.636,2.179,-7.067,-8.6
0.4,1150005718.6992373,2.2806904316,8090.958991783821,2423.259924092549,3.635,2.178,-7.068,-8.602
