FeH,Age,Mini,L,Te,Bmag,Vmag,Jmag,Kmag
-0.8,1899984246.2147348,0.090000011,0.0005345643593969719,2685.344445658506,19.119,17.086,10.833,10.244
-0.8,1899984246.2147348,0.0924190655,0.0006067363295885052,2733.379922053339,18.722,16.722,10.718,10.105
-0.8,1899984246.2147348,0.0978134423,0.0007998342550070284,2841.1881849832444,17.87,15.935,10.469,9.806
-0.8,1899984246.2147348,0.0994170234,0.0008649679187756929,2872.7643320808324,17.626,15.705,10.399,9.722
-0.8,1899984246.2147348,0.1075302288,0.0011402497875611685,2970.9818591187295,16.871,14.997,10.144,9.43
-0.8,1899984246.2147348,0.1182510555,0.001595879147236732,3094.567783987401,15.999,14.181,9.836,9.087
-0.8,1899984246.2147348,0.1370850801,0.002426610095082414,3232.9575336809407,15.059,13.32,9.437,8.664
-0.8,1899984246.2147348,0.1545639932,0.0032658783217233566,3320.4733579750687,14.473,12.787,9.15,8.367
-0.8,1899984246.2147348,0.1559191346,0.0033419504002611426,3326.5955329400435,14.432,12.75,9.129,8.345
-0.8,1899984246.2147348,0.1935872138,0.005357966575133417,3450.6427620182526,13.603,12.003,8.663,7.87
-0.8,1899984246.2147348,0.2335400432,0.00783429642766212,3538.343568147222,12.994,11.452,8.282,7.485
-0.8,1899984246.2147348,0.2406722903,0.008317637711026709,3552.2211848231955,12.898,11.364,8.221,7.423
-0.8,1899984246.2147348,0.2877573967,0.011830415557251646,3629.108896409478,12.363,10.876,7.867,7.065
-0.8,1899984246.2147348,0.3324763775,0.016292960326397224,3688.0771722615455,11.908,10.455,7.541,6.735
-0.8,1899984246.2147348,0.3348424733,0.016557699634695285,3690.6256858412085,11.886,10.434,7.525,6.718
-0.8,1899984246.2147348,0.3819275498,0.02301441817408509,3771.3774501139746,11.397,9.989,7.196,6.387
-0.8,1899984246.2147348,0.4290127158,0.032508729738543435,3880.6100135487018,10.858,9.507,6.858,6.049
-0.8,1899984246.2147348,0.4760977626,0.04742419852602446,4033.6666088992683,10.236,8.969,6.49,5.69
-0.8,1899984246.2147348,0.523182869,0.0707945784384138,4251.087068046156,9.523,8.375,6.112,5.334
-0.8,1899984246.2147348,0.5663934946,0.10256519262514076,4507.129121091093,8.801,7.794,5.778,5.055
-0.8,1899984246.2147348,0.5702679157,0.10592537251772889,4530.018754322402,8.739,7.744,5.75,5.033
-0.8,1899984246.2147348,0.6173529625,0.15452544395384138,4821.697939006178,8.034,7.166,5.426,4.792
-0.8,1899984246.2147348,0.6644381285,0.2202926463053456,5105.049999754065,7.437,6.661,5.132,4.585
-0.8,1899984246.2147348,0.7127447128,0.31045595881283555,5400.077590665929,6.901,6.209,4.857,4.383
-0.8,1899984246.2147348,0.7288072109,0.3467368504525316,5494.143519621415,6.738,6.073,4.769,4.317
-0.8,1899984246.2147348,0.7610512972,0.4285485203974395,5680.675741067723,6.431,5.813,4.602,4.186
-0.8,1899984246.2147348,0.8093579412,0.5821032177708715,5916.978619587192,6.014,5.458,4.354,3.981
-0.8,1899984246.2147348,0.8265126348,0.6471426157485831,5991.0093861135365,5.876,5.339,4.266,3.906
-0.8,1899984246.2147348,0.8576644659,0.7798301105232587,6123.503917247734,5.631,5.128,4.109,3.771
-0.8,1899984246.2147348,0.8720316887,0.8491804750363139,6178.741129854402,5.522,5.033,4.037,3.708
-0.8,1899984246.2147348,0.9059710503,1.035142166679344,6309.57344480193,5.27,4.813,3.868,3.56
-0.8,1899984246.2147348,0.9126919508,1.0739894123412448,6334.320007697662,5.222,4.77,3.835,3.531
-0.8,1899984246.2147348,0.9483761191,1.3152248321922384,6468.44664171722,4.968,4.546,3.663,3.38
-0.8,1899984246.2147348,0.9542776346,1.3583134465871542,6490.826491318409,4.926,4.509,3.635,3.355
-0.8,1899984246.2147348,0.9654402137,1.4454397707459274,6532.809588303903,4.849,4.44,3.582,3.309
-0.8,1899984246.2147348,0.9914881587,1.667247212551063,6631.320218835529,4.67,4.281,3.46,3.202
-0.8,1899984246.2147348,1.002584219,1.770108958317421,6674.212038584765,4.595,4.213,3.409,3.156
-0.8,1899984246.2147348,1.0162864923,1.9054607179632472,6728.217155215477,4.502,4.131,3.347,3.103
-0.8,1899984246.2147348,1.0392239094,2.152781734724373,6820.245379032683,4.349,3.994,3.244,3.013
-0.8,1899984246.2147348,1.0508908033,2.290867652767773,6865.939938366495,4.272,3.925,3.193,2.968
-0.8,1899984246.2147348,1.0694533587,2.523480772480575,6948.643007488283,4.15,3.816,3.114,2.901
-0.8,1899984246.2147348,1.0874750614,2.7669416454115114,7027.486176561344,4.032,3.711,3.038,2.836
-0.8,1899984246.2147348,1.0991973877,2.944421633798761,7079.457843841381,3.956,3.643,2.989,2.794
-0.8,1899984246.2147348,1.1150057316,3.1841975217261247,7158.136899114738,3.855,3.553,2.929,2.743
-0.8,1899984246.2147348,1.1475039721,3.741105882720533,7319.81323199808,3.649,3.371,2.804,2.64
-0.8,1899984246.2147348,1.1533355713,3.8459178204535354,7353.5999547540005,3.612,3.339,2.784,2.624
-0.8,1899984246.2147348,1.1797499657,4.375221051582521,7497.215596874701,3.449,3.195,2.692,2.548
-0.8,1899984246.2147348,1.1958105564,4.720630412635906,7582.283175716292,3.352,3.109,2.634,2.501
-0.8,1899984246.2147348,1.2123719454,5.105049999754062,7670.081876935095,3.253,3.022,2.578,2.454
-0.8,1899984246.2147348,1.2441170216,5.91561634175474,7827.08409590612,3.067,2.857,2.466,2.359
-0.8,1899984246.2147348,1.2693520784,6.652731562017413,7943.282347242814,2.923,2.729,2.376,2.281
-0.8,1899984246.2147348,1.2924238443,7.396052750582378,8035.261221856169,2.794,2.613,2.29,2.203
-0.8,1899984246.2147348,1.3118350506,8.090958991783824,8102.1447898176875,2.686,2.515,2.214,2.133
-0.8,1899984246.2147348,1.3407303095,9.246981739382225,8178.996079175055,2.528,2.37,2.092,2.018
-0.8,1899984246.2147348,1.3567665815,10.0,8184.647881347895,2.442,2.286,2.012,1.938
-0.8,1899984246.2147348,1.3771859407,11.01539309541415,8158.306174490077,2.332,2.176,1.896,1.821
-0.8,1899984246.2147348,1.3890368938,11.668096170609624,8124.5628005583185,2.27,2.111,1.823,1.746
-0.8,1899984246.2147348,1.397465229,12.161860006463678,8094.685874176842,2.227,2.066,1.77,1.69
-0.8,1899984246.2147348,1.4120227098,13.031667784522993,8014.934914423117,2.156,1.986,1.669,1.583
-0.8,1899984246.2147348,1.4270628691,13.995873225726179,7890.417802871681,2.087,1.903,1.55,1.453
-0.8,1899984246.2147348,1.4373434782,14.723125024327187,7787.534792924758,2.043,1.847,1.463,1.357
-0.8,1899984246.2147348,1.4439262152,15.205475297324954,7719.692476102512,2.015,1.811,1.406,1.293
-0.8,1899984246.2147348,1.4548888206,16.106456351782708,7594.514226678694,1.968,1.749,1.304,1.179
-0.8,1899984246.2147348,1.4650352001,17.10015315090288,7507.580541199374,1.913,1.684,1.211,1.076
-0.8,1899984246.2147348,1.4685165882,17.82378767448089,7606.765007662276,1.852,1.638,1.199,1.075
-0.8,1899984246.2147348,1.4712705612,18.620871366628677,7764.258747121095,1.78,1.587,1.201,1.094
-0.8,1899984246.2147348,1.472214222,19.275249131909355,7932.3158742449605,1.72,1.551,1.217,1.126
-0.8,1899984246.2147348,1.4726705551,19.998618696327437,8104.01059239934,1.662,1.518,1.234,1.157
-0.8,1899984246.2147348,1.4729273319,20.844908830972887,8279.421637123345,1.603,1.483,1.247,1.182
-0.8,1899984246.2147348,1.4730819464,21.77709772353159,8437.232172118302,1.549,1.449,1.252,1.198
-0.8,1899984246.2147348,1.4731991291,22.59435770220978,8568.405276916068,1.504,1.42,1.253,1.207
-0.8,1899984246.2147348,1.4732550383,21.827299118430012,8460.577343842877,1.544,1.448,1.256,1.203
-0.8,1899984246.2147348,1.4733177423,21.183611352485023,8281.328263907462,1.584,1.465,1.23,1.165
-0.8,1899984246.2147348,1.4733942747,21.330449131465762,8076.068613289757,1.592,1.446,1.156,1.077
-0.8,1899984246.2147348,1.473502636,22.02926463053456,7863.212274584181,1.577,1.403,1.052,0.955
-0.8,1899984246.2147348,1.4736491442,22.646443075930595,7655.966069112562,1.572,1.37,0.953,0.836
-0.8,1899984246.2147348,1.4738442898,23.06747188720069,7450.7501463625185,1.582,1.352,0.866,0.727
-0.8,1899984246.2147348,1.4740971327,23.334580622810034,7247.696519929956,1.603,1.345,0.789,0.626
-0.8,1899984246.2147348,1.4744054079,23.49632820848307,7053.424142580965,1.634,1.346,0.719,0.531
-0.8,1899984246.2147348,1.4747511148,23.550492838960103,6869.102548718842,1.671,1.353,0.657,0.444
-0.8,1899984246.2147348,1.4751096964,23.49632820848307,6701.931737237644,1.71,1.364,0.602,0.365
-0.8,1899984246.2147348,1.4754759073,23.442288153199225,6543.347723737576,1.755,1.378,0.554,0.294
-0.8,1899984246.2147348,1.4758638144,23.227367963571073,6388.516193898019,1.807,1.399,0.512,0.227
-0.8,1899984246.2147348,1.4763053656,22.803420720004187,6237.348354824191,1.874,1.431,0.481,0.17
-0.8,1899984246.2147348,1.4767900705,22.080047330189004,6082.750456601517,1.962,1.482,0.466,0.128
-0.8,1899984246.2147348,1.4772971869,20.892961308540396,5929.2532458,2.079,1.56,0.475,0.108
-0.8,1899984246.2147348,1.4776864052,19.67886289706845,5817.01253962689,2.188,1.639,0.502,0.113
-0.8,1899984246.2147348,1.4780580997,18.535316234148116,5712.1552162304315,2.296,1.719,0.534,0.123
-0.8,1899984246.2147348,1.4785344601,17.619760464116293,5591.135275705602,2.401,1.791,0.548,0.112
-0.8,1899984246.2147348,1.4787720442,17.458221529205037,5537.3248198121255,2.436,1.812,0.541,0.093
-0.8,1899984246.2147348,1.4791419506,18.15515662773135,5480.245321768504,2.418,1.778,0.478,0.016
-0.8,1899984246.2147348,1.4797563553,19.952623149688797,5405.053537086691,2.352,1.691,0.351,-0.129
-0.8,1899984246.2147348,1.4802433252,21.87761623949553,5360.43457816143,2.273,1.599,0.235,-0.255
-0.8,1899984246.2147348,1.480700016,24.043628000069333,5328.439020411989,2.188,1.504,0.123,-0.375
-0.8,1899984246.2147348,1.4811444283,26.3633138582538,5300.294488357958,2.1,1.408,0.013,-0.491
-0.8,1899984246.2147348,1.481580019,28.90679882365476,5273.512745624402,2.013,1.313,-0.095,-0.605
-0.8,1899984246.2147348,1.482011795,31.6956746304349,5249.283155466852,1.926,1.219,-0.203,-0.719
-0.8,1899984246.2147348,1.4824424982,34.673685045253166,5225.164890163825,1.842,1.127,-0.309,-0.832
-0.8,1899984246.2147348,1.4828717709,37.93149849736819,5202.355186873041,1.76,1.037,-0.413,-0.942
-0.8,1899984246.2147348,1.4834067822,42.26686142656028,5173.685200730607,1.659,0.926,-0.541,-1.078
-0.8,1899984246.2147348,1.4839128256,46.77351412871981,5145.173213816577,1.565,0.823,-0.661,-1.206
-0.8,1899984246.2147348,1.4843584299,51.16818355403078,5121.53329024499,1.483,0.733,-0.766,-1.318
-0.8,1899984246.2147348,1.4848922491,57.016427228074754,5090.9636952309365,1.385,0.624,-0.894,-1.454
-0.8,1899984246.2147348,1.4853411913,62.51726927756859,5066.406124332974,1.302,0.533,-1.002,-1.57
-0.8,1899984246.2147348,1.4856500626,66.52731562017412,5047.775135009473,1.245,0.469,-1.077,-1.65
-0.8,1899984246.2147348,1.4857738018,68.23386941416697,5040.806191026696,1.223,0.445,-1.107,-1.681
-0.8,1899984246.2147348,1.4862372875,74.98942093324558,5014.180920308942,1.139,0.351,-1.218,-1.801
-0.8,1899984246.2147348,1.4867614508,82.98507675144225,4984.252094042598,1.05,0.25,-1.338,-1.929
-0.8,1899984246.2147348,1.4872720242,91.20108393559097,4956.784065941179,0.969,0.157,-1.449,-2.048
-0.8,1899984246.2147348,1.4878166914,100.46157902783946,4928.332491971514,0.887,0.063,-1.562,-2.168
-0.8,1899984246.2147348,1.4883780479,108.89300933334333,4904.559414451102,0.817,-0.018,-1.659,-2.272
-0.8,1899984246.2147348,1.4890036583,117.48975549395291,4882.0250108670625,0.753,-0.091,-1.748,-2.368
-0.8,1899984246.2147348,1.4895819426,123.31048332289096,4868.554096577112,0.712,-0.138,-1.805,-2.429
-0.8,1899984246.2147348,1.4899660349,116.6809617060963,4887.648886615807,0.756,-0.086,-1.74,-2.358
-0.8,1899984246.2147348,1.4901953936,111.17317272815909,4904.559414451102,0.796,-0.039,-1.68,-2.293
-0.8,1899984246.2147348,1.4903373718,106.6596121230258,4916.997641778744,0.83,0.0,-1.632,-2.241
-0.8,1899984246.2147348,1.4904805422,100.46157902783946,4937.419182496813,0.88,0.059,-1.56,-2.164
-0.8,1899984246.2147348,1.4906169176,94.40608762859236,4956.784065941179,0.931,0.118,-1.487,-2.086
-0.8,1899984246.2147348,1.4908195734,87.70008211436348,4981.957289567119,0.995,0.193,-1.397,-1.989
-0.8,1899984246.2147348,1.491014123,91.83325964835811,4967.066792234226,0.954,0.146,-1.454,-2.049
-0.8,1899984246.2147348,1.4913847446,99.77000638225536,4941.96880847838,0.883,0.064,-1.552,-2.154
-0.8,1899984246.2147348,1.4917651415,108.14339512979376,4918.129952683078,0.814,-0.015,-1.648,-2.257
-0.8,1899984246.2147348,1.492159605,117.76059735208078,4892.152651344176,0.743,-0.098,-1.747,-2.364
-0.8,1899984246.2147348,1.4926341772,130.61708881318418,4860.713235201249,0.657,-0.197,-1.87,-2.497
-0.8,1899984246.2147348,1.4930161238,142.23287871228197,4833.926025160843,0.586,-0.28,-1.972,-2.608
-0.8,1899984246.2147348,1.4933804274,154.88166189124811,4807.286438439701,0.517,-0.362,-2.074,-2.718
-0.8,1899984246.2147348,1.4937340021,169.04409316432648,4780.793661491186,0.446,-0.444,-2.176,-2.83
-0.8,1899984246.2147348,1.4941415787,187.93168168032685,4747.882909415973,0.364,-0.543,-2.3,-2.964
-0.8,1899984246.2147348,1.4944629669,204.6444636724674,4720.630412635905,0.303,-0.627,-2.404,-3.074
-0.8,1899984246.2147348,1.4948379993,228.03420720004186,4684.8964916001305,0.229,-0.731,-2.533,-3.21
-0.8,1899984246.2147348,1.4951854944,253.51286304979072,4651.574703021666,0.158,-0.832,-2.66,-3.345
-0.8,1899984246.2147348,1.4955114126,281.8382931264455,4616.363515404673,0.09,-0.932,-2.787,-3.481
-0.8,1899984246.2147348,1.495814085,314.0508693876217,4581.418867145335,0.022,-1.032,-2.915,-3.617
-0.8,1899984246.2147348,1.4960967302,349.1403154785863,4546.738740611353,-0.042,-1.129,-3.041,-3.753
-0.8,1899984246.2147348,1.4963598251,388.15036599064825,4511.282252715862,-0.104,-1.224,-3.167,-3.889
-0.8,1899984246.2147348,1.4966037273,431.519076827765,4476.102262460901,-0.165,-1.319,-3.292,-4.024
-0.8,1899984246.2147348,1.4968284369,478.6300923226385,4442.2193547105535,-0.224,-1.409,-3.415,-4.159
-0.8,1899984246.2147348,1.4970383644,530.8844442309885,4405.548635065535,-0.282,-1.495,-3.538,-4.297
-0.8,1899984246.2147348,1.4972330332,590.2010801718442,4370.186790706132,-0.34,-1.58,-3.661,-4.434
-0.8,1899984246.2147348,1.4974139929,654.6361740672747,4336.107094491863,-0.396,-1.663,-3.782,-4.569
-0.8,1899984246.2147348,1.4975821972,724.4359600749899,4301.302633821362,-0.451,-1.744,-3.903,-4.705
-0.8,1899984246.2147348,1.4977380037,803.5261221856169,4265.795188015925,-0.505,-1.825,-4.023,-4.84
-0.8,1899984246.2147348,1.4978835583,889.2011178579481,4232.529560919834,-0.555,-1.902,-4.142,-4.974
-0.8,1899984246.2147348,1.4980186224,986.279485631211,4198.556481973773,-0.603,-1.979,-4.26,-5.108
-0.8,1899984246.2147348,1.4981439114,1088.9300933334332,4163.897210251638,-0.648,-2.053,-4.377,-5.24
-0.8,1899984246.2147348,1.4982612133,1205.0359403717973,4129.524052369216,-0.685,-2.121,-4.493,-5.373
-0.8,1899984246.2147348,1.4983725548,1330.4544179780914,4096.377763696796,-0.723,-2.19,-4.611,-5.506
-0.8,1899984246.2147348,1.4984750748,1468.9262776438661,4063.497529039034,-0.758,-2.257,-4.725,-5.636
-0.8,1899984246.2147348,1.4985719919,1618.0800376430661,4030.881212870604,-0.788,-2.319,-4.837,-5.765
-0.8,1899984246.2147348,1.4986495972,1749.8466886246565,4004.0546833054636,-0.811,-2.367,-4.927,-5.868
-0.8,1899984246.2147348,1.4986495972,70.95777679633888,5252.910484500485,1.049,0.344,-1.078,-1.596
-0.8,1899984246.2147348,1.4993497133,72.44359600749902,5237.210139231933,1.034,0.323,-1.108,-1.63
-0.8,1899984246.2147348,1.5001366138,73.6207097494736,5229.979661821558,1.022,0.309,-1.127,-1.651
-0.8,1899984246.2147348,1.5008419752,74.30191378967014,5229.979661821558,1.013,0.3,-1.136,-1.66
-0.8,1899984246.2147348,1.5015610456,74.64487584100665,5232.388711124278,1.005,0.292,-1.142,-1.665
-0.8,1899984246.2147348,1.5022886992,75.16228940182053,5236.0043658575005,0.997,0.285,-1.147,-1.669
-0.8,1899984246.2147348,1.5030949116,75.68328950209744,5239.622519059377,0.987,0.277,-1.153,-1.674
-0.8,1899984246.2147348,1.5038148165,76.03262769401819,5242.036010084628,0.979,0.27,-1.159,-1.679
-0.8,1899984246.2147348,1.5045319796,76.55966069112561,5245.6583312381235,0.971,0.263,-1.164,-1.684
-0.8,1899984246.2147348,1.5053032637,77.090346906443,5248.074602497728,0.961,0.254,-1.171,-1.69
-0.8,1899984246.2147348,1.506070137,77.62471166286916,5251.701096404131,0.952,0.246,-1.178,-1.696
-0.8,1899984246.2147348,1.5068742037,78.16278045883297,5254.120151100796,0.942,0.237,-1.185,-1.702
-0.8,1899984246.2147348,1.5076504946,78.70457896950985,5256.540320069867,0.933,0.229,-1.192,-1.709
-0.8,1899984246.2147348,1.5084346533,79.43282347242814,5258.961603824607,0.923,0.22,-1.2,-1.716
-0.8,1899984246.2147348,1.5092562437,79.98342550070285,5261.38400287851,0.913,0.21,-1.208,-1.724
-0.8,1899984246.2147348,1.5100728273,80.72350302488383,5263.807517745308,0.903,0.201,-1.216,-1.731
-0.8,1899984246.2147348,1.5101650953,80.72350302488383,5263.807517745308,0.902,0.2,-1.217,-1.732
-0.8,1899984246.2147348,1.510311842,80.90958991783822,5263.807517745308,0.9,0.199,-1.218,-1.733
-0.8,1899984246.2147348,1.5111056566,81.47042840208397,5266.2321489389715,0.891,0.19,-1.226,-1.741
-0.8,1899984246.2147348,1.5118811131,82.03515443298181,5267.444883319061,0.882,0.181,-1.234,-1.748
-0.8,1899984246.2147348,1.5126324892,82.7942163712334,5268.657896973707,0.873,0.173,-1.242,-1.756
-0.8,1899984246.2147348,1.5133867264,83.36811846196343,5269.871189967232,0.864,0.164,-1.249,-1.763
-0.8,1899984246.2147348,1.5141817331,83.94599865193973,5269.871189967232,0.855,0.155,-1.258,-1.772
-0.8,1899984246.2147348,1.514999032,84.72274141405963,5269.871189967232,0.846,0.147,-1.267,-1.781
-0.8,1899984246.2147348,1.5157917738,85.31001140175896,5269.871189967232,0.838,0.138,-1.276,-1.79
-0.8,1899984246.2147348,1.5158671141,85.50667128846833,5269.871189967232,0.837,0.137,-1.276,-1.79
-0.8,1899984246.2147348,1.5165727139,86.09937521846008,5268.657896973707,0.83,0.13,-1.284,-1.799
-0.8,1899984246.2147348,1.5173416138,86.69618757582165,5267.444883319061,0.822,0.122,-1.294,-1.808
-0.8,1899984246.2147348,1.5181304216,87.4983775227436,5263.807517745308,0.815,0.113,-1.304,-1.819
-0.8,1899984246.2147348,1.5187125206,88.10488730080142,5261.38400287851,0.809,0.107,-1.312,-1.828
-0.8,1899984246.2147348,1.5189322233,88.30799004185627,5260.172663907063,0.807,0.104,-1.314,-1.831
-0.8,1899984246.2147348,1.5197623968,89.12509381337455,5255.33009626921,0.8,0.095,-1.326,-1.844
-0.8,1899984246.2147348,1.5205754042,89.94975815300351,5249.283155466852,0.793,0.086,-1.339,-1.858
-0.8,1899984246.2147348,1.5213840008,90.99132726322517,5243.243172456372,0.785,0.076,-1.353,-1.873
-0.8,1899984246.2147348,1.5221961737,92.04495717531712,5233.59365186758,0.778,0.065,-1.369,-1.892
-0.8,1899984246.2147348,1.523000598,92.89663867799364,5232.388711124278,0.769,0.056,-1.379,-1.902
-0.8,1899984246.2147348,1.5238112211,93.5405674147552,5228.775553134414,0.763,0.049,-1.388,-1.912
-0.8,1899984246.2147348,1.5246086121,96.38290236239705,5199.959965335162,0.748,0.023,-1.431,-1.962
-0.8,1899984246.2147348,1.525420785,103.75284158180126,5142.804319487918,0.704,-0.042,-1.53,-2.076
-0.8,1899984246.2147348,1.5257655382,111.94378834671514,5094.481623274436,0.654,-0.111,-1.629,-2.188
-0.8,1899984246.2147348,1.5258928537,120.50359403717974,5053.589947531675,0.602,-0.179,-1.722,-2.292
-0.8,1899984246.2147348,1.5259442329,129.41958414499862,5017.645790367086,0.549,-0.246,-1.812,-2.391
-0.8,1899984246.2147348,1.5259698629,140.60475241299144,4980.810283567242,0.488,-0.322,-1.913,-2.502
-0.8,1899984246.2147348,1.5259788036,146.21771744567184,4963.636848845585,0.458,-0.359,-1.962,-2.556
-0.8,1899984246.2147348,1.5259790421,146.21771744567184,4962.494060797449,0.457,-0.36,-1.963,-2.557
-0.8,1899984246.2147348,1.5259814262,148.59356422870076,4956.784065941179,0.446,-0.374,-1.981,-2.577
-0.8,1899984246.2147348,1.5259935856,160.32453906900417,4926.063433495771,0.386,-0.448,-2.075,-2.68
-0.8,1899984246.2147348,1.5260049105,171.39573075084252,4898.916080940641,0.335,-0.511,-2.157,-2.769
-0.8,1899984246.2147348,1.5260161161,178.23787674480891,4884.273784229252,0.306,-0.546,-2.202,-2.819
-0.8,1899984246.2147348,1.5260324478,180.3017740859568,4879.77727286486,0.297,-0.557,-2.217,-2.835
-0.8,1899984246.2147348,1.5260623693,177.41894808901662,4887.648886615807,0.309,-0.542,-2.196,-2.812
-0.8,1899984246.2147348,1.5260977745,170.60823890031244,4902.30130136168,0.339,-0.506,-2.149,-2.76
-0.8,1899984246.2147348,1.5262314081,167.1090614310707,4910.20924883086,0.355,-0.486,-2.123,-2.732
-0.8,1899984246.2147348,1.5267183781,179.06058540352947,4882.0250108670625,0.302,-0.551,-2.208,-2.826
-0.8,1899984246.2147348,1.527023077,201.83663636815618,4835.039205916214,0.211,-0.662,-2.354,-2.988
-0.8,1899984246.2147348,1.5272682905,231.20647901755942,4781.894606659083,0.119,-0.792,-2.52,-3.168
-0.8,1899984246.2147348,1.5274702311,260.0159563165272,4738.053933388255,0.045,-0.901,-2.662,-3.319
-0.8,1899984246.2147348,1.527641654,289.0679882365475,4697.859239439367,-0.023,-1.001,-2.791,-3.458
-0.8,1899984246.2147348,1.5277882814,319.88951096913974,4660.151117021843,-0.085,-1.095,-2.914,-3.59
-0.8,1899984246.2147348,1.5279160738,353.18316979195697,4623.810213992603,-0.142,-1.185,-3.032,-3.718
-0.8,1899984246.2147348,1.5280306339,389.04514499428046,4570.881896148751,-0.179,-1.264,-3.155,-3.856
-0.8,1899984246.2147348,1.5281345844,429.53642676488727,4526.890608773584,-0.224,-1.347,-3.275,-3.989
-0.8,1899984246.2147348,1.5282298326,475.3352259428054,4483.322704327333,-0.269,-1.431,-3.397,-4.125
-0.8,1899984246.2147348,1.5282952785,511.6818355403078,4454.510633598985,-0.309,-1.491,-3.486,-4.225
-0.8,1899984246.2147348,1.5283741951,563.6376558259543,4421.809210742687,-0.364,-1.571,-3.6,-4.351
-0.8,1899984246.2147348,1.5284522772,622.3002851691596,4387.326951325295,-0.416,-1.65,-3.715,-4.48
-0.8,1899984246.2147348,1.5285284519,685.4882264526614,4351.1093709276765,-0.465,-1.726,-3.83,-4.61
-0.8,1899984246.2147348,1.5286034346,755.0922276654342,4316.1844920735875,-0.514,-1.801,-3.944,-4.738
-0.8,1899984246.2147348,1.5286769867,829.8507675144226,4282.5259178891965,-0.561,-1.874,-4.055,-4.864
-0.8,1899984246.2147348,1.5287445784,907.8205301781861,4250.108331760471,-0.603,-1.942,-4.162,-4.985
-0.8,1899984246.2147348,1.528796196,986.279485631211,4219.879016871569,-0.638,-2.001,-4.257,-5.094
-0.8,1899984246.2147348,1.5288305283,1059.2537251772887,4193.72549666233,-0.668,-2.052,-4.341,-5.189
-0.8,1899984246.2147348,1.5288594961,1140.2497875611684,4166.774522219098,-0.698,-2.105,-4.428,-5.289
-0.8,1899984246.2147348,1.5288863182,1235.9474334445108,4138.090648167254,-0.724,-2.158,-4.521,-5.395
-0.8,1899984246.2147348,1.5289105177,1333.521432163324,4110.55061281175,-0.75,-2.208,-4.61,-5.498
-0.8,1899984246.2147348,1.5289334059,1448.7718535447616,4081.3139159697193,-0.776,-2.262,-4.706,-5.608
-0.8,1899984246.2147348,1.528960228,1599.5580286146694,4045.7589169744288,-0.804,-2.324,-4.822,-5.741
-0.8,1899984246.2147348,1.5289810896,1737.8008287493763,4015.1335942882924,-0.826,-2.375,-4.918,-5.853
-0.8,1899984246.2147348,1.5289859772,1774.1894808901661,4007.7442528043107,-0.831,-2.387,-4.942,-5.881
-0.8,1899984246.2147348,1.5289885998,1803.017740859568,4003.132821780234,-0.835,-2.396,-4.959,-5.9
-0.8,1899984246.2147348,1.5289927721,1849.2686189780777,3993.006342231626,-0.842,-2.412,-4.989,-5.936
-0.8,1899984246.2147348,1.5289981365,1836.5383433483455,3994.845613082856,-0.839,-2.407,-4.982,-5.927
-0.8,1899984246.2147348,1.529001236,1972.4227361148535,3969.1727400947307,-0.855,-2.448,-5.065,-6.024
-0.8,1899984246.2147348,1.5290055275,2202.9264630534562,3928.2579671627864,-0.875,-2.508,-5.192,-6.173
-0.8,1899984246.2147348,1.5290119648,2552.701302661247,3874.3602472800194,-0.897,-2.582,-5.36,-6.37
-0.8,1899984246.2147348,1.5290184021,2747.8941531023975,3845.9178204535356,-0.898,-2.612,-5.447,-6.472
-0.8,1899984246.2147348,1.5290186405,2747.8941531023975,3845.9178204535356,-0.898,-2.612,-5.447,-6.472
-0.8,1899984246.2147348,1.5290192366,1782.378767448089,3996.6857311446765,-0.813,-2.376,-4.947,-5.892
-0.8,1899984246.2147348,1.5290195942,1482.518085145953,4064.4332916521275,-0.765,-2.265,-4.734,-5.644
-0.8,1899984246.2147348,1.5290209055,866.9618757582169,4265.795188015925,-0.578,-1.905,-4.107,-4.923
-0.8,1899984246.2147348,1.5290229321,872.9713683881113,4261.868054241604,-0.58,-1.91,-4.116,-4.934
-0.8,1899984246.2147348,1.5290254354,1054.3868963912591,4188.900070027829,-0.654,-2.042,-4.336,-5.187
-0.8,1899984246.2147348,1.5290287733,1489.3610777109154,4057.8874759172845,-0.759,-2.264,-4.741,-5.655
-0.8,1899984246.2147348,1.529032588,2055.8905959841427,3940.0342764474544,-0.832,-2.45,-5.113,-6.088
-0.8,1899984246.2147348,1.5290372372,2552.701302661247,3861.0017636183584,-0.868,-2.563,-5.364,-6.382
-0.8,1899984246.2147348,1.5290426016,2877.3984147356696,3817.684194975441,-0.871,-2.612,-5.501,-6.543
-0.8,1899984246.2147348,1.529048562,3040.88502567628,3795.7709700253163,-0.868,-2.632,-5.567,-6.62
-0.8,1899984246.2147348,1.529055357,3140.5086938762165,3781.8125611095074,-0.862,-2.639,-5.605,-6.666
-0.8,1899984246.2147348,1.5290555954,2398.83291901949,3876.144867002412,-0.841,-2.519,-5.291,-6.301
-0.8,1899984246.2147348,1.5290565491,1725.837891990204,3993.006342231626,-0.774,-2.337,-4.912,-5.859
-0.8,1899984246.2147348,1.529058218,1009.2528860766844,4191.7946593256365,-0.613,-1.997,-4.288,-5.138
-0.8,1899984246.2147348,1.5290607214,1016.2486928706959,4187.935651179182,-0.615,-2.001,-4.297,-5.148
-0.8,1899984246.2147348,1.52906394,1221.7996601648722,4117.1813799387055,-0.674,-2.122,-4.512,-5.398
-0.8,1899984246.2147348,1.5290681124,1713.9573075084252,3991.167918200923,-0.764,-2.328,-4.906,-5.854
-0.8,1899984246.2147348,1.529073,2344.228815319923,3877.0374851038273,-0.822,-2.497,-5.266,-6.276
-0.8,1899984246.2147348,1.5290788412,2890.6798823654744,3801.8939632056126,-0.836,-2.591,-5.51,-6.561
-0.8,1899984246.2147348,1.5290856361,3235.936569296281,3760.10523668496,-0.831,-2.627,-5.641,-6.713
-0.8,1899984246.2147348,1.5290931463,3404.081897010009,3740.244560424048,-0.824,-2.64,-5.7,-6.784
-0.8,1899984246.2147348,1.5291017294,3499.451670283573,3728.2068494295654,-0.816,-2.643,-5.732,-6.823
-0.8,1899984246.2147348,1.529102087,2728.9777828080405,3813.2914527677754,-0.812,-2.552,-5.445,-6.489
-0.8,1899984246.2147348,1.5291031599,1972.4227361148535,3929.1625861305615,-0.768,-2.39,-5.069,-6.05
-0.8,1899984246.2147348,1.5291051865,1156.1122421920993,4126.6724632293635,-0.635,-2.072,-4.449,-5.33
-0.8,1899984246.2147348,1.5291081667,1164.126029410491,4122.873407228869,-0.635,-2.076,-4.457,-5.34
-0.8,1899984246.2147348,1.5291121006,1393.1568029453035,4054.1517440650287,-0.685,-2.188,-4.669,-5.585
-0.8,1899984246.2147348,1.5291171074,1936.4219639466069,3931.877693146969,-0.756,-2.375,-5.05,-6.029
-0.8,1899984246.2147348,1.5291230679,2618.1830082189863,3822.0819974268243,-0.793,-2.523,-5.398,-6.438
-0.8,1899984246.2147348,1.5291301012,3206.2693245054643,3748.8667146053936,-0.791,-2.596,-5.634,-6.713
-0.8,1899984246.2147348,1.5291382074,3564.5113342624427,3710.2228861746507,-0.784,-2.627,-5.757,-6.857
-0.8,1899984246.2147348,1.5291475058,3741.105882720533,3692.325673185324,-0.775,-2.633,-5.813,-6.922
-0.8,1899984246.2147348,1.5291577578,3828.2474331682283,3682.1374823089295,-0.768,-2.635,-5.841,-6.955
-0.8,1899984246.2147348,1.5291581154,3083.1879502493534,3757.508744904872,-0.777,-2.572,-5.59,-6.664
-0.8,1899984246.2147348,1.5291593075,2238.72113856834,3872.576449216173,-0.763,-2.441,-5.218,-6.229
-0.8,1899984246.2147348,1.529161334,1315.224832192239,4070.989666502739,-0.657,-2.147,-4.603,-5.511
-0.8,1899984246.2147348,1.5291644335,1327.3944577297402,4067.2418726426044,-0.657,-2.15,-4.612,-5.522
-0.8,1899984246.2147348,1.5291684866,1584.893192461114,3997.606108001501,-0.696,-2.253,-4.819,-5.764
-0.8,1899984246.2147348,1.5291736126,2177.709772353159,3877.0374851038273,-0.747,-2.419,-5.187,-6.197
-0.8,1899984246.2147348,1.5291798115,2917.427014001166,3768.773174453475,-0.753,-2.536,-5.526,-6.594
-0.8,1899984246.2147348,1.5291870832,3548.133892335753,3696.5790681932745,-0.737,-2.589,-5.755,-6.862
-0.8,1899984246.2147348,1.5291954279,3935.5007545577764,3657.631930094523,-0.719,-2.604,-5.877,-7.004
-0.8,1899984246.2147348,1.5292049646,4120.975190973304,3638.3125123993877,-0.705,-2.606,-5.932,-7.07
-0.8,1899984246.2147348,1.5292155743,4226.686142656029,3625.7679024119648,-0.691,-2.601,-5.962,-7.107
-0.8,1899984246.2147348,1.5292159319,3523.7087104248726,3690.6256858412085,-0.71,-2.566,-5.749,-6.86
-0.8,1899984246.2147348,1.5292170048,2570.3957827688646,3804.5211258004038,-0.724,-2.471,-5.381,-6.431
-0.8,1899984246.2147348,1.5292190313,1517.050367459337,4003.132821780234,-0.66,-2.212,-4.77,-5.712
-0.8,1899984246.2147348,1.5292220116,1527.5660582380733,3999.4474976109736,-0.658,-2.214,-4.779,-5.723
-0.8,1899984246.2147348,1.5292258263,1819.7008586099826,3930.0674134185306,-0.684,-2.305,-4.981,-5.962
-0.8,1899984246.2147348,1.5292307138,2471.724145016129,3812.4135110429906,-0.706,-2.444,-5.336,-6.381
-0.8,1899984246.2147348,1.5292366743,3273.406948788383,3707.660840003112,-0.686,-2.528,-5.664,-6.765
-0.8,1899984246.2147348,1.5292435884,3944.573020752785,3637.4748564263245,-0.658,-2.557,-5.884,-7.023
-0.8,1899984246.2147348,1.5292515755,4365.158322401661,3599.15043999954,-0.629,-2.553,-6.002,-7.16
-0.8,1899984246.2147348,1.5292606354,4560.369159512959,3580.1399184306892,-0.609,-2.544,-6.057,-7.225
-0.8,1899984246.2147348,1.5292707682,4677.351412871981,3567.795882885623,-0.593,-2.535,-6.087,-7.261
-0.8,1899984246.2147348,1.5292711258,4027.170343254591,3620.762177566733,-0.621,-2.532,-5.911,-7.058
-0.8,1899984246.2147348,1.5292721987,2951.209226666387,3730.783093184723,-0.652,-2.47,-5.547,-6.636
-0.8,1899984246.2147348,1.5292742252,1745.8221529205039,3930.0674134185306,-0.638,-2.26,-4.938,-5.918
-0.8,1899984246.2147348,1.5292772055,1761.976046411629,3924.641573534599,-0.635,-2.262,-4.948,-5.931
-0.8,1899984246.2147348,1.5292810202,2089.296130854039,3853.0087919083076,-0.92,-2.521,-5.161,-6.139
-0.8,1899984246.2147348,1.5292859077,2811.9008303989394,3728.2068494295654,-0.948,-2.663,-5.501,-6.544
-0.8,1899984246.2147348,1.5292918682,3681.289736425313,3611.602957582318,-0.969,-2.777,-5.803,-6.913
-0.8,1899984246.2147348,1.5292987823,4415.704473533126,3525.3318119588625,-0.952,-2.829,-6.0,-7.165
-0.8,1899984246.2147348,1.5293067694,4852.88500162121,3469.764505288517,-0.927,-2.841,-6.103,-7.305
-0.8,1899984246.2147348,1.5293158293,5081.594425605605,3430.8363277495027,-0.895,-2.827,-6.15,-7.379
-0.8,1899984246.2147348,1.5293259621,5211.947111050806,3397.8171182708334,-0.853,-2.801,-6.177,-7.429
-0.8,1899984246.2147348,1.5293263197,4645.152752227492,3447.4660657314944,-0.832,-2.757,-6.052,-7.27
-0.8,1899984246.2147348,1.5293272734,3427.6778654645045,3582.613845838672,-0.849,-2.661,-5.722,-6.851
-0.8,1899984246.2147348,1.5293291807,2032.3570109362208,3828.2474331682283,-0.87,-2.471,-5.132,-6.12
-0.8,1899984246.2147348,1.5293319225,2046.444636724674,3819.442708400464,-0.86,-2.468,-5.141,-6.134
-0.8,1899984246.2147348,1.5293354988,2421.0290467361774,3729.065399621527,-0.84,-2.521,-5.334,-6.376
-0.8,1899984246.2147348,1.5293400288,3213.660538640318,3581.789013481115,-0.783,-2.592,-5.651,-6.781
-0.8,1899984246.2147348,1.5293455124,4149.5404263436285,3445.8788144433506,-0.705,-2.631,-5.928,-7.147
-0.8,1899984246.2147348,1.5293519497,4920.395356814511,3348.1121738605384,-0.679,-2.654,-6.11,-7.395
-0.8,1899984246.2147348,1.5293593407,5370.317963702527,3283.2201160919944,-0.617,-2.635,-6.207,-7.534
-0.8,1899984246.2147348,1.5293678045,5597.576014951104,3235.1915531420955,-0.531,-2.589,-6.253,-7.61
-0.8,1899984246.2147348,1.5293772221,5727.960309858292,3190.8030609514212,-0.438,-2.533,-6.282,-7.663
-0.8,1899984246.2147348,1.5293774605,5284.452517751803,3228.4941217126348,-0.457,-2.516,-6.189,-7.55
-0.8,1899984246.2147348,1.5293784142,3917.4187710778306,3370.5439929348295,-0.481,-2.445,-5.862,-7.134
-0.8,1899984246.2147348,1.5293800831,2333.458062281002,3634.9630454608155,-0.595,-2.343,-5.3,-6.397
-0.8,1899984246.2147348,1.5293824673,2349.6328208483073,3624.933134609571,-0.581,-2.335,-5.308,-6.411
-0.8,1899984246.2147348,1.5293856859,2766.9416454115126,3531.018557237582,-0.515,-2.351,-5.486,-6.65
-0.8,1899984246.2147348,1.529389739,3622.4299841669877,3380.6483620598156,-0.416,-2.376,-5.776,-7.041
-0.8,1899984246.2147348,1.5293946266,4613.175745603796,3247.1324216780226,-0.376,-2.411,-6.039,-7.39
-0.8,1899984246.2147348,1.5294004679,5420.008904016238,3153.5520245507173,-0.287,-2.406,-6.221,-7.624
-0.8,1899984246.2147348,1.5294070244,5888.43655355589,3096.7061741707726,-0.217,-2.388,-6.319,-7.75
-0.8,1899984246.2147348,1.5294145346,6123.503917247734,3059.849034654997,-0.153,-2.357,-6.364,-7.808
-0.8,1899984246.2147348,1.5294229984,6251.726927756856,3030.4002977883647,-0.09,-2.321,-6.389,-7.843
-0.8,1899984246.2147348,1.5294232368,5970.352865838366,3053.514593940289,-0.109,-2.317,-6.336,-7.783
-0.8,1899984246.2147348,1.5294241905,4456.562483975033,3199.6317673183503,-0.218,-2.288,-6.001,-7.38
-0.8,1899984246.2147348,1.5294257402,2654.605561975539,3477.763138547455,-0.345,-2.219,-5.44,-6.64
-0.8,1899984246.2147348,1.5294280052,2673.0064086633115,3472.1621617221945,-0.338,-2.217,-5.448,-6.652
-0.8,1899984246.2147348,1.5294311047,3133.2857243155854,3382.20556669654,-0.261,-2.221,-5.617,-6.883
-0.8,1899984246.2147348,1.5294349194,4055.085354483839,3241.1564884384366,-0.228,-2.263,-5.896,-7.251
-0.8,1899984246.2147348,1.5294395685,5093.308710571952,3119.60781764676,-0.135,-2.279,-6.157,-7.577
-0.8,1899984246.2147348,1.5294450521,5915.616341754737,3040.88502567628,-0.062,-2.282,-6.328,-7.779
-0.8,1899984246.2147348,1.529451251,6382.634861905489,2998.4720157970514,-0.018,-2.28,-6.417,-7.879
-0.8,1899984246.2147348,1.5294584036,6606.934480075957,2976.459653637275,0.009,-2.274,-6.459,-7.925
-0.8,1899984246.2147348,1.5294663906,6745.280276979222,2962.7840637587915,0.032,-2.266,-6.482,-7.951
-0.8,1899984246.2147348,1.529466629,6668.067692136218,2967.563358073529,0.029,-2.264,-6.469,-7.937
-0.8,1899984246.2147348,1.5294673443,5011.872336272725,3111.716337106017,-0.092,-2.245,-6.14,-7.564
-0.8,1899984246.2147348,1.5294687748,3013.006024186122,3387.661433708217,-0.23,-2.188,-5.575,-6.837
-0.8,1899984246.2147348,1.5294708014,3019.9517204020162,3385.3221281535407,-0.226,-2.185,-5.576,-6.84
-0.8,1899984246.2147348,1.529473424,3523.7087104248726,3295.3382547359615,-0.197,-2.201,-5.742,-7.064
-0.8,1899984246.2147348,1.5294767618,4487.453899331323,3158.6390484234703,-0.106,-2.216,-6.016,-7.416
-0.8,1899984246.2147348,1.5294808149,5559.042572704037,3042.2857274809608,0.003,-2.217,-6.261,-7.712
-0.8,1899984246.2147348,1.5294855833,6382.634861905489,2967.563358073529,0.076,-2.217,-6.423,-7.891
-0.8,1899984246.2147348,1.5294910669,6854.882264526614,2930.2184598312765,0.112,-2.218,-6.507,-7.982
-0.8,1899984246.2147348,1.529497385,7079.457843841381,2915.4124227107563,0.127,-2.22,-6.544,-8.021
-0.8,1899984246.2147348,1.5295042992,7194.489780036998,2911.3874126187557,0.126,-2.227,-6.564,-8.041
-0.8,1899984246.2147348,1.5295045376,7345.138681571151,2899.3456931707387,0.141,-2.225,-6.59,-8.07
-0.8,1899984246.2147348,1.5295051336,5559.042572704037,3045.089066974223,0.007,-2.218,-6.264,-7.712
-0.8,1899984246.2147348,1.5295064449,3388.441561392024,3323.533035774775,-0.219,-2.208,-5.703,-7.006
-0.8,1899984246.2147348,1.5295082331,3357.3761424295453,3318.180448272474,-0.196,-2.188,-5.693,-7.0
-0.8,1899984246.2147348,1.5295106173,3908.4089579240213,3216.6217928790406,-0.108,-2.17,-5.86,-7.228
-0.8,1899984246.2147348,1.5295135975,4920.395356814511,3073.972656082513,0.045,-2.148,-6.126,-7.566
-0.8,1899984246.2147348,1.5295171738,6011.737374832779,2956.650565082943,0.177,-2.128,-6.359,-7.829
-0.8,1899984246.2147348,1.5295214653,6839.116472814293,2884.6956523813637,0.255,-2.12,-6.513,-7.995
-0.8,1899984246.2147348,1.5295263529,7294.575102545687,2854.3025137865798,0.267,-2.136,-6.592,-8.075
-0.8,1899984246.2147348,1.5295319557,7516.228940182053,2851.674814305012,0.249,-2.159,-6.625,-8.107
-0.8,1899984246.2147348,1.5295381546,7620.790100254122,2869.4588430750064,0.195,-2.202,-6.637,-8.119
-0.8,1899984246.2147348,1.529538393,8016.78063387679,2839.226239424908,0.218,-2.205,-6.702,-8.184
-0.8,1899984246.2147348,1.5295389891,6109.420249055721,2966.1970592694383,0.147,-2.157,-6.377,-7.844
-0.8,1899984246.2147348,1.529540062,3758.374042884443,3212.1809339879856,-0.045,-2.116,-5.819,-7.19
-0.8,1899984246.2147348,1.5295416117,3681.289736425313,3196.686154267323,0.011,-2.07,-5.799,-7.178
-0.8,1899984246.2147348,1.5295437574,4255.984131337431,3085.3184768063825,0.163,-2.015,-5.967,-7.403
-0.8,1899984246.2147348,1.52954638,5284.452517751803,2936.2971257566924,0.361,-1.955,-6.22,-7.695
-0.8,1899984246.2147348,1.5295497179,6353.309318517436,2815.1400151333,0.5,-1.927,-6.45,-7.932
-0.8,1899984246.2147348,1.5295534134,7128.530301265198,2747.2614999306734,0.552,-1.935,-6.596,-8.07
-0.8,1899984246.2147348,1.5295578241,7533.55563733717,2737.158835750586,0.528,-1.972,-6.661,-8.132
-0.8,1899984246.2147348,1.5295627117,7691.304402866098,2781.6340890110087,0.405,-2.064,-6.672,-8.15
-0.8,1899984246.2147348,1.5295683146,7744.617978025183,2885.359954579744,0.147,-2.242,-6.653,-8.135
