FeH,Age,Mini,L,Te,Bmag,Vmag,Jmag,Kmag
0.2,299999133.2716144,0.093007721,0.0007870457896950985,2368.099793873793,18.897,17.191,10.443,9.51
0.2,299999133.2716144,0.0962944254,0.0008394599865193973,2392.764738527746,18.83,17.123,10.373,9.44
0.2,299999133.2716144,0.1029621437,0.0009594006315159336,2443.9932381496833,18.687,16.978,10.226,9.294
0.2,299999133.2716144,0.105394572,0.0010023052380778994,2459.8011487888525,18.642,16.932,10.179,9.247
0.2,299999133.2716144,0.1177760959,0.0012502590302177201,2542.728553689999,18.407,16.693,9.938,9.006
0.2,299999133.2716144,0.122871004,0.0013614446824659497,2576.3211570025755,18.318,16.603,9.847,8.915
0.2,299999133.2716144,0.1234597042,0.0013740419750125148,2579.2889644274874,18.309,16.593,9.837,8.905
0.2,299999133.2716144,0.1427134275,0.0018323144223712112,2684.108083545228,17.564,15.886,9.549,8.622
0.2,299999133.2716144,0.1427798569,0.0018323144223712112,2684.7261934311446,17.561,15.883,9.548,8.621
0.2,299999133.2716144,0.1527827382,0.0021134890398366475,2725.837738928534,17.176,15.527,9.408,8.484
0.2,299999133.2716144,0.1626887172,0.0024043628000069324,2765.03096983568,16.827,15.203,9.282,8.361
0.2,299999133.2716144,0.202506423,0.0037497300224548337,2886.0244097569725,15.756,14.192,8.839,7.929
0.2,299999133.2716144,0.242651701,0.005199959965335162,2975.7743773728107,15.036,13.509,8.512,7.611
0.2,299999133.2716144,0.2522785664,0.005623413251903491,2995.021883751126,14.877,13.358,8.434,7.535
0.2,299999133.2716144,0.3020507097,0.008279421637123344,3082.4781017155096,14.138,12.643,8.044,7.152
0.2,299999133.2716144,0.3518228829,0.01109174815262401,3170.297366952724,13.561,12.095,7.755,6.868
0.2,299999133.2716144,0.4015950263,0.01548816618912481,3263.623111913169,12.953,11.514,7.422,6.537
0.2,299999133.2716144,0.4513671398,0.021978598727848252,3355.8303695328004,12.367,10.954,7.074,6.187
0.2,299999133.2716144,0.5011392832,0.03097419299216581,3471.362758876978,11.77,10.388,6.737,5.847
0.2,299999133.2716144,0.5509114265,0.04456562483975033,3609.1090121201505,11.141,9.775,6.385,5.494
0.2,299999133.2716144,0.5919353366,0.05714786366718669,3744.553155859532,10.664,9.298,6.163,5.275
0.2,299999133.2716144,0.6006835699,0.060673632958850525,3775.72190925416,10.553,9.189,6.107,5.221
0.2,299999133.2716144,0.6295910478,0.07481695005111545,3906.609483459363,10.147,8.792,5.918,5.043
0.2,299999133.2716144,0.6504557133,0.08669618757582165,4002.2111724970323,9.865,8.528,5.785,4.925
0.2,299999133.2716144,0.7002279162,0.12246161992650487,4247.173474714387,9.178,7.905,5.473,4.663
0.2,299999133.2716144,0.7310569882,0.1517050367459337,4440.174108068949,8.695,7.494,5.292,4.536
0.2,299999133.2716144,0.75,0.17258378919902034,4566.673896495316,8.394,7.249,5.189,4.477
0.2,299999133.2716144,0.8000000119,0.2306747188720069,4765.407017251339,7.845,6.792,4.93,4.289
0.2,299999133.2716144,0.8500000238,0.3047894989627983,4970.499105762351,7.343,6.374,4.687,4.111
0.2,299999133.2716144,0.8999999762,0.39627803425543945,5167.732202999587,6.897,5.999,4.46,3.94
0.2,299999133.2716144,0.9500000477,0.5105049999754063,5354.266700982399,6.497,5.659,4.243,3.771
0.2,299999133.2716144,1.0,0.6576578373554205,5534.775374571609,6.112,5.333,4.027,3.597
0.2,299999133.2716144,1.0499999523,0.8336811846196344,5705.582638711286,5.761,5.037,3.828,3.435
0.2,299999133.2716144,1.05072999,0.835603018231248,5708.210761718673,5.756,5.033,3.825,3.432
0.2,299999133.2716144,1.1000000238,1.0471285480508996,5864.081532764765,5.435,4.761,3.635,3.274
0.2,299999133.2716144,1.1862288713,1.53108746168203,6117.866558211328,4.91,4.317,3.315,3.001
0.2,299999133.2716144,1.1917939186,1.5595525028269537,6129.146470875522,4.886,4.296,3.299,2.987
0.2,299999133.2716144,1.2000000477,1.6032453906900415,6146.105347195242,4.851,4.266,3.277,2.968
0.2,299999133.2716144,1.2049849033,1.651961798229015,6167.36994454326,4.81,4.232,3.252,2.947
0.2,299999133.2716144,1.2083392143,1.6826740610704674,6181.58720057992,4.783,4.209,3.236,2.933
0.2,299999133.2716144,1.2370200157,1.8793168168032686,6261.81164615689,4.631,4.082,3.144,2.855
0.2,299999133.2716144,1.25,1.9769696401118606,6296.511487016263,4.565,4.026,3.104,2.821
0.2,299999133.2716144,1.2999999523,2.3933157564053875,6431.3182363545175,4.309,3.81,2.945,2.683
0.2,299999133.2716144,1.3500000238,2.864177969906581,6562.9636672922,4.07,3.606,2.795,2.553
0.2,299999133.2716144,1.3999999762,3.404081897010009,6695.76187175689,3.845,3.413,2.653,2.43
0.2,299999133.2716144,1.4500000477,4.008667176273028,6831.247179792927,3.632,3.23,2.522,2.318
0.2,299999133.2716144,1.5,4.677351412871983,6979.109301999337,3.426,3.055,2.402,2.217
0.2,299999133.2716144,1.5199680328,4.977370849789359,7046.930689671467,3.345,2.986,2.359,2.182
0.2,299999133.2716144,1.5499999523,5.445026528424211,7146.608638768426,3.225,2.885,2.294,2.129
0.2,299999133.2716144,1.6000000238,6.295061828571976,7331.620890272116,3.031,2.724,2.199,2.055
0.2,299999133.2716144,1.6499999762,7.227698036021702,7524.887301735844,2.847,2.571,2.112,1.989
0.2,299999133.2716144,1.6749999523,7.744617978025188,7620.790100254122,2.759,2.497,2.071,1.958
0.2,299999133.2716144,1.7000000477,8.260379495771788,7716.138244793735,2.672,2.425,2.03,1.927
0.2,299999133.2716144,1.7250001431,8.81048873008014,7809.082302030021,2.589,2.356,1.991,1.896
0.2,299999133.2716144,1.75,9.397233105646377,7897.688493998856,2.508,2.289,1.952,1.865
0.2,299999133.2716144,1.7750000954,10.0,7985.461129030739,2.429,2.223,1.914,1.834
0.2,299999133.2716144,1.7948869467,10.495424286523221,8053.784411990669,2.368,2.173,1.883,1.809
0.2,299999133.2716144,1.7999999523,10.616955571987248,8070.491789118655,2.352,2.16,1.875,1.802
0.2,299999133.2716144,1.8250000477,11.297959146727976,8152.6725622403965,2.277,2.098,1.837,1.77
0.2,299999133.2716144,1.8499999046,11.967405313072437,8231.898369213966,2.205,2.038,1.799,1.738
0.2,299999133.2716144,1.875,12.705741052085418,8309.98041044432,2.133,1.979,1.761,1.706
0.2,299999133.2716144,1.9000000954,13.458603540559483,8386.871712481641,2.065,1.922,1.724,1.674
0.2,299999133.2716144,1.9249999523,14.25607593602188,8462.525688072697,1.997,1.866,1.687,1.641
0.2,299999133.2716144,1.9484374523,15.031419660900225,8531.001140175895,1.935,1.814,1.652,1.61
0.2,299999133.2716144,1.9554353952,15.275660582380723,8550.667128846831,1.918,1.799,1.642,1.601
0.2,299999133.2716144,1.9953123331,16.672472125510627,8665.627169767144,1.818,1.715,1.583,1.548
0.2,299999133.2716144,2.0421872139,18.492686189780777,8794.274148836826,1.706,1.619,1.514,1.486
0.2,299999133.2716144,2.0890622139,20.417379446695296,8918.6680515947,1.598,1.526,1.445,1.423
0.2,299999133.2716144,2.1359374523,22.59435770220978,9042.739083117836,1.495,1.437,1.376,1.36
0.2,299999133.2716144,2.1828124523,24.888573182823905,9160.09546844429,1.396,1.35,1.308,1.297
0.2,299999133.2716144,2.2296872139,27.41574171927882,9274.702759188689,1.3,1.265,1.24,1.233
0.2,299999133.2716144,2.2765622139,30.13006024186122,9386.420366721355,1.206,1.181,1.172,1.17
0.2,299999133.2716144,2.3249447346,33.18944575526103,9499.483658763465,1.113,1.098,1.104,1.105
0.2,299999133.2716144,2.3703122139,36.30780547701014,9602.846792093816,1.027,1.021,1.039,1.044
0.2,299999133.2716144,2.3955659866,38.194427084004666,9658.284631620612,0.98,0.979,1.003,1.01
0.2,299999133.2716144,2.4792625904,44.87453899331321,9833.316096867436,0.826,0.838,0.882,0.894
0.2,299999133.2716144,2.5546097755,51.88000389289612,9977.000638225536,0.688,0.71,0.769,0.786
0.2,299999133.2716144,2.5578119755,52.11947111050805,9983.894887023273,0.682,0.705,0.764,0.781
0.2,299999133.2716144,2.5696706772,53.33348954876211,10004.606230728414,0.66,0.684,0.745,0.763
0.2,299999133.2716144,2.6344122887,60.39486293763797,10106.48184082794,0.54,0.571,0.642,0.663
0.2,299999133.2716144,2.6934876442,67.60829753919819,10190.605747492522,0.43,0.466,0.545,0.568
0.2,299999133.2716144,2.7453117371,74.47319739059893,10254.15788355233,0.331,0.373,0.457,0.482
0.2,299999133.2716144,2.7998132706,82.60379495771788,10308.607400626268,0.227,0.272,0.361,0.388
0.2,299999133.2716144,2.8633713722,93.11078754678306,10344.273627156734,0.101,0.148,0.24,0.268
0.2,299999133.2716144,2.9210278988,103.9920165829059,10353.805444147549,-0.018,0.031,0.124,0.152
0.2,299999133.2716144,2.9328114986,106.41430182243164,10351.42166679343,-0.043,0.007,0.099,0.128
0.2,299999133.2716144,2.9630544186,112.71974561755106,10349.038438261165,-0.106,-0.056,0.037,0.065
0.2,299999133.2716144,3.0120515823,123.59474334445108,10318.106352675928,-0.213,-0.162,-0.072,-0.045
0.2,299999133.2716144,3.0606937408,135.51894123510365,10249.436756498659,-0.327,-0.277,-0.193,-0.167
0.2,299999133.2716144,3.1083900928,148.59356422870076,10153.131241457606,-0.443,-0.395,-0.32,-0.297
0.2,299999133.2716144,3.1203117371,152.05475297324955,10125.115825636547,-0.472,-0.425,-0.353,-0.33
0.2,299999133.2716144,3.1619467735,164.43717232149325,10002.302850208242,-0.579,-0.535,-0.474,-0.455
0.2,299999133.2716144,3.1960856915,175.3880501841762,9853.715068586182,-0.673,-0.635,-0.588,-0.573
0.2,299999133.2716144,3.2271337509,185.7804455091699,9700.631337839572,-0.761,-0.729,-0.698,-0.688
0.2,299999133.2716144,3.2564909458,196.33602768360475,9536.741259755849,-0.846,-0.821,-0.808,-0.804
0.2,299999133.2716144,3.2816829681,206.53801558105292,9369.145856727315,-0.923,-0.907,-0.913,-0.914
0.2,299999133.2716144,3.3064389229,217.7709772353159,9217.220986588749,-1.001,-0.994,-1.019,-1.026
0.2,299999133.2716144,3.3078117371,218.77616239495518,9210.85615448421,-1.005,-0.999,-1.025,-1.032
0.2,299999133.2716144,3.3233077526,227.50974307720716,9151.662592812754,-1.056,-1.053,-1.087,-1.096
0.2,299999133.2716144,3.3324592113,238.2319469358689,9276.838584306737,-1.092,-1.079,-1.097,-1.102
0.2,299999133.2716144,3.338521719,248.88573182823905,9458.015033710133,-1.118,-1.093,-1.089,-1.087
0.2,299999133.2716144,3.3409149647,259.4179362118815,9682.778562612497,-1.13,-1.093,-1.064,-1.054
0.2,299999133.2716144,3.3421001434,269.1534803926917,9894.640051300763,-1.139,-1.092,-1.041,-1.024
0.2,299999133.2716144,3.3427786827,279.8981319634363,10111.137119549077,-1.148,-1.092,-1.021,-0.998
0.2,299999133.2716144,3.3432269096,293.0893245250321,10332.371194936297,-1.16,-1.096,-1.006,-0.977
0.2,299999133.2716144,3.3435096741,306.90219883911584,10539.014450691606,-1.175,-1.105,-0.998,-0.963
0.2,299999133.2716144,3.3437287807,316.22776601683796,10695.473105661613,-1.182,-1.107,-0.989,-0.95
0.2,299999133.2716144,3.3438138962,303.3891184194272,10602.297833345994,-1.152,-1.08,-0.968,-0.932
0.2,299999133.2716144,3.3439054489,285.75905433749466,10430.376855048382,-1.117,-1.05,-0.952,-0.921
0.2,299999133.2716144,3.3439924717,272.89777828080406,10204.69431942199,-1.103,-1.044,-0.964,-0.939
0.2,299999133.2716144,3.344101429,267.91683248190316,9933.44748170826,-1.127,-1.079,-1.024,-1.006
0.2,299999133.2716144,3.3442237377,272.27013080779125,9671.637266500187,-1.186,-1.149,-1.121,-1.111
0.2,299999133.2716144,3.3443639278,279.8981319634363,9416.727433955184,-1.252,-1.228,-1.228,-1.228
0.2,299999133.2716144,3.3445179462,285.75905433749466,9166.425224195593,-1.306,-1.297,-1.329,-1.337
0.2,299999133.2716144,3.3446829319,289.0679882365475,8920.721887252694,-1.344,-1.353,-1.419,-1.437
0.2,299999133.2716144,3.3448562622,290.4022654464451,8681.604556119946,-1.366,-1.395,-1.5,-1.529
0.2,299999133.2716144,3.345035553,290.4022654464451,8448.89669484521,-1.371,-1.425,-1.575,-1.616
0.2,299999133.2716144,3.3452181816,289.0679882365475,8222.426499470712,-1.361,-1.444,-1.645,-1.7
0.2,299999133.2716144,3.3454005718,287.0780582024692,8000.184448550986,-1.34,-1.453,-1.709,-1.78
0.2,299999133.2716144,3.3455808163,283.7919028441555,7783.94932626726,-1.307,-1.453,-1.771,-1.858
0.2,299999133.2716144,3.3457567692,279.8981319634363,7573.558772744387,-1.256,-1.446,-1.83,-1.935
0.2,299999133.2716144,3.3459262848,276.0577856220345,7368.854816494472,-1.196,-1.431,-1.885,-2.01
0.2,299999133.2716144,3.3460893631,271.01916318908417,7169.683755804202,-1.131,-1.41,-1.936,-2.083
0.2,299999133.2716144,3.3462440968,266.0725059798809,6974.289968817341,-1.06,-1.384,-1.983,-2.153
0.2,299999133.2716144,3.346391201,261.21613543992055,6785.783509504071,-0.985,-1.353,-2.027,-2.222
0.2,299999133.2716144,3.3465301991,255.2701302661247,6602.372147378005,-0.902,-1.317,-2.067,-2.288
0.2,299999133.2716144,3.3466618061,249.45947269429536,6425.397500373017,-0.812,-1.278,-2.106,-2.353
0.2,299999133.2716144,3.3467860222,243.78108183687525,6253.166606822608,-0.712,-1.235,-2.142,-2.418
0.2,299999133.2716144,3.346903801,237.6840286624876,6092.562597496563,-0.61,-1.188,-2.173,-2.479
0.2,299999133.2716144,3.3470151424,231.73946499684797,5942.921586155727,-0.506,-1.137,-2.198,-2.533
0.2,299999133.2716144,3.347121954,225.42392121524304,5810.319310119074,-0.405,-1.083,-2.215,-2.577
0.2,299999133.2716144,3.3472297192,218.27299118430014,5688.529308438413,-0.304,-1.024,-2.223,-2.612
0.2,299999133.2716144,3.3473439217,210.86281499332887,5580.845504054144,-0.204,-0.96,-2.219,-2.634
0.2,299999133.2716144,3.3474769592,200.90928126087277,5473.939586745954,-0.092,-0.882,-2.204,-2.644
0.2,299999133.2716144,3.3476097584,190.98532585662386,5381.458555867279,0.018,-0.803,-2.178,-2.639
0.2,299999133.2716144,3.3477554321,179.88709151287873,5290.539972095819,0.143,-0.711,-2.141,-2.626
0.2,299999133.2716144,3.3479056358,168.65530253887405,5204.751511705225,0.27,-0.615,-2.098,-2.605
0.2,299999133.2716144,3.3480546474,159.220872705117,5128.613839913648,0.387,-0.526,-2.058,-2.585
0.2,299999133.2716144,3.3482224941,151.35612484362088,5046.612975635282,0.503,-0.441,-2.029,-2.578
0.2,299999133.2716144,3.3484227657,147.23125024327194,4953.361223155476,0.609,-0.371,-2.025,-2.602
0.2,299999133.2716144,3.3485000134,148.59356422870076,4919.262524341649,0.625,-0.368,-2.046,-2.634
0.2,299999133.2716144,3.3487308025,159.220872705117,4821.697939006178,0.64,-0.395,-2.149,-2.766
0.2,299999133.2716144,3.3488903046,172.18685749860077,4764.309868054156,0.614,-0.45,-2.251,-2.886
0.2,299999133.2716144,3.3490638733,187.49945080674192,4709.77326396953,0.578,-0.514,-2.361,-3.013
0.2,299999133.2716144,3.3492445946,204.17379446695296,4664.445252037798,0.539,-0.578,-2.465,-3.131
0.2,299999133.2716144,3.3495042324,225.94357702209783,4613.175745603796,0.488,-0.657,-2.59,-3.274
0.2,299999133.2716144,3.3497698307,247.74220576332863,4569.82953285961,0.441,-0.73,-2.703,-3.401
0.2,299999133.2716144,3.3499820232,266.0725059798809,4539.416166502032,0.405,-0.784,-2.787,-3.497
0.2,299999133.2716144,3.3501224518,278.61211686297696,4519.600000304826,0.381,-0.82,-2.843,-3.559
0.2,299999133.2716144,3.3502628803,291.7427014001166,4499.8703387215055,0.356,-0.856,-2.898,-3.621
0.2,299999133.2716144,3.3503139019,296.4831389524342,4493.657830540859,0.347,-0.869,-2.918,-3.643
0.2,299999133.2716144,3.3505692482,322.84941217126345,4459.642031793193,0.301,-0.937,-3.02,-3.757
0.2,299999133.2716144,3.3509266376,363.9150361272071,4414.687837052633,0.238,-1.034,-3.159,-3.909
0.2,299999133.2716144,3.3511819839,396.2780342554393,4383.2879341924645,0.19,-1.104,-3.258,-4.017
0.2,299999133.2716144,3.3514373302,431.519076827765,4354.116049150633,0.14,-1.176,-3.358,-4.126
0.2,299999133.2716144,3.3517436981,479.73344863668916,4318.172626237272,0.079,-1.263,-3.48,-4.258
0.2,299999133.2716144,3.351998806,523.6004365857501,4287.459197337663,0.026,-1.336,-3.582,-4.37
0.2,299999133.2716144,3.3522539139,574.1164622073275,4256.964220731747,-0.028,-1.41,-3.687,-4.485
0.2,299999133.2716144,3.3525090218,629.5061828571975,4225.713024244244,-0.082,-1.483,-3.793,-4.602
0.2,299999133.2716144,3.3527638912,690.239803840242,4193.72549666233,-0.138,-1.557,-3.901,-4.722
0.2,299999133.2716144,3.3529977798,751.6228940182053,4164.856093407415,-0.19,-1.625,-3.999,-4.831
0.2,299999133.2716144,3.3534827232,843.3347577642757,4125.7223711671995,-0.248,-1.705,-4.131,-4.98
0.2,299999133.2716144,3.354929924,774.4617978025184,4157.19120675218,-0.211,-1.65,-4.032,-4.866
0.2,299999133.2716144,3.3559570312,714.4963260755135,4186.971454370622,-0.165,-1.588,-3.938,-4.761
0.2,299999133.2716144,3.3568441868,657.6578373554206,4217.936138166562,-0.119,-1.525,-3.842,-4.654
0.2,299999133.2716144,3.3575665951,608.1350012787176,4246.19563946313,-0.075,-1.465,-3.751,-4.552
0.2,299999133.2716144,3.3582088947,562.341325190349,4274.644474923936,-0.032,-1.404,-3.661,-4.453
0.2,299999133.2716144,3.3588502407,518.8000389289609,4305.266104917106,0.014,-1.339,-3.567,-4.349
0.2,299999133.2716144,3.3594858646,477.5292736576907,4336.107094491863,0.059,-1.273,-3.471,-4.242
0.2,299999133.2716144,3.3601338863,438.5306977749856,4367.16901504156,0.105,-1.205,-3.372,-4.134
0.2,299999133.2716144,3.3608150482,401.79081084894,4399.466347160466,0.153,-1.134,-3.271,-4.023
0.2,299999133.2716144,3.3615469933,367.2823004980846,4434.04401633441,0.201,-1.061,-3.166,-3.909
0.2,299999133.2716144,3.3623526096,335.7376142429545,4468.89344919767,0.248,-0.987,-3.06,-3.792
0.2,299999133.2716144,3.3632705212,306.19634336906785,4505.053989279239,0.299,-0.913,-2.951,-3.671
0.2,299999133.2716144,3.3643498421,279.2543841237339,4542.552967388711,0.35,-0.84,-2.841,-3.548
0.2,299999133.2716144,3.3656737804,255.2701302661247,4581.418867145335,0.398,-0.768,-2.731,-3.426
0.2,299999133.2716144,3.3679168224,228.559880337543,4632.335436779563,0.455,-0.682,-2.598,-3.275
0.2,299999133.2716144,3.3707065582,209.89398836235245,4681.661397243642,0.492,-0.618,-2.49,-3.151
0.2,299999133.2716144,3.3766293526,194.08858775927774,4754.4468852521,0.498,-0.575,-2.385,-3.022
0.2,299999133.2716144,3.3800740242,190.54607179632464,4787.4031366341615,0.485,-0.573,-2.355,-2.981
0.2,299999133.2716144,3.4059100151,204.6444636724674,4785.198963583403,0.412,-0.65,-2.434,-3.061
0.2,299999133.2716144,3.44561553,230.14418174085088,4781.894606659083,0.292,-0.777,-2.565,-3.191
0.2,299999133.2716144,3.4853889942,258.82129151530904,4763.212971455834,0.188,-0.894,-2.697,-3.329
0.2,299999133.2716144,3.4897458553,261.8183008218986,4759.923796672499,0.179,-0.905,-2.711,-3.344
0.2,299999133.2716144,3.4953107834,266.0725059798809,4751.163763775616,0.171,-0.917,-2.731,-3.366
0.2,299999133.2716144,3.5014901161,270.3958364108843,4741.3279957862,0.163,-0.931,-2.752,-3.391
0.2,299999133.2716144,3.5290057659,293.0893245250321,4682.739513736003,0.14,-0.984,-2.856,-3.514
0.2,299999133.2716144,3.5378947258,314.77483141013175,4614.238090876438,0.14,-1.019,-2.953,-3.634
0.2,299999133.2716144,3.5407526493,341.1929116219285,4560.369159512959,0.118,-1.071,-3.054,-3.754
0.2,299999133.2716144,3.5418343544,368.1289736425313,4517.519126763041,0.091,-1.123,-3.148,-3.862
0.2,299999133.2716144,3.5422308445,399.02490236214203,4477.133041763624,0.057,-1.184,-3.245,-3.971
0.2,299999133.2716144,3.5424184799,436.5158322401661,4436.086439314323,0.016,-1.254,-3.353,-4.091
0.2,299999133.2716144,3.5424435139,446.683592150963,4426.90293835173,0.005,-1.271,-3.379,-4.12
0.2,299999133.2716144,3.5425205231,478.6300923226385,4398.453449216315,-0.029,-1.326,-3.46,-4.21
0.2,299999133.2716144,3.5426383018,514.0436515824259,4370.186790706132,-0.068,-1.383,-3.543,-4.3
0.2,299999133.2716144,3.5429415703,498.88448746001217,4383.2879341924645,-0.054,-1.361,-3.508,-4.262
0.2,299999133.2716144,3.5433180332,485.28850016212095,4394.404188918088,-0.039,-1.339,-3.477,-4.227
0.2,299999133.2716144,3.5445218086,494.3106869868354,4384.297339745673,-0.046,-1.352,-3.499,-4.252
0.2,299999133.2716144,3.5453469753,562.341325190349,4333.112852118383,-0.113,-1.453,-3.649,-4.418
0.2,299999133.2716144,3.5461826324,636.7955209079155,4284.498548137013,-0.179,-1.551,-3.795,-4.581
0.2,299999133.2716144,3.5469992161,709.5777679633887,4244.240644295681,-0.238,-1.634,-3.919,-4.719
0.2,299999133.2716144,3.5477712154,785.2356346100718,4206.297636505622,-0.295,-1.712,-4.037,-4.851
0.2,299999133.2716144,3.5484917164,868.960429286302,4168.693834703355,-0.35,-1.788,-4.156,-4.985
0.2,299999133.2716144,3.5491571426,961.6122783836648,4131.426206427586,-0.395,-1.855,-4.275,-5.12
0.2,299999133.2716144,3.5497648716,1064.1430182243164,4095.434646443952,-0.442,-1.922,-4.394,-5.255
0.2,299999133.2716144,3.5503110886,1174.897554939529,4058.8219466191827,-0.484,-1.985,-4.511,-5.388
0.2,299999133.2716144,3.5507996082,1297.1792709839558,4023.4628899023123,-0.523,-2.043,-4.627,-5.519
0.2,299999133.2716144,3.5512375832,1428.8939585111023,3988.4118690905275,-0.562,-2.101,-4.741,-5.649
0.2,299999133.2716144,3.5516331196,1573.9828644662198,3953.666200681279,-0.597,-2.151,-4.856,-5.779
0.2,299999133.2716144,3.5519924164,1733.8039977541375,3918.3208939411097,-0.629,-2.198,-4.969,-5.909
0.2,299999133.2716144,3.5523226261,1905.4607179632462,3884.1858339296286,-0.659,-2.243,-5.082,-6.037
0.2,299999133.2716144,3.5526256561,2098.9398836235246,3849.46167342452,-0.681,-2.277,-5.196,-6.166
0.2,299999133.2716144,3.5529043674,2306.747188720069,3815.047942794385,-0.701,-2.308,-5.309,-6.295
0.2,299999133.2716144,3.5531611443,2535.128630497907,3780.0713730181124,-0.711,-2.325,-5.423,-6.424
0.2,299999133.2716144,3.5533969402,2779.7132677592886,3744.553155859532,-0.716,-2.334,-5.536,-6.552
0.2,299999133.2716144,3.553614378,3047.8949896279833,3710.2228861746507,-0.717,-2.338,-5.648,-6.679
0.2,299999133.2716144,3.5538151264,3341.950400261143,3675.360977714797,-0.703,-2.32,-5.76,-6.806
0.2,299999133.2716144,3.5540013313,3655.9479161312506,3639.9884030888024,-0.687,-2.299,-5.871,-6.932
0.2,299999133.2716144,3.5541744232,3999.4474976109736,3604.956262788377,-0.653,-2.253,-5.981,-7.057
0.2,299999133.2716144,3.5543358326,4375.221051582521,3569.4392919884644,-0.611,-2.198,-6.091,-7.181
0.2,299999133.2716144,3.55448699,4775.2927365769065,3535.0861336199705,-0.556,-2.127,-6.2,-7.305
0.2,299999133.2716144,3.5546283722,5199.959965335162,3500.2575415843376,-0.483,-2.034,-6.307,-7.426
0.2,299999133.2716144,3.5547618866,5649.369748123023,3466.5702053333894,-0.409,-1.94,-6.412,-7.545
0.2,299999133.2716144,3.5548882484,6137.620051647939,3433.2070842609537,-0.313,-1.819,-6.516,-7.662
0.2,299999133.2716144,3.5550088882,6652.731562017413,3400.1650580407095,-0.214,-1.695,-6.618,-7.778
0.2,299999133.2716144,3.5551245213,7194.489780036998,3368.2165076063116,-0.099,-1.553,-6.718,-7.891
0.2,299999133.2716144,3.5552361012,7780.365510398041,3335.7999666204814,0.034,-1.392,-6.817,-8.004
0.2,299999133.2716144,3.5553429127,8394.599865193974,3305.217168699801,0.173,-1.221,-6.912,-8.112
0.2,299999133.2716144,3.5554563999,9099.132726322518,3271.1465401826636,0.353,-0.988,-7.012,-8.229
0.2,299999133.2716144,3.5555856228,9862.79485631211,3236.6817570165304,0.544,-0.74,-7.114,-8.347
0.2,299999133.2716144,3.555752039,10280.162981264724,3217.3625326955976,0.64,-0.62,-7.167,-8.409
0.2,299999133.2716144,3.5558097363,10046.157902783947,3227.750819048055,0.59,-0.683,-7.137,-8.374
0.2,299999133.2716144,3.5558366776,9660.508789898131,3243.3961734934933,0.509,-0.785,-7.09,-8.32
0.2,299999133.2716144,3.5558521748,9375.620069258803,3255.3673247163633,0.442,-0.872,-7.052,-8.276
0.2,299999133.2716144,3.5558698177,9268.298233793494,3261.3694594087888,0.412,-0.911,-7.036,-8.258
0.2,299999133.2716144,3.5558798313,9289.663867799363,3260.6185877894,0.413,-0.91,-7.04,-8.261
0.2,299999133.2716144,3.5558931828,9397.233105646375,3257.616829660631,0.427,-0.891,-7.053,-8.276
0.2,299999133.2716144,3.5559167862,8892.011178579482,3281.708485445259,0.294,-1.064,-6.984,-8.196
0.2,299999133.2716144,3.5559637547,9862.79485631211,3235.936569296281,0.545,-0.739,-7.114,-8.347
0.2,299999133.2716144,3.5560114384,11271.974561755094,3176.8740706497692,0.858,-0.35,-7.284,-8.546
0.2,299999133.2716144,3.5560231209,11748.975549395303,3159.3664356825157,0.949,-0.239,-7.334,-8.603
0.2,299999133.2716144,3.5560250282,11803.206356517298,3157.1847762703,0.96,-0.227,-7.341,-8.612
0.2,299999133.2716144,3.5560290813,12331.048332289096,3078.2224412226315,1.395,0.237,-7.415,-8.725
0.2,299999133.2716144,3.5560295582,14157.93779957081,2967.563358073529,1.702,0.424,-7.602,-8.961
0.2,299999133.2716144,3.5560295582,14723.125024327193,2951.8888459446066,1.724,0.427,-7.648,-9.015
0.2,299999133.2716144,3.5560302734,11967.405313072442,3039.484968770113,1.576,0.383,-7.393,-8.722
0.2,299999133.2716144,3.5560314655,8550.667128846831,3185.664236573113,1.016,-0.182,-6.976,-8.234
0.2,299999133.2716144,3.5560333729,8933.054837332953,3165.920463432239,1.124,-0.047,-7.032,-8.3
0.2,299999133.2716144,3.5560359955,10115.794542598982,3110.283668685142,1.368,0.226,-7.187,-8.482
0.2,299999133.2716144,3.5560395718,11324.003632355578,3060.5536720536616,1.528,0.361,-7.328,-8.646
0.2,299999133.2716144,3.5560441017,12217.99660164871,3026.913428101305,1.61,0.403,-7.422,-8.757
0.2,299999133.2716144,3.5560493469,12764.388088113436,3007.460970731941,1.648,0.419,-7.475,-8.817
0.2,299999133.2716144,3.5560560226,13061.708881318404,2996.4014599344437,1.669,0.427,-7.505,-8.852
0.2,299999133.2716144,3.556063652,13335.21432163324,2986.75775503349,1.687,0.434,-7.529,-8.881
0.2,299999133.2716144,3.556063652,19588.44673505989,2828.1341110474723,1.858,0.458,-7.995,-9.41
0.2,299999133.2716144,3.5560641289,15922.0872705117,2912.0578615296977,1.773,0.437,-7.745,-9.129
0.2,299999133.2716144,3.5560648441,12941.958414499863,2998.4720157970514,1.669,0.43,-7.493,-8.839
0.2,299999133.2716144,3.5560662746,9246.98173938223,3144.126420258796,1.232,0.074,-7.076,-8.354
0.2,299999133.2716144,3.5560684204,9638.290236239705,3125.35964361334,1.312,0.164,-7.129,-8.416
0.2,299999133.2716144,3.5560712814,10889.300933334333,3072.557365267445,1.508,0.357,-7.28,-8.592
0.2,299999133.2716144,3.5560753345,12133.888504649762,3025.519803872306,1.621,0.413,-7.415,-8.75
0.2,299999133.2716144,3.5560801029,13061.708881318404,2995.711592427998,1.674,0.431,-7.503,-8.851
0.2,299999133.2716144,3.5560860634,13551.89412351035,2979.8884028194198,1.699,0.437,-7.549,-8.903
0.2,299999133.2716144,3.5560932159,13803.842646028837,2972.3503619120297,1.709,0.438,-7.571,-8.929
0.2,299999133.2716144,3.556101799,13963.683610559363,2967.563358073529,1.715,0.438,-7.586,-8.946
0.2,299999133.2716144,3.556101799,20558.905959841406,2809.3121663317743,1.873,0.466,-8.052,-9.473
0.2,299999133.2716144,3.5561022758,16710.90614310707,2892.6773831200917,1.791,0.434,-7.803,-9.195
0.2,299999133.2716144,3.5561032295,13583.134465871542,2979.2023371471673,1.7,0.437,-7.552,-8.907
0.2,299999133.2716144,3.55610466,9682.778562612497,3124.640085806112,1.314,0.165,-7.135,-8.422
0.2,299999133.2716144,3.5561070442,10092.528860766834,3107.420310388586,1.391,0.25,-7.186,-8.483
0.2,299999133.2716144,3.5561103821,11376.27285823431,3055.6246157876885,1.546,0.374,-7.333,-8.654
0.2,299999133.2716144,3.5561146736,12647.363474711523,3010.925432053001,1.645,0.419,-7.465,-8.806
0.2,299999133.2716144,3.5561201572,13551.89412351035,2983.321101768171,1.688,0.429,-7.549,-8.902
0.2,299999133.2716144,3.556126833,14028.13704561959,2970.297844017863,1.704,0.429,-7.59,-8.948
0.2,299999133.2716144,3.5561347008,14223.287871228184,2966.1970592694383,1.707,0.426,-7.606,-8.967
0.2,299999133.2716144,3.5561442375,14321.878992735425,2964.8313895243423,1.704,0.422,-7.615,-8.976
0.2,299999133.2716144,3.5561442375,21086.281499332887,2806.079687295453,1.86,0.451,-8.082,-9.505
0.2,299999133.2716144,3.5561447144,17179.083871575895,2889.348981559081,1.781,0.418,-7.834,-9.228
0.2,299999133.2716144,3.5561459064,13963.683610559363,2975.7743773728107,1.69,0.421,-7.584,-8.94
0.2,299999133.2716144,3.5561475754,9954.054173515275,3121.763510848167,1.311,0.162,-7.166,-8.455
0.2,299999133.2716144,3.556150198,10375.284158180126,3103.844819159537,1.39,0.249,-7.218,-8.516
0.2,299999133.2716144,3.5561540127,11694.9939101987,3052.1087222420074,1.542,0.363,-7.364,-8.686
0.2,299999133.2716144,3.5561590195,13001.695780332899,3007.460970731941,1.64,0.408,-7.495,-8.838
0.2,299999133.2716144,3.5561652184,13899.526312133527,2979.2023371471673,1.684,0.417,-7.578,-8.933
0.2,299999133.2716144,3.5561728477,14354.89433353656,2965.514145782622,1.701,0.419,-7.618,-8.979
0.2,299999133.2716144,3.5561819077,14554.59080581967,2960.738151747431,1.707,0.418,-7.634,-8.998
0.2,299999133.2716144,3.5561926365,14655.478409559128,2958.6936525140045,1.707,0.416,-7.643,-9.007
0.2,299999133.2716144,3.5561926365,21627.1852372702,2798.3369045620198,1.855,0.445,-8.112,-9.537
0.2,299999133.2716144,3.5561933517,17619.76046411631,2882.0399726720025,1.785,0.413,-7.865,-9.262
0.2,299999133.2716144,3.5561943054,14321.878992735425,2968.246743463243,1.695,0.415,-7.615,-8.975
0.2,299999133.2716144,3.5561964512,10232.929922807536,3115.300895973758,1.332,0.184,-7.197,-8.49
0.2,299999133.2716144,3.5561993122,10665.961212302567,3097.419299216581,1.414,0.274,-7.249,-8.55
0.2,299999133.2716144,3.5562036037,11994.993031493781,3045.7903053734226,1.553,0.364,-7.395,-8.72
0.2,299999133.2716144,3.5562090874,13304.5441797809,3000.5440024430936,1.647,0.405,-7.524,-8.87
0.2,299999133.2716144,3.5562160015,14223.287871228184,2972.3503619120297,1.689,0.413,-7.606,-8.964
0.2,299999133.2716144,3.5562243462,14689.262776438662,2958.6936525140045,1.707,0.415,-7.645,-9.009
0.2,299999133.2716144,3.5562345982,14893.610777109154,2953.928642960281,1.713,0.415,-7.661,-9.027
0.2,299999133.2716144,3.5562465191,14996.84835502374,2951.8888459446066,1.715,0.414,-7.669,-9.036
0.2,299999133.2716144,3.5562465191,22130.947096056363,2789.9729974082666,1.856,0.445,-8.139,-9.567
0.2,299999133.2716144,3.5562472343,18030.1774085957,2873.4258866748714,1.795,0.417,-7.893,-9.293
0.2,299999133.2716144,3.5562484264,14689.262776438662,2960.0564950758185,1.704,0.413,-7.644,-9.008
0.2,299999133.2716144,3.5562505722,10471.285480508985,3108.1359027394765,1.361,0.215,-7.227,-8.523
0.2,299999133.2716144,3.5562539101,10914.40336448757,3089.5839476098754,1.444,0.306,-7.278,-8.583
0.2,299999133.2716144,3.55625844,12274.392311584084,3038.0855564655426,1.568,0.37,-7.423,-8.752
0.2,299999133.2716144,3.5562644005,13614.44682465951,2993.642942739855,1.656,0.405,-7.551,-8.899
0.2,299999133.2716144,3.5562720299,14521.11617587742,2965.514145782622,1.697,0.411,-7.631,-8.992
0.2,299999133.2716144,3.5562813282,14996.84835502374,2952.5686217289685,1.715,0.413,-7.669,-9.036
0.2,299999133.2716144,3.5562925339,15170.503674593368,2947.134795608739,1.719,0.412,-7.684,-9.054
0.2,299999133.2716144,3.5563056469,15275.660582380731,2945.7779023394583,1.72,0.411,-7.691,-9.062
0.2,299999133.2716144,3.5563056469,22594.35770220978,2782.274657675122,1.859,0.446,-8.164,-9.594
0.2,299999133.2716144,3.5563063622,18407.720014689545,2865.4972763642395,1.801,0.417,-7.919,-9.322
0.2,299999133.2716144,3.5563077927,15031.419660900208,2951.8888459446066,1.714,0.412,-7.671,-9.039
0.2,299999133.2716144,3.5563101768,10715.193052376071,3100.9873885323427,1.391,0.248,-7.254,-8.553
0.2,299999133.2716144,3.5563137531,11168.632477805611,3082.4781017155096,1.46,0.313,-7.305,-8.613
0.2,299999133.2716144,3.5563187599,12531.411749414156,3030.4002977883647,1.587,0.379,-7.449,-8.782
0.2,299999133.2716144,3.5563251972,13867.558288718896,2985.3826189179604,1.669,0.408,-7.575,-8.927
0.2,299999133.2716144,3.5563335419,14791.083881682072,2957.331437419893,1.711,0.415,-7.654,-9.019
0.2,299999133.2716144,3.5563435555,15275.660582380731,2943.0659896990132,1.729,0.417,-7.691,-9.062
0.2,299999133.2716144,3.5563557148,15452.54439538414,2937.6496519615307,1.736,0.418,-7.706,-9.079
0.2,299999133.2716144,3.5563700199,15523.870099580816,2934.945222269793,1.739,0.419,-7.713,-9.088
0.2,299999133.2716144,3.5563702583,22961.486481123608,2770.1290391637326,1.877,0.464,-8.187,-9.622
0.2,299999133.2716144,3.5563707352,18793.168168032684,2853.6453620049656,1.822,0.432,-7.943,-9.35
0.2,299999133.2716144,3.5563721657,15310.874616820287,2940.356573672507,1.735,0.421,-7.697,-9.069
0.2,299999133.2716144,3.5563747883,10939.563662720931,3089.5839476098754,1.449,0.31,-7.279,-8.584
0.2,299999133.2716144,3.5563783646,11376.27285823431,3071.142726067833,1.495,0.335,-7.33,-8.644
0.2,299999133.2716144,3.5563836098,12764.388088113436,3019.256430871959,1.624,0.401,-7.474,-8.812
0.2,299999133.2716144,3.5563905239,14125.375446227554,2974.404298125139,1.695,0.42,-7.597,-8.954
0.2,299999133.2716144,3.556399107,15031.419660900208,2946.4562708650446,1.735,0.426,-7.674,-9.044
0.2,299999133.2716144,3.5564095974,15488.166189124828,2932.9185340084423,1.75,0.428,-7.71,-9.086
0.2,299999133.2716144,3.5564222336,15667.5107010815,2926.846862378789,1.757,0.429,-7.724,-9.102
0.2,299999133.2716144,3.556437254,15739.828644662197,2924.1523778433366,1.762,0.431,-7.73,-9.109
0.2,299999133.2716144,3.5564374924,23280.91257665008,2758.0364405972355,1.902,0.488,-8.206,-9.644
0.2,299999133.2716144,3.5564379692,19054.607179632483,2841.1881849832444,1.85,0.453,-7.963,-9.374
0.2,299999133.2716144,3.5564396381,15559.65631605075,2928.195035574271,1.759,0.433,-7.717,-9.095
0.2,299999133.2716144,3.5564420223,11117.317272815919,3078.2224412226315,1.489,0.336,-7.301,-8.611
0.2,299999133.2716144,3.5564460754,11561.122421920982,3059.1445594864085,1.536,0.362,-7.351,-8.67
0.2,299999133.2716144,3.5564515591,12971.792709839572,3007.460970731941,1.657,0.421,-7.494,-8.836
0.2,299999133.2716144,3.5564584732,14321.878992735425,2962.7840637587915,1.727,0.437,-7.616,-8.978
0.2,299999133.2716144,3.5564675331,15205.47529732497,2934.269503955967,1.762,0.441,-7.691,-9.066
0.2,299999133.2716144,3.5564787388,15667.5107010815,2920.787760207149,1.777,0.443,-7.726,-9.107
0.2,299999133.2716144,3.5564918518,15812.480392703827,2914.741201472475,1.786,0.446,-7.739,-9.122
0.2,299999133.2716144,3.5565075874,15885.467485977775,2911.3874126187557,1.793,0.45,-7.745,-9.129
0.2,299999133.2716144,3.5565078259,23550.49283896009,2744.732343478535,1.929,0.52,-8.223,-9.664
0.2,299999133.2716144,3.5565083027,19319.68317016922,2827.4829840696057,1.888,0.482,-7.981,-9.397
0.2,299999133.2716144,3.5565099716,15776.112696993501,2914.070134770806,1.792,0.451,-7.736,-9.12
0.2,299999133.2716144,3.5565125942,11246.049739669268,3064.7849053700324,1.538,0.37,-7.32,-8.636
0.2,299999133.2716144,3.5565166473,11721.953655481304,3045.7903053734226,1.586,0.396,-7.371,-8.696
0.2,299999133.2716144,3.556522131,13121.998990192042,2993.642942739855,1.697,0.445,-7.512,-8.861
0.2,299999133.2716144,3.5565295219,14487.718535447602,2949.171307508275,1.764,0.459,-7.633,-9.001
0.2,299999133.2716144,3.5565385818,15381.546403030357,2921.4603738773317,1.794,0.461,-7.707,-9.087
0.2,299999133.2716144,3.5565500259,15812.480392703827,2907.3679594442274,1.811,0.464,-7.741,-9.128
0.2,299999133.2716144,3.5565636158,15995.580286146678,2901.3491821234015,1.822,0.469,-7.754,-9.143
0.2,299999133.2716144,3.5565795898,16069.412530128788,2897.3435877013244,1.831,0.473,-7.76,-9.151
0.2,299999133.2716144,3.5565798283,23823.19469358689,2729.606225513586,1.958,0.557,-8.239,-9.684
0.2,299999133.2716144,3.5565803051,19543.394557753963,2811.9008303989394,1.926,0.516,-7.999,-9.42
0.2,299999133.2716144,3.556581974,15995.580286146678,2898.6781710077653,1.83,0.474,-7.755,-9.145
0.2,299999133.2716144,3.5565845966,11402.497875611696,3050.001128249183,1.594,0.408,-7.34,-8.663
0.2,299999133.2716144,3.5565886497,11885.022274370189,3030.4002977883647,1.644,0.436,-7.391,-8.724
0.2,299999133.2716144,3.5565943718,13304.5441797809,2978.5164294291912,1.741,0.472,-7.531,-8.886
0.2,299999133.2716144,3.5566017628,14655.478409559128,2933.593941214125,1.803,0.483,-7.65,-9.025
0.2,299999133.2716144,3.5566110611,15559.65631605075,2905.3603143031482,1.834,0.486,-7.724,-9.111
0.2,299999133.2716144,3.5566227436,16032.453906900417,2891.3455626423843,1.855,0.492,-7.759,-9.152
0.2,299999133.2716144,3.5566365719,16180.800376430645,2884.031503126606,1.869,0.498,-7.772,-9.169
0.2,299999133.2716144,3.5566527843,16255.48755750485,2879.3867378079763,1.881,0.507,-7.779,-9.177
0.2,299999133.2716144,3.5566530228,24154.608344449403,2710.815748427232,1.999,0.606,-8.259,-9.71
0.2,299999133.2716144,3.5566534996,19860.949173573717,2793.1869222539713,1.961,0.553,-8.02,-9.446
0.2,299999133.2716144,3.5566551685,16255.48755750485,2879.3867378079763,1.882,0.509,-7.777,-9.175
0.2,299999133.2716144,3.5566577911,11587.773561551261,3031.796170085468,1.666,0.459,-7.363,-8.695
0.2,299999133.2716144,3.5566620827,12078.138351067797,3011.6188030788244,1.712,0.482,-7.414,-8.755
0.2,299999133.2716144,3.5566675663,13489.628825916532,2959.3749953433894,1.799,0.507,-7.552,-8.916
0.2,299999133.2716144,3.5566751957,14859.35642287006,2914.741201472475,1.851,0.513,-7.67,-9.053
0.2,299999133.2716144,3.556684494,15739.828644662197,2886.0244097569725,1.889,0.521,-7.742,-9.138
0.2,299999133.2716144,3.5566961765,16180.800376430645,2871.441679790805,1.914,0.537,-7.776,-9.176
0.2,299999133.2716144,3.5567100048,16368.165214278102,2864.1779699065796,1.93,0.549,-7.789,-9.192
0.2,299999133.2716144,3.5567264557,16405.89773199539,2858.9068155119553,1.944,0.56,-7.794,-9.199
0.2,299999133.2716144,3.5567266941,24434.305526939712,2688.4378430645747,2.056,0.672,-8.277,-9.734
0.2,299999133.2716144,3.5567271709,20090.928126087278,2770.7669583872052,2.013,0.605,-8.039,-9.472
0.2,299999133.2716144,3.5567288399,16443.717232149324,2857.5905433749467,1.947,0.562,-7.797,-9.202
0.2,299999133.2716144,3.5567314625,11721.953655481304,3009.539168873201,1.749,0.518,-7.383,-8.725
0.2,299999133.2716144,3.556735754,12217.99660164871,2989.5099278145867,1.786,0.531,-7.434,-8.784
0.2,299999133.2716144,3.5567414761,13645.831365889238,2936.9733110014463,1.865,0.55,-7.571,-8.945
0.2,299999133.2716144,3.556748867,14996.84835502374,2892.0113962154874,1.918,0.558,-7.687,-9.08
0.2,299999133.2716144,3.5567584038,15885.467485977775,2862.859270872121,1.962,0.582,-7.759,-9.162
0.2,299999133.2716144,3.5567700863,16330.519478943346,2847.7378001737457,1.987,0.598,-7.792,-9.2
0.2,299999133.2716144,3.5567839146,16481.62391525507,2839.226239424908,2.006,0.612,-7.805,-9.216
0.2,299999133.2716144,3.5568003654,16557.699634695295,2832.696200280899,2.025,0.628,-7.81,-9.224
0.2,299999133.2716144,3.5568006039,24603.676041476272,2661.950651151836,2.11,0.765,-8.292,-9.753
0.2,299999133.2716144,3.5568010807,20276.827195212838,2743.468638524017,2.086,0.682,-8.058,-9.499
0.2,299999133.2716144,3.5568027496,16634.126503701696,2829.43681487211,2.032,0.633,-7.816,-9.231
0.2,299999133.2716144,3.5568056107,11857.687481671597,2981.947547925597,1.845,0.582,-7.404,-8.757
0.2,299999133.2716144,3.5568096638,12331.048332289096,2961.419965394361,1.882,0.594,-7.455,-8.818
0.2,299999133.2716144,3.5568153858,13772.094688939473,2908.037482735315,1.949,0.607,-7.59,-8.976
0.2,299999133.2716144,3.5568227768,15135.612484362071,2862.2001490511943,2.016,0.636,-7.705,-9.109
0.2,299999133.2716144,3.5568323135,16032.453906900417,2832.044022964096,2.06,0.663,-7.777,-9.19
0.2,299999133.2716144,3.556843996,16443.717232149324,2815.1400151333,2.092,0.688,-7.81,-9.229
0.2,299999133.2716144,3.5568580627,16595.869074375598,2804.141985453693,2.112,0.709,-7.823,-9.245
0.2,299999133.2716144,3.5568745136,16672.472125510645,2795.1170539918453,2.135,0.733,-7.829,-9.253
0.2,299999133.2716144,3.556874752,24831.331052955677,2623.6143642959228,2.216,0.917,-8.311,-9.781
0.2,299999133.2716144,3.5568752289,20464.44636724674,2705.203869719351,2.184,0.801,-8.08,-9.53
0.2,299999133.2716144,3.5568768978,16788.040181225588,2790.6154863980737,2.14,0.739,-7.838,-9.264
0.2,299999133.2716144,3.5568795204,11967.405313072442,2943.0659896990132,1.977,0.671,-7.427,-8.798
0.2,299999133.2716144,3.5568835735,12473.835142429432,2921.4603738773317,2.007,0.68,-7.478,-8.858
0.2,299999133.2716144,3.5568892956,13931.568029453036,2866.8171905248937,2.081,0.707,-7.613,-9.014
0.2,299999133.2716144,3.5568966866,15275.660582380731,2819.6811434706947,2.152,0.751,-7.727,-9.144
0.2,299999133.2716144,3.5569059849,16180.800376430645,2788.04641783178,2.186,0.787,-7.797,-9.223
0.2,299999133.2716144,3.5569176674,16595.869074375598,2769.491266809683,2.212,0.814,-7.831,-9.262
0.2,299999133.2716144,3.5569314957,16749.42876026438,2756.1319143947994,2.242,0.844,-7.845,-9.28
0.2,299999133.2716144,3.5569477081,16788.040181225588,2744.100418256573,2.273,0.88,-7.852,-9.291
0.2,299999133.2716144,3.5569479465,25061.09253032114,2571.5797663727394,2.271,0.978,-8.326,-9.8
0.2,299999133.2716144,3.5569484234,20653.80155810531,2652.772458621466,2.313,0.985,-8.103,-9.563
0.2,299999133.2716144,3.5569500923,16982.43652461746,2737.158835750586,2.282,0.891,-7.865,-9.306
0.2,299999133.2716144,3.5569527149,12105.981335504828,2888.683760959034,2.144,0.787,-7.454,-8.847
0.2,299999133.2716144,3.556956768,12589.254117941662,2866.1571574642016,2.181,0.81,-7.504,-8.905
0.2,299999133.2716144,3.5569622517,14060.47524129913,2811.253440841773,2.261,0.863,-7.638,-9.057
0.2,299999133.2716144,3.5569694042,15417.004529495583,2763.121613652023,2.305,0.91,-7.752,-9.185
0.2,299999133.2716144,3.5569787025,16292.960326397215,2729.606225513586,2.343,0.957,-7.823,-9.264
0.2,299999133.2716144,3.5569899082,16710.90614310707,2708.3201442989516,2.382,1.005,-7.857,-9.304
0.2,299999133.2716144,3.5570034981,16865.530253887424,2692.774586958958,2.42,1.05,-7.871,-9.323
0.2,299999133.2716144,3.5570194721,16904.409316432633,2676.7018556258904,2.452,1.1,-7.879,-9.332
0.2,299999133.2716144,3.5570197105,25234.807724805756,2503.8021037537396,2.287,0.989,-8.337,-9.814
0.2,299999133.2716144,3.5570201874,20844.908830972887,2584.0445690124566,2.447,1.158,-8.125,-9.597
0.2,299999133.2716144,3.5570216179,17139.573075084252,2667.472802124575,2.461,1.12,-7.896,-9.351
0.2,299999133.2716144,3.5570242405,12217.99660164871,2818.382931264455,2.382,0.988,-7.484,-8.901
0.2,299999133.2716144,3.5570278168,12735.030810166629,2793.830151362531,2.407,1.016,-7.536,-8.958
0.2,299999133.2716144,3.557033062,14190.575216890926,2737.158835750586,2.459,1.078,-7.67,-9.109
0.2,299999133.2716144,3.5570399761,15559.65631605075,2686.5813772687,2.515,1.156,-7.784,-9.235
0.2,299999133.2716144,3.5570485592,16405.89773199539,2650.3302897271124,2.546,1.229,-7.852,-9.31
0.2,299999133.2716144,3.5570590496,16826.740610704674,2625.4273189937003,2.586,1.298,-7.885,-9.347
0.2,299999133.2716144,3.5570716858,16982.43652461746,2605.5535300499687,2.617,1.338,-7.898,-9.364
0.2,299999133.2716144,3.5570867062,17060.823890031243,2585.8301804210555,2.64,1.359,-7.904,-9.372
0.2,299999133.2716144,3.5570867062,25468.30252585039,2413.79286937296,2.278,0.979,-8.346,-9.824
0.2,299999133.2716144,3.5570874214,21086.281499332887,2491.724371253899,2.484,1.185,-8.141,-9.618
0.2,299999133.2716144,3.5570886135,17338.039977541375,2572.76429534678,2.637,1.351,-7.924,-9.395
0.2,299999133.2716144,3.5570909977,12387.965865303691,2718.942354402217,2.643,1.278,-7.526,-8.967
0.2,299999133.2716144,3.5570943356,12882.495516931349,2690.915126480976,2.69,1.336,-7.578,-9.026
0.2,299999133.2716144,3.5570988655,14354.89433353656,2629.056987587087,2.73,1.447,-7.709,-9.168
0.2,299999133.2716144,3.5571050644,15703.628043335515,2573.3567644261093,2.726,1.447,-7.814,-9.282
0.2,299999133.2716144,3.5571129322,16557.699634695295,2531.628639126948,2.709,1.418,-7.876,-9.35
0.2,299999133.2716144,3.5571224689,16982.43652461746,2501.4970784600987,2.704,1.408,-7.905,-9.381
0.2,299999133.2716144,3.557133913,17139.573075084252,2477.4220576332864,2.708,1.41,-7.916,-9.393
0.2,299999133.2716144,3.5571475029,17179.083871575895,2455.839611248702,2.704,1.406,-7.92,-9.397
0.2,299999133.2716144,3.5571475029,25763.211570025727,2287.7048874073726,2.267,0.968,-8.358,-9.835
0.2,299999133.2716144,3.5571482182,21330.44913146575,2362.1093570835715,2.471,1.172,-8.153,-9.631
0.2,299999133.2716144,3.5571491718,17579.23613958693,2437.8108183687523,2.681,1.382,-7.943,-9.421
0.2,299999133.2716144,3.5571513176,12560.299636948754,2575.728005425206,2.938,1.667,-7.57,-9.034
0.2,299999133.2716144,3.5571541786,13061.708881318404,2545.0715720695075,2.931,1.65,-7.614,-9.083
0.2,299999133.2716144,3.5571584702,14521.11617587742,2480.847108088921,2.873,1.577,-7.735,-9.211
0.2,299999133.2716144,3.5571639538,15848.93192461114,2423.817964554634,2.792,1.494,-7.832,-9.309
0.2,299999133.2716144,3.5571708679,16710.90614310707,2381.2226232768385,2.735,1.436,-7.889,-9.367
0.2,299999133.2716144,3.557179451,17139.573075084252,2352.8812019381685,2.709,1.41,-7.916,-9.393
0.2,299999133.2716144,3.557189703,17298.16359215103,2335.6082466252187,2.699,1.4,-7.925,-9.403
0.2,299999133.2716144,3.5572016239,17338.039977541375,2329.1636302139664,2.695,1.397,-7.929,-9.406
