FeH,Age,Mini,L,Te,Bmag,Vmag,Jmag,Kmag
-0.6,400000007.98724174,0.0900000036,0.0007516228940182052,2710.815748427232,18.543,16.599,10.49,9.78
-0.6,400000007.98724174,0.0920277312,0.0007906786279998254,2730.863545120826,18.384,16.454,10.443,9.728
-0.6,400000007.98724174,0.0940291733,0.000833681184619634,2751.059604990364,18.221,16.304,10.395,9.673
-0.6,400000007.98724174,0.0987051874,0.0009506047936562819,2803.4963822309305,17.811,15.929,10.274,9.537
-0.6,400000007.98724174,0.0999553651,0.0009908319448927675,2819.6811434706947,17.686,15.814,10.237,9.495
-0.6,400000007.98724174,0.1085194498,0.001224616199265049,2898.010802529753,17.072,15.236,10.042,9.279
-0.6,400000007.98724174,0.1198660806,0.0016069412530128771,3001.9261222416912,16.316,14.53,9.792,9.009
-0.6,400000007.98724174,0.1335120648,0.0021478304741305333,3091.7188938917006,15.634,13.887,9.515,8.718
-0.6,400000007.98724174,0.139776811,0.0024490632418447443,3131.843125111643,15.345,13.62,9.388,8.588
-0.6,400000007.98724174,0.159687534,0.0032658783217233566,3222.5524898879053,14.734,13.053,9.112,8.307
-0.6,400000007.98724174,0.1762700379,0.003962780342554394,3279.4423443213464,14.353,12.699,8.924,8.116
-0.6,400000007.98724174,0.199508965,0.005188000389289609,3354.2853083268956,13.858,12.244,8.659,7.85
-0.6,400000007.98724174,0.202589035,0.0053456435939697195,3361.243690470534,13.808,12.198,8.63,7.82
-0.6,400000007.98724174,0.2484898865,0.008035261221856169,3458.597315106485,13.134,11.578,8.222,7.411
-0.6,400000007.98724174,0.2492858022,0.008090958991783822,3460.190424829487,13.123,11.569,8.216,7.404
-0.6,400000007.98724174,0.2889970243,0.010690548792226577,3522.897439914557,12.687,11.167,7.934,7.121
-0.6,400000007.98724174,0.2990626097,0.011428783347897719,3537.5289282243193,12.587,11.074,7.869,7.056
-0.6,400000007.98724174,0.3047342896,0.011967405313072436,3545.683774611333,12.519,11.011,7.82,7.007
-0.6,400000007.98724174,0.3488393724,0.016032453906900418,3614.0986263961313,12.076,10.601,7.529,6.713
-0.6,400000007.98724174,0.3986161947,0.02301441817408509,3711.931900441403,11.514,10.082,7.171,6.351
-0.6,400000007.98724174,0.4483930469,0.033806483620598154,3833.540007590441,10.915,9.537,6.793,5.973
-0.6,400000007.98724174,0.4913951159,0.04808393484497285,3974.660144576364,10.342,9.027,6.455,5.639
-0.6,400000007.98724174,0.4981698394,0.0505824662003114,3995.765566188054,10.257,8.953,6.404,5.59
-0.6,400000007.98724174,0.5019490123,0.05236004365857504,4015.1335942882924,10.196,8.902,6.374,5.561
-0.6,400000007.98724174,0.5479466915,0.07603262769401818,4248.15153514646,9.498,8.322,6.027,5.239
-0.6,400000007.98724174,0.5955929756,0.11246049739669266,4504.016781680873,8.745,7.712,5.67,4.939
-0.6,400000007.98724174,0.5977234244,0.11428783347897718,4515.439211278319,8.712,7.685,5.656,4.928
-0.6,400000007.98724174,0.647500217,0.16672472125510626,4815.041116556669,7.984,7.092,5.334,4.696
-0.6,400000007.98724174,0.6972770691,0.23659196974857583,5113.285003019643,7.374,6.582,5.049,4.503
-0.6,400000007.98724174,0.7471474409,0.3273406948788382,5401.3211476463475,6.853,6.145,4.789,4.316
-0.6,400000007.98724174,0.7970178127,0.44360864393143257,5653.273542660711,6.41,5.769,4.544,4.125
-0.6,400000007.98724174,0.8468881845,0.5915616341754739,5877.5996368060005,6.013,5.431,4.312,3.936
-0.6,400000007.98724174,0.8967584372,0.7762471166286917,6077.15061560915,5.647,5.119,4.087,3.745
-0.6,400000007.98724174,0.9080539942,0.8241381150130023,6117.866558211328,5.569,5.052,4.037,3.702
-0.6,400000007.98724174,0.946628809,1.0046157902783952,6257.487633544409,5.312,4.83,3.871,3.56
-0.6,400000007.98724174,0.9964991212,1.2852866599436155,6426.877173170194,4.999,4.557,3.664,3.379
-0.6,400000007.98724174,1.0463694334,1.62181009735893,6593.25693118515,4.703,4.297,3.468,3.208
-0.6,400000007.98724174,1.0709757805,1.8113400926196026,6678.824013665395,4.562,4.173,3.376,3.128
-0.6,400000007.98724174,1.0962398052,2.027682719521282,6763.943948096019,4.42,4.048,3.283,3.047
-0.6,400000007.98724174,1.146110177,2.5003453616964313,6948.643007488283,4.153,3.811,3.115,2.904
-0.6,400000007.98724174,1.1959805489,3.047894989627983,7151.54704659282,3.898,3.589,2.966,2.782
-0.6,400000007.98724174,1.2458508015,3.681289736425314,7396.052750582382,3.651,3.377,2.84,2.686
-0.6,400000007.98724174,1.2957211733,4.405548635065533,7682.454556792667,3.412,3.175,2.735,2.614
-0.6,400000007.98724174,1.3101292849,4.634469197362881,7769.623959921389,3.345,3.118,2.707,2.595
-0.6,400000007.98724174,1.3455916643,5.236004365857502,7981.78453491152,3.186,2.986,2.642,2.55
-0.6,400000007.98724174,1.3954619169,6.180164001384159,8277.51544930572,2.976,2.813,2.557,2.489
-0.6,400000007.98724174,1.3984487057,6.237348354824193,8294.68695095263,2.964,2.803,2.552,2.486
-0.6,400000007.98724174,1.4453322887,7.261059574351547,8566.432555816553,2.783,2.657,2.476,2.428
-0.6,400000007.98724174,1.4549460411,7.481695005111543,8621.840810727013,2.749,2.63,2.461,2.416
-0.6,400000007.98724174,1.4952026606,8.472274141405965,8845.04404755262,2.615,2.521,2.4,2.367
-0.6,400000007.98724174,1.5423027277,9.749896377173869,9094.943385552955,2.474,2.404,2.328,2.307
-0.6,400000007.98724174,1.5450729132,9.817479430199844,9109.614522659132,2.466,2.398,2.324,2.304
-0.6,400000007.98724174,1.5476616621,9.885530946569387,9122.208617910435,2.459,2.392,2.32,2.3
-0.6,400000007.98724174,1.5949431658,11.324003632355572,9351.903138266569,2.331,2.283,2.247,2.237
-0.6,400000007.98724174,1.6392627954,12.793813041575246,9552.125065089958,2.22,2.187,2.178,2.176
-0.6,400000007.98724174,1.6448135376,12.971792709839558,9578.555059598828,2.206,2.175,2.17,2.168
-0.6,400000007.98724174,1.6946840286,14.825180851459537,9790.390174480517,2.087,2.071,2.091,2.097
-0.6,400000007.98724174,1.7329211235,16.368165214278086,9947.180530834234,2.0,1.994,2.031,2.041
-0.6,400000007.98724174,1.744554162,16.865530253887414,9995.395890030879,1.974,1.97,2.012,2.024
-0.6,400000007.98724174,1.7749875784,18.238957023196374,10113.465562971209,1.906,1.91,1.963,1.978
-0.6,400000007.98724174,1.7943303585,19.18668740670289,10185.91388054117,1.863,1.872,1.931,1.949
-0.6,400000007.98724174,1.8330620527,21.134890398366466,10329.992352432302,1.78,1.797,1.869,1.891
-0.6,400000007.98724174,1.8441066742,21.727011788637444,10370.507263257601,1.757,1.775,1.851,1.873
-0.6,400000007.98724174,1.8938828707,24.547089156850298,10541.44142785385,1.65,1.677,1.767,1.794
-0.6,400000007.98724174,1.9316442013,26.915348039269155,10670.874200130986,1.571,1.604,1.704,1.734
-0.6,400000007.98724174,1.9436590672,27.73320104651841,10710.259659660709,1.545,1.581,1.684,1.714
-0.6,400000007.98724174,1.9934352636,31.260793671239558,10869.260563262285,1.442,1.483,1.598,1.632
-0.6,400000007.98724174,2.0026013851,31.915378551007617,10896.825594561707,1.423,1.465,1.582,1.617
-0.6,400000007.98724174,2.0432114601,35.15604405282981,11015.393095414145,1.338,1.386,1.511,1.548
-0.6,400000007.98724174,2.0929875374,39.53666200681279,11148.078033638425,1.232,1.285,1.418,1.459
-0.6,400000007.98724174,2.1427640915,44.46312674691086,11269.379392487019,1.126,1.183,1.325,1.367
-0.6,400000007.98724174,2.1501426697,45.28975799036207,11284.959375277622,1.11,1.168,1.31,1.353
-0.6,400000007.98724174,2.1925401688,50.003453497697855,11368.417120933062,1.016,1.077,1.225,1.269
-0.6,400000007.98724174,2.213593483,52.48074602497726,11407.750129221204,0.969,1.032,1.182,1.227
-0.6,400000007.98724174,2.242316246,56.104797603247064,11455.129414455361,0.904,0.968,1.121,1.167
-0.6,400000007.98724174,2.2600352764,58.47900841444806,11481.536214968817,0.863,0.929,1.083,1.13
-0.6,400000007.98724174,2.2920925617,63.09573444801933,11515.956083180346,0.787,0.854,1.01,1.058
-0.6,400000007.98724174,2.3249111176,68.23386941416697,11542.5031036467,0.706,0.775,0.933,0.981
-0.6,400000007.98724174,2.3418684006,70.95777679633888,11550.479136828499,0.664,0.733,0.892,0.94
-0.6,400000007.98724174,2.3865156174,78.88601176185544,11547.819846894581,0.547,0.618,0.775,0.824
-0.6,400000007.98724174,2.3916447163,79.98342550070285,11545.16116921431,0.533,0.604,0.762,0.81
-0.6,400000007.98724174,2.4022810459,82.03515443298181,11545.16116921431,0.505,0.577,0.734,0.782
-0.6,400000007.98724174,2.4457821846,90.78205301781857,11510.654010359682,0.386,0.458,0.614,0.661
-0.6,400000007.98724174,2.4905745983,101.15794542598982,11426.152076228898,0.253,0.324,0.474,0.52
-0.6,400000007.98724174,2.5275974274,110.66237839776664,11316.183988888624,0.134,0.204,0.347,0.391
-0.6,400000007.98724174,2.5668261051,121.89895989248662,11153.213095598532,-0.002,0.066,0.198,0.238
-0.6,400000007.98724174,2.5907495022,129.7179270983956,11002.718452957355,-0.096,-0.031,0.09,0.128
-0.6,400000007.98724174,2.596501112,131.5224832192239,10964.78196143185,-0.119,-0.054,0.065,0.102
-0.6,400000007.98724174,2.6243696213,141.2537544622754,10762.173768887867,-0.233,-0.173,-0.068,-0.036
-0.6,400000007.98724174,2.6487650871,150.66070661867417,10551.154926754916,-0.342,-0.287,-0.198,-0.17
-0.6,400000007.98724174,2.6757323742,163.68165214278085,10368.119640610255,-0.465,-0.414,-0.34,-0.316
-0.6,400000007.98724174,2.6766664982,164.05897731995387,10365.732567670051,-0.469,-0.418,-0.344,-0.32
-0.6,400000007.98724174,2.6863496304,173.78008287493762,10604.73938372333,-0.488,-0.43,-0.337,-0.308
-0.6,400000007.98724174,2.6902165413,180.3017740859568,10846.759228761503,-0.485,-0.42,-0.31,-0.276
-0.6,400000007.98724174,2.6917181015,187.06821403657997,11142.945335917293,-0.472,-0.4,-0.27,-0.229
-0.6,400000007.98724174,2.6923930645,194.08858775927774,11413.004802139933,-0.462,-0.385,-0.238,-0.192
-0.6,400000007.98724174,2.6927373409,201.37242498623874,11651.987230249999,-0.459,-0.377,-0.216,-0.165
-0.6,400000007.98724174,2.6930456161,210.3778439766475,11926.14265855822,-0.458,-0.37,-0.193,-0.138
-0.6,400000007.98724174,2.6931598186,198.60949173573715,11724.653045822957,-0.432,-0.348,-0.182,-0.131
-0.6,400000007.98724174,2.6932401657,191.4255925021086,11555.799554021294,-0.421,-0.342,-0.186,-0.137
-0.6,400000007.98724174,2.6933469772,187.49945080674192,11256.412505761102,-0.453,-0.379,-0.242,-0.199
-0.6,400000007.98724174,2.6934797764,190.98532585662386,10942.08288036683,-0.533,-0.465,-0.348,-0.312
-0.6,400000007.98724174,2.6936411858,198.60949173573715,10631.63357503774,-0.632,-0.571,-0.477,-0.447
-0.6,400000007.98724174,2.6938252449,205.11621788255647,10329.992352432302,-0.72,-0.667,-0.596,-0.573
-0.6,400000007.98724174,2.6940293312,209.41124558508935,10034.598491478393,-0.795,-0.749,-0.704,-0.689
-0.6,400000007.98724174,2.6942501068,211.83611352485022,9745.407417663062,-0.856,-0.822,-0.804,-0.797
-0.6,400000007.98724174,2.6944823265,213.79620895022325,9464.550656102037,-0.906,-0.884,-0.897,-0.899
-0.6,400000007.98724174,2.694719553,214.28906011200584,9189.671773189248,-0.946,-0.939,-0.985,-0.997
-0.6,400000007.98724174,2.6949558258,213.79620895022325,8922.776195878267,-0.976,-0.986,-1.069,-1.092
-0.6,400000007.98724174,2.6951856613,213.30449131465772,8663.632065076616,-0.994,-1.023,-1.149,-1.185
-0.6,400000007.98724174,2.6954057217,212.32444620002192,8412.01425557393,-0.998,-1.05,-1.225,-1.275
-0.6,400000007.98724174,2.6956136227,210.86281499332887,8167.704180469861,-0.987,-1.066,-1.297,-1.363
-0.6,400000007.98724174,2.6958081722,208.92961308540387,7932.3158742449605,-0.963,-1.072,-1.365,-1.449
-0.6,400000007.98724174,2.6959888935,206.53801558105292,7703.71131697609,-0.924,-1.069,-1.43,-1.533
-0.6,400000007.98724174,2.6961560249,204.17379446695296,7485.141246454854,-0.872,-1.059,-1.492,-1.616
-0.6,400000007.98724174,2.6963102818,201.37242498623874,7272.772456558234,-0.816,-1.042,-1.55,-1.697
-0.6,400000007.98724174,2.6964523792,198.60949173573715,7068.056297002477,-0.756,-1.019,-1.603,-1.776
-0.6,400000007.98724174,2.6965830326,195.8844673505989,6870.684400142324,-0.693,-0.992,-1.652,-1.852
-0.6,400000007.98724174,2.696703434,192.75249131909365,6681.900434105529,-0.626,-0.962,-1.699,-1.925
-0.6,400000007.98724174,2.696814537,189.67059212111465,6502.7940547237,-0.555,-0.93,-1.741,-1.995
-0.6,400000007.98724174,2.696917057,186.20871366628674,6337.237741643961,-0.48,-0.895,-1.778,-2.059
-0.6,400000007.98724174,2.6970121861,182.81002161427426,6188.708114190298,-0.407,-0.858,-1.807,-2.115
-0.6,400000007.98724174,2.6971011162,179.47336268325265,6064.569815101367,-0.338,-0.823,-1.828,-2.159
-0.6,400000007.98724174,2.6971845627,175.7923613958693,5962.110213666547,-0.273,-0.787,-1.841,-2.192
-0.6,400000007.98724174,2.6972668171,171.79083871575875,5876.246425275582,-0.21,-0.75,-1.847,-2.217
-0.6,400000007.98724174,2.6973612309,167.1090614310707,5794.286964268809,-0.143,-0.706,-1.843,-2.229
-0.6,400000007.98724174,2.6974840164,160.32453906900417,5702.955725720632,-0.057,-0.646,-1.828,-2.235
-0.6,400000007.98724174,2.697660923,149.6235656094433,5593.7106816169635,0.07,-0.551,-1.789,-2.221
-0.6,400000007.98724174,2.6978139877,141.2537544622754,5506.808828468291,0.176,-0.468,-1.752,-2.205
-0.6,400000007.98724174,2.6979761124,134.2764961137864,5420.008904016238,0.276,-0.397,-1.728,-2.202
-0.6,400000007.98724174,2.6981027126,131.2199899019203,5354.266700982399,0.338,-0.356,-1.723,-2.214
-0.6,400000007.98724174,2.6982555389,135.20725631942764,5282.019497699969,0.346,-0.372,-1.779,-2.287
-0.6,400000007.98724174,2.6984586716,145.2111617587742,5196.369200594045,0.319,-0.428,-1.886,-2.416
-0.6,400000007.98724174,2.6986446381,158.8546748597779,5133.339643802892,0.262,-0.508,-2.004,-2.55
-0.6,400000007.98724174,2.6988739967,174.98466886246564,5080.424479948444,0.196,-0.596,-2.125,-2.685
-0.6,400000007.98724174,2.6991491318,191.4255925021086,5033.846868348144,0.129,-0.681,-2.24,-2.812
-0.6,400000007.98724174,2.6994695663,211.34890398366477,4988.844874600121,0.058,-0.771,-2.36,-2.945
-0.6,400000007.98724174,2.6995193958,214.28906011200584,4983.104559705293,0.047,-0.785,-2.378,-2.965
-0.6,400000007.98724174,2.6995692253,217.27011788637455,4976.224899734694,0.036,-0.798,-2.396,-2.984
-0.6,400000007.98724174,2.699788332,231.73946499684797,4948.801109202861,-0.013,-0.859,-2.475,-3.071
-0.6,400000007.98724174,2.7000949383,254.0972705549304,4911.339996469978,-0.082,-0.944,-2.586,-3.193
-0.6,400000007.98724174,2.7004013062,278.61211686297696,4875.284901033865,-0.151,-1.03,-2.697,-3.315
-0.6,400000007.98724174,2.700707674,305.49211132155125,4840.60895610673,-0.221,-1.115,-2.808,-3.437
-0.6,400000007.98724174,2.7010574341,338.84415613920237,4802.860802396913,-0.3,-1.212,-2.933,-3.575
-0.6,400000007.98724174,2.7014069557,375.8374042884443,4766.504419105543,-0.374,-1.31,-3.058,-3.708
-0.6,400000007.98724174,2.7017560005,416.8693834703355,4730.423243999551,-0.443,-1.409,-3.183,-3.842
-0.6,400000007.98724174,2.7020614147,457.0881896148752,4697.859239439367,-0.503,-1.496,-3.294,-3.96
-0.6,400000007.98724174,2.7023668289,500.0345349769783,4666.593803142887,-0.562,-1.581,-3.401,-4.075
-0.6,400000007.98724174,2.7027022839,539.5106225151279,4639.807899821257,-0.608,-1.65,-3.491,-4.171
-0.6,400000007.98724174,2.7035777569,500.0345349769783,4668.743343920188,-0.564,-1.582,-3.4,-4.073
-0.6,400000007.98724174,2.7052271366,459.19801283686854,4702.188120918429,-0.513,-1.504,-3.298,-3.963
-0.6,400000007.98724174,2.7071530819,425.59841313374307,4733.692033483014,-0.468,-1.434,-3.205,-3.862
-0.6,400000007.98724174,2.7087917328,394.4573020752785,4763.212971455834,-0.419,-1.362,-3.112,-3.763
-0.6,400000007.98724174,2.7103102207,362.24299841669875,4795.1257408135025,-0.365,-1.284,-3.01,-3.653
-0.6,400000007.98724174,2.7116971016,333.4264127632351,4829.475864447709,-0.304,-1.205,-2.907,-3.54
-0.6,400000007.98724174,2.7131793499,303.3891184194272,4865.192179849536,-0.234,-1.119,-2.794,-3.415
-0.6,400000007.98724174,2.7144696712,279.2543841237339,4897.7881936844615,-0.173,-1.044,-2.695,-3.305
-0.6,400000007.98724174,2.7158236504,257.03957827688646,4931.738039549359,-0.111,-0.966,-2.594,-3.195
-0.6,400000007.98724174,2.7173118591,236.59196974857588,4967.066792234226,-0.049,-0.888,-2.492,-3.082
-0.6,400000007.98724174,2.7194271088,213.79620895022325,5014.180920308942,0.024,-0.796,-2.368,-2.945
-0.6,400000007.98724174,2.7218945026,196.33602768360475,5060.5765651324455,0.084,-0.717,-2.259,-2.824
-0.6,400000007.98724174,2.7267785072,179.88709151287873,5138.069802323445,0.126,-0.644,-2.137,-2.681
-0.6,400000007.98724174,2.7296051979,176.1976046411629,5179.645056050334,0.121,-0.634,-2.102,-2.635
-0.6,400000007.98724174,2.7350831032,192.75249131909365,5285.669448009903,-0.041,-0.759,-2.165,-2.671
-0.6,400000007.98724174,2.7396945953,208.92961308540387,5375.266487867444,-0.181,-0.869,-2.225,-2.709
-0.6,400000007.98724174,2.7435414791,221.30947096056389,5426.252513290146,-0.272,-0.943,-2.27,-2.741
-0.6,400000007.98724174,2.7465422153,228.03420720004186,5447.534633275434,-0.315,-0.98,-2.295,-2.762
-0.6,400000007.98724174,2.7489025593,231.73946499684797,5453.809950965599,-0.337,-0.999,-2.311,-2.775
-0.6,400000007.98724174,2.7512142658,235.5049283896009,5461.349875057235,-0.357,-1.017,-2.325,-2.788
-0.6,400000007.98724174,2.7606532574,249.45947269429536,5475.200153037678,-0.428,-1.084,-2.384,-2.844
-0.6,400000007.98724174,2.7843549252,288.40315031266056,5497.940050635924,-0.599,-1.248,-2.535,-2.989
-0.6,400000007.98724174,2.7898542881,298.538261891796,5501.739205107149,-0.638,-1.286,-2.57,-3.022
-0.6,400000007.98724174,2.801825285,319.88951096913974,5515.691912608028,-0.722,-1.366,-2.643,-3.092
-0.6,400000007.98724174,2.8116743565,338.0648362059815,5518.232567565654,-0.782,-1.426,-2.702,-3.149
-0.6,400000007.98724174,2.8227934837,351.560440528298,5471.419324763784,-0.8,-1.46,-2.761,-3.219
-0.6,400000007.98724174,2.83208251,363.0780547701014,5422.505485172428,-0.808,-1.485,-2.813,-3.282
-0.6,400000007.98724174,2.8374023438,366.43757464783334,5374.028929503504,-0.789,-1.484,-2.838,-3.32
-0.6,400000007.98724174,2.8404858112,366.43757464783334,5334.57714525135,-0.764,-1.473,-2.85,-3.34
-0.6,400000007.98724174,2.8434090614,365.59479161312504,5296.634438916581,-0.739,-1.461,-2.86,-3.36
-0.6,400000007.98724174,2.8459906578,362.24299841669875,5251.701096404131,-0.702,-1.441,-2.865,-3.377
-0.6,400000007.98724174,2.84867239,356.45113342624427,5193.976735070076,-0.647,-1.407,-2.867,-3.393
-0.6,400000007.98724174,2.8504276276,349.1403154785863,5139.253022834874,-0.588,-1.368,-2.862,-3.403
-0.6,400000007.98724174,2.8516643047,345.93937782612204,5086.276903064366,-0.542,-1.343,-2.87,-3.426
-0.6,400000007.98724174,2.8528871536,349.94516702835733,5008.411452998231,-0.498,-1.33,-2.906,-3.483
-0.6,400000007.98724174,2.8537635803,378.44258471709315,4905.6888610179985,-0.505,-1.378,-3.024,-3.63
-0.6,400000007.98724174,2.8538422585,389.9419866765436,4884.273784229252,-0.518,-1.401,-3.063,-3.676
-0.6,400000007.98724174,2.853900671,416.8693834703355,4848.4173870844625,-0.558,-1.457,-3.146,-3.77
-0.6,400000007.98724174,2.8539631367,453.94161665020323,4808.393484497285,-0.609,-1.537,-3.252,-3.887
-0.6,400000007.98724174,2.8541612625,486.4072056914614,4777.4923465909405,-0.65,-1.602,-3.339,-3.98
-0.6,400000007.98724174,2.8549706936,465.5860935229591,4796.22998644458,-0.623,-1.561,-3.285,-3.922
-0.6,400000007.98724174,2.855535984,524.8074602497728,4739.145036236972,-0.689,-1.67,-3.434,-4.084
-0.6,400000007.98724174,2.8558862209,574.1164622073275,4701.105526734309,-0.74,-1.75,-3.542,-4.202
-0.6,400000007.98724174,2.8562717438,625.1726927756855,4667.668449794021,-0.791,-1.828,-3.646,-4.314
-0.6,400000007.98724174,2.8567166328,683.9116472814293,4629.136637776056,-0.839,-1.907,-3.755,-4.434
-0.6,400000007.98724174,2.8571798801,749.8942093324558,4591.980128368686,-0.891,-1.99,-3.867,-4.556
-0.6,400000007.98724174,2.8576228619,824.1381150130021,4556.170837990161,-0.943,-2.072,-3.979,-4.678
-0.6,400000007.98724174,2.8580400944,905.7326008981998,4519.600000304826,-0.992,-2.154,-4.091,-4.802
-0.6,400000007.98724174,2.8584294319,995.4054173515275,4482.290499966203,-1.044,-2.232,-4.205,-4.928
-0.6,400000007.98724174,2.8587872982,1093.956366272094,4445.28899122317,-1.094,-2.308,-4.318,-5.055
-0.6,400000007.98724174,2.8591144085,1202.2644346174131,4409.608164506378,-1.144,-2.384,-4.431,-5.183
-0.6,400000007.98724174,2.8594119549,1324.3415351946644,4372.199799574554,-1.192,-2.459,-4.545,-5.311
-0.6,400000007.98724174,2.8596796989,1455.4590805819653,4320.161676181425,-1.217,-2.518,-4.66,-5.448
-0.6,400000007.98724174,2.8599231243,1599.5580286146694,4282.5259178891965,-1.26,-2.587,-4.772,-5.576
-0.6,400000007.98724174,2.8601469994,1757.923613958693,4245.2180293408355,-1.299,-2.654,-4.882,-5.702
-0.6,400000007.98724174,2.8603539467,1927.5249131909366,4210.173564456214,-1.34,-2.721,-4.991,-5.828
-0.6,400000007.98724174,2.8605461121,2118.3611352485023,4176.379929509739,-1.381,-2.789,-5.1,-5.952
-0.6,400000007.98724174,2.8607234955,2322.7367963571073,4142.857544606856,-1.415,-2.852,-5.209,-6.077
-0.6,400000007.98724174,2.860887289,2552.701302661247,4110.55061281175,-1.449,-2.915,-5.318,-6.2
-0.6,400000007.98724174,2.8610386848,2798.981319634363,4076.617833479447,-1.481,-2.976,-5.426,-6.324
-0.6,400000007.98724174,2.861178875,3069.021988391158,4042.9651707596545,-1.509,-3.033,-5.533,-6.448
-0.6,400000007.98724174,2.8613097668,3365.115693754908,4010.513660865759,-1.537,-3.09,-5.64,-6.571
-0.6,400000007.98724174,2.8614320755,3689.775985701505,3978.3226282329574,-1.563,-3.146,-5.746,-6.694
-0.6,400000007.98724174,2.861546278,4036.4539296760486,3945.481396833012,-1.585,-3.197,-5.851,-6.816
-0.6,400000007.98724174,2.8616535664,4425.883723626264,3911.1097238892944,-1.603,-3.245,-5.956,-6.939
-0.6,400000007.98724174,2.8617548943,4841.7236758409945,3878.8233380237325,-1.62,-3.291,-6.06,-7.06
-0.6,400000007.98724174,2.8618512154,5296.634438916581,3845.9178204535356,-1.629,-3.331,-6.164,-7.182
-0.6,400000007.98724174,2.8619432449,5794.286964268809,3811.5357714484903,-1.632,-3.367,-6.269,-7.304
-0.6,400000007.98724174,2.8620314598,6324.118513762197,3778.3309865888623,-1.631,-3.395,-6.373,-7.426
-0.6,400000007.98724174,2.8621172905,6902.398038402419,3743.6910398904515,-1.626,-3.418,-6.476,-7.547
-0.6,400000007.98724174,2.8622121811,7620.790100254122,3705.953792179554,-1.617,-3.438,-6.591,-7.682
-0.6,400000007.98724174,2.8623049259,8375.292821268826,3667.7523159949515,-1.596,-3.442,-6.703,-7.814
-0.6,400000007.98724174,2.8624038696,9183.32596483581,3627.4380147645793,-1.567,-3.436,-6.813,-7.946
-0.6,400000007.98724174,2.862547636,9397.233105646375,3612.434655644614,-1.54,-3.414,-6.844,-7.983
-0.6,400000007.98724174,2.8625633717,8933.054837332953,3633.2894685013125,-1.554,-3.421,-6.782,-7.911
-0.6,400000007.98724174,2.8625731468,8472.274141405964,3651.741272548377,-1.56,-3.415,-6.721,-7.84
-0.6,400000007.98724174,2.8625838757,8053.784411990669,3670.2867848109704,-1.566,-3.408,-6.66,-7.77
-0.6,400000007.98724174,2.862593174,8452.788451602899,3652.5822138633744,-1.559,-3.413,-6.717,-7.836
-0.6,400000007.98724174,2.8626060486,8892.011178579482,3633.2894685013125,-1.55,-3.416,-6.776,-7.906
-0.6,400000007.98724174,2.8626255989,9332.543007969914,3612.434655644614,-1.532,-3.406,-6.836,-7.976
-0.6,400000007.98724174,2.8626365662,9268.298233793494,3614.9308991735757,-1.533,-3.406,-6.827,-7.966
-0.6,400000007.98724174,2.862637043,8810.488730080138,3635.8001230014343,-1.547,-3.412,-6.765,-7.894
-0.6,400000007.98724174,2.8626372814,8317.63771102671,3657.631930094523,-1.557,-3.407,-6.697,-7.814
-0.6,400000007.98724174,2.8626375198,8165.823713585923,3663.532089914713,-1.559,-3.405,-6.676,-7.79
-0.6,400000007.98724174,2.8626403809,8511.380382023768,3647.5394692560767,-1.552,-3.409,-6.726,-7.848
-0.6,400000007.98724174,2.862642765,8953.647655495937,3629.108896409478,-1.543,-3.412,-6.785,-7.917
-0.6,400000007.98724174,2.8626458645,9418.895965228417,3608.278079727421,-1.527,-3.402,-6.847,-7.988
-0.6,400000007.98724174,2.8626511097,9885.53094656939,3588.3929932948636,-1.508,-3.39,-6.905,-8.056
-0.6,400000007.98724174,2.8626630306,10303.861204416158,3570.2612803901543,-1.49,-3.377,-6.956,-8.116
-0.6,400000007.98724174,2.86267519,10000.0,3582.613845838672,-1.498,-3.382,-6.919,-8.073
-0.6,400000007.98724174,2.8626754284,9931.160484209335,3585.0894827655493,-1.501,-3.384,-6.91,-8.063
-0.6,400000007.98724174,2.8626756668,11748.975549395303,3516.4139963166635,-1.417,-3.312,-7.114,-8.3
-0.6,400000007.98724174,2.8626759052,11220.18454301963,3535.0861336199705,-1.446,-3.341,-7.058,-8.235
-0.6,400000007.98724174,2.8626761436,10665.961212302567,3555.4944085859292,-1.473,-3.365,-6.996,-8.165
-0.6,400000007.98724174,2.8626768589,10069.316688518044,3579.3156556503877,-1.496,-3.381,-6.927,-8.083
-0.6,400000007.98724174,2.8626775742,9549.92586021436,3601.6375039472773,-1.516,-3.394,-6.863,-8.008
-0.6,400000007.98724174,2.8626782894,9036.494737223014,3623.2641755313257,-1.534,-3.404,-6.796,-7.931
-0.6,400000007.98724174,2.8626792431,8472.274141405964,3648.379442958715,-1.549,-3.405,-6.72,-7.842
-0.6,400000007.98724174,2.8626825809,8260.379495771784,3658.474227939712,-1.553,-3.403,-6.691,-7.807
-0.6,400000007.98724174,2.8626849651,8649.67918775693,3640.8266378940075,-1.545,-3.407,-6.746,-7.871
-0.6,400000007.98724174,2.8626875877,9057.326008981998,3621.5959848601933,-1.532,-3.403,-6.801,-7.936
-0.6,400000007.98724174,2.8626906872,9440.608762859236,3604.956262788377,-1.518,-3.394,-6.85,-7.993
-0.6,400000007.98724174,2.8626964092,9682.778562612497,3594.181463147148,-1.507,-3.386,-6.881,-8.03
-0.6,400000007.98724174,2.8627099991,9418.895965228417,3604.1262864914356,-1.511,-3.387,-6.847,-7.991
-0.6,400000007.98724174,2.8627245426,8953.647655495937,3624.933134609571,-1.53,-3.4,-6.787,-7.92
-0.6,400000007.98724174,2.862724781,11561.122421920982,3514.7950006430638,-1.399,-3.292,-7.099,-8.286
-0.6,400000007.98724174,2.8627250195,11376.27285823431,3522.086356184678,-1.411,-3.304,-7.078,-8.262
-0.6,400000007.98724174,2.8627252579,10839.269140212038,3544.051302809929,-1.447,-3.341,-7.017,-8.191
-0.6,400000007.98724174,2.8627257347,10303.861204416158,3566.1532304264047,-1.474,-3.362,-6.956,-8.119
-0.6,400000007.98724174,2.8627262115,9772.372209558112,3588.3929932948636,-1.496,-3.378,-6.893,-8.045
-0.6,400000007.98724174,2.8627266884,9311.078754678301,3609.1090121201505,-1.515,-3.39,-6.833,-7.974
-0.6,400000007.98724174,2.8627274036,8851.156098308356,3629.9446258272606,-1.535,-3.403,-6.772,-7.903
-0.6,400000007.98724174,2.8627281189,8413.951416451948,3650.059970708618,-1.546,-3.402,-6.713,-7.833
-0.6,400000007.98724174,2.8627290726,8035.261221856169,3669.4417673371618,-1.557,-3.401,-6.657,-7.767
-0.6,400000007.98724174,2.862732172,8128.305161640995,3664.3757464783334,-1.554,-3.401,-6.671,-7.784
-0.6,400000007.98724174,2.8627338409,8629.785477669702,3639.9884030888024,-1.541,-3.403,-6.742,-7.868
-0.6,400000007.98724174,2.8627359867,9078.205301781862,3619.928562242391,-1.526,-3.397,-6.803,-7.939
-0.6,400000007.98724174,2.8627388477,9571.94071294844,3597.4933515574235,-1.506,-3.384,-6.867,-8.013
-0.6,400000007.98724174,2.8627445698,10046.157902783947,3576.844005764754,-1.484,-3.37,-6.926,-8.084
-0.6,400000007.98724174,2.8627617359,11040.786199020735,3537.5289282243193,-1.439,-3.334,-7.041,-8.217
-0.6,400000007.98724174,2.86277318,11455.129414455361,3521.2754591922267,-1.413,-3.308,-7.086,-8.27
-0.6,400000007.98724174,2.862776041,11455.129414455361,3521.2754591922267,-1.413,-3.308,-7.086,-8.27
-0.6,400000007.98724174,2.8627767563,13995.873225726178,3442.7065038944434,-1.283,-3.168,-7.332,-8.551
-0.6,400000007.98724174,2.8627767563,14028.13704561959,3441.9138826842905,-1.282,-3.167,-7.333,-8.553
-0.6,400000007.98724174,2.8627781868,10889.300933334333,3542.4195826164946,-1.443,-3.337,-7.022,-8.197
-0.6,400000007.98724174,2.862780571,7888.601176185541,3673.6688011030355,-1.552,-3.393,-6.636,-7.744
-0.6,400000007.98724174,2.8627836704,8356.030182312483,3649.2196100947112,-1.536,-3.392,-6.705,-7.826
-0.6,400000007.98724174,2.8627882004,9506.04793656282,3595.837026057048,-1.492,-3.37,-6.859,-8.007
-0.6,400000007.98724174,2.862793684,10592.537251772897,3549.7682446720896,-1.447,-3.34,-6.991,-8.162
-0.6,400000007.98724174,2.8628005981,11376.27285823431,3520.4647488942164,-1.403,-3.297,-7.079,-8.263
-0.6,400000007.98724174,2.8628089428,11830.41555725166,3503.482883015712,-1.375,-3.269,-7.126,-8.318
-0.6,400000007.98724174,2.862818718,12078.138351067797,3493.8157638329217,-1.356,-3.25,-7.153,-8.349
-0.6,400000007.98724174,2.8628299236,12274.392311584084,3485.7802105603496,-1.339,-3.233,-7.173,-8.373
-0.6,400000007.98724174,2.862830162,18706.821403658018,3322.0028446165034,-0.952,-2.752,-7.699,-8.966
-0.6,400000007.98724174,2.8628308773,15066.070661867418,3405.6498956736095,-1.185,-3.052,-7.425,-8.66
-0.6,400000007.98724174,2.8628325462,11694.9939101987,3504.2896826443844,-1.366,-3.26,-7.114,-8.306
-0.6,400000007.98724174,2.8628351688,8452.788451602899,3634.9630454608155,-1.507,-3.37,-6.722,-7.851
-0.6,400000007.98724174,2.8628389835,8953.647655495937,3611.602957582318,-1.486,-3.358,-6.791,-7.931
-0.6,400000007.98724174,2.8628439903,10162.486928706949,3558.7706484879304,-1.436,-3.325,-6.942,-8.109
-0.6,400000007.98724174,2.862850666,11297.959146727977,3514.7950006430638,-1.375,-3.268,-7.073,-8.259
-0.6,400000007.98724174,2.8628585339,12078.138351067797,3486.582933528731,-1.33,-3.223,-7.155,-8.355
-0.6,400000007.98724174,2.862868309,12502.590302177214,3471.362758876978,-1.303,-3.195,-7.198,-8.404
-0.6,400000007.98724174,2.8628797531,12735.030810166629,3462.5814654379196,-1.283,-3.173,-7.22,-8.43
-0.6,400000007.98724174,2.8628928661,12882.495516931349,3456.209025701263,-1.264,-3.151,-7.235,-8.449
-0.6,400000007.98724174,2.8628931046,19678.86289706843,3291.546539470676,-0.811,-2.567,-7.768,-9.046
-0.6,400000007.98724174,2.8628940582,15848.93192461114,3374.4267097541338,-1.08,-2.926,-7.494,-8.742
-0.6,400000007.98724174,2.8628957272,12331.048332289096,3472.9617486579155,-1.293,-3.185,-7.182,-8.388
-0.6,400000007.98724174,2.8628988266,8912.509381337459,3604.956262788377,-1.458,-3.331,-6.787,-7.93
-0.6,400000007.98724174,2.8629033566,9418.895965228417,3580.1399184306892,-1.433,-3.314,-6.855,-8.01
-0.6,400000007.98724174,2.8629090786,10665.961212302567,3528.5802582852702,-1.371,-3.263,-7.004,-8.185
-0.6,400000007.98724174,2.862916708,11830.41555725166,3485.7802105603496,-1.303,-3.194,-7.132,-8.332
-0.6,400000007.98724174,2.8629260063,12589.254117941662,3457.8010353230598,-1.251,-3.138,-7.211,-8.424
-0.6,400000007.98724174,2.862937212,13001.695780332899,3443.4993076333844,-1.215,-3.096,-7.251,-8.47
-0.6,400000007.98724174,2.862950325,13182.567385564074,3434.788498657803,-1.193,-3.07,-7.269,-8.492
-0.6,400000007.98724174,2.8629655838,13304.5441797809,3429.2567329756016,-1.173,-3.048,-7.281,-8.506
-0.6,400000007.98724174,2.8629658222,20370.42077705719,3261.3694594087888,-0.648,-2.352,-7.822,-9.109
-0.6,400000007.98724174,2.8629667759,16443.717232149324,3344.2597353373435,-0.953,-2.77,-7.548,-8.807
-0.6,400000007.98724174,2.8629689217,12823.305826560205,3442.7065038944434,-1.2,-3.081,-7.236,-8.455
-0.6,400000007.98724174,2.8629724979,9268.298233793494,3576.0205018090237,-1.4,-3.282,-6.837,-7.994
-0.6,400000007.98724174,2.8629775047,9794.89985408699,3551.4033498288213,-1.373,-3.262,-6.905,-8.075
-0.6,400000007.98724174,2.8629844189,11066.237839776653,3499.451670283573,-1.292,-3.182,-7.055,-8.249
-0.6,400000007.98724174,2.8629930019,12246.16199265049,3455.413295778485,-1.212,-3.097,-7.181,-8.395
-0.6,400000007.98724174,2.8630039692,13031.667784523,3427.6778654645045,-1.147,-3.02,-7.259,-8.485
-0.6,400000007.98724174,2.8630168438,13427.649611378642,3411.9291162192844,-1.105,-2.971,-7.299,-8.531
-0.6,400000007.98724174,2.8630318642,13645.831365889238,3402.5146202702363,-1.075,-2.936,-7.318,-8.554
-0.6,400000007.98724174,2.8630495071,13740.41975012515,3394.6890538007865,-1.047,-2.904,-7.33,-8.57
-0.6,400000007.98724174,2.8630497456,21134.890398366475,3224.779319316378,-0.441,-2.08,-7.88,-9.179
-0.6,400000007.98724174,2.8630506992,17100.15315090286,3307.5011205925434,-0.78,-2.557,-7.606,-8.879
-0.6,400000007.98724174,2.8630530834,13335.21432163324,3405.6498956736095,-1.068,-2.93,-7.294,-8.529
-0.6,400000007.98724174,2.8630566597,9638.290236239705,3539.9734108343464,-1.31,-3.199,-6.89,-8.066
-0.6,400000007.98724174,2.8630619049,10185.91388054117,3513.985782353995,-1.267,-3.155,-6.96,-8.147
-0.6,400000007.98724174,2.863068819,11481.536214968817,3461.784268375584,-1.175,-3.06,-7.108,-8.32
-0.6,400000007.98724174,2.8630776405,12676.518658578449,3418.219914176575,-1.074,-2.941,-7.232,-8.462
-0.6,400000007.98724174,2.8630886078,13458.60354055947,3390.002355756172,-1.002,-2.855,-7.309,-8.551
-0.6,400000007.98724174,2.8631017208,13867.558288718896,3372.873086588689,-0.942,-2.781,-7.348,-8.596
-0.6,400000007.98724174,2.8631174564,14028.13704561959,3362.791956867804,-0.897,-2.727,-7.366,-8.619
-0.6,400000007.98724174,2.8631353378,14157.93779957081,3353.5130445056075,-0.855,-2.675,-7.379,-8.635
-0.6,400000007.98724174,2.8631355762,21777.09772353159,3181.2661175961725,-0.188,-1.746,-7.936,-9.247
-0.6,400000007.98724174,2.8631367683,17660.37820686164,3263.623111913169,-0.522,-2.225,-7.664,-8.951
-0.6,400000007.98724174,2.8631389141,13803.842646028837,3361.243690470534,-0.873,-2.7,-7.35,-8.603
-0.6,400000007.98724174,2.8631427288,9954.054173515275,3496.2300400270183,-1.17,-3.056,-6.942,-8.137
-0.6,400000007.98724174,2.863147974,10543.86896391258,3468.965654460541,-1.12,-3.005,-7.012,-8.22
-0.6,400000007.98724174,2.8631551266,11857.687481671597,3416.6461281382244,-0.998,-2.861,-7.16,-8.391
-0.6,400000007.98724174,2.8631644249,13061.708881318404,3372.096543265998,-0.876,-2.711,-7.283,-8.532
-0.6,400000007.98724174,2.8631756306,13835.66378971781,3342.7200013786605,-0.772,-2.581,-7.359,-8.619
-0.6,400000007.98724174,2.8631892204,14223.287871228184,3324.298395649131,-0.699,-2.49,-7.397,-8.664
-0.6,400000007.98724174,2.8632051945,14387.985782558466,3312.0737601979727,-0.639,-2.418,-7.416,-8.688
-0.6,400000007.98724174,2.8632237911,14487.718535447602,3300.6539952850767,-0.572,-2.333,-7.429,-8.705
-0.6,400000007.98724174,2.8632240295,22387.21138568338,3128.2395322577386,0.109,-1.363,-7.995,-9.319
-0.6,400000007.98724174,2.8632252216,18197.008586099826,3208.484902035953,-0.19,-1.796,-7.723,-9.027
-0.6,400000007.98724174,2.8632273674,14256.075936021878,3304.4562019345226,-0.581,-2.348,-7.409,-8.683
-0.6,400000007.98724174,2.8632311821,10256.519262514079,3437.953513094916,-0.95,-2.819,-6.995,-8.217
-0.6,400000007.98724174,2.8632364273,10864.256236170644,3409.5730529319967,-0.878,-2.735,-7.067,-8.301
-0.6,400000007.98724174,2.8632438183,12189.895989248673,3355.8303695328004,-0.719,-2.538,-7.217,-8.471
-0.6,400000007.98724174,2.8632528782,13396.766874259343,3311.311214825911,-0.56,-2.335,-7.339,-8.611
-0.6,400000007.98724174,2.8632643223,14190.575216890926,3280.1975507699003,-0.414,-2.141,-7.416,-8.698
-0.6,400000007.98724174,2.8632779121,14554.59080581967,3259.8678890446836,-0.304,-1.997,-7.456,-8.744
-0.6,400000007.98724174,2.8632941246,14757.065332758932,3244.1430790488475,-0.208,-1.873,-7.477,-8.77
-0.6,400000007.98724174,2.8633127213,14825.180851459545,3228.4941217126348,-0.111,-1.75,-7.492,-8.79
-0.6,400000007.98724174,2.8633127213,23014.41817408509,3062.6685580037692,0.44,-0.951,-8.059,-9.397
-0.6,400000007.98724174,2.8633131981,18706.821403658018,3136.8951301583775,0.249,-1.235,-7.794,-9.116
-0.6,400000007.98724174,2.8633143902,14689.262776438662,3224.779319316378,-0.079,-1.71,-7.483,-8.782
-0.6,400000007.98724174,2.8633160591,10568.175092136586,3355.057749988978,-0.564,-2.379,-7.06,-8.316
-0.6,400000007.98724174,2.8633184433,11168.632477805611,3325.0639317743994,-0.454,-2.24,-7.134,-8.401
-0.6,400000007.98724174,2.8633215427,12502.590302177214,3265.126412019571,-0.191,-1.89,-7.287,-8.573
-0.6,400000007.98724174,2.8633258343,13708.817661648523,3209.96280421069,0.077,-1.526,-7.414,-8.717
-0.6,400000007.98724174,2.8633308411,14454.39770745928,3167.3787594444734,0.3,-1.227,-7.495,-8.81
-0.6,400000007.98724174,2.8633370399,14825.180851459545,3136.172916512987,0.461,-1.017,-7.539,-8.861
-0.6,400000007.98724174,2.8633441925,14962.356560944329,3112.4329187675094,0.594,-0.85,-7.563,-8.89
-0.6,400000007.98724174,2.8633525372,15031.419660900208,3093.1430109489634,0.71,-0.705,-7.579,-8.911
-0.6,400000007.98724174,2.8633525372,23334.580622810045,2820.97995366343,1.316,0.124,-8.205,-9.567
-0.6,400000007.98724174,2.863353014,18967.059212111446,2941.710969752718,1.092,-0.206,-7.916,-9.267
-0.6,400000007.98724174,2.8633542061,14927.944095789975,3091.0070812616214,0.73,-0.682,-7.572,-8.905
-0.6,400000007.98724174,2.863355875,10715.193052376071,3318.180448272474,-0.325,-2.121,-7.096,-8.365
-0.6,400000007.98724174,2.8633580208,11350.108156723143,3276.4232568537846,-0.119,-1.848,-7.177,-8.46
-0.6,400000007.98724174,2.8633613586,12705.74105208542,3188.5996933863867,0.329,-1.24,-7.344,-8.653
-0.6,400000007.98724174,2.8633654118,13899.526312133527,3113.149665447022,0.688,-0.759,-7.482,-8.81
-0.6,400000007.98724174,2.8633704185,14655.478409559128,3063.37384469643,0.91,-0.475,-7.566,-8.903
-0.6,400000007.98724174,2.863376379,14996.84835502374,3037.3860919461044,1.007,-0.354,-7.606,-8.948
-0.6,400000007.98724174,2.8633835316,15135.612484362071,3027.610480923131,-0.795,-3.142,-7.358,-8.826
-0.6,400000007.98724174,2.8633916378,15205.47529732497,3029.0050681662174,-0.805,-3.151,-7.362,-8.83
