FeH,Age,Mini,L,Te,Bmag,Vmag,Jmag,Kmag
-0.4,449997395.3258027,0.0899999961,0.0006516283940608428,2592.3879852913533,19.252,17.326,10.612,9.848
-0.4,449997395.3258027,0.0903645605,0.0006591738952443213,2595.9719768130426,19.242,17.315,10.601,9.838
-0.4,449997395.3258027,0.0934043378,0.0007194489780036999,2631.4795540202017,19.044,17.126,10.513,9.744
-0.4,449997395.3258027,0.0992661342,0.0008609937521846007,2705.203869719351,18.402,16.527,10.352,9.563
-0.4,449997395.3258027,0.1023397073,0.0009268298233793494,2730.863545120826,18.186,16.329,10.284,9.489
-0.4,449997395.3258027,0.1177984104,0.0013677288255958494,2865.4972763642395,17.066,15.292,9.918,9.099
-0.4,449997395.3258027,0.136330694,0.0019998618696327446,2986.75775503349,16.099,14.383,9.554,8.724
-0.4,449997395.3258027,0.1508476734,0.0025234807724805754,3057.736095690077,15.554,13.867,9.331,8.497
-0.4,449997395.3258027,0.1548629701,0.0026853444456585063,3076.805193759751,15.411,13.731,9.272,8.438
-0.4,449997395.3258027,0.1919275075,0.004285485203974397,3203.3176008528117,14.471,12.844,8.813,7.979
-0.4,449997395.3258027,0.2142377794,0.005272298614228227,3261.3694594087888,14.077,12.472,8.609,7.775
-0.4,449997395.3258027,0.2382582128,0.006576578373554205,3317.416496945389,13.683,12.1,8.39,7.557
-0.4,449997395.3258027,0.2845888734,0.009311078754678301,3400.1650580407095,13.107,11.563,8.04,7.208
-0.4,449997395.3258027,0.2942887247,0.010046157902783952,3415.0730666882723,12.992,11.455,7.962,7.13
-0.4,449997395.3258027,0.3309195936,0.012882495516931342,3473.761519726527,12.601,11.09,7.713,6.881
-0.4,449997395.3258027,0.377250284,0.01778279410038923,3554.6758199906994,12.094,10.616,7.388,6.555
-0.4,449997395.3258027,0.4235809743,0.025061092530321138,3652.5822138633744,11.554,10.11,7.05,6.214
-0.4,449997395.3258027,0.4699116945,0.03580964371026361,3774.8526172405905,10.981,9.576,6.706,5.868
-0.4,449997395.3258027,0.5162423849,0.05164163692720711,3935.5007545577764,10.368,9.018,6.359,5.527
-0.4,449997395.3258027,0.5625730157,0.07464487584100665,4146.675015156991,9.708,8.448,6.015,5.201
-0.4,449997395.3258027,0.6089037657,0.10715193052376065,4386.316848258552,9.011,7.873,5.68,4.91
-0.4,449997395.3258027,0.6323350072,0.12852866599436155,4514.399612669502,8.641,7.575,5.517,4.782
-0.4,449997395.3258027,0.6552344561,0.15240527537972914,4651.574703021666,8.292,7.295,5.374,4.682
-0.4,449997395.3258027,0.7015650868,0.21086281499332893,4923.795419719503,7.673,6.787,5.101,4.498
-0.4,449997395.3258027,0.7514939904,0.29174270140011666,5207.148940339917,7.113,6.32,4.838,4.315
-0.4,449997395.3258027,0.8014228344,0.3953666200681279,5450.043893417617,6.643,5.922,4.586,4.123
-0.4,449997395.3258027,0.8273035884,0.45919801283686856,5570.574669415543,6.421,5.734,4.464,4.028
-0.4,449997395.3258027,0.8513516784,0.5260172663907061,5681.983915599056,6.225,5.569,4.356,3.944
-0.4,449997395.3258027,0.9012805223,0.690239803840242,5888.43655355589,5.845,5.246,4.132,3.76
-0.4,449997395.3258027,0.937437892,0.831763771102671,6025.595860743575,5.591,5.032,3.981,3.635
-0.4,449997395.3258027,0.9512093663,0.8912509381337456,6077.15061560915,5.498,4.954,3.926,3.589
-0.4,449997395.3258027,1.0011382103,1.1402497875611688,6245.971525332753,5.173,4.676,3.719,3.411
-0.4,449997395.3258027,1.02627635,1.288249551693134,6327.0315486650115,5.018,4.541,3.616,3.321
-0.4,449997395.3258027,1.0510671139,1.4454397707459274,6406.192726268982,4.87,4.412,3.519,3.235
-0.4,449997395.3258027,1.1009960175,1.8113400926196026,6562.9636672922,4.583,4.161,3.328,3.068
-0.4,449997395.3258027,1.1026064157,1.823895702319638,6567.49876817207,4.574,4.153,3.322,3.063
-0.4,449997395.3258027,1.1509248018,2.2438819237827663,6722.02309111567,4.31,3.922,3.149,2.912
-0.4,449997395.3258027,1.2008537054,2.7415741719278826,6888.108826526805,4.054,3.696,2.985,2.771
-0.4,449997395.3258027,1.2507824898,3.318944575526104,7072.94042404576,3.808,3.482,2.838,2.649
-0.4,449997395.3258027,1.3007112741,3.9902490236214203,7291.216599950674,3.569,3.276,2.711,2.549
-0.4,449997395.3258027,1.3506404161,4.753352259428054,7556.140070930927,3.336,3.08,2.606,2.474
-0.4,449997395.3258027,1.4005692005,5.623413251903491,7836.100548778108,3.114,2.895,2.513,2.41
-0.4,449997395.3258027,1.4504979849,6.622165037017619,8113.346052282628,2.904,2.721,2.424,2.346
-0.4,449997395.3258027,1.4930256605,7.568328950209744,8338.731689085957,2.738,2.585,2.353,2.292
-0.4,449997395.3258027,1.5004268885,7.726805850957024,8377.221525750581,2.71,2.563,2.341,2.282
-0.4,449997395.3258027,1.5503555536,8.994975815300352,8625.812229534791,2.536,2.421,2.259,2.216
-0.4,449997395.3258027,1.5663285255,9.418895965228414,8699.614330652674,2.484,2.378,2.233,2.195
-0.4,449997395.3258027,1.6002845764,10.375284158180126,8853.194386974774,2.381,2.292,2.178,2.147
-0.4,449997395.3258027,1.6020524502,10.423174293933041,8861.352236594994,2.376,2.288,2.175,2.145
-0.4,449997395.3258027,1.6502133608,11.91242008027375,9061.498022319971,2.241,2.172,2.096,2.075
-0.4,449997395.3258027,1.6649894714,12.387965865303691,9120.108393559096,2.2,2.138,2.071,2.053
-0.4,449997395.3258027,1.7001422644,13.614446824659497,9255.502447634359,2.109,2.058,2.013,2.0
-0.4,449997395.3258027,1.7455209494,15.310874616820303,9423.234526030685,1.995,1.959,1.937,1.931
-0.4,449997395.3258027,1.7500711679,15.488166189124811,9438.435232605138,1.984,1.949,1.93,1.924
-0.4,449997395.3258027,1.7999999523,17.619760464116293,9611.695415159313,1.863,1.841,1.844,1.845
-0.4,449997395.3258027,1.8474507332,19.860949173573715,9765.624024994946,1.752,1.741,1.762,1.768
-0.4,449997395.3258027,1.8949013948,22.335722228305315,9912.883449478924,1.643,1.642,1.679,1.69
-0.4,449997395.3258027,1.9423522949,25.118864315095795,10050.785394907376,1.535,1.543,1.594,1.609
-0.4,449997395.3258027,1.9773585796,27.352687263067125,10148.456628180957,1.457,1.471,1.531,1.549
-0.4,449997395.3258027,1.9898030758,28.183829312644534,10183.568757197852,1.429,1.445,1.508,1.527
-0.4,449997395.3258027,2.0247294903,30.69021988391158,10275.429881178112,1.351,1.373,1.444,1.465
-0.4,449997395.3258027,2.0372538567,31.622776601683793,10306.234029308187,1.322,1.346,1.42,1.442
-0.4,449997395.3258027,2.0772898197,34.83373150360118,10401.596438661036,1.232,1.261,1.343,1.367
-0.4,449997395.3258027,2.0847046375,35.48133892335755,10415.976706452617,1.215,1.245,1.328,1.353
-0.4,449997395.3258027,2.0966236591,36.47539469256078,10442.392185431736,1.187,1.219,1.305,1.33
-0.4,449997395.3258027,2.1321556568,39.71915494694403,10509.934271862176,1.105,1.141,1.232,1.259
-0.4,449997395.3258027,2.1796064377,44.46312674691086,10585.222712904098,0.994,1.034,1.131,1.16
-0.4,449997395.3258027,2.1922748089,45.81418867145335,10604.73938372333,0.964,1.005,1.104,1.134
-0.4,449997395.3258027,2.2270572186,49.77370849789361,10651.235816613796,0.881,0.925,1.026,1.057
-0.4,449997395.3258027,2.2522232533,52.84452517751805,10675.789450994953,0.819,0.865,0.969,1.0
-0.4,449997395.3258027,2.274507761,55.71857489319299,10690.548792226577,0.763,0.81,0.915,0.947
-0.4,449997395.3258027,2.3159477711,61.65950018614822,10695.473105661613,0.654,0.703,0.808,0.84
-0.4,449997395.3258027,2.3219587803,62.51726927756859,10695.473105661613,0.638,0.687,0.792,0.824
-0.4,449997395.3258027,2.3268275261,63.24118513762193,10695.473105661613,0.625,0.674,0.779,0.811
-0.4,449997395.3258027,2.3694093227,70.14552984199715,10673.331542618374,0.508,0.558,0.662,0.693
-0.4,449997395.3258027,2.3822526932,72.27698036021702,10665.961212302567,0.473,0.524,0.627,0.658
-0.4,449997395.3258027,2.4270560741,80.35261221856173,10599.856845091666,0.345,0.395,0.492,0.522
-0.4,449997395.3258027,2.4697260857,89.12509381337455,10488.176807749855,0.213,0.261,0.35,0.377
-0.4,449997395.3258027,2.5102462769,98.17479430199843,10337.130523505844,0.08,0.125,0.201,0.224
-0.4,449997395.3258027,2.5395202637,105.43868963912593,10178.880130154219,-0.025,0.015,0.077,0.097
-0.4,449997395.3258027,2.5592126846,110.66237839776664,10050.785394907376,-0.1,-0.064,-0.013,0.004
-0.4,449997395.3258027,2.5721235275,114.28783347897712,9958.639240535898,-0.15,-0.117,-0.074,-0.061
-0.4,449997395.3258027,2.5968089104,121.6186000646368,9756.633693709555,-0.25,-0.225,-0.202,-0.194
-0.4,449997395.3258027,2.6169381142,128.52866599436155,9591.797467879695,-0.337,-0.318,-0.313,-0.31
-0.4,449997395.3258027,2.6336307526,135.20725631942764,9486.368698664692,-0.409,-0.394,-0.4,-0.402
-0.4,449997395.3258027,2.6420550346,142.23287871228197,9658.284631620612,-0.439,-0.415,-0.403,-0.398
-0.4,449997395.3258027,2.6458952427,147.91083881682073,9860.524125308566,-0.449,-0.415,-0.382,-0.371
-0.4,449997395.3258027,2.6474485397,152.75660582380732,10078.595144150304,-0.449,-0.406,-0.353,-0.336
-0.4,449997395.3258027,2.6482613087,157.76112696993485,10299.117193407,-0.447,-0.397,-0.325,-0.302
-0.4,449997395.3258027,2.6487336159,163.68165214278085,10522.04124885243,-0.448,-0.391,-0.3,-0.272
-0.4,449997395.3258027,2.6490154266,169.82436524617444,10732.477829171974,-0.453,-0.389,-0.283,-0.25
-0.4,449997395.3258027,2.649235487,177.0108958317422,10949.64401466741,-0.459,-0.39,-0.269,-0.231
-0.4,449997395.3258027,2.6492927074,177.82794100389228,10987.528131180701,-0.457,-0.387,-0.264,-0.225
-0.4,449997395.3258027,2.6493933201,167.88040181225605,10836.773593579373,-0.421,-0.356,-0.242,-0.206
-0.4,449997395.3258027,2.6494779587,159.220872705117,10619.400497822226,-0.401,-0.341,-0.244,-0.213
-0.4,449997395.3258027,2.6495783329,154.88166189124811,10329.992352432302,-0.422,-0.371,-0.296,-0.272
-0.4,449997395.3258027,2.6496872902,157.39828644662197,10062.36345280598,-0.487,-0.444,-0.392,-0.375
-0.4,449997395.3258027,2.6498167515,162.9296032639723,9799.411610955944,-0.566,-0.533,-0.506,-0.496
-0.4,449997395.3258027,2.6499638557,167.49428760264382,9541.134102819798,-0.636,-0.613,-0.613,-0.612
-0.4,449997395.3258027,2.6501252651,170.215850839495,9289.663867799363,-0.689,-0.68,-0.71,-0.718
-0.4,449997395.3258027,2.6502988338,172.18685749860077,9044.8214904759,-0.729,-0.736,-0.799,-0.816
-0.4,449997395.3258027,2.6504819393,172.98163592151016,8806.432284180639,-0.758,-0.781,-0.881,-0.909
-0.4,449997395.3258027,2.6506714821,172.98163592151016,8572.352082084062,-0.774,-0.817,-0.958,-0.998
-0.4,449997395.3258027,2.6508629322,172.98163592151016,8344.49387082843,-0.776,-0.842,-1.03,-1.083
-0.4,449997395.3258027,2.6510534286,172.18685749860077,8120.822162499838,-0.764,-0.856,-1.098,-1.166
-0.4,449997395.3258027,2.651239872,170.60823890031244,7903.1459086447085,-0.739,-0.861,-1.163,-1.247
-0.4,449997395.3258027,2.6514203548,169.43378004473288,7691.304402866098,-0.701,-0.859,-1.224,-1.327
-0.4,449997395.3258027,2.6515932083,167.49428760264382,7483.417927401598,-0.653,-0.849,-1.283,-1.406
-0.4,449997395.3258027,2.6517574787,165.57699634695277,7279.474013242674,-0.599,-0.834,-1.339,-1.484
-0.4,449997395.3258027,2.6519126892,163.30519478943347,7082.718805467454,-0.541,-0.812,-1.39,-1.56
-0.4,449997395.3258027,2.6520590782,160.69412530128773,6889.695054811368,-0.479,-0.786,-1.438,-1.633
-0.4,449997395.3258027,2.652197361,158.12480392703827,6703.475091727316,-0.412,-0.757,-1.483,-1.704
-0.4,449997395.3258027,2.652327776,155.23870099580816,6525.29274119251,-0.339,-0.724,-1.524,-1.772
-0.4,449997395.3258027,2.6524527073,152.05475297324955,6354.77239048616,-0.261,-0.687,-1.56,-1.836
-0.4,449997395.3258027,2.6525797844,148.59356422870076,6191.558775938767,-0.176,-0.646,-1.591,-1.894
-0.4,449997395.3258027,2.652721405,144.21153515248682,6029.759632855554,-0.078,-0.594,-1.614,-1.948
-0.4,449997395.3258027,2.6528997421,137.72094688939458,5864.081532764765,0.048,-0.521,-1.624,-1.994
-0.4,449997395.3258027,2.653069973,130.9181922999407,5741.164622073275,0.161,-0.445,-1.609,-2.005
-0.4,449997395.3258027,2.6532540321,122.4616199265049,5628.594992827296,0.287,-0.353,-1.574,-1.996
-0.4,449997395.3258027,2.6534292698,114.55129414455361,5533.501092157366,0.408,-0.259,-1.531,-1.975
-0.4,449997395.3258027,2.6536033154,107.3989412341245,5443.7729090664825,0.524,-0.17,-1.49,-1.955
-0.4,449997395.3258027,2.6538124084,102.32929922807536,5341.952229293112,0.634,-0.095,-1.472,-1.961
-0.4,449997395.3258027,2.6538903713,101.15794542598982,5305.178488808972,0.67,-0.072,-1.47,-1.969
-0.4,449997395.3258027,2.6539709568,102.5651926251408,5271.08476236396,0.676,-0.078,-1.495,-2.003
-0.4,449997395.3258027,2.6542048454,108.89300933334333,5177.260290506427,0.669,-0.117,-1.591,-2.123
-0.4,449997395.3258027,2.6544249058,119.1242008027375,5106.225616299567,0.617,-0.193,-1.71,-2.261
-0.4,449997395.3258027,2.6546339989,129.41958414499862,5055.917747662187,0.56,-0.267,-1.817,-2.382
-0.4,449997395.3258027,2.6548948288,141.90575216890926,5008.411452998231,0.496,-0.351,-1.932,-2.51
-0.4,449997395.3258027,2.6551556587,154.170045294956,4968.210633313916,0.438,-0.426,-2.034,-2.624
-0.4,449997395.3258027,2.6554684639,169.43378004473288,4926.063433495771,0.37,-0.513,-2.151,-2.752
-0.4,449997395.3258027,2.6555726528,174.5822152920504,4912.471004503345,0.348,-0.542,-2.189,-2.794
-0.4,449997395.3258027,2.6556456089,178.64875748520498,4902.30130136168,0.332,-0.562,-2.216,-2.823
-0.4,449997395.3258027,2.6556820869,180.71741260109275,4897.7881936844615,0.324,-0.572,-2.229,-2.838
-0.4,449997395.3258027,2.6558539867,190.10782799232996,4876.407606118823,0.286,-0.62,-2.293,-2.908
-0.4,449997395.3258027,2.6561405659,207.9696687103696,4841.7236758409945,0.222,-0.7,-2.399,-3.025
-0.4,449997395.3258027,2.6564838886,231.20647901755942,4801.755030139799,0.144,-0.798,-2.526,-3.164
-0.4,449997395.3258027,2.6567699909,252.34807724805754,4768.699981017778,0.079,-0.879,-2.632,-3.28
-0.4,449997395.3258027,2.6570558548,275.4228703338166,4736.963081746328,0.016,-0.959,-2.738,-3.396
-0.4,449997395.3258027,2.6573414803,301.3006024186122,4705.437399531806,-0.049,-1.039,-2.843,-3.511
-0.4,449997395.3258027,2.6576271057,328.85163087598295,4675.197908845073,-0.11,-1.121,-2.949,-3.626
-0.4,449997395.3258027,2.6579124928,359.74933515574236,4643.01407281803,-0.167,-1.203,-3.056,-3.74
-0.4,449997395.3258027,2.6581978798,394.4573020752785,4611.051788759832,-0.224,-1.286,-3.164,-3.856
-0.4,449997395.3258027,2.6584718227,430.5266104917105,4580.364077908267,-0.278,-1.366,-3.268,-3.969
-0.4,449997395.3258027,2.6588382721,478.6300923226385,4541.507126325547,-0.342,-1.46,-3.394,-4.106
-0.4,449997395.3258027,2.6590483189,503.50060878790475,4523.764623324995,-0.372,-1.505,-3.454,-4.171
-0.4,449997395.3258027,2.6594040394,479.73344863668916,4542.552967388711,-0.345,-1.463,-3.397,-4.108
-0.4,449997395.3258027,2.6599972248,446.683592150963,4569.82953285961,-0.305,-1.401,-3.312,-4.015
-0.4,449997395.3258027,2.6607940197,417.83036664662177,4595.153251697754,-0.265,-1.341,-3.231,-3.927
-0.4,449997395.3258027,2.6617426872,388.15036599064825,4622.74566491089,-0.222,-1.276,-3.144,-3.833
-0.4,449997395.3258027,2.6626124382,362.24299841669875,4649.433066875436,-0.18,-1.213,-3.06,-3.742
-0.4,449997395.3258027,2.6633398533,339.62527259040854,4674.121528671508,-0.141,-1.156,-2.984,-3.66
-0.4,449997395.3258027,2.6639852524,319.15378551007615,4697.859239439367,-0.103,-1.099,-2.909,-3.58
-0.4,449997395.3258027,2.664639473,298.538261891796,4722.804843922316,-0.057,-1.039,-2.829,-3.492
-0.4,449997395.3258027,2.6653051376,278.61211686297696,4750.069893831193,-0.007,-0.976,-2.745,-3.399
-0.4,449997395.3258027,2.6659870148,258.82129151530904,4777.4923465909405,0.045,-0.91,-2.657,-3.302
-0.4,449997395.3258027,2.6668047905,236.59196974857588,4811.716152521639,0.108,-0.83,-2.55,-3.185
-0.4,449997395.3258027,2.6675982475,217.7709772353159,4845.069375499792,0.17,-0.753,-2.449,-3.074
-0.4,449997395.3258027,2.668500185,199.06733389871863,4879.77727286486,0.235,-0.671,-2.341,-2.955
-0.4,449997395.3258027,2.6695683002,181.13400926196024,4919.262524341649,0.303,-0.585,-2.227,-2.829
-0.4,449997395.3258027,2.671295166,160.69412530128773,4971.643737252428,0.391,-0.473,-2.078,-2.666
-0.4,449997395.3258027,2.6735498905,144.21153515248682,5028.054772806391,0.462,-0.377,-1.944,-2.516
-0.4,449997395.3258027,2.6777837276,131.2199899019203,5108.5776616335625,0.509,-0.301,-1.817,-2.367
-0.4,449997395.3258027,2.6802220345,127.35030810166616,5149.914276478671,0.514,-0.281,-1.771,-2.31
-0.4,449997395.3258027,2.6836144924,130.016957803329,5191.585371063544,0.466,-0.314,-1.779,-2.307
-0.4,449997395.3258027,2.7119264603,152.40527537972906,5242.036010084628,0.26,-0.503,-1.937,-2.451
-0.4,449997395.3258027,2.7342414856,172.98163592151016,5252.910484500485,0.118,-0.643,-2.07,-2.581
-0.4,449997395.3258027,2.7490158081,187.49945080674192,5254.120151100796,0.03,-0.732,-2.158,-2.668
-0.4,449997395.3258027,2.7687728405,208.92961308540387,5254.120151100796,-0.088,-0.851,-2.277,-2.787
-0.4,449997395.3258027,2.7778289318,219.28049353504497,5251.701096404131,-0.138,-0.903,-2.33,-2.84
-0.4,449997395.3258027,2.8026165962,237.13737056616552,5176.068319505676,-0.171,-0.966,-2.439,-2.968
-0.4,449997395.3258027,2.8115727901,241.54608344449403,5128.613839913648,-0.16,-0.973,-2.476,-3.017
-0.4,449997395.3258027,2.821141243,243.2204009073816,5033.846868348144,-0.099,-0.948,-2.513,-3.08
-0.4,449997395.3258027,2.8241350651,259.4179362118815,4924.929296050273,-0.083,-0.977,-2.615,-3.214
-0.4,449997395.3258027,2.8246107101,279.8981319634363,4867.433199621377,-0.118,-1.037,-2.716,-3.332
-0.4,449997395.3258027,2.8247663975,304.7894989627983,4820.587829837399,-0.167,-1.108,-2.822,-3.453
-0.4,449997395.3258027,2.8247668743,304.7894989627983,4819.477976251272,-0.167,-1.108,-2.823,-3.453
-0.4,449997395.3258027,2.8248524666,338.0648362059815,4770.896554256487,-0.234,-1.198,-2.95,-3.596
-0.4,449997395.3258027,2.8249220848,365.59479161312504,4736.963081746328,-0.283,-1.268,-3.047,-3.702
-0.4,449997395.3258027,2.8252074718,368.1289736425313,4735.872481253356,-0.289,-1.275,-3.054,-3.709
-0.4,449997395.3258027,2.8265523911,356.45113342624427,4747.882909415973,-0.269,-1.246,-3.016,-3.669
-0.4,449997395.3258027,2.8270530701,386.36697705406937,4710.8578542037,-0.314,-1.317,-3.115,-3.777
-0.4,449997395.3258027,2.8275084496,422.66861426560286,4674.121528671508,-0.366,-1.397,-3.222,-3.893
-0.4,449997395.3258027,2.8280353546,461.31757456037957,4636.603940805552,-0.417,-1.475,-3.33,-4.011
-0.4,449997395.3258027,2.8286039829,506.99070827470445,4598.328567699996,-0.469,-1.557,-3.442,-4.134
-0.4,449997395.3258027,2.8291506767,557.1857489319299,4561.419344219829,-0.523,-1.64,-3.555,-4.257
-0.4,449997395.3258027,2.829665184,612.3503917247733,4520.640796485013,-0.571,-1.719,-3.669,-4.383
-0.4,449997395.3258027,2.8301465511,672.9766562843175,4482.290499966203,-0.623,-1.8,-3.782,-4.509
-0.4,449997395.3258027,2.8305888176,741.3102413009177,4425.883723626264,-0.65,-1.867,-3.9,-4.645
-0.4,449997395.3258027,2.8309898376,814.7042840208396,4391.369690244064,-0.703,-1.948,-4.012,-4.769
-0.4,449997395.3258027,2.8313508034,897.4287945007482,4357.124805030842,-0.755,-2.024,-4.125,-4.895
-0.4,449997395.3258027,2.8316748142,986.279485631211,4321.1565447029925,-0.803,-2.097,-4.237,-5.022
-0.4,449997395.3258027,2.8319694996,1083.9269140212039,4280.55419586204,-0.843,-2.165,-4.35,-5.152
-0.4,449997395.3258027,2.8322396278,1191.242008027375,4247.173474714387,-0.891,-2.236,-4.461,-5.278
-0.4,449997395.3258027,2.83248806,1309.181922999407,4213.082854040085,-0.937,-2.306,-4.571,-5.403
-0.4,449997395.3258027,2.8327174187,1438.798578255845,4180.228289540325,-0.981,-2.375,-4.681,-5.528
-0.4,449997395.3258027,2.8329284191,1581.2480392703826,4146.675015156991,-1.024,-2.442,-4.791,-5.653
-0.4,449997395.3258027,2.8331239223,1737.8008287493763,4113.391061524547,-1.064,-2.508,-4.9,-5.778
-0.4,449997395.3258027,2.8333051205,1909.8532585662388,4079.4348341609566,-1.104,-2.573,-5.01,-5.904
-0.4,449997395.3258027,2.8334727287,2098.9398836235246,4046.6905946508737,-1.137,-2.633,-5.119,-6.029
-0.4,449997395.3258027,2.8336284161,2306.747188720069,4013.284982627411,-1.168,-2.692,-5.228,-6.154
-0.4,449997395.3258027,2.8337738514,2529.2979964461447,3980.155135426724,-1.198,-2.749,-5.337,-6.279
-0.4,449997395.3258027,2.8339102268,2779.7132677592886,3946.3899820986467,-1.224,-2.801,-5.445,-6.404
-0.4,449997395.3258027,2.8340392113,3047.8949896279833,3912.911271268528,-1.248,-2.853,-5.553,-6.529
-0.4,449997395.3258027,2.8341612816,3341.950400261143,3878.8233380237325,-1.269,-2.9,-5.661,-6.655
-0.4,449997395.3258027,2.8342778683,3664.3757464783334,3845.032367094809,-1.287,-2.942,-5.768,-6.779
-0.4,449997395.3258027,2.8343904018,4017.9081084894,3810.65823393773,-1.302,-2.983,-5.875,-6.904
-0.4,449997395.3258027,2.8345005512,4405.548635065535,3776.591401452663,-1.309,-3.012,-5.981,-7.028
-0.4,449997395.3258027,2.8346092701,4808.393484497285,3741.105882720533,-1.307,-3.032,-6.086,-7.151
-0.4,449997395.3258027,2.8347465992,5321.082592667942,3702.5420540013483,-1.299,-3.047,-6.206,-7.29
-0.4,449997395.3258027,2.8349325657,5970.352865838366,3656.789826173249,-1.279,-3.047,-6.343,-7.45
-0.4,449997395.3258027,2.8349924088,6266.138646723356,3637.4748564263245,-1.271,-3.048,-6.403,-7.52
-0.4,449997395.3258027,2.835069418,6194.410750767812,3642.503686647633,-1.274,-3.049,-6.388,-7.502
-0.4,449997395.3258027,2.8350975513,5861.3816451402845,3665.219597323419,-1.284,-3.05,-6.322,-7.424
-0.4,449997395.3258027,2.8351168633,5834.451042737448,3667.7523159949515,-1.288,-3.053,-6.316,-7.417
-0.4,449997395.3258027,2.8351278305,5874.893525297769,3664.3757464783334,-1.286,-3.052,-6.326,-7.429
-0.4,449997395.3258027,2.835133791,6251.726927756856,3639.9884030888024,-1.274,-3.051,-6.398,-7.514
-0.4,449997395.3258027,2.8351416588,6561.452663029057,3619.928562242391,-1.257,-3.039,-6.457,-7.582
-0.4,449997395.3258027,2.8351597786,7063.175542629623,3589.2193464500533,-1.231,-3.016,-6.548,-7.686
-0.4,449997395.3258027,2.8351616859,6053.408747539136,3650.900524844982,-1.275,-3.047,-6.361,-7.471
-0.4,449997395.3258027,2.8351619244,6426.877173170194,3629.108896409478,-1.266,-3.047,-6.431,-7.552
-0.4,449997395.3258027,2.8351621628,7144.963260755135,3584.2640804371426,-1.225,-3.012,-6.563,-7.703
-0.4,449997395.3258027,2.8351626396,6918.309709189362,3598.321800388802,-1.239,-3.024,-6.522,-7.657
-0.4,449997395.3258027,2.835162878,6591.738952443213,3618.2619073242986,-1.257,-3.04,-6.462,-7.588
-0.4,449997395.3258027,2.8351631165,6266.138646723356,3638.3125123993877,-1.271,-3.049,-6.403,-7.519
-0.4,449997395.3258027,2.835164547,5970.352865838366,3655.9479161312506,-1.278,-3.047,-6.345,-7.452
-0.4,449997395.3258027,2.8351695538,6095.368972401694,3649.2196100947112,-1.275,-3.048,-6.368,-7.479
-0.4,449997395.3258027,2.8351726532,6426.877173170194,3628.273359403348,-1.265,-3.047,-6.432,-7.553
-0.4,449997395.3258027,2.8351762295,6776.41507610675,3606.6167888195973,-1.248,-3.032,-6.498,-7.629
-0.4,449997395.3258027,2.8351809978,7128.530301265198,3585.9150751717484,-1.228,-3.014,-6.56,-7.701
-0.4,449997395.3258027,2.835187912,7481.6950051115455,3566.1532304264047,-1.208,-2.997,-6.619,-7.769
-0.4,449997395.3258027,2.835201025,8260.379495771784,3525.3318119588625,-1.155,-2.941,-6.738,-7.907
-0.4,449997395.3258027,2.8352181911,8689.60429286302,3503.482883015712,-1.118,-2.899,-6.801,-7.98
-0.4,449997395.3258027,2.8352203369,8689.60429286302,3503.482883015712,-1.118,-2.899,-6.801,-7.98
-0.4,449997395.3258027,2.8352210522,9375.620069258803,3486.582933528731,-1.124,-2.906,-6.891,-8.077
-0.4,449997395.3258027,2.8352210522,9375.620069258803,3487.385841352184,-1.124,-2.906,-6.89,-8.076
-0.4,449997395.3258027,2.8352224827,6982.324040771711,3604.956262788377,-1.268,-3.056,-6.531,-7.663
-0.4,449997395.3258027,2.8352248669,5236.0043658575005,3724.774624863983,-1.341,-3.084,-6.184,-7.256
-0.4,449997395.3258027,2.8352282047,5571.857489319298,3697.4303349809716,-1.328,-3.084,-6.259,-7.345
-0.4,449997395.3258027,2.8352324963,6531.305526474723,3631.616662075049,-1.288,-3.073,-6.449,-7.569
-0.4,449997395.3258027,2.8352382183,7603.262769401815,3568.617492834813,-1.231,-3.022,-6.634,-7.782
-0.4,449997395.3258027,2.8352451324,8413.951416451948,3526.9556611308685,-1.177,-2.967,-6.76,-7.928
-0.4,449997395.3258027,2.8352534771,8892.011178579482,3504.2896826443844,-1.141,-2.926,-6.827,-8.005
-0.4,449997395.3258027,2.8352632523,9141.132414702499,3492.2071726340682,-1.12,-2.903,-6.86,-8.043
-0.4,449997395.3258027,2.8352744579,9289.663867799363,3484.175319018589,-1.105,-2.885,-6.881,-8.069
-0.4,449997395.3258027,2.8352746964,12912.192736135336,3356.603166999334,-0.798,-2.501,-7.292,-8.533
-0.4,449997395.3258027,2.8352754116,10046.157902783947,3453.027205056406,-1.048,-2.818,-6.979,-8.18
-0.4,449997395.3258027,2.8352770805,7498.942093324558,3569.4392919884644,-1.22,-3.011,-6.62,-7.768
-0.4,449997395.3258027,2.8352797031,5610.479760324706,3688.0771722615455,-1.309,-3.067,-6.269,-7.36
-0.4,449997395.3258027,2.8352835178,5970.352865838366,3662.6886275878364,-1.293,-3.062,-6.343,-7.447
-0.4,449997395.3258027,2.8352885246,6982.324040771711,3597.4933515574235,-1.243,-3.03,-6.532,-7.667
-0.4,449997395.3258027,2.8352949619,8090.958991783821,3537.5289282243193,-1.179,-2.969,-6.712,-7.875
-0.4,449997395.3258027,2.8353028297,8933.054837332953,3497.0351694345923,-1.116,-2.898,-6.833,-8.015
-0.4,449997395.3258027,2.8353123665,9397.233105646375,3475.3616144320576,-1.082,-2.859,-6.896,-8.087
-0.4,449997395.3258027,2.8353235722,9594.006315159337,3465.7720899354867,-1.063,-2.837,-6.924,-8.12
-0.4,449997395.3258027,2.8353366852,9727.47223776965,3459.3937782612206,-1.046,-2.817,-6.94,-8.139
-0.4,449997395.3258027,2.8353369236,13583.134465871542,3329.660852068807,-0.693,-2.369,-7.358,-8.61
-0.4,449997395.3258027,2.8353378773,10592.537251772897,3426.099724881373,-0.971,-2.724,-7.045,-8.258
-0.4,449997395.3258027,2.8353395462,7906.786279998253,3541.6040042646177,-1.175,-2.966,-6.687,-7.848
-0.4,449997395.3258027,2.8353426456,5915.616341754737,3661.0022854654303,-1.28,-3.048,-6.334,-7.438
-0.4,449997395.3258027,2.8353471756,6295.061828571975,3634.9630454608155,-1.263,-3.043,-6.407,-7.525
-0.4,449997395.3258027,2.8353531361,7345.138681571151,3570.2612803901543,-1.203,-2.992,-6.596,-7.744
-0.4,449997395.3258027,2.835360527,8491.804750363135,3510.750771848301,-1.123,-2.906,-6.774,-7.949
-0.4,449997395.3258027,2.8353698254,9354.05674147552,3470.5635400798756,-1.059,-2.834,-6.893,-8.087
-0.4,449997395.3258027,2.835381031,9817.479430199845,3449.848313627505,-1.014,-2.778,-6.955,-8.158
-0.4,449997395.3258027,2.8353941441,10046.157902783947,3440.329187682278,-0.987,-2.747,-6.983,-8.19
-0.4,449997395.3258027,2.8354094028,10162.486928706949,3433.99770042585,-0.969,-2.725,-6.999,-8.208
-0.4,449997395.3258027,2.8354096413,14256.075936021878,3302.1743526707673,-0.566,-2.207,-7.424,-8.686
-0.4,449997395.3258027,2.8354105949,11117.317272815919,3397.8171182708334,-0.885,-2.619,-7.111,-8.336
-0.4,449997395.3258027,2.8354127407,8336.81184619634,3513.176750372876,-1.115,-2.897,-6.753,-7.927
-0.4,449997395.3258027,2.8354160786,6223.002851691595,3633.2894685013125,-1.248,-3.028,-6.397,-7.516
-0.4,449997395.3258027,2.8354208469,6622.165037017622,3606.6167888195973,-1.223,-3.007,-6.472,-7.603
-0.4,449997395.3258027,2.8354272842,7709.034690644301,3543.2353487838454,-1.157,-2.946,-6.659,-7.819
-0.4,449997395.3258027,2.8354353905,8892.011178579482,3484.175319018589,-1.063,-2.839,-6.834,-8.022
-0.4,449997395.3258027,2.8354454041,9772.372209558112,3445.08546286579,-0.985,-2.745,-6.951,-8.156
-0.4,449997395.3258027,2.8354575634,10256.519262514079,3424.5223108915197,-0.934,-2.683,-7.012,-8.225
-0.4,449997395.3258027,2.8354718685,10471.285480508985,3414.286807579689,-0.907,-2.65,-7.039,-8.256
-0.4,449997395.3258027,2.8354883194,10592.537251772897,3408.0032480036516,-0.888,-2.627,-7.054,-8.274
-0.4,449997395.3258027,2.8354885578,14927.944095789975,3274.1607653757505,-0.418,-2.011,-7.487,-8.759
-0.4,449997395.3258027,2.8354895115,11668.09617060963,3369.7679858440365,-0.78,-2.49,-7.175,-8.411
-0.4,449997395.3258027,2.8354916573,8749.837752274363,3484.9776724044846,-1.05,-2.826,-6.816,-8.003
-0.4,449997395.3258027,2.8354952335,6531.305526474723,3605.7864302164235,-1.206,-2.989,-6.458,-7.589
-0.4,449997395.3258027,2.8355002403,6934.258060165695,3580.1399184306892,-1.179,-2.965,-6.532,-7.675
-0.4,449997395.3258027,2.835506916,8072.350302488382,3516.4139963166635,-1.096,-2.878,-6.716,-7.888
-0.4,449997395.3258027,2.8355154991,9268.298233793494,3458.597315106485,-0.997,-2.764,-6.887,-8.086
-0.4,449997395.3258027,2.8355259895,10139.1138573668,3420.581952567498,-0.907,-2.653,-7.001,-8.216
-0.4,449997395.3258027,2.8355386257,10616.955571987242,3401.731252517908,-0.856,-2.59,-7.058,-8.281
-0.4,449997395.3258027,2.8355536461,10814.339512979375,3392.3448954144324,-0.83,-2.558,-7.081,-8.309
-0.4,449997395.3258027,2.8355708122,10914.40336448757,3386.881485634765,-0.811,-2.536,-7.093,-8.323
-0.4,449997395.3258027,2.8355710506,15417.004529495583,3250.124518861833,-0.281,-1.831,-7.535,-8.815
-0.4,449997395.3258027,2.8355722427,12078.138351067797,3345.8001785330107,-0.676,-2.363,-7.223,-8.468
-0.4,449997395.3258027,2.8355743885,9078.205301781862,3460.9872548535277,-0.986,-2.753,-6.864,-8.063
-0.4,449997395.3258027,2.8355779648,6776.41507610675,3582.613845838672,-1.164,-2.949,-6.504,-7.646
-0.4,449997395.3258027,2.8355834484,7194.489780036998,3556.3131856898544,-1.136,-2.923,-6.578,-7.732
-0.4,449997395.3258027,2.8355903625,8336.81184619634,3493.8157638329217,-1.038,-2.814,-6.759,-7.943
-0.4,449997395.3258027,2.8355994225,9549.92586021436,3437.1619861753497,-0.924,-2.677,-6.928,-8.136
-0.4,449997395.3258027,2.8356106281,10423.174293933036,3399.3822312328007,-0.83,-2.562,-7.039,-8.263
-0.4,449997395.3258027,2.8356239796,10889.300933334333,3380.6483620598156,-0.773,-2.49,-7.094,-8.326
-0.4,449997395.3258027,2.8356399536,11066.237839776653,3372.096543265998,-0.739,-2.448,-7.116,-8.352
-0.4,449997395.3258027,2.8356580734,11142.945335917293,3366.665743686229,-0.717,-2.421,-7.127,-8.364
-0.4,449997395.3258027,2.8356583118,15848.93192461114,3227.007687515532,-0.144,-1.653,-7.576,-8.863
-0.4,449997395.3258027,2.8356592655,12445.146117713844,3322.7678521107573,-0.568,-2.23,-7.264,-8.519
-0.4,449997395.3258027,2.8356616497,9375.620069258803,3437.1619861753497,-0.906,-2.659,-6.907,-8.115
-0.4,449997395.3258027,2.835665226,6982.324040771711,3560.4099003595707,-1.117,-2.903,-6.544,-7.696
-0.4,449997395.3258027,2.8356704712,7413.102413009177,3534.2722436627364,-1.079,-2.863,-6.618,-7.783
-0.4,449997395.3258027,2.8356773853,8570.378452303692,3471.362758876978,-0.974,-2.744,-6.798,-7.992
-0.4,449997395.3258027,2.8356862068,9794.89985408699,3415.0730666882723,-0.842,-2.582,-6.965,-8.183
-0.4,449997395.3258027,2.8356971741,10665.961212302567,3377.5361033186905,-0.738,-2.452,-7.074,-8.307
-0.4,449997395.3258027,2.8357102871,11142.945335917293,3358.9226273449517,-0.67,-2.365,-7.128,-8.369
-0.4,449997395.3258027,2.8357257843,11324.003632355578,3349.654391578276,-0.633,-2.32,-7.15,-8.394
-0.4,449997395.3258027,2.8357436657,11402.497875611696,3344.2597353373435,-0.607,-2.288,-7.161,-8.407
-0.4,449997395.3258027,2.8357439041,16255.48755750485,3202.5800946290287,-0.0,-1.466,-7.617,-8.912
-0.4,449997395.3258027,2.8357448578,12793.813041575253,3297.6153801591913,-0.433,-2.06,-7.306,-8.57
-0.4,449997395.3258027,2.835747242,9638.290236239705,3411.9291162192844,-0.812,-2.549,-6.949,-8.169
-0.4,449997395.3258027,2.8357508183,7177.942912713615,3535.90021100387,-1.053,-2.837,-6.584,-7.747
-0.4,449997395.3258027,2.835755825,7620.790100254122,3509.1343835855246,-1.007,-2.785,-6.658,-7.834
-0.4,449997395.3258027,2.8357627392,8810.488730080138,3446.6723487178924,-0.889,-2.646,-6.837,-8.041
-0.4,449997395.3258027,2.8357715607,10046.157902783947,3390.783022519265,-0.748,-2.472,-7.002,-8.23
-0.4,449997395.3258027,2.8357822895,10914.40336448757,3354.2853083268956,-0.623,-2.313,-7.11,-8.352
-0.4,449997395.3258027,2.8357954025,11376.27285823431,3335.031958716416,-0.553,-2.224,-7.163,-8.413
-0.4,449997395.3258027,2.8358106613,11561.122421920982,3325.8296441911734,-0.514,-2.176,-7.185,-8.438
-0.4,449997395.3258027,2.8358283043,11641.260294104908,3319.708878746796,-0.485,-2.141,-7.195,-8.451
-0.4,449997395.3258027,2.8358285427,16672.472125510645,3176.8740706497692,0.155,-1.266,-7.658,-8.961
-0.4,449997395.3258027,2.8358294964,13121.998990192042,3271.1465401826636,-0.275,-1.857,-7.348,-8.621
-0.4,449997395.3258027,2.8358316422,9931.160484209335,3384.542718663093,-0.704,-2.422,-6.991,-8.222
-0.4,449997395.3258027,2.8358352184,7379.042301291008,3508.326468551656,-0.973,-2.749,-6.623,-7.799
-0.4,449997395.3258027,2.8358402252,7852.356346100718,3481.769367055342,-0.925,-2.695,-6.697,-7.887
-0.4,449997395.3258027,2.8358469009,9036.494737223014,3419.794425137087,-0.786,-2.526,-6.876,-8.092
-0.4,449997395.3258027,2.8358557224,10280.162981264724,3364.340936432299,-0.623,-2.322,-7.039,-8.278
-0.4,449997395.3258027,2.8358662128,11168.632477805611,3328.1278395965264,-0.494,-2.157,-7.146,-8.398
-0.4,449997395.3258027,2.835878849,11641.260294104908,3309.0246319221333,-0.417,-2.06,-7.198,-8.458
-0.4,449997395.3258027,2.8358938694,11803.206356517298,3299.1343378886454,-0.367,-1.994,-7.22,-8.483
-0.4,449997395.3258027,2.835911274,11885.022274370189,3292.3045333340656,-0.328,-1.944,-7.231,-8.496
-0.4,449997395.3258027,2.8359115124,17100.15315090286,3149.1982396022863,0.31,-1.069,-7.699,-9.01
-0.4,449997395.3258027,2.835912466,13458.60354055947,3242.649439899697,-0.094,-1.625,-7.39,-8.673
-0.4,449997395.3258027,2.8359146118,10209.394837076808,3354.2853083268956,-0.556,-2.243,-7.035,-8.277
-0.4,449997395.3258027,2.8359179497,7585.775750291836,3476.9624461781286,-0.87,-2.637,-6.662,-7.854
-0.4,449997395.3258027,2.8359229565,8053.784411990669,3449.848313627505,-0.812,-2.567,-6.738,-7.941
-0.4,449997395.3258027,2.8359296322,9268.298233793494,3389.221868727554,-0.66,-2.38,-6.915,-8.145
-0.4,449997395.3258027,2.8359379768,10519.618738232235,3335.031958716416,-0.474,-2.143,-7.077,-8.327
-0.4,449997395.3258027,2.8359482288,11402.497875611696,3299.8940791083483,-0.336,-1.963,-7.181,-8.444
-0.4,449997395.3258027,2.835960865,11857.687481671597,3281.708485445259,-0.245,-1.843,-7.233,-8.502
-0.4,449997395.3258027,2.8359754086,12050.359403717986,3271.899836231792,-0.193,-1.774,-7.254,-8.526
-0.4,449997395.3258027,2.8359923363,12105.981335504828,3265.126412019571,-0.151,-1.722,-7.264,-8.538
-0.4,449997395.3258027,2.8359925747,17458.22152920504,3126.799256376112,-1.252,-3.497,-7.509,-8.925
-0.4,449997395.3258027,2.8359932899,13772.094688939473,3215.8812236044914,-1.283,-3.437,-7.245,-8.606
-0.4,449997395.3258027,2.8359949589,10447.202192208004,3322.7678521107573,-1.32,-3.368,-6.942,-8.234
-0.4,449997395.3258027,2.8359975815,7762.4711662869195,3441.9138826842905,-1.306,-3.27,-6.621,-7.832
-0.4,449997395.3258027,2.8360013962,8241.38115013002,3418.219914176575,-1.308,-3.29,-6.685,-7.913
-0.4,449997395.3258027,2.836006403,9484.184633008968,3362.791956867804,-1.318,-3.338,-6.836,-8.101
-0.4,449997395.3258027,2.8360128403,10739.89412341244,3314.36245009259,-1.326,-3.38,-6.97,-8.268
-0.4,449997395.3258027,2.8360207081,11614.486138403438,3284.7324430306794,-1.317,-3.401,-7.057,-8.374
-0.4,449997395.3258027,2.8360302448,12050.359403717986,3271.899836231792,-0.187,-1.772,-7.256,-8.528
-0.4,449997395.3258027,2.8360414505,12217.99660164871,3269.640468343053,-0.178,-1.759,-7.272,-8.546
-0.4,449997395.3258027,2.8360545635,12302.68770812381,3271.1465401826636,-0.19,-1.775,-7.278,-8.551
-0.4,449997395.3258027,2.8360548019,17782.794100389227,3130.401190096238,-1.403,-3.587,-7.53,-8.935
-0.4,449997395.3258027,2.8360555172,14028.13704561959,3218.844524111849,-1.411,-3.511,-7.264,-8.618
-0.4,449997395.3258027,2.8360569477,10665.961212302567,3325.8296441911734,-1.431,-3.431,-6.96,-8.248
-0.4,449997395.3258027,2.8360595703,7906.786279998253,3445.8788144433506,-1.399,-3.323,-6.638,-7.846
-0.4,449997395.3258027,2.836063385,8394.599865193974,3420.581952567498,-1.406,-3.345,-6.702,-7.927
-0.4,449997395.3258027,2.8360683918,9638.290236239705,3362.017734543793,-1.414,-3.39,-6.852,-8.115
-0.4,449997395.3258027,2.8360745907,10914.40336448757,3309.786650728407,-1.412,-3.425,-6.985,-8.284
-0.4,449997395.3258027,2.8360824585,11776.059735208066,3275.668919368471,-1.395,-3.44,-7.071,-8.391
-0.4,449997395.3258027,2.8360917568,12246.16199265049,3257.616829660631,-1.382,-3.443,-7.112,-8.443
-0.4,449997395.3258027,2.8361029625,12416.523075924119,3250.124518861833,-1.364,-3.438,-7.128,-8.464
-0.4,449997395.3258027,2.8361155987,12473.835142429432,3247.1324216780226,-1.31,-3.414,-7.135,-8.475
-0.4,449997395.3258027,2.8361158371,18071.74126010926,3087.450475587445,-1.294,-3.516,-7.554,-8.981
-0.4,449997395.3258027,2.8361165524,14288.939585111037,3186.3978473281713,-1.339,-3.466,-7.284,-8.658
-0.4,449997395.3258027,2.8361179829,10864.256236170644,3306.739627988452,-1.396,-3.413,-6.981,-8.281
-0.4,449997395.3258027,2.8361203671,8053.784411990669,3443.4993076333844,-1.414,-3.339,-6.658,-7.868
-0.4,449997395.3258027,2.8361239433,8550.667128846831,3412.7148323868673,-1.407,-3.35,-6.722,-7.952
-0.4,449997395.3258027,2.8361287117,9817.479430199845,3342.7200013786605,-1.385,-3.373,-6.871,-8.147
-0.4,449997395.3258027,2.8361349106,11091.748152624008,3278.687311745482,-1.341,-3.38,-7.003,-8.321
-0.4,449997395.3258027,2.8361423016,11967.405313072442,3232.2132033960884,-1.292,-3.371,-7.088,-8.435
-0.4,449997395.3258027,2.8361513615,12416.523075924119,3202.5800946290287,-1.248,-3.352,-7.129,-8.494
-0.4,449997395.3258027,2.8361620903,12589.254117941662,3181.2661175961725,-1.204,-3.326,-7.144,-8.523
-0.4,449997395.3258027,2.8361742496,12647.363474711523,3160.8217127583484,-1.156,-3.293,-7.151,-8.542
-0.4,449997395.3258027,2.8361744881,18365.383433483476,2970.9818591187295,-0.98,-3.295,-7.573,-9.048
-0.4,449997395.3258027,2.8361752033,14521.11617587742,3088.1614691845125,-1.088,-3.294,-7.312,-8.742
-0.4,449997395.3258027,2.8361766338,11066.237839776653,3230.7250568928803,-1.211,-3.286,-7.0,-8.35
-0.4,449997395.3258027,2.836179018,8203.515443298185,3392.3448954144324,-1.313,-3.269,-6.676,-7.92
-0.4,449997395.3258027,2.8361823559,8709.635899560806,3354.2853083268956,-1.287,-3.266,-6.74,-8.009
-0.4,449997395.3258027,2.8361871243,9977.000638225536,3274.1607653757505,-1.229,-3.264,-6.887,-8.209
-0.4,449997395.3258027,2.8361928463,11246.049739669268,3202.5800946290287,-1.153,-3.251,-7.02,-8.387
-0.4,449997395.3258027,2.8362002373,12133.888504649762,3153.5520245507173,-1.094,-3.235,-7.106,-8.501
-0.4,449997395.3258027,2.8362088203,12589.254117941662,3123.920693664115,-1.047,-3.214,-7.148,-8.56
-0.4,449997395.3258027,2.8362190723,12735.030810166629,3103.1302147534125,-1.002,-3.187,-7.165,-8.588
-0.4,449997395.3258027,2.8362309933,12793.813041575253,3083.1879502493534,-0.951,-3.153,-7.172,-8.605
-0.4,449997395.3258027,2.8362312317,18620.871366628657,2896.6765264870983,-0.773,-3.154,-7.599,-9.097
-0.4,449997395.3258027,2.8362317085,14757.065332758932,3010.2322206633794,-0.878,-3.149,-7.33,-8.794
-0.4,449997395.3258027,2.836233139,11246.049739669268,3147.023601705661,-1.003,-3.143,-7.022,-8.421
-0.4,449997395.3258027,2.8362355232,8336.81184619634,3303.6954103681487,-1.119,-3.128,-6.69,-7.994
-0.4,449997395.3258027,2.8362388611,8851.156098308356,3266.6304045806874,-1.091,-3.124,-6.754,-8.083
-0.4,449997395.3258027,2.8362431526,10139.1138573668,3187.1316270228012,-1.012,-3.114,-6.905,-8.281
-0.4,449997395.3258027,2.8362488747,11402.497875611696,3117.453613031264,-0.936,-3.101,-7.041,-8.457
-0.4,449997395.3258027,2.8362557888,12302.68770812381,3069.021988391158,-0.874,-3.083,-7.127,-8.567
-0.4,449997395.3258027,2.8362641335,12735.030810166629,3040.88502567628,-0.827,-3.061,-7.167,-8.619
-0.4,449997395.3258027,2.8362739086,12912.192736135336,3022.7344800386522,-0.787,-3.037,-7.181,-8.642
-0.4,449997395.3258027,2.8362853527,12971.792709839572,3008.153543944214,-0.75,-3.012,-7.187,-8.653
-0.4,449997395.3258027,2.8362855911,18879.913490962925,2822.279362118107,-0.577,-3.022,-7.628,-9.14
-0.4,449997395.3258027,2.836286068,14996.84835502374,2934.945222269793,-0.679,-3.012,-7.352,-8.841
-0.4,449997395.3258027,2.8362874985,11428.783347897712,3071.8499642344627,-0.812,-3.014,-7.046,-8.486
-0.4,449997395.3258027,2.8362896442,8472.274141405964,3231.4690444798844,-0.957,-3.013,-6.706,-8.058
-0.4,449997395.3258027,2.8362929821,8994.975815300355,3198.1586216666074,-0.926,-3.011,-6.773,-8.145
-0.4,449997395.3258027,2.8362970352,10303.861204416158,3124.640085806112,-0.857,-3.009,-6.926,-8.339
-0.4,449997395.3258027,2.8363025188,11587.773561551261,3061.2584717197674,-0.793,-3.004,-7.061,-8.505
-0.4,449997395.3258027,2.8363091946,12473.835142429432,3021.3427798432967,-0.749,-2.998,-7.143,-8.605
-0.4,449997395.3258027,2.8363173008,12912.192736135336,3002.6174208612674,-0.73,-2.997,-7.183,-8.651
-0.4,449997395.3258027,2.8363265991,13091.81922999407,2997.091486307045,-0.726,-2.998,-7.198,-8.667
-0.4,449997395.3258027,2.8363375664,13152.248321922376,2997.7816715823815,-0.732,-3.005,-7.204,-8.673
-0.4,449997395.3258027,2.8363378048,19186.68740670291,2798.3369045620198,-0.53,-2.995,-7.65,-9.162
-0.4,449997395.3258027,2.8363382816,15240.527537972906,2918.098853741841,-0.645,-2.995,-7.374,-8.868
-0.4,449997395.3258027,2.8363397121,11641.260294104908,3064.7849053700324,-0.806,-3.016,-7.067,-8.51
-0.4,449997395.3258027,2.8363418579,8629.785477669702,3235.936569296281,-0.982,-3.038,-6.726,-8.075
-0.4,449997395.3258027,2.8363447189,9162.204901220002,3200.368594586517,-0.945,-3.032,-6.794,-8.163
-0.4,449997395.3258027,2.8363490105,10471.285480508985,3123.2014671492143,-0.865,-3.022,-6.946,-8.359
-0.4,449997395.3258027,2.8363542557,11748.975549395303,3057.032106987659,-0.792,-3.01,-7.078,-8.524
-0.4,449997395.3258027,2.836360693,12647.363474711523,3015.0880540378826,-0.742,-2.999,-7.159,-8.623
-0.4,449997395.3258027,2.8363683224,13091.81922999407,2994.3323338672667,-0.717,-2.992,-7.198,-8.668
-0.4,449997395.3258027,2.8363776207,13243.415351946644,2984.695288301337,-0.7,-2.985,-7.213,-8.686
-0.4,449997395.3258027,2.8363881111,13304.5441797809,2977.1450877105985,-0.683,-2.975,-7.218,-8.694
-0.4,449997395.3258027,2.8363883495,19498.445997580457,2780.3533940870425,-0.498,-2.977,-7.668,-9.18
-0.4,449997395.3258027,2.8363888264,15488.166189124828,2896.6765264870983,-0.595,-2.965,-7.395,-8.894
-0.4,449997395.3258027,2.8363900185,11830.41555725166,3038.0855564655426,-0.743,-2.978,-7.086,-8.54
-0.4,449997395.3258027,2.8363921642,8770.008211436349,3201.842758202777,-0.907,-2.99,-6.745,-8.114
-0.4,449997395.3258027,2.8363950253,9311.078754678301,3163.0058853452065,-0.86,-2.977,-6.813,-8.205
-0.4,449997395.3258027,2.8363990784,10616.955571987242,3082.4781017155096,-0.768,-2.958,-6.965,-8.401
-0.4,449997395.3258027,2.8364040852,11912.420080273738,3011.6188030788244,-0.677,-2.932,-7.094,-8.559
-0.4,449997395.3258027,2.8364105225,12793.813041575253,2963.466348548615,-0.608,-2.907,-7.175,-8.657
-0.4,449997395.3258027,2.8364179134,13243.415351946644,2932.2432823031154,-0.553,-2.879,-7.216,-8.707
-0.4,449997395.3258027,2.8364267349,13396.766874259343,2908.707160207584,-0.499,-2.846,-7.233,-8.731
-0.4,449997395.3258027,2.8364369869,13458.60354055947,2884.6956523813637,-0.436,-2.803,-7.242,-8.747
-0.4,449997395.3258027,2.8364372253,19724.227361148533,2700.847108324663,-0.293,-2.839,-7.7,-9.213
-0.4,449997395.3258027,2.8364377022,15703.628043335515,2809.3121663317743,-0.371,-2.812,-7.424,-8.938
-0.4,449997395.3258027,2.8364388943,12022.644346174131,2941.710969752718,-0.492,-2.802,-7.107,-8.596
-0.4,449997395.3258027,2.8364408016,8892.011178579482,3098.846042012061,-0.649,-2.81,-6.768,-8.196
-0.4,449997395.3258027,2.8364436626,9440.608762859236,3068.315401315068,-0.621,-2.811,-6.836,-8.278
-0.4,449997395.3258027,2.8364474773,10789.467222298297,2999.8531811907933,-0.553,-2.808,-6.983,-8.454
-0.4,449997395.3258027,2.8364522457,12078.138351067797,2942.388401724649,-0.497,-2.807,-7.113,-8.601
-0.4,449997395.3258027,2.8364584446,12971.792709839572,2906.698590298831,-0.463,-2.809,-7.197,-8.696
-0.4,449997395.3258027,2.8364655972,13396.766874259343,2890.6798823654744,-0.447,-2.81,-7.237,-8.74
-0.4,449997395.3258027,2.8364739418,13583.134465871542,2886.0244097569725,-0.443,-2.812,-7.252,-8.756
-0.4,449997395.3258027,2.836483717,13645.831365889238,2884.6956523813637,-0.445,-2.815,-7.257,-8.761
-0.4,449997395.3258027,2.8364839554,20044.720273651594,2687.200056717113,-0.277,-2.833,-7.72,-9.231
-0.4,449997395.3258027,2.8364844322,15958.791472367337,2802.205621666745,-0.364,-2.813,-7.444,-8.957
-0.4,449997395.3258027,2.8364856243,12217.99660164871,2941.033693747309,-0.504,-2.817,-7.127,-8.616
-0.4,449997395.3258027,2.8364875317,9057.326008981998,3106.704882789958,-0.683,-2.841,-6.786,-8.21
-0.4,449997395.3258027,2.8364901543,9616.122783836649,3069.021988391158,-0.636,-2.829,-6.855,-8.297
-0.4,449997395.3258027,2.836493969,10939.563662720931,2990.8869650638235,-0.541,-2.805,-7.001,-8.475
-0.4,449997395.3258027,2.8364987373,12246.16199265049,2923.4791443876893,-0.456,-2.784,-7.132,-8.626
-0.4,449997395.3258027,2.8365044594,13152.248321922376,2878.0610364895265,-0.393,-2.765,-7.217,-8.723
-0.4,449997395.3258027,2.8365113735,13583.134465871542,2851.0182675039096,-0.351,-2.746,-7.257,-8.767
-0.4,449997395.3258027,2.8365194798,13740.41975012515,2834.0010055090956,-0.315,-2.725,-7.273,-8.786
-0.4,449997395.3258027,2.8365290165,13803.842646028837,2819.0319626364717,-0.278,-2.701,-7.281,-8.796
-0.4,449997395.3258027,2.8365292549,20323.57010936221,2619.38900372149,-0.156,-2.749,-7.748,-9.245
-0.4,449997395.3258027,2.8365297318,16180.800376430645,2734.6389799122753,-0.205,-2.707,-7.473,-8.985
-0.4,449997395.3258027,2.8365306854,12416.523075924119,2876.073628863028,-0.338,-2.706,-7.156,-8.662
-0.4,449997395.3258027,2.8365325928,9204.495717531712,3044.3879900225406,-0.528,-2.735,-6.806,-8.26
-0.4,449997395.3258027,2.8365352154,9772.372209558112,3010.2322206633794,-0.488,-2.727,-6.873,-8.341
-0.4,449997395.3258027,2.8365387917,11117.317272815919,2936.9733110014463,-0.405,-2.713,-7.021,-8.512
-0.4,449997395.3258027,2.8365433216,12416.523075924119,2875.4114646740045,-0.336,-2.704,-7.155,-8.661
-0.4,449997395.3258027,2.8365490437,13304.5441797809,2838.5725586841204,-0.296,-2.701,-7.237,-8.749
-0.4,449997395.3258027,2.8365557194,13740.41975012515,2820.97995366343,-0.276,-2.699,-7.275,-8.79
-0.4,449997395.3258027,2.8365635872,13899.526312133527,2813.8438937124856,-0.269,-2.698,-7.289,-8.804
-0.4,449997395.3258027,2.8365726471,13963.683610559363,2811.253440841773,-0.265,-2.697,-7.295,-8.809
-0.4,449997395.3258027,2.8365726471,20606.299132700005,2612.7628960311017,-0.157,-2.755,-7.763,-9.26
-0.4,449997395.3258027,2.8365733624,16405.89773199539,2725.837738928534,-0.192,-2.703,-7.491,-9.003
-0.4,449997395.3258027,2.836574316,12618.275345906706,2863.518544478934,-0.315,-2.696,-7.175,-8.683
-0.4,449997395.3258027,2.8365762234,9332.543007969914,3029.0050681662174,-0.496,-2.717,-6.823,-8.284
-0.4,449997395.3258027,2.8365786076,9908.319448927676,2992.264636608189,-0.451,-2.706,-6.891,-8.364
-0.4,449997395.3258027,2.8365821838,11271.974561755094,2917.427014001166,-0.36,-2.687,-7.04,-8.537
-0.4,449997395.3258027,2.8365864754,12560.299636948754,2852.331512299011,-0.281,-2.671,-7.172,-8.682
-0.4,449997395.3258027,2.8365917206,13458.60354055947,2809.3121663317743,-0.227,-2.656,-7.254,-8.769
-0.4,449997395.3258027,2.8365981579,13867.558288718896,2785.4797143757387,-0.193,-2.644,-7.292,-8.806
-0.4,449997395.3258027,2.8366057873,14028.13704561959,2770.1290391637326,-0.165,-2.628,-7.308,-8.821
-0.4,449997395.3258027,2.8366146088,14092.887984218747,2757.401452346361,-0.135,-2.609,-7.314,-8.827
-0.4,449997395.3258027,2.8366146088,20844.908830972887,2553.2891515338883,-0.146,-2.751,-7.779,-9.273
-0.4,449997395.3258027,2.836615324,16634.126503701696,2668.087081154363,-0.052,-2.611,-7.519,-9.026
-0.4,449997395.3258027,2.8366162777,12793.813041575253,2808.665372767918,-0.178,-2.605,-7.198,-8.713
-0.4,449997395.3258027,2.8366179466,9462.37161365793,2979.8884028194198,-0.371,-2.633,-6.84,-8.318
-0.4,449997395.3258027,2.8366203308,10046.157902783947,2942.388401724649,-0.322,-2.619,-6.908,-8.399
-0.4,449997395.3258027,2.8366236687,11402.497875611696,2864.8375471900267,-0.226,-2.597,-7.063,-8.571
-0.4,449997395.3258027,2.8366279602,12705.74105208542,2798.3369045620198,-0.145,-2.579,-7.193,-8.708
-0.4,449997395.3258027,2.8366332054,13583.134465871542,2754.2287033381663,-0.092,-2.565,-7.274,-8.787
-0.4,449997395.3258027,2.8366394043,13995.873225726178,2728.9777828080405,-0.051,-2.549,-7.315,-8.828
-0.4,449997395.3258027,2.8366465569,14157.93779957081,2712.688960516933,-0.018,-2.53,-7.331,-8.844
-0.4,449997395.3258027,2.8366551399,14223.287871228184,2699.6036086150093,0.015,-2.508,-7.339,-8.852
-0.4,449997395.3258027,2.8366551399,21037.784397664775,2481.989843507096,-0.157,-2.762,-7.791,-9.285
-0.4,449997395.3258027,2.8366558552,16826.740610704674,2602.555501826247,0.072,-2.528,-7.546,-9.04
-0.4,449997395.3258027,2.8366568089,12941.958414499863,2749.1598965510393,-0.034,-2.508,-7.223,-8.736
-0.4,449997395.3258027,2.8366584778,9571.94071294844,2930.8932452503213,-0.243,-2.547,-6.859,-8.352
-0.4,449997395.3258027,2.8366611004,10162.486928706949,2888.0186935140546,-0.179,-2.524,-6.933,-8.437
-0.4,449997395.3258027,2.8366644382,11534.53257821093,2801.5604642568937,-0.061,-2.487,-7.086,-8.601
-0.4,449997395.3258027,2.8366684914,12852.866599436155,2724.58273325773,0.042,-2.453,-7.22,-8.733
-0.4,449997395.3258027,2.8366737366,13708.817661648523,2671.160598843814,0.12,-2.423,-7.305,-8.814
-0.4,449997395.3258027,2.8366799355,14125.375446227554,2636.3313858253787,0.176,-2.395,-7.347,-8.847
-0.4,449997395.3258027,2.8366873264,14288.939585111037,2610.958686585931,0.22,-2.369,-7.365,-8.86
-0.4,449997395.3258027,2.8366959095,14354.89433353656,2587.617025712439,0.244,-2.355,-7.372,-8.865
-0.4,449997395.3258027,2.8366959095,21281.390459827133,2340.9923796903972,-0.168,-2.773,-7.802,-9.296
-0.4,449997395.3258027,2.8366963863,17021.5850839495,2476.281425273959,0.074,-2.531,-7.559,-9.054
-0.4,449997395.3258027,2.83669734,13121.998990192042,2643.625911763445,0.229,-2.332,-7.263,-8.765
-0.4,449997395.3258027,2.8366990089,9682.778562612497,2853.6453620049656,-0.034,-2.407,-6.886,-8.397
-0.4,449997395.3258027,2.8367013931,10280.162981264724,2806.725885414676,0.038,-2.378,-6.96,-8.475
-0.4,449997395.3258027,2.8367042542,11668.09617060963,2711.4400086883093,0.174,-2.328,-7.117,-8.631
-0.4,449997395.3258027,2.8367083073,12971.792709839572,2629.056987587087,0.278,-2.294,-7.254,-8.752
-0.4,449997395.3258027,2.8367130756,13835.66378971781,2573.949369942196,0.285,-2.314,-7.333,-8.826
-0.4,449997395.3258027,2.8367187977,14256.075936021878,2540.972705549304,0.259,-2.343,-7.366,-8.86
-0.4,449997395.3258027,2.8367254734,14387.985782558466,2519.9968621092394,0.252,-2.351,-7.378,-8.872
-0.4,449997395.3258027,2.8367333412,14454.39770745928,2502.64932573108,0.251,-2.354,-7.382,-8.876
-0.4,449997395.3258027,2.8367333412,21478.304741305332,2225.3585780465164,-0.179,-2.784,-7.812,-9.306
-0.4,449997395.3258027,2.8367338181,17179.083871575895,2375.7459632190103,0.063,-2.542,-7.571,-9.065
-0.4,449997395.3258027,2.8367347717,13273.944577297401,2564.484036517716,0.331,-2.268,-7.288,-8.782
-0.4,449997395.3258027,2.8367364407,9794.89985408699,2806.079687295453,0.099,-2.32,-6.908,-8.423
-0.4,449997395.3258027,2.8367385864,10399.2016582906,2754.862960952472,0.178,-2.287,-6.982,-8.495
-0.4,449997395.3258027,2.8367416859,11776.059735208066,2650.3302897271124,0.331,-2.226,-7.145,-8.649
-0.4,449997395.3258027,2.8367455006,13091.81922999407,2562.7131654112345,0.348,-2.252,-7.273,-8.767
-0.4,449997395.3258027,2.8367502689,13963.683610559363,2507.8410100331653,0.29,-2.315,-7.344,-8.838
-0.4,449997395.3258027,2.836755991,14354.89433353656,2479.1339913758666,0.258,-2.347,-7.376,-8.87
-0.4,449997395.3258027,2.8367626667,14521.11617587742,2466.0393372343387,0.246,-2.359,-7.387,-8.881
-0.4,449997395.3258027,2.8367705345,14588.142602753474,2459.2348238462314,0.242,-2.363,-7.391,-8.885
-0.4,449997395.3258027,2.8367705345,21727.011788637432,2151.295159289197,-0.19,-2.795,-7.823,-9.318
-0.4,449997395.3258027,2.8367710114,17378.00828749376,2315.7944032250753,0.05,-2.555,-7.583,-9.077
-0.4,449997395.3258027,2.836771965,13427.649611378642,2524.0618923028155,0.33,-2.275,-7.303,-8.797
-0.4,449997395.3258027,2.8367733955,9931.160484209335,2795.1170539918453,0.147,-2.297,-6.926,-8.441
-0.4,449997395.3258027,2.8367755413,10543.86896391258,2737.158835750586,0.244,-2.25,-7.003,-8.516
-0.4,449997395.3258027,2.8367784023,11912.420080273738,2619.992209772759,0.413,-2.176,-7.167,-8.664
-0.4,449997395.3258027,2.836782217,13212.956341865765,2523.4807724805755,0.348,-2.257,-7.285,-8.779
-0.4,449997395.3258027,2.836786747,14060.47524129913,2464.336445834911,0.28,-2.325,-7.353,-8.847
-0.4,449997395.3258027,2.8367919922,14487.718535447602,2436.688423459584,0.249,-2.356,-7.384,-8.879
-0.4,449997395.3258027,2.8367984295,14621.771744567182,2427.727847680999,0.238,-2.367,-7.395,-8.89
-0.4,449997395.3258027,2.8368058205,14689.262776438662,2429.405442020422,0.234,-2.371,-7.399,-8.893
-0.4,449997395.3258027,2.8368058205,21928.049353504495,2079.217874372196,-0.2,-2.805,-7.834,-9.328
-0.4,449997395.3258027,2.8368062973,17579.23613958693,2264.6443075930597,0.039,-2.566,-7.595,-9.089
-0.4,449997395.3258027,2.836807251,13614.44682465951,2503.2256483831716,0.317,-2.288,-7.316,-8.81
-0.4,449997395.3258027,2.8368086815,10046.157902783947,2824.8799749157074,0.092,-2.346,-6.939,-8.451
-0.4,449997395.3258027,2.8368105888,10641.430182243164,2764.3943712203372,0.19,-2.297,-7.014,-8.526
-0.4,449997395.3258027,2.8368134499,12050.359403717986,2638.760655313271,0.375,-2.208,-7.175,-8.677
-0.4,449997395.3258027,2.8368167877,13335.21432163324,2540.387692316677,0.339,-2.266,-7.294,-8.789
-0.4,449997395.3258027,2.8368210793,14190.575216890926,2490.0037433881985,0.272,-2.333,-7.361,-8.855
-0.4,449997395.3258027,2.8368263245,14588.142602753474,2483.13310529557,0.242,-2.363,-7.391,-8.886
-0.4,449997395.3258027,2.8368325233,14723.125024327193,2508.4185282523845,0.231,-2.374,-7.402,-8.896
-0.4,449997395.3258027,2.8368394375,14757.065332758932,2557.996818555016,0.228,-2.377,-7.405,-8.9
-0.4,449997395.3258027,2.8368394375,22080.047330189012,2107.1720641819807,-0.209,-2.814,-7.842,-9.337
-0.4,449997395.3258027,2.8368399143,17741.894808901645,2338.837238659356,0.028,-2.577,-7.605,-9.099
-0.4,449997395.3258027,2.836840868,13740.41975012515,2641.8003902640594,0.228,-2.354,-7.319,-8.821
-0.4,449997395.3258027,2.8368420601,10139.1138573668,3057.736095690077,-0.566,-2.821,-6.929,-8.368
-0.4,449997395.3258027,2.8368439674,10764.65213629835,2968.246743463243,-0.364,-2.695,-6.996,-8.47
-0.4,449997395.3258027,2.83684659,12133.888504649762,2797.0485194780945,-0.007,-2.483,-7.155,-8.666
-0.4,449997395.3258027,2.8368499279,13427.649611378642,2666.8586645214805,0.202,-2.365,-7.287,-8.795
-0.4,449997395.3258027,2.8368542194,14223.287871228184,2603.7542989387357,0.262,-2.342,-7.365,-8.86
-0.4,449997395.3258027,2.8368589878,14621.771744567182,2600.758340964422,0.238,-2.367,-7.394,-8.889
-0.4,449997395.3258027,2.8368649483,14757.065332758932,2647.280740017563,0.141,-2.438,-7.394,-8.897
-0.4,449997395.3258027,2.836871624,14791.083881682072,2740.311921030278,-0.078,-2.595,-7.377,-8.888
-0.4,449997395.3258027,2.836871624,22130.947096056363,2203.941181810109,-0.212,-2.817,-7.845,-9.339
-0.4,449997395.3258027,2.8368721008,17823.787674480907,2477.9925708234186,0.024,-2.581,-7.609,-9.103
-0.4,449997395.3258027,2.8368728161,13835.66378971781,2844.4611074479167,-0.273,-2.712,-7.288,-8.795
-0.4,449997395.3258027,2.8368742466,10185.91388054117,3360.4698246069956,-1.385,-3.412,-6.927,-8.183
-0.4,449997395.3258027,2.8368759155,10789.467222298297,3266.6304045806874,-1.219,-3.304,-6.986,-8.307
-0.4,449997395.3258027,2.8368785381,12161.86000646368,3083.1879502493534,-0.838,-3.072,-7.127,-8.555
-0.4,449997395.3258027,2.8368816376,13427.649611378642,2958.0124665515464,-0.57,-2.912,-7.236,-8.714
-0.4,449997395.3258027,2.8368854523,14223.287871228184,2920.1153013941557,-0.521,-2.896,-7.305,-8.794
-0.4,449997395.3258027,2.8368902206,14554.59080581967,2965.514145782622,-0.682,-3.016,-7.326,-8.801
-0.4,449997395.3258027,2.8368957043,14655.478409559128,3083.1879502493534,-1.04,-3.275,-7.33,-8.758
-0.4,449997395.3258027,2.8369021416,14689.262776438662,3277.932453002282,-1.58,-3.657,-7.319,-8.633
