FeH,Age,Mini,L,Te,Bmag,Vmag,Jmag,Kmag
0.2,649994976.198144,0.093007721,0.0005011872336272725,2315.7944032250753,19.502,17.745,10.927,10.001
0.2,649994976.198144,0.1029621437,0.0006531305526474723,2407.1325190501684,19.212,17.456,10.64,9.714
0.2,649994976.198144,0.1037706137,0.0006652731562017413,2413.2371370086103,19.193,17.437,10.621,9.695
0.2,649994976.198144,0.122871004,0.0010543868963912592,2560.353906004206,18.674,16.926,10.121,9.195
0.2,649994976.198144,0.1427798569,0.0015595525028269538,2678.5514945323343,17.822,16.121,9.719,8.795
0.2,649994976.198144,0.1516294628,0.0017619760464116293,2717.69052344228,17.467,15.792,9.601,8.679
0.2,649994976.198144,0.1626887172,0.0020844908830972885,2765.03096983568,17.019,15.379,9.434,8.515
0.2,649994976.198144,0.1971763074,0.0031915378551007614,2874.7494529363703,16.005,14.425,9.01,8.099
0.2,649994976.198144,0.202506423,0.0033962527259040853,2890.014355349471,15.867,14.294,8.948,8.039
0.2,649994976.198144,0.2063129395,0.00351560440528298,2898.6781710077653,15.789,14.221,8.913,8.005
0.2,649994976.198144,0.2522785664,0.005321082592667942,2998.4720157970514,14.929,13.406,8.495,7.596
0.2,649994976.198144,0.3020507097,0.007673614893618186,3085.3184768063825,14.22,12.719,8.129,7.237
0.2,649994976.198144,0.312029779,0.008260379495771783,3100.9873885323427,14.088,12.592,8.052,7.162
0.2,649994976.198144,0.3518228829,0.010789467222298286,3164.462838835526,13.607,12.138,7.783,6.896
0.2,649994976.198144,0.4015950263,0.01513561248436208,3250.124518861833,13.012,11.57,7.443,6.558
0.2,649994976.198144,0.4513671398,0.02123244462000219,3341.950400261143,12.432,11.015,7.105,6.218
0.2,649994976.198144,0.5011392832,0.02992264636608189,3447.4660657314944,11.851,10.464,6.766,5.877
0.2,649994976.198144,0.5509114265,0.042461956394631274,3581.789013481115,11.237,9.869,6.428,5.537
0.2,649994976.198144,0.6006835699,0.060813500127871796,3763.5700169367306,10.569,9.204,6.1,5.212
0.2,649994976.198144,0.6504557133,0.08709635899560805,3989.3303406008604,9.877,8.537,5.776,4.913
0.2,649994976.198144,0.6645330191,0.09638290236239705,4058.8219466191827,9.679,8.354,5.685,4.834
0.2,649994976.198144,0.7002279162,0.12302687708123815,4236.429660495409,9.186,7.909,5.465,4.652
0.2,649994976.198144,0.703481853,0.12589254117941673,4256.964220731747,9.136,7.865,5.444,4.636
0.2,649994976.198144,0.7372874022,0.15958791472367326,4481.258533251555,8.586,7.403,5.248,4.506
0.2,649994976.198144,0.75,0.17418068733916142,4567.725533088667,8.383,7.239,5.179,4.467
0.2,649994976.198144,0.8000000119,0.23334580622810028,4766.504419105543,7.831,6.778,4.917,4.276
0.2,649994976.198144,0.8500000238,0.309741929921658,4971.643737252428,7.323,6.355,4.67,4.094
0.2,649994976.198144,0.8999999762,0.4045758916974427,5173.685200730607,6.869,5.973,4.439,3.92
0.2,649994976.198144,0.9500000477,0.5248074602497725,5365.373995198518,6.458,5.625,4.216,3.747
0.2,649994976.198144,0.9946644306,0.6591738952443214,5529.680004928025,6.113,5.332,4.023,3.592
0.2,649994976.198144,1.0,0.6760829753919817,5548.8118635809,6.074,5.299,4.001,3.574
0.2,649994976.198144,1.0326395035,0.7925013304804718,5661.089226332155,5.84,5.101,3.868,3.465
0.2,649994976.198144,1.0499999523,0.8609937521846006,5720.052304159283,5.72,5.0,3.799,3.409
0.2,649994976.198144,1.1000000238,1.0839269140212036,5878.953159960759,5.391,4.722,3.603,3.244
0.2,649994976.198144,1.1499999762,1.355189412351036,6028.371389224644,5.079,4.458,3.414,3.084
0.2,649994976.198144,1.2000000477,1.686553025388741,6168.790197459376,4.786,4.209,3.23,2.925
0.2,649994976.198144,1.2164417505,1.807174126010927,6215.842477525222,4.692,4.129,3.171,2.874
0.2,649994976.198144,1.25,2.0701413487910423,6306.668447802119,4.51,3.975,3.057,2.776
0.2,649994976.198144,1.2640600204,2.1877616239495525,6344.537957757143,4.436,3.912,3.01,2.735
0.2,649994976.198144,1.2999999523,2.51188643150958,6437.244428047446,4.252,3.755,2.893,2.632
0.2,649994976.198144,1.3500000238,3.0269134281013055,6564.475019516997,4.01,3.547,2.737,2.495
0.2,649994976.198144,1.3999999762,3.6057864302164244,6691.138200458591,3.782,3.349,2.589,2.365
0.2,649994976.198144,1.4287128448,3.971915494694403,6767.059576741911,3.655,3.24,2.508,2.295
0.2,649994976.198144,1.4500000477,4.265795188015927,6821.8159793818195,3.564,3.16,2.45,2.244
0.2,649994976.198144,1.4924852848,4.897788193684462,6939.049730731629,3.385,3.006,2.34,2.15
0.2,649994976.198144,1.5,5.011872336272722,6958.249547006049,3.354,2.979,2.321,2.133
0.2,649994976.198144,1.5392745733,5.675446054085471,7079.457843841381,3.192,2.841,2.228,2.055
0.2,649994976.198144,1.5499999523,5.861381645140288,7112.1351365332885,3.149,2.804,2.202,2.034
0.2,649994976.198144,1.6000000238,6.807693586937414,7267.750338103239,2.954,2.637,2.092,1.942
0.2,649994976.198144,1.6456708908,7.762471166286917,7411.395679600756,2.784,2.492,1.997,1.863
0.2,649994976.198144,1.6499999762,7.870457896950986,7423.351070366171,2.769,2.478,1.988,1.855
0.2,649994976.198144,1.6541639566,7.961593504173188,7437.037990627123,2.754,2.466,1.98,1.848
0.2,649994976.198144,1.6749999523,8.433347577642754,7497.215596874701,2.68,2.401,1.937,1.812
0.2,649994976.198144,1.7000000477,9.036494737223014,7570.0718229996555,2.593,2.326,1.886,1.769
0.2,649994976.198144,1.7250001431,9.660508789898133,7640.11683517019,2.507,2.252,1.836,1.726
0.2,649994976.198144,1.7393227816,10.046157902783952,7677.149537690285,2.46,2.21,1.807,1.7
0.2,649994976.198144,1.75,10.327614057613975,7703.71131697609,2.424,2.18,1.785,1.681
0.2,649994976.198144,1.7750000954,11.04078619902073,7769.623959921389,2.342,2.107,1.734,1.637
0.2,649994976.198144,1.7810829878,11.220184543019636,7783.94932626726,2.322,2.09,1.722,1.626
0.2,649994976.198144,1.7999999523,11.776059735208072,7828.886556130138,2.262,2.037,1.684,1.592
0.2,649994976.198144,1.8250000477,12.560299636948749,7888.601176185541,2.182,1.968,1.633,1.547
0.2,649994976.198144,1.8303147554,12.735030810166617,7901.326351541296,2.165,1.953,1.623,1.537
0.2,649994976.198144,1.8499999046,13.39676687425935,7943.282347242814,2.103,1.898,1.582,1.5
0.2,649994976.198144,1.875,14.288939585111029,7998.342550070284,2.026,1.831,1.531,1.453
0.2,649994976.198144,1.9000000954,15.240527537972914,8048.222975885021,1.949,1.763,1.479,1.405
0.2,649994976.198144,1.9150060415,15.812480392703835,8079.78863683088,1.903,1.722,1.447,1.376
0.2,649994976.198144,1.9249999523,16.255487557504843,8098.414473257882,1.872,1.695,1.426,1.356
0.2,649994976.198144,1.9484374523,17.218685749860068,8139.542590972682,1.802,1.632,1.375,1.309
0.2,649994976.198144,1.9839076996,18.836490894898002,8201.626731515516,1.696,1.539,1.299,1.237
0.2,649994976.198144,1.9953123331,19.408858775927783,8218.640803889055,1.663,1.509,1.274,1.213
0.2,649994976.198144,2.0359621048,21.478304741305344,8277.51544930572,1.544,1.402,1.184,1.127
0.2,649994976.198144,2.0421872139,21.77709772353159,8285.142834779583,1.527,1.385,1.17,1.114
0.2,649994976.198144,2.0758879185,23.65919697485759,8325.302067492423,1.43,1.297,1.093,1.04
0.2,649994976.198144,2.0890622139,24.490632418447454,8336.81184619634,1.393,1.263,1.062,1.009
0.2,649994976.198144,2.1200244427,26.42408757321946,8365.6559575581,1.306,1.182,0.989,0.938
0.2,649994976.198144,2.1359374523,27.478941531023974,8373.364560836557,1.262,1.14,0.949,0.899
0.2,649994976.198144,2.1747665405,30.19951720402016,8384.940786218076,1.154,1.036,0.849,0.8
0.2,649994976.198144,2.1828124523,30.83187950249355,8384.940786218076,1.132,1.014,0.828,0.778
0.2,649994976.198144,2.2146568298,33.34264127632349,8381.080267271636,1.045,0.929,0.742,0.692
0.2,649994976.198144,2.2296872139,34.59393778261219,8373.364560836557,1.004,0.888,0.7,0.65
0.2,649994976.198144,2.2433996201,35.727283815192884,8367.582442814502,0.967,0.851,0.662,0.612
0.2,649994976.198144,2.2765622139,38.72576449216173,8334.892445316002,0.878,0.76,0.564,0.512
0.2,649994976.198144,2.2801477909,39.084089579240214,8331.054969176099,0.868,0.75,0.554,0.501
0.2,649994976.198144,2.315792799,42.55984131337431,8269.895085679318,0.777,0.652,0.441,0.385
0.2,649994976.198144,2.3545236588,46.665938031428865,8177.113012534673,0.681,0.546,0.313,0.251
0.2,649994976.198144,2.3703122139,48.30588020397726,8130.176988564409,0.643,0.502,0.257,0.192
0.2,649994976.198144,2.3956849575,51.28613839913648,8037.1116221539805,0.586,0.433,0.163,0.092
0.2,649994976.198144,2.4214930534,54.32503314924333,7914.072053994852,0.534,0.362,0.06,-0.021
0.2,649994976.198144,2.4451200962,57.14786366718669,7783.94932626726,0.493,0.3,-0.041,-0.132
0.2,649994976.198144,2.4713044167,60.53408747539136,7622.545054061056,0.455,0.233,-0.158,-0.263
0.2,649994976.198144,2.4927685261,63.53309318517436,7467.925899308835,0.427,0.179,-0.263,-0.383
0.2,649994976.198144,2.5172629356,68.23386941416697,7346.830156985394,0.37,0.102,-0.381,-0.513
0.2,649994976.198144,2.5279333591,74.30191378967014,7557.880136804521,0.235,0.008,-0.401,-0.511
0.2,649994976.198144,2.5302164555,77.44617978025188,7710.809965858578,0.163,-0.034,-0.393,-0.489
0.2,649994976.198144,2.5313954353,80.72350302488383,7884.9691774537705,0.09,-0.074,-0.379,-0.461
0.2,649994976.198144,2.5320272446,84.13951416451951,8051.930173083077,0.026,-0.109,-0.367,-0.437
0.2,649994976.198144,2.5324156284,87.90225168308842,8218.640803889055,-0.036,-0.145,-0.359,-0.417
0.2,649994976.198144,2.5326743126,92.25714271547633,8388.803083408608,-0.097,-0.184,-0.356,-0.402
0.2,649994976.198144,2.5328485966,96.8277856261249,8548.698491636665,-0.154,-0.22,-0.357,-0.394
0.2,649994976.198144,2.5329728127,99.5405417351527,8647.687754802233,-0.18,-0.236,-0.353,-0.385
0.2,649994976.198144,2.5330455303,94.6237161365793,8568.405276916068,-0.126,-0.191,-0.325,-0.361
0.2,649994976.198144,2.5331130028,88.71560120379608,8419.765576091762,-0.054,-0.138,-0.304,-0.348
0.2,649994976.198144,2.533176899,84.91804750363139,8250.874854788077,0.002,-0.104,-0.31,-0.365
0.2,649994976.198144,2.5332639217,83.17637711026708,8035.261221856169,0.038,-0.099,-0.361,-0.432
0.2,649994976.198144,2.5333669186,84.33347577642752,7821.679204756053,0.049,-0.126,-0.448,-0.535
0.2,649994976.198144,2.5334875584,86.09937521846008,7610.2688591344795,0.059,-0.154,-0.542,-0.647
0.2,649994976.198144,2.533621788,87.29713683881117,7404.572674509,0.082,-0.17,-0.627,-0.752
0.2,649994976.198144,2.533768177,87.70008211436348,7204.436204152846,0.119,-0.172,-0.701,-0.848
0.2,649994976.198144,2.5339243412,87.4983775227436,7008.095316467937,0.167,-0.164,-0.765,-0.935
0.2,649994976.198144,2.5340881348,86.8960429286302,6818.675140286001,0.225,-0.147,-0.823,-1.017
0.2,649994976.198144,2.5342569351,85.90135215053957,6634.374757931717,0.292,-0.124,-0.873,-1.093
0.2,649994976.198144,2.5344281197,84.527884516029,6461.003852547145,0.367,-0.095,-0.917,-1.163
0.2,649994976.198144,2.5346052647,82.98507675144225,6293.612503885458,0.455,-0.06,-0.957,-1.23
0.2,649994976.198144,2.5347957611,80.90958991783822,6129.146470875522,0.553,-0.015,-0.989,-1.292
0.2,649994976.198144,2.5350124836,78.34296427662116,5970.352865838366,0.666,0.043,-1.009,-1.342
0.2,649994976.198144,2.5352795124,74.47319739059893,5808.981588672952,0.803,0.126,-1.011,-1.377
0.2,649994976.198144,2.5354969501,70.79457843841381,5695.082241279307,0.918,0.203,-0.995,-1.386
0.2,649994976.198144,2.5357313156,66.3743070401909,5583.416170259268,1.05,0.299,-0.962,-1.378
0.2,649994976.198144,2.5359449387,61.94410750767815,5489.085556070448,1.176,0.395,-0.92,-1.359
0.2,649994976.198144,2.5361981392,56.88529308438413,5386.4173456235285,1.331,0.516,-0.858,-1.321
0.2,649994976.198144,2.5364470482,52.239618899911974,5291.758304203465,1.484,0.635,-0.796,-1.282
0.2,649994976.198144,2.5367612839,48.64072056914617,5182.030920072273,1.637,0.748,-0.753,-1.268
0.2,649994976.198144,2.5369715691,47.424198526024455,5112.107761177404,1.712,0.798,-0.748,-1.282
0.2,649994976.198144,2.5372917652,50.003453497697855,5023.4258952238715,1.721,0.774,-0.833,-1.391
0.2,649994976.198144,2.5376114845,54.32503314924333,4945.38377894413,1.695,0.718,-0.944,-1.526
0.2,649994976.198144,2.5378670692,59.02010801718442,4893.279240819371,1.647,0.65,-1.051,-1.647
0.2,649994976.198144,2.5381212234,64.41692655151772,4850.650679999713,1.592,0.578,-1.155,-1.766
0.2,649994976.198144,2.5383691788,69.82324040771715,4812.824218676023,1.536,0.506,-1.256,-1.878
0.2,649994976.198144,2.5386118889,75.68328950209744,4778.592531515467,1.479,0.436,-1.353,-1.986
0.2,649994976.198144,2.5388486385,82.03515443298181,4746.789794829222,1.424,0.367,-1.448,-2.092
0.2,649994976.198144,2.5390768051,88.71560120379608,4717.370642684883,1.368,0.299,-1.541,-2.195
0.2,649994976.198144,2.5393030643,95.94006315159331,4688.13382145265,1.312,0.229,-1.635,-2.298
0.2,649994976.198144,2.5393595695,97.94899854086991,4680.583528968204,1.298,0.212,-1.658,-2.324
0.2,649994976.198144,2.5394239426,100.23052380778994,4671.969511718804,1.284,0.192,-1.686,-2.354
0.2,649994976.198144,2.5396802425,109.64781961431851,4639.807899821257,1.224,0.114,-1.793,-2.472
0.2,649994976.198144,2.5397441387,112.2018454301963,4632.335436779563,1.209,0.094,-1.82,-2.502
0.2,649994976.198144,2.5398061275,114.55129414455361,4624.875008224019,1.195,0.075,-1.846,-2.53
0.2,649994976.198144,2.5400531292,125.02590302177201,4596.2114466600115,1.136,-0.002,-1.949,-2.642
0.2,649994976.198144,2.5402941704,136.4583136588924,4567.725533088667,1.078,-0.077,-2.051,-2.753
0.2,649994976.198144,2.5405287743,148.59356422870076,4540.461526048465,1.022,-0.15,-2.152,-2.864
0.2,649994976.198144,2.5407569408,161.80800376430662,4512.321133443373,0.968,-0.223,-2.252,-2.973
0.2,649994976.198144,2.5409815311,176.1976046411629,4484.35514638966,0.913,-0.295,-2.352,-3.084
0.2,649994976.198144,2.5412008762,191.8668740670289,4456.562483975033,0.86,-0.367,-2.453,-3.194
0.2,649994976.198144,2.5414140224,208.92961308540387,4427.922387787075,0.81,-0.436,-2.552,-3.303
0.2,649994976.198144,2.5416235924,226.98648518838212,4399.466347160466,0.759,-0.505,-2.651,-3.413
0.2,649994976.198144,2.5418272018,247.1724145016129,4371.193179262241,0.71,-0.575,-2.749,-3.519
0.2,649994976.198144,2.5420601368,272.27013080779125,4338.104405465892,0.656,-0.655,-2.862,-3.641
0.2,649994976.198144,2.54225564,295.80124665515467,4310.225580049957,0.609,-0.723,-2.957,-3.745
0.2,649994976.198144,2.542491436,327.3406948788383,4275.62886151586,0.55,-0.806,-3.074,-3.873
0.2,649994976.198144,2.5427210331,360.57864302164234,4242.286549229506,0.494,-0.884,-3.187,-3.997
0.2,649994976.198144,2.5429213047,389.04514499428046,4216.965034285822,0.45,-0.944,-3.274,-4.092
0.2,649994976.198144,2.5430140495,400.866717627303,4208.23515424823,0.432,-0.968,-3.307,-4.128
0.2,649994976.198144,2.5431022644,387.25764492161727,4218.907465677975,0.453,-0.94,-3.267,-4.085
0.2,649994976.198144,2.5432167053,363.9150361272071,4240.333353850188,0.487,-0.892,-3.196,-4.007
0.2,649994976.198144,2.5433750153,336.5115693754908,4267.7601117035365,0.532,-0.83,-3.105,-3.907
0.2,649994976.198144,2.5435464382,313.32857243155854,4291.409912283691,0.573,-0.772,-3.024,-3.818
0.2,649994976.198144,2.543749094,290.4022654464451,4319.1670367104325,0.616,-0.709,-2.935,-3.72
0.2,649994976.198144,2.5439710617,267.91683248190316,4347.103696062099,0.66,-0.645,-2.842,-3.619
0.2,649994976.198144,2.5442149639,246.60393372343387,4376.228599453495,0.705,-0.578,-2.747,-3.515
0.2,649994976.198144,2.5444848537,226.46443075930597,4405.548635065535,0.754,-0.506,-2.646,-3.405
0.2,649994976.198144,2.5447802544,205.58905959841425,4439.1518378955125,0.809,-0.429,-2.533,-3.28
0.2,649994976.198144,2.5450811386,186.20871366628674,4475.071720476557,0.867,-0.349,-2.415,-3.149
0.2,649994976.198144,2.5453760624,168.65530253887405,4510.243611171937,0.928,-0.266,-2.298,-3.02
0.2,649994976.198144,2.5456740856,152.75660582380732,4544.645372095089,0.987,-0.185,-2.182,-2.892
0.2,649994976.198144,2.5459835529,138.99526312133526,4579.3095315174405,1.046,-0.105,-2.069,-2.767
0.2,649994976.198144,2.5463187695,126.4736347471151,4613.175745603796,1.106,-0.024,-1.957,-2.644
0.2,649994976.198144,2.5466947556,115.08003889444356,4646.222461325775,1.167,0.057,-1.845,-2.521
0.2,649994976.198144,2.5471229553,104.9542428652322,4680.583528968204,1.226,0.136,-1.735,-2.4
0.2,649994976.198144,2.5476183891,95.94006315159331,4714.113123725611,1.286,0.215,-1.626,-2.28
0.2,649994976.198144,2.5483701229,85.90135215053957,4755.541763152083,1.365,0.311,-1.496,-2.137
0.2,649994976.198144,2.5493602753,77.26805850957021,4798.439240638985,1.44,0.404,-1.369,-1.995
0.2,649994976.198144,2.550593853,70.6317554262962,4837.266336532547,1.502,0.482,-1.261,-1.875
0.2,649994976.198144,2.552970171,64.41692655151772,4886.523593428336,1.559,0.559,-1.147,-1.746
0.2,649994976.198144,2.5543096066,62.51726927756859,4904.559414451102,1.577,0.583,-1.108,-1.702
0.2,649994976.198144,2.5578119755,63.09573444801933,4904.559414451102,1.566,0.572,-1.12,-1.713
0.2,649994976.198144,2.5860998631,69.02398038402418,4898.916080940641,1.474,0.477,-1.218,-1.813
0.2,649994976.198144,2.6193218231,76.73614893618189,4894.4060897312465,1.362,0.363,-1.335,-1.931
0.2,649994976.198144,2.6458280087,84.13951416451951,4886.523593428336,1.269,0.266,-1.438,-2.036
0.2,649994976.198144,2.6682522297,91.41132414702504,4875.284901033865,1.191,0.183,-1.529,-2.131
0.2,649994976.198144,2.6917645931,99.77000638225536,4855.120352422797,1.111,0.096,-1.632,-2.24
0.2,649994976.198144,2.6924176216,100.23052380778994,4855.120352422797,1.109,0.093,-1.635,-2.243
0.2,649994976.198144,2.7102570534,109.39563662720941,4818.368378188961,1.045,0.014,-1.742,-2.361
0.2,649994976.198144,2.7221500874,120.78138351067798,4764.309868054156,0.99,-0.067,-1.866,-2.502
0.2,649994976.198144,2.7250130177,130.31667784523,4724.980276801948,0.953,-0.124,-1.958,-2.607
0.2,649994976.198144,2.7262282372,140.92887984218748,4684.8964916001305,0.911,-0.189,-2.057,-2.718
0.2,649994976.198144,2.7268996239,158.12480392703827,4632.335436779563,0.849,-0.28,-2.195,-2.874
0.2,649994976.198144,2.7271471024,174.98466886246564,4589.865930219982,0.791,-0.363,-2.318,-3.011
0.2,649994976.198144,2.7272512913,190.10782799232996,4556.170837990161,0.744,-0.43,-2.418,-3.122
0.2,649994976.198144,2.7272644043,192.75249131909365,4550.928370849554,0.736,-0.441,-2.433,-3.139
0.2,649994976.198144,2.7273147106,207.49135174549107,4521.681832344975,0.694,-0.501,-2.522,-3.238
0.2,649994976.198144,2.7273736,223.872113856834,4492.623246702932,0.65,-0.563,-2.612,-3.338
0.2,649994976.198144,2.7275600433,233.8837238659356,4477.133041763624,0.623,-0.599,-2.664,-3.396
0.2,649994976.198144,2.7277853489,219.78598727848254,4500.906591456169,0.658,-0.55,-2.591,-3.315
0.2,649994976.198144,2.7298023701,211.34890398366477,4515.439211278319,0.682,-0.517,-2.544,-3.263
0.2,649994976.198144,2.7308282852,226.46443075930597,4488.487292745978,0.642,-0.573,-2.627,-3.355
0.2,649994976.198144,2.7316830158,246.03676041476274,4457.58876355946,0.596,-0.638,-2.723,-3.462
0.2,649994976.198144,2.7325057983,269.1534803926917,4423.845998088853,0.548,-0.71,-2.829,-3.579
0.2,649994976.198144,2.7332339287,294.44216337987604,4390.358656409448,0.498,-0.785,-2.935,-3.694
0.2,649994976.198144,2.7338857651,322.84941217126345,4357.124805030842,0.448,-0.86,-3.042,-3.811
0.2,649994976.198144,2.7344756126,354.8133892335753,4323.146969108837,0.397,-0.936,-3.152,-3.931
0.2,649994976.198144,2.734991312,389.04514499428046,4289.434099967818,0.345,-1.011,-3.26,-4.05
0.2,649994976.198144,2.7354538441,427.562886151586,4255.004267591057,0.291,-1.087,-3.369,-4.171
0.2,649994976.198144,2.7358658314,469.8941086052156,4221.8227905113345,0.238,-1.16,-3.478,-4.291
0.2,649994976.198144,2.7362370491,516.416369272071,4187.935651179182,0.185,-1.232,-3.586,-4.412
0.2,649994976.198144,2.736572504,567.5446054085471,4155.277190204325,0.131,-1.304,-3.694,-4.532
0.2,649994976.198144,2.7368783951,622.3002851691596,4122.873407228869,0.08,-1.371,-3.801,-4.652
0.2,649994976.198144,2.7371599674,682.3386941416697,4089.7805010288275,0.037,-1.433,-3.909,-4.774
0.2,649994976.198144,2.7374198437,748.1695005111545,4056.9532203604513,-0.003,-1.492,-4.018,-4.897
0.2,649994976.198144,2.737660408,820.3515443298185,4025.3161897421182,-0.042,-1.547,-4.125,-5.019
0.2,649994976.198144,2.7378842831,897.4287945007482,3993.006342231626,-0.079,-1.602,-4.232,-5.14
0.2,649994976.198144,2.738093853,981.7479430199844,3960.955834906334,-0.113,-1.65,-4.339,-5.261
0.2,649994976.198144,2.7382905483,1073.989412341245,3929.1625861305615,-0.145,-1.695,-4.445,-5.382
0.2,649994976.198144,2.7384774685,1174.897554939529,3896.7271730789967,-0.175,-1.739,-4.55,-5.501
0.2,649994976.198144,2.7386577129,1282.3305826560218,3865.44946598284,-0.198,-1.773,-4.654,-5.619
0.2,649994976.198144,2.7388350964,1396.3683610559376,3833.540007590441,-0.22,-1.804,-4.757,-5.736
0.2,649994976.198144,2.7390146255,1520.5475297324954,3802.769482436101,-0.239,-1.833,-4.858,-5.851
0.2,649994976.198144,2.739205122,1655.7699634695275,3771.3774501139746,-0.245,-1.842,-4.963,-5.969
0.2,649994976.198144,2.7394576073,1936.4219639466069,3712.786702756398,-0.251,-1.854,-5.151,-6.182
0.2,649994976.198144,2.7395465374,2113.489039836648,3680.4421857199322,-0.239,-1.837,-5.258,-6.303
0.2,649994976.198144,2.7396042347,2238.72113856834,3658.474227939712,-0.232,-1.826,-5.328,-6.382
0.2,649994976.198144,2.7396569252,2398.83291901949,3631.616662075049,-0.219,-1.81,-5.414,-6.48
0.2,649994976.198144,2.7397053242,2588.2129151530903,3601.6375039472773,-0.186,-1.766,-5.509,-6.587
0.2,649994976.198144,2.739757061,2805.433637951713,3570.2612803901543,-0.149,-1.717,-5.608,-6.699
0.2,649994976.198144,2.7398145199,3040.88502567628,3538.343568147222,-0.104,-1.658,-5.708,-6.813
0.2,649994976.198144,2.7398915291,3311.311214825911,3503.482883015712,-0.036,-1.569,-5.816,-6.935
0.2,649994976.198144,2.739957571,3531.83169791957,3477.763138547455,0.02,-1.498,-5.896,-7.026
0.2,649994976.198144,2.7400274277,3917.4187710778306,3435.5794789987463,0.135,-1.353,-6.027,-7.174
0.2,649994976.198144,2.7400434017,4187.935651179182,3408.0032480036516,0.214,-1.253,-6.112,-7.27
0.2,649994976.198144,2.7400527,4497.798548932879,3379.09187437723,0.312,-1.131,-6.202,-7.372
0.2,649994976.198144,2.7400615215,4688.13382145265,3361.243690470534,0.381,-1.046,-6.255,-7.432
0.2,649994976.198144,2.7400631905,4709.77326396953,3359.69613691214,0.389,-1.037,-6.261,-7.439
0.2,649994976.198144,2.740064621,4965.923214503363,3293.062701752084,0.786,-0.554,-6.343,-7.551
0.2,649994976.198144,2.7400658131,3793.1498497368207,3287.7591870669708,1.061,-0.24,-6.053,-7.264
0.2,649994976.198144,2.7400658131,3758.374042884443,3291.546539470676,1.041,-0.266,-6.04,-7.25
0.2,649994976.198144,2.7400677204,2564.484036517716,3445.08546286579,0.488,-0.964,-5.558,-6.703
0.2,649994976.198144,2.7400708199,2103.778439766475,3528.5802582852702,0.302,-1.204,-5.309,-6.42
0.2,649994976.198144,2.7400753498,2333.458062281002,3485.7802105603496,0.386,-1.095,-5.439,-6.568
0.2,649994976.198144,2.7400810719,2985.3826189179604,3386.881485634765,0.65,-0.758,-5.748,-6.918
0.2,649994976.198144,2.7400887012,3863.669770540693,3285.4888677097247,1.058,-0.242,-6.072,-7.284
0.2,649994976.198144,2.7400979996,4666.593803142887,3215.140824832692,1.391,0.191,-6.305,-7.549
0.2,649994976.198144,2.7401089668,5176.068319505676,3177.6056571612876,1.539,0.378,-6.434,-7.694
0.2,649994976.198144,2.7401220798,5457.57861091271,3160.8217127583484,1.605,0.462,-6.496,-7.764
0.2,649994976.198144,2.7401371002,5636.376558259543,3153.5520245507173,1.628,0.488,-6.533,-7.806
0.2,649994976.198144,2.7401373386,5741.164622073275,3146.2990561619904,1.655,0.518,-6.557,-7.834
0.2,649994976.198144,2.7401382923,4305.266104917106,3257.616829660631,1.172,-0.088,-6.202,-7.427
0.2,649994976.198144,2.7401404381,2937.6496519615307,3411.9291162192844,0.531,-0.902,-5.722,-6.881
0.2,649994976.198144,2.7401437759,2404.362800006932,3497.840484251412,0.305,-1.19,-5.469,-6.592
0.2,649994976.198144,2.7401485443,2660.7250597988086,3460.190424829487,0.376,-1.095,-5.594,-6.732
0.2,649994976.198144,2.7401547432,3380.6483620598156,3367.4410363771217,0.647,-0.752,-5.894,-7.07
0.2,649994976.198144,2.7401628494,4345.102241715715,3275.668919368471,1.031,-0.263,-6.204,-7.421
0.2,649994976.198144,2.740172863,5199.959965335162,3214.400596524381,1.304,0.093,-6.424,-7.668
0.2,649994976.198144,2.7401845455,5727.960309858292,3187.8655756958997,1.393,0.208,-6.539,-7.795
0.2,649994976.198144,2.7401986122,5970.352865838366,3184.9307947187244,1.38,0.196,-6.587,-7.845
0.2,649994976.198144,2.7402145863,6109.420249055721,3192.272818462188,1.312,0.114,-6.609,-7.864
0.2,649994976.198144,2.7402148247,6309.57344480193,3180.5336883295204,1.368,0.184,-6.647,-7.908
0.2,649994976.198144,2.7402157784,4731.512589614803,3293.821044764936,0.824,-0.513,-6.291,-7.499
0.2,649994976.198144,2.7402181625,3235.936569296281,3449.0540481442044,0.245,-1.236,-5.812,-6.955
0.2,649994976.198144,2.7402217388,2648.500138606701,3534.2722436627364,0.049,-1.487,-5.557,-6.665
0.2,649994976.198144,2.7402267456,2924.1523778433366,3492.2071726340682,0.137,-1.373,-5.682,-6.807
0.2,649994976.198144,2.7402334213,3689.775985701505,3393.907487744292,0.409,-1.031,-5.979,-7.144
0.2,649994976.198144,2.7402420044,4709.77326396953,3295.3382547359615,0.816,-0.524,-6.285,-7.492
0.2,649994976.198144,2.7402527332,5597.576014951104,3226.264727075673,1.166,-0.069,-6.501,-7.74
0.2,649994976.198144,2.7402653694,6137.620051647939,3190.8030609514212,1.321,0.125,-6.614,-7.869
0.2,649994976.198144,2.7402801514,6367.955209079156,3176.1426525728807,1.388,0.209,-6.66,-7.923
0.2,649994976.198144,2.7402973175,6486.344335482381,3170.297366952724,1.416,0.244,-6.682,-7.948
0.2,649994976.198144,2.7402975559,6792.036326171843,3152.825975955186,1.494,0.336,-6.737,-8.011
0.2,649994976.198144,2.740298748,5093.308710571952,3266.6304045806874,0.959,-0.336,-6.382,-7.603
0.2,649994976.198144,2.7403011322,3499.451670283573,3421.369661353676,0.317,-1.145,-5.908,-7.062
0.2,649994976.198144,2.7403049469,2857.5905433749467,3507.5187395256794,0.091,-1.431,-5.652,-6.77
0.2,649994976.198144,2.7403104305,3155.0046233746275,3465.7720899354867,0.183,-1.313,-5.776,-6.911
0.2,649994976.198144,2.7403175831,3971.915494694405,3368.992157414906,0.493,-0.925,-6.069,-7.244
0.2,649994976.198144,2.7403268814,5035.006087879047,3271.1465401826636,0.935,-0.369,-6.367,-7.586
0.2,649994976.198144,2.7403380871,5956.621435290103,3203.3176008528117,1.258,0.046,-6.578,-7.827
0.2,649994976.198144,2.7403516769,6516.283940608428,3168.10815932805,1.427,0.257,-6.687,-7.954
0.2,649994976.198144,2.740367651,6760.829753919818,3154.278240344361,1.492,0.333,-6.733,-8.007
0.2,649994976.198144,2.7403860092,6886.522963442762,3147.748314101317,1.517,0.361,-6.754,-8.031
0.2,649994976.198144,2.7403862476,7311.390834834172,3124.640085806112,1.611,0.466,-6.827,-8.115
0.2,649994976.198144,2.7403874397,5482.769649208536,3238.1726473132535,1.109,-0.141,-6.475,-7.709
0.2,649994976.198144,2.7403900623,3784.425847170932,3391.5638690582196,0.402,-1.039,-6.007,-7.172
0.2,649994976.198144,2.740393877,3083.1879502493534,3478.5640153042373,0.146,-1.359,-5.747,-6.878
0.2,649994976.198144,2.7403995991,3396.2527259040853,3436.370641490611,0.266,-1.208,-5.87,-7.018
0.2,649994976.198144,2.7404072285,4255.984131337431,3340.4117295457277,0.607,-0.786,-6.157,-7.344
0.2,649994976.198144,2.7404170036,5357.966575133417,3244.1430790488475,1.083,-0.177,-6.446,-7.677
0.2,649994976.198144,2.7404289246,6309.57344480193,3177.6056571612876,1.391,0.211,-6.648,-7.91
0.2,649994976.198144,2.7404432297,6870.684400142324,3142.678829879227,1.552,0.399,-6.753,-8.032
0.2,649994976.198144,2.740459919,7095.777679633888,3127.519311407983,1.615,0.47,-6.795,-8.082
0.2,649994976.198144,2.7404792309,7211.074791828998,3120.326216598013,1.648,0.507,-6.814,-8.104
0.2,649994976.198144,2.7404794693,7762.4711662869195,3091.0070812616214,1.773,0.645,-6.906,-8.211
0.2,649994976.198144,2.7404806614,5847.900841444806,3204.0552769132337,1.272,0.061,-6.556,-7.804
0.2,649994976.198144,2.7404830456,4045.7589169744288,3357.3761424295453,0.549,-0.859,-6.094,-7.274
0.2,649994976.198144,2.7404870987,3296.097121774576,3445.08546286579,0.248,-1.233,-5.833,-6.977
0.2,649994976.198144,2.7404925823,3622.4299841669877,3404.081897010009,0.375,-1.074,-5.954,-7.115
0.2,649994976.198144,2.7405002117,4518.559443749222,3310.5488450161934,0.742,-0.623,-6.234,-7.434
0.2,649994976.198144,2.7405097485,5649.369748123023,3217.3625326955976,1.214,-0.012,-6.514,-7.756
0.2,649994976.198144,2.740521431,6606.934480075957,3153.5520245507173,1.513,0.356,-6.708,-7.982
0.2,649994976.198144,2.7405354977,7177.942912713615,3121.044780985781,1.647,0.505,-6.808,-8.098
0.2,649994976.198144,2.7405517101,7413.102413009177,3108.1359027394765,1.702,0.565,-6.848,-8.144
0.2,649994976.198144,2.7405707836,7498.942093324558,3103.1302147534125,1.724,0.59,-6.865,-8.163
0.2,649994976.198144,2.740571022,8222.426499470712,3066.9027151623077,1.828,0.674,-6.976,-8.291
0.2,649994976.198144,2.7405722141,6194.410750767812,3180.5336883295204,1.385,0.201,-6.627,-7.888
0.2,649994976.198144,2.7405748367,4305.266104917106,3331.9616948930816,0.648,-0.738,-6.173,-7.363
0.2,649994976.198144,2.7405788898,3507.5187395256794,3421.369661353676,0.317,-1.146,-5.91,-7.064
0.2,649994976.198144,2.7405848503,3845.9178204535356,3379.8700286198914,0.456,-0.974,-6.031,-7.201
0.2,649994976.198144,2.7405929565,4775.2927365769065,3287.0022396877516,0.866,-0.462,-6.303,-7.514
0.2,649994976.198144,2.7406029701,5929.2532458,3195.2143648082215,1.319,0.118,-6.576,-7.829
0.2,649994976.198144,2.7406151295,6918.309709189362,3131.843125111643,1.61,0.463,-6.764,-8.049
0.2,649994976.198144,2.7406299114,7481.6950051115455,3099.559659837377,1.75,0.619,-6.861,-8.162
0.2,649994976.198144,2.740647316,7709.034690644301,3086.0289794360633,1.802,0.67,-6.9,-8.207
0.2,649994976.198144,2.7406673431,7816.278045883293,3078.93130974161,1.819,0.68,-6.916,-8.226
0.2,649994976.198144,2.7406675816,8689.60429286302,3036.686788465786,1.915,0.724,-7.048,-8.377
0.2,649994976.198144,2.7406687737,6561.452663029057,3149.923452784473,1.545,0.391,-6.701,-7.977
0.2,649994976.198144,2.7406713963,4581.418867145335,3299.8940791083483,0.807,-0.541,-6.254,-7.459
0.2,649994976.198144,2.7406754494,3723.917062545687,3390.002355756172,0.425,-1.014,-5.99,-7.157
0.2,649994976.198144,2.7406811714,4083.1938633269233,3348.883193942221,0.591,-0.81,-6.109,-7.292
0.2,649994976.198144,2.7406888008,5046.612975635282,3258.367010020087,1.033,-0.248,-6.374,-7.598
0.2,649994976.198144,2.740698576,6223.002851691595,3169.56746304349,1.461,0.292,-6.637,-7.903
0.2,649994976.198144,2.7407107353,7211.074791828998,3108.1359027394765,1.725,0.591,-6.819,-8.115
0.2,649994976.198144,2.7407250404,7762.4711662869195,3076.805193759751,1.834,0.692,-6.911,-8.222
0.2,649994976.198144,2.7407419682,7998.342550070284,3064.079293806048,1.865,0.709,-6.948,-8.265
0.2,649994976.198144,2.7407615185,8109.610578538404,3057.736095690077,1.881,0.718,-6.963,-8.283
0.2,649994976.198144,2.7407617569,9162.204901220002,3008.846276645727,1.985,0.762,-7.113,-8.455
0.2,649994976.198144,2.740762949,6918.309709189362,3121.763510848167,1.673,0.533,-6.769,-8.058
0.2,649994976.198144,2.7407650948,4852.88500162121,3271.1465401826636,0.97,-0.332,-6.327,-7.546
0.2,649994976.198144,2.7407689095,3935.5007545577764,3362.791956867804,0.541,-0.872,-6.063,-7.24
0.2,649994976.198144,2.7407741547,4315.19076827765,3322.0028446165034,0.712,-0.664,-6.179,-7.374
0.2,649994976.198144,2.7407813072,5284.452517751803,3232.9575336809407,1.178,-0.064,-6.436,-7.672
0.2,649994976.198144,2.7407901287,6486.344335482381,3146.2990561619904,1.576,0.424,-6.689,-7.967
0.2,649994976.198144,2.7408013344,7464.487584100669,3087.450475587445,1.823,0.694,-6.864,-8.17
0.2,649994976.198144,2.7408144474,8016.78063387679,3057.032106987659,1.892,0.729,-6.952,-8.271
0.2,649994976.198144,2.7408299446,8241.38115013002,3045.089066974223,1.922,0.745,-6.985,-8.31
0.2,649994976.198144,2.740847826,8317.63771102671,3040.1849166294414,1.938,0.754,-6.997,-8.325
0.2,649994976.198144,2.7408480644,9527.96164023652,2985.3826189179604,2.037,0.788,-7.163,-8.515
0.2,649994976.198144,2.7408492565,7211.074791828998,3098.846042012061,1.788,0.659,-6.822,-8.123
0.2,649994976.198144,2.7408514023,5081.594425605605,3247.1324216780226,1.114,-0.148,-6.386,-7.616
0.2,649994976.198144,2.740855217,4120.975190973304,3339.6426598662515,0.647,-0.744,-6.121,-7.309
0.2,649994976.198144,2.7408604622,4508.167045414601,3298.3747715856816,0.835,-0.51,-6.237,-7.442
0.2,649994976.198144,2.7408676147,5508.076964054036,3210.7020105619063,1.285,0.069,-6.489,-7.735
0.2,649994976.198144,2.7408766747,6729.766562843175,3125.35964361334,1.678,0.536,-6.736,-8.024
0.2,649994976.198144,2.7408878803,7709.034690644301,3067.608976917938,1.882,0.731,-6.907,-8.222
0.2,649994976.198144,2.7409009933,8279.421637123345,3037.3860919461044,1.953,0.767,-6.993,-8.322
0.2,649994976.198144,2.740916729,8511.380382023768,3024.8232323912453,1.986,0.784,-7.027,-8.362
0.2,649994976.198144,2.7409346104,8609.937521846008,3019.256430871959,2.002,0.793,-7.041,-8.379
0.2,649994976.198144,2.7409348488,9977.000638225536,2959.3749953433894,2.093,0.814,-7.222,-8.585
0.2,649994976.198144,2.7409358025,7568.328950209744,3071.8499642344627,1.879,0.735,-6.883,-8.196
0.2,649994976.198144,2.7409379482,5345.643593969719,3219.585775790117,1.257,0.031,-6.453,-7.695
0.2,649994976.198144,2.7409412861,4325.138310350088,3312.8364811728147,0.772,-0.594,-6.187,-7.386
0.2,649994976.198144,2.7409460545,4731.512589614803,3272.6533057537135,0.989,-0.314,-6.3,-7.518
0.2,649994976.198144,2.7409522533,5754.399373371566,3185.664236573113,1.414,0.227,-6.547,-7.804
0.2,649994976.198144,2.7409603596,6982.324040771711,3102.4157748720872,1.79,0.661,-6.787,-8.086
0.2,649994976.198144,2.7409703732,7979.946872679769,3045.7903053734226,1.947,0.772,-6.951,-8.276
0.2,649994976.198144,2.7409820557,8531.001140175895,3017.1715226017723,2.016,0.805,-7.034,-8.373
0.2,649994976.198144,2.7409961224,8749.837752274363,3005.3842076633828,2.037,0.813,-7.066,-8.409
0.2,649994976.198144,2.7410120964,8851.156098308356,2999.16251898765,2.049,0.819,-7.079,-8.424
0.2,649994976.198144,2.7410123348,10375.284158180126,2934.945222269793,2.135,0.831,-7.272,-8.644
0.2,649994976.198144,2.7410132885,7870.457896950985,3047.8949896279833,1.952,0.779,-6.935,-8.259
0.2,649994976.198144,2.7410154343,5584.701947368307,3194.4787242086913,1.384,0.187,-6.51,-7.763
0.2,649994976.198144,2.7410187721,4518.559443749222,3288.51630875983,0.913,-0.416,-6.243,-7.453
0.2,649994976.198144,2.7410233021,4931.738039549359,3247.8801876353714,1.135,-0.128,-6.355,-7.585
0.2,649994976.198144,2.7410297394,5984.115950603199,3163.0058853452065,1.547,0.389,-6.597,-7.866
0.2,649994976.198144,2.7410378456,7227.698036021702,3081.0588948997392,1.881,0.747,-6.832,-8.141
0.2,649994976.198144,2.7410476208,8241.38115013002,3025.519803872306,2.014,0.814,-6.991,-8.326
0.2,649994976.198144,2.7410595417,8790.225168308842,2997.091486307045,2.065,0.832,-7.072,-8.418
0.2,649994976.198144,2.74107337,9015.711376059571,2985.3826189179604,2.087,0.841,-7.103,-8.454
0.2,649994976.198144,2.741089344,9099.132726322518,2979.8884028194198,2.099,0.847,-7.115,-8.469
0.2,649994976.198144,2.7410895824,10764.65213629835,2911.3874126187557,2.177,0.849,-7.319,-8.701
0.2,649994976.198144,2.7410905361,8184.647881347895,3023.430570511337,2.027,0.826,-6.985,-8.321
0.2,649994976.198144,2.741092205,5821.032177708716,3169.56746304349,1.522,0.356,-6.564,-7.829
0.2,649994976.198144,2.7410953045,4698.941086052156,3264.3746754294584,1.057,-0.232,-6.296,-7.518
0.2,649994976.198144,2.741099596,5140.436515824259,3224.0368719181865,1.266,0.035,-6.407,-7.647
0.2,649994976.198144,2.7411050797,6208.690342300638,3139.7856482728203,1.66,0.513,-6.644,-7.924
0.2,649994976.198144,2.7411122322,7464.487584100669,3059.1445594864085,1.948,0.791,-6.873,-8.192
0.2,649994976.198144,2.7411212921,8472.274141405964,3004.692272040942,2.069,0.846,-7.029,-8.372
0.2,649994976.198144,2.7411317825,9015.711376059571,2977.1450877105985,2.116,0.862,-7.106,-8.461
0.2,649994976.198144,2.7411441803,9225.71427154763,2965.514145782622,2.139,0.87,-7.136,-8.496
0.2,649994976.198144,2.7411584854,9311.078754678301,2960.0564950758185,2.152,0.877,-7.148,-8.51
0.2,649994976.198144,2.7411587238,11117.317272815919,2888.0186935140546,2.223,0.871,-7.36,-8.753
0.2,649994976.198144,2.7411594391,8452.788451602899,3000.5440024430936,2.088,0.86,-7.029,-8.374
0.2,649994976.198144,2.7411613464,6025.595860743575,3145.5746774318936,1.65,0.502,-6.611,-7.889
0.2,649994976.198144,2.7411642075,4875.284901033865,3241.1564884384366,1.204,-0.047,-6.343,-7.576
0.2,649994976.198144,2.7411682606,5308.8444423098845,3201.10559153497,1.388,0.184,-6.453,-7.704
0.2,649994976.198144,2.7411737442,6397.348354826482,3117.453613031264,1.776,0.641,-6.686,-7.977
0.2,649994976.198144,2.7411806583,7673.614893618185,3038.0855564655426,2.02,0.838,-6.911,-8.239
0.2,649994976.198144,2.7411892414,8669.61875758217,2984.0081159302204,2.125,0.879,-7.062,-8.414
0.2,649994976.198144,2.7411994934,9225.71427154763,2956.650565082943,2.173,0.895,-7.137,-8.501
0.2,649994976.198144,2.7412116528,9440.608762859236,2945.099689996018,2.191,0.901,-7.166,-8.534
0.2,649994976.198144,2.741225481,9506.04793656282,2939.6796094924184,2.201,0.906,-7.176,-8.547
0.2,649994976.198144,2.7412257195,11428.783347897712,2864.1779699065796,2.274,0.91,-7.397,-8.797
0.2,649994976.198144,2.7412264347,8709.635899560806,2976.459653637275,2.151,0.897,-7.068,-8.423
0.2,649994976.198144,2.7412281036,6223.002851691595,3121.044780985781,1.777,0.641,-6.654,-7.944
0.2,649994976.198144,2.7412307262,5023.4258952238715,3217.3625326955976,1.333,0.112,-6.386,-7.629
0.2,649994976.198144,2.7412347794,5482.769649208536,3177.6056571612876,1.524,0.349,-6.495,-7.757
0.2,649994976.198144,2.7412397861,6576.578373554205,3094.567783987401,1.898,0.775,-6.724,-8.027
0.2,649994976.198144,2.7412464619,7870.457896950985,3015.7823836531966,2.094,0.887,-6.944,-8.283
0.2,649994976.198144,2.7412545681,8871.560120379609,2963.466348548615,2.184,0.915,-7.093,-8.453
0.2,649994976.198144,2.7412641048,9418.895965228417,2936.2971257566924,2.22,0.923,-7.166,-8.537
0.2,649994976.198144,2.7412753105,9616.122783836649,2925.499309897072,2.235,0.926,-7.193,-8.569
0.2,649994976.198144,2.7412884235,9705.099672454899,2919.4429974027034,2.245,0.931,-7.203,-8.581
0.2,649994976.198144,2.741288662,11721.953655481304,2840.5340525398005,2.33,0.954,-7.432,-8.84
0.2,649994976.198144,2.7412893772,8953.647655495937,2952.5686217289685,2.215,0.935,-7.106,-8.471
0.2,649994976.198144,2.7412910461,6412.095765851615,3097.419299216581,1.906,0.782,-6.695,-7.997
0.2,649994976.198144,2.7412934303,5176.068319505676,3193.7432529771722,1.463,0.27,-6.426,-7.68
0.2,649994976.198144,2.741297245,5636.376558259543,3153.5520245507173,1.661,0.51,-6.534,-7.808
0.2,649994976.198144,2.7413022518,6760.829753919818,3071.8499642344627,1.984,0.844,-6.761,-8.074
0.2,649994976.198144,2.7413084507,8053.784411990669,2994.3323338672667,2.155,0.924,-6.977,-8.324
0.2,649994976.198144,2.7413160801,9057.326008981998,2942.388401724649,2.239,0.949,-7.122,-8.491
0.2,649994976.198144,2.7413253784,9594.006315159337,2915.4124227107563,2.267,0.95,-7.193,-8.573
0.2,649994976.198144,2.7413361073,9794.89985408699,2904.022654464451,2.283,0.955,-7.22,-8.604
0.2,649994976.198144,2.741348505,9885.53094656939,2898.6781710077653,2.295,0.961,-7.23,-8.617
0.2,649994976.198144,2.7413487434,12022.644346174131,2817.0853167693913,2.392,1.004,-7.466,-8.882
0.2,649994976.198144,2.7413494587,9183.32596483581,2928.8693550290154,2.266,0.964,-7.142,-8.516
0.2,649994976.198144,2.7413508892,6606.934480075957,3071.8499642344627,2.004,0.865,-6.735,-8.048
0.2,649994976.198144,2.7413535118,5321.082592667942,3168.8377271814975,1.612,0.45,-6.466,-7.731
0.2,649994976.198144,2.7413570881,5794.286964268809,3128.959918963571,1.794,0.656,-6.572,-7.859
0.2,649994976.198144,2.7413618565,6934.258060165695,3047.193266663114,2.069,0.903,-6.796,-8.12
0.2,649994976.198144,2.7413678169,8222.426499470712,2970.9818591187295,2.224,0.967,-7.008,-8.365
0.2,649994976.198144,2.7413752079,9225.71427154763,2919.4429974027034,2.291,0.98,-7.15,-8.527
0.2,649994976.198144,2.7413842678,9772.372209558112,2892.6773831200917,2.323,0.985,-7.219,-8.608
0.2,649994976.198144,2.7413945198,9977.000638225536,2881.3764348397,2.342,0.993,-7.244,-8.638
0.2,649994976.198144,2.7414066792,10046.157902783947,2874.7494529363703,2.356,1.004,-7.253,-8.649
0.2,649994976.198144,2.7414069176,12302.68770812381,2790.6154863980737,2.437,1.055,-7.497,-8.919
0.2,649994976.198144,2.7414076328,9397.233105646375,2902.017319380225,2.328,1.0,-7.175,-8.56
0.2,649994976.198144,2.7414090633,6776.41507610675,3045.089066974223,2.102,0.934,-6.772,-8.097
0.2,649994976.198144,2.7414114475,5457.57861091271,3142.678829879227,1.765,0.622,-6.502,-7.781
0.2,649994976.198144,2.7414147854,5942.921586155727,3102.4157748720872,1.943,0.82,-6.609,-7.908
0.2,649994976.198144,2.7414193153,7095.777679633888,3021.3427798432967,2.167,0.971,-6.83,-8.166
0.2,649994976.198144,2.7414250374,8394.599865193974,2945.099689996018,2.298,1.014,-7.038,-8.406
0.2,649994976.198144,2.7414319515,9397.233105646375,2894.00981706504,2.353,1.019,-7.177,-8.565
0.2,649994976.198144,2.7414405346,9931.160484209335,2868.1377126684647,2.388,1.034,-7.244,-8.642
0.2,649994976.198144,2.7414503098,10139.1138573668,2856.274877264105,2.407,1.048,-7.27,-8.672
0.2,649994976.198144,2.7414617538,10232.929922807536,2849.7056273411536,2.423,1.06,-7.28,-8.683
0.2,649994976.198144,2.7414619923,12589.254117941662,2762.4854546315764,2.493,1.115,-7.531,-8.96
0.2,649994976.198144,2.7414624691,9638.290236239705,2874.0875936150214,2.396,1.047,-7.21,-8.605
0.2,649994976.198144,2.7414638996,6950.243175887969,3015.7823836531966,2.206,1.005,-6.811,-8.149
0.2,649994976.198144,2.7414662838,5597.576014951104,3114.583654012132,1.922,0.794,-6.54,-7.833
0.2,649994976.198144,2.7414693832,6095.368972401694,3073.972656082513,2.069,0.935,-6.647,-7.958
0.2,649994976.198144,2.7414739132,7261.0595743515505,2994.3323338672667,2.251,1.024,-6.863,-8.211
0.2,649994976.198144,2.7414793968,8570.378452303692,2919.4429974027034,2.36,1.054,-7.069,-8.446
0.2,649994976.198144,2.7414860725,9571.94071294844,2869.4588430750064,2.418,1.067,-7.204,-8.601
0.2,649994976.198144,2.7414941788,10115.794542598982,2843.806221472982,2.453,1.089,-7.27,-8.675
0.2,649994976.198144,2.7415034771,10303.861204416158,2832.696200280899,2.474,1.103,-7.294,-8.703
0.2,649994976.198144,2.7415144444,10375.284158180126,2826.8320070020036,2.49,1.116,-7.303,-8.714
0.2,649994976.198144,2.7415146828,12852.866599436155,2737.789162430076,2.542,1.173,-7.561,-8.997
0.2,649994976.198144,2.7415151596,9862.79485631211,2848.3935915323636,2.462,1.1,-7.241,-8.645
0.2,649994976.198144,2.7415165901,7128.530301265198,2990.198367170568,2.285,1.055,-6.846,-8.195
0.2,649994976.198144,2.7415189743,5727.960309858292,3088.8726265127525,2.065,0.948,-6.575,-7.881
0.2,649994976.198144,2.7415220737,6237.348354824191,3048.5968741891425,2.164,1.003,-6.681,-8.004
0.2,649994976.198144,2.7415263653,7413.102413009177,2969.6139863991652,2.328,1.073,-6.896,-8.253
0.2,649994976.198144,2.7415318489,8729.713683881113,2895.3428647598066,2.421,1.091,-7.097,-8.484
0.2,649994976.198144,2.7415385246,9749.896377173867,2846.4266703742232,2.481,1.118,-7.229,-8.633
0.2,649994976.198144,2.7415466309,10280.162981264724,2821.629583090804,2.521,1.144,-7.294,-8.707
0.2,649994976.198144,2.7415559292,10495.42428652322,2811.253440841773,2.538,1.158,-7.318,-8.734
0.2,649994976.198144,2.7415668964,10543.86896391258,2806.079687295453,2.549,1.169,-7.327,-8.744
0.2,649994976.198144,2.7415671349,13152.248321922376,2714.5634670227314,2.588,1.226,-7.592,-9.033
0.2,649994976.198144,2.7415676117,10092.528860766834,2824.229597144114,2.532,1.156,-7.273,-8.685
0.2,649994976.198144,2.7415690422,7311.390834834172,2964.1487904584055,2.366,1.106,-6.882,-8.241
0.2,649994976.198144,2.741571188,5874.893525297769,3061.963433690679,2.166,1.019,-6.611,-7.928
0.2,649994976.198144,2.7415742874,6397.348354826482,3022.7344800386522,2.267,1.074,-6.716,-8.052
0.2,649994976.198144,2.7415783405,7585.775750291836,2945.099689996018,2.403,1.121,-6.928,-8.295
0.2,649994976.198144,2.7415835857,8912.509381337459,2874.0875936150214,2.48,1.131,-7.124,-8.52
0.2,649994976.198144,2.741590023,9931.160484209335,2826.8320070020036,2.542,1.167,-7.254,-8.665
0.2,649994976.198144,2.7415976524,10447.202192208004,2804.141985453693,2.568,1.187,-7.317,-8.735
0.2,649994976.198144,2.7416064739,10665.961212302567,2795.1170539918453,2.575,1.194,-7.34,-8.761
0.2,649994976.198144,2.7416169643,10715.193052376071,2791.2581233434744,2.581,1.199,-7.349,-8.77
0.2,649994976.198144,2.7416172028,13427.649611378642,2701.4690729572467,2.623,1.259,-7.62,-9.067
0.2,649994976.198144,2.7416176796,10327.61405761398,2806.725885414676,2.578,1.195,-7.303,-8.72
0.2,649994976.198144,2.7416191101,7498.942093324558,2939.6796094924184,2.439,1.151,-6.917,-8.286
0.2,649994976.198144,2.7416210175,6011.737374832779,3033.891184194272,2.28,1.1,-6.647,-7.977
0.2,649994976.198144,2.7416241169,6546.361740672747,2995.021883751126,2.361,1.135,-6.751,-8.098
0.2,649994976.198144,2.7416279316,7744.617978025183,2921.4603738773317,2.468,1.161,-6.959,-8.336
0.2,649994976.198144,2.7416329384,9078.205301781862,2853.6453620049656,2.541,1.179,-7.151,-8.554
0.2,649994976.198144,2.7416391373,10092.528860766834,2809.9591088425027,2.596,1.211,-7.278,-8.695
0.2,649994976.198144,2.7416465282,10616.955571987242,2789.330656339983,2.606,1.221,-7.34,-8.763
0.2,649994976.198144,2.7416551113,10839.269140212038,2781.6340890110087,2.613,1.227,-7.363,-8.788
0.2,649994976.198144,2.7416651249,10889.300933334333,2779.073288809103,2.618,1.23,-7.371,-8.797
0.2,649994976.198144,2.7416653633,13708.817661648523,2694.014941063669,2.641,1.269,-7.647,-9.098
0.2,649994976.198144,2.7416658401,10568.175092136586,2790.6154863980737,2.615,1.227,-7.333,-8.756
0.2,649994976.198144,2.7416670322,7673.614893618185,2912.0578615296977,2.519,1.2,-6.952,-8.333
0.2,649994976.198144,2.741669178,6165.9500186148225,2997.091486307045,2.423,1.198,-6.685,-8.032
0.2,649994976.198144,2.7416718006,6698.846094165266,2961.419965394361,2.485,1.217,-6.789,-8.15
0.2,649994976.198144,2.7416756153,7925.013304804718,2894.00981706504,2.554,1.214,-6.991,-8.381
0.2,649994976.198144,2.7416806221,9268.298233793494,2833.3485277843724,2.62,1.238,-7.179,-8.589
0.2,649994976.198144,2.7416863441,10280.162981264724,2795.76072758083,2.641,1.247,-7.302,-8.725
0.2,649994976.198144,2.7416934967,10814.339512979375,2779.073288809103,2.645,1.249,-7.362,-8.79
0.2,649994976.198144,2.7417018414,11015.393095414145,2775.8756035343426,2.64,1.239,-7.384,-8.814
0.2,649994976.198144,2.7417113781,11091.748152624008,2780.3533940870425,2.628,1.222,-7.391,-8.821
0.2,649994976.198144,2.7417113781,14028.13704561959,2703.3358263617747,0.471,-2.169,-7.297,-8.922
0.2,649994976.198144,2.7417120934,10814.339512979375,2789.330656339983,0.403,-2.127,-6.997,-8.598
0.2,649994976.198144,2.741713047,7870.457896950985,2898.6781710077653,0.319,-2.079,-6.641,-8.198
0.2,649994976.198144,2.741714716,6309.57344480193,2981.947547925597,0.252,-2.052,-6.393,-7.906
0.2,649994976.198144,2.7417171001,6854.882264526614,2957.331437419893,0.256,-2.077,-6.484,-8.011
0.2,649994976.198144,2.7417201996,8090.958991783821,2903.3540555153136,0.282,-2.115,-6.67,-8.224
0.2,649994976.198144,2.7417242527,9418.895965228417,2854.3025137865798,0.309,-2.149,-6.843,-8.419
0.2,649994976.198144,2.7417292595,10423.174293933036,2826.181179810158,0.317,-2.178,-6.956,-8.544
0.2,649994976.198144,2.74173522,10939.563662720931,2820.97995366343,0.294,-2.212,-7.01,-8.6
0.2,649994976.198144,2.7417421341,11117.317272815919,2833.3485277843724,0.24,-2.258,-7.028,-8.612
0.2,649994976.198144,2.7417502403,11168.632477805611,2858.2486036727378,2.403,0.997,-7.382,-8.79
0.2,649994976.198144,2.7417502403,14190.575216890926,2751.059604990364,-0.247,-2.674,-7.34,-8.842
0.2,649994976.198144,2.7417507172,10964.78196143185,2868.1377126684647,-0.28,-2.611,-7.03,-8.526
0.2,649994976.198144,2.7417516708,7998.342550070284,3017.1715226017723,-0.362,-2.568,-6.663,-8.118
0.2,649994976.198144,2.7417531013,6412.095765851615,3129.6804715636677,-0.414,-2.54,-6.414,-7.811
0.2,649994976.198144,2.7417552471,6966.265141107687,3092.430870441563,-0.386,-2.551,-6.511,-7.928
0.2,649994976.198144,2.7417578697,8203.515443298185,3014.3938842794687,-0.366,-2.582,-6.691,-8.147
0.2,649994976.198144,2.741761446,9549.92586021436,2942.388401724649,-0.317,-2.596,-6.864,-8.344
0.2,649994976.198144,2.7417657375,10543.86896391258,2897.3435877013244,-0.287,-2.61,-6.982,-8.474
0.2,649994976.198144,2.7417707443,11066.237839776653,2879.3867378079763,-0.273,-2.618,-7.038,-8.535
0.2,649994976.198144,2.7417769432,11271.974561755094,2878.723810835251,-0.21,-2.547,-7.048,-8.578
0.2,649994976.198144,2.7417838573,11324.003632355578,2888.0186935140546,-0.226,-2.562,-7.053,-8.581
0.2,649994976.198144,2.7417838573,14454.39770745928,2753.5945917502636,-0.423,-2.783,-7.36,-8.842
0.2,649994976.198144,2.7417843342,11168.632477805611,2890.6798823654744,-0.484,-2.742,-7.049,-8.531
0.2,649994976.198144,2.7417852879,8165.823713585923,3060.5536720536616,-0.593,-2.721,-6.682,-8.108
0.2,649994976.198144,2.7417867184,6531.305526474723,3175.411402891837,-0.658,-2.695,-6.428,-7.795
0.2,649994976.198144,2.7417888641,7095.777679633888,3093.855315451652,-0.538,-2.636,-6.525,-7.937
0.2,649994976.198144,2.7417914867,8336.81184619634,2958.0124665515464,-0.361,-2.559,-6.715,-8.179
0.2,649994976.198144,2.741795063,9682.778562612497,2822.279362118107,-0.185,-2.481,-6.902,-8.386
0.2,649994976.198144,2.7417991161,10690.548792226577,2706.449949038481,-0.007,-2.384,-7.031,-8.52
0.2,649994976.198144,2.7418043613,11194.378834671525,2604.353904551691,0.158,-2.286,-7.109,-8.572
0.2,649994976.198144,2.7418103218,11376.27285823431,2502.0731357669033,0.186,-2.277,-7.132,-8.597
0.2,649994976.198144,2.7418172359,11428.783347897712,2386.7119083399743,0.213,-2.265,-7.141,-8.609
0.2,649994976.198144,2.7418172359,14655.478409559128,2278.2427662500822,-0.251,-2.652,-7.407,-8.853
0.2,649994976.198144,2.7418177128,11324.003632355578,2390.011551484727,0.029,-2.373,-7.127,-8.573
0.2,649994976.198144,2.7418186665,8298.507675144225,2532.211635280831,0.306,-2.069,-6.779,-8.218
0.2,649994976.198144,2.741820097,6637.43070401909,2639.9761293548113,0.442,-1.894,-6.525,-7.961
0.2,649994976.198144,2.7418222427,7211.074791828998,2596.5697902737847,0.425,-1.936,-6.623,-8.055
0.2,649994976.198144,2.7418251038,8452.788451602899,2513.6221806228114,0.297,-2.083,-6.801,-8.242
0.2,649994976.198144,2.7418289185,9794.89985408699,2436.688423459584,0.179,-2.22,-6.967,-8.413
0.2,649994976.198144,2.74183321,10789.467222298297,2382.8680818473026,0.094,-2.313,-7.074,-8.521
0.2,649994976.198144,2.7418386936,11271.974561755094,2351.7979095583682,0.048,-2.36,-7.123,-8.571
0.2,649994976.198144,2.7418448925,11455.129414455361,2335.0705148630773,0.035,-2.375,-7.14,-8.588
0.2,649994976.198144,2.7418520451,11508.003889444357,2323.271687848626,0.034,-2.378,-7.145,-8.593
0.2,649994976.198144,2.7418520451,14791.083881682072,2195.83650097319,-0.332,-2.702,-7.414,-8.852
0.2,649994976.198144,2.7418525219,11455.129414455361,2324.3418403925252,-0.053,-2.424,-7.136,-8.574
0.2,649994976.198144,2.7418534756,8413.951416451948,2488.2843036797008,0.245,-2.109,-6.793,-8.227
0.2,649994976.198144,2.7418549061,6729.766562843175,2611.5599512614453,0.418,-1.908,-6.542,-7.966
0.2,649994976.198144,2.7418568134,7294.575102545687,2559.1750909098946,0.368,-1.973,-6.635,-8.064
0.2,649994976.198144,2.7418596745,8550.667128846831,2463.2018382351575,0.238,-2.121,-6.814,-8.25
0.2,649994976.198144,2.7418630123,9885.53094656939,2375.7459632190103,0.112,-2.261,-6.977,-8.416
0.2,649994976.198144,2.7418673038,10864.256236170644,2315.7944032250753,0.011,-2.363,-7.079,-8.519
0.2,649994976.198144,2.7418723106,11376.27285823431,2280.3420720004187,-0.036,-2.411,-7.128,-8.568
0.2,649994976.198144,2.7418782711,11561.122421920982,2257.3557110214474,-0.051,-2.427,-7.146,-8.585
0.2,649994976.198144,2.7418851852,11614.486138403438,2237.175218795274,-0.056,-2.432,-7.151,-8.591
0.2,649994976.198144,2.7418851852,14996.84835502374,2112.5159662408537,-0.398,-2.746,-7.426,-8.859
0.2,649994976.198144,2.7418856621,11641.260294104908,2236.145198722521,-0.121,-2.468,-7.149,-8.582
0.2,649994976.198144,2.7418863773,8550.667128846831,2394.969571502182,0.206,-2.139,-6.814,-8.246
0.2,649994976.198144,2.7418878078,6839.116472814293,2517.676927758854,0.404,-1.921,-6.563,-7.989
0.2,649994976.198144,2.7418897152,7413.102413009177,2471.1550750182187,0.337,-1.997,-6.655,-8.084
0.2,649994976.198144,2.7418923378,8689.60429286302,2383.4168206731547,0.203,-2.148,-6.832,-8.265
0.2,649994976.198144,2.7418954372,10023.052380779005,2304.0929760558447,0.054,-2.299,-6.988,-8.422
0.2,649994976.198144,2.7418994904,10990.05839432522,2252.1639369563018,-0.045,-2.399,-7.089,-8.523
0.2,649994976.198144,2.7419042587,11481.536214968817,2225.8710447930052,-0.092,-2.447,-7.137,-8.572
0.2,649994976.198144,2.7419097424,11668.09617060963,2214.623989405674,-0.111,-2.465,-7.154,-8.588
0.2,649994976.198144,2.7419161797,11721.953655481304,2209.0217909438684,-0.123,-2.474,-7.159,-8.593
0.2,649994976.198144,2.7419161797,15240.527537972906,2071.094903660335,-0.416,-2.763,-7.442,-8.874
0.2,649994976.198144,2.7419166565,11830.41555725166,2204.9563679696334,-0.141,-2.487,-7.166,-8.599
0.2,649994976.198144,2.7419173717,8709.635899560806,2377.9351141013517,0.19,-2.156,-6.835,-8.267
0.2,649994976.198144,2.7419185638,6950.243175887969,2513.6221806228114,0.392,-1.935,-6.584,-8.011
0.2,649994976.198144,2.7419204712,7550.922276654342,2463.2018382351575,0.32,-2.015,-6.675,-8.105
0.2,649994976.198144,2.7419228554,8810.488730080138,2369.7361843832095,0.171,-2.172,-6.847,-8.279
0.2,649994976.198144,2.7419259548,10139.1138573668,2288.758657062362,0.015,-2.327,-7.0,-8.432
0.2,649994976.198144,2.7419297695,11117.317272815919,2238.2057133190374,-0.088,-2.428,-7.099,-8.53
0.2,649994976.198144,2.7419340611,11614.486138403438,2215.133984137194,-0.14,-2.478,-7.145,-8.576
0.2,649994976.198144,2.7419395447,11776.059735208066,2208.513203434825,-0.162,-2.498,-7.161,-8.591
0.2,649994976.198144,2.7419455051,11830.41555725166,2208.513203434825,-0.175,-2.507,-7.166,-8.595
0.2,649994976.198144,2.7419455051,15417.004529495583,2069.1882329488953,-0.465,-2.796,-7.454,-8.883
0.2,649994976.198144,2.741945982,11994.993031493781,2201.9122114844777,-0.191,-2.522,-7.18,-8.608
0.2,649994976.198144,2.7419466972,8851.156098308356,2373.5588276908966,0.138,-2.193,-6.85,-8.279
0.2,649994976.198144,2.7419478893,7063.175542629623,2510.1518809953313,0.358,-1.962,-6.602,-8.028
0.2,649994976.198144,2.7419495583,7655.966069112562,2463.7690767217696,0.284,-2.042,-6.692,-8.12
0.2,649994976.198144,2.7419519424,8933.054837332953,2376.840286624876,0.123,-2.205,-6.86,-8.288
0.2,649994976.198144,2.7419548035,10256.519262514079,2303.0321463117607,-0.029,-2.357,-7.011,-8.438
0.2,649994976.198144,2.7419583797,11220.18454301963,2260.9970723504707,-0.129,-2.455,-7.107,-8.534
0.2,649994976.198144,2.7419626713,11694.9939101987,2249.572529422522,-0.178,-2.503,-7.152,-8.579
0.2,649994976.198144,2.7419676781,11857.687481671597,2257.3557110214474,-0.198,-2.521,-7.168,-8.594
0.2,649994976.198144,2.7419734001,11912.420080273738,2276.6695553309037,-0.207,-2.528,-7.172,-8.598
0.2,649994976.198144,2.7419734001,15631.47642640954,2128.139045982711,-0.501,-2.822,-7.466,-8.892
0.2,649994976.198144,2.741973877,12133.888504649762,2265.1658212545954,-0.228,-2.549,-7.193,-8.619
0.2,649994976.198144,2.7419745922,8974.287945007482,2445.118997825041,0.1,-2.22,-6.864,-8.29
0.2,649994976.198144,2.7419755459,7144.963260755135,2594.7767627672424,0.33,-1.983,-6.614,-8.038
0.2,649994976.198144,2.7419772148,7726.805850957021,2549.1770505091204,0.259,-2.06,-6.701,-8.126
0.2,649994976.198144,2.7419793606,8953.647655495937,2460.3676041476274,0.103,-2.218,-6.862,-8.288
0.2,649994976.198144,2.7419819832,10209.394837076808,2385.6130399309136,-0.04,-2.361,-7.005,-8.43
0.2,649994976.198144,2.741985321,11066.237839776653,2349.091860180365,-0.128,-2.449,-7.093,-8.519
0.2,649994976.198144,2.7419891357,11455.129414455361,2352.8812019381685,-0.165,-2.486,-7.13,-8.556
0.2,649994976.198144,2.7419939041,11534.53257821093,2391.1124459496955,-0.172,-2.493,-7.136,-8.562
0.2,649994976.198144,2.7419991493,11481.536214968817,2460.3676041476274,-0.167,-2.487,-7.131,-8.557
0.2,649994976.198144,2.7419991493,15100.801541641493,2241.300045782328,-0.466,-2.786,-7.43,-8.856
0.2,649994976.198144,2.7419996262,11776.059735208066,2434.4451836922017,-0.195,-2.515,-7.159,-8.585
0.2,649994976.198144,2.7420003414,8729.713683881113,2682.2546076084946,0.016,-2.268,-6.819,-8.271
0.2,649994976.198144,2.7420015335,6950.243175887969,2873.4258866748714,-0.162,-2.318,-6.546,-8.016
0.2,649994976.198144,2.7420032024,7516.228940182053,2775.2365081372714,-0.037,-2.251,-6.632,-8.088
0.2,649994976.198144,2.7420053482,8709.635899560806,2624.218543384442,0.091,-2.216,-6.826,-8.249
0.2,649994976.198144,2.7420082092,9931.160484209335,2502.0731357669033,-0.011,-2.332,-6.975,-8.401
0.2,649994976.198144,2.7420115471,10789.467222298297,2434.4451836922017,-0.101,-2.421,-7.065,-8.491
0.2,649994976.198144,2.7420156002,11194.378834671525,2416.017078893503,-0.141,-2.461,-7.105,-8.531
0.2,649994976.198144,2.742020607,11297.959146727977,2437.249556303923,-0.152,-2.472,-7.116,-8.541
0.2,649994976.198144,2.7420260906,11297.959146727977,2494.5947269429535,-0.152,-2.472,-7.115,-8.541
0.2,649994976.198144,2.7420260906,14962.356560944329,2344.228815319923,-0.456,-2.776,-7.42,-8.845
0.2,649994976.198144,2.742026329,11668.09617060963,2477.9925708234186,-0.187,-2.507,-7.15,-8.576
0.2,649994976.198144,2.7420270443,8669.61875758217,2649.110048516273,0.062,-2.234,-6.817,-8.25
0.2,649994976.198144,2.742027998,6902.398038402419,2791.2581233434744,0.027,-2.18,-6.54,-8.003
0.2,649994976.198144,2.7420294285,7464.487584100669,2752.3268065191837,0.016,-2.211,-6.626,-8.075
0.2,649994976.198144,2.7420310974,8649.67918775693,2682.8722906666635,0.024,-2.26,-6.81,-8.263
0.2,649994976.198144,2.7420334816,9840.111057611335,2636.938493453466,-0.062,-2.362,-6.956,-8.383
0.2,649994976.198144,2.7420363426,10690.548792226577,2637.545740889343,-0.151,-2.451,-7.045,-8.472
0.2,649994976.198144,2.7420399189,11091.748152624008,2689.676199564987,-0.254,-2.535,-7.078,-8.535
0.2,649994976.198144,2.742043972,11220.18454301963,2792.543841237339,-0.489,-2.702,-7.07,-8.534
0.2,649994976.198144,2.742048502,11220.18454301963,2954.6088884793385,-0.869,-2.97,-7.05,-8.503
